%!PS-Adobe-2.0 EPSF-2.0
%%BoundingBox:  0 0 567 280
%%Title: : TMVA comparison BDT
%%Creator: ROOT Version 6.12/06
%%CreationDate: Thu May 17 23:47:51 2018
%%DocumentNeededResources: ProcSet (FontSetInit)
%%EndComments
%%BeginProlog
80 dict begin
/s {stroke} def /l {lineto} def /m {moveto} def /t {translate} def
/r {rotate} def /rl {roll}  def /R {repeat} def
/d {rlineto} def /rm {rmoveto} def /gr {grestore} def /f {eofill} def
/c {setrgbcolor} def /black {0 setgray} def /sd {setdash} def
/cl {closepath} def /sf {scalefont setfont} def /lw {setlinewidth} def
/box {m dup 0 exch d exch 0 d 0 exch neg d cl} def
/NC{systemdict begin initclip end}def/C{NC box clip newpath}def
/bl {box s} def /bf {gsave box gsave f grestore 1 lw [] 0 sd s grestore} def /Y { 0 exch d} def /X { 0 d} def 
/K {{pop pop 0 moveto} exch kshow} bind def
/ita {/ang 15 def gsave [1 0 ang dup sin exch cos div 1 0 0] concat} def 
/mp {newpath /y exch def /x exch def} def
/side {[w .77 mul w .23 mul] .385 w mul sd w 0 l currentpoint t -144 r} def
/mr {mp x y w2 0 360 arc} def /m24 {mr s} def /m20 {mr f} def
/mb {mp x y w2 add m w2 neg 0 d 0 w neg d w 0 d 0 w d cl} def
/mt {mp x y w2 add m w2 neg w neg d w 0 d cl} def
/w4 {w 4 div} def
/w6 {w 6 div} def
/w8 {w 8 div} def
/m21 {mb f} def /m25 {mb s} def /m22 {mt f} def /m26{mt s} def
/m23 {mp x y w2 sub m w2 w d w neg 0 d cl f} def
/m27 {mp x y w2 add m w3 neg w2 neg d w3 w2 neg d w3 w2 d cl s} def
/m28 {mp x w2 sub y w2 sub w3 add m w3 0 d  0 w3 neg d w3 0 d 0 w3 d w3 0 d  0 w3 d w3 neg 0 d 0 w3 d w3 neg 0 d 0 w3 neg d w3 neg 0 d cl s } def
/m29 {mp gsave x w2 sub y w2 add w3 sub m currentpoint t 4 {side} repeat cl fill gr} def
/m30 {mp gsave x w2 sub y w2 add w3 sub m currentpoint t 4 {side} repeat cl s gr} def
/m31 {mp x y w2 sub m 0 w d x w2 sub y m w 0 d x w2 sub y w2 add m w w neg d x w2 sub y w2 sub m w w d s} def
/m32 {mp x y w2 sub m w2 w d w neg 0 d cl s} def
/m33 {mp x y w2 add m w3 neg w2 neg d w3 w2 neg d w3 w2 d cl f} def
/m34 {mp x w2 sub y w2 sub w3 add m w3 0 d  0 w3 neg d w3 0 d 0 w3 d w3 0 d  0 w3 d w3 neg 0 d 0 w3 d w3 neg 0 d 0 w3 neg d w3 neg 0 d cl f } def
/m35 {mp x y w2 add m w2 neg w2 neg d w2 w2 neg d w2 w2 d w2 neg w2 d x y w2 sub m 0 w d x w2 sub y m w 0 d s} def
/m36 {mb x w2 sub y w2 add m w w neg d x w2 sub y w2 sub m w w d s} def
/m37 {mp x y m w4 neg w2 d w4 neg w2 neg d w2 0 d  w4 neg w2 neg d w2 0 d w4 neg w2 d w2 0 d w4 neg w2 d w4 neg w2 neg d cl s} def
/m38 {mp x w4 sub y w2 add m w4 neg w4 neg d 0 w2 neg d w4 w4 neg d w2 0 d w4 w4 d 0 w2 d w4 neg w4 d w2 neg 0 d x y w2 sub m 0 w d x w2 sub y m w 0 d cl s} def
/m39 {mp x y m w4 neg w2 d w4 neg w2 neg d w2 0 d  w4 neg w2 neg d w2 0 d w4 neg w2 d w2 0 d w4 neg w2 d w4 neg w2 neg d cl f} def
/m40 {mp x y m w4 w2 d w4 w4 neg d w2 neg w4 neg d w2 w4 neg d w4 neg w4 neg d w4 neg w2 d w4 neg w2 neg d w4 neg w4 d w2 w4 d w2 neg w4 d w4 w4 d w4 w2 neg d cl s} def
/m41 {mp x y m w4 w2 d w4 w4 neg d w2 neg w4 neg d w2 w4 neg d w4 neg w4 neg d w4 neg w2 d w4 neg w2 neg d w4 neg w4 d w2 w4 d w2 neg w4 d w4 w4 d w4 w2 neg d cl f} def
/m42 {mp x y w2 add m w8 neg w2 -3 4 div mul d w2 -3 4 div mul w8 neg d w2 3 4 div mul w8 neg d w8 w2 -3 4 div mul d w8 w2 3 4 div mul d w2 3 4 div mul w8 d w2 -3 4 div mul w8 d w8 neg w2 3 4 div mul d cl s} def
/m43 {mp x y w2 add m w8 neg w2 -3 4 div mul d w2 -3 4 div mul w8 neg d w2 3 4 div mul w8 neg d w8 w2 -3 4 div mul d w8 w2 3 4 div mul d w2 3 4 div mul w8 d w2 -3 4 div mul w8 d w8 neg w2 3 4 div mul d cl f} def
/m44 {mp x y m w6 neg w2 d w2 2 3 div mul 0 d w6 neg w2 neg d w2 w6 d 0 w2 -2 3 div mul d w2 neg w6 d w6 w2 neg d w2 -2 3 div mul 0 d w6 w2 d w2 neg w6 neg d 0 w2 2 3 div mul d w2 w6 neg d cl s} def
/m45 {mp x y m w6 neg w2 d w2 2 3 div mul 0 d w6 neg w2 neg d w2 w6 d 0 w2 -2 3 div mul d w2 neg w6 d w6 w2 neg d w2 -2 3 div mul 0 d w6 w2 d w2 neg w6 neg d 0 w2 2 3 div mul d w2 w6 neg d cl f} def
/m46 {mp x y w4 add m w4 neg w4 d w4 neg w4 neg d  w4 w4 neg d w4 neg w4 neg d w4 w4 neg d w4 w4 d w4 w4 neg d w4 w4 d w4 neg w4 d w4 w4 d w4 neg w4 d w4 neg w4 neg d cl s} def
/m47 {mp x y w4 add m w4 neg w4 d w4 neg w4 neg d w4 w4 neg d w4 neg w4 neg d  w4 w4 neg d w4 w4 d w4 w4 neg d w4 w4 d w4 neg w4 d w4 w4 d w4 neg w4 d w4 neg w4 neg d cl f} def
/m48 {mp x y w4 add m w4 neg w4 d w4 neg w4 neg d w4 w4 neg d  w4 neg w4 neg d w4 w4 neg d w4 w4 d w4 w4 neg d w4 w4 d w4 neg w4 d w4 w4 d w4 neg w4 d w4 neg w4 neg d  w4 w4 neg d w4 neg w4 neg d w4 neg w4 d w4 w4 d cl f} def
/m49 {mp x w2 sub w3 add y w2 sub w3 add m  0 w3 neg d w3 0 d 0 w3 d w3 0 d 0 w3 d w3 neg 0 d 0 w3 d w3 neg 0 d 0 w3 neg d w3 neg 0 d 0 w3 neg d w3 0 d 0 w3 d w3 0 d 0 w3 neg d w3 neg 0 d cl f } def
/m2 {mp x y w2 sub m 0 w d x w2 sub y m w 0 d s} def
/m5 {mp x w2 sub y w2 sub m w w d x w2 sub y w2 add m w w neg d s} def
%%IncludeResource: ProcSet (FontSetInit)
%%IncludeResource: font Times-Roman
%%IncludeResource: font Times-Italic
%%IncludeResource: font Times-Bold
%%IncludeResource: font Times-BoldItalic
%%IncludeResource: font Helvetica
%%IncludeResource: font Helvetica-Oblique
%%IncludeResource: font Helvetica-Bold
%%IncludeResource: font Helvetica-BoldOblique
%%IncludeResource: font Courier
%%IncludeResource: font Courier-Oblique
%%IncludeResource: font Courier-Bold
%%IncludeResource: font Courier-BoldOblique
%%IncludeResource: font Symbol
%%IncludeResource: font ZapfDingbats
/reEncode {exch findfont dup length dict begin {1 index /FID eq  {pop pop} {def} ifelse } forall /Encoding exch def currentdict end dup /FontName get exch definefont pop } def [/Times-Bold /Times-Italic /Times-BoldItalic /Helvetica /Helvetica-Oblique
 /Helvetica-Bold /Helvetica-BoldOblique /Courier /Courier-Oblique /Courier-Bold /Courier-BoldOblique /Times-Roman /AvantGarde-Book /AvantGarde-BookOblique /AvantGarde-Demi /AvantGarde-DemiOblique /Bookman-Demi /Bookman-DemiItalic /Bookman-Light
 /Bookman-LightItalic /Helvetica-Narrow /Helvetica-Narrow-Bold /Helvetica-Narrow-BoldOblique /Helvetica-Narrow-Oblique /NewCenturySchlbk-Roman /NewCenturySchlbk-Bold /NewCenturySchlbk-BoldItalic /NewCenturySchlbk-Italic /Palatino-Bold
 /Palatino-BoldItalic /Palatino-Italic /Palatino-Roman ] {ISOLatin1Encoding reEncode } forall
%%EndProlog
%%BeginSetup
%%EndSetup
newpath  gsave  .25 .25 scale  gsave  0 0 t 0.490196 0.545098 0.615686 c[  ] 0 sd 3 lw 0.941176 0.941176 0.941176 c 2268 1119 0 0 bf black 1 1 0.992157 c 1916 873 238 134 bf black 1916 873 238 134 bl 1 1 0.992157 c 1916 873 238 134 bf black 1916 873
 238 134 bl 238 134 m 1916 X s 411 163 m -29 Y s 465 148 m -14 Y s 519 148 m -14 Y s 573 148 m -14 Y s 627 148 m -14 Y s 681 163 m -29 Y s 735 148 m -14 Y s 789 148 m -14 Y s 843 148 m -14 Y s 897 148 m -14 Y s 951 163 m -29 Y s 1006 148 m -14 Y s
 1060 148 m -14 Y s 1114 148 m -14 Y s 1168 148 m -14 Y s 1222 163 m -29 Y s 1276 148 m -14 Y s 1330 148 m -14 Y s 1384 148 m -14 Y s 1438 148 m -14 Y s 1492 163 m -29 Y s 1546 148 m -14 Y s 1600 148 m -14 Y s 1655 148 m -14 Y s 1709 148 m -14 Y s
 1763 163 m -29 Y s 1817 148 m -14 Y s 1871 148 m -14 Y s 1925 148 m -14 Y s 1979 148 m -14 Y s 2033 163 m -29 Y s 411 163 m -29 Y s 356 148 m -14 Y s 302 148 m -14 Y s 248 148 m -14 Y s 2033 163 m -29 Y s 2087 148 m -14 Y s 2141 148 m -14 Y s
 gsave  2268 1119 0 0 C 390.693 87.0565 t 0 r /Helvetica-Bold findfont 42.4666 sf 0 0 m (0.4) show NC gr 
 gsave  2268 1119 0 0 C 367.336 87.0565 t 0 r /Symbol findfont 42.4666 sf 0 0 m (-) show NC gr 
 gsave  2268 1119 0 0 C 660.356 87.0565 t 0 r /Helvetica-Bold findfont 42.4666 sf 0 0 m (0.3) show NC gr 
 gsave  2268 1119 0 0 C 636.999 87.0565 t 0 r /Symbol findfont 42.4666 sf 0 0 m (-) show NC gr 
 gsave  2268 1119 0 0 C 932.142 87.0565 t 0 r /Helvetica-Bold findfont 42.4666 sf 0 0 m (0.2) show NC gr 
 gsave  2268 1119 0 0 C 910.909 87.0565 t 0 r /Symbol findfont 42.4666 sf 0 0 m (-) show NC gr 
 gsave  2268 1119 0 0 C 1203.93 87.0565 t 0 r /Helvetica-Bold findfont 42.4666 sf 0 0 m (0.1) show NC gr 
 gsave  2268 1119 0 0 C 1182.69 87.0565 t 0 r /Symbol findfont 42.4666 sf 0 0 m (-) show NC gr 
 gsave  2268 1119 0 0 C 1477.84 87.0565 t 0 r /Helvetica-Bold findfont 42.4666 sf 0 0 m (0) show NC gr 
 gsave  2268 1119 0 0 C 1734.76 87.0565 t 0 r /Helvetica-Bold findfont 42.4666 sf 0 0 m (0.1) show NC gr 
 gsave  2268 1119 0 0 C 2002.3 87.0565 t 0 r /Helvetica-Bold findfont 42.4666 sf 0 0 m (0.2) show NC gr 
 gsave  2268 1119 0 0 C 1836.68 19.11 t 0 r /Helvetica-Bold findfont 46.7133 sf 0 0 m (BDT response) show NC gr  238 1007 m 1916 X s 411 979 m 28 Y s 465 993 m 14 Y s 519 993 m 14 Y s 573 993 m 14 Y s 627 993 m 14 Y s 681 979 m 28 Y s 735 993 m 14 Y
 s 789 993 m 14 Y s 843 993 m 14 Y s 897 993 m 14 Y s 951 979 m 28 Y s 1006 993 m 14 Y s 1060 993 m 14 Y s 1114 993 m 14 Y s 1168 993 m 14 Y s 1222 979 m 28 Y s 1276 993 m 14 Y s 1330 993 m 14 Y s 1384 993 m 14 Y s 1438 993 m 14 Y s 1492 979 m 28 Y s
 1546 993 m 14 Y s 1600 993 m 14 Y s 1655 993 m 14 Y s 1709 993 m 14 Y s 1763 979 m 28 Y s 1817 993 m 14 Y s 1871 993 m 14 Y s 1925 993 m 14 Y s 1979 993 m 14 Y s 2033 979 m 28 Y s 411 979 m 28 Y s 356 993 m 14 Y s 302 993 m 14 Y s 248 993 m 14 Y s
 2033 979 m 28 Y s 2087 993 m 14 Y s 2141 993 m 14 Y s 238 134 m 873 Y s 291 134 m -53 X s 265 155 m -27 X s 265 175 m -27 X s 265 195 m -27 X s 265 215 m -27 X s 291 235 m -53 X s 265 256 m -27 X s 265 276 m -27 X s 265 296 m -27 X s 265 316 m -27 X
 s 291 337 m -53 X s 265 357 m -27 X s 265 377 m -27 X s 265 397 m -27 X s 265 418 m -27 X s 291 438 m -53 X s 265 458 m -27 X s 265 478 m -27 X s 265 499 m -27 X s 265 519 m -27 X s 291 539 m -53 X s 265 559 m -27 X s 265 580 m -27 X s 265 600 m -27
 X s 265 620 m -27 X s 291 640 m -53 X s 265 660 m -27 X s 265 681 m -27 X s 265 701 m -27 X s 265 721 m -27 X s 291 741 m -53 X s 265 762 m -27 X s 265 782 m -27 X s 265 802 m -27 X s 265 822 m -27 X s 291 843 m -53 X s 265 863 m -27 X s 265 883 m
 -27 X s 265 903 m -27 X s 265 924 m -27 X s 291 944 m -53 X s 291 944 m -53 X s 265 964 m -27 X s 265 984 m -27 X s 265 1004 m -27 X s
 gsave  2268 1119 0 0 C 186.853 118.906 t 0 r /Helvetica-Bold findfont 42.4666 sf 0 0 m (0) show NC gr 
 gsave  2268 1119 0 0 C 186.853 218.703 t 0 r /Helvetica-Bold findfont 42.4666 sf 0 0 m (5) show NC gr 
 gsave  2268 1119 0 0 C 163.496 320.623 t 0 r /Helvetica-Bold findfont 42.4666 sf 0 0 m (10) show NC gr 
 gsave  2268 1119 0 0 C 163.496 422.543 t 0 r /Helvetica-Bold findfont 42.4666 sf 0 0 m (15) show NC gr 
 gsave  2268 1119 0 0 C 163.496 522.339 t 0 r /Helvetica-Bold findfont 42.4666 sf 0 0 m (20) show NC gr 
 gsave  2268 1119 0 0 C 163.496 624.259 t 0 r /Helvetica-Bold findfont 42.4666 sf 0 0 m (25) show NC gr 
 gsave  2268 1119 0 0 C 163.496 726.179 t 0 r /Helvetica-Bold findfont 42.4666 sf 0 0 m (30) show NC gr 
 gsave  2268 1119 0 0 C 163.496 825.975 t 0 r /Helvetica-Bold findfont 42.4666 sf 0 0 m (35) show NC gr 
 gsave  2268 1119 0 0 C 163.496 927.895 t 0 r /Helvetica-Bold findfont 42.4666 sf 0 0 m (40) show NC gr 
 gsave  2268 1119 0 0 C 55.2066 953.375 t 90 r /Helvetica-Bold findfont 46.7133 sf 0 0 m (dx) show NC gr 
 gsave  2268 1119 0 0 C 33.9733 938.512 t 90 r /Helvetica-Bold findfont 31.8499 sf 0 0 m ( ) show NC gr 
 gsave  2268 1119 0 0 C 53.0833 923.649 t 90 r /Helvetica-Bold findfont 46.7133 sf 0 0 m (/) show NC gr 
 gsave  2268 1119 0 0 C 31.85 908.785 t 90 r /Helvetica-Bold findfont 31.8499 sf 0 0 m ( ) show NC gr 
 gsave  2268 1119 0 0 C 53.0833 732.549 t 90 r /Helvetica-Bold findfont 46.7133 sf 0 0 m (\(1/N\) dN) show NC gr  2154 134 m 873 Y s 2101 134 m 53 X s 2128 155 m 26 X s 2128 175 m 26 X s 2128 195 m 26 X s 2128 215 m 26 X s 2101 235 m 53 X s 2128 256
 m 26 X s 2128 276 m 26 X s 2128 296 m 26 X s 2128 316 m 26 X s 2101 337 m 53 X s 2128 357 m 26 X s 2128 377 m 26 X s 2128 397 m 26 X s 2128 418 m 26 X s 2101 438 m 53 X s 2128 458 m 26 X s 2128 478 m 26 X s 2128 499 m 26 X s 2128 519 m 26 X s 2101
 539 m 53 X s 2128 559 m 26 X s 2128 580 m 26 X s 2128 600 m 26 X s 2128 620 m 26 X s 2101 640 m 53 X s 2128 660 m 26 X s 2128 681 m 26 X s 2128 701 m 26 X s 2128 721 m 26 X s 2101 741 m 53 X s 2128 762 m 26 X s 2128 782 m 26 X s 2128 802 m 26 X s
 2128 822 m 26 X s 2101 843 m 53 X s 2128 863 m 26 X s 2128 883 m 26 X s 2128 903 m 26 X s 2128 924 m 26 X s 2101 944 m 53 X s 2101 944 m 53 X s 2128 964 m 26 X s 2128 984 m 26 X s 2128 1004 m 26 X s 0.490196 0.545098 0.615686 c 1 1 1 c 0.490196
 0.545098 0.615686 c 907 134 238 873 bl 238 873 m 907 X s 1145 873 m 134 Y s 1145 1007 m -907 X s 238 1007 m -134 Y s black
 gsave  2268 1119 0 0 C 418.296 959.745 t 0 r /Helvetica-Bold findfont 53.0832 sf 0 0 m (Signal \(test sample\)) show NC gr  0.49 0.6 0.82 c 265 950 m 127 X 47 Y -127 X f 0 0 0.933333 c 265 997 m 127 X s 265 950 m 127 X s 392 950 m 47 Y s 265 950 m
 47 Y s black
 gsave  2268 1119 0 0 C 418.296 891.799 t 0 r /Helvetica-Bold findfont 53.0832 sf 0 0 m (Background \(test sample\)) show NC gr  1 0 0 c 392 921 m -38 -38 d s 353 930 m -47 -47 d s 305 930 m -40 -39 d s 0 0 0.933333 c 1 0 0 c 265 930 m 127 X s 265
 883 m 127 X s 392 883 m 47 Y s 265 883 m 47 Y s 0 0 0.933333 c 0.49 0.6 0.82 c black 0.49 0.6 0.82 c 2154 134 m -1916 X 288 X 1 Y 47 X -1 Y 96 X 1 Y 96 X -1 Y 96 X 1 Y 48 X -1 Y 48 X 3 Y 48 X -2 Y 95 X 1 Y 48 X 1 Y 96 X 3 Y 48 X 3 Y 48 X 8 Y 48 X -5
 Y 48 X 4 Y 48 X 4 Y 48 X 7 Y 47 X 11 Y 48 X 3 Y 48 X 27 Y 48 X 50 Y 48 X 14 Y 48 X -82 Y 48 X 29 Y 48 X 20 Y 48 X 53 Y 48 X -70 Y 48 X 17 Y 47 X -27 Y 48 X f 0 0 0.933333 c 0.49 0.6 0.82 c 0 0 0.933333 c 238 134 m 288 X 1 Y 47 X -1 Y 96 X 1 Y 96 X
 -1 Y 96 X 1 Y 48 X -1 Y 48 X 3 Y 48 X -2 Y 95 X 1 Y 48 X 1 Y 96 X 3 Y 48 X 3 Y 48 X 8 Y 48 X -5 Y 48 X 4 Y 48 X 4 Y 48 X 7 Y 47 X 11 Y 48 X 3 Y 48 X 27 Y 48 X 50 Y 48 X 14 Y 48 X -82 Y 48 X 29 Y 48 X 20 Y 48 X 53 Y 48 X -70 Y 48 X 17 Y 47 X -27 Y 48
 X s 1 0 0 c black 1 0 0 c 2107 135 m -1 Y s 2059 135 m -1 Y s 2011 135 m -1 -1 d s 1963 135 m -1 -1 d s 1915 135 m -1 -1 d s 1867 136 m -1 -2 d s 1819 135 m -1 -1 d s 1773 138 m -3 -4 d s 1727 139 m -5 -5 d s 1678 138 m -4 -4 d s 1630 139 m -4 -5 d
 s 1583 140 m -6 -6 d s 1535 140 m -6 -6 d s 1487 140 m -6 -6 d s 1440 141 m -7 -7 d s 1393 142 m -8 -8 d s 1345 142 m -8 -8 d s 1298 143 m -9 -9 d s 1251 145 m -10 -11 d s 1202 144 m -9 -10 d s 1155 145 m -11 -11 d s 1106 144 m -10 -10 d s 1062 148
 m -14 -14 d s 1016 150 m -16 -16 d s 962 144 m -10 -10 d s 913 144 m -9 -10 d s 870 148 m -14 -14 d s 820 147 m -12 -13 d s 778 153 m -18 -19 d s 724 147 m -12 -13 d s 678 148 m -15 -14 d s 633 152 m -18 -18 d s 584 151 m -17 -17 d s 545 160 m -26
 -26 d s 502 165 m -31 -31 d s 450 162 m -27 -28 d s 412 171 m -37 -37 d s 378 185 m -51 -51 d s 312 168 m -33 -34 d s 286 190 m -48 -48 d s 286 238 m -48 -48 d s 286 286 m -48 -48 d s 286 334 m -48 -48 d s 286 382 m -48 -48 d s 286 430 m -48 -48 d s
 286 478 m -48 -47 d s 286 527 m -48 -48 d s 286 575 m -48 -48 d s 286 623 m -48 -48 d s 286 671 m -48 -48 d s 286 719 m -48 -48 d s 286 767 m -48 -48 d s 277 806 m -39 -39 d s 238 806 m 48 X -638 Y 48 X 17 Y 48 X -14 Y 48 X -9 Y 48 X 3 Y 48 X -5 Y
 47 X -9 Y 48 X 1 Y 48 X -4 Y 48 X -1 Y 48 X 6 Y 48 X -6 Y 48 X 1 Y 48 X -4 Y 96 X 6 Y 48 X -2 Y 47 X -4 Y 48 X 1 Y 48 X -1 Y 48 X 1 Y 48 X -2 Y 48 X -1 Y 96 X -1 Y 48 X -1 Y 143 X -1 Y 48 X -1 Y 48 X 1 Y 48 X -1 Y 48 X -3 Y 48 X 1 Y 48 X -1 Y 239 X
 s 0.490196 0.545098 0.615686 c 1 1 1 c 0.490196 0.545098 0.615686 c 952 134 1202 873 bl 1202 873 m 952 X s 2154 873 m 134 Y s 2154 1007 m -952 X s 1202 1007 m -134 Y s black
 gsave  2268 1119 0 0 C 1295.23 959.745 t 0 r /Helvetica-Bold findfont 53.0832 sf 0 0 m (Signal \(training sample\)) show NC gr  0 0 0.933333 c /w 12 def /w2 {w 2 div} def /w3 {w 3 div} def 1250 974 m20 black
 gsave  2268 1119 0 0 C 1295.23 891.799 t 0 r /Helvetica-Bold findfont 53.0832 sf 0 0 m (Background \(training sample\)) show NC gr  1 0 0 c 1250 906 m20 0 0 0.933333 c 1 1 1 c 0 0 0.933333 c 717 135 m 20 X s 745 135 m 20 X s 717 130 m 9 Y s 765 130
 m 9 Y s 741 135 m20 765 135 m 20 X s 793 135 m 20 X s 765 130 m 9 Y s 813 130 m 9 Y s 789 135 m20 813 135 m 20 X s 841 135 m 20 X s 813 130 m 9 Y s 861 130 m 9 Y s 837 135 m20 861 135 m 20 X s 889 135 m 20 X s 861 130 m 9 Y s 909 130 m 9 Y s 885 135
 m20 909 135 m 19 X s 937 135 m 20 X s 909 131 m 8 Y s 957 131 m 8 Y s 933 135 m20 957 135 m 19 X s 985 135 m 20 X s 957 131 m 8 Y s 1005 131 m 8 Y s 981 135 m20 1005 136 m 19 X s 1033 136 m 20 X s 1005 132 m 8 Y s 1053 132 m 8 Y s 1029 136 m20 1053
 137 m 19 X s 1081 137 m 19 X s 1053 133 m 8 Y s 1100 133 m 8 Y s 1076 137 m20 1100 137 m 20 X s 1129 137 m 19 X s 1100 133 m 8 Y s 1148 133 m 8 Y s 1124 137 m20 1148 137 m 20 X s 1177 137 m 19 X s 1148 133 m 8 Y s 1196 133 m 8 Y s 1172 137 m20 1196
 138 m 20 X s 1224 138 m 20 X s 1196 134 m 8 Y s 1244 134 m 8 Y s 1220 138 m20 1244 140 m 20 X s 1272 140 m 20 X s 1244 136 m 8 Y s 1292 136 m 8 Y s 1268 140 m20 1292 142 m 20 X s 1320 142 m 20 X s 1292 138 m 8 Y s 1340 138 m 8 Y s 1316 142 m20 1340
 144 m 20 X s 1368 144 m 20 X s 1340 139 m 9 Y s 1388 139 m 9 Y s 1364 144 m20 1388 147 m 20 X s 1416 147 m 20 X s 1388 143 m 9 Y s 1436 143 m 9 Y s 1412 147 m20 1436 150 m 19 X s 1464 150 m 20 X s 1436 146 m 8 Y s 1484 146 m 8 Y s 1460 150 m20 1484
 157 m 19 X s 1512 157 m 20 X s 1484 153 m 9 Y s 1532 153 m 9 Y s 1508 157 m20 1532 163 m 19 X s 1560 163 m 19 X s 1532 159 m 8 Y s 1579 159 m 8 Y s 1556 163 m20 1579 174 m 20 X s 1608 174 m 19 X s 1579 170 m 9 Y s 1627 170 m 9 Y s 1603 174 m20 1627
 180 m 20 X s 1656 180 m 19 X s 1627 176 m 8 Y s 1675 176 m 8 Y s 1651 180 m20 1675 194 m 20 X s 1703 194 m 20 X s 1675 190 m 8 Y s 1723 190 m 8 Y s 1699 194 m20 1747 248 m 1 Y s 1747 257 m 1 Y s 1723 253 m 20 X s 1751 253 m 20 X s 1743 248 m 8 X s
 1743 258 m 8 X s 1723 249 m 8 Y s 1771 249 m 8 Y s 1747 253 m20 1795 257 m 1 Y s 1795 267 m 1 Y s 1771 262 m 20 X s 1799 262 m 20 X s 1791 257 m 8 X s 1791 268 m 8 X s 1771 258 m 9 Y s 1819 258 m 9 Y s 1795 262 m20 1819 180 m 20 X s 1847 180 m 20 X
 s 1819 176 m 8 Y s 1867 176 m 8 Y s 1843 180 m20 1867 203 m 20 X s 1895 203 m 20 X s 1867 199 m 8 Y s 1915 199 m 8 Y s 1891 203 m20 1939 224 m 1 Y s 1939 233 m 1 Y s 1915 229 m 20 X s 1943 229 m 20 X s 1935 224 m 8 X s 1935 234 m 8 X s 1915 225 m 8
 Y s 1963 225 m 8 Y s 1939 229 m20 1987 279 m 2 Y s 1987 289 m 2 Y s 1963 285 m 19 X s 1991 285 m 20 X s 1982 279 m 9 X s 1982 291 m 9 X s 1963 281 m 8 Y s 2011 281 m 8 Y s 1987 285 m20 2035 215 m s 2035 224 m s 2011 220 m 19 X s 2039 220 m 20 X s
 2030 215 m 9 X s 2030 224 m 9 X s 2011 215 m 9 Y s 2059 215 m 9 Y s 2035 220 m20 2082 229 m s 2082 238 m s 2059 234 m 19 X s 2087 234 m 19 X s 2078 229 m 9 X s 2078 238 m 9 X s 2059 229 m 9 Y s 2106 229 m 9 Y s 2082 234 m20 2130 216 m s 2130 225 m s
 2106 221 m 20 X s 2135 221 m 19 X s 2126 216 m 9 X s 2126 225 m 9 X s 2106 216 m 9 Y s 2154 216 m 9 Y s 2130 221 m20 1 0 0 c 1 1 1 c 1 0 0 c 238 452 m 20 X s 266 452 m 20 X s 238 448 m 8 Y s 286 448 m 8 Y s 262 452 m20 286 195 m 20 X s 314 195 m 20
 X s 286 191 m 8 Y s 334 191 m 8 Y s 310 195 m20 334 220 m 20 X s 362 220 m 20 X s 334 216 m 8 Y s 382 216 m 8 Y s 358 220 m20 382 202 m 20 X s 410 202 m 20 X s 382 197 m 9 Y s 430 197 m 9 Y s 406 202 m20 430 181 m 19 X s 458 181 m 20 X s 430 177 m 9
 Y s 478 177 m 9 Y s 454 181 m20 478 185 m 19 X s 506 185 m 20 X s 478 180 m 9 Y s 526 180 m 9 Y s 502 185 m20 526 181 m 19 X s 554 181 m 19 X s 526 177 m 8 Y s 573 177 m 8 Y s 549 181 m20 573 166 m 20 X s 602 166 m 19 X s 573 162 m 8 Y s 621 162 m 8
 Y s 597 166 m20 621 166 m 20 X s 650 166 m 19 X s 621 161 m 9 Y s 669 161 m 9 Y s 645 166 m20 669 158 m 20 X s 697 158 m 20 X s 669 154 m 8 Y s 717 154 m 8 Y s 693 158 m20 717 158 m 20 X s 745 158 m 20 X s 717 154 m 9 Y s 765 154 m 9 Y s 741 158 m20
 765 166 m 20 X s 793 166 m 20 X s 765 162 m 8 Y s 813 162 m 8 Y s 789 166 m20 813 155 m 20 X s 841 155 m 20 X s 813 151 m 8 Y s 861 151 m 8 Y s 837 155 m20 861 157 m 20 X s 889 157 m 20 X s 861 153 m 9 Y s 909 153 m 9 Y s 885 157 m20 909 150 m 19 X
 s 937 150 m 20 X s 909 146 m 8 Y s 957 146 m 8 Y s 933 150 m20 957 151 m 19 X s 985 151 m 20 X s 957 147 m 8 Y s 1005 147 m 8 Y s 981 151 m20 1005 160 m 19 X s 1033 160 m 20 X s 1005 156 m 8 Y s 1053 156 m 8 Y s 1029 160 m20 1053 159 m 19 X s 1081
 159 m 19 X s 1053 155 m 8 Y s 1100 155 m 8 Y s 1076 159 m20 1100 152 m 20 X s 1129 152 m 19 X s 1100 147 m 9 Y s 1148 147 m 9 Y s 1124 152 m20 1148 154 m 20 X s 1177 154 m 19 X s 1148 150 m 8 Y s 1196 150 m 8 Y s 1172 154 m20 1196 150 m 20 X s 1224
 150 m 20 X s 1196 146 m 9 Y s 1244 146 m 9 Y s 1220 150 m20 1244 153 m 20 X s 1272 153 m 20 X s 1244 149 m 8 Y s 1292 149 m 8 Y s 1268 153 m20 1292 150 m 20 X s 1320 150 m 20 X s 1292 146 m 8 Y s 1340 146 m 8 Y s 1316 150 m20 1340 150 m 20 X s 1368
 150 m 20 X s 1340 146 m 9 Y s 1388 146 m 9 Y s 1364 150 m20 1388 148 m 20 X s 1416 148 m 20 X s 1388 143 m 9 Y s 1436 143 m 9 Y s 1412 148 m20 1436 147 m 19 X s 1464 147 m 20 X s 1436 143 m 8 Y s 1484 143 m 8 Y s 1460 147 m20 1484 144 m 19 X s 1512
 144 m 20 X s 1484 140 m 9 Y s 1532 140 m 9 Y s 1508 144 m20 1532 145 m 19 X s 1560 145 m 19 X s 1532 141 m 8 Y s 1579 141 m 8 Y s 1556 145 m20 1579 142 m 20 X s 1608 142 m 19 X s 1579 138 m 9 Y s 1627 138 m 9 Y s 1603 142 m20 1627 143 m 20 X s 1656
 143 m 19 X s 1627 139 m 9 Y s 1675 139 m 9 Y s 1651 143 m20 1675 141 m 20 X s 1703 141 m 20 X s 1675 137 m 8 Y s 1723 137 m 8 Y s 1699 141 m20 1723 143 m 20 X s 1751 143 m 20 X s 1723 139 m 9 Y s 1771 139 m 9 Y s 1747 143 m20 1771 140 m 20 X s 1799
 140 m 20 X s 1771 136 m 8 Y s 1819 136 m 8 Y s 1795 140 m20 1819 136 m 20 X s 1847 136 m 20 X s 1819 132 m 8 Y s 1867 132 m 8 Y s 1843 136 m20 1867 136 m 20 X s 1895 136 m 20 X s 1867 132 m 8 Y s 1915 132 m 8 Y s 1891 136 m20 1915 136 m 20 X s 1943
 136 m 20 X s 1915 132 m 9 Y s 1963 132 m 9 Y s 1939 136 m20 1963 136 m 19 X s 1991 136 m 20 X s 1963 132 m 9 Y s 2011 132 m 9 Y s 1987 136 m20 2011 135 m 19 X s 2039 135 m 20 X s 2011 130 m 9 Y s 2059 130 m 9 Y s 2035 135 m20 2059 135 m 19 X s 2087
 135 m 19 X s 2059 131 m 8 Y s 2106 131 m 8 Y s 2082 135 m20 2106 135 m 20 X s 2135 135 m 19 X s 2106 130 m 9 Y s 2154 130 m 9 Y s 2130 135 m20 black
 gsave  2268 1119 0 0 C 272.126 828.056 t 0 r /Helvetica-Bold findfont 33.9733 sf 0 0 m (Kolmogorov\255Smirnov test: signal \(background\) probability = 0.053 \(    0\)) show NC gr  238 134 m 1916 X s 411 163 m -29 Y s 465 148 m -14 Y s 519 148 m -14
 Y s 573 148 m -14 Y s 627 148 m -14 Y s 681 163 m -29 Y s 735 148 m -14 Y s 789 148 m -14 Y s 843 148 m -14 Y s 897 148 m -14 Y s 951 163 m -29 Y s 1006 148 m -14 Y s 1060 148 m -14 Y s 1114 148 m -14 Y s 1168 148 m -14 Y s 1222 163 m -29 Y s 1276
 148 m -14 Y s 1330 148 m -14 Y s 1384 148 m -14 Y s 1438 148 m -14 Y s 1492 163 m -29 Y s 1546 148 m -14 Y s 1600 148 m -14 Y s 1655 148 m -14 Y s 1709 148 m -14 Y s 1763 163 m -29 Y s 1817 148 m -14 Y s 1871 148 m -14 Y s 1925 148 m -14 Y s 1979
 148 m -14 Y s 2033 163 m -29 Y s 411 163 m -29 Y s 356 148 m -14 Y s 302 148 m -14 Y s 248 148 m -14 Y s 2033 163 m -29 Y s 2087 148 m -14 Y s 2141 148 m -14 Y s 238 1007 m 1916 X s 411 979 m 28 Y s 465 993 m 14 Y s 519 993 m 14 Y s 573 993 m 14 Y s
 627 993 m 14 Y s 681 979 m 28 Y s 735 993 m 14 Y s 789 993 m 14 Y s 843 993 m 14 Y s 897 993 m 14 Y s 951 979 m 28 Y s 1006 993 m 14 Y s 1060 993 m 14 Y s 1114 993 m 14 Y s 1168 993 m 14 Y s 1222 979 m 28 Y s 1276 993 m 14 Y s 1330 993 m 14 Y s 1384
 993 m 14 Y s 1438 993 m 14 Y s 1492 979 m 28 Y s 1546 993 m 14 Y s 1600 993 m 14 Y s 1655 993 m 14 Y s 1709 993 m 14 Y s 1763 979 m 28 Y s 1817 993 m 14 Y s 1871 993 m 14 Y s 1925 993 m 14 Y s 1979 993 m 14 Y s 2033 979 m 28 Y s 411 979 m 28 Y s 356
 993 m 14 Y s 302 993 m 14 Y s 248 993 m 14 Y s 2033 979 m 28 Y s 2087 993 m 14 Y s 2141 993 m 14 Y s 238 134 m 873 Y s 291 134 m -53 X s 265 155 m -27 X s 265 175 m -27 X s 265 195 m -27 X s 265 215 m -27 X s 291 235 m -53 X s 265 256 m -27 X s 265
 276 m -27 X s 265 296 m -27 X s 265 316 m -27 X s 291 337 m -53 X s 265 357 m -27 X s 265 377 m -27 X s 265 397 m -27 X s 265 418 m -27 X s 291 438 m -53 X s 265 458 m -27 X s 265 478 m -27 X s 265 499 m -27 X s 265 519 m -27 X s 291 539 m -53 X s
 265 559 m -27 X s 265 580 m -27 X s 265 600 m -27 X s 265 620 m -27 X s 291 640 m -53 X s 265 660 m -27 X s 265 681 m -27 X s 265 701 m -27 X s 265 721 m -27 X s 291 741 m -53 X s 265 762 m -27 X s 265 782 m -27 X s 265 802 m -27 X s 265 822 m -27 X
 s 291 843 m -53 X s 265 863 m -27 X s 265 883 m -27 X s 265 903 m -27 X s 265 924 m -27 X s 291 944 m -53 X s 291 944 m -53 X s 265 964 m -27 X s 265 984 m -27 X s 265 1004 m -27 X s 2154 134 m 873 Y s 2101 134 m 53 X s 2128 155 m 26 X s 2128 175 m
 26 X s 2128 195 m 26 X s 2128 215 m 26 X s 2101 235 m 53 X s 2128 256 m 26 X s 2128 276 m 26 X s 2128 296 m 26 X s 2128 316 m 26 X s 2101 337 m 53 X s 2128 357 m 26 X s 2128 377 m 26 X s 2128 397 m 26 X s 2128 418 m 26 X s 2101 438 m 53 X s 2128 458
 m 26 X s 2128 478 m 26 X s 2128 499 m 26 X s 2128 519 m 26 X s 2101 539 m 53 X s 2128 559 m 26 X s 2128 580 m 26 X s 2128 600 m 26 X s 2128 620 m 26 X s 2101 640 m 53 X s 2128 660 m 26 X s 2128 681 m 26 X s 2128 701 m 26 X s 2128 721 m 26 X s 2101
 741 m 53 X s 2128 762 m 26 X s 2128 782 m 26 X s 2128 802 m 26 X s 2128 822 m 26 X s 2101 843 m 53 X s 2128 863 m 26 X s 2128 883 m 26 X s 2128 903 m 26 X s 2128 924 m 26 X s 2101 944 m 53 X s 2101 944 m 53 X s 2128 964 m 26 X s 2128 984 m 26 X s
 2128 1004 m 26 X s
 gsave  2268 1119 0 0 C 2211.02 128.684 t 90 r /Helvetica-Bold findfont 31.8499 sf 0 0 m (U/O\255flow \(S,B\): \(0.0, 0.0\)% / \(0.0, 0.0\)%) show NC gr  0.490196 0.545098 0.615686 c 0.364706 0.419608 0.490196 c 1587 63 23 1050 bf 0.490196 0.545098
 0.615686 c 23 1050 m 1587 X s 1610 1050 m 63 Y s 1610 1113 m -1587 X s 23 1113 m -63 Y s 1 1 1 c black 1 1 1 c
 gsave  2268 1119 0 0 C 282.403 1068.04 t 0 r /Helvetica-Bold findfont 50.9599 sf 0 0 m (TMVA overtraining check for classifier: BDT) show NC gr 
 gr  gr showpage
end
%%EOF
