%!PS-Adobe-2.0 EPSF-2.0
%%BoundingBox:  0 0 567 322
%%Title: : TMVA comparison Fisher
%%Creator: ROOT Version 6.12/06
%%CreationDate: Thu May 17 23:48:52 2018
%%DocumentNeededResources: ProcSet (FontSetInit)
%%EndComments
%%BeginProlog
80 dict begin
/s {stroke} def /l {lineto} def /m {moveto} def /t {translate} def
/r {rotate} def /rl {roll}  def /R {repeat} def
/d {rlineto} def /rm {rmoveto} def /gr {grestore} def /f {eofill} def
/c {setrgbcolor} def /black {0 setgray} def /sd {setdash} def
/cl {closepath} def /sf {scalefont setfont} def /lw {setlinewidth} def
/box {m dup 0 exch d exch 0 d 0 exch neg d cl} def
/NC{systemdict begin initclip end}def/C{NC box clip newpath}def
/bl {box s} def /bf {gsave box gsave f grestore 1 lw [] 0 sd s grestore} def /Y { 0 exch d} def /X { 0 d} def 
/K {{pop pop 0 moveto} exch kshow} bind def
/ita {/ang 15 def gsave [1 0 ang dup sin exch cos div 1 0 0] concat} def 
/mp {newpath /y exch def /x exch def} def
/side {[w .77 mul w .23 mul] .385 w mul sd w 0 l currentpoint t -144 r} def
/mr {mp x y w2 0 360 arc} def /m24 {mr s} def /m20 {mr f} def
/mb {mp x y w2 add m w2 neg 0 d 0 w neg d w 0 d 0 w d cl} def
/mt {mp x y w2 add m w2 neg w neg d w 0 d cl} def
/w4 {w 4 div} def
/w6 {w 6 div} def
/w8 {w 8 div} def
/m21 {mb f} def /m25 {mb s} def /m22 {mt f} def /m26{mt s} def
/m23 {mp x y w2 sub m w2 w d w neg 0 d cl f} def
/m27 {mp x y w2 add m w3 neg w2 neg d w3 w2 neg d w3 w2 d cl s} def
/m28 {mp x w2 sub y w2 sub w3 add m w3 0 d  0 w3 neg d w3 0 d 0 w3 d w3 0 d  0 w3 d w3 neg 0 d 0 w3 d w3 neg 0 d 0 w3 neg d w3 neg 0 d cl s } def
/m29 {mp gsave x w2 sub y w2 add w3 sub m currentpoint t 4 {side} repeat cl fill gr} def
/m30 {mp gsave x w2 sub y w2 add w3 sub m currentpoint t 4 {side} repeat cl s gr} def
/m31 {mp x y w2 sub m 0 w d x w2 sub y m w 0 d x w2 sub y w2 add m w w neg d x w2 sub y w2 sub m w w d s} def
/m32 {mp x y w2 sub m w2 w d w neg 0 d cl s} def
/m33 {mp x y w2 add m w3 neg w2 neg d w3 w2 neg d w3 w2 d cl f} def
/m34 {mp x w2 sub y w2 sub w3 add m w3 0 d  0 w3 neg d w3 0 d 0 w3 d w3 0 d  0 w3 d w3 neg 0 d 0 w3 d w3 neg 0 d 0 w3 neg d w3 neg 0 d cl f } def
/m35 {mp x y w2 add m w2 neg w2 neg d w2 w2 neg d w2 w2 d w2 neg w2 d x y w2 sub m 0 w d x w2 sub y m w 0 d s} def
/m36 {mb x w2 sub y w2 add m w w neg d x w2 sub y w2 sub m w w d s} def
/m37 {mp x y m w4 neg w2 d w4 neg w2 neg d w2 0 d  w4 neg w2 neg d w2 0 d w4 neg w2 d w2 0 d w4 neg w2 d w4 neg w2 neg d cl s} def
/m38 {mp x w4 sub y w2 add m w4 neg w4 neg d 0 w2 neg d w4 w4 neg d w2 0 d w4 w4 d 0 w2 d w4 neg w4 d w2 neg 0 d x y w2 sub m 0 w d x w2 sub y m w 0 d cl s} def
/m39 {mp x y m w4 neg w2 d w4 neg w2 neg d w2 0 d  w4 neg w2 neg d w2 0 d w4 neg w2 d w2 0 d w4 neg w2 d w4 neg w2 neg d cl f} def
/m40 {mp x y m w4 w2 d w4 w4 neg d w2 neg w4 neg d w2 w4 neg d w4 neg w4 neg d w4 neg w2 d w4 neg w2 neg d w4 neg w4 d w2 w4 d w2 neg w4 d w4 w4 d w4 w2 neg d cl s} def
/m41 {mp x y m w4 w2 d w4 w4 neg d w2 neg w4 neg d w2 w4 neg d w4 neg w4 neg d w4 neg w2 d w4 neg w2 neg d w4 neg w4 d w2 w4 d w2 neg w4 d w4 w4 d w4 w2 neg d cl f} def
/m42 {mp x y w2 add m w8 neg w2 -3 4 div mul d w2 -3 4 div mul w8 neg d w2 3 4 div mul w8 neg d w8 w2 -3 4 div mul d w8 w2 3 4 div mul d w2 3 4 div mul w8 d w2 -3 4 div mul w8 d w8 neg w2 3 4 div mul d cl s} def
/m43 {mp x y w2 add m w8 neg w2 -3 4 div mul d w2 -3 4 div mul w8 neg d w2 3 4 div mul w8 neg d w8 w2 -3 4 div mul d w8 w2 3 4 div mul d w2 3 4 div mul w8 d w2 -3 4 div mul w8 d w8 neg w2 3 4 div mul d cl f} def
/m44 {mp x y m w6 neg w2 d w2 2 3 div mul 0 d w6 neg w2 neg d w2 w6 d 0 w2 -2 3 div mul d w2 neg w6 d w6 w2 neg d w2 -2 3 div mul 0 d w6 w2 d w2 neg w6 neg d 0 w2 2 3 div mul d w2 w6 neg d cl s} def
/m45 {mp x y m w6 neg w2 d w2 2 3 div mul 0 d w6 neg w2 neg d w2 w6 d 0 w2 -2 3 div mul d w2 neg w6 d w6 w2 neg d w2 -2 3 div mul 0 d w6 w2 d w2 neg w6 neg d 0 w2 2 3 div mul d w2 w6 neg d cl f} def
/m46 {mp x y w4 add m w4 neg w4 d w4 neg w4 neg d  w4 w4 neg d w4 neg w4 neg d w4 w4 neg d w4 w4 d w4 w4 neg d w4 w4 d w4 neg w4 d w4 w4 d w4 neg w4 d w4 neg w4 neg d cl s} def
/m47 {mp x y w4 add m w4 neg w4 d w4 neg w4 neg d w4 w4 neg d w4 neg w4 neg d  w4 w4 neg d w4 w4 d w4 w4 neg d w4 w4 d w4 neg w4 d w4 w4 d w4 neg w4 d w4 neg w4 neg d cl f} def
/m48 {mp x y w4 add m w4 neg w4 d w4 neg w4 neg d w4 w4 neg d  w4 neg w4 neg d w4 w4 neg d w4 w4 d w4 w4 neg d w4 w4 d w4 neg w4 d w4 w4 d w4 neg w4 d w4 neg w4 neg d  w4 w4 neg d w4 neg w4 neg d w4 neg w4 d w4 w4 d cl f} def
/m49 {mp x w2 sub w3 add y w2 sub w3 add m  0 w3 neg d w3 0 d 0 w3 d w3 0 d 0 w3 d w3 neg 0 d 0 w3 d w3 neg 0 d 0 w3 neg d w3 neg 0 d 0 w3 neg d w3 0 d 0 w3 d w3 0 d 0 w3 neg d w3 neg 0 d cl f } def
/m2 {mp x y w2 sub m 0 w d x w2 sub y m w 0 d s} def
/m5 {mp x w2 sub y w2 sub m w w d x w2 sub y w2 add m w w neg d s} def
%%IncludeResource: ProcSet (FontSetInit)
%%IncludeResource: font Times-Roman
%%IncludeResource: font Times-Italic
%%IncludeResource: font Times-Bold
%%IncludeResource: font Times-BoldItalic
%%IncludeResource: font Helvetica
%%IncludeResource: font Helvetica-Oblique
%%IncludeResource: font Helvetica-Bold
%%IncludeResource: font Helvetica-BoldOblique
%%IncludeResource: font Courier
%%IncludeResource: font Courier-Oblique
%%IncludeResource: font Courier-Bold
%%IncludeResource: font Courier-BoldOblique
%%IncludeResource: font Symbol
%%IncludeResource: font ZapfDingbats
/reEncode {exch findfont dup length dict begin {1 index /FID eq  {pop pop} {def} ifelse } forall /Encoding exch def currentdict end dup /FontName get exch definefont pop } def [/Times-Bold /Times-Italic /Times-BoldItalic /Helvetica /Helvetica-Oblique
 /Helvetica-Bold /Helvetica-BoldOblique /Courier /Courier-Oblique /Courier-Bold /Courier-BoldOblique /Times-Roman /AvantGarde-Book /AvantGarde-BookOblique /AvantGarde-Demi /AvantGarde-DemiOblique /Bookman-Demi /Bookman-DemiItalic /Bookman-Light
 /Bookman-LightItalic /Helvetica-Narrow /Helvetica-Narrow-Bold /Helvetica-Narrow-BoldOblique /Helvetica-Narrow-Oblique /NewCenturySchlbk-Roman /NewCenturySchlbk-Bold /NewCenturySchlbk-BoldItalic /NewCenturySchlbk-Italic /Palatino-Bold
 /Palatino-BoldItalic /Palatino-Italic /Palatino-Roman ] {ISOLatin1Encoding reEncode } forall
%%EndProlog
%%BeginSetup
%%EndSetup
newpath  gsave  .25 .25 scale  gsave  0 0 t 0.490196 0.545098 0.615686 c[  ] 0 sd 3 lw 0.941176 0.941176 0.941176 c 2268 1287 0 0 bf black 1 1 0.992157 c 1916 1004 238 154 bf black 1916 1004 238 154 bl 1 1 0.992157 c 1916 1004 238 154 bf black 1916
 1004 238 154 bl 238 154 m 1916 X s 331 187 m -33 Y s 374 171 m -17 Y s 417 171 m -17 Y s 460 171 m -17 Y s 502 171 m -17 Y s 545 187 m -33 Y s 588 171 m -17 Y s 631 171 m -17 Y s 674 171 m -17 Y s 716 171 m -17 Y s 759 187 m -33 Y s 802 171 m -17 Y
 s 845 171 m -17 Y s 888 171 m -17 Y s 930 171 m -17 Y s 973 187 m -33 Y s 1016 171 m -17 Y s 1059 171 m -17 Y s 1102 171 m -17 Y s 1145 171 m -17 Y s 1187 187 m -33 Y s 1230 171 m -17 Y s 1273 171 m -17 Y s 1316 171 m -17 Y s 1359 171 m -17 Y s 1401
 187 m -33 Y s 1444 171 m -17 Y s 1487 171 m -17 Y s 1530 171 m -17 Y s 1573 171 m -17 Y s 1615 187 m -33 Y s 1658 171 m -17 Y s 1701 171 m -17 Y s 1744 171 m -17 Y s 1787 171 m -17 Y s 1829 187 m -33 Y s 1872 171 m -17 Y s 1915 171 m -17 Y s 1958
 171 m -17 Y s 2001 171 m -17 Y s 2043 187 m -33 Y s 331 187 m -33 Y s 288 171 m -17 Y s 246 171 m -17 Y s 2043 187 m -33 Y s 2086 171 m -17 Y s 2129 171 m -17 Y s
 gsave  2268 1287 0 0 C 328.302 99.3013 t 0 r /Helvetica-Bold findfont 48.6374 sf 0 0 m (5) show NC gr 
 gsave  2268 1287 0 0 C 303.983 99.3013 t 0 r /Symbol findfont 48.6374 sf 0 0 m (-) show NC gr 
 gsave  2268 1287 0 0 C 543.117 99.3013 t 0 r /Helvetica-Bold findfont 48.6374 sf 0 0 m (4) show NC gr 
 gsave  2268 1287 0 0 C 518.798 99.3013 t 0 r /Symbol findfont 48.6374 sf 0 0 m (-) show NC gr 
 gsave  2268 1287 0 0 C 755.906 99.3013 t 0 r /Helvetica-Bold findfont 48.6374 sf 0 0 m (3) show NC gr 
 gsave  2268 1287 0 0 C 731.587 99.3013 t 0 r /Symbol findfont 48.6374 sf 0 0 m (-) show NC gr 
 gsave  2268 1287 0 0 C 970.72 99.3013 t 0 r /Helvetica-Bold findfont 48.6374 sf 0 0 m (2) show NC gr 
 gsave  2268 1287 0 0 C 946.402 99.3013 t 0 r /Symbol findfont 48.6374 sf 0 0 m (-) show NC gr 
 gsave  2268 1287 0 0 C 1187.56 99.3013 t 0 r /Helvetica-Bold findfont 48.6374 sf 0 0 m (1) show NC gr 
 gsave  2268 1287 0 0 C 1161.22 99.3013 t 0 r /Symbol findfont 48.6374 sf 0 0 m (-) show NC gr 
 gsave  2268 1287 0 0 C 1386.16 99.3013 t 0 r /Helvetica-Bold findfont 48.6374 sf 0 0 m (0) show NC gr 
 gsave  2268 1287 0 0 C 1605.03 99.3013 t 0 r /Helvetica-Bold findfont 48.6374 sf 0 0 m (1) show NC gr 
 gsave  2268 1287 0 0 C 1813.77 99.3013 t 0 r /Helvetica-Bold findfont 48.6374 sf 0 0 m (2) show NC gr 
 gsave  2268 1287 0 0 C 2028.58 99.3013 t 0 r /Helvetica-Bold findfont 48.6374 sf 0 0 m (3) show NC gr 
 gsave  2268 1287 0 0 C 1732.71 24.3187 t 0 r /Helvetica-Bold findfont 54.717 sf 0 0 m (Fisher response) show NC gr  238 1158 m 1916 X s 331 1126 m 32 Y s 374 1142 m 16 Y s 417 1142 m 16 Y s 460 1142 m 16 Y s 502 1142 m 16 Y s 545 1126 m 32 Y s 588
 1142 m 16 Y s 631 1142 m 16 Y s 674 1142 m 16 Y s 716 1142 m 16 Y s 759 1126 m 32 Y s 802 1142 m 16 Y s 845 1142 m 16 Y s 888 1142 m 16 Y s 930 1142 m 16 Y s 973 1126 m 32 Y s 1016 1142 m 16 Y s 1059 1142 m 16 Y s 1102 1142 m 16 Y s 1145 1142 m 16 Y
 s 1187 1126 m 32 Y s 1230 1142 m 16 Y s 1273 1142 m 16 Y s 1316 1142 m 16 Y s 1359 1142 m 16 Y s 1401 1126 m 32 Y s 1444 1142 m 16 Y s 1487 1142 m 16 Y s 1530 1142 m 16 Y s 1573 1142 m 16 Y s 1615 1126 m 32 Y s 1658 1142 m 16 Y s 1701 1142 m 16 Y s
 1744 1142 m 16 Y s 1787 1142 m 16 Y s 1829 1126 m 32 Y s 1872 1142 m 16 Y s 1915 1142 m 16 Y s 1958 1142 m 16 Y s 2001 1142 m 16 Y s 2043 1126 m 32 Y s 331 1126 m 32 Y s 288 1142 m 16 Y s 246 1142 m 16 Y s 2043 1126 m 32 Y s 2086 1142 m 16 Y s 2129
 1142 m 16 Y s 238 154 m 1004 Y s 291 154 m -53 X s 265 175 m -27 X s 265 196 m -27 X s 265 217 m -27 X s 265 238 m -27 X s 291 259 m -53 X s 265 280 m -27 X s 265 300 m -27 X s 265 321 m -27 X s 265 342 m -27 X s 291 363 m -53 X s 265 384 m -27 X s
 265 405 m -27 X s 265 426 m -27 X s 265 447 m -27 X s 291 467 m -53 X s 265 488 m -27 X s 265 509 m -27 X s 265 530 m -27 X s 265 551 m -27 X s 291 572 m -53 X s 265 593 m -27 X s 265 614 m -27 X s 265 634 m -27 X s 265 655 m -27 X s 291 676 m -53 X
 s 265 697 m -27 X s 265 718 m -27 X s 265 739 m -27 X s 265 760 m -27 X s 291 780 m -53 X s 265 801 m -27 X s 265 822 m -27 X s 265 843 m -27 X s 265 864 m -27 X s 291 885 m -53 X s 265 906 m -27 X s 265 927 m -27 X s 265 947 m -27 X s 265 968 m -27
 X s 291 989 m -53 X s 265 1010 m -27 X s 265 1031 m -27 X s 265 1052 m -27 X s 265 1073 m -27 X s 291 1093 m -53 X s 291 1093 m -53 X s 265 1114 m -27 X s 265 1135 m -27 X s 265 1156 m -27 X s
 gsave  2268 1287 0 0 C 184.417 137.806 t 0 r /Helvetica-Bold findfont 48.6374 sf 0 0 m (0) show NC gr 
 gsave  2268 1287 0 0 C 149.965 241.16 t 0 r /Helvetica-Bold findfont 48.6374 sf 0 0 m (0.1) show NC gr 
 gsave  2268 1287 0 0 C 143.885 346.541 t 0 r /Helvetica-Bold findfont 48.6374 sf 0 0 m (0.2) show NC gr 
 gsave  2268 1287 0 0 C 143.885 449.896 t 0 r /Helvetica-Bold findfont 48.6374 sf 0 0 m (0.3) show NC gr 
 gsave  2268 1287 0 0 C 143.885 555.276 t 0 r /Helvetica-Bold findfont 48.6374 sf 0 0 m (0.4) show NC gr 
 gsave  2268 1287 0 0 C 143.885 658.631 t 0 r /Helvetica-Bold findfont 48.6374 sf 0 0 m (0.5) show NC gr 
 gsave  2268 1287 0 0 C 143.885 764.012 t 0 r /Helvetica-Bold findfont 48.6374 sf 0 0 m (0.6) show NC gr 
 gsave  2268 1287 0 0 C 143.885 867.366 t 0 r /Helvetica-Bold findfont 48.6374 sf 0 0 m (0.7) show NC gr 
 gsave  2268 1287 0 0 C 143.885 972.747 t 0 r /Helvetica-Bold findfont 48.6374 sf 0 0 m (0.8) show NC gr 
 gsave  2268 1287 0 0 C 143.885 1076.1 t 0 r /Helvetica-Bold findfont 48.6374 sf 0 0 m (0.9) show NC gr 
 gsave  2268 1287 0 0 C 56.7436 1094.34 t 90 r /Helvetica-Bold findfont 54.717 sf 0 0 m (dx) show NC gr 
 gsave  2268 1287 0 0 C 30.3983 1078.13 t 90 r /Helvetica-Bold findfont 36.478 sf 0 0 m ( ) show NC gr 
 gsave  2268 1287 0 0 C 54.717 1061.92 t 90 r /Helvetica-Bold findfont 54.717 sf 0 0 m (/) show NC gr 
 gsave  2268 1287 0 0 C 30.3983 1045.7 t 90 r /Helvetica-Bold findfont 36.478 sf 0 0 m ( ) show NC gr 
 gsave  2268 1287 0 0 C 54.717 838.994 t 90 r /Helvetica-Bold findfont 54.717 sf 0 0 m (\(1/N\) dN) show NC gr  2154 154 m 1004 Y s 2101 154 m 53 X s 2128 175 m 26 X s 2128 196 m 26 X s 2128 217 m 26 X s 2128 238 m 26 X s 2101 259 m 53 X s 2128 280 m
 26 X s 2128 300 m 26 X s 2128 321 m 26 X s 2128 342 m 26 X s 2101 363 m 53 X s 2128 384 m 26 X s 2128 405 m 26 X s 2128 426 m 26 X s 2128 447 m 26 X s 2101 467 m 53 X s 2128 488 m 26 X s 2128 509 m 26 X s 2128 530 m 26 X s 2128 551 m 26 X s 2101 572
 m 53 X s 2128 593 m 26 X s 2128 614 m 26 X s 2128 634 m 26 X s 2128 655 m 26 X s 2101 676 m 53 X s 2128 697 m 26 X s 2128 718 m 26 X s 2128 739 m 26 X s 2128 760 m 26 X s 2101 780 m 53 X s 2128 801 m 26 X s 2128 822 m 26 X s 2128 843 m 26 X s 2128
 864 m 26 X s 2101 885 m 53 X s 2128 906 m 26 X s 2128 927 m 26 X s 2128 947 m 26 X s 2128 968 m 26 X s 2101 989 m 53 X s 2128 1010 m 26 X s 2128 1031 m 26 X s 2128 1052 m 26 X s 2128 1073 m 26 X s 2101 1093 m 53 X s 2101 1093 m 53 X s 2128 1114 m 26
 X s 2128 1135 m 26 X s 2128 1156 m 26 X s 0.490196 0.545098 0.615686 c 1 1 1 c 0.490196 0.545098 0.615686 c 907 154 238 1004 bl 238 1004 m 907 X s 1145 1004 m 154 Y s 1145 1158 m -907 X s 238 1158 m -154 Y s black
 gsave  2268 1287 0 0 C 419.497 1102.45 t 0 r /Helvetica-Bold findfont 52.6905 sf 0 0 m (Signal \(test sample\)) show NC gr  0.49 0.6 0.82 c 265 1093 m 127 X 54 Y -127 X f 0 0 0.933333 c 265 1147 m 127 X s 265 1093 m 127 X s 392 1093 m 54 Y s 265
 1093 m 54 Y s black
 gsave  2268 1287 0 0 C 419.497 1025.44 t 0 r /Helvetica-Bold findfont 52.6905 sf 0 0 m (Background \(test sample\)) show NC gr  1 0 0 c 392 1018 m -2 -3 d s 392 1066 m -50 -51 d s 348 1069 m -54 -54 d s 300 1069 m -35 -34 d s 0 0 0.933333 c 1 0 0 c
 265 1069 m 127 X s 265 1015 m 127 X s 392 1015 m 54 Y s 265 1015 m 54 Y s 0 0 0.933333 c 0.49 0.6 0.82 c black 0.49 0.6 0.82 c 238 154 m 1006 X 3 Y 48 X 2 Y 48 X 11 Y 48 X 23 Y 48 X 76 Y 48 X 111 Y 48 X 159 Y 47 X 175 Y 48 X 171 Y 48 X 24 Y 48 X
 -100 Y 48 X -140 Y 48 X -164 Y 48 X -163 Y 48 X -113 Y 48 X -40 Y 48 X -23 Y 48 X -10 Y 95 X -2 Y f 0 0 0.933333 c 0.49 0.6 0.82 c 0 0 0.933333 c 238 154 m 1006 X 3 Y 48 X 2 Y 48 X 11 Y 48 X 23 Y 48 X 76 Y 48 X 111 Y 48 X 159 Y 47 X 175 Y 48 X 171 Y
 48 X 24 Y 48 X -100 Y 48 X -140 Y 48 X -164 Y 48 X -163 Y 48 X -113 Y 48 X -40 Y 48 X -23 Y 48 X -10 Y 95 X -2 Y s 1 0 0 c black 1 0 0 c 2127 154 m s 2079 154 m cl s 2031 154 m s 1983 154 m -1 X s 1935 155 m -1 -1 d s 1887 155 m -1 -1 d s 1840 156 m
 -2 -2 d s 1793 157 m -3 -3 d s 1750 162 m -8 -8 d s 1705 166 m -11 -12 d s 1665 174 m -19 -20 d s 1627 184 m -29 -30 d s 1581 186 m -32 -32 d s 1556 209 m -55 -55 d s 1532 233 m -79 -79 d s 1487 236 m -82 -82 d s 1472 269 m -115 -115 d s 1436 281 m
 -127 -127 d s 1424 317 m -163 -163 d s 1388 330 m -175 -176 d s 1377 367 m -212 -213 d s 1340 378 m -223 -224 d s 1326 412 m -258 -258 d s 1292 426 m -272 -272 d s 1291 473 m -319 -319 d s 1244 474 m -320 -320 d s 1235 514 m -359 -360 d s 1196 523 m
 -368 -369 d s 1180 555 m -400 -401 d s 1134 557 m -402 -403 d s 1071 542 m -387 -388 d s 1021 540 m -16 -16 d s 977 496 m -20 -20 d s 933 451 m -24 -23 d s 865 384 m -4 -4 d s 818 337 m -5 -5 d s 766 285 m -1 -1 d s 736 255 m -19 -19 d s 701 220 m
 -66 -66 d s 629 196 m -8 -8 d s 614 181 m -27 -27 d s 554 169 m -15 -15 d s 500 164 m -9 -10 d s 448 159 m -5 -5 d s 397 157 m -2 -3 d s 348 155 m -1 -1 d s 300 155 m -1 -1 d s 251 154 m s 238 154 m 48 X 1 Y 96 X 2 Y 48 X 2 Y 48 X 5 Y 48 X 5 Y 47 X
 12 Y 48 X 15 Y 48 X 24 Y 48 X 35 Y 48 X 30 Y 48 X 52 Y 48 X 47 Y 48 X 67 Y 48 X 45 Y 48 X 44 Y 48 X 2 Y 47 X 15 Y 48 X -2 Y 48 X -41 Y 48 X -41 Y 48 X -61 Y 48 X -45 Y 48 X -50 Y 48 X -48 Y 48 X -33 Y 48 X -27 Y 47 X -23 Y 48 X -12 Y 48 X -8 Y 48 X
 -4 Y 48 X -5 Y 48 X -1 Y 48 X -1 Y 96 X -1 Y 191 X s 0.490196 0.545098 0.615686 c 1 1 1 c 0.490196 0.545098 0.615686 c 952 154 1202 1004 bl 1202 1004 m 952 X s 2154 1004 m 154 Y s 2154 1158 m -952 X s 1202 1158 m -154 Y s black
 gsave  2268 1287 0 0 C 1297 1102.45 t 0 r /Helvetica-Bold findfont 54.717 sf 0 0 m (Signal \(training sample\)) show NC gr  0 0 0.933333 c /w 11 def /w2 {w 2 div} def /w3 {w 3 div} def 1250 1120 m20 black
 gsave  2268 1287 0 0 C 1297 1025.44 t 0 r /Helvetica-Bold findfont 54.717 sf 0 0 m (Background \(training sample\)) show NC gr  1 0 0 c 1250 1042 m20 0 0 0.933333 c 1 1 1 c 0 0 0.933333 c 1244 155 m 20 X s 1272 155 m 20 X s 1244 151 m 8 Y s 1292 151
 m 8 Y s 1268 155 m20 1292 162 m 20 X s 1320 162 m 20 X s 1292 158 m 8 Y s 1340 158 m 8 Y s 1316 162 m20 1340 171 m 20 X s 1368 171 m 20 X s 1340 167 m 8 Y s 1388 167 m 8 Y s 1364 171 m20 1412 196 m 3 Y s 1412 207 m 3 Y s 1388 203 m 20 X s 1416 203 m
 20 X s 1408 196 m 8 X s 1408 210 m 8 X s 1388 199 m 8 Y s 1436 199 m 8 Y s 1412 203 m20 1460 268 m 6 Y s 1460 283 m 6 Y s 1436 278 m 20 X s 1464 278 m 20 X s 1456 268 m 8 X s 1456 289 m 8 X s 1436 274 m 9 Y s 1484 274 m 9 Y s 1460 278 m20 1508 352 m
 10 Y s 1508 370 m 10 Y s 1484 366 m 20 X s 1512 366 m 20 X s 1504 352 m 8 X s 1504 380 m 8 X s 1484 362 m 8 Y s 1532 362 m 8 Y s 1508 366 m20 1556 528 m 15 Y s 1556 551 m 15 Y s 1532 547 m 19 X s 1560 547 m 19 X s 1551 528 m 9 X s 1551 566 m 9 X s
 1532 543 m 8 Y s 1579 543 m 8 Y s 1556 547 m20 1603 718 m 19 Y s 1603 745 m 19 Y s 1579 741 m 20 X s 1607 741 m 20 X s 1599 718 m 8 X s 1599 764 m 8 X s 1579 737 m 8 Y s 1627 737 m 8 Y s 1603 741 m20 1651 835 m 21 Y s 1651 864 m 22 Y s 1627 860 m 20
 X s 1655 860 m 20 X s 1647 835 m 8 X s 1647 886 m 8 X s 1627 856 m 8 Y s 1675 856 m 8 Y s 1651 860 m20 1699 900 m 22 Y s 1699 931 m 22 Y s 1675 927 m 20 X s 1703 927 m 20 X s 1695 900 m 8 X s 1695 953 m 8 X s 1675 922 m 9 Y s 1723 922 m 9 Y s 1699
 927 m20 1747 780 m 20 Y s 1747 808 m 21 Y s 1723 804 m 20 X s 1751 804 m 20 X s 1743 780 m 8 X s 1743 829 m 8 X s 1723 800 m 8 Y s 1771 800 m 8 Y s 1747 804 m20 1795 647 m 18 Y s 1795 673 m 18 Y s 1771 669 m 20 X s 1799 669 m 20 X s 1791 647 m 8 X s
 1791 691 m 8 X s 1771 665 m 8 Y s 1819 665 m 8 Y s 1795 669 m20 1843 459 m 13 Y s 1843 480 m 13 Y s 1819 476 m 20 X s 1847 476 m 20 X s 1839 459 m 8 X s 1839 493 m 8 X s 1819 472 m 8 Y s 1867 472 m 8 Y s 1843 476 m20 1891 317 m 9 Y s 1891 334 m 9 Y
 s 1867 330 m 20 X s 1895 330 m 20 X s 1887 317 m 8 X s 1887 343 m 8 X s 1867 326 m 8 Y s 1915 326 m 8 Y s 1891 330 m20 1939 217 m 4 Y s 1939 229 m 4 Y s 1915 225 m 20 X s 1943 225 m 20 X s 1935 217 m 8 X s 1935 233 m 8 X s 1915 221 m 8 Y s 1963 221
 m 8 Y s 1939 225 m20 1987 185 m 2 Y s 1987 195 m 2 Y s 1963 191 m 20 X s 1991 191 m 20 X s 1983 185 m 8 X s 1983 197 m 8 X s 1963 187 m 8 Y s 2011 187 m 8 Y s 1987 191 m20 2035 170 m s 2035 178 m s 2011 174 m 20 X s 2039 174 m 20 X s 2031 170 m 8 X
 s 2031 178 m 8 X s 2011 170 m 8 Y s 2059 170 m 8 Y s 2035 174 m20 2059 161 m 19 X s 2087 161 m 19 X s 2059 157 m 8 Y s 2106 157 m 8 Y s 2082 161 m20 1 0 0 c 1 1 1 c 1 0 0 c 238 155 m 20 X s 266 155 m 20 X s 238 151 m 8 Y s 286 151 m 8 Y s 262 155
 m20 286 155 m 20 X s 314 155 m 20 X s 286 151 m 8 Y s 334 151 m 8 Y s 310 155 m20 334 155 m 20 X s 362 155 m 20 X s 334 151 m 8 Y s 382 151 m 8 Y s 358 155 m20 382 158 m 20 X s 410 158 m 20 X s 382 153 m 9 Y s 430 153 m 9 Y s 406 158 m20 430 158 m
 20 X s 458 158 m 20 X s 430 154 m 8 Y s 478 154 m 8 Y s 454 158 m20 478 165 m 20 X s 506 165 m 20 X s 478 161 m 8 Y s 526 161 m 8 Y s 502 165 m20 526 169 m 19 X s 554 169 m 19 X s 526 165 m 8 Y s 573 165 m 8 Y s 549 169 m20 573 177 m 20 X s 601 177
 m 20 X s 573 173 m 8 Y s 621 173 m 8 Y s 597 177 m20 621 202 m 20 X s 649 202 m 20 X s 621 198 m 8 Y s 669 198 m 8 Y s 645 202 m20 669 221 m 20 X s 697 221 m 20 X s 669 217 m 8 Y s 717 217 m 8 Y s 693 221 m20 717 247 m 20 X s 745 247 m 20 X s 717
 243 m 8 Y s 765 243 m 8 Y s 741 247 m20 765 286 m 20 X s 793 286 m 20 X s 765 282 m 8 Y s 813 282 m 8 Y s 789 286 m20 837 329 m s 837 337 m s 813 333 m 20 X s 841 333 m 20 X s 833 329 m 8 X s 833 337 m 8 X s 813 329 m 8 Y s 861 329 m 8 Y s 837 333
 m20 885 381 m 1 Y s 885 390 m 1 Y s 861 386 m 20 X s 889 386 m 20 X s 881 381 m 8 X s 881 391 m 8 X s 861 382 m 8 Y s 909 382 m 8 Y s 885 386 m20 933 436 m 1 Y s 933 446 m 1 Y s 909 441 m 20 X s 937 441 m 20 X s 929 436 m 8 X s 929 447 m 8 X s 909
 437 m 9 Y s 957 437 m 9 Y s 933 441 m20 981 484 m 2 Y s 981 494 m 1 Y s 957 490 m 20 X s 985 490 m 20 X s 977 484 m 8 X s 977 495 m 8 X s 957 486 m 8 Y s 1005 486 m 8 Y s 981 490 m20 1029 556 m 2 Y s 1029 566 m 2 Y s 1005 562 m 19 X s 1033 562 m 20
 X s 1024 556 m 9 X s 1024 568 m 9 X s 1005 558 m 8 Y s 1053 558 m 8 Y s 1029 562 m20 1076 550 m 2 Y s 1076 560 m 2 Y s 1053 556 m 19 X s 1081 556 m 19 X s 1072 550 m 9 X s 1072 562 m 9 X s 1053 552 m 8 Y s 1100 552 m 8 Y s 1076 556 m20 1124 552 m 2
 Y s 1124 562 m 2 Y s 1100 558 m 20 X s 1128 558 m 20 X s 1120 552 m 8 X s 1120 564 m 8 X s 1100 554 m 8 Y s 1148 554 m 8 Y s 1124 558 m20 1172 543 m 2 Y s 1172 553 m 2 Y s 1148 549 m 20 X s 1176 549 m 20 X s 1168 543 m 8 X s 1168 555 m 8 X s 1148
 545 m 8 Y s 1196 545 m 8 Y s 1172 549 m20 1220 504 m 2 Y s 1220 514 m 2 Y s 1196 510 m 20 X s 1224 510 m 20 X s 1216 504 m 8 X s 1216 516 m 8 X s 1196 506 m 8 Y s 1244 506 m 8 Y s 1220 510 m20 1268 458 m 2 Y s 1268 468 m 1 Y s 1244 464 m 20 X s 1272
 464 m 20 X s 1264 458 m 8 X s 1264 469 m 8 X s 1244 460 m 8 Y s 1292 460 m 8 Y s 1268 464 m20 1316 417 m 1 Y s 1316 426 m 1 Y s 1292 422 m 20 X s 1320 422 m 20 X s 1312 417 m 8 X s 1312 427 m 8 X s 1292 418 m 8 Y s 1340 418 m 8 Y s 1316 422 m20 1364
 363 m s 1364 371 m 1 Y s 1340 367 m 20 X s 1368 367 m 20 X s 1360 363 m 8 X s 1360 372 m 8 X s 1340 363 m 8 Y s 1388 363 m 8 Y s 1364 367 m20 1388 308 m 20 X s 1416 308 m 20 X s 1388 304 m 8 Y s 1436 304 m 8 Y s 1412 308 m20 1436 269 m 20 X s 1464
 269 m 20 X s 1436 265 m 8 Y s 1484 265 m 8 Y s 1460 269 m20 1484 240 m 20 X s 1512 240 m 20 X s 1484 236 m 8 Y s 1532 236 m 8 Y s 1508 240 m20 1532 205 m 19 X s 1560 205 m 19 X s 1532 201 m 8 Y s 1579 201 m 8 Y s 1556 205 m20 1579 189 m 20 X s 1607
 189 m 20 X s 1579 184 m 9 Y s 1627 184 m 9 Y s 1603 189 m20 1627 174 m 20 X s 1655 174 m 20 X s 1627 170 m 8 Y s 1675 170 m 8 Y s 1651 174 m20 1675 166 m 20 X s 1703 166 m 20 X s 1675 162 m 8 Y s 1723 162 m 8 Y s 1699 166 m20 1723 159 m 20 X s 1751
 159 m 20 X s 1723 155 m 9 Y s 1771 155 m 9 Y s 1747 159 m20 1771 158 m 20 X s 1799 158 m 20 X s 1771 154 m 8 Y s 1819 154 m 8 Y s 1795 158 m20 1819 156 m 20 X s 1847 156 m 20 X s 1819 152 m 8 Y s 1867 152 m 8 Y s 1843 156 m20 1867 155 m 20 X s 1895
 155 m 20 X s 1867 151 m 9 Y s 1915 151 m 9 Y s 1891 155 m20 1915 155 m 20 X s 1943 155 m 20 X s 1915 151 m 8 Y s 1963 151 m 8 Y s 1939 155 m20 1963 155 m 20 X s 1991 155 m 20 X s 1963 150 m 9 Y s 2011 150 m 9 Y s 1987 155 m20 black
 gsave  2268 1287 0 0 C 272.126 952.279 t 0 r /Helvetica-Bold findfont 38.5046 sf 0 0 m (Kolmogorov\255Smirnov test: signal \(background\) probability = 0.434 \(0.066\)) show NC gr  238 154 m 1916 X s 331 187 m -33 Y s 374 171 m -17 Y s 417 171 m -17
 Y s 460 171 m -17 Y s 502 171 m -17 Y s 545 187 m -33 Y s 588 171 m -17 Y s 631 171 m -17 Y s 674 171 m -17 Y s 716 171 m -17 Y s 759 187 m -33 Y s 802 171 m -17 Y s 845 171 m -17 Y s 888 171 m -17 Y s 930 171 m -17 Y s 973 187 m -33 Y s 1016 171 m
 -17 Y s 1059 171 m -17 Y s 1102 171 m -17 Y s 1145 171 m -17 Y s 1187 187 m -33 Y s 1230 171 m -17 Y s 1273 171 m -17 Y s 1316 171 m -17 Y s 1359 171 m -17 Y s 1401 187 m -33 Y s 1444 171 m -17 Y s 1487 171 m -17 Y s 1530 171 m -17 Y s 1573 171 m
 -17 Y s 1615 187 m -33 Y s 1658 171 m -17 Y s 1701 171 m -17 Y s 1744 171 m -17 Y s 1787 171 m -17 Y s 1829 187 m -33 Y s 1872 171 m -17 Y s 1915 171 m -17 Y s 1958 171 m -17 Y s 2001 171 m -17 Y s 2043 187 m -33 Y s 331 187 m -33 Y s 288 171 m -17
 Y s 246 171 m -17 Y s 2043 187 m -33 Y s 2086 171 m -17 Y s 2129 171 m -17 Y s 238 1158 m 1916 X s 331 1126 m 32 Y s 374 1142 m 16 Y s 417 1142 m 16 Y s 460 1142 m 16 Y s 502 1142 m 16 Y s 545 1126 m 32 Y s 588 1142 m 16 Y s 631 1142 m 16 Y s 674
 1142 m 16 Y s 716 1142 m 16 Y s 759 1126 m 32 Y s 802 1142 m 16 Y s 845 1142 m 16 Y s 888 1142 m 16 Y s 930 1142 m 16 Y s 973 1126 m 32 Y s 1016 1142 m 16 Y s 1059 1142 m 16 Y s 1102 1142 m 16 Y s 1145 1142 m 16 Y s 1187 1126 m 32 Y s 1230 1142 m 16
 Y s 1273 1142 m 16 Y s 1316 1142 m 16 Y s 1359 1142 m 16 Y s 1401 1126 m 32 Y s 1444 1142 m 16 Y s 1487 1142 m 16 Y s 1530 1142 m 16 Y s 1573 1142 m 16 Y s 1615 1126 m 32 Y s 1658 1142 m 16 Y s 1701 1142 m 16 Y s 1744 1142 m 16 Y s 1787 1142 m 16 Y
 s 1829 1126 m 32 Y s 1872 1142 m 16 Y s 1915 1142 m 16 Y s 1958 1142 m 16 Y s 2001 1142 m 16 Y s 2043 1126 m 32 Y s 331 1126 m 32 Y s 288 1142 m 16 Y s 246 1142 m 16 Y s 2043 1126 m 32 Y s 2086 1142 m 16 Y s 2129 1142 m 16 Y s 238 154 m 1004 Y s 291
 154 m -53 X s 265 175 m -27 X s 265 196 m -27 X s 265 217 m -27 X s 265 238 m -27 X s 291 259 m -53 X s 265 280 m -27 X s 265 300 m -27 X s 265 321 m -27 X s 265 342 m -27 X s 291 363 m -53 X s 265 384 m -27 X s 265 405 m -27 X s 265 426 m -27 X s
 265 447 m -27 X s 291 467 m -53 X s 265 488 m -27 X s 265 509 m -27 X s 265 530 m -27 X s 265 551 m -27 X s 291 572 m -53 X s 265 593 m -27 X s 265 614 m -27 X s 265 634 m -27 X s 265 655 m -27 X s 291 676 m -53 X s 265 697 m -27 X s 265 718 m -27 X
 s 265 739 m -27 X s 265 760 m -27 X s 291 780 m -53 X s 265 801 m -27 X s 265 822 m -27 X s 265 843 m -27 X s 265 864 m -27 X s 291 885 m -53 X s 265 906 m -27 X s 265 927 m -27 X s 265 947 m -27 X s 265 968 m -27 X s 291 989 m -53 X s 265 1010 m
 -27 X s 265 1031 m -27 X s 265 1052 m -27 X s 265 1073 m -27 X s 291 1093 m -53 X s 291 1093 m -53 X s 265 1114 m -27 X s 265 1135 m -27 X s 265 1156 m -27 X s 2154 154 m 1004 Y s 2101 154 m 53 X s 2128 175 m 26 X s 2128 196 m 26 X s 2128 217 m 26 X
 s 2128 238 m 26 X s 2101 259 m 53 X s 2128 280 m 26 X s 2128 300 m 26 X s 2128 321 m 26 X s 2128 342 m 26 X s 2101 363 m 53 X s 2128 384 m 26 X s 2128 405 m 26 X s 2128 426 m 26 X s 2128 447 m 26 X s 2101 467 m 53 X s 2128 488 m 26 X s 2128 509 m 26
 X s 2128 530 m 26 X s 2128 551 m 26 X s 2101 572 m 53 X s 2128 593 m 26 X s 2128 614 m 26 X s 2128 634 m 26 X s 2128 655 m 26 X s 2101 676 m 53 X s 2128 697 m 26 X s 2128 718 m 26 X s 2128 739 m 26 X s 2128 760 m 26 X s 2101 780 m 53 X s 2128 801 m
 26 X s 2128 822 m 26 X s 2128 843 m 26 X s 2128 864 m 26 X s 2101 885 m 53 X s 2128 906 m 26 X s 2128 927 m 26 X s 2128 947 m 26 X s 2128 968 m 26 X s 2101 989 m 53 X s 2128 1010 m 26 X s 2128 1031 m 26 X s 2128 1052 m 26 X s 2128 1073 m 26 X s 2101
 1093 m 53 X s 2101 1093 m 53 X s 2128 1114 m 26 X s 2128 1135 m 26 X s 2128 1156 m 26 X s
 gsave  2268 1287 0 0 C 2211.02 147.989 t 90 r /Helvetica-Bold findfont 36.478 sf 0 0 m (U/O\255flow \(S,B\): \(0.0, 0.0\)% / \(0.0, 0.0\)%) show NC gr  0.490196 0.545098 0.615686 c 0.364706 0.419608 0.490196 c 1587 73 23 1207 bf 0.490196 0.545098
 0.615686 c 23 1207 m 1587 X s 1610 1207 m 73 Y s 1610 1280 m -1587 X s 23 1280 m -73 Y s 1 1 1 c black 1 1 1 c
 gsave  2268 1287 0 0 C 172.257 1228.09 t 0 r /Helvetica-Bold findfont 58.7701 sf 0 0 m (TMVA overtraining check for classifier: Fisher) show NC gr 
 gr  gr showpage
end
%%EOF
