%!PS-Adobe-2.0 EPSF-2.0
%%BoundingBox:  0 0 567 355
%%Title: : TMVA comparison Likelihood
%%Creator: ROOT Version 6.12/06
%%CreationDate: Thu May 17 23:47:21 2018
%%DocumentNeededResources: ProcSet (FontSetInit)
%%EndComments
%%BeginProlog
80 dict begin
/s {stroke} def /l {lineto} def /m {moveto} def /t {translate} def
/r {rotate} def /rl {roll}  def /R {repeat} def
/d {rlineto} def /rm {rmoveto} def /gr {grestore} def /f {eofill} def
/c {setrgbcolor} def /black {0 setgray} def /sd {setdash} def
/cl {closepath} def /sf {scalefont setfont} def /lw {setlinewidth} def
/box {m dup 0 exch d exch 0 d 0 exch neg d cl} def
/NC{systemdict begin initclip end}def/C{NC box clip newpath}def
/bl {box s} def /bf {gsave box gsave f grestore 1 lw [] 0 sd s grestore} def /Y { 0 exch d} def /X { 0 d} def 
/K {{pop pop 0 moveto} exch kshow} bind def
/ita {/ang 15 def gsave [1 0 ang dup sin exch cos div 1 0 0] concat} def 
/mp {newpath /y exch def /x exch def} def
/side {[w .77 mul w .23 mul] .385 w mul sd w 0 l currentpoint t -144 r} def
/mr {mp x y w2 0 360 arc} def /m24 {mr s} def /m20 {mr f} def
/mb {mp x y w2 add m w2 neg 0 d 0 w neg d w 0 d 0 w d cl} def
/mt {mp x y w2 add m w2 neg w neg d w 0 d cl} def
/w4 {w 4 div} def
/w6 {w 6 div} def
/w8 {w 8 div} def
/m21 {mb f} def /m25 {mb s} def /m22 {mt f} def /m26{mt s} def
/m23 {mp x y w2 sub m w2 w d w neg 0 d cl f} def
/m27 {mp x y w2 add m w3 neg w2 neg d w3 w2 neg d w3 w2 d cl s} def
/m28 {mp x w2 sub y w2 sub w3 add m w3 0 d  0 w3 neg d w3 0 d 0 w3 d w3 0 d  0 w3 d w3 neg 0 d 0 w3 d w3 neg 0 d 0 w3 neg d w3 neg 0 d cl s } def
/m29 {mp gsave x w2 sub y w2 add w3 sub m currentpoint t 4 {side} repeat cl fill gr} def
/m30 {mp gsave x w2 sub y w2 add w3 sub m currentpoint t 4 {side} repeat cl s gr} def
/m31 {mp x y w2 sub m 0 w d x w2 sub y m w 0 d x w2 sub y w2 add m w w neg d x w2 sub y w2 sub m w w d s} def
/m32 {mp x y w2 sub m w2 w d w neg 0 d cl s} def
/m33 {mp x y w2 add m w3 neg w2 neg d w3 w2 neg d w3 w2 d cl f} def
/m34 {mp x w2 sub y w2 sub w3 add m w3 0 d  0 w3 neg d w3 0 d 0 w3 d w3 0 d  0 w3 d w3 neg 0 d 0 w3 d w3 neg 0 d 0 w3 neg d w3 neg 0 d cl f } def
/m35 {mp x y w2 add m w2 neg w2 neg d w2 w2 neg d w2 w2 d w2 neg w2 d x y w2 sub m 0 w d x w2 sub y m w 0 d s} def
/m36 {mb x w2 sub y w2 add m w w neg d x w2 sub y w2 sub m w w d s} def
/m37 {mp x y m w4 neg w2 d w4 neg w2 neg d w2 0 d  w4 neg w2 neg d w2 0 d w4 neg w2 d w2 0 d w4 neg w2 d w4 neg w2 neg d cl s} def
/m38 {mp x w4 sub y w2 add m w4 neg w4 neg d 0 w2 neg d w4 w4 neg d w2 0 d w4 w4 d 0 w2 d w4 neg w4 d w2 neg 0 d x y w2 sub m 0 w d x w2 sub y m w 0 d cl s} def
/m39 {mp x y m w4 neg w2 d w4 neg w2 neg d w2 0 d  w4 neg w2 neg d w2 0 d w4 neg w2 d w2 0 d w4 neg w2 d w4 neg w2 neg d cl f} def
/m40 {mp x y m w4 w2 d w4 w4 neg d w2 neg w4 neg d w2 w4 neg d w4 neg w4 neg d w4 neg w2 d w4 neg w2 neg d w4 neg w4 d w2 w4 d w2 neg w4 d w4 w4 d w4 w2 neg d cl s} def
/m41 {mp x y m w4 w2 d w4 w4 neg d w2 neg w4 neg d w2 w4 neg d w4 neg w4 neg d w4 neg w2 d w4 neg w2 neg d w4 neg w4 d w2 w4 d w2 neg w4 d w4 w4 d w4 w2 neg d cl f} def
/m42 {mp x y w2 add m w8 neg w2 -3 4 div mul d w2 -3 4 div mul w8 neg d w2 3 4 div mul w8 neg d w8 w2 -3 4 div mul d w8 w2 3 4 div mul d w2 3 4 div mul w8 d w2 -3 4 div mul w8 d w8 neg w2 3 4 div mul d cl s} def
/m43 {mp x y w2 add m w8 neg w2 -3 4 div mul d w2 -3 4 div mul w8 neg d w2 3 4 div mul w8 neg d w8 w2 -3 4 div mul d w8 w2 3 4 div mul d w2 3 4 div mul w8 d w2 -3 4 div mul w8 d w8 neg w2 3 4 div mul d cl f} def
/m44 {mp x y m w6 neg w2 d w2 2 3 div mul 0 d w6 neg w2 neg d w2 w6 d 0 w2 -2 3 div mul d w2 neg w6 d w6 w2 neg d w2 -2 3 div mul 0 d w6 w2 d w2 neg w6 neg d 0 w2 2 3 div mul d w2 w6 neg d cl s} def
/m45 {mp x y m w6 neg w2 d w2 2 3 div mul 0 d w6 neg w2 neg d w2 w6 d 0 w2 -2 3 div mul d w2 neg w6 d w6 w2 neg d w2 -2 3 div mul 0 d w6 w2 d w2 neg w6 neg d 0 w2 2 3 div mul d w2 w6 neg d cl f} def
/m46 {mp x y w4 add m w4 neg w4 d w4 neg w4 neg d  w4 w4 neg d w4 neg w4 neg d w4 w4 neg d w4 w4 d w4 w4 neg d w4 w4 d w4 neg w4 d w4 w4 d w4 neg w4 d w4 neg w4 neg d cl s} def
/m47 {mp x y w4 add m w4 neg w4 d w4 neg w4 neg d w4 w4 neg d w4 neg w4 neg d  w4 w4 neg d w4 w4 d w4 w4 neg d w4 w4 d w4 neg w4 d w4 w4 d w4 neg w4 d w4 neg w4 neg d cl f} def
/m48 {mp x y w4 add m w4 neg w4 d w4 neg w4 neg d w4 w4 neg d  w4 neg w4 neg d w4 w4 neg d w4 w4 d w4 w4 neg d w4 w4 d w4 neg w4 d w4 w4 d w4 neg w4 d w4 neg w4 neg d  w4 w4 neg d w4 neg w4 neg d w4 neg w4 d w4 w4 d cl f} def
/m49 {mp x w2 sub w3 add y w2 sub w3 add m  0 w3 neg d w3 0 d 0 w3 d w3 0 d 0 w3 d w3 neg 0 d 0 w3 d w3 neg 0 d 0 w3 neg d w3 neg 0 d 0 w3 neg d w3 0 d 0 w3 d w3 0 d 0 w3 neg d w3 neg 0 d cl f } def
/m2 {mp x y w2 sub m 0 w d x w2 sub y m w 0 d s} def
/m5 {mp x w2 sub y w2 sub m w w d x w2 sub y w2 add m w w neg d s} def
%%IncludeResource: ProcSet (FontSetInit)
%%IncludeResource: font Times-Roman
%%IncludeResource: font Times-Italic
%%IncludeResource: font Times-Bold
%%IncludeResource: font Times-BoldItalic
%%IncludeResource: font Helvetica
%%IncludeResource: font Helvetica-Oblique
%%IncludeResource: font Helvetica-Bold
%%IncludeResource: font Helvetica-BoldOblique
%%IncludeResource: font Courier
%%IncludeResource: font Courier-Oblique
%%IncludeResource: font Courier-Bold
%%IncludeResource: font Courier-BoldOblique
%%IncludeResource: font Symbol
%%IncludeResource: font ZapfDingbats
/reEncode {exch findfont dup length dict begin {1 index /FID eq  {pop pop} {def} ifelse } forall /Encoding exch def currentdict end dup /FontName get exch definefont pop } def [/Times-Bold /Times-Italic /Times-BoldItalic /Helvetica /Helvetica-Oblique
 /Helvetica-Bold /Helvetica-BoldOblique /Courier /Courier-Oblique /Courier-Bold /Courier-BoldOblique /Times-Roman /AvantGarde-Book /AvantGarde-BookOblique /AvantGarde-Demi /AvantGarde-DemiOblique /Bookman-Demi /Bookman-DemiItalic /Bookman-Light
 /Bookman-LightItalic /Helvetica-Narrow /Helvetica-Narrow-Bold /Helvetica-Narrow-BoldOblique /Helvetica-Narrow-Oblique /NewCenturySchlbk-Roman /NewCenturySchlbk-Bold /NewCenturySchlbk-BoldItalic /NewCenturySchlbk-Italic /Palatino-Bold
 /Palatino-BoldItalic /Palatino-Italic /Palatino-Roman ] {ISOLatin1Encoding reEncode } forall
%%EndProlog
%%BeginSetup
%%EndSetup
newpath  gsave  .25 .25 scale  gsave  0 0 t 0.490196 0.545098 0.615686 c[  ] 0 sd 3 lw 0.941176 0.941176 0.941176 c 2268 1420 0 0 bf black 1 1 0.992157 c 1916 1108 238 170 bf black 1916 1108 238 170 bl 1 1 0.992157 c 1916 1108 238 170 bf black 1916
 1108 238 170 bl 238 170 m 1916 X s 348 206 m -36 Y s 406 188 m -18 Y s 464 188 m -18 Y s 523 188 m -18 Y s 581 188 m -18 Y s 639 206 m -36 Y s 697 188 m -18 Y s 755 188 m -18 Y s 814 188 m -18 Y s 872 188 m -18 Y s 930 206 m -36 Y s 988 188 m -18 Y
 s 1046 188 m -18 Y s 1105 188 m -18 Y s 1163 188 m -18 Y s 1221 206 m -36 Y s 1279 188 m -18 Y s 1337 188 m -18 Y s 1396 188 m -18 Y s 1454 188 m -18 Y s 1512 206 m -36 Y s 1570 188 m -18 Y s 1629 188 m -18 Y s 1687 188 m -18 Y s 1745 188 m -18 Y s
 1803 206 m -36 Y s 1861 188 m -18 Y s 1920 188 m -18 Y s 1978 188 m -18 Y s 2036 188 m -18 Y s 2094 206 m -36 Y s 348 206 m -36 Y s 290 188 m -18 Y s 2094 206 m -36 Y s 2152 188 m -18 Y s
 gsave  2268 1420 0 0 C 343.866 110.127 t 0 r /Helvetica-Bold findfont 53.9397 sf 0 0 m (4) show NC gr 
 gsave  2268 1420 0 0 C 316.896 110.127 t 0 r /Symbol findfont 53.9397 sf 0 0 m (-) show NC gr 
 gsave  2268 1420 0 0 C 636.039 110.127 t 0 r /Helvetica-Bold findfont 53.9397 sf 0 0 m (3) show NC gr 
 gsave  2268 1420 0 0 C 609.07 110.127 t 0 r /Symbol findfont 53.9397 sf 0 0 m (-) show NC gr 
 gsave  2268 1420 0 0 C 925.966 110.127 t 0 r /Helvetica-Bold findfont 53.9397 sf 0 0 m (2) show NC gr 
 gsave  2268 1420 0 0 C 898.996 110.127 t 0 r /Symbol findfont 53.9397 sf 0 0 m (-) show NC gr 
 gsave  2268 1420 0 0 C 1222.63 110.127 t 0 r /Helvetica-Bold findfont 53.9397 sf 0 0 m (1) show NC gr 
 gsave  2268 1420 0 0 C 1193.42 110.127 t 0 r /Symbol findfont 53.9397 sf 0 0 m (-) show NC gr 
 gsave  2268 1420 0 0 C 1494.58 110.127 t 0 r /Helvetica-Bold findfont 53.9397 sf 0 0 m (0) show NC gr 
 gsave  2268 1420 0 0 C 1791.25 110.127 t 0 r /Helvetica-Bold findfont 53.9397 sf 0 0 m (1) show NC gr 
 gsave  2268 1420 0 0 C 2076.68 110.127 t 0 r /Helvetica-Bold findfont 53.9397 sf 0 0 m (2) show NC gr 
 gsave  2268 1420 0 0 C 1564.25 24.7224 t 0 r /Helvetica-Bold findfont 60.6822 sf 0 0 m (Likelihood response) show NC gr  238 1278 m 1916 X s 348 1242 m 36 Y s 406 1260 m 18 Y s 464 1260 m 18 Y s 523 1260 m 18 Y s 581 1260 m 18 Y s 639 1242 m 36 Y s
 697 1260 m 18 Y s 755 1260 m 18 Y s 814 1260 m 18 Y s 872 1260 m 18 Y s 930 1242 m 36 Y s 988 1260 m 18 Y s 1046 1260 m 18 Y s 1105 1260 m 18 Y s 1163 1260 m 18 Y s 1221 1242 m 36 Y s 1279 1260 m 18 Y s 1337 1260 m 18 Y s 1396 1260 m 18 Y s 1454
 1260 m 18 Y s 1512 1242 m 36 Y s 1570 1260 m 18 Y s 1629 1260 m 18 Y s 1687 1260 m 18 Y s 1745 1260 m 18 Y s 1803 1242 m 36 Y s 1861 1260 m 18 Y s 1920 1260 m 18 Y s 1978 1260 m 18 Y s 2036 1260 m 18 Y s 2094 1242 m 36 Y s 348 1242 m 36 Y s 290 1260
 m 18 Y s 2094 1242 m 36 Y s 2152 1260 m 18 Y s 238 170 m 1108 Y s 291 170 m -53 X s 265 204 m -27 X s 265 238 m -27 X s 265 271 m -27 X s 265 305 m -27 X s 291 339 m -53 X s 265 372 m -27 X s 265 406 m -27 X s 265 440 m -27 X s 265 473 m -27 X s 291
 507 m -53 X s 265 540 m -27 X s 265 574 m -27 X s 265 608 m -27 X s 265 641 m -27 X s 291 675 m -53 X s 265 709 m -27 X s 265 742 m -27 X s 265 776 m -27 X s 265 810 m -27 X s 291 843 m -53 X s 265 877 m -27 X s 265 911 m -27 X s 265 944 m -27 X s
 265 978 m -27 X s 291 1011 m -53 X s 265 1045 m -27 X s 265 1079 m -27 X s 265 1112 m -27 X s 265 1146 m -27 X s 291 1180 m -53 X s 291 1180 m -53 X s 265 1213 m -27 X s 265 1247 m -27 X s
 gsave  2268 1420 0 0 C 179.799 150.582 t 0 r /Helvetica-Bold findfont 53.9397 sf 0 0 m (0) show NC gr 
 gsave  2268 1420 0 0 C 134.849 319.143 t 0 r /Helvetica-Bold findfont 53.9397 sf 0 0 m (0.5) show NC gr 
 gsave  2268 1420 0 0 C 186.542 485.458 t 0 r /Helvetica-Bold findfont 53.9397 sf 0 0 m (1) show NC gr 
 gsave  2268 1420 0 0 C 134.849 656.267 t 0 r /Helvetica-Bold findfont 53.9397 sf 0 0 m (1.5) show NC gr 
 gsave  2268 1420 0 0 C 179.799 822.581 t 0 r /Helvetica-Bold findfont 53.9397 sf 0 0 m (2) show NC gr 
 gsave  2268 1420 0 0 C 134.849 993.39 t 0 r /Helvetica-Bold findfont 53.9397 sf 0 0 m (2.5) show NC gr 
 gsave  2268 1420 0 0 C 179.799 1159.7 t 0 r /Helvetica-Bold findfont 53.9397 sf 0 0 m (3) show NC gr 
 gsave  2268 1420 0 0 C 58.4347 1206.9 t 90 r /Helvetica-Bold findfont 60.6822 sf 0 0 m (dx) show NC gr 
 gsave  2268 1420 0 0 C 29.2174 1188.92 t 90 r /Helvetica-Bold findfont 40.4548 sf 0 0 m ( ) show NC gr 
 gsave  2268 1420 0 0 C 56.1872 1170.94 t 90 r /Helvetica-Bold findfont 60.6822 sf 0 0 m (/) show NC gr 
 gsave  2268 1420 0 0 C 29.2174 1152.96 t 90 r /Helvetica-Bold findfont 40.4548 sf 0 0 m ( ) show NC gr 
 gsave  2268 1420 0 0 C 56.1872 923.718 t 90 r /Helvetica-Bold findfont 60.6822 sf 0 0 m (\(1/N\) dN) show NC gr  2154 170 m 1108 Y s 2101 170 m 53 X s 2128 204 m 26 X s 2128 238 m 26 X s 2128 271 m 26 X s 2128 305 m 26 X s 2101 339 m 53 X s 2128 372
 m 26 X s 2128 406 m 26 X s 2128 440 m 26 X s 2128 473 m 26 X s 2101 507 m 53 X s 2128 540 m 26 X s 2128 574 m 26 X s 2128 608 m 26 X s 2128 641 m 26 X s 2101 675 m 53 X s 2128 709 m 26 X s 2128 742 m 26 X s 2128 776 m 26 X s 2128 810 m 26 X s 2101
 843 m 53 X s 2128 877 m 26 X s 2128 911 m 26 X s 2128 944 m 26 X s 2128 978 m 26 X s 2101 1011 m 53 X s 2128 1045 m 26 X s 2128 1079 m 26 X s 2128 1112 m 26 X s 2128 1146 m 26 X s 2101 1180 m 53 X s 2101 1180 m 53 X s 2128 1213 m 26 X s 2128 1247 m
 26 X s 0.490196 0.545098 0.615686 c 1 1 1 c 0.490196 0.545098 0.615686 c 907 170 238 1108 bl 238 1108 m 907 X s 1145 1108 m 170 Y s 1145 1278 m -907 X s 238 1278 m -170 Y s black
 gsave  2268 1420 0 0 C 418.033 1218.14 t 0 r /Helvetica-Bold findfont 53.9397 sf 0 0 m (Signal \(test sample\)) show NC gr  0.49 0.6 0.82 c 265 1206 m 127 X 60 Y -127 X f 0 0 0.933333 c 265 1266 m 127 X s 265 1206 m 127 X s 392 1206 m 60 Y s 265
 1206 m 60 Y s black
 gsave  2268 1420 0 0 C 418.033 1132.73 t 0 r /Helvetica-Bold findfont 53.9397 sf 0 0 m (Background \(test sample\)) show NC gr  1 0 0 c 392 1162 m -41 -41 d s 363 1180 m -60 -59 d s 314 1180 m -49 -49 d s 266 1180 m -1 -1 d s 0 0 0.933333 c 1 0 0 c
 265 1180 m 127 X s 265 1121 m 127 X s 392 1121 m 59 Y s 265 1121 m 59 Y s 0 0 0.933333 c 0.49 0.6 0.82 c black 0.49 0.6 0.82 c 238 170 m 671 X 2 Y 48 X -1 Y 48 X -1 Y 383 X 1 Y 48 X 8 Y 48 X 39 Y 48 X 196 Y 47 X 388 Y 48 X 221 Y 48 X -612 Y 48 X
 -233 Y 48 X -6 Y 48 X -2 Y 144 X 1 Y 96 X 3 Y 47 X 1 Y 48 X -5 Y f 0 0 0.933333 c 0.49 0.6 0.82 c 0 0 0.933333 c 238 170 m 671 X 2 Y 48 X -1 Y 48 X -1 Y 383 X 1 Y 48 X 8 Y 48 X 39 Y 48 X 196 Y 47 X 388 Y 48 X 221 Y 48 X -612 Y 48 X -233 Y 48 X -6 Y
 48 X -2 Y 144 X 1 Y 96 X 3 Y 47 X 1 Y 48 X -5 Y s 1 0 0 c black 1 0 0 c 2143 170 m s 2095 170 m s 2047 170 m s 1998 170 m s 1950 170 m s 1902 170 m s 1854 170 m s 1806 170 m s 1758 170 m s 1711 172 m -1 -2 d s 1672 180 m -10 -10 d s 1627 184 m -13
 -14 d s 1597 202 m -31 -32 d s 1579 233 m -62 -63 d s 1538 240 m -69 -70 d s 1532 281 m -111 -111 d s 1485 283 m -112 -113 d s 1483 328 m -158 -158 d s 1436 329 m -159 -159 d s 1402 344 m -14 -14 d s 1364 306 m -24 -24 d s 1311 252 m -19 -18 d s
 1269 211 m -25 -25 d s 1243 185 m -14 -15 d s 1184 174 m -3 -4 d s 1133 171 m -1 Y s 1085 171 m -1 -1 d s 1036 170 m s 988 170 m s 943 173 m -3 -3 d s 909 187 m -17 -17 d s 898 224 m -54 -54 d s 861 236 m -65 -66 d s 861 284 m -113 -114 d s 861 332
 m -161 -162 d s 850 369 m -85 -85 d s 722 240 m -5 -4 d s 677 196 m -8 -8 d s 655 174 m -3 -4 d s 792 359 m -27 -27 d s 604 171 m -1 -1 d s 555 170 m s 507 170 m s 460 171 m -1 -1 d s 414 173 m -3 -3 d s 377 185 m -14 -15 d s 334 190 m -19 -20 d s
 334 238 m -67 -68 d s 305 257 m -67 -67 d s 286 286 m -48 -48 d s 286 334 m -48 -48 d s 286 382 m -48 -48 d s 286 430 m -48 -48 d s 286 478 m -48 -47 d s 286 527 m -48 -48 d s 286 575 m -48 -48 d s 286 623 m -48 -48 d s 286 671 m -48 -48 d s 286 719
 m -48 -48 d s 254 735 m -16 -16 d s 238 735 m 48 X -478 Y 48 X -72 Y 48 X -12 Y 48 X -2 Y 48 X -1 Y 95 X 1 Y 48 X 3 Y 48 X 22 Y 48 X 44 Y 48 X 119 Y 48 X 10 Y 48 X -145 Y 48 X -51 Y 48 X -3 Y 96 X 1 Y 95 X 3 Y 48 X 11 Y 48 X 26 Y 48 X 41 Y 48 X 54 Y
 48 X 38 Y 48 X -16 Y 48 X -45 Y 48 X -43 Y 47 X -38 Y 48 X -22 Y 48 X -8 Y 48 X -2 Y 431 X s 0.490196 0.545098 0.615686 c 1 1 1 c 0.490196 0.545098 0.615686 c 952 170 1202 1108 bl 1202 1108 m 952 X s 2154 1108 m 170 Y s 2154 1278 m -952 X s 1202
 1278 m -170 Y s black
 gsave  2268 1420 0 0 C 1296.8 1218.14 t 0 r /Helvetica-Bold findfont 53.9397 sf 0 0 m (Signal \(training sample\)) show NC gr  0 0 0.933333 c /w 13 def /w2 {w 2 div} def /w3 {w 3 div} def 1250 1236 m20 black
 gsave  2268 1420 0 0 C 1296.8 1132.73 t 0 r /Helvetica-Bold findfont 53.9397 sf 0 0 m (Background \(training sample\)) show NC gr  1 0 0 c 1250 1151 m20 0 0 0.933333 c 1 1 1 c 0 0 0.933333 c 957 171 m 19 X s 985 171 m 20 X s 957 166 m 9 Y s 1005 166
 m 9 Y s 981 171 m20 1148 171 m 20 X s 1177 171 m 19 X s 1148 166 m 9 Y s 1196 166 m 9 Y s 1172 171 m20 1388 171 m 19 X s 1416 171 m 20 X s 1388 166 m 9 Y s 1436 166 m 9 Y s 1412 171 m20 1436 179 m 19 X s 1464 179 m 20 X s 1436 175 m 9 Y s 1484 175 m
 9 Y s 1460 179 m20 1508 221 m 1 Y s 1508 231 m s 1484 226 m 19 X s 1512 226 m 20 X s 1503 221 m 9 X s 1503 231 m 9 X s 1484 222 m 9 Y s 1532 222 m 9 Y s 1508 226 m20 1556 397 m 6 Y s 1556 412 m 5 Y s 1532 407 m 19 X s 1560 407 m 19 X s 1551 397 m 9
 X s 1551 417 m 9 X s 1532 403 m 9 Y s 1579 403 m 9 Y s 1556 407 m20 1603 806 m 12 Y s 1603 827 m 12 Y s 1579 822 m 20 X s 1608 822 m 19 X s 1599 806 m 9 X s 1599 839 m 9 X s 1579 818 m 9 Y s 1627 818 m 9 Y s 1603 822 m20 1651 1000 m 14 Y s 1651 1023
 m 14 Y s 1627 1019 m 20 X s 1656 1019 m 19 X s 1647 1000 m 9 X s 1647 1037 m 9 X s 1627 1014 m 9 Y s 1675 1014 m 9 Y s 1651 1019 m20 1699 381 m 5 Y s 1699 395 m 5 Y s 1675 390 m 20 X s 1704 390 m 19 X s 1695 381 m 9 X s 1695 400 m 9 X s 1675 386 m 9
 Y s 1723 386 m 9 Y s 1699 390 m20 1723 177 m 20 X s 1752 177 m 19 X s 1723 173 m 9 Y s 1771 173 m 9 Y s 1747 177 m20 1771 172 m 20 X s 1800 172 m 19 X s 1771 168 m 9 Y s 1819 168 m 9 Y s 1795 172 m20 1915 171 m 19 X s 1943 171 m 20 X s 1915 166 m 9
 Y s 1963 166 m 9 Y s 1939 171 m20 2011 171 m 19 X s 2039 171 m 20 X s 2011 166 m 9 Y s 2059 166 m 9 Y s 2035 171 m20 2059 173 m 19 X s 2087 173 m 19 X s 2059 169 m 9 Y s 2106 169 m 9 Y s 2082 173 m20 2106 180 m 20 X s 2135 180 m 19 X s 2106 175 m 9
 Y s 2154 175 m 9 Y s 2130 180 m20 1 0 0 c 1 1 1 c 1 0 0 c 262 731 m s 262 740 m s 238 735 m 20 X s 267 735 m 19 X s 258 731 m 9 X s 258 740 m 9 X s 238 731 m 9 Y s 286 731 m 9 Y s 262 735 m20 286 256 m 19 X s 314 256 m 20 X s 286 251 m 9 Y s 334 251
 m 9 Y s 310 256 m20 334 184 m 19 X s 362 184 m 20 X s 334 180 m 9 Y s 382 180 m 9 Y s 358 184 m20 382 174 m 19 X s 410 174 m 20 X s 382 169 m 9 Y s 430 169 m 9 Y s 406 174 m20 430 171 m 19 X s 458 171 m 20 X s 430 166 m 9 Y s 478 166 m 9 Y s 454 171
 m20 478 170 m 19 X s 506 170 m 20 X s 478 166 m 9 Y s 526 166 m 9 Y s 502 170 m20 526 170 m 19 X s 554 170 m 19 X s 526 166 m 9 Y s 573 166 m 9 Y s 549 170 m20 573 171 m 20 X s 602 171 m 19 X s 573 166 m 9 Y s 621 166 m 9 Y s 597 171 m20 621 175 m
 20 X s 650 175 m 19 X s 621 170 m 9 Y s 669 170 m 9 Y s 645 175 m20 669 198 m 20 X s 698 198 m 19 X s 669 193 m 9 Y s 717 193 m 9 Y s 693 198 m20 717 240 m 20 X s 746 240 m 19 X s 717 236 m 9 Y s 765 236 m 9 Y s 741 240 m20 765 356 m 20 X s 794 356
 m 19 X s 765 352 m 9 Y s 813 352 m 9 Y s 789 356 m20 813 379 m 19 X s 841 379 m 20 X s 813 374 m 9 Y s 861 374 m 9 Y s 837 379 m20 861 222 m 19 X s 889 222 m 20 X s 861 218 m 9 Y s 909 218 m 9 Y s 885 222 m20 909 174 m 19 X s 937 174 m 20 X s 909
 169 m 9 Y s 957 169 m 9 Y s 933 174 m20 1100 171 m 20 X s 1129 171 m 19 X s 1100 166 m 9 Y s 1148 166 m 9 Y s 1124 171 m20 1148 174 m 20 X s 1177 174 m 19 X s 1148 169 m 9 Y s 1196 169 m 9 Y s 1172 174 m20 1196 184 m 20 X s 1225 184 m 19 X s 1196
 179 m 9 Y s 1244 179 m 9 Y s 1220 184 m20 1244 209 m 20 X s 1273 209 m 19 X s 1244 204 m 9 Y s 1292 204 m 9 Y s 1268 209 m20 1292 254 m 19 X s 1320 254 m 20 X s 1292 249 m 9 Y s 1340 249 m 9 Y s 1316 254 m20 1340 307 m 19 X s 1368 307 m 20 X s 1340
 303 m 9 Y s 1388 303 m 9 Y s 1364 307 m20 1388 342 m 19 X s 1416 342 m 20 X s 1388 337 m 9 Y s 1436 337 m 9 Y s 1412 342 m20 1436 325 m 19 X s 1464 325 m 20 X s 1436 321 m 9 Y s 1484 321 m 9 Y s 1460 325 m20 1484 281 m 19 X s 1512 281 m 20 X s 1484
 277 m 9 Y s 1532 277 m 9 Y s 1508 281 m20 1532 240 m 19 X s 1560 240 m 19 X s 1532 235 m 9 Y s 1579 235 m 9 Y s 1556 240 m20 1579 202 m 20 X s 1608 202 m 19 X s 1579 198 m 9 Y s 1627 198 m 9 Y s 1603 202 m20 1627 180 m 20 X s 1656 180 m 19 X s 1627
 176 m 9 Y s 1675 176 m 9 Y s 1651 180 m20 1675 172 m 20 X s 1704 172 m 19 X s 1675 167 m 9 Y s 1723 167 m 9 Y s 1699 172 m20 black
 gsave  2268 1420 0 0 C 272.126 1051.11 t 0 r /Helvetica-Bold findfont 42.7023 sf 0 0 m (Kolmogorov\255Smirnov test: signal \(background\) probability = 0.182 \(0.146\)) show NC gr  238 170 m 1916 X s 348 206 m -36 Y s 406 188 m -18 Y s 464 188 m -18
 Y s 523 188 m -18 Y s 581 188 m -18 Y s 639 206 m -36 Y s 697 188 m -18 Y s 755 188 m -18 Y s 814 188 m -18 Y s 872 188 m -18 Y s 930 206 m -36 Y s 988 188 m -18 Y s 1046 188 m -18 Y s 1105 188 m -18 Y s 1163 188 m -18 Y s 1221 206 m -36 Y s 1279
 188 m -18 Y s 1337 188 m -18 Y s 1396 188 m -18 Y s 1454 188 m -18 Y s 1512 206 m -36 Y s 1570 188 m -18 Y s 1629 188 m -18 Y s 1687 188 m -18 Y s 1745 188 m -18 Y s 1803 206 m -36 Y s 1861 188 m -18 Y s 1920 188 m -18 Y s 1978 188 m -18 Y s 2036
 188 m -18 Y s 2094 206 m -36 Y s 348 206 m -36 Y s 290 188 m -18 Y s 2094 206 m -36 Y s 2152 188 m -18 Y s 238 1278 m 1916 X s 348 1242 m 36 Y s 406 1260 m 18 Y s 464 1260 m 18 Y s 523 1260 m 18 Y s 581 1260 m 18 Y s 639 1242 m 36 Y s 697 1260 m 18
 Y s 755 1260 m 18 Y s 814 1260 m 18 Y s 872 1260 m 18 Y s 930 1242 m 36 Y s 988 1260 m 18 Y s 1046 1260 m 18 Y s 1105 1260 m 18 Y s 1163 1260 m 18 Y s 1221 1242 m 36 Y s 1279 1260 m 18 Y s 1337 1260 m 18 Y s 1396 1260 m 18 Y s 1454 1260 m 18 Y s
 1512 1242 m 36 Y s 1570 1260 m 18 Y s 1629 1260 m 18 Y s 1687 1260 m 18 Y s 1745 1260 m 18 Y s 1803 1242 m 36 Y s 1861 1260 m 18 Y s 1920 1260 m 18 Y s 1978 1260 m 18 Y s 2036 1260 m 18 Y s 2094 1242 m 36 Y s 348 1242 m 36 Y s 290 1260 m 18 Y s 2094
 1242 m 36 Y s 2152 1260 m 18 Y s 238 170 m 1108 Y s 291 170 m -53 X s 265 204 m -27 X s 265 238 m -27 X s 265 271 m -27 X s 265 305 m -27 X s 291 339 m -53 X s 265 372 m -27 X s 265 406 m -27 X s 265 440 m -27 X s 265 473 m -27 X s 291 507 m -53 X s
 265 540 m -27 X s 265 574 m -27 X s 265 608 m -27 X s 265 641 m -27 X s 291 675 m -53 X s 265 709 m -27 X s 265 742 m -27 X s 265 776 m -27 X s 265 810 m -27 X s 291 843 m -53 X s 265 877 m -27 X s 265 911 m -27 X s 265 944 m -27 X s 265 978 m -27 X
 s 291 1011 m -53 X s 265 1045 m -27 X s 265 1079 m -27 X s 265 1112 m -27 X s 265 1146 m -27 X s 291 1180 m -53 X s 291 1180 m -53 X s 265 1213 m -27 X s 265 1247 m -27 X s 2154 170 m 1108 Y s 2101 170 m 53 X s 2128 204 m 26 X s 2128 238 m 26 X s
 2128 271 m 26 X s 2128 305 m 26 X s 2101 339 m 53 X s 2128 372 m 26 X s 2128 406 m 26 X s 2128 440 m 26 X s 2128 473 m 26 X s 2101 507 m 53 X s 2128 540 m 26 X s 2128 574 m 26 X s 2128 608 m 26 X s 2128 641 m 26 X s 2101 675 m 53 X s 2128 709 m 26 X
 s 2128 742 m 26 X s 2128 776 m 26 X s 2128 810 m 26 X s 2101 843 m 53 X s 2128 877 m 26 X s 2128 911 m 26 X s 2128 944 m 26 X s 2128 978 m 26 X s 2101 1011 m 53 X s 2128 1045 m 26 X s 2128 1079 m 26 X s 2128 1112 m 26 X s 2128 1146 m 26 X s 2101
 1180 m 53 X s 2101 1180 m 53 X s 2128 1213 m 26 X s 2128 1247 m 26 X s
 gsave  2268 1420 0 0 C 2211.02 163.348 t 90 r /Helvetica-Bold findfont 40.4548 sf 0 0 m (U/O\255flow \(S,B\): \(0.0, 0.0\)% / \(0.0, 0.0\)%) show NC gr  0.490196 0.545098 0.615686 c 0.364706 0.419608 0.490196 c 1587 81 23 1332 bf 0.490196 0.545098
 0.615686 c 23 1332 m 1587 X s 1610 1332 m 81 Y s 1610 1413 m -1587 X s 23 1413 m -81 Y s 1 1 1 c black 1 1 1 c
 gsave  2268 1420 0 0 C 92.1471 1355.24 t 0 r /Helvetica-Bold findfont 60.6822 sf 0 0 m (TMVA overtraining check for classifier: Likelihood) show NC gr 
 gr  gr showpage
end
%%EOF
