%!PS-Adobe-2.0 EPSF-2.0
%%BoundingBox:  0 0 567 294
%%Title: : TMVA comparison MLP
%%Creator: ROOT Version 6.12/06
%%CreationDate: Thu May 17 23:48:27 2018
%%DocumentNeededResources: ProcSet (FontSetInit)
%%EndComments
%%BeginProlog
80 dict begin
/s {stroke} def /l {lineto} def /m {moveto} def /t {translate} def
/r {rotate} def /rl {roll}  def /R {repeat} def
/d {rlineto} def /rm {rmoveto} def /gr {grestore} def /f {eofill} def
/c {setrgbcolor} def /black {0 setgray} def /sd {setdash} def
/cl {closepath} def /sf {scalefont setfont} def /lw {setlinewidth} def
/box {m dup 0 exch d exch 0 d 0 exch neg d cl} def
/NC{systemdict begin initclip end}def/C{NC box clip newpath}def
/bl {box s} def /bf {gsave box gsave f grestore 1 lw [] 0 sd s grestore} def /Y { 0 exch d} def /X { 0 d} def 
/K {{pop pop 0 moveto} exch kshow} bind def
/ita {/ang 15 def gsave [1 0 ang dup sin exch cos div 1 0 0] concat} def 
/mp {newpath /y exch def /x exch def} def
/side {[w .77 mul w .23 mul] .385 w mul sd w 0 l currentpoint t -144 r} def
/mr {mp x y w2 0 360 arc} def /m24 {mr s} def /m20 {mr f} def
/mb {mp x y w2 add m w2 neg 0 d 0 w neg d w 0 d 0 w d cl} def
/mt {mp x y w2 add m w2 neg w neg d w 0 d cl} def
/w4 {w 4 div} def
/w6 {w 6 div} def
/w8 {w 8 div} def
/m21 {mb f} def /m25 {mb s} def /m22 {mt f} def /m26{mt s} def
/m23 {mp x y w2 sub m w2 w d w neg 0 d cl f} def
/m27 {mp x y w2 add m w3 neg w2 neg d w3 w2 neg d w3 w2 d cl s} def
/m28 {mp x w2 sub y w2 sub w3 add m w3 0 d  0 w3 neg d w3 0 d 0 w3 d w3 0 d  0 w3 d w3 neg 0 d 0 w3 d w3 neg 0 d 0 w3 neg d w3 neg 0 d cl s } def
/m29 {mp gsave x w2 sub y w2 add w3 sub m currentpoint t 4 {side} repeat cl fill gr} def
/m30 {mp gsave x w2 sub y w2 add w3 sub m currentpoint t 4 {side} repeat cl s gr} def
/m31 {mp x y w2 sub m 0 w d x w2 sub y m w 0 d x w2 sub y w2 add m w w neg d x w2 sub y w2 sub m w w d s} def
/m32 {mp x y w2 sub m w2 w d w neg 0 d cl s} def
/m33 {mp x y w2 add m w3 neg w2 neg d w3 w2 neg d w3 w2 d cl f} def
/m34 {mp x w2 sub y w2 sub w3 add m w3 0 d  0 w3 neg d w3 0 d 0 w3 d w3 0 d  0 w3 d w3 neg 0 d 0 w3 d w3 neg 0 d 0 w3 neg d w3 neg 0 d cl f } def
/m35 {mp x y w2 add m w2 neg w2 neg d w2 w2 neg d w2 w2 d w2 neg w2 d x y w2 sub m 0 w d x w2 sub y m w 0 d s} def
/m36 {mb x w2 sub y w2 add m w w neg d x w2 sub y w2 sub m w w d s} def
/m37 {mp x y m w4 neg w2 d w4 neg w2 neg d w2 0 d  w4 neg w2 neg d w2 0 d w4 neg w2 d w2 0 d w4 neg w2 d w4 neg w2 neg d cl s} def
/m38 {mp x w4 sub y w2 add m w4 neg w4 neg d 0 w2 neg d w4 w4 neg d w2 0 d w4 w4 d 0 w2 d w4 neg w4 d w2 neg 0 d x y w2 sub m 0 w d x w2 sub y m w 0 d cl s} def
/m39 {mp x y m w4 neg w2 d w4 neg w2 neg d w2 0 d  w4 neg w2 neg d w2 0 d w4 neg w2 d w2 0 d w4 neg w2 d w4 neg w2 neg d cl f} def
/m40 {mp x y m w4 w2 d w4 w4 neg d w2 neg w4 neg d w2 w4 neg d w4 neg w4 neg d w4 neg w2 d w4 neg w2 neg d w4 neg w4 d w2 w4 d w2 neg w4 d w4 w4 d w4 w2 neg d cl s} def
/m41 {mp x y m w4 w2 d w4 w4 neg d w2 neg w4 neg d w2 w4 neg d w4 neg w4 neg d w4 neg w2 d w4 neg w2 neg d w4 neg w4 d w2 w4 d w2 neg w4 d w4 w4 d w4 w2 neg d cl f} def
/m42 {mp x y w2 add m w8 neg w2 -3 4 div mul d w2 -3 4 div mul w8 neg d w2 3 4 div mul w8 neg d w8 w2 -3 4 div mul d w8 w2 3 4 div mul d w2 3 4 div mul w8 d w2 -3 4 div mul w8 d w8 neg w2 3 4 div mul d cl s} def
/m43 {mp x y w2 add m w8 neg w2 -3 4 div mul d w2 -3 4 div mul w8 neg d w2 3 4 div mul w8 neg d w8 w2 -3 4 div mul d w8 w2 3 4 div mul d w2 3 4 div mul w8 d w2 -3 4 div mul w8 d w8 neg w2 3 4 div mul d cl f} def
/m44 {mp x y m w6 neg w2 d w2 2 3 div mul 0 d w6 neg w2 neg d w2 w6 d 0 w2 -2 3 div mul d w2 neg w6 d w6 w2 neg d w2 -2 3 div mul 0 d w6 w2 d w2 neg w6 neg d 0 w2 2 3 div mul d w2 w6 neg d cl s} def
/m45 {mp x y m w6 neg w2 d w2 2 3 div mul 0 d w6 neg w2 neg d w2 w6 d 0 w2 -2 3 div mul d w2 neg w6 d w6 w2 neg d w2 -2 3 div mul 0 d w6 w2 d w2 neg w6 neg d 0 w2 2 3 div mul d w2 w6 neg d cl f} def
/m46 {mp x y w4 add m w4 neg w4 d w4 neg w4 neg d  w4 w4 neg d w4 neg w4 neg d w4 w4 neg d w4 w4 d w4 w4 neg d w4 w4 d w4 neg w4 d w4 w4 d w4 neg w4 d w4 neg w4 neg d cl s} def
/m47 {mp x y w4 add m w4 neg w4 d w4 neg w4 neg d w4 w4 neg d w4 neg w4 neg d  w4 w4 neg d w4 w4 d w4 w4 neg d w4 w4 d w4 neg w4 d w4 w4 d w4 neg w4 d w4 neg w4 neg d cl f} def
/m48 {mp x y w4 add m w4 neg w4 d w4 neg w4 neg d w4 w4 neg d  w4 neg w4 neg d w4 w4 neg d w4 w4 d w4 w4 neg d w4 w4 d w4 neg w4 d w4 w4 d w4 neg w4 d w4 neg w4 neg d  w4 w4 neg d w4 neg w4 neg d w4 neg w4 d w4 w4 d cl f} def
/m49 {mp x w2 sub w3 add y w2 sub w3 add m  0 w3 neg d w3 0 d 0 w3 d w3 0 d 0 w3 d w3 neg 0 d 0 w3 d w3 neg 0 d 0 w3 neg d w3 neg 0 d 0 w3 neg d w3 0 d 0 w3 d w3 0 d 0 w3 neg d w3 neg 0 d cl f } def
/m2 {mp x y w2 sub m 0 w d x w2 sub y m w 0 d s} def
/m5 {mp x w2 sub y w2 sub m w w d x w2 sub y w2 add m w w neg d s} def
%%IncludeResource: ProcSet (FontSetInit)
%%IncludeResource: font Times-Roman
%%IncludeResource: font Times-Italic
%%IncludeResource: font Times-Bold
%%IncludeResource: font Times-BoldItalic
%%IncludeResource: font Helvetica
%%IncludeResource: font Helvetica-Oblique
%%IncludeResource: font Helvetica-Bold
%%IncludeResource: font Helvetica-BoldOblique
%%IncludeResource: font Courier
%%IncludeResource: font Courier-Oblique
%%IncludeResource: font Courier-Bold
%%IncludeResource: font Courier-BoldOblique
%%IncludeResource: font Symbol
%%IncludeResource: font ZapfDingbats
/reEncode {exch findfont dup length dict begin {1 index /FID eq  {pop pop} {def} ifelse } forall /Encoding exch def currentdict end dup /FontName get exch definefont pop } def [/Times-Bold /Times-Italic /Times-BoldItalic /Helvetica /Helvetica-Oblique
 /Helvetica-Bold /Helvetica-BoldOblique /Courier /Courier-Oblique /Courier-Bold /Courier-BoldOblique /Times-Roman /AvantGarde-Book /AvantGarde-BookOblique /AvantGarde-Demi /AvantGarde-DemiOblique /Bookman-Demi /Bookman-DemiItalic /Bookman-Light
 /Bookman-LightItalic /Helvetica-Narrow /Helvetica-Narrow-Bold /Helvetica-Narrow-BoldOblique /Helvetica-Narrow-Oblique /NewCenturySchlbk-Roman /NewCenturySchlbk-Bold /NewCenturySchlbk-BoldItalic /NewCenturySchlbk-Italic /Palatino-Bold
 /Palatino-BoldItalic /Palatino-Italic /Palatino-Roman ] {ISOLatin1Encoding reEncode } forall
%%EndProlog
%%BeginSetup
%%EndSetup
newpath  gsave  .25 .25 scale  gsave  0 0 t 0.490196 0.545098 0.615686 c[  ] 0 sd 3 lw 0.941176 0.941176 0.941176 c 2268 1175 0 0 bf black 1 1 0.992157 c 1916 916 238 141 bf black 1916 916 238 141 bl 1 1 0.992157 c 1916 916 238 141 bf black 1916 916
 238 141 bl 238 141 m 1916 X s 238 171 m -30 Y s 276 156 m -15 Y s 315 156 m -15 Y s 353 156 m -15 Y s 391 156 m -15 Y s 430 171 m -30 Y s 468 156 m -15 Y s 506 156 m -15 Y s 545 156 m -15 Y s 583 156 m -15 Y s 621 171 m -30 Y s 660 156 m -15 Y s 698
 156 m -15 Y s 736 156 m -15 Y s 775 156 m -15 Y s 813 171 m -30 Y s 851 156 m -15 Y s 890 156 m -15 Y s 928 156 m -15 Y s 966 156 m -15 Y s 1005 171 m -30 Y s 1043 156 m -15 Y s 1081 156 m -15 Y s 1120 156 m -15 Y s 1158 156 m -15 Y s 1196 171 m -30
 Y s 1235 156 m -15 Y s 1273 156 m -15 Y s 1311 156 m -15 Y s 1350 156 m -15 Y s 1388 171 m -30 Y s 1426 156 m -15 Y s 1465 156 m -15 Y s 1503 156 m -15 Y s 1541 156 m -15 Y s 1580 171 m -30 Y s 1618 156 m -15 Y s 1656 156 m -15 Y s 1695 156 m -15 Y
 s 1733 156 m -15 Y s 1771 171 m -30 Y s 1810 156 m -15 Y s 1848 156 m -15 Y s 1886 156 m -15 Y s 1925 156 m -15 Y s 1963 171 m -30 Y s 238 171 m -30 Y s 1963 171 m -30 Y s 2001 156 m -15 Y s 2040 156 m -15 Y s 2078 156 m -15 Y s 2116 156 m -15 Y s
 gsave  2268 1175 0 0 C 225.609 90.7087 t 0 r /Helvetica-Bold findfont 44.1914 sf 0 0 m (0) show NC gr 
 gsave  2268 1175 0 0 C 400.048 90.7087 t 0 r /Helvetica-Bold findfont 44.1914 sf 0 0 m (0.1) show NC gr 
 gsave  2268 1175 0 0 C 590.769 90.7087 t 0 r /Helvetica-Bold findfont 44.1914 sf 0 0 m (0.2) show NC gr 
 gsave  2268 1175 0 0 C 781.49 90.7087 t 0 r /Helvetica-Bold findfont 44.1914 sf 0 0 m (0.3) show NC gr 
 gsave  2268 1175 0 0 C 972.211 90.7087 t 0 r /Helvetica-Bold findfont 44.1914 sf 0 0 m (0.4) show NC gr 
 gsave  2268 1175 0 0 C 1165.26 90.7087 t 0 r /Helvetica-Bold findfont 44.1914 sf 0 0 m (0.5) show NC gr 
 gsave  2268 1175 0 0 C 1355.98 90.7087 t 0 r /Helvetica-Bold findfont 44.1914 sf 0 0 m (0.6) show NC gr 
 gsave  2268 1175 0 0 C 1549.02 90.7087 t 0 r /Helvetica-Bold findfont 44.1914 sf 0 0 m (0.7) show NC gr 
 gsave  2268 1175 0 0 C 1739.75 90.7087 t 0 r /Helvetica-Bold findfont 44.1914 sf 0 0 m (0.8) show NC gr 
 gsave  2268 1175 0 0 C 1930.47 90.7087 t 0 r /Helvetica-Bold findfont 44.1914 sf 0 0 m (0.9) show NC gr 
 gsave  2268 1175 0 0 C 1821.15 23.2586 t 0 r /Helvetica-Bold findfont 48.8431 sf 0 0 m (MLP response) show NC gr  238 1057 m 1916 X s 238 1027 m 30 Y s 276 1042 m 15 Y s 315 1042 m 15 Y s 353 1042 m 15 Y s 391 1042 m 15 Y s 430 1027 m 30 Y s 468
 1042 m 15 Y s 506 1042 m 15 Y s 545 1042 m 15 Y s 583 1042 m 15 Y s 621 1027 m 30 Y s 660 1042 m 15 Y s 698 1042 m 15 Y s 736 1042 m 15 Y s 775 1042 m 15 Y s 813 1027 m 30 Y s 851 1042 m 15 Y s 890 1042 m 15 Y s 928 1042 m 15 Y s 966 1042 m 15 Y s
 1005 1027 m 30 Y s 1043 1042 m 15 Y s 1081 1042 m 15 Y s 1120 1042 m 15 Y s 1158 1042 m 15 Y s 1196 1027 m 30 Y s 1235 1042 m 15 Y s 1273 1042 m 15 Y s 1311 1042 m 15 Y s 1350 1042 m 15 Y s 1388 1027 m 30 Y s 1426 1042 m 15 Y s 1465 1042 m 15 Y s
 1503 1042 m 15 Y s 1541 1042 m 15 Y s 1580 1027 m 30 Y s 1618 1042 m 15 Y s 1656 1042 m 15 Y s 1695 1042 m 15 Y s 1733 1042 m 15 Y s 1771 1027 m 30 Y s 1810 1042 m 15 Y s 1848 1042 m 15 Y s 1886 1042 m 15 Y s 1925 1042 m 15 Y s 1963 1027 m 30 Y s
 238 1027 m 30 Y s 1963 1027 m 30 Y s 2001 1042 m 15 Y s 2040 1042 m 15 Y s 2078 1042 m 15 Y s 2116 1042 m 15 Y s 238 141 m 916 Y s 291 141 m -53 X s 265 162 m -27 X s 265 183 m -27 X s 265 204 m -27 X s 265 225 m -27 X s 291 245 m -53 X s 265 266 m
 -27 X s 265 287 m -27 X s 265 308 m -27 X s 265 329 m -27 X s 291 350 m -53 X s 265 371 m -27 X s 265 392 m -27 X s 265 413 m -27 X s 265 433 m -27 X s 291 454 m -53 X s 265 475 m -27 X s 265 496 m -27 X s 265 517 m -27 X s 265 538 m -27 X s 291 559
 m -53 X s 265 580 m -27 X s 265 601 m -27 X s 265 621 m -27 X s 265 642 m -27 X s 291 663 m -53 X s 265 684 m -27 X s 265 705 m -27 X s 265 726 m -27 X s 265 747 m -27 X s 291 768 m -53 X s 265 789 m -27 X s 265 810 m -27 X s 265 830 m -27 X s 265
 851 m -27 X s 291 872 m -53 X s 265 893 m -27 X s 265 914 m -27 X s 265 935 m -27 X s 265 956 m -27 X s 291 977 m -53 X s 291 977 m -53 X s 265 998 m -27 X s 265 1018 m -27 X s 265 1039 m -27 X s
 gsave  2268 1175 0 0 C 186.069 125.597 t 0 r /Helvetica-Bold findfont 44.1914 sf 0 0 m (0) show NC gr 
 gsave  2268 1175 0 0 C 186.069 230.26 t 0 r /Helvetica-Bold findfont 44.1914 sf 0 0 m (5) show NC gr 
 gsave  2268 1175 0 0 C 160.485 334.924 t 0 r /Helvetica-Bold findfont 44.1914 sf 0 0 m (10) show NC gr 
 gsave  2268 1175 0 0 C 160.485 439.588 t 0 r /Helvetica-Bold findfont 44.1914 sf 0 0 m (15) show NC gr 
 gsave  2268 1175 0 0 C 160.485 544.252 t 0 r /Helvetica-Bold findfont 44.1914 sf 0 0 m (20) show NC gr 
 gsave  2268 1175 0 0 C 160.485 648.916 t 0 r /Helvetica-Bold findfont 44.1914 sf 0 0 m (25) show NC gr 
 gsave  2268 1175 0 0 C 160.485 753.58 t 0 r /Helvetica-Bold findfont 44.1914 sf 0 0 m (30) show NC gr 
 gsave  2268 1175 0 0 C 160.485 855.918 t 0 r /Helvetica-Bold findfont 44.1914 sf 0 0 m (35) show NC gr 
 gsave  2268 1175 0 0 C 160.485 960.581 t 0 r /Helvetica-Bold findfont 44.1914 sf 0 0 m (40) show NC gr 
 gsave  2268 1175 0 0 C 55.8207 1000.12 t 90 r /Helvetica-Bold findfont 48.8431 sf 0 0 m (dx) show NC gr 
 gsave  2268 1175 0 0 C 34.8879 986.166 t 90 r /Helvetica-Bold findfont 32.5621 sf 0 0 m ( ) show NC gr 
 gsave  2268 1175 0 0 C 55.8207 972.211 t 90 r /Helvetica-Bold findfont 48.8431 sf 0 0 m (/) show NC gr 
 gsave  2268 1175 0 0 C 32.5621 958.256 t 90 r /Helvetica-Bold findfont 32.5621 sf 0 0 m ( ) show NC gr 
 gsave  2268 1175 0 0 C 55.8207 772.187 t 90 r /Helvetica-Bold findfont 48.8431 sf 0 0 m (\(1/N\) dN) show NC gr  2154 141 m 916 Y s 2101 141 m 53 X s 2128 162 m 26 X s 2128 183 m 26 X s 2128 204 m 26 X s 2128 225 m 26 X s 2101 245 m 53 X s 2128 266
 m 26 X s 2128 287 m 26 X s 2128 308 m 26 X s 2128 329 m 26 X s 2101 350 m 53 X s 2128 371 m 26 X s 2128 392 m 26 X s 2128 413 m 26 X s 2128 433 m 26 X s 2101 454 m 53 X s 2128 475 m 26 X s 2128 496 m 26 X s 2128 517 m 26 X s 2128 538 m 26 X s 2101
 559 m 53 X s 2128 580 m 26 X s 2128 601 m 26 X s 2128 621 m 26 X s 2128 642 m 26 X s 2101 663 m 53 X s 2128 684 m 26 X s 2128 705 m 26 X s 2128 726 m 26 X s 2128 747 m 26 X s 2101 768 m 53 X s 2128 789 m 26 X s 2128 810 m 26 X s 2128 830 m 26 X s
 2128 851 m 26 X s 2101 872 m 53 X s 2128 893 m 26 X s 2128 914 m 26 X s 2128 935 m 26 X s 2128 956 m 26 X s 2101 977 m 53 X s 2101 977 m 53 X s 2128 998 m 26 X s 2128 1018 m 26 X s 2128 1039 m 26 X s 0.490196 0.545098 0.615686 c 1 1 1 c 0.490196
 0.545098 0.615686 c 907 141 238 916 bl 238 916 m 907 X s 1145 916 m 141 Y s 1145 1057 m -907 X s 238 1057 m -141 Y s black
 gsave  2268 1175 0 0 C 418.655 1007.1 t 0 r /Helvetica-Bold findfont 53.4949 sf 0 0 m (Signal \(test sample\)) show NC gr  0.49 0.6 0.82 c 265 997 m 127 X 50 Y -127 X f 0 0 0.933333 c 265 1047 m 127 X s 265 997 m 127 X s 392 997 m 50 Y s 265 997 m
 50 Y s black
 gsave  2268 1175 0 0 C 418.655 937.323 t 0 r /Helvetica-Bold findfont 53.4949 sf 0 0 m (Background \(test sample\)) show NC gr  1 0 0 c 392 970 m -43 -43 d s 351 976 m -50 -49 d s 303 976 m -38 -37 d s 0 0 0.933333 c 1 0 0 c 265 976 m 127 X s 265
 927 m 127 X s 392 927 m 49 Y s 265 927 m 49 Y s 0 0 0.933333 c 0.49 0.6 0.82 c black 0.49 0.6 0.82 c 238 141 m 48 X 1 Y 96 X -1 Y 48 X 1 Y 48 X -1 Y 48 X 1 Y 95 X -1 Y 96 X 1 Y 431 X 1 Y 96 X 1 Y 48 X -1 Y 96 X -1 Y 48 X 2 Y 96 X 2 Y 47 X -1 Y 48 X
 1 Y 48 X 2 Y 48 X -2 Y 48 X 4 Y 48 X 3 Y 48 X 3 Y 48 X 3 Y 48 X 18 Y 48 X 25 Y 48 X 72 Y 47 X 357 Y 48 X -490 Y f 0 0 0.933333 c 0.49 0.6 0.82 c 0 0 0.933333 c 238 141 m 48 X 1 Y 96 X -1 Y 48 X 1 Y 48 X -1 Y 48 X 1 Y 95 X -1 Y 96 X 1 Y 431 X 1 Y 96
 X 1 Y 48 X -1 Y 96 X -1 Y 48 X 2 Y 96 X 2 Y 47 X -1 Y 48 X 1 Y 48 X 2 Y 48 X -2 Y 48 X 4 Y 48 X 3 Y 48 X 3 Y 48 X 3 Y 48 X 18 Y 48 X 25 Y 48 X 72 Y 47 X 357 Y 48 X -490 Y s 1 0 0 c black 1 0 0 c 2118 145 m -5 -4 d s 2069 145 m -4 -4 d s 2021 145 m
 -4 -4 d s 1972 144 m -3 -3 d s 1924 144 m -3 -3 d s 1875 144 m -2 -3 d s 1827 143 m -2 -2 d s 1779 143 m -2 -2 d s 1730 143 m -2 -2 d s 1682 143 m -2 -2 d s 1634 143 m -2 -2 d s 1586 143 m -2 -2 d s 1538 142 m -2 -1 d s 1490 143 m -2 -2 d s 1442 143
 m -2 -2 d s 1394 143 m -2 -2 d s 1345 143 m -1 -2 d s 1297 143 m -2 -2 d s 1249 143 m -2 -2 d s 1201 143 m -2 -2 d s 1153 143 m -2 -2 d s 1105 143 m -2 -2 d s 1057 143 m -2 -2 d s 1008 143 m -1 -2 d s 961 143 m -2 -2 d s 913 143 m -2 -2 d s 865 143
 m -2 -2 d s 817 143 m -3 -2 d s 769 143 m -3 -2 d s 721 144 m -3 -3 d s 672 143 m -2 -2 d s 625 144 m -3 -3 d s 577 144 m -3 -3 d s 530 145 m -4 -4 d s 483 146 m -5 -5 d s 435 147 m -5 -6 d s 389 149 m -8 -8 d s 345 152 m -12 -11 d s 306 162 m -21
 -21 d s 286 190 m -48 -48 d s 286 238 m -48 -48 d s 286 286 m -48 -48 d s 286 334 m -48 -48 d s 286 382 m -48 -48 d s 286 430 m -48 -48 d s 286 478 m -48 -47 d s 286 527 m -48 -48 d s 286 575 m -48 -48 d s 286 623 m -48 -48 d s 286 671 m -48 -48 d s
 286 719 m -48 -48 d s 286 767 m -48 -48 d s 286 815 m -48 -48 d s 267 844 m -29 -29 d s 238 844 m 48 X -682 Y 48 X -10 Y 48 X -3 Y 48 X -2 Y 48 X -1 Y 48 X -1 Y 47 X -1 Y 96 X -1 Y 48 X 1 Y 48 X -1 Y 767 X -1 Y 47 X 1 Y 288 X 1 Y 144 X 1 Y 143 X -4
 Y s 0.490196 0.545098 0.615686 c 1 1 1 c 0.490196 0.545098 0.615686 c 952 141 1202 916 bl 1202 916 m 952 X s 2154 916 m 141 Y s 2154 1057 m -952 X s 1202 1057 m -141 Y s black
 gsave  2268 1175 0 0 C 1295.51 1007.1 t 0 r /Helvetica-Bold findfont 53.4949 sf 0 0 m (Signal \(training sample\)) show NC gr  0 0 0.933333 c /w 13 def /w2 {w 2 div} def /w3 {w 3 div} def 1250 1022 m20 black
 gsave  2268 1175 0 0 C 1295.51 937.323 t 0 r /Helvetica-Bold findfont 53.4949 sf 0 0 m (Background \(training sample\)) show NC gr  1 0 0 c 1250 951 m20 0 0 0.933333 c 1 1 1 c 0 0 0.933333 c 238 141 m 19 X s 267 141 m 19 X s 238 136 m 10 Y s 286 136
 m 10 Y s 262 141 m20 286 142 m 19 X s 315 142 m 19 X s 286 137 m 9 Y s 334 137 m 9 Y s 310 142 m20 334 142 m 19 X s 363 142 m 19 X s 334 137 m 10 Y s 382 137 m 10 Y s 358 142 m20 382 142 m 19 X s 410 142 m 20 X s 382 138 m 9 Y s 430 138 m 9 Y s 406
 142 m20 430 142 m 19 X s 458 142 m 20 X s 430 138 m 9 Y s 478 138 m 9 Y s 454 142 m20 478 141 m 19 X s 506 141 m 20 X s 478 137 m 9 Y s 526 137 m 9 Y s 502 141 m20 526 141 m 19 X s 554 141 m 19 X s 526 137 m 9 Y s 573 137 m 9 Y s 549 141 m20 573 142
 m 20 X s 602 142 m 19 X s 573 137 m 9 Y s 621 137 m 9 Y s 597 142 m20 621 142 m 20 X s 650 142 m 19 X s 621 137 m 10 Y s 669 137 m 10 Y s 645 142 m20 669 142 m 20 X s 698 142 m 19 X s 669 137 m 10 Y s 717 137 m 10 Y s 693 142 m20 717 142 m 19 X s
 746 142 m 19 X s 717 137 m 9 Y s 765 137 m 9 Y s 741 142 m20 765 142 m 19 X s 794 142 m 19 X s 765 137 m 9 Y s 813 137 m 9 Y s 789 142 m20 813 142 m 19 X s 842 142 m 19 X s 813 137 m 9 Y s 861 137 m 9 Y s 837 142 m20 861 142 m 19 X s 889 142 m 20 X
 s 861 137 m 10 Y s 909 137 m 10 Y s 885 142 m20 909 142 m 19 X s 937 142 m 20 X s 909 138 m 9 Y s 957 138 m 9 Y s 933 142 m20 957 142 m 19 X s 985 142 m 20 X s 957 138 m 9 Y s 1005 138 m 9 Y s 981 142 m20 1005 143 m 19 X s 1033 143 m 20 X s 1005 138
 m 9 Y s 1053 138 m 9 Y s 1029 143 m20 1053 142 m 19 X s 1081 142 m 19 X s 1053 138 m 9 Y s 1100 138 m 9 Y s 1076 142 m20 1100 142 m 20 X s 1129 142 m 19 X s 1100 138 m 9 Y s 1148 138 m 9 Y s 1124 142 m20 1148 143 m 20 X s 1177 143 m 19 X s 1148 138
 m 10 Y s 1196 138 m 10 Y s 1172 143 m20 1196 142 m 20 X s 1225 142 m 19 X s 1196 138 m 9 Y s 1244 138 m 9 Y s 1220 142 m20 1244 143 m 19 X s 1273 143 m 19 X s 1244 138 m 9 Y s 1292 138 m 9 Y s 1268 143 m20 1292 142 m 19 X s 1321 142 m 19 X s 1292
 137 m 10 Y s 1340 137 m 10 Y s 1316 142 m20 1340 143 m 19 X s 1369 143 m 19 X s 1340 138 m 10 Y s 1388 138 m 10 Y s 1364 143 m20 1388 144 m 19 X s 1416 144 m 20 X s 1388 139 m 9 Y s 1436 139 m 9 Y s 1412 144 m20 1436 144 m 19 X s 1464 144 m 20 X s
 1436 139 m 10 Y s 1484 139 m 10 Y s 1460 144 m20 1484 145 m 19 X s 1512 145 m 20 X s 1484 140 m 9 Y s 1532 140 m 9 Y s 1508 145 m20 1532 144 m 19 X s 1560 144 m 19 X s 1532 139 m 9 Y s 1579 139 m 9 Y s 1556 144 m20 1579 145 m 20 X s 1608 145 m 19 X
 s 1579 140 m 9 Y s 1627 140 m 9 Y s 1603 145 m20 1627 147 m 20 X s 1656 147 m 19 X s 1627 142 m 10 Y s 1675 142 m 10 Y s 1651 147 m20 1675 146 m 20 X s 1704 146 m 19 X s 1675 142 m 9 Y s 1723 142 m 9 Y s 1699 146 m20 1723 149 m 19 X s 1752 149 m 19
 X s 1723 144 m 9 Y s 1771 144 m 9 Y s 1747 149 m20 1771 149 m 19 X s 1800 149 m 19 X s 1771 144 m 9 Y s 1819 144 m 9 Y s 1795 149 m20 1819 153 m 19 X s 1848 153 m 19 X s 1819 148 m 10 Y s 1867 148 m 10 Y s 1843 153 m20 1867 158 m 19 X s 1896 158 m
 19 X s 1867 154 m 9 Y s 1915 154 m 9 Y s 1891 158 m20 1915 162 m 19 X s 1943 162 m 20 X s 1915 158 m 9 Y s 1963 158 m 9 Y s 1939 162 m20 1963 175 m 19 X s 1991 175 m 20 X s 1963 171 m 9 Y s 2011 171 m 9 Y s 1987 175 m20 2011 204 m 19 X s 2039 204 m
 20 X s 2011 200 m 9 Y s 2059 200 m 9 Y s 2035 204 m20 2059 270 m 19 X s 2087 270 m 19 X s 2059 266 m 9 Y s 2106 266 m 9 Y s 2082 270 m20 2130 618 m 5 Y s 2130 632 m 4 Y s 2106 627 m 20 X s 2135 627 m 19 X s 2126 618 m 9 X s 2126 636 m 9 X s 2106 623
 m 9 Y s 2154 623 m 9 Y s 2130 627 m20 1 0 0 c 1 1 1 c 1 0 0 c 238 846 m 19 X s 267 846 m 19 X s 238 841 m 9 Y s 286 841 m 9 Y s 262 846 m20 286 161 m 19 X s 315 161 m 19 X s 286 157 m 9 Y s 334 157 m 9 Y s 310 161 m20 334 152 m 19 X s 363 152 m 19 X
 s 334 147 m 9 Y s 382 147 m 9 Y s 358 152 m20 382 149 m 19 X s 410 149 m 20 X s 382 144 m 9 Y s 430 144 m 9 Y s 406 149 m20 430 146 m 19 X s 458 146 m 20 X s 430 142 m 9 Y s 478 142 m 9 Y s 454 146 m20 478 146 m 19 X s 506 146 m 20 X s 478 141 m 10
 Y s 526 141 m 10 Y s 502 146 m20 526 145 m 19 X s 554 145 m 19 X s 526 141 m 9 Y s 573 141 m 9 Y s 549 145 m20 573 145 m 20 X s 602 145 m 19 X s 573 140 m 9 Y s 621 140 m 9 Y s 597 145 m20 621 144 m 20 X s 650 144 m 19 X s 621 139 m 10 Y s 669 139 m
 10 Y s 645 144 m20 669 143 m 20 X s 698 143 m 19 X s 669 139 m 9 Y s 717 139 m 9 Y s 693 143 m20 717 143 m 19 X s 746 143 m 19 X s 717 139 m 9 Y s 765 139 m 9 Y s 741 143 m20 765 143 m 19 X s 794 143 m 19 X s 765 139 m 9 Y s 813 139 m 9 Y s 789 143
 m20 813 143 m 19 X s 842 143 m 19 X s 813 138 m 10 Y s 861 138 m 10 Y s 837 143 m20 861 143 m 19 X s 889 143 m 20 X s 861 138 m 10 Y s 909 138 m 10 Y s 885 143 m20 909 143 m 19 X s 937 143 m 20 X s 909 139 m 9 Y s 957 139 m 9 Y s 933 143 m20 957 143
 m 19 X s 985 143 m 20 X s 957 138 m 10 Y s 1005 138 m 10 Y s 981 143 m20 1005 143 m 19 X s 1033 143 m 20 X s 1005 138 m 9 Y s 1053 138 m 9 Y s 1029 143 m20 1053 143 m 19 X s 1081 143 m 19 X s 1053 138 m 9 Y s 1100 138 m 9 Y s 1076 143 m20 1100 143 m
 20 X s 1129 143 m 19 X s 1100 138 m 9 Y s 1148 138 m 9 Y s 1124 143 m20 1148 143 m 20 X s 1177 143 m 19 X s 1148 138 m 10 Y s 1196 138 m 10 Y s 1172 143 m20 1196 143 m 20 X s 1225 143 m 19 X s 1196 138 m 9 Y s 1244 138 m 9 Y s 1220 143 m20 1244 143
 m 19 X s 1273 143 m 19 X s 1244 138 m 9 Y s 1292 138 m 9 Y s 1268 143 m20 1292 143 m 19 X s 1321 143 m 19 X s 1292 138 m 9 Y s 1340 138 m 9 Y s 1316 143 m20 1340 143 m 19 X s 1369 143 m 19 X s 1340 138 m 10 Y s 1388 138 m 10 Y s 1364 143 m20 1388
 143 m 19 X s 1416 143 m 20 X s 1388 138 m 9 Y s 1436 138 m 9 Y s 1412 143 m20 1436 143 m 19 X s 1464 143 m 20 X s 1436 138 m 10 Y s 1484 138 m 10 Y s 1460 143 m20 1484 143 m 19 X s 1512 143 m 20 X s 1484 138 m 10 Y s 1532 138 m 10 Y s 1508 143 m20
 1532 143 m 19 X s 1560 143 m 19 X s 1532 138 m 9 Y s 1579 138 m 9 Y s 1556 143 m20 1579 143 m 20 X s 1608 143 m 19 X s 1579 138 m 10 Y s 1627 138 m 10 Y s 1603 143 m20 1627 143 m 20 X s 1656 143 m 19 X s 1627 138 m 9 Y s 1675 138 m 9 Y s 1651 143
 m20 1675 143 m 20 X s 1704 143 m 19 X s 1675 138 m 9 Y s 1723 138 m 9 Y s 1699 143 m20 1723 143 m 19 X s 1752 143 m 19 X s 1723 139 m 9 Y s 1771 139 m 9 Y s 1747 143 m20 1771 143 m 19 X s 1800 143 m 19 X s 1771 138 m 10 Y s 1819 138 m 10 Y s 1795
 143 m20 1819 143 m 19 X s 1848 143 m 19 X s 1819 138 m 10 Y s 1867 138 m 10 Y s 1843 143 m20 1867 143 m 19 X s 1896 143 m 19 X s 1867 139 m 9 Y s 1915 139 m 9 Y s 1891 143 m20 1915 144 m 19 X s 1943 144 m 20 X s 1915 139 m 9 Y s 1963 139 m 9 Y s
 1939 144 m20 1963 144 m 19 X s 1991 144 m 20 X s 1963 140 m 9 Y s 2011 140 m 9 Y s 1987 144 m20 2011 145 m 19 X s 2039 145 m 20 X s 2011 140 m 9 Y s 2059 140 m 9 Y s 2035 145 m20 2059 145 m 19 X s 2087 145 m 19 X s 2059 141 m 9 Y s 2106 141 m 9 Y s
 2082 145 m20 2106 145 m 20 X s 2135 145 m 19 X s 2106 141 m 9 Y s 2154 141 m 9 Y s 2130 145 m20 black
 gsave  2268 1175 0 0 C 272.126 869.175 t 0 r /Helvetica-Bold findfont 34.8879 sf 0 0 m (Kolmogorov\255Smirnov test: signal \(background\) probability = 0.338 \(0.585\)) show NC gr  238 141 m 1916 X s 238 171 m -30 Y s 276 156 m -15 Y s 315 156 m -15
 Y s 353 156 m -15 Y s 391 156 m -15 Y s 430 171 m -30 Y s 468 156 m -15 Y s 506 156 m -15 Y s 545 156 m -15 Y s 583 156 m -15 Y s 621 171 m -30 Y s 660 156 m -15 Y s 698 156 m -15 Y s 736 156 m -15 Y s 775 156 m -15 Y s 813 171 m -30 Y s 851 156 m
 -15 Y s 890 156 m -15 Y s 928 156 m -15 Y s 966 156 m -15 Y s 1005 171 m -30 Y s 1043 156 m -15 Y s 1081 156 m -15 Y s 1120 156 m -15 Y s 1158 156 m -15 Y s 1196 171 m -30 Y s 1235 156 m -15 Y s 1273 156 m -15 Y s 1311 156 m -15 Y s 1350 156 m -15 Y
 s 1388 171 m -30 Y s 1426 156 m -15 Y s 1465 156 m -15 Y s 1503 156 m -15 Y s 1541 156 m -15 Y s 1580 171 m -30 Y s 1618 156 m -15 Y s 1656 156 m -15 Y s 1695 156 m -15 Y s 1733 156 m -15 Y s 1771 171 m -30 Y s 1810 156 m -15 Y s 1848 156 m -15 Y s
 1886 156 m -15 Y s 1925 156 m -15 Y s 1963 171 m -30 Y s 238 171 m -30 Y s 1963 171 m -30 Y s 2001 156 m -15 Y s 2040 156 m -15 Y s 2078 156 m -15 Y s 2116 156 m -15 Y s 238 1057 m 1916 X s 238 1027 m 30 Y s 276 1042 m 15 Y s 315 1042 m 15 Y s 353
 1042 m 15 Y s 391 1042 m 15 Y s 430 1027 m 30 Y s 468 1042 m 15 Y s 506 1042 m 15 Y s 545 1042 m 15 Y s 583 1042 m 15 Y s 621 1027 m 30 Y s 660 1042 m 15 Y s 698 1042 m 15 Y s 736 1042 m 15 Y s 775 1042 m 15 Y s 813 1027 m 30 Y s 851 1042 m 15 Y s
 890 1042 m 15 Y s 928 1042 m 15 Y s 966 1042 m 15 Y s 1005 1027 m 30 Y s 1043 1042 m 15 Y s 1081 1042 m 15 Y s 1120 1042 m 15 Y s 1158 1042 m 15 Y s 1196 1027 m 30 Y s 1235 1042 m 15 Y s 1273 1042 m 15 Y s 1311 1042 m 15 Y s 1350 1042 m 15 Y s 1388
 1027 m 30 Y s 1426 1042 m 15 Y s 1465 1042 m 15 Y s 1503 1042 m 15 Y s 1541 1042 m 15 Y s 1580 1027 m 30 Y s 1618 1042 m 15 Y s 1656 1042 m 15 Y s 1695 1042 m 15 Y s 1733 1042 m 15 Y s 1771 1027 m 30 Y s 1810 1042 m 15 Y s 1848 1042 m 15 Y s 1886
 1042 m 15 Y s 1925 1042 m 15 Y s 1963 1027 m 30 Y s 238 1027 m 30 Y s 1963 1027 m 30 Y s 2001 1042 m 15 Y s 2040 1042 m 15 Y s 2078 1042 m 15 Y s 2116 1042 m 15 Y s 238 141 m 916 Y s 291 141 m -53 X s 265 162 m -27 X s 265 183 m -27 X s 265 204 m
 -27 X s 265 225 m -27 X s 291 245 m -53 X s 265 266 m -27 X s 265 287 m -27 X s 265 308 m -27 X s 265 329 m -27 X s 291 350 m -53 X s 265 371 m -27 X s 265 392 m -27 X s 265 413 m -27 X s 265 433 m -27 X s 291 454 m -53 X s 265 475 m -27 X s 265 496
 m -27 X s 265 517 m -27 X s 265 538 m -27 X s 291 559 m -53 X s 265 580 m -27 X s 265 601 m -27 X s 265 621 m -27 X s 265 642 m -27 X s 291 663 m -53 X s 265 684 m -27 X s 265 705 m -27 X s 265 726 m -27 X s 265 747 m -27 X s 291 768 m -53 X s 265
 789 m -27 X s 265 810 m -27 X s 265 830 m -27 X s 265 851 m -27 X s 291 872 m -53 X s 265 893 m -27 X s 265 914 m -27 X s 265 935 m -27 X s 265 956 m -27 X s 291 977 m -53 X s 291 977 m -53 X s 265 998 m -27 X s 265 1018 m -27 X s 265 1039 m -27 X s
 2154 141 m 916 Y s 2101 141 m 53 X s 2128 162 m 26 X s 2128 183 m 26 X s 2128 204 m 26 X s 2128 225 m 26 X s 2101 245 m 53 X s 2128 266 m 26 X s 2128 287 m 26 X s 2128 308 m 26 X s 2128 329 m 26 X s 2101 350 m 53 X s 2128 371 m 26 X s 2128 392 m 26
 X s 2128 413 m 26 X s 2128 433 m 26 X s 2101 454 m 53 X s 2128 475 m 26 X s 2128 496 m 26 X s 2128 517 m 26 X s 2128 538 m 26 X s 2101 559 m 53 X s 2128 580 m 26 X s 2128 601 m 26 X s 2128 621 m 26 X s 2128 642 m 26 X s 2101 663 m 53 X s 2128 684 m
 26 X s 2128 705 m 26 X s 2128 726 m 26 X s 2128 747 m 26 X s 2101 768 m 53 X s 2128 789 m 26 X s 2128 810 m 26 X s 2128 830 m 26 X s 2128 851 m 26 X s 2101 872 m 53 X s 2128 893 m 26 X s 2128 914 m 26 X s 2128 935 m 26 X s 2128 956 m 26 X s 2101 977
 m 53 X s 2101 977 m 53 X s 2128 998 m 26 X s 2128 1018 m 26 X s 2128 1039 m 26 X s
 gsave  2268 1175 0 0 C 2211.02 135.075 t 90 r /Helvetica-Bold findfont 32.5621 sf 0 0 m (U/O\255flow \(S,B\): \(0.0, 0.0\)% / \(0.0, 0.0\)%) show NC gr  0.490196 0.545098 0.615686 c 0.364706 0.419608 0.490196 c 1587 67 23 1102 bf 0.490196 0.545098
 0.615686 c 23 1102 m 1587 X s 1610 1102 m 67 Y s 1610 1169 m -1587 X s 23 1169 m -67 Y s 1 1 1 c black 1 1 1 c
 gsave  2268 1175 0 0 C 255.845 1123.39 t 0 r /Helvetica-Bold findfont 53.4949 sf 0 0 m (TMVA overtraining check for classifier: MLP) show NC gr 
 gr  gr showpage
end
%%EOF
