%!PS-Adobe-2.0 EPSF-2.0
%%BoundingBox:  0 0 567 312
%%Title: : the canvas
%%Creator: ROOT Version 6.12/06
%%CreationDate: Thu May 17 23:51:48 2018
%%DocumentNeededResources: ProcSet (FontSetInit)
%%EndComments
%%BeginProlog
80 dict begin
/s {stroke} def /l {lineto} def /m {moveto} def /t {translate} def
/r {rotate} def /rl {roll}  def /R {repeat} def
/d {rlineto} def /rm {rmoveto} def /gr {grestore} def /f {eofill} def
/c {setrgbcolor} def /black {0 setgray} def /sd {setdash} def
/cl {closepath} def /sf {scalefont setfont} def /lw {setlinewidth} def
/box {m dup 0 exch d exch 0 d 0 exch neg d cl} def
/NC{systemdict begin initclip end}def/C{NC box clip newpath}def
/bl {box s} def /bf {gsave box gsave f grestore 1 lw [] 0 sd s grestore} def /Y { 0 exch d} def /X { 0 d} def 
/K {{pop pop 0 moveto} exch kshow} bind def
/ita {/ang 15 def gsave [1 0 ang dup sin exch cos div 1 0 0] concat} def 
/mp {newpath /y exch def /x exch def} def
/side {[w .77 mul w .23 mul] .385 w mul sd w 0 l currentpoint t -144 r} def
/mr {mp x y w2 0 360 arc} def /m24 {mr s} def /m20 {mr f} def
/mb {mp x y w2 add m w2 neg 0 d 0 w neg d w 0 d 0 w d cl} def
/mt {mp x y w2 add m w2 neg w neg d w 0 d cl} def
/w4 {w 4 div} def
/w6 {w 6 div} def
/w8 {w 8 div} def
/m21 {mb f} def /m25 {mb s} def /m22 {mt f} def /m26{mt s} def
/m23 {mp x y w2 sub m w2 w d w neg 0 d cl f} def
/m27 {mp x y w2 add m w3 neg w2 neg d w3 w2 neg d w3 w2 d cl s} def
/m28 {mp x w2 sub y w2 sub w3 add m w3 0 d  0 w3 neg d w3 0 d 0 w3 d w3 0 d  0 w3 d w3 neg 0 d 0 w3 d w3 neg 0 d 0 w3 neg d w3 neg 0 d cl s } def
/m29 {mp gsave x w2 sub y w2 add w3 sub m currentpoint t 4 {side} repeat cl fill gr} def
/m30 {mp gsave x w2 sub y w2 add w3 sub m currentpoint t 4 {side} repeat cl s gr} def
/m31 {mp x y w2 sub m 0 w d x w2 sub y m w 0 d x w2 sub y w2 add m w w neg d x w2 sub y w2 sub m w w d s} def
/m32 {mp x y w2 sub m w2 w d w neg 0 d cl s} def
/m33 {mp x y w2 add m w3 neg w2 neg d w3 w2 neg d w3 w2 d cl f} def
/m34 {mp x w2 sub y w2 sub w3 add m w3 0 d  0 w3 neg d w3 0 d 0 w3 d w3 0 d  0 w3 d w3 neg 0 d 0 w3 d w3 neg 0 d 0 w3 neg d w3 neg 0 d cl f } def
/m35 {mp x y w2 add m w2 neg w2 neg d w2 w2 neg d w2 w2 d w2 neg w2 d x y w2 sub m 0 w d x w2 sub y m w 0 d s} def
/m36 {mb x w2 sub y w2 add m w w neg d x w2 sub y w2 sub m w w d s} def
/m37 {mp x y m w4 neg w2 d w4 neg w2 neg d w2 0 d  w4 neg w2 neg d w2 0 d w4 neg w2 d w2 0 d w4 neg w2 d w4 neg w2 neg d cl s} def
/m38 {mp x w4 sub y w2 add m w4 neg w4 neg d 0 w2 neg d w4 w4 neg d w2 0 d w4 w4 d 0 w2 d w4 neg w4 d w2 neg 0 d x y w2 sub m 0 w d x w2 sub y m w 0 d cl s} def
/m39 {mp x y m w4 neg w2 d w4 neg w2 neg d w2 0 d  w4 neg w2 neg d w2 0 d w4 neg w2 d w2 0 d w4 neg w2 d w4 neg w2 neg d cl f} def
/m40 {mp x y m w4 w2 d w4 w4 neg d w2 neg w4 neg d w2 w4 neg d w4 neg w4 neg d w4 neg w2 d w4 neg w2 neg d w4 neg w4 d w2 w4 d w2 neg w4 d w4 w4 d w4 w2 neg d cl s} def
/m41 {mp x y m w4 w2 d w4 w4 neg d w2 neg w4 neg d w2 w4 neg d w4 neg w4 neg d w4 neg w2 d w4 neg w2 neg d w4 neg w4 d w2 w4 d w2 neg w4 d w4 w4 d w4 w2 neg d cl f} def
/m42 {mp x y w2 add m w8 neg w2 -3 4 div mul d w2 -3 4 div mul w8 neg d w2 3 4 div mul w8 neg d w8 w2 -3 4 div mul d w8 w2 3 4 div mul d w2 3 4 div mul w8 d w2 -3 4 div mul w8 d w8 neg w2 3 4 div mul d cl s} def
/m43 {mp x y w2 add m w8 neg w2 -3 4 div mul d w2 -3 4 div mul w8 neg d w2 3 4 div mul w8 neg d w8 w2 -3 4 div mul d w8 w2 3 4 div mul d w2 3 4 div mul w8 d w2 -3 4 div mul w8 d w8 neg w2 3 4 div mul d cl f} def
/m44 {mp x y m w6 neg w2 d w2 2 3 div mul 0 d w6 neg w2 neg d w2 w6 d 0 w2 -2 3 div mul d w2 neg w6 d w6 w2 neg d w2 -2 3 div mul 0 d w6 w2 d w2 neg w6 neg d 0 w2 2 3 div mul d w2 w6 neg d cl s} def
/m45 {mp x y m w6 neg w2 d w2 2 3 div mul 0 d w6 neg w2 neg d w2 w6 d 0 w2 -2 3 div mul d w2 neg w6 d w6 w2 neg d w2 -2 3 div mul 0 d w6 w2 d w2 neg w6 neg d 0 w2 2 3 div mul d w2 w6 neg d cl f} def
/m46 {mp x y w4 add m w4 neg w4 d w4 neg w4 neg d  w4 w4 neg d w4 neg w4 neg d w4 w4 neg d w4 w4 d w4 w4 neg d w4 w4 d w4 neg w4 d w4 w4 d w4 neg w4 d w4 neg w4 neg d cl s} def
/m47 {mp x y w4 add m w4 neg w4 d w4 neg w4 neg d w4 w4 neg d w4 neg w4 neg d  w4 w4 neg d w4 w4 d w4 w4 neg d w4 w4 d w4 neg w4 d w4 w4 d w4 neg w4 d w4 neg w4 neg d cl f} def
/m48 {mp x y w4 add m w4 neg w4 d w4 neg w4 neg d w4 w4 neg d  w4 neg w4 neg d w4 w4 neg d w4 w4 d w4 w4 neg d w4 w4 d w4 neg w4 d w4 w4 d w4 neg w4 d w4 neg w4 neg d  w4 w4 neg d w4 neg w4 neg d w4 neg w4 d w4 w4 d cl f} def
/m49 {mp x w2 sub w3 add y w2 sub w3 add m  0 w3 neg d w3 0 d 0 w3 d w3 0 d 0 w3 d w3 neg 0 d 0 w3 d w3 neg 0 d 0 w3 neg d w3 neg 0 d 0 w3 neg d w3 0 d 0 w3 d w3 0 d 0 w3 neg d w3 neg 0 d cl f } def
/m2 {mp x y w2 sub m 0 w d x w2 sub y m w 0 d s} def
/m5 {mp x w2 sub y w2 sub m w w d x w2 sub y w2 add m w w neg d s} def
%%IncludeResource: ProcSet (FontSetInit)
%%IncludeResource: font Times-Roman
%%IncludeResource: font Times-Italic
%%IncludeResource: font Times-Bold
%%IncludeResource: font Times-BoldItalic
%%IncludeResource: font Helvetica
%%IncludeResource: font Helvetica-Oblique
%%IncludeResource: font Helvetica-Bold
%%IncludeResource: font Helvetica-BoldOblique
%%IncludeResource: font Courier
%%IncludeResource: font Courier-Oblique
%%IncludeResource: font Courier-Bold
%%IncludeResource: font Courier-BoldOblique
%%IncludeResource: font Symbol
%%IncludeResource: font ZapfDingbats
/reEncode {exch findfont dup length dict begin {1 index /FID eq  {pop pop} {def} ifelse } forall /Encoding exch def currentdict end dup /FontName get exch definefont pop } def [/Times-Bold /Times-Italic /Times-BoldItalic /Helvetica /Helvetica-Oblique
 /Helvetica-Bold /Helvetica-BoldOblique /Courier /Courier-Oblique /Courier-Bold /Courier-BoldOblique /Times-Roman /AvantGarde-Book /AvantGarde-BookOblique /AvantGarde-Demi /AvantGarde-DemiOblique /Bookman-Demi /Bookman-DemiItalic /Bookman-Light
 /Bookman-LightItalic /Helvetica-Narrow /Helvetica-Narrow-Bold /Helvetica-Narrow-BoldOblique /Helvetica-Narrow-Oblique /NewCenturySchlbk-Roman /NewCenturySchlbk-Bold /NewCenturySchlbk-BoldItalic /NewCenturySchlbk-Italic /Palatino-Bold
 /Palatino-BoldItalic /Palatino-Italic /Palatino-Roman ] {ISOLatin1Encoding reEncode } forall
%%EndProlog
%%BeginSetup
%%EndSetup
newpath  gsave  .25 .25 scale  gsave  0 0 t 0.490196 0.545098 0.615686 c[  ] 0 sd 3 lw 0.941176 0.941176 0.941176 c 2268 1247 0 0 bf black 1 1 0.992157 c 1909 973 245 150 bf black 1909 973 245 150 bl 1 1 0.992157 c 1909 973 245 150 bf black 1909 973
 245 150 bl 245 150 m 1909 X s 245 181 m -31 Y s[ 4 8] 0 sd 245 1123 m -973 Y s[  ] 0 sd 283 165 m -15 Y s 321 165 m -15 Y s 359 165 m -15 Y s 398 165 m -15 Y s 436 181 m -31 Y s[ 4 8] 0 sd 436 1123 m -973 Y s[  ] 0 sd 474 165 m -15 Y s 512 165 m -15
 Y s 550 165 m -15 Y s 589 165 m -15 Y s 627 181 m -31 Y s[ 4 8] 0 sd 627 1123 m -973 Y s[  ] 0 sd 665 165 m -15 Y s 703 165 m -15 Y s 741 165 m -15 Y s 780 165 m -15 Y s 818 181 m -31 Y s[ 4 8] 0 sd 818 1123 m -973 Y s[  ] 0 sd 856 165 m -15 Y s 894
 165 m -15 Y s 932 165 m -15 Y s 970 165 m -15 Y s 1009 181 m -31 Y s[ 4 8] 0 sd 1009 1123 m -973 Y s[  ] 0 sd 1047 165 m -15 Y s 1085 165 m -15 Y s 1123 165 m -15 Y s 1161 165 m -15 Y s 1200 181 m -31 Y s[ 4 8] 0 sd 1200 1123 m -973 Y s[  ] 0 sd
 1238 165 m -15 Y s 1276 165 m -15 Y s 1314 165 m -15 Y s 1352 165 m -15 Y s 1391 181 m -31 Y s[ 4 8] 0 sd 1391 1123 m -973 Y s[  ] 0 sd 1429 165 m -15 Y s 1467 165 m -15 Y s 1505 165 m -15 Y s 1543 165 m -15 Y s 1582 181 m -31 Y s[ 4 8] 0 sd 1582
 1123 m -973 Y s[  ] 0 sd 1620 165 m -15 Y s 1658 165 m -15 Y s 1696 165 m -15 Y s 1734 165 m -15 Y s 1772 181 m -31 Y s[ 4 8] 0 sd 1772 1123 m -973 Y s[  ] 0 sd 1811 165 m -15 Y s 1849 165 m -15 Y s 1887 165 m -15 Y s 1925 165 m -15 Y s 1963 181 m
 -31 Y s[ 4 8] 0 sd 1963 1123 m -973 Y s[  ] 0 sd 2002 165 m -15 Y s 2040 165 m -15 Y s 2078 165 m -15 Y s 2116 165 m -15 Y s 2154 181 m -31 Y s[ 4 8] 0 sd 2154 1123 m -973 Y s
 gsave  2268 1247 0 0 C 229.802 95.9613 t 0 r /Helvetica-Bold findfont 45.4553 sf 0 0 m (0) show NC gr 
 gsave  2268 1247 0 0 C 406.573 95.9613 t 0 r /Helvetica-Bold findfont 45.4553 sf 0 0 m (0.1) show NC gr 
 gsave  2268 1247 0 0 C 593.445 95.9613 t 0 r /Helvetica-Bold findfont 45.4553 sf 0 0 m (0.2) show NC gr 
 gsave  2268 1247 0 0 C 782.842 95.9613 t 0 r /Helvetica-Bold findfont 45.4553 sf 0 0 m (0.3) show NC gr 
 gsave  2268 1247 0 0 C 974.765 95.9613 t 0 r /Helvetica-Bold findfont 45.4553 sf 0 0 m (0.4) show NC gr 
 gsave  2268 1247 0 0 C 1166.69 95.9613 t 0 r /Helvetica-Bold findfont 45.4553 sf 0 0 m (0.5) show NC gr 
 gsave  2268 1247 0 0 C 1356.08 95.9613 t 0 r /Helvetica-Bold findfont 45.4553 sf 0 0 m (0.6) show NC gr 
 gsave  2268 1247 0 0 C 1548.01 95.9613 t 0 r /Helvetica-Bold findfont 45.4553 sf 0 0 m (0.7) show NC gr 
 gsave  2268 1247 0 0 C 1737.4 95.9613 t 0 r /Helvetica-Bold findfont 45.4553 sf 0 0 m (0.8) show NC gr 
 gsave  2268 1247 0 0 C 1929.33 95.9613 t 0 r /Helvetica-Bold findfont 45.4553 sf 0 0 m (0.9) show NC gr 
 gsave  2268 1247 0 0 C 2143.98 95.9613 t 0 r /Helvetica-Bold findfont 45.4553 sf 0 0 m (1) show NC gr 
 gsave  2268 1247 0 0 C 1734.88 22.7277 t 0 r /Helvetica-Bold findfont 53.0312 sf 0 0 m (Signal efficiency) show NC gr [  ] 0 sd 245 1123 m 1909 X s 245 1091 m 32 Y s 283 1107 m 16 Y s 321 1107 m 16 Y s 359 1107 m 16 Y s 398 1107 m 16 Y s 436 1091 m
 32 Y s 474 1107 m 16 Y s 512 1107 m 16 Y s 550 1107 m 16 Y s 589 1107 m 16 Y s 627 1091 m 32 Y s 665 1107 m 16 Y s 703 1107 m 16 Y s 741 1107 m 16 Y s 780 1107 m 16 Y s 818 1091 m 32 Y s 856 1107 m 16 Y s 894 1107 m 16 Y s 932 1107 m 16 Y s 970 1107
 m 16 Y s 1009 1091 m 32 Y s 1047 1107 m 16 Y s 1085 1107 m 16 Y s 1123 1107 m 16 Y s 1161 1107 m 16 Y s 1200 1091 m 32 Y s 1238 1107 m 16 Y s 1276 1107 m 16 Y s 1314 1107 m 16 Y s 1352 1107 m 16 Y s 1391 1091 m 32 Y s 1429 1107 m 16 Y s 1467 1107 m
 16 Y s 1505 1107 m 16 Y s 1543 1107 m 16 Y s 1582 1091 m 32 Y s 1620 1107 m 16 Y s 1658 1107 m 16 Y s 1696 1107 m 16 Y s 1734 1107 m 16 Y s 1772 1091 m 32 Y s 1811 1107 m 16 Y s 1849 1107 m 16 Y s 1887 1107 m 16 Y s 1925 1107 m 16 Y s 1963 1091 m 32
 Y s 2002 1107 m 16 Y s 2040 1107 m 16 Y s 2078 1107 m 16 Y s 2116 1107 m 16 Y s 2154 1091 m 32 Y s 245 150 m 973 Y s 298 175 m -53 X s[ 4 8] 0 sd 2154 175 m -1909 X s[  ] 0 sd 271 214 m -26 X s 271 254 m -26 X s 271 293 m -26 X s 298 333 m -53 X s[
 4 8] 0 sd 2154 333 m -1909 X s[  ] 0 sd 271 372 m -26 X s 271 412 m -26 X s 271 451 m -26 X s 298 491 m -53 X s[ 4 8] 0 sd 2154 491 m -1909 X s[  ] 0 sd 271 530 m -26 X s 271 570 m -26 X s 271 609 m -26 X s 298 649 m -53 X s[ 4 8] 0 sd 2154 649 m
 -1909 X s[  ] 0 sd 271 688 m -26 X s 271 728 m -26 X s 271 767 m -26 X s 298 807 m -53 X s[ 4 8] 0 sd 2154 807 m -1909 X s[  ] 0 sd 271 846 m -26 X s 271 886 m -26 X s 271 925 m -26 X s 298 965 m -53 X s[ 4 8] 0 sd 2154 965 m -1909 X s[  ] 0 sd 271
 1004 m -26 X s 271 1044 m -26 X s 271 1083 m -26 X s 298 1123 m -53 X s[ 4 8] 0 sd 2154 1123 m -1909 X s[  ] 0 sd 298 175 m -53 X s[ 4 8] 0 sd 2154 175 m -1909 X s
 gsave  2268 1247 0 0 C 128.79 159.094 t 0 r /Helvetica-Bold findfont 45.4553 sf 0 0 m (0.88) show NC gr 
 gsave  2268 1247 0 0 C 154.043 315.662 t 0 r /Helvetica-Bold findfont 45.4553 sf 0 0 m (0.9) show NC gr 
 gsave  2268 1247 0 0 C 128.79 474.756 t 0 r /Helvetica-Bold findfont 45.4553 sf 0 0 m (0.92) show NC gr 
 gsave  2268 1247 0 0 C 128.79 631.324 t 0 r /Helvetica-Bold findfont 45.4553 sf 0 0 m (0.94) show NC gr 
 gsave  2268 1247 0 0 C 128.79 790.418 t 0 r /Helvetica-Bold findfont 45.4553 sf 0 0 m (0.96) show NC gr 
 gsave  2268 1247 0 0 C 128.79 949.512 t 0 r /Helvetica-Bold findfont 45.4553 sf 0 0 m (0.98) show NC gr 
 gsave  2268 1247 0 0 C 199.498 1106.08 t 0 r /Helvetica-Bold findfont 45.4553 sf 0 0 m (1) show NC gr 
 gsave  2268 1247 0 0 C 60.6071 580.818 t 90 r /Helvetica-Bold findfont 53.0312 sf 0 0 m (Background rejection) show NC gr [  ] 0 sd 2154 150 m 973 Y s 2101 175 m 53 X s 2128 214 m 26 X s 2128 254 m 26 X s 2128 293 m 26 X s 2101 333 m 53 X s 2128 372
 m 26 X s 2128 412 m 26 X s 2128 451 m 26 X s 2101 491 m 53 X s 2128 530 m 26 X s 2128 570 m 26 X s 2128 609 m 26 X s 2101 649 m 53 X s 2128 688 m 26 X s 2128 728 m 26 X s 2128 767 m 26 X s 2101 807 m 53 X s 2128 846 m 26 X s 2128 886 m 26 X s 2128
 925 m 26 X s 2101 965 m 53 X s 2128 1004 m 26 X s 2128 1044 m 26 X s 2128 1083 m 26 X s 2101 1123 m 53 X s 2101 175 m 53 X s 9 lw 1 1 1 c black 254 1122 m 39 X 19 -1 d 57 X 19 -1 d 57 X 19 -1 d 39 X 19 -1 d 38 X 18 -1 d 20 X 19 -1 d 19 X 19 -1 d 20
 X 19 -1 d 38 X 6 -1 d 13 X 19 -1 d 18 -1 d 1 X 8 -1 d 11 X 19 -1 d 28 X 8 -1 d 2 X 20 -1 d 4 -1 d 34 X 7 -1 d 12 -1 d 19 -1 d 19 -1 d 19 -1 d 7 -1 d 12 X 19 -1 d 19 -1 d 20 -1 d 19 X 5 -1 d 5 X 9 -1 d 19 -2 d 14 X 3 -1 d 5 X 16 -1 d 7 -1 d 12 X s
 1190 1090 m 19 -1 d 19 -2 d 19 -2 d 19 -1 d 20 -2 d 19 X 19 -2 d 19 -1 d 19 -2 d 19 -2 d 19 -1 d 19 -3 d 19 -2 d 19 -3 d 19 -2 d 20 -2 d 19 -1 d 19 -3 d 19 -3 d 19 -3 d 19 -2 d 19 -2 d 19 -3 d 19 -4 d 19 -2 d 20 -4 d 19 -3 d 19 -4 d 19 -4 d 19 -6 d
 19 -7 d 19 -6 d 19 -5 d 19 -7 d 19 -8 d 19 -9 d 14 -4 d 6 -2 d 8 -5 d 11 -8 d 19 -16 d 19 -15 d 19 -13 d 16 -10 d 3 -3 d 8 -7 d 11 -13 d 19 -26 d 8 -8 d 7 -9 d 4 -7 d 19 -41 d 6 -9 d 8 -14 d 3 -7 d 3 -5 d 5 -14 d 4 -14 d 4 -12 d 4 -14 d 2 -8 d 3 -17
 d 4 -18 d 4 -22 d 4 -20 d 4 -25 d s 2126 590 m 19 -319 d s 1 0 0 c 1 1 1 c black 1 0 0 c 254 1123 m 115 X 19 -1 d 66 X 8 -1 d 22 X 19 -1 d 6 -1 d 51 X 19 -1 d 38 X 17 -1 d 21 X 20 -1 d 19 X 19 -1 d 17 X 2 -1 d 19 X 7 -1 d 12 X 19 -1 d 38 X 19 -1 d 9
 -1 d 17 X 13 -1 d 32 X 4 -1 d 6 X 15 -1 d 14 -1 d 5 -1 d 19 X 19 -1 d 7 -1 d 17 X 14 -1 d 5 -1 d 14 X 20 -1 d 14 -1 d 5 X 19 -1 d 6 -1 d 13 X 5 -1 d 14 -1 d 7 X 12 -1 d 19 -1 d s 1190 1093 m 19 -2 d 19 -1 d 19 -2 d 19 -2 d 20 -1 d 19 -1 d 19 -1 d 19
 -1 d 19 -2 d 19 -2 d 19 -3 d 19 -2 d 19 -3 d 19 -2 d 19 -3 d 20 -2 d 19 -2 d 19 -3 d 19 -2 d 19 -2 d 19 -2 d 19 -2 d 19 -3 d 19 -4 d 19 -3 d 20 -3 d 19 -3 d 19 -5 d 19 -3 d 19 -6 d 19 -4 d 19 -7 d 19 -7 d 19 -6 d 19 -6 d 15 -6 d 4 -3 d 20 -12 d 8 -3
 d 8 -4 d 3 -1 d 7 -6 d 12 -11 d 19 -16 d 15 -11 d 4 -3 d 19 -12 d 13 -9 d 5 -5 d 1 -1 d 6 -7 d 13 -20 d 16 -22 d 3 -5 d 11 -17 d 7 -14 d 1 -3 d 10 -19 d 5 -10 d 5 -12 d 4 -14 d 6 -18 d 6 -21 d 3 -11 d 6 -25 d 5 -22 d 6 -25 d 2 -8 d s 2126 614 m 19
 -291 d s 0 1 0 c 1 1 1 c black 0 1 0 c 254 1122 m 20 X 19 -1 d 38 X 19 -1 d 19 X 19 -1 d 19 X 19 -1 d 38 X 20 -1 d 19 X 16 -1 d 41 X 19 -1 d 19 X 19 -1 d 11 -1 d 47 X 19 -1 d 19 X 5 -1 d 14 -1 d 19 X 19 -1 d 19 X 6 -1 d 13 X 17 -1 d 2 X 19 -1 d 10
 -1 d 9 X 16 -1 d 4 X 19 -1 d 4 -1 d 15 X 19 -1 d 19 X 19 -2 d 7 X 7 -1 d 8 X 9 -2 d 4 X 3 -1 d 7 X 12 -1 d 19 X 15 -1 d 5 X 7 -1 d 8 X 4 -1 d 16 -2 d 8 X 7 -1 d 14 X 10 -1 d 11 X 10 -1 d 9 X 9 -1 d 1 X s 1190 1085 m 19 -2 d 19 -1 d 19 -1 d 19 X 20
 -2 d 19 -2 d 19 -2 d 19 -2 d 19 -1 d 19 -3 d 19 -1 d 19 -2 d 19 -2 d 19 -3 d 19 -2 d 20 -3 d 19 -4 d 19 -3 d 19 -3 d 19 -1 d 19 -3 d 19 -2 d 19 -5 d 19 -5 d 19 -4 d 20 -4 d 19 -4 d 19 -6 d 19 -3 d 19 -8 d 19 -6 d 19 -4 d 15 -5 d 4 -2 d 19 -10 d 19
 -8 d 19 -12 d 20 -9 d 19 -13 d 19 -12 d 10 -5 d 7 -4 d 2 -1 d 19 -19 d 12 -10 d 7 -6 d 19 -24 d 7 -8 d 11 -9 d 1 -2 d 11 -13 d 6 -8 d 2 -4 d 5 -10 d 14 -31 d 13 -27 d 5 -11 d 2 -5 d 7 -21 d 4 -12 d 3 -11 d 3 -11 d 2 -7 d 3 -14 d 3 -18 d 3 -20 d 4
 -21 d 3 -21 d 3 -23 d s 2126 544 m 19 -311 d s 0 0 1 c 1 1 1 c black 0 0 1 c 254 1123 m 20 -1 d 38 X 19 -1 d 24 X 13 -1 d 39 X 19 -1 d 58 X 19 -1 d 29 X 9 -1 d 19 -1 d 57 X 19 -1 d 19 X 20 -1 d 38 X 19 -1 d 19 -1 d 19 X 19 -1 d 19 X 19 -1 d 27 X 11
 -1 d 20 X 19 -1 d 19 -1 d 16 X 3 -1 d 6 X 13 -1 d 16 -1 d 3 X 18 -1 d 1 X 6 -1 d 32 X 4 -1 d 12 -1 d 23 X 7 -1 d 12 X 9 -1 d 10 -1 d 9 X 10 -1 d 17 -2 d 21 X 6 -1 d 6 X 5 -1 d 2 X s 1190 1092 m 19 -2 d 19 -2 d 19 -1 d 19 -3 d 20 -1 d 19 -2 d 19 -2 d
 19 -1 d 19 -1 d 19 -2 d 19 -3 d 19 -1 d 19 -2 d 19 -2 d 19 -2 d 20 -2 d 19 -4 d 19 -4 d 19 -3 d 19 -4 d 19 -2 d 19 -4 d 19 -2 d 19 -4 d 19 -1 d 20 -4 d 19 -3 d 19 -5 d 19 -3 d 19 -4 d 19 -4 d 19 -6 d 19 -5 d 14 -6 d 5 -2 d 19 -12 d 19 -8 d 17 -9 d 3
 -2 d 19 -12 d 19 -10 d 17 -9 d 2 -1 d 12 -8 d 7 -5 d 13 -11 d 6 -6 d 19 -22 d 17 -19 d 2 -3 d 12 -15 d 5 -8 d 2 -5 d 5 -10 d 7 -15 d 7 -19 d 20 -51 d 3 -7 d 5 -7 d 4 -8 d 3 -6 d 3 -6 d 1 -2 d 3 -10 d 3 -13 d 3 -14 d 4 -16 d 2 -15 d 4 -19 d s 2126
 610 m 19 -250 d s black 3 lw 245 150 m 1909 X s 245 181 m -31 Y s[ 4 8] 0 sd 245 1123 m -973 Y s[  ] 0 sd 283 165 m -15 Y s 321 165 m -15 Y s 359 165 m -15 Y s 398 165 m -15 Y s 436 181 m -31 Y s[ 4 8] 0 sd 436 1123 m -973 Y s[  ] 0 sd 474 165 m -15
 Y s 512 165 m -15 Y s 550 165 m -15 Y s 589 165 m -15 Y s 627 181 m -31 Y s[ 4 8] 0 sd 627 1123 m -973 Y s[  ] 0 sd 665 165 m -15 Y s 703 165 m -15 Y s 741 165 m -15 Y s 780 165 m -15 Y s 818 181 m -31 Y s[ 4 8] 0 sd 818 1123 m -973 Y s[  ] 0 sd 856
 165 m -15 Y s 894 165 m -15 Y s 932 165 m -15 Y s 970 165 m -15 Y s 1009 181 m -31 Y s[ 4 8] 0 sd 1009 1123 m -973 Y s[  ] 0 sd 1047 165 m -15 Y s 1085 165 m -15 Y s 1123 165 m -15 Y s 1161 165 m -15 Y s 1200 181 m -31 Y s[ 4 8] 0 sd 1200 1123 m
 -973 Y s[  ] 0 sd 1238 165 m -15 Y s 1276 165 m -15 Y s 1314 165 m -15 Y s 1352 165 m -15 Y s 1391 181 m -31 Y s[ 4 8] 0 sd 1391 1123 m -973 Y s[  ] 0 sd 1429 165 m -15 Y s 1467 165 m -15 Y s 1505 165 m -15 Y s 1543 165 m -15 Y s 1582 181 m -31 Y s[
 4 8] 0 sd 1582 1123 m -973 Y s[  ] 0 sd 1620 165 m -15 Y s 1658 165 m -15 Y s 1696 165 m -15 Y s 1734 165 m -15 Y s 1772 181 m -31 Y s[ 4 8] 0 sd 1772 1123 m -973 Y s[  ] 0 sd 1811 165 m -15 Y s 1849 165 m -15 Y s 1887 165 m -15 Y s 1925 165 m -15 Y
 s 1963 181 m -31 Y s[ 4 8] 0 sd 1963 1123 m -973 Y s[  ] 0 sd 2002 165 m -15 Y s 2040 165 m -15 Y s 2078 165 m -15 Y s 2116 165 m -15 Y s 2154 181 m -31 Y s[ 4 8] 0 sd 2154 1123 m -973 Y s[  ] 0 sd 245 1123 m 1909 X s 245 1091 m 32 Y s 283 1107 m 16
 Y s 321 1107 m 16 Y s 359 1107 m 16 Y s 398 1107 m 16 Y s 436 1091 m 32 Y s 474 1107 m 16 Y s 512 1107 m 16 Y s 550 1107 m 16 Y s 589 1107 m 16 Y s 627 1091 m 32 Y s 665 1107 m 16 Y s 703 1107 m 16 Y s 741 1107 m 16 Y s 780 1107 m 16 Y s 818 1091 m
 32 Y s 856 1107 m 16 Y s 894 1107 m 16 Y s 932 1107 m 16 Y s 970 1107 m 16 Y s 1009 1091 m 32 Y s 1047 1107 m 16 Y s 1085 1107 m 16 Y s 1123 1107 m 16 Y s 1161 1107 m 16 Y s 1200 1091 m 32 Y s 1238 1107 m 16 Y s 1276 1107 m 16 Y s 1314 1107 m 16 Y s
 1352 1107 m 16 Y s 1391 1091 m 32 Y s 1429 1107 m 16 Y s 1467 1107 m 16 Y s 1505 1107 m 16 Y s 1543 1107 m 16 Y s 1582 1091 m 32 Y s 1620 1107 m 16 Y s 1658 1107 m 16 Y s 1696 1107 m 16 Y s 1734 1107 m 16 Y s 1772 1091 m 32 Y s 1811 1107 m 16 Y s
 1849 1107 m 16 Y s 1887 1107 m 16 Y s 1925 1107 m 16 Y s 1963 1091 m 32 Y s 2002 1107 m 16 Y s 2040 1107 m 16 Y s 2078 1107 m 16 Y s 2116 1107 m 16 Y s 2154 1091 m 32 Y s 245 150 m 973 Y s 298 175 m -53 X s[ 4 8] 0 sd 2154 175 m -1909 X s[  ] 0 sd
 271 214 m -26 X s 271 254 m -26 X s 271 293 m -26 X s 298 333 m -53 X s[ 4 8] 0 sd 2154 333 m -1909 X s[  ] 0 sd 271 372 m -26 X s 271 412 m -26 X s 271 451 m -26 X s 298 491 m -53 X s[ 4 8] 0 sd 2154 491 m -1909 X s[  ] 0 sd 271 530 m -26 X s 271
 570 m -26 X s 271 609 m -26 X s 298 649 m -53 X s[ 4 8] 0 sd 2154 649 m -1909 X s[  ] 0 sd 271 688 m -26 X s 271 728 m -26 X s 271 767 m -26 X s 298 807 m -53 X s[ 4 8] 0 sd 2154 807 m -1909 X s[  ] 0 sd 271 846 m -26 X s 271 886 m -26 X s 271 925 m
 -26 X s 298 965 m -53 X s[ 4 8] 0 sd 2154 965 m -1909 X s[  ] 0 sd 271 1004 m -26 X s 271 1044 m -26 X s 271 1083 m -26 X s 298 1123 m -53 X s[ 4 8] 0 sd 2154 1123 m -1909 X s[  ] 0 sd 298 175 m -53 X s[ 4 8] 0 sd 2154 175 m -1909 X s[  ] 0 sd 2154
 150 m 973 Y s 2101 175 m 53 X s 2128 214 m 26 X s 2128 254 m 26 X s 2128 293 m 26 X s 2101 333 m 53 X s 2128 372 m 26 X s 2128 412 m 26 X s 2128 451 m 26 X s 2101 491 m 53 X s 2128 530 m 26 X s 2128 570 m 26 X s 2128 609 m 26 X s 2101 649 m 53 X s
 2128 688 m 26 X s 2128 728 m 26 X s 2128 767 m 26 X s 2101 807 m 53 X s 2128 846 m 26 X s 2128 886 m 26 X s 2128 925 m 26 X s 2101 965 m 53 X s 2128 1004 m 26 X s 2128 1044 m 26 X s 2128 1083 m 26 X s 2101 1123 m 53 X s 2101 175 m 53 X s
 gsave  2268 1247 0 0 C 371.219 507.585 t 0 r /Helvetica-Bold findfont 42.93 sf 0 0 m (MVA Method:) show NC gr 
 gsave  2268 1247 0 0 C 656.577 439.402 t 0 r /Helvetica-Bold findfont 42.93 sf 0 0 m (MLP) show NC gr  1 0 0 c 9 lw 388 453 m 222 X s black
 gsave  2268 1247 0 0 C 656.577 371.219 t 0 r /Helvetica-Bold findfont 42.93 sf 0 0 m (BDT) show NC gr  0 0 1 c 388 385 m 222 X s black
 gsave  2268 1247 0 0 C 656.577 303.036 t 0 r /Helvetica-Bold findfont 42.93 sf 0 0 m (Fisher) show NC gr  388 316 m 222 X s
 gsave  2268 1247 0 0 C 656.577 232.327 t 0 r /Helvetica-Bold findfont 42.93 sf 0 0 m (Likelihood) show NC gr  0 1 0 c 388 248 m 222 X s 0.490196 0.545098 0.615686 c 3 lw 0.364706 0.419608 0.490196 c 1587 76 23 1165 bf 0.490196 0.545098 0.615686 c 23
 1165 m 1587 X s 1610 1165 m 76 Y s 1610 1241 m -1587 X s 23 1241 m -76 Y s 1 1 1 c black 1 1 1 c
 gsave  2268 1247 0 0 C 148.993 1186.89 t 0 r /Helvetica-Bold findfont 60.6071 sf 0 0 m (Background rejection versus Signal efficiency) show NC gr  0.490196 0.545098 0.615686 c 1 1 1 c 365 69 1789 1135 bf 365 69 1789 1135 bf 365 69 1789 1135 bl 0 0
 0.4 c
/WT 2.53427 def /HT 2.5412 def /XS 1789 def /YY 1204 def /NX 144 def /NY 92 def /DrawCell {WT HT XX YY bf /NBBD NBBD 1 add def NBBD NBB eq {exit} if /XX WT XX add def IX NX eq {/YY YY HT sub def /XX XS def /IX 0 def} if /IX IX 1 add def} def /DrawCT
 {/NBB NX NY mul def /XX XS def /IX 1 def /NBBD 0 def /RC 0 def /GC 1 def /BC 2 def 1 1 NBB {/NB CT RC get def NB 301 ge {/NBL NB 300 sub def 1 1 NBL {DrawCell} for /RC RC 1 add def /GC RC 1 add def /BC RC 2 add def}{CT RC get 255 div CT GC get 255
 div CT BC get 255 div setrgbcolor DrawCell /RC RC 3 add def /GC GC 3 add def /BC BC 3 add def} ifelse NBBD NBB eq {exit} if} for /YY YY HT sub def clear} def /CT [ 255 255 255 324 255 249 241 255 217 162 255 187 88 255 165 33 302 255 176 60 255 195
 107 255 225 181 255 255 255 433 255 217 162 255 170 46 255 165 33 307 255 172 51 255 232 199 255 255 255 430 255 195 107 255 165 33 311 255 210 144 255 255 255 428 255 202 125 255 165 33 313 255 221 171 255 255 255 426 255 240 218 255 165 33 314 255
 181 74 255 255 255 426 255 202 125 255 165 33 315 255 247 236 255 255 255 425 255 195 107 255 165 33 315 255 225 181 255 255 255 318 255 127 127 255 63 63 314 255 85 85 140 140 197 102 102 178 304 242 242 248 255 255 255 305 238 238 246 102 102 178
 304 153 153 204 255 255 255 301 187 187 221 102 102 178 303 187 187 221 255 255 255 307 136 136 195 102 102 178 302 136 136 195 255 255 255 306 136 136 195 102 102 178 304 238 238 246 255 255 255 334 255 195 107 255 165 33 315 255 240 218 255 255
 255 318 255 42 42 255 0 0 314 255 85 85 102 102 178 51 51 153 304 165 165 210 255 255 255 305 119 119 187 51 51 153 304 119 119 187 255 255 255 301 238 238 246 51 51 153 303 68 68 161 255 255 255 306 221 221 238 51 51 153 303 170 170 212 255 255 255
 305 221 221 238 51 51 153 305 153 153 204 255 255 255 334 255 225 181 255 165 33 314 255 170 46 255 255 255 318 255 212 212 255 0 0 315 255 170 170 102 102 178 51 51 153 304 76 76 165 255 255 255 304 216 216 235 51 51 153 305 119 119 187 255 255 255
 302 136 136 195 51 51 153 303 170 170 212 255 255 255 305 119 119 187 51 51 153 302 68 68 161 255 255 255 306 136 136 195 51 51 153 305 68 68 161 255 255 255 335 255 180 70 255 165 33 313 255 204 130 255 255 255 324 255 148 148 255 0 0 303 255 111
 111 255 255 255 305 102 102 178 51 51 153 305 153 153 204 255 255 255 303 127 127 191 51 51 153 305 119 119 187 255 255 255 302 238 238 246 51 51 153 303 85 85 170 255 255 255 304 221 221 238 51 51 153 303 170 170 212 255 255 255 305 221 221 238 51
 51 153 307 153 153 204 255 255 255 334 255 240 218 255 172 51 255 165 33 311 255 172 51 255 249 241 255 255 255 324 255 85 85 255 0 0 303 255 175 175 255 255 255 305 102 102 178 51 51 153 306 221 221 238 255 255 255 301 221 221 238 51 51 153 306 119
 119 187 255 255 255 303 136 136 195 51 51 153 303 204 204 229 255 255 255 303 136 136 195 51 51 153 302 68 68 161 255 255 255 306 136 136 195 51 51 153 302 102 102 178 68 68 161 51 51 153 302 68 68 161 255 255 255 335 255 247 236 255 180 70 255 165
 33 309 255 180 70 255 247 236 255 255 255 325 255 0 0 304 255 239 239 255 255 255 305 102 102 178 51 51 153 302 102 102 178 68 68 161 51 51 153 301 102 102 178 255 255 255 301 85 85 170 51 51 153 301 119 119 187 51 51 153 303 119 119 187 255 255 255
 303 221 221 238 51 51 153 303 102 102 178 255 255 255 302 238 238 246 51 51 153 303 153 153 204 255 255 255 305 221 221 238 51 51 153 303 178 178 216 153 153 204 51 51 153 303 178 178 216 255 255 255 334 255 210 144 255 187 88 255 215 157 255 172 51
 255 165 33 305 255 195 107 255 225 181 255 210 144 301 255 255 255 324 255 191 191 255 0 0 303 255 63 63 255 255 255 306 102 102 178 51 51 153 302 119 119 187 153 153 204 51 51 153 302 187 187 221 153 153 204 51 51 153 302 221 221 238 51 51 153 303
 119 119 187 255 255 255 304 114 114 184 51 51 153 303 221 221 238 255 255 255 301 153 153 204 51 51 153 302 63 63 159 255 255 255 306 136 136 195 51 51 153 303 242 242 248 238 238 246 51 51 153 303 114 114 184 255 255 255 323 255 232 199 306 255 255
 255 302 255 195 107 255 210 144 255 255 255 302 255 240 218 255 232 199 255 217 162 301 255 232 199 255 255 255 303 255 210 144 255 198 116 255 255 255 301 255 247 236 255 232 199 305 255 240 218 255 255 255 313 255 127 127 255 0 0 303 255 127 127
 255 255 255 306 102 102 178 51 51 153 302 119 119 187 255 255 255 76 76 165 51 51 153 301 68 68 161 301 51 51 153 301 153 153 204 255 255 255 51 51 153 303 119 119 187 255 255 255 304 178 178 216 51 51 153 303 136 136 195 255 255 255 301 68 68 161
 51 51 153 302 127 127 191 255 255 255 305 238 238 246 51 51 153 303 136 136 195 255 255 255 301 136 136 195 51 51 153 303 238 238 246 255 255 255 320 255 232 199 301 255 255 255 306 255 232 199 301 255 195 107 255 232 199 255 255 255 313 255 221 171
 255 187 88 255 232 199 255 240 218 255 255 255 305 255 247 236 255 232 199 255 240 218 255 255 255 311 255 63 63 255 0 0 303 255 212 212 255 255 255 306 102 102 178 51 51 153 302 119 119 187 255 255 255 165 165 210 51 51 153 304 63 63 159 255 255
 255 301 51 51 153 303 119 119 187 255 255 255 304 242 242 248 68 68 161 51 51 153 303 242 242 248 170 170 212 51 51 153 303 204 204 229 255 255 255 305 136 136 195 51 51 153 303 221 221 238 255 255 255 301 221 221 238 51 51 153 303 136 136 195 255
 255 255 318 255 247 236 255 232 199 255 255 255 310 255 225 181 255 247 236 255 255 255 313 255 238 213 255 240 218 255 255 255 309 255 247 236 255 232 199 255 255 255 310 255 0 0 303 255 42 42 255 255 255 307 102 102 178 51 51 153 302 119 119 187
 255 255 255 242 242 248 68 68 161 51 51 153 303 153 153 204 255 255 255 301 51 51 153 303 119 119 187 255 255 255 305 153 153 204 51 51 153 303 165 165 210 85 85 170 51 51 153 302 85 85 170 255 255 255 305 242 242 248 51 51 153 304 102 102 178 303
 51 51 153 304 238 238 246 255 255 255 317 255 225 181 255 255 255 312 255 225 181 255 255 255 312 255 247 236 255 238 213 255 255 255 311 255 249 241 255 232 199 255 255 255 308 255 170 170 255 0 0 303 255 127 127 255 255 255 307 102 102 178 51 51
 153 302 119 119 187 255 255 255 301 170 170 212 51 51 153 303 242 242 248 255 255 255 301 51 51 153 303 119 119 187 255 255 255 305 238 238 246 51 51 153 303 63 63 159 51 51 153 303 170 170 212 255 255 255 305 165 165 210 51 51 153 313 136 136 195
 255 255 255 309 255 187 88 255 165 33 305 255 180 70 255 255 255 314 255 180 70 255 165 33 311 255 195 107 255 255 255 313 255 225 181 255 165 33 308 255 55 11 255 0 0 303 255 137 27 255 165 33 307 102 79 123 51 51 153 302 119 89 113 255 165 33 302
 204 136 63 302 221 146 53 255 165 33 302 51 51 153 303 119 89 113 255 165 33 306 153 108 93 51 51 153 306 85 70 133 255 165 33 306 89 72 130 51 51 153 314 238 155 43 255 165 33 307 255 195 107 255 187 88 255 165 33 305 255 217 162 255 255 255 314
 255 217 162 255 165 33 311 255 232 199 255 255 255 314 255 172 51 255 165 33 307 255 13 2 255 0 0 302 255 27 5 255 165 33 308 102 79 123 51 51 153 302 119 89 113 255 165 33 309 51 51 153 303 119 89 113 255 165 33 306 238 155 43 51 51 153 306 170 117
 83 255 165 33 305 221 146 53 51 51 153 303 170 117 83 255 165 33 305 170 117 83 51 51 153 303 153 108 93 255 165 33 307 255 195 107 255 187 88 255 165 33 305 255 225 181 255 255 255 314 255 225 181 255 165 33 311 255 255 255 315 255 195 107 255 165
 33 306 255 123 24 255 0 0 303 255 82 16 255 165 33 308 102 79 123 51 51 153 302 119 89 113 255 165 33 309 51 51 153 303 119 89 113 255 165 33 307 136 98 103 51 51 153 304 68 60 143 255 165 33 306 102 79 123 51 51 153 302 85 70 133 255 165 33 307 68
 60 143 51 51 153 303 238 155 43 255 165 33 306 255 195 107 255 187 88 255 165 33 305 255 225 181 255 255 255 314 255 225 181 255 165 33 311 255 255 255 315 255 195 107 255 165 33 306 255 96 19 255 41 8 303 255 123 24 255 165 33 308 140 100 100 102
 79 123 302 153 108 93 255 165 33 309 102 79 123 303 153 108 93 255 165 33 307 238 155 43 102 79 123 304 187 127 73 255 165 33 305 238 155 43 102 79 123 303 187 127 73 255 165 33 307 170 117 83 102 79 123 303 187 127 73 255 165 33 306 255 195 107 255
 187 88 255 165 33 305 255 217 162 255 255 255 314 255 217 162 255 165 33 311 255 225 181 255 255 255 314 255 165 33 390 255 195 107 255 187 88 255 165 33 305 255 180 70 255 255 255 314 255 180 70 255 165 33 311 255 187 88 255 255 255 313 255 217 162
 255 165 33 390 255 195 107 255 187 88 255 165 33 306 255 202 125 255 255 255 312 255 202 125 255 165 33 313 255 232 199 255 255 255 311 255 249 241 255 172 51 255 165 33 390 255 195 107 255 187 88 255 165 33 307 255 202 125 255 247 236 255 255 255
 308 255 247 236 255 202 125 255 165 33 314 255 170 46 255 232 199 255 255 255 309 255 247 236 255 181 74 255 165 33 391 255 195 107 255 187 88 255 165 33 308 255 172 51 255 217 162 255 249 241 255 255 255 304 255 249 241 255 217 162 255 172 51 255
 165 33 317 255 195 107 255 232 199 255 255 255 305 255 247 236 255 202 125 255 172 51 255 165 33 392 255 195 107 233 188 122 255 195 107 311 255 225 181 304 255 195 107 323 255 225 181 303 255 205 131 255 195 107 395 255 215 156] def /NY 27 def
 DrawCT 
 gr  gr showpage
end
%%EOF
