%!PS-Adobe-2.0 EPSF-2.0
%%BoundingBox:  0 0 567 301
%%Title: : Input variables (training sample)
%%Creator: ROOT Version 6.12/06
%%CreationDate: Thu May 17 18:08:25 2018
%%DocumentNeededResources: ProcSet (FontSetInit)
%%EndComments
%%BeginProlog
80 dict begin
/s {stroke} def /l {lineto} def /m {moveto} def /t {translate} def
/r {rotate} def /rl {roll}  def /R {repeat} def
/d {rlineto} def /rm {rmoveto} def /gr {grestore} def /f {eofill} def
/c {setrgbcolor} def /black {0 setgray} def /sd {setdash} def
/cl {closepath} def /sf {scalefont setfont} def /lw {setlinewidth} def
/box {m dup 0 exch d exch 0 d 0 exch neg d cl} def
/NC{systemdict begin initclip end}def/C{NC box clip newpath}def
/bl {box s} def /bf {gsave box gsave f grestore 1 lw [] 0 sd s grestore} def /Y { 0 exch d} def /X { 0 d} def 
/K {{pop pop 0 moveto} exch kshow} bind def
/ita {/ang 15 def gsave [1 0 ang dup sin exch cos div 1 0 0] concat} def 
/mp {newpath /y exch def /x exch def} def
/side {[w .77 mul w .23 mul] .385 w mul sd w 0 l currentpoint t -144 r} def
/mr {mp x y w2 0 360 arc} def /m24 {mr s} def /m20 {mr f} def
/mb {mp x y w2 add m w2 neg 0 d 0 w neg d w 0 d 0 w d cl} def
/mt {mp x y w2 add m w2 neg w neg d w 0 d cl} def
/w4 {w 4 div} def
/w6 {w 6 div} def
/w8 {w 8 div} def
/m21 {mb f} def /m25 {mb s} def /m22 {mt f} def /m26{mt s} def
/m23 {mp x y w2 sub m w2 w d w neg 0 d cl f} def
/m27 {mp x y w2 add m w3 neg w2 neg d w3 w2 neg d w3 w2 d cl s} def
/m28 {mp x w2 sub y w2 sub w3 add m w3 0 d  0 w3 neg d w3 0 d 0 w3 d w3 0 d  0 w3 d w3 neg 0 d 0 w3 d w3 neg 0 d 0 w3 neg d w3 neg 0 d cl s } def
/m29 {mp gsave x w2 sub y w2 add w3 sub m currentpoint t 4 {side} repeat cl fill gr} def
/m30 {mp gsave x w2 sub y w2 add w3 sub m currentpoint t 4 {side} repeat cl s gr} def
/m31 {mp x y w2 sub m 0 w d x w2 sub y m w 0 d x w2 sub y w2 add m w w neg d x w2 sub y w2 sub m w w d s} def
/m32 {mp x y w2 sub m w2 w d w neg 0 d cl s} def
/m33 {mp x y w2 add m w3 neg w2 neg d w3 w2 neg d w3 w2 d cl f} def
/m34 {mp x w2 sub y w2 sub w3 add m w3 0 d  0 w3 neg d w3 0 d 0 w3 d w3 0 d  0 w3 d w3 neg 0 d 0 w3 d w3 neg 0 d 0 w3 neg d w3 neg 0 d cl f } def
/m35 {mp x y w2 add m w2 neg w2 neg d w2 w2 neg d w2 w2 d w2 neg w2 d x y w2 sub m 0 w d x w2 sub y m w 0 d s} def
/m36 {mb x w2 sub y w2 add m w w neg d x w2 sub y w2 sub m w w d s} def
/m37 {mp x y m w4 neg w2 d w4 neg w2 neg d w2 0 d  w4 neg w2 neg d w2 0 d w4 neg w2 d w2 0 d w4 neg w2 d w4 neg w2 neg d cl s} def
/m38 {mp x w4 sub y w2 add m w4 neg w4 neg d 0 w2 neg d w4 w4 neg d w2 0 d w4 w4 d 0 w2 d w4 neg w4 d w2 neg 0 d x y w2 sub m 0 w d x w2 sub y m w 0 d cl s} def
/m39 {mp x y m w4 neg w2 d w4 neg w2 neg d w2 0 d  w4 neg w2 neg d w2 0 d w4 neg w2 d w2 0 d w4 neg w2 d w4 neg w2 neg d cl f} def
/m40 {mp x y m w4 w2 d w4 w4 neg d w2 neg w4 neg d w2 w4 neg d w4 neg w4 neg d w4 neg w2 d w4 neg w2 neg d w4 neg w4 d w2 w4 d w2 neg w4 d w4 w4 d w4 w2 neg d cl s} def
/m41 {mp x y m w4 w2 d w4 w4 neg d w2 neg w4 neg d w2 w4 neg d w4 neg w4 neg d w4 neg w2 d w4 neg w2 neg d w4 neg w4 d w2 w4 d w2 neg w4 d w4 w4 d w4 w2 neg d cl f} def
/m42 {mp x y w2 add m w8 neg w2 -3 4 div mul d w2 -3 4 div mul w8 neg d w2 3 4 div mul w8 neg d w8 w2 -3 4 div mul d w8 w2 3 4 div mul d w2 3 4 div mul w8 d w2 -3 4 div mul w8 d w8 neg w2 3 4 div mul d cl s} def
/m43 {mp x y w2 add m w8 neg w2 -3 4 div mul d w2 -3 4 div mul w8 neg d w2 3 4 div mul w8 neg d w8 w2 -3 4 div mul d w8 w2 3 4 div mul d w2 3 4 div mul w8 d w2 -3 4 div mul w8 d w8 neg w2 3 4 div mul d cl f} def
/m44 {mp x y m w6 neg w2 d w2 2 3 div mul 0 d w6 neg w2 neg d w2 w6 d 0 w2 -2 3 div mul d w2 neg w6 d w6 w2 neg d w2 -2 3 div mul 0 d w6 w2 d w2 neg w6 neg d 0 w2 2 3 div mul d w2 w6 neg d cl s} def
/m45 {mp x y m w6 neg w2 d w2 2 3 div mul 0 d w6 neg w2 neg d w2 w6 d 0 w2 -2 3 div mul d w2 neg w6 d w6 w2 neg d w2 -2 3 div mul 0 d w6 w2 d w2 neg w6 neg d 0 w2 2 3 div mul d w2 w6 neg d cl f} def
/m46 {mp x y w4 add m w4 neg w4 d w4 neg w4 neg d  w4 w4 neg d w4 neg w4 neg d w4 w4 neg d w4 w4 d w4 w4 neg d w4 w4 d w4 neg w4 d w4 w4 d w4 neg w4 d w4 neg w4 neg d cl s} def
/m47 {mp x y w4 add m w4 neg w4 d w4 neg w4 neg d w4 w4 neg d w4 neg w4 neg d  w4 w4 neg d w4 w4 d w4 w4 neg d w4 w4 d w4 neg w4 d w4 w4 d w4 neg w4 d w4 neg w4 neg d cl f} def
/m48 {mp x y w4 add m w4 neg w4 d w4 neg w4 neg d w4 w4 neg d  w4 neg w4 neg d w4 w4 neg d w4 w4 d w4 w4 neg d w4 w4 d w4 neg w4 d w4 w4 d w4 neg w4 d w4 neg w4 neg d  w4 w4 neg d w4 neg w4 neg d w4 neg w4 d w4 w4 d cl f} def
/m49 {mp x w2 sub w3 add y w2 sub w3 add m  0 w3 neg d w3 0 d 0 w3 d w3 0 d 0 w3 d w3 neg 0 d 0 w3 d w3 neg 0 d 0 w3 neg d w3 neg 0 d 0 w3 neg d w3 0 d 0 w3 d w3 0 d 0 w3 neg d w3 neg 0 d cl f } def
/m2 {mp x y w2 sub m 0 w d x w2 sub y m w 0 d s} def
/m5 {mp x w2 sub y w2 sub m w w d x w2 sub y w2 add m w w neg d s} def
%%IncludeResource: ProcSet (FontSetInit)
%%IncludeResource: font Times-Roman
%%IncludeResource: font Times-Italic
%%IncludeResource: font Times-Bold
%%IncludeResource: font Times-BoldItalic
%%IncludeResource: font Helvetica
%%IncludeResource: font Helvetica-Oblique
%%IncludeResource: font Helvetica-Bold
%%IncludeResource: font Helvetica-BoldOblique
%%IncludeResource: font Courier
%%IncludeResource: font Courier-Oblique
%%IncludeResource: font Courier-Bold
%%IncludeResource: font Courier-BoldOblique
%%IncludeResource: font Symbol
%%IncludeResource: font ZapfDingbats
/reEncode {exch findfont dup length dict begin {1 index /FID eq  {pop pop} {def} ifelse } forall /Encoding exch def currentdict end dup /FontName get exch definefont pop } def [/Times-Bold /Times-Italic /Times-BoldItalic /Helvetica /Helvetica-Oblique
 /Helvetica-Bold /Helvetica-BoldOblique /Courier /Courier-Oblique /Courier-Bold /Courier-BoldOblique /Times-Roman /AvantGarde-Book /AvantGarde-BookOblique /AvantGarde-Demi /AvantGarde-DemiOblique /Bookman-Demi /Bookman-DemiItalic /Bookman-Light
 /Bookman-LightItalic /Helvetica-Narrow /Helvetica-Narrow-Bold /Helvetica-Narrow-BoldOblique /Helvetica-Narrow-Oblique /NewCenturySchlbk-Roman /NewCenturySchlbk-Bold /NewCenturySchlbk-BoldItalic /NewCenturySchlbk-Italic /Palatino-Bold
 /Palatino-BoldItalic /Palatino-Italic /Palatino-Roman ] {ISOLatin1Encoding reEncode } forall
%%EndProlog
%%BeginSetup
%%EndSetup
newpath  gsave  .25 .25 scale  gsave  0 0 t 0.490196 0.545098 0.615686 c[  ] 0 sd 3 lw 0.941176 0.941176 0.941176 c 2268 1204 0 0 bf 0.490196 0.545098 0.615686 c 0.941176 0.941176 0.941176 c 1088 1180 23 12 bf black 1 1 0.992157 c 838 892 208 182 bf
 black 838 892 208 182 bl 1 1 0.992157 c 838 892 208 182 bf black 838 892 208 182 bl 0 0 0.933333 c 6 lw 0.49 0.6 0.82 c black 3 lw 0.49 0.6 0.82 c 208 182 m 356 X 1 Y 21 X 1 Y 21 X 8 Y 21 X 13 Y 21 X 25 Y 21 X 49 Y 21 X 114 Y 21 X 91 Y 21 X 201 Y 21
 X 114 Y 20 X 65 Y 21 X 4 Y 21 X -109 Y 21 X -136 Y 21 X -177 Y 21 X -101 Y 21 X -93 Y 21 X -36 Y 21 X -19 Y 21 X -5 Y 21 X -8 Y 21 X -2 Y 21 X 1 Y 21 X -1 Y f 6 lw 0 0 0.933333 c 0.49 0.6 0.82 c 0 0 0.933333 c 208 182 m 356 X 1 Y 21 X 1 Y 21 X 8 Y
 21 X 13 Y 21 X 25 Y 21 X 49 Y 21 X 114 Y 21 X 91 Y 21 X 201 Y 21 X 114 Y 20 X 65 Y 21 X 4 Y 21 X -109 Y 21 X -136 Y 21 X -177 Y 21 X -101 Y 21 X -93 Y 21 X -36 Y 21 X -19 Y 21 X -5 Y 21 X -8 Y 21 X -2 Y 21 X 1 Y 21 X s black 3 lw 208 182 m 838 X s
 223 209 m -27 Y s 252 196 m -14 Y s 280 196 m -14 Y s 308 196 m -14 Y s 337 209 m -27 Y s 365 196 m -14 Y s 394 196 m -14 Y s 422 196 m -14 Y s 450 209 m -27 Y s 479 196 m -14 Y s 507 196 m -14 Y s 536 196 m -14 Y s 564 209 m -27 Y s 592 196 m -14 Y
 s 621 196 m -14 Y s 649 196 m -14 Y s 678 209 m -27 Y s 706 196 m -14 Y s 735 196 m -14 Y s 763 196 m -14 Y s 791 209 m -27 Y s 820 196 m -14 Y s 848 196 m -14 Y s 877 196 m -14 Y s 905 209 m -27 Y s 933 196 m -14 Y s 962 196 m -14 Y s 990 196 m -14
 Y s 1019 209 m -27 Y s 223 209 m -27 Y s 1019 209 m -27 Y s
 gsave  1088 1180 23 12 C 221.559 122.509 t 0 r /Helvetica findfont 49.5961 sf 0 0 m (6) show NC gr 
 gsave  1088 1180 23 12 C 192.886 122.509 t 0 r /Symbol findfont 49.5961 sf 0 0 m (-) show NC gr 
 gsave  1088 1180 23 12 C 336.248 122.509 t 0 r /Helvetica findfont 49.5961 sf 0 0 m (4) show NC gr 
 gsave  1088 1180 23 12 C 307.575 122.509 t 0 r /Symbol findfont 49.5961 sf 0 0 m (-) show NC gr 
 gsave  1088 1180 23 12 C 448.33 122.509 t 0 r /Helvetica findfont 49.5961 sf 0 0 m (2) show NC gr 
 gsave  1088 1180 23 12 C 419.658 122.509 t 0 r /Symbol findfont 49.5961 sf 0 0 m (-) show NC gr 
 gsave  1088 1180 23 12 C 549.986 122.509 t 0 r /Helvetica findfont 49.5961 sf 0 0 m (0) show NC gr 
 gsave  1088 1180 23 12 C 662.069 122.509 t 0 r /Helvetica findfont 49.5961 sf 0 0 m (2) show NC gr 
 gsave  1088 1180 23 12 C 776.758 122.509 t 0 r /Helvetica findfont 49.5961 sf 0 0 m (4) show NC gr 
 gsave  1088 1180 23 12 C 891.447 122.509 t 0 r /Helvetica findfont 49.5961 sf 0 0 m (6) show NC gr 
 gsave  1088 1180 23 12 C 1003.53 122.509 t 0 r /Helvetica findfont 49.5961 sf 0 0 m (8) show NC gr 
 gsave  1088 1180 23 12 C 706.381 39.0986 t 0 r /Helvetica findfont 54.8167 sf 0 0 m (Variable 1  [F]) show NC gr  208 1074 m 838 X s 223 1047 m 27 Y s 252 1061 m 13 Y s 280 1061 m 13 Y s 308 1061 m 13 Y s 337 1047 m 27 Y s 365 1061 m 13 Y s 394 1061
 m 13 Y s 422 1061 m 13 Y s 450 1047 m 27 Y s 479 1061 m 13 Y s 507 1061 m 13 Y s 536 1061 m 13 Y s 564 1047 m 27 Y s 592 1061 m 13 Y s 621 1061 m 13 Y s 649 1061 m 13 Y s 678 1047 m 27 Y s 706 1061 m 13 Y s 735 1061 m 13 Y s 763 1061 m 13 Y s 791
 1047 m 27 Y s 820 1061 m 13 Y s 848 1061 m 13 Y s 877 1061 m 13 Y s 905 1047 m 27 Y s 933 1061 m 13 Y s 962 1061 m 13 Y s 990 1061 m 13 Y s 1019 1047 m 27 Y s 223 1047 m 27 Y s 1019 1047 m 27 Y s 208 182 m 892 Y s 232 182 m -24 X s 220 217 m -12 X s
 220 252 m -12 X s 220 287 m -12 X s 220 322 m -12 X s 232 358 m -24 X s 220 393 m -12 X s 220 428 m -12 X s 220 463 m -12 X s 220 498 m -12 X s 232 533 m -24 X s 220 568 m -12 X s 220 603 m -12 X s 220 638 m -12 X s 220 673 m -12 X s 232 709 m -24 X
 s 220 744 m -12 X s 220 779 m -12 X s 220 814 m -12 X s 220 849 m -12 X s 232 884 m -24 X s 220 919 m -12 X s 220 954 m -12 X s 220 989 m -12 X s 220 1025 m -12 X s 232 1060 m -24 X s 232 1060 m -24 X s
 gsave  1088 1180 23 12 C 166.821 164.214 t 0 r /Helvetica findfont 49.5961 sf 0 0 m (0) show NC gr 
 gsave  1088 1180 23 12 C 132.935 341.461 t 0 r /Helvetica findfont 49.5961 sf 0 0 m (0.1) show NC gr 
 gsave  1088 1180 23 12 C 125.115 516.101 t 0 r /Helvetica findfont 49.5961 sf 0 0 m (0.2) show NC gr 
 gsave  1088 1180 23 12 C 125.115 690.741 t 0 r /Helvetica findfont 49.5961 sf 0 0 m (0.3) show NC gr 
 gsave  1088 1180 23 12 C 125.115 867.988 t 0 r /Helvetica findfont 49.5961 sf 0 0 m (0.4) show NC gr 
 gsave  1088 1180 23 12 C 125.115 1042.63 t 0 r /Helvetica findfont 49.5961 sf 0 0 m (0.5) show NC gr 
 gsave  1088 1180 23 12 C 62.5577 891.447 t 90 r /Helvetica findfont 54.8167 sf 0 0 m (0.369 F) show NC gr 
 gsave  1088 1180 23 12 C 36.492 881.021 t 90 r /Helvetica findfont 36.5445 sf 0 0 m ( ) show NC gr 
 gsave  1088 1180 23 12 C 62.5577 862.775 t 90 r /Helvetica findfont 54.8167 sf 0 0 m (/) show NC gr 
 gsave  1088 1180 23 12 C 75.5906 852.349 t 90 r /Helvetica findfont 36.5445 sf 0 0 m ( ) show NC gr 
 gsave  1088 1180 23 12 C 62.5577 649.036 t 90 r /Helvetica findfont 54.8167 sf 0 0 m (\(1/N\) dN) show NC gr  1046 182 m 892 Y s 1021 182 m 25 X s 1034 217 m 12 X s 1034 252 m 12 X s 1034 287 m 12 X s 1034 322 m 12 X s 1021 358 m 25 X s 1034 393 m
 12 X s 1034 428 m 12 X s 1034 463 m 12 X s 1034 498 m 12 X s 1021 533 m 25 X s 1034 568 m 12 X s 1034 603 m 12 X s 1034 638 m 12 X s 1034 673 m 12 X s 1021 709 m 25 X s 1034 744 m 12 X s 1034 779 m 12 X s 1034 814 m 12 X s 1034 849 m 12 X s 1021 884
 m 25 X s 1034 919 m 12 X s 1034 954 m 12 X s 1034 989 m 12 X s 1034 1025 m 12 X s 1021 1060 m 25 X s 1021 1060 m 25 X s 1 0 0 c 6 lw black 3 lw 1 0 0 c 1043 182 m s 1018 182 m s 993 182 m s 968 182 m s 943 182 m s 918 182 m s 894 183 m -1 -1 d s 869
 183 m -1 -1 d s 845 184 m -2 -2 d s 822 186 m -4 -4 d s 800 189 m -7 -7 d s 785 199 m -17 -17 d s 773 212 m -30 -30 d s 753 216 m -35 -34 d s 744 233 m -51 -51 d s 732 246 m -64 -64 d s 728 267 m -85 -85 d s 711 275 m -93 -93 d s 711 300 m -118 -118
 d s 700 314 m -132 -132 d s 690 329 m -147 -147 d s 690 354 m -172 -172 d s 675 364 m -182 -182 d s 669 383 m -201 -201 d s 669 408 m -226 -226 d s 669 433 m -251 -251 d s 648 437 m -255 -255 d s 648 462 m -280 -280 d s 648 487 m -273 -272 d s 374
 214 m -31 -32 d s 647 512 m -230 -230 d s 403 267 m -7 -6 d s 336 200 m -3 -2 d s 325 190 m -7 -8 d s 627 516 m -189 -188 d s 424 313 m -7 -6 d s 298 187 m -5 -5 d s 627 541 m -168 -167 d s 454 369 m -16 -16 d s 269 183 m -1 -1 d s 614 554 m -155
 -155 d s 243 182 m s 606 570 m -126 -125 d s 462 426 m -3 -2 d s 218 182 m s 606 595 m -126 -125 d s 589 603 m -88 -87 d s 484 498 m -4 -3 d s 585 625 m -84 -84 d s 585 650 m -63 -63 d s 510 575 m -9 -9 d s 564 654 m -21 -21 d s 539 629 m -17 -17 d
 s 544 659 m -1 -1 d s 6 lw 208 182 m 42 X 1 Y 21 X 1 Y 21 X 3 Y 20 X 3 Y 21 X 10 Y 21 X 14 Y 21 X 24 Y 21 X 29 Y 21 X 46 Y 21 X 56 Y 21 X 57 Y 21 X 72 Y 21 X 77 Y 21 X 54 Y 21 X 30 Y 21 X -7 Y 21 X -49 Y 21 X -49 Y 21 X -42 Y 21 X -77 Y 21 X -71 Y
 21 X -50 Y 21 X -47 Y 21 X -34 Y 21 X -21 Y 20 X -13 Y 21 X -10 Y 21 X -3 Y 21 X -2 Y 21 X -1 Y 42 X -1 Y 147 X s 0.490196 0.545098 0.615686 c 3 lw 1 1 1 c 0.490196 0.545098 0.615686 c 435 177 208 897 bl 208 897 m 435 X s 643 897 m 177 Y s 643 1074
 m -435 X s 208 1074 m -177 Y s black
 gsave  1088 1180 23 12 C 336.248 1011.35 t 0 r /Helvetica-Bold findfont 44.3755 sf 0 0 m (Signal) show NC gr  0.49 0.6 0.82 c 227 999 m 92 X 62 Y -92 X f 0 0 0.933333 c 6 lw 227 1061 m 92 X s 227 999 m 92 X s 319 999 m 62 Y s 227 999 m 62 Y s black
 gsave  1088 1180 23 12 C 336.248 922.726 t 0 r /Helvetica-Bold findfont 44.3755 sf 0 0 m (Background) show NC gr  1 0 0 c 3 lw 319 934 m -24 -24 d s 319 959 m -49 -49 d s 307 972 m -62 -62 d s 282 972 m -55 -54 d s 257 972 m -30 -29 d s 232 972 m -5
 -4 d s 6 lw 0 0 0.933333 c 1 0 0 c 227 972 m 92 X s 227 910 m 92 X s 319 910 m 62 Y s 227 910 m 62 Y s black 3 lw 208 182 m 838 X s 223 209 m -27 Y s 252 196 m -14 Y s 280 196 m -14 Y s 308 196 m -14 Y s 337 209 m -27 Y s 365 196 m -14 Y s 394 196 m
 -14 Y s 422 196 m -14 Y s 450 209 m -27 Y s 479 196 m -14 Y s 507 196 m -14 Y s 536 196 m -14 Y s 564 209 m -27 Y s 592 196 m -14 Y s 621 196 m -14 Y s 649 196 m -14 Y s 678 209 m -27 Y s 706 196 m -14 Y s 735 196 m -14 Y s 763 196 m -14 Y s 791 209
 m -27 Y s 820 196 m -14 Y s 848 196 m -14 Y s 877 196 m -14 Y s 905 209 m -27 Y s 933 196 m -14 Y s 962 196 m -14 Y s 990 196 m -14 Y s 1019 209 m -27 Y s 223 209 m -27 Y s 1019 209 m -27 Y s 208 1074 m 838 X s 223 1047 m 27 Y s 252 1061 m 13 Y s
 280 1061 m 13 Y s 308 1061 m 13 Y s 337 1047 m 27 Y s 365 1061 m 13 Y s 394 1061 m 13 Y s 422 1061 m 13 Y s 450 1047 m 27 Y s 479 1061 m 13 Y s 507 1061 m 13 Y s 536 1061 m 13 Y s 564 1047 m 27 Y s 592 1061 m 13 Y s 621 1061 m 13 Y s 649 1061 m 13 Y
 s 678 1047 m 27 Y s 706 1061 m 13 Y s 735 1061 m 13 Y s 763 1061 m 13 Y s 791 1047 m 27 Y s 820 1061 m 13 Y s 848 1061 m 13 Y s 877 1061 m 13 Y s 905 1047 m 27 Y s 933 1061 m 13 Y s 962 1061 m 13 Y s 990 1061 m 13 Y s 1019 1047 m 27 Y s 223 1047 m
 27 Y s 1019 1047 m 27 Y s 208 182 m 892 Y s 232 182 m -24 X s 220 217 m -12 X s 220 252 m -12 X s 220 287 m -12 X s 220 322 m -12 X s 232 358 m -24 X s 220 393 m -12 X s 220 428 m -12 X s 220 463 m -12 X s 220 498 m -12 X s 232 533 m -24 X s 220 568
 m -12 X s 220 603 m -12 X s 220 638 m -12 X s 220 673 m -12 X s 232 709 m -24 X s 220 744 m -12 X s 220 779 m -12 X s 220 814 m -12 X s 220 849 m -12 X s 232 884 m -24 X s 220 919 m -12 X s 220 954 m -12 X s 220 989 m -12 X s 220 1025 m -12 X s 232
 1060 m -24 X s 232 1060 m -24 X s 1046 182 m 892 Y s 1021 182 m 25 X s 1034 217 m 12 X s 1034 252 m 12 X s 1034 287 m 12 X s 1034 322 m 12 X s 1021 358 m 25 X s 1034 393 m 12 X s 1034 428 m 12 X s 1034 463 m 12 X s 1034 498 m 12 X s 1021 533 m 25 X
 s 1034 568 m 12 X s 1034 603 m 12 X s 1034 638 m 12 X s 1034 673 m 12 X s 1021 709 m 25 X s 1034 744 m 12 X s 1034 779 m 12 X s 1034 814 m 12 X s 1034 849 m 12 X s 1021 884 m 25 X s 1034 919 m 12 X s 1034 954 m 12 X s 1034 989 m 12 X s 1034 1025 m
 12 X s 1021 1060 m 25 X s 1021 1060 m 25 X s
 gsave  1088 1180 23 12 C 1089.41 177.263 t 90 r /Helvetica-Bold findfont 41.7651 sf 0 0 m (U/O\255flow \(S,B\): \(0.0, 0.0\)% / \(0.0, 0.0\)%) show NC gr  0.490196 0.545098 0.615686 c 0.364706 0.419608 0.490196 c 598 68 34 1118 bf 0.490196 0.545098
 0.615686 c 34 1118 m 598 X s 632 1118 m 68 Y s 632 1186 m -598 X s 34 1186 m -68 Y s 1 1 1 c black 1 1 1 c
 gsave  1088 1180 23 12 C 57.3446 1136.46 t 0 r /Helvetica-Bold findfont 46.9858 sf 0 0 m (Input variable: Variable 1) show NC gr  0.490196 0.545098 0.615686 c 0.941176 0.941176 0.941176 c 1088 1180 1157 12 bf black 1 1 0.992157 c 838 892 1342 182 bf
 black 838 892 1342 182 bl 1 1 0.992157 c 838 892 1342 182 bf black 838 892 1342 182 bl 0 0 0.933333 c 6 lw 0.49 0.6 0.82 c black 3 lw 0.49 0.6 0.82 c 1342 182 m 356 X 2 Y 42 X 13 Y 21 X 24 Y 21 X 43 Y 21 X 67 Y 21 X 121 Y 20 X 180 Y 21 X 177 Y 21 X
 78 Y 21 X 106 Y 21 X -67 Y 21 X -87 Y 21 X -126 Y 21 X -181 Y 21 X -114 Y 21 X -105 Y 21 X -70 Y 21 X -30 Y 21 X -19 Y 21 X -7 Y 21 X -4 Y 21 X -1 Y 21 X f 6 lw 0 0 0.933333 c 0.49 0.6 0.82 c 0 0 0.933333 c 1342 182 m 356 X 2 Y 42 X 13 Y 21 X 24 Y
 21 X 43 Y 21 X 67 Y 21 X 121 Y 20 X 180 Y 21 X 177 Y 21 X 78 Y 21 X 106 Y 21 X -67 Y 21 X -87 Y 21 X -126 Y 21 X -181 Y 21 X -114 Y 21 X -105 Y 21 X -70 Y 21 X -30 Y 21 X -19 Y 21 X -7 Y 21 X -4 Y 21 X -1 Y 21 X s black 3 lw 1342 182 m 838 X s 1424
 209 m -27 Y s 1455 196 m -14 Y s 1487 196 m -14 Y s 1518 196 m -14 Y s 1549 209 m -27 Y s 1581 196 m -14 Y s 1612 196 m -14 Y s 1643 196 m -14 Y s 1675 209 m -27 Y s 1706 196 m -14 Y s 1737 196 m -14 Y s 1769 196 m -14 Y s 1800 209 m -27 Y s 1831
 196 m -14 Y s 1863 196 m -14 Y s 1894 196 m -14 Y s 1925 209 m -27 Y s 1957 196 m -14 Y s 1988 196 m -14 Y s 2019 196 m -14 Y s 2051 209 m -27 Y s 2082 196 m -14 Y s 2113 196 m -14 Y s 2145 196 m -14 Y s 2176 209 m -27 Y s 1424 209 m -27 Y s 1393
 196 m -14 Y s 1361 196 m -14 Y s 2176 209 m -27 Y s
 gsave  1088 1180 1157 12 C 1423.19 122.509 t 0 r /Helvetica findfont 49.5961 sf 0 0 m (4) show NC gr 
 gsave  1088 1180 1157 12 C 1394.52 122.509 t 0 r /Symbol findfont 49.5961 sf 0 0 m (-) show NC gr 
 gsave  1088 1180 1157 12 C 1548.3 122.509 t 0 r /Helvetica findfont 49.5961 sf 0 0 m (2) show NC gr 
 gsave  1088 1180 1157 12 C 1519.63 122.509 t 0 r /Symbol findfont 49.5961 sf 0 0 m (-) show NC gr 
 gsave  1088 1180 1157 12 C 1660.39 122.509 t 0 r /Helvetica findfont 49.5961 sf 0 0 m (0) show NC gr 
 gsave  1088 1180 1157 12 C 1785.5 122.509 t 0 r /Helvetica findfont 49.5961 sf 0 0 m (2) show NC gr 
 gsave  1088 1180 1157 12 C 1910.62 122.509 t 0 r /Helvetica findfont 49.5961 sf 0 0 m (4) show NC gr 
 gsave  1088 1180 1157 12 C 2035.73 122.509 t 0 r /Helvetica findfont 49.5961 sf 0 0 m (6) show NC gr 
 gsave  1088 1180 1157 12 C 2160.85 122.509 t 0 r /Helvetica findfont 49.5961 sf 0 0 m (8) show NC gr 
 gsave  1088 1180 1157 12 C 1840.24 39.0986 t 0 r /Helvetica findfont 54.8167 sf 0 0 m (Variable 2  [F]) show NC gr  1342 1074 m 838 X s 1424 1047 m 27 Y s 1455 1061 m 13 Y s 1487 1061 m 13 Y s 1518 1061 m 13 Y s 1549 1047 m 27 Y s 1581 1061 m 13 Y s
 1612 1061 m 13 Y s 1643 1061 m 13 Y s 1675 1047 m 27 Y s 1706 1061 m 13 Y s 1737 1061 m 13 Y s 1769 1061 m 13 Y s 1800 1047 m 27 Y s 1831 1061 m 13 Y s 1863 1061 m 13 Y s 1894 1061 m 13 Y s 1925 1047 m 27 Y s 1957 1061 m 13 Y s 1988 1061 m 13 Y s
 2019 1061 m 13 Y s 2051 1047 m 27 Y s 2082 1061 m 13 Y s 2113 1061 m 13 Y s 2145 1061 m 13 Y s 2176 1047 m 27 Y s 1424 1047 m 27 Y s 1393 1061 m 13 Y s 1361 1061 m 13 Y s 2176 1047 m 27 Y s 1342 182 m 892 Y s 1366 182 m -24 X s 1354 202 m -12 X s
 1354 222 m -12 X s 1354 241 m -12 X s 1354 261 m -12 X s 1366 281 m -24 X s 1354 301 m -12 X s 1354 320 m -12 X s 1354 340 m -12 X s 1354 360 m -12 X s 1366 380 m -24 X s 1354 399 m -12 X s 1354 419 m -12 X s 1354 439 m -12 X s 1354 459 m -12 X s
 1366 479 m -24 X s 1354 498 m -12 X s 1354 518 m -12 X s 1354 538 m -12 X s 1354 558 m -12 X s 1366 577 m -24 X s 1354 597 m -12 X s 1354 617 m -12 X s 1354 637 m -12 X s 1354 656 m -12 X s 1366 676 m -24 X s 1354 696 m -12 X s 1354 716 m -12 X s
 1354 736 m -12 X s 1354 755 m -12 X s 1366 775 m -24 X s 1354 795 m -12 X s 1354 815 m -12 X s 1354 834 m -12 X s 1354 854 m -12 X s 1366 874 m -24 X s 1354 894 m -12 X s 1354 913 m -12 X s 1354 933 m -12 X s 1354 953 m -12 X s 1366 973 m -24 X s
 1354 993 m -12 X s 1354 1012 m -12 X s 1354 1032 m -12 X s 1354 1052 m -12 X s 1366 1072 m -24 X s 1366 1072 m -24 X s
 gsave  1088 1180 1157 12 C 1300.68 164.214 t 0 r /Helvetica findfont 49.5961 sf 0 0 m (0) show NC gr 
 gsave  1088 1180 1157 12 C 1230.3 263.264 t 0 r /Helvetica findfont 49.5961 sf 0 0 m (0.05) show NC gr 
 gsave  1088 1180 1157 12 C 1266.79 362.313 t 0 r /Helvetica findfont 49.5961 sf 0 0 m (0.1) show NC gr 
 gsave  1088 1180 1157 12 C 1230.3 461.363 t 0 r /Helvetica findfont 49.5961 sf 0 0 m (0.15) show NC gr 
 gsave  1088 1180 1157 12 C 1258.97 560.413 t 0 r /Helvetica findfont 49.5961 sf 0 0 m (0.2) show NC gr 
 gsave  1088 1180 1157 12 C 1230.3 659.462 t 0 r /Helvetica findfont 49.5961 sf 0 0 m (0.25) show NC gr 
 gsave  1088 1180 1157 12 C 1258.97 758.512 t 0 r /Helvetica findfont 49.5961 sf 0 0 m (0.3) show NC gr 
 gsave  1088 1180 1157 12 C 1230.3 857.562 t 0 r /Helvetica findfont 49.5961 sf 0 0 m (0.35) show NC gr 
 gsave  1088 1180 1157 12 C 1258.97 956.611 t 0 r /Helvetica findfont 49.5961 sf 0 0 m (0.4) show NC gr 
 gsave  1088 1180 1157 12 C 1230.3 1055.66 t 0 r /Helvetica findfont 49.5961 sf 0 0 m (0.45) show NC gr 
 gsave  1088 1180 1157 12 C 1196.42 891.447 t 90 r /Helvetica findfont 54.8167 sf 0 0 m (0.334 F) show NC gr 
 gsave  1088 1180 1157 12 C 1170.35 881.021 t 90 r /Helvetica findfont 36.5445 sf 0 0 m ( ) show NC gr 
 gsave  1088 1180 1157 12 C 1196.42 862.775 t 90 r /Helvetica findfont 54.8167 sf 0 0 m (/) show NC gr 
 gsave  1088 1180 1157 12 C 1209.45 852.349 t 90 r /Helvetica findfont 36.5445 sf 0 0 m ( ) show NC gr 
 gsave  1088 1180 1157 12 C 1196.42 649.036 t 90 r /Helvetica findfont 54.8167 sf 0 0 m (\(1/N\) dN) show NC gr  2180 182 m 892 Y s 2155 182 m 25 X s 2167 202 m 13 X s 2167 222 m 13 X s 2167 241 m 13 X s 2167 261 m 13 X s 2155 281 m 25 X s 2167 301 m
 13 X s 2167 320 m 13 X s 2167 340 m 13 X s 2167 360 m 13 X s 2155 380 m 25 X s 2167 399 m 13 X s 2167 419 m 13 X s 2167 439 m 13 X s 2167 459 m 13 X s 2155 479 m 25 X s 2167 498 m 13 X s 2167 518 m 13 X s 2167 538 m 13 X s 2167 558 m 13 X s 2155 577
 m 25 X s 2167 597 m 13 X s 2167 617 m 13 X s 2167 637 m 13 X s 2167 656 m 13 X s 2155 676 m 25 X s 2167 696 m 13 X s 2167 716 m 13 X s 2167 736 m 13 X s 2167 755 m 13 X s 2155 775 m 25 X s 2167 795 m 13 X s 2167 815 m 13 X s 2167 834 m 13 X s 2167
 854 m 13 X s 2155 874 m 25 X s 2167 894 m 13 X s 2167 913 m 13 X s 2167 933 m 13 X s 2167 953 m 13 X s 2155 973 m 25 X s 2167 993 m 13 X s 2167 1012 m 13 X s 2167 1032 m 13 X s 2167 1052 m 13 X s 2155 1072 m 25 X s 2155 1072 m 25 X s 1 0 0 c 6 lw
 black 3 lw 1 0 0 c 2177 182 m s 2152 182 m s 2127 182 m s 2102 182 m s 2077 182 m s 2054 184 m -2 -2 d s 2032 187 m -5 -5 d s 2012 192 m -10 -10 d s 1991 196 m -14 -14 d s 1970 200 m -18 -18 d s 1961 216 m -34 -34 d s 1949 229 m -47 -47 d s 1931 236
 m -54 -54 d s 1928 258 m -76 -76 d s 1911 266 m -84 -84 d s 1907 287 m -105 -105 d s 1896 302 m -119 -120 d s 1886 317 m -134 -135 d s 1886 342 m -159 -160 d s 1882 362 m -180 -180 d s 1865 371 m -188 -189 d s 1865 396 m -213 -214 d s 1859 414 m
 -232 -232 d s 1844 425 m -242 -243 d s 1844 450 m -267 -268 d s 1844 475 m -292 -293 d s 1825 480 m -298 -298 d s 1824 504 m -322 -322 d s 1824 529 m -252 -251 d s 1566 272 m -15 -15 d s 1532 238 m -2 -2 d s 1516 222 m -7 -7 d s 1498 204 m -10 -10 d
 s 1487 193 m -10 -11 d s 1824 554 m -231 -230 d s 1592 322 m -20 -19 d s 1457 188 m -5 -6 d s 1805 561 m -212 -212 d s 1429 185 m -2 -3 d s 1803 583 m -189 -188 d s 1402 183 m -1 -1 d s 1803 608 m -168 -167 d s 1633 439 m -19 -19 d s 1377 182 m -1 X
 s 1798 629 m -163 -163 d s 1352 182 m -1 X s 1782 637 m -126 -125 d s 1650 506 m -15 -15 d s 1782 662 m -126 -125 d s 1782 687 m -105 -104 d s 1665 571 m -9 -9 d s 1761 692 m -84 -84 d s 1752 708 m -54 -54 d s 1692 648 m -15 -15 d s 1720 701 m -1 -1
 d s 1703 684 m -5 -5 d s 6 lw 1342 182 m 41 X 1 Y 42 X 2 Y 21 X 3 Y 21 X 5 Y 21 X 11 Y 21 X 18 Y 21 X 16 Y 21 X 34 Y 21 X 50 Y 21 X 51 Y 21 X 66 Y 21 X 67 Y 21 X 65 Y 21 X 77 Y 21 X 36 Y 21 X 17 Y 21 X 7 Y 21 X -20 Y 21 X -59 Y 21 X -68 Y 21 X -81 Y
 20 X -66 Y 21 X -52 Y 21 X -60 Y 21 X -36 Y 21 X -30 Y 21 X -20 Y 21 X -18 Y 21 X -5 Y 21 X -6 Y 21 X -2 Y 21 X -2 Y 21 X -1 Y 105 X s black 3 lw 1342 182 m 838 X s 1424 209 m -27 Y s 1455 196 m -14 Y s 1487 196 m -14 Y s 1518 196 m -14 Y s 1549 209
 m -27 Y s 1581 196 m -14 Y s 1612 196 m -14 Y s 1643 196 m -14 Y s 1675 209 m -27 Y s 1706 196 m -14 Y s 1737 196 m -14 Y s 1769 196 m -14 Y s 1800 209 m -27 Y s 1831 196 m -14 Y s 1863 196 m -14 Y s 1894 196 m -14 Y s 1925 209 m -27 Y s 1957 196 m
 -14 Y s 1988 196 m -14 Y s 2019 196 m -14 Y s 2051 209 m -27 Y s 2082 196 m -14 Y s 2113 196 m -14 Y s 2145 196 m -14 Y s 2176 209 m -27 Y s 1424 209 m -27 Y s 1393 196 m -14 Y s 1361 196 m -14 Y s 2176 209 m -27 Y s 1342 1074 m 838 X s 1424 1047 m
 27 Y s 1455 1061 m 13 Y s 1487 1061 m 13 Y s 1518 1061 m 13 Y s 1549 1047 m 27 Y s 1581 1061 m 13 Y s 1612 1061 m 13 Y s 1643 1061 m 13 Y s 1675 1047 m 27 Y s 1706 1061 m 13 Y s 1737 1061 m 13 Y s 1769 1061 m 13 Y s 1800 1047 m 27 Y s 1831 1061 m 13
 Y s 1863 1061 m 13 Y s 1894 1061 m 13 Y s 1925 1047 m 27 Y s 1957 1061 m 13 Y s 1988 1061 m 13 Y s 2019 1061 m 13 Y s 2051 1047 m 27 Y s 2082 1061 m 13 Y s 2113 1061 m 13 Y s 2145 1061 m 13 Y s 2176 1047 m 27 Y s 1424 1047 m 27 Y s 1393 1061 m 13 Y
 s 1361 1061 m 13 Y s 2176 1047 m 27 Y s 1342 182 m 892 Y s 1366 182 m -24 X s 1354 202 m -12 X s 1354 222 m -12 X s 1354 241 m -12 X s 1354 261 m -12 X s 1366 281 m -24 X s 1354 301 m -12 X s 1354 320 m -12 X s 1354 340 m -12 X s 1354 360 m -12 X s
 1366 380 m -24 X s 1354 399 m -12 X s 1354 419 m -12 X s 1354 439 m -12 X s 1354 459 m -12 X s 1366 479 m -24 X s 1354 498 m -12 X s 1354 518 m -12 X s 1354 538 m -12 X s 1354 558 m -12 X s 1366 577 m -24 X s 1354 597 m -12 X s 1354 617 m -12 X s
 1354 637 m -12 X s 1354 656 m -12 X s 1366 676 m -24 X s 1354 696 m -12 X s 1354 716 m -12 X s 1354 736 m -12 X s 1354 755 m -12 X s 1366 775 m -24 X s 1354 795 m -12 X s 1354 815 m -12 X s 1354 834 m -12 X s 1354 854 m -12 X s 1366 874 m -24 X s
 1354 894 m -12 X s 1354 913 m -12 X s 1354 933 m -12 X s 1354 953 m -12 X s 1366 973 m -24 X s 1354 993 m -12 X s 1354 1012 m -12 X s 1354 1032 m -12 X s 1354 1052 m -12 X s 1366 1072 m -24 X s 1366 1072 m -24 X s 2180 182 m 892 Y s 2155 182 m 25 X
 s 2167 202 m 13 X s 2167 222 m 13 X s 2167 241 m 13 X s 2167 261 m 13 X s 2155 281 m 25 X s 2167 301 m 13 X s 2167 320 m 13 X s 2167 340 m 13 X s 2167 360 m 13 X s 2155 380 m 25 X s 2167 399 m 13 X s 2167 419 m 13 X s 2167 439 m 13 X s 2167 459 m 13
 X s 2155 479 m 25 X s 2167 498 m 13 X s 2167 518 m 13 X s 2167 538 m 13 X s 2167 558 m 13 X s 2155 577 m 25 X s 2167 597 m 13 X s 2167 617 m 13 X s 2167 637 m 13 X s 2167 656 m 13 X s 2155 676 m 25 X s 2167 696 m 13 X s 2167 716 m 13 X s 2167 736 m
 13 X s 2167 755 m 13 X s 2155 775 m 25 X s 2167 795 m 13 X s 2167 815 m 13 X s 2167 834 m 13 X s 2167 854 m 13 X s 2155 874 m 25 X s 2167 894 m 13 X s 2167 913 m 13 X s 2167 933 m 13 X s 2167 953 m 13 X s 2155 973 m 25 X s 2167 993 m 13 X s 2167
 1012 m 13 X s 2167 1032 m 13 X s 2167 1052 m 13 X s 2155 1072 m 25 X s 2155 1072 m 25 X s
 gsave  1088 1180 1157 12 C 2223.27 177.263 t 90 r /Helvetica-Bold findfont 41.7651 sf 0 0 m (U/O\255flow \(S,B\): \(0.0, 0.0\)% / \(0.0, 0.0\)%) show NC gr  0.490196 0.545098 0.615686 c 0.364706 0.419608 0.490196 c 606 68 1167 1118 bf 0.490196
 0.545098 0.615686 c 1167 1118 m 606 X s 1773 1118 m 68 Y s 1773 1186 m -606 X s 1167 1186 m -68 Y s 1 1 1 c black 1 1 1 c
 gsave  1088 1180 1157 12 C 1191.2 1136.46 t 0 r /Helvetica-Bold findfont 46.9858 sf 0 0 m (Input variable: Variable 2) show NC gr 
 gr  gr showpage
end
%%EOF
