\beamer@sectionintoc {1}{Esempio}{2}{0}{1}
\beamer@sectionintoc {2}{MVA parameters}{8}{0}{2}
\beamer@sectionintoc {3}{Serie 0}{9}{0}{3}
\beamer@sectionintoc {4}{Serie 1}{21}{0}{4}
\beamer@sectionintoc {5}{API}{31}{0}{5}
