\relax 
\providecommand\hyper@newdestlabel[2]{}
\providecommand\HyperFirstAtBeginDocument{\AtBeginDocument}
\HyperFirstAtBeginDocument{\ifx\hyper@anchor\@undefined
\global\let\oldcontentsline\contentsline
\gdef\contentsline#1#2#3#4{\oldcontentsline{#1}{#2}{#3}}
\global\let\oldnewlabel\newlabel
\gdef\newlabel#1#2{\newlabelxx{#1}#2}
\gdef\newlabelxx#1#2#3#4#5#6{\oldnewlabel{#1}{{#2}{#3}}}
\AtEndDocument{\ifx\hyper@anchor\@undefined
\let\contentsline\oldcontentsline
\let\newlabel\oldnewlabel
\fi}
\fi}
\global\let\hyper@last\relax 
\gdef\HyperFirstAtBeginDocument#1{#1}
\providecommand*\HyPL@Entry[1]{}
\HyPL@Entry{0<</P(1)>>}
\@writefile{nav}{\headcommand {\slideentry {0}{0}{1}{1/1}{}{0}}}
\@writefile{nav}{\headcommand {\beamer@framepages {1}{1}}}
\HyPL@Entry{1<</P(2)>>}
\@writefile{toc}{\beamer@sectionintoc {1}{Esempio}{2}{0}{1}}
\@writefile{nav}{\headcommand {\sectionentry {1}{Esempio}{2}{Esempio}{0}}}
\@writefile{nav}{\headcommand {\beamer@sectionpages {1}{1}}}
\@writefile{nav}{\headcommand {\beamer@subsectionpages {1}{1}}}
\@writefile{nav}{\headcommand {\slideentry {1}{0}{1}{2/2}{}{0}}}
\@writefile{nav}{\headcommand {\beamer@framepages {2}{2}}}
\HyPL@Entry{2<</P(3)>>}
\@writefile{nav}{\headcommand {\slideentry {1}{0}{2}{3/3}{}{0}}}
\@writefile{nav}{\headcommand {\beamer@framepages {3}{3}}}
\HyPL@Entry{3<</P(4)>>}
\@writefile{nav}{\headcommand {\slideentry {1}{0}{3}{4/4}{}{0}}}
\@writefile{nav}{\headcommand {\beamer@framepages {4}{4}}}
\HyPL@Entry{4<</P(5)>>}
\@writefile{nav}{\headcommand {\slideentry {1}{0}{4}{5/5}{}{0}}}
\@writefile{nav}{\headcommand {\beamer@framepages {5}{5}}}
\HyPL@Entry{5<</P(6)>>}
\newlabel{fig:sigbg0}{{6}{6}{Esempio}{Doc-Start}{}}
\@writefile{snm}{\beamer@slide {fig:sigbg0}{6}}
\@writefile{nav}{\headcommand {\slideentry {1}{0}{5}{6/6}{}{0}}}
\@writefile{nav}{\headcommand {\beamer@framepages {6}{6}}}
\HyPL@Entry{6<</P(7)>>}
\newlabel{fig:sigbg1}{{7}{7}{Esempio}{Doc-Start}{}}
\@writefile{snm}{\beamer@slide {fig:sigbg1}{7}}
\@writefile{nav}{\headcommand {\slideentry {1}{0}{6}{7/7}{}{0}}}
\@writefile{nav}{\headcommand {\beamer@framepages {7}{7}}}
\HyPL@Entry{7<</P(8)>>}
\@writefile{toc}{\beamer@sectionintoc {2}{MVA parameters}{8}{0}{2}}
\@writefile{nav}{\headcommand {\sectionentry {2}{MVA parameters}{8}{MVA parameters}{0}}}
\@writefile{nav}{\headcommand {\beamer@sectionpages {2}{7}}}
\@writefile{nav}{\headcommand {\beamer@subsectionpages {2}{7}}}
\@writefile{nav}{\headcommand {\slideentry {2}{0}{1}{8/8}{}{0}}}
\@writefile{nav}{\headcommand {\beamer@framepages {8}{8}}}
\HyPL@Entry{8<</P(9)>>}
\@writefile{toc}{\beamer@sectionintoc {3}{Serie 0}{9}{0}{3}}
\@writefile{nav}{\headcommand {\sectionentry {3}{Serie 0}{9}{Serie 0}{0}}}
\@writefile{nav}{\headcommand {\beamer@sectionpages {8}{8}}}
\@writefile{nav}{\headcommand {\beamer@subsectionpages {8}{8}}}
\newlabel{fig:variablesidc1}{{9}{9}{Serie 0}{Doc-Start}{}}
\@writefile{snm}{\beamer@slide {fig:variablesidc1}{9}}
\@writefile{nav}{\headcommand {\slideentry {3}{0}{1}{9/9}{}{0}}}
\@writefile{nav}{\headcommand {\beamer@framepages {9}{9}}}
\HyPL@Entry{9<</P(10)>>}
\newlabel{fig:overtrainfisher}{{10}{10}{Serie 0}{Doc-Start}{}}
\@writefile{snm}{\beamer@slide {fig:overtrainfisher}{10}}
\newlabel{fig:mvaeffsfisher}{{10}{10}{Serie 0}{Doc-Start}{}}
\@writefile{snm}{\beamer@slide {fig:mvaeffsfisher}{10}}
\@writefile{nav}{\headcommand {\slideentry {3}{0}{2}{10/10}{}{0}}}
\@writefile{nav}{\headcommand {\beamer@framepages {10}{10}}}
\HyPL@Entry{10<</P(11)>>}
\newlabel{fig:overtrainlikelihood}{{11}{11}{Serie 0}{Doc-Start}{}}
\@writefile{snm}{\beamer@slide {fig:overtrainlikelihood}{11}}
\newlabel{fig:mvaeffslikelihood}{{11}{11}{Serie 0}{Doc-Start}{}}
\@writefile{snm}{\beamer@slide {fig:mvaeffslikelihood}{11}}
\@writefile{nav}{\headcommand {\slideentry {3}{0}{3}{11/11}{}{0}}}
\@writefile{nav}{\headcommand {\beamer@framepages {11}{11}}}
\HyPL@Entry{11<</P(12)>>}
\newlabel{fig:overtrainbdt}{{12}{12}{Serie 0}{Doc-Start}{}}
\@writefile{snm}{\beamer@slide {fig:overtrainbdt}{12}}
\newlabel{fig:mvaeffsbdt}{{12}{12}{Serie 0}{Doc-Start}{}}
\@writefile{snm}{\beamer@slide {fig:mvaeffsbdt}{12}}
\@writefile{nav}{\headcommand {\slideentry {3}{0}{4}{12/12}{}{0}}}
\@writefile{nav}{\headcommand {\beamer@framepages {12}{12}}}
\HyPL@Entry{12<</P(13)>>}
\newlabel{fig:overtrainmlp}{{13}{13}{Serie 0}{Doc-Start}{}}
\@writefile{snm}{\beamer@slide {fig:overtrainmlp}{13}}
\newlabel{fig:mvaeffsmlp}{{13}{13}{Serie 0}{Doc-Start}{}}
\@writefile{snm}{\beamer@slide {fig:mvaeffsmlp}{13}}
\@writefile{nav}{\headcommand {\slideentry {3}{0}{5}{13/13}{}{0}}}
\@writefile{nav}{\headcommand {\beamer@framepages {13}{13}}}
\HyPL@Entry{13<</P(14)>>}
\newlabel{fig:overtrainsvm}{{14}{14}{Serie 0}{Doc-Start}{}}
\@writefile{snm}{\beamer@slide {fig:overtrainsvm}{14}}
\newlabel{fig:mvaeffssvm}{{14}{14}{Serie 0}{Doc-Start}{}}
\@writefile{snm}{\beamer@slide {fig:mvaeffssvm}{14}}
\@writefile{nav}{\headcommand {\slideentry {3}{0}{6}{14/14}{}{0}}}
\@writefile{nav}{\headcommand {\beamer@framepages {14}{14}}}
\HyPL@Entry{14<</P(15)>>}
\@writefile{nav}{\headcommand {\slideentry {3}{0}{7}{15/15}{}{0}}}
\@writefile{nav}{\headcommand {\beamer@framepages {15}{15}}}
\HyPL@Entry{15<</P(16)>>}
\newlabel{fig:variablespcac1}{{16}{16}{Serie 0}{Doc-Start}{}}
\@writefile{snm}{\beamer@slide {fig:variablespcac1}{16}}
\@writefile{nav}{\headcommand {\slideentry {3}{0}{8}{16/16}{}{0}}}
\@writefile{nav}{\headcommand {\beamer@framepages {16}{16}}}
\HyPL@Entry{16<</P(17)>>}
\newlabel{fig:overtrainlikelihoodpca}{{17}{17}{Serie 0}{Doc-Start}{}}
\@writefile{snm}{\beamer@slide {fig:overtrainlikelihoodpca}{17}}
\newlabel{fig:mvaeffslikelihoodpca}{{17}{17}{Serie 0}{Doc-Start}{}}
\@writefile{snm}{\beamer@slide {fig:mvaeffslikelihoodpca}{17}}
\@writefile{nav}{\headcommand {\slideentry {3}{0}{9}{17/17}{}{0}}}
\@writefile{nav}{\headcommand {\beamer@framepages {17}{17}}}
\HyPL@Entry{17<</P(18)>>}
\newlabel{fig:rejbvss}{{1}{18}{Serie 0}{Doc-Start}{}}
\@writefile{snm}{\beamer@slide {fig:rejbvss}{18}}
\@writefile{nav}{\headcommand {\slideentry {3}{0}{10}{18/18}{}{0}}}
\@writefile{nav}{\headcommand {\beamer@framepages {18}{18}}}
\HyPL@Entry{18<</P(19)>>}
\@writefile{nav}{\headcommand {\slideentry {3}{0}{11}{19/19}{}{0}}}
\@writefile{nav}{\headcommand {\beamer@framepages {19}{19}}}
\HyPL@Entry{19<</P(20)>>}
\newlabel{fig:likepcalogy}{{20}{20}{Serie 0}{Doc-Start}{}}
\@writefile{snm}{\beamer@slide {fig:likepcalogy}{20}}
\newlabel{fig:mlplogy}{{20}{20}{Serie 0}{Doc-Start}{}}
\@writefile{snm}{\beamer@slide {fig:mlplogy}{20}}
\newlabel{fig:bdtlogy}{{2}{20}{Serie 0}{Doc-Start}{}}
\@writefile{snm}{\beamer@slide {fig:bdtlogy}{20}}
\@writefile{nav}{\headcommand {\slideentry {3}{0}{12}{20/20}{}{0}}}
\@writefile{nav}{\headcommand {\beamer@framepages {20}{20}}}
\HyPL@Entry{20<</P(21)>>}
\@writefile{toc}{\beamer@sectionintoc {4}{Serie 1}{21}{0}{4}}
\@writefile{nav}{\headcommand {\sectionentry {4}{Serie 1}{21}{Serie 1}{0}}}
\@writefile{nav}{\headcommand {\beamer@sectionpages {9}{20}}}
\@writefile{nav}{\headcommand {\beamer@subsectionpages {9}{20}}}
\newlabel{fig:variablesidc11}{{21}{21}{Serie 1}{Doc-Start}{}}
\@writefile{snm}{\beamer@slide {fig:variablesidc11}{21}}
\@writefile{nav}{\headcommand {\slideentry {4}{0}{1}{21/21}{}{0}}}
\@writefile{nav}{\headcommand {\beamer@framepages {21}{21}}}
\HyPL@Entry{21<</P(22)>>}
\newlabel{fig:overtrainfisher}{{22}{22}{Serie 1}{Doc-Start}{}}
\@writefile{snm}{\beamer@slide {fig:overtrainfisher}{22}}
\newlabel{fig:mvaeffsfisher}{{22}{22}{Serie 1}{Doc-Start}{}}
\@writefile{snm}{\beamer@slide {fig:mvaeffsfisher}{22}}
\@writefile{nav}{\headcommand {\slideentry {4}{0}{2}{22/22}{}{0}}}
\@writefile{nav}{\headcommand {\beamer@framepages {22}{22}}}
\HyPL@Entry{22<</P(23)>>}
\newlabel{fig:overtrainlikelihood1}{{23}{23}{Serie 1}{Doc-Start}{}}
\@writefile{snm}{\beamer@slide {fig:overtrainlikelihood1}{23}}
\newlabel{fig:mvaeffslikelihood1}{{23}{23}{Serie 1}{Doc-Start}{}}
\@writefile{snm}{\beamer@slide {fig:mvaeffslikelihood1}{23}}
\@writefile{nav}{\headcommand {\slideentry {4}{0}{3}{23/23}{}{0}}}
\@writefile{nav}{\headcommand {\beamer@framepages {23}{23}}}
\HyPL@Entry{23<</P(24)>>}
\newlabel{fig:overtrainbdt1}{{24}{24}{Serie 1}{Doc-Start}{}}
\@writefile{snm}{\beamer@slide {fig:overtrainbdt1}{24}}
\newlabel{fig:mvaeffsbdt}{{24}{24}{Serie 1}{Doc-Start}{}}
\@writefile{snm}{\beamer@slide {fig:mvaeffsbdt}{24}}
\@writefile{nav}{\headcommand {\slideentry {4}{0}{4}{24/24}{}{0}}}
\@writefile{nav}{\headcommand {\beamer@framepages {24}{24}}}
\HyPL@Entry{24<</P(25)>>}
\newlabel{fig:overtrainmlp1}{{25}{25}{Serie 1}{Doc-Start}{}}
\@writefile{snm}{\beamer@slide {fig:overtrainmlp1}{25}}
\newlabel{fig:mvaeffsmlp1}{{25}{25}{Serie 1}{Doc-Start}{}}
\@writefile{snm}{\beamer@slide {fig:mvaeffsmlp1}{25}}
\@writefile{nav}{\headcommand {\slideentry {4}{0}{5}{25/25}{}{0}}}
\@writefile{nav}{\headcommand {\beamer@framepages {25}{25}}}
\HyPL@Entry{25<</P(26)>>}
\newlabel{fig:overtrainsvm1}{{26}{26}{Serie 1}{Doc-Start}{}}
\@writefile{snm}{\beamer@slide {fig:overtrainsvm1}{26}}
\newlabel{fig:mvaeffssvm1}{{26}{26}{Serie 1}{Doc-Start}{}}
\@writefile{snm}{\beamer@slide {fig:mvaeffssvm1}{26}}
\@writefile{nav}{\headcommand {\slideentry {4}{0}{6}{26/26}{}{0}}}
\@writefile{nav}{\headcommand {\beamer@framepages {26}{26}}}
\HyPL@Entry{26<</P(27)>>}
\newlabel{fig:variablespcac11}{{27}{27}{Serie 1}{Doc-Start}{}}
\@writefile{snm}{\beamer@slide {fig:variablespcac11}{27}}
\@writefile{nav}{\headcommand {\slideentry {4}{0}{7}{27/27}{}{0}}}
\@writefile{nav}{\headcommand {\beamer@framepages {27}{27}}}
\HyPL@Entry{27<</P(28)>>}
\newlabel{fig:overtrainlikelihoodpca1}{{28}{28}{Serie 1}{Doc-Start}{}}
\@writefile{snm}{\beamer@slide {fig:overtrainlikelihoodpca1}{28}}
\newlabel{fig:mvaeffslikelihoodpca1}{{28}{28}{Serie 1}{Doc-Start}{}}
\@writefile{snm}{\beamer@slide {fig:mvaeffslikelihoodpca1}{28}}
\@writefile{nav}{\headcommand {\slideentry {4}{0}{8}{28/28}{}{0}}}
\@writefile{nav}{\headcommand {\beamer@framepages {28}{28}}}
\HyPL@Entry{28<</P(29)>>}
\newlabel{fig:rejbvss1}{{3}{29}{Serie 1}{Doc-Start}{}}
\@writefile{snm}{\beamer@slide {fig:rejbvss1}{29}}
\@writefile{nav}{\headcommand {\slideentry {4}{0}{9}{29/29}{}{0}}}
\@writefile{nav}{\headcommand {\beamer@framepages {29}{29}}}
\HyPL@Entry{29<</P(30)>>}
\@writefile{nav}{\headcommand {\slideentry {4}{0}{10}{30/30}{}{0}}}
\@writefile{nav}{\headcommand {\beamer@framepages {30}{30}}}
\HyPL@Entry{30<</P(31)>>}
\@writefile{toc}{\beamer@sectionintoc {5}{API}{31}{0}{5}}
\@writefile{nav}{\headcommand {\sectionentry {5}{API}{31}{API}{0}}}
\@writefile{nav}{\headcommand {\beamer@sectionpages {21}{30}}}
\@writefile{nav}{\headcommand {\beamer@subsectionpages {21}{30}}}
\@writefile{nav}{\headcommand {\slideentry {5}{0}{1}{31/31}{}{0}}}
\@writefile{nav}{\headcommand {\beamer@framepages {31}{31}}}
\HyPL@Entry{31<</P(32)>>}
\@writefile{nav}{\headcommand {\slideentry {5}{0}{2}{32/32}{}{0}}}
\@writefile{nav}{\headcommand {\beamer@framepages {32}{32}}}
\HyPL@Entry{32<</P(33)>>}
\@writefile{nav}{\headcommand {\slideentry {5}{0}{3}{33/33}{}{0}}}
\@writefile{nav}{\headcommand {\beamer@framepages {33}{33}}}
\HyPL@Entry{33<</P(34)>>}
\@writefile{nav}{\headcommand {\slideentry {5}{0}{4}{34/34}{}{0}}}
\@writefile{nav}{\headcommand {\beamer@framepages {34}{34}}}
\HyPL@Entry{34<</P(35)>>}
\@writefile{nav}{\headcommand {\slideentry {5}{0}{5}{35/35}{}{0}}}
\@writefile{nav}{\headcommand {\beamer@framepages {35}{35}}}
\HyPL@Entry{35<</P(36)>>}
\@writefile{nav}{\headcommand {\slideentry {5}{0}{6}{36/36}{}{0}}}
\@writefile{nav}{\headcommand {\beamer@framepages {36}{36}}}
\HyPL@Entry{36<</P(37)>>}
\@writefile{nav}{\headcommand {\slideentry {5}{0}{7}{37/37}{}{0}}}
\@writefile{nav}{\headcommand {\beamer@framepages {37}{37}}}
\HyPL@Entry{37<</P(38)>>}
\@writefile{nav}{\headcommand {\slideentry {5}{0}{8}{38/38}{}{0}}}
\@writefile{nav}{\headcommand {\beamer@framepages {38}{38}}}
\HyPL@Entry{38<</P(39)>>}
\@writefile{nav}{\headcommand {\slideentry {5}{0}{9}{39/39}{}{0}}}
\@writefile{nav}{\headcommand {\beamer@framepages {39}{39}}}
\HyPL@Entry{39<</P(40)>>}
\@writefile{nav}{\headcommand {\slideentry {5}{0}{10}{40/40}{}{0}}}
\@writefile{nav}{\headcommand {\beamer@framepages {40}{40}}}
\HyPL@Entry{40<</P(41)>>}
\@writefile{nav}{\headcommand {\slideentry {5}{0}{11}{41/41}{}{0}}}
\@writefile{nav}{\headcommand {\beamer@framepages {41}{41}}}
\@writefile{nav}{\headcommand {\beamer@partpages {1}{41}}}
\@writefile{nav}{\headcommand {\beamer@subsectionpages {31}{41}}}
\@writefile{nav}{\headcommand {\beamer@sectionpages {31}{41}}}
\@writefile{nav}{\headcommand {\beamer@documentpages {41}}}
\@writefile{nav}{\headcommand {\def \inserttotalframenumber {41}}}
\gdef\minted@oldcachelist{,
  default-pyg-prefix.pygstyle,
  default.pygstyle,
  2DA722BBBEFE375FDA1DA07C8C670521078E9CAFD1A36DFFB0660E73784B9FE0.pygtex,
  BDBCEDC2041048D0511C3B025D789A21078E9CAFD1A36DFFB0660E73784B9FE0.pygtex,
  D58D868357C03369B4F3D199F12FDE2B078E9CAFD1A36DFFB0660E73784B9FE0.pygtex,
  ACAB3D3A10F95F1E73E41B13C1CEB4FD078E9CAFD1A36DFFB0660E73784B9FE0.pygtex,
  6ADC112D8A8C4212FF93304BF983D9CF078E9CAFD1A36DFFB0660E73784B9FE0.pygtex,
  F846E03E9F07995024E5A7982F97FD6D078E9CAFD1A36DFFB0660E73784B9FE0.pygtex,
  59AC642084F741DA54EDDA8666A474B8078E9CAFD1A36DFFB0660E73784B9FE0.pygtex,
  C1DAC1A592903C27D783DD0C552F9C88078E9CAFD1A36DFFB0660E73784B9FE0.pygtex,
  4A0A1C60B66784E74DE3593C6F46070B078E9CAFD1A36DFFB0660E73784B9FE0.pygtex,
  7D134A982FA6DD53E746EDD9B87BC6FC078E9CAFD1A36DFFB0660E73784B9FE0.pygtex,
  FDA1AD744CC7F2C4C0DCD9AFD20AB3EB078E9CAFD1A36DFFB0660E73784B9FE0.pygtex,
  0F59B86E6C02AE43114ED31644025CBA078E9CAFD1A36DFFB0660E73784B9FE0.pygtex,
  031A67CECB4E2759DA1C759C038D317E078E9CAFD1A36DFFB0660E73784B9FE0.pygtex,
  6D903EA8E0C4D5B2B4F500B59F1BA150BA2D04BCA39BF804F7A3323172756711.pygtex,
  DB420142B27585161EE1752B00F15115BA2D04BCA39BF804F7A3323172756711.pygtex,
  5BEFCE93CB87A06F7EDE07B40CA91F7CBA2D04BCA39BF804F7A3323172756711.pygtex,
  1C6E9F9A22E76903FD2E71946DC275C0BA2D04BCA39BF804F7A3323172756711.pygtex,
  25C224EDB6E6B5A20DD0C0C3554C3E34BA2D04BCA39BF804F7A3323172756711.pygtex,
  549001976BC1993C1B53C97A637F3CE9BA2D04BCA39BF804F7A3323172756711.pygtex}
