%!PS-Adobe-2.0 EPSF-2.0
%%BoundingBox:  0 0 567 419
%%Title: : TMVA comparison BDT
%%Creator: ROOT Version 6.12/06
%%CreationDate: Mon May 21 16:45:18 2018
%%DocumentNeededResources: ProcSet (FontSetInit)
%%EndComments
%%BeginProlog
80 dict begin
/s {stroke} def /l {lineto} def /m {moveto} def /t {translate} def
/r {rotate} def /rl {roll}  def /R {repeat} def
/d {rlineto} def /rm {rmoveto} def /gr {grestore} def /f {eofill} def
/c {setrgbcolor} def /black {0 setgray} def /sd {setdash} def
/cl {closepath} def /sf {scalefont setfont} def /lw {setlinewidth} def
/box {m dup 0 exch d exch 0 d 0 exch neg d cl} def
/NC{systemdict begin initclip end}def/C{NC box clip newpath}def
/bl {box s} def /bf {gsave box gsave f grestore 1 lw [] 0 sd s grestore} def /Y { 0 exch d} def /X { 0 d} def 
/K {{pop pop 0 moveto} exch kshow} bind def
/ita {/ang 15 def gsave [1 0 ang dup sin exch cos div 1 0 0] concat} def 
/mp {newpath /y exch def /x exch def} def
/side {[w .77 mul w .23 mul] .385 w mul sd w 0 l currentpoint t -144 r} def
/mr {mp x y w2 0 360 arc} def /m24 {mr s} def /m20 {mr f} def
/mb {mp x y w2 add m w2 neg 0 d 0 w neg d w 0 d 0 w d cl} def
/mt {mp x y w2 add m w2 neg w neg d w 0 d cl} def
/w4 {w 4 div} def
/w6 {w 6 div} def
/w8 {w 8 div} def
/m21 {mb f} def /m25 {mb s} def /m22 {mt f} def /m26{mt s} def
/m23 {mp x y w2 sub m w2 w d w neg 0 d cl f} def
/m27 {mp x y w2 add m w3 neg w2 neg d w3 w2 neg d w3 w2 d cl s} def
/m28 {mp x w2 sub y w2 sub w3 add m w3 0 d  0 w3 neg d w3 0 d 0 w3 d w3 0 d  0 w3 d w3 neg 0 d 0 w3 d w3 neg 0 d 0 w3 neg d w3 neg 0 d cl s } def
/m29 {mp gsave x w2 sub y w2 add w3 sub m currentpoint t 4 {side} repeat cl fill gr} def
/m30 {mp gsave x w2 sub y w2 add w3 sub m currentpoint t 4 {side} repeat cl s gr} def
/m31 {mp x y w2 sub m 0 w d x w2 sub y m w 0 d x w2 sub y w2 add m w w neg d x w2 sub y w2 sub m w w d s} def
/m32 {mp x y w2 sub m w2 w d w neg 0 d cl s} def
/m33 {mp x y w2 add m w3 neg w2 neg d w3 w2 neg d w3 w2 d cl f} def
/m34 {mp x w2 sub y w2 sub w3 add m w3 0 d  0 w3 neg d w3 0 d 0 w3 d w3 0 d  0 w3 d w3 neg 0 d 0 w3 d w3 neg 0 d 0 w3 neg d w3 neg 0 d cl f } def
/m35 {mp x y w2 add m w2 neg w2 neg d w2 w2 neg d w2 w2 d w2 neg w2 d x y w2 sub m 0 w d x w2 sub y m w 0 d s} def
/m36 {mb x w2 sub y w2 add m w w neg d x w2 sub y w2 sub m w w d s} def
/m37 {mp x y m w4 neg w2 d w4 neg w2 neg d w2 0 d  w4 neg w2 neg d w2 0 d w4 neg w2 d w2 0 d w4 neg w2 d w4 neg w2 neg d cl s} def
/m38 {mp x w4 sub y w2 add m w4 neg w4 neg d 0 w2 neg d w4 w4 neg d w2 0 d w4 w4 d 0 w2 d w4 neg w4 d w2 neg 0 d x y w2 sub m 0 w d x w2 sub y m w 0 d cl s} def
/m39 {mp x y m w4 neg w2 d w4 neg w2 neg d w2 0 d  w4 neg w2 neg d w2 0 d w4 neg w2 d w2 0 d w4 neg w2 d w4 neg w2 neg d cl f} def
/m40 {mp x y m w4 w2 d w4 w4 neg d w2 neg w4 neg d w2 w4 neg d w4 neg w4 neg d w4 neg w2 d w4 neg w2 neg d w4 neg w4 d w2 w4 d w2 neg w4 d w4 w4 d w4 w2 neg d cl s} def
/m41 {mp x y m w4 w2 d w4 w4 neg d w2 neg w4 neg d w2 w4 neg d w4 neg w4 neg d w4 neg w2 d w4 neg w2 neg d w4 neg w4 d w2 w4 d w2 neg w4 d w4 w4 d w4 w2 neg d cl f} def
/m42 {mp x y w2 add m w8 neg w2 -3 4 div mul d w2 -3 4 div mul w8 neg d w2 3 4 div mul w8 neg d w8 w2 -3 4 div mul d w8 w2 3 4 div mul d w2 3 4 div mul w8 d w2 -3 4 div mul w8 d w8 neg w2 3 4 div mul d cl s} def
/m43 {mp x y w2 add m w8 neg w2 -3 4 div mul d w2 -3 4 div mul w8 neg d w2 3 4 div mul w8 neg d w8 w2 -3 4 div mul d w8 w2 3 4 div mul d w2 3 4 div mul w8 d w2 -3 4 div mul w8 d w8 neg w2 3 4 div mul d cl f} def
/m44 {mp x y m w6 neg w2 d w2 2 3 div mul 0 d w6 neg w2 neg d w2 w6 d 0 w2 -2 3 div mul d w2 neg w6 d w6 w2 neg d w2 -2 3 div mul 0 d w6 w2 d w2 neg w6 neg d 0 w2 2 3 div mul d w2 w6 neg d cl s} def
/m45 {mp x y m w6 neg w2 d w2 2 3 div mul 0 d w6 neg w2 neg d w2 w6 d 0 w2 -2 3 div mul d w2 neg w6 d w6 w2 neg d w2 -2 3 div mul 0 d w6 w2 d w2 neg w6 neg d 0 w2 2 3 div mul d w2 w6 neg d cl f} def
/m46 {mp x y w4 add m w4 neg w4 d w4 neg w4 neg d  w4 w4 neg d w4 neg w4 neg d w4 w4 neg d w4 w4 d w4 w4 neg d w4 w4 d w4 neg w4 d w4 w4 d w4 neg w4 d w4 neg w4 neg d cl s} def
/m47 {mp x y w4 add m w4 neg w4 d w4 neg w4 neg d w4 w4 neg d w4 neg w4 neg d  w4 w4 neg d w4 w4 d w4 w4 neg d w4 w4 d w4 neg w4 d w4 w4 d w4 neg w4 d w4 neg w4 neg d cl f} def
/m48 {mp x y w4 add m w4 neg w4 d w4 neg w4 neg d w4 w4 neg d  w4 neg w4 neg d w4 w4 neg d w4 w4 d w4 w4 neg d w4 w4 d w4 neg w4 d w4 w4 d w4 neg w4 d w4 neg w4 neg d  w4 w4 neg d w4 neg w4 neg d w4 neg w4 d w4 w4 d cl f} def
/m49 {mp x w2 sub w3 add y w2 sub w3 add m  0 w3 neg d w3 0 d 0 w3 d w3 0 d 0 w3 d w3 neg 0 d 0 w3 d w3 neg 0 d 0 w3 neg d w3 neg 0 d 0 w3 neg d w3 0 d 0 w3 d w3 0 d 0 w3 neg d w3 neg 0 d cl f } def
/m2 {mp x y w2 sub m 0 w d x w2 sub y m w 0 d s} def
/m5 {mp x w2 sub y w2 sub m w w d x w2 sub y w2 add m w w neg d s} def
%%IncludeResource: ProcSet (FontSetInit)
%%IncludeResource: font Times-Roman
%%IncludeResource: font Times-Italic
%%IncludeResource: font Times-Bold
%%IncludeResource: font Times-BoldItalic
%%IncludeResource: font Helvetica
%%IncludeResource: font Helvetica-Oblique
%%IncludeResource: font Helvetica-Bold
%%IncludeResource: font Helvetica-BoldOblique
%%IncludeResource: font Courier
%%IncludeResource: font Courier-Oblique
%%IncludeResource: font Courier-Bold
%%IncludeResource: font Courier-BoldOblique
%%IncludeResource: font Symbol
%%IncludeResource: font ZapfDingbats
/reEncode {exch findfont dup length dict begin {1 index /FID eq  {pop pop} {def} ifelse } forall /Encoding exch def currentdict end dup /FontName get exch definefont pop } def [/Times-Bold /Times-Italic /Times-BoldItalic /Helvetica /Helvetica-Oblique
 /Helvetica-Bold /Helvetica-BoldOblique /Courier /Courier-Oblique /Courier-Bold /Courier-BoldOblique /Times-Roman /AvantGarde-Book /AvantGarde-BookOblique /AvantGarde-Demi /AvantGarde-DemiOblique /Bookman-Demi /Bookman-DemiItalic /Bookman-Light
 /Bookman-LightItalic /Helvetica-Narrow /Helvetica-Narrow-Bold /Helvetica-Narrow-BoldOblique /Helvetica-Narrow-Oblique /NewCenturySchlbk-Roman /NewCenturySchlbk-Bold /NewCenturySchlbk-BoldItalic /NewCenturySchlbk-Italic /Palatino-Bold
 /Palatino-BoldItalic /Palatino-Italic /Palatino-Roman ] {ISOLatin1Encoding reEncode } forall
%%EndProlog
%%BeginSetup
%%EndSetup
newpath  gsave  .25 .25 scale  gsave  0 0 t 0.490196 0.545098 0.615686 c[  ] 0 sd 3 lw 0.941176 0.941176 0.941176 c 2268 1676 0 0 bf black 1 1 0.992157 c 1916 1308 238 201 bf black 1916 1308 238 201 bl 1 1 0.992157 c 1916 1308 238 201 bf black 1916
 1308 238 201 bl 238 201 m 1916 X s 428 244 m -43 Y s 469 222 m -21 Y s 509 222 m -21 Y s 550 222 m -21 Y s 590 222 m -21 Y s 631 244 m -43 Y s 672 222 m -21 Y s 712 222 m -21 Y s 753 222 m -21 Y s 793 222 m -21 Y s 834 244 m -43 Y s 874 222 m -21 Y
 s 915 222 m -21 Y s 955 222 m -21 Y s 996 222 m -21 Y s 1036 244 m -43 Y s 1077 222 m -21 Y s 1117 222 m -21 Y s 1158 222 m -21 Y s 1198 222 m -21 Y s 1239 244 m -43 Y s 1279 222 m -21 Y s 1320 222 m -21 Y s 1360 222 m -21 Y s 1401 222 m -21 Y s
 1441 244 m -43 Y s 1482 222 m -21 Y s 1522 222 m -21 Y s 1563 222 m -21 Y s 1604 222 m -21 Y s 1644 244 m -43 Y s 1685 222 m -21 Y s 1725 222 m -21 Y s 1766 222 m -21 Y s 1806 222 m -21 Y s 1847 244 m -43 Y s 1887 222 m -21 Y s 1928 222 m -21 Y s
 1968 222 m -21 Y s 2009 222 m -21 Y s 2049 244 m -43 Y s 428 244 m -43 Y s 388 222 m -21 Y s 347 222 m -21 Y s 307 222 m -21 Y s 266 222 m -21 Y s 2049 244 m -43 Y s 2090 222 m -21 Y s 2130 222 m -21 Y s
 gsave  2268 1676 0 0 C 394.385 128.934 t 0 r /Helvetica-Bold findfont 64.4669 sf 0 0 m (0.3) show NC gr 
 gsave  2268 1676 0 0 C 364.048 128.934 t 0 r /Symbol findfont 64.4669 sf 0 0 m (-) show NC gr 
 gsave  2268 1676 0 0 C 599.163 128.934 t 0 r /Helvetica-Bold findfont 64.4669 sf 0 0 m (0.2) show NC gr 
 gsave  2268 1676 0 0 C 568.825 128.934 t 0 r /Symbol findfont 64.4669 sf 0 0 m (-) show NC gr 
 gsave  2268 1676 0 0 C 803.94 128.934 t 0 r /Helvetica-Bold findfont 64.4669 sf 0 0 m (0.1) show NC gr 
 gsave  2268 1676 0 0 C 773.602 128.934 t 0 r /Symbol findfont 64.4669 sf 0 0 m (-) show NC gr 
 gsave  2268 1676 0 0 C 1016.3 128.934 t 0 r /Helvetica-Bold findfont 64.4669 sf 0 0 m (0) show NC gr 
 gsave  2268 1676 0 0 C 1194.53 128.934 t 0 r /Helvetica-Bold findfont 64.4669 sf 0 0 m (0.1) show NC gr 
 gsave  2268 1676 0 0 C 1395.52 128.934 t 0 r /Helvetica-Bold findfont 64.4669 sf 0 0 m (0.2) show NC gr 
 gsave  2268 1676 0 0 C 1596.5 128.934 t 0 r /Helvetica-Bold findfont 64.4669 sf 0 0 m (0.3) show NC gr 
 gsave  2268 1676 0 0 C 1797.49 128.934 t 0 r /Helvetica-Bold findfont 64.4669 sf 0 0 m (0.4) show NC gr 
 gsave  2268 1676 0 0 C 2002.26 128.934 t 0 r /Helvetica-Bold findfont 64.4669 sf 0 0 m (0.5) show NC gr 
 gsave  2268 1676 0 0 C 1664.76 34.1295 t 0 r /Helvetica-Bold findfont 72.0512 sf 0 0 m (BDT response) show NC gr  238 1509 m 1916 X s 428 1466 m 43 Y s 469 1487 m 22 Y s 509 1487 m 22 Y s 550 1487 m 22 Y s 590 1487 m 22 Y s 631 1466 m 43 Y s 672
 1487 m 22 Y s 712 1487 m 22 Y s 753 1487 m 22 Y s 793 1487 m 22 Y s 834 1466 m 43 Y s 874 1487 m 22 Y s 915 1487 m 22 Y s 955 1487 m 22 Y s 996 1487 m 22 Y s 1036 1466 m 43 Y s 1077 1487 m 22 Y s 1117 1487 m 22 Y s 1158 1487 m 22 Y s 1198 1487 m 22
 Y s 1239 1466 m 43 Y s 1279 1487 m 22 Y s 1320 1487 m 22 Y s 1360 1487 m 22 Y s 1401 1487 m 22 Y s 1441 1466 m 43 Y s 1482 1487 m 22 Y s 1522 1487 m 22 Y s 1563 1487 m 22 Y s 1604 1487 m 22 Y s 1644 1466 m 43 Y s 1685 1487 m 22 Y s 1725 1487 m 22 Y
 s 1766 1487 m 22 Y s 1806 1487 m 22 Y s 1847 1466 m 43 Y s 1887 1487 m 22 Y s 1928 1487 m 22 Y s 1968 1487 m 22 Y s 2009 1487 m 22 Y s 2049 1466 m 43 Y s 428 1466 m 43 Y s 388 1487 m 22 Y s 347 1487 m 22 Y s 307 1487 m 22 Y s 266 1487 m 22 Y s 2049
 1466 m 43 Y s 2090 1487 m 22 Y s 2130 1487 m 22 Y s 238 201 m 1308 Y s 265 244 m -27 X s 265 329 m -27 X s 265 389 m -27 X s 265 436 m -27 X s 265 475 m -27 X s 265 507 m -27 X s 265 535 m -27 X s 265 560 m -27 X s 291 582 m -53 X s
 gsave  2268 1676 0 0 C 182.024 583.994 t 0 r /Helvetica-Bold findfont 41.7138 sf 0 0 m (1) show NC gr 
 gsave  2268 1676 0 0 C 159.271 583.994 t 0 r /Symbol findfont 41.7138 sf 0 0 m (-) show NC gr 
 gsave  2268 1676 0 0 C 87.2199 553.657 t 0 r /Helvetica-Bold findfont 64.4669 sf 0 0 m (10) show NC gr  265 728 m -27 X s 265 813 m -27 X s 265 874 m -27 X s 265 921 m -27 X s 265 959 m -27 X s 265 992 m -27 X s 265 1020 m -27 X s 265 1044 m -27 X s
 291 1067 m -53 X s
 gsave  2268 1676 0 0 C 174.44 1042.85 t 0 r /Helvetica-Bold findfont 64.4669 sf 0 0 m (1) show NC gr  265 1212 m -27 X s 265 1298 m -27 X s 265 1358 m -27 X s 265 1405 m -27 X s 265 1444 m -27 X s 265 1476 m -27 X s 265 1504 m -27 X s
 gsave  2268 1676 0 0 C 64.4669 1425.86 t 90 r /Helvetica-Bold findfont 72.0512 sf 0 0 m (dx) show NC gr 
 gsave  2268 1676 0 0 C 30.3373 1406.89 t 90 r /Helvetica-Bold findfont 45.506 sf 0 0 m ( ) show NC gr 
 gsave  2268 1676 0 0 C 64.4669 1384.14 t 90 r /Helvetica-Bold findfont 72.0512 sf 0 0 m (/) show NC gr 
 gsave  2268 1676 0 0 C 30.3373 1365.18 t 90 r /Helvetica-Bold findfont 45.506 sf 0 0 m ( ) show NC gr 
 gsave  2268 1676 0 0 C 60.6747 1092.14 t 90 r /Helvetica-Bold findfont 72.0512 sf 0 0 m (\(1/N\) dN) show NC gr  2154 201 m 1308 Y s 2128 244 m 26 X s 2128 329 m 26 X s 2128 389 m 26 X s 2128 436 m 26 X s 2128 475 m 26 X s 2128 507 m 26 X s 2128 535
 m 26 X s 2128 560 m 26 X s 2101 582 m 53 X s 2128 728 m 26 X s 2128 813 m 26 X s 2128 874 m 26 X s 2128 921 m 26 X s 2128 959 m 26 X s 2128 992 m 26 X s 2128 1020 m 26 X s 2128 1044 m 26 X s 2101 1067 m 53 X s 2128 1212 m 26 X s 2128 1298 m 26 X s
 2128 1358 m 26 X s 2128 1405 m 26 X s 2128 1444 m 26 X s 2128 1476 m 26 X s 2128 1504 m 26 X s 0.490196 0.545098 0.615686 c 1 1 1 c 0.490196 0.545098 0.615686 c 907 202 238 1307 bl 238 1307 m 907 X s 1145 1307 m 202 Y s 1145 1509 m -907 X s 238 1509
 m -202 Y s black
 gsave  2268 1676 0 0 C 417.138 1437.23 t 0 r /Helvetica-Bold findfont 56.8825 sf 0 0 m (Signal \(test sample\)) show NC gr  0.49 0.6 0.82 c 265 1423 m 127 X 70 Y -127 X f 0 0 0.933333 c 265 1493 m 127 X s 265 1423 m 127 X s 392 1423 m 70 Y s 265
 1423 m 70 Y s black
 gsave  2268 1676 0 0 C 417.138 1338.64 t 0 r /Helvetica-Bold findfont 56.8825 sf 0 0 m (Background \(test sample\)) show NC gr  1 0 0 c 392 1354 m -32 -32 d s 383 1393 m -71 -71 d s 335 1393 m -70 -69 d s 286 1393 m -21 -21 d s 0 0 0.933333 c 1 0 0
 c 265 1393 m 127 X s 265 1322 m 127 X s 392 1322 m 71 Y s 265 1322 m 71 Y s 0 0 0.933333 c 0.49 0.6 0.82 c black 0.49 0.6 0.82 c 238 201 m 192 X 153 Y 48 X -146 Y 48 X 193 Y 47 X -200 Y 48 X 93 Y 48 X 231 Y 48 X -85 Y 48 X 282 Y 48 X 303 Y 48 X 101
 Y 48 X 17 Y 48 X 33 Y 48 X 13 Y 48 X 57 Y 47 X 54 Y 48 X 95 Y 48 X -103 Y 48 X -91 Y 48 X -135 Y 48 X 25 Y 48 X -70 Y 48 X 36 Y 48 X -19 Y 48 X 63 Y 47 X -252 Y 48 X 82 Y 48 X 142 Y 48 X -187 Y 48 X 98 Y 48 X 103 Y 48 X 149 Y 48 X -309 Y 48 X -88 Y
 48 X 105 Y 48 X 186 Y 47 X 267 Y 48 X -1196 Y f 0 0 0.933333 c 0.49 0.6 0.82 c 0 0 0.933333 c 238 201 m 192 X 153 Y 48 X -146 Y 48 X 193 Y 47 X -200 Y 48 X 93 Y 48 X 231 Y 48 X -85 Y 48 X 282 Y 48 X 303 Y 48 X 101 Y 48 X 17 Y 48 X 33 Y 48 X 13 Y 48
 X 57 Y 47 X 54 Y 48 X 95 Y 48 X -103 Y 48 X -91 Y 48 X -135 Y 48 X 25 Y 48 X -70 Y 48 X 36 Y 48 X -19 Y 48 X 63 Y 47 X -252 Y 48 X 82 Y 48 X 142 Y 48 X -187 Y 48 X 98 Y 48 X 103 Y 48 X 149 Y 48 X -309 Y 48 X -88 Y 48 X 105 Y 48 X 186 Y 47 X 267 Y 48
 X -1196 Y s 1 0 0 c black 1 0 0 c 2125 201 m s 2077 201 m cl s 2029 201 m s 1981 201 m s 1933 201 m s 1885 201 m s 1837 201 m s 1789 201 m s 1741 201 m cl s 1692 201 m s 1644 201 m s 1596 201 m s 1555 208 m -7 -7 d s 1532 233 m -32 -32 d s 1532 281
 m -80 -80 d s 1532 329 m -128 -128 d s 1509 354 m -153 -153 d s 1461 354 m -153 -153 d s 1436 377 m -177 -176 d s 1411 401 m -200 -200 d s 1388 426 m -225 -225 d s 1388 474 m -273 -273 d s 1388 522 m -321 -321 d s 1365 547 m -346 -346 d s 1340 570 m
 -369 -369 d s 1340 618 m -417 -417 d s 1340 666 m -465 -465 d s 1318 693 m -491 -492 d s 1292 715 m -514 -514 d s 1292 763 m -562 -562 d s 1292 811 m -610 -610 d s 1292 859 m -658 -658 d s 1275 890 m -689 -689 d s 1244 907 m -706 -706 d s 1244 955 m
 -754 -754 d s 1244 1004 m -802 -803 d s 1220 1027 m -826 -826 d s 1196 1052 m -851 -851 d s 1196 1100 m -899 -899 d s 1176 1128 m -927 -927 d s 1121 1121 m -883 -883 d s 1092 1141 m -854 -855 d s 1053 1149 m -815 -815 d s 1027 1171 m -789 -789 d s
 1005 1197 m -767 -766 d s 1000 1240 m -235 -234 d s 739 979 m -501 -500 d s 957 1245 m -192 -191 d s 717 1006 m -479 -479 d s 957 1293 m -144 -143 d s 783 1120 m -18 -18 d s 717 1054 m -479 -479 d s 954 1339 m -141 -141 d s 717 1102 m -96 -96 d s
 597 982 m -359 -359 d s 909 1342 m -96 -96 d s 717 1150 m -48 -48 d s 668 1101 m -47 -47 d s 573 1006 m -335 -335 d s 909 1390 m -48 -48 d s 857 1338 m -44 -44 d s 717 1198 m -48 -48 d s 573 1055 m -335 -336 d s 884 1413 m -23 -23 d s 717 1246 m -48
 -48 d s 573 1103 m -335 -336 d s 671 1248 m -2 -1 d s 573 1151 m -143 -144 d s 422 1000 m -184 -185 d s 572 1197 m -142 -142 d s 382 1007 m -144 -144 d s 526 1199 m -96 -96 d s 382 1055 m -48 -48 d s 261 934 m -23 -22 d s 503 1224 m -73 -73 d s 382
 1103 m -48 -47 d s 478 1247 m -48 -48 d s 382 1152 m -48 -48 d s 478 1295 m -48 -47 d s 382 1200 m -48 -48 d s 478 1344 m -48 -48 d s 339 1205 m -5 -5 d s 478 1392 m -48 -48 d s 478 1440 m -48 -48 d s 443 1453 m -13 -13 d s 238 934 m 48 X 25 Y 48 X
 246 Y 48 X -205 Y 48 X 453 Y 48 X -229 Y 48 X -27 Y 47 X -215 Y 48 X 119 Y 48 X 147 Y 48 X -269 Y 48 X 141 Y 48 X 218 Y 48 X 75 Y 48 X -74 Y 48 X -99 Y 48 X -69 Y 48 X -30 Y 47 X -20 Y 48 X 7 Y 48 X -101 Y 48 X -137 Y 48 X -197 Y 48 X -146 Y 48 X
 -146 Y 48 X -47 Y 96 X -146 Y 47 X -7 Y 575 X s 0.490196 0.545098 0.615686 c 1 1 1 c 0.490196 0.545098 0.615686 c 952 202 1202 1307 bl 1202 1307 m 952 X s 2154 1307 m 202 Y s 2154 1509 m -952 X s 1202 1509 m -202 Y s black
 gsave  2268 1676 0 0 C 1296.92 1437.23 t 0 r /Helvetica-Bold findfont 56.8825 sf 0 0 m (Signal \(training sample\)) show NC gr  0 0 0.933333 c /w 21 def /w2 {w 2 div} def /w3 {w 3 div} def 1250 1458 m20 black
 gsave  2268 1676 0 0 C 1296.92 1338.64 t 0 r /Helvetica-Bold findfont 56.8825 sf 0 0 m (Background \(training sample\)) show NC gr  1 0 0 c 1250 1358 m20 0 0 0.933333 c 1 1 1 c 0 0 0.933333 c 502 216 m 105 Y s 478 208 m 16 X s 509 208 m 17 X s 494
 321 m 15 X s 478 201 m 15 Y s 526 201 m 15 Y s 502 208 m20 549 201 m 85 Y s 549 301 m 89 Y s 526 294 m 16 X s 557 294 m 16 X s 542 201 m 15 X s 542 390 m 15 X s 526 286 m 15 Y s 573 286 m 15 Y s 549 294 m20 597 216 m 105 Y s 573 208 m 17 X s 605 208
 m 16 X s 590 321 m 15 X s 573 201 m 15 Y s 621 201 m 15 Y s 597 208 m20 645 216 m 105 Y s 621 208 m 17 X s 653 208 m 16 X s 638 321 m 15 X s 621 201 m 15 Y s 669 201 m 15 Y s 645 208 m20 693 552 m 58 Y s 693 625 m 43 Y s 669 618 m 17 X s 701 618 m
 16 X s 686 552 m 15 X s 686 668 m 15 X s 669 610 m 15 Y s 717 610 m 15 Y s 693 618 m20 741 201 m 85 Y s 741 301 m 89 Y s 717 294 m 17 X s 749 294 m 16 X s 734 201 m 15 X s 734 390 m 15 X s 717 286 m 15 Y s 765 286 m 15 Y s 741 294 m20 789 614 m 49 Y
 s 789 678 m 37 Y s 765 671 m 16 X s 797 671 m 16 X s 781 614 m 16 X s 781 715 m 16 X s 765 663 m 15 Y s 813 663 m 15 Y s 789 671 m20 837 939 m 19 Y s 837 973 m 15 Y s 813 965 m 16 X s 845 965 m 16 X s 829 939 m 16 X s 829 988 m 16 X s 813 958 m 15 Y
 s 861 958 m 15 Y s 837 965 m20 885 1067 m 12 Y s 885 1094 m 10 Y s 861 1087 m 16 X s 892 1087 m 17 X s 877 1067 m 15 X s 877 1104 m 15 X s 861 1079 m 15 Y s 909 1079 m 15 Y s 885 1087 m20 933 1131 m 9 Y s 933 1156 m 7 Y s 909 1148 m 16 X s 940 1148
 m 17 X s 925 1131 m 15 X s 925 1163 m 15 X s 909 1140 m 16 Y s 957 1140 m 16 Y s 933 1148 m20 981 1163 m 8 Y s 981 1186 m 7 Y s 957 1178 m 16 X s 988 1178 m 17 X s 973 1163 m 15 X s 973 1193 m 15 X s 957 1171 m 15 Y s 1005 1171 m 15 Y s 981 1178 m20
 1029 1197 m 7 Y s 1029 1219 m 5 Y s 1005 1211 m 16 X s 1036 1211 m 17 X s 1021 1197 m 15 X s 1021 1224 m 15 X s 1005 1204 m 15 Y s 1053 1204 m 15 Y s 1029 1211 m20 1076 1232 m 5 Y s 1076 1253 m 4 Y s 1053 1245 m 16 X s 1084 1245 m 16 X s 1069 1232 m
 15 X s 1069 1257 m 15 X s 1053 1237 m 16 Y s 1100 1237 m 16 Y s 1076 1245 m20 1124 1314 m 3 Y s 1124 1332 m 3 Y s 1100 1325 m 17 X s 1132 1325 m 16 X s 1117 1314 m 15 X s 1117 1335 m 15 X s 1100 1317 m 15 Y s 1148 1317 m 15 Y s 1124 1325 m20 1172
 1346 m 3 Y s 1172 1364 m 2 Y s 1148 1356 m 17 X s 1180 1356 m 16 X s 1165 1346 m 15 X s 1165 1366 m 15 X s 1148 1349 m 15 Y s 1196 1349 m 15 Y s 1172 1356 m20 1220 1288 m 4 Y s 1220 1307 m 4 Y s 1196 1300 m 17 X s 1228 1300 m 16 X s 1213 1288 m 15 X
 s 1213 1311 m 15 X s 1196 1292 m 15 Y s 1244 1292 m 15 Y s 1220 1300 m20 1268 1181 m 7 Y s 1268 1203 m 6 Y s 1244 1195 m 16 X s 1276 1195 m 16 X s 1260 1181 m 16 X s 1260 1209 m 16 X s 1244 1188 m 15 Y s 1292 1188 m 15 Y s 1268 1195 m20 1316 1082 m
 11 Y s 1316 1108 m 10 Y s 1292 1101 m 16 X s 1324 1101 m 16 X s 1308 1082 m 16 X s 1308 1118 m 16 X s 1292 1093 m 15 Y s 1340 1093 m 15 Y s 1316 1101 m20 1364 1109 m 10 Y s 1364 1134 m 8 Y s 1340 1126 m 16 X s 1371 1126 m 17 X s 1356 1109 m 15 X s
 1356 1142 m 15 X s 1340 1119 m 15 Y s 1388 1119 m 15 Y s 1364 1126 m20 1412 981 m 16 Y s 1412 1012 m 14 Y s 1388 1005 m 16 X s 1419 1005 m 17 X s 1404 981 m 15 X s 1404 1026 m 15 X s 1388 997 m 15 Y s 1436 997 m 15 Y s 1412 1005 m20 1460 1060 m 12 Y
 s 1460 1088 m 10 Y s 1436 1080 m 16 X s 1467 1080 m 17 X s 1452 1060 m 15 X s 1452 1098 m 15 X s 1436 1072 m 16 Y s 1484 1072 m 16 Y s 1460 1080 m20 1508 970 m 17 Y s 1508 1002 m 15 Y s 1484 995 m 16 X s 1515 995 m 17 X s 1500 970 m 15 X s 1500 1017
 m 15 X s 1484 987 m 15 Y s 1532 987 m 15 Y s 1508 995 m20 1556 1103 m 10 Y s 1556 1128 m 9 Y s 1532 1121 m 16 X s 1563 1121 m 16 X s 1548 1103 m 15 X s 1548 1137 m 15 X s 1532 1113 m 15 Y s 1579 1113 m 15 Y s 1556 1121 m20 1603 728 m 35 Y s 1603 779
 m 28 Y s 1579 771 m 17 X s 1611 771 m 16 X s 1596 728 m 15 X s 1596 807 m 15 X s 1579 763 m 16 Y s 1627 763 m 16 Y s 1603 771 m20 1651 899 m 21 Y s 1651 935 m 18 Y s 1627 927 m 17 X s 1659 927 m 16 X s 1644 899 m 15 X s 1644 953 m 15 X s 1627 920 m
 15 Y s 1675 920 m 15 Y s 1651 927 m20 1699 1062 m 12 Y s 1699 1089 m 11 Y s 1675 1082 m 17 X s 1707 1082 m 16 X s 1692 1062 m 15 X s 1692 1100 m 15 X s 1675 1074 m 15 Y s 1723 1074 m 15 Y s 1699 1082 m20 1747 906 m 21 Y s 1747 942 m 17 Y s 1723 934
 m 17 X s 1755 934 m 16 X s 1740 906 m 15 X s 1740 959 m 15 X s 1723 927 m 15 Y s 1771 927 m 15 Y s 1747 934 m20 1795 906 m 21 Y s 1795 942 m 17 Y s 1771 934 m 16 X s 1803 934 m 16 X s 1787 906 m 16 X s 1787 959 m 16 X s 1771 927 m 15 Y s 1819 927 m
 15 Y s 1795 934 m20 1843 1053 m 13 Y s 1843 1081 m 10 Y s 1819 1073 m 16 X s 1851 1073 m 16 X s 1835 1053 m 16 X s 1835 1091 m 16 X s 1819 1066 m 15 Y s 1867 1066 m 15 Y s 1843 1073 m20 1891 1242 m 5 Y s 1891 1262 m 5 Y s 1867 1255 m 16 X s 1898
 1255 m 17 X s 1883 1242 m 15 X s 1883 1267 m 15 X s 1867 1247 m 15 Y s 1915 1247 m 15 Y s 1891 1255 m20 1939 962 m 18 Y s 1939 995 m 14 Y s 1915 987 m 16 X s 1946 987 m 17 X s 1931 962 m 15 X s 1931 1009 m 15 X s 1915 980 m 15 Y s 1963 980 m 15 Y s
 1939 987 m20 1987 844 m 25 Y s 1987 885 m 20 Y s 1963 877 m 16 X s 1994 877 m 17 X s 1979 844 m 15 X s 1979 905 m 15 X s 1963 869 m 16 Y s 2011 869 m 16 Y s 1987 877 m20 2035 945 m 18 Y s 2035 978 m 16 Y s 2011 971 m 16 X s 2042 971 m 17 X s 2027
 945 m 15 X s 2027 994 m 15 X s 2011 963 m 15 Y s 2059 963 m 15 Y s 2035 971 m20 2082 1093 m 10 Y s 2082 1119 m 9 Y s 2059 1111 m 16 X s 2090 1111 m 16 X s 2075 1093 m 15 X s 2075 1128 m 15 X s 2059 1103 m 16 Y s 2106 1103 m 16 Y s 2082 1111 m20 2130
 1388 m 1 Y s 2130 1404 m 1 Y s 2106 1397 m 17 X s 2138 1397 m 16 X s 2123 1388 m 15 X s 2123 1405 m 15 X s 2106 1389 m 15 Y s 2154 1389 m 15 Y s 2130 1397 m20 1 0 0 c 1 1 1 c 1 0 0 c 262 849 m 25 Y s 262 889 m 21 Y s 238 882 m 16 X s 270 882 m 16 X
 s 254 849 m 16 X s 254 910 m 16 X s 238 874 m 15 Y s 286 874 m 15 Y s 262 882 m20 310 986 m 16 Y s 310 1017 m 14 Y s 286 1010 m 16 X s 318 1010 m 16 X s 302 986 m 16 X s 302 1031 m 16 X s 286 1002 m 15 Y s 334 1002 m 15 Y s 310 1010 m20 358 1191 m 7
 Y s 358 1213 m 6 Y s 334 1205 m 16 X s 365 1205 m 17 X s 350 1191 m 15 X s 350 1219 m 15 X s 334 1198 m 15 Y s 382 1198 m 15 Y s 358 1205 m20 406 994 m 15 Y s 406 1024 m 13 Y s 382 1017 m 16 X s 413 1017 m 17 X s 398 994 m 15 X s 398 1037 m 15 X s
 382 1009 m 15 Y s 430 1009 m 15 Y s 406 1017 m20 454 1430 m 1 Y s 454 1446 m s 430 1438 m 16 X s 461 1438 m 17 X s 446 1430 m 15 X s 446 1446 m 15 X s 430 1431 m 15 Y s 478 1431 m 15 Y s 454 1438 m20 502 1184 m 7 Y s 502 1206 m 6 Y s 478 1199 m 16 X
 s 509 1199 m 17 X s 494 1184 m 15 X s 494 1212 m 15 X s 478 1191 m 15 Y s 526 1191 m 15 Y s 502 1199 m20 549 1181 m 7 Y s 549 1203 m 7 Y s 526 1196 m 16 X s 557 1196 m 16 X s 542 1181 m 15 X s 542 1210 m 15 X s 526 1188 m 15 Y s 573 1188 m 15 Y s
 549 1196 m20 597 946 m 18 Y s 597 979 m 15 Y s 573 971 m 17 X s 605 971 m 16 X s 590 946 m 15 X s 590 994 m 15 X s 573 964 m 15 Y s 621 964 m 15 Y s 597 971 m20 645 1063 m 12 Y s 645 1090 m 10 Y s 621 1082 m 17 X s 653 1082 m 16 X s 638 1063 m 15 X
 s 638 1100 m 15 X s 621 1075 m 15 Y s 669 1075 m 15 Y s 645 1082 m20 693 1242 m 6 Y s 693 1263 m 4 Y s 669 1255 m 17 X s 701 1255 m 16 X s 686 1242 m 15 X s 686 1267 m 15 X s 669 1248 m 15 Y s 717 1248 m 15 Y s 693 1255 m20 741 1027 m 13 Y s 741
 1056 m 11 Y s 717 1048 m 17 X s 749 1048 m 16 X s 734 1027 m 15 X s 734 1067 m 15 X s 717 1040 m 16 Y s 765 1040 m 16 Y s 741 1048 m20 789 1123 m 9 Y s 789 1147 m 8 Y s 765 1140 m 16 X s 797 1140 m 16 X s 781 1123 m 16 X s 781 1155 m 16 X s 765 1132
 m 15 Y s 813 1132 m 15 Y s 789 1140 m20 837 1336 m 3 Y s 837 1354 m 2 Y s 813 1346 m 16 X s 845 1346 m 16 X s 829 1336 m 16 X s 829 1356 m 16 X s 813 1339 m 15 Y s 861 1339 m 15 Y s 837 1346 m20 885 1404 m 1 Y s 885 1420 m 1 Y s 861 1412 m 16 X s
 892 1412 m 17 X s 877 1404 m 15 X s 877 1421 m 15 X s 861 1405 m 15 Y s 909 1405 m 15 Y s 885 1412 m20 933 1336 m 2 Y s 933 1354 m 2 Y s 909 1346 m 16 X s 940 1346 m 17 X s 925 1336 m 15 X s 925 1356 m 15 X s 909 1338 m 16 Y s 957 1338 m 16 Y s 933
 1346 m20 981 1263 m 5 Y s 981 1283 m 4 Y s 957 1275 m 16 X s 988 1275 m 17 X s 973 1263 m 15 X s 973 1287 m 15 X s 957 1268 m 15 Y s 1005 1268 m 15 Y s 981 1275 m20 1029 1146 m 9 Y s 1029 1170 m 7 Y s 1005 1162 m 16 X s 1036 1162 m 17 X s 1021 1146
 m 15 X s 1021 1177 m 15 X s 1005 1155 m 15 Y s 1053 1155 m 15 Y s 1029 1162 m20 1076 1150 m 8 Y s 1076 1173 m 8 Y s 1053 1166 m 16 X s 1084 1166 m 16 X s 1069 1150 m 15 X s 1069 1181 m 15 X s 1053 1158 m 15 Y s 1100 1158 m 15 Y s 1076 1166 m20 1124
 1101 m 10 Y s 1124 1126 m 9 Y s 1100 1119 m 17 X s 1132 1119 m 16 X s 1117 1101 m 15 X s 1117 1135 m 15 X s 1100 1111 m 15 Y s 1148 1111 m 15 Y s 1124 1119 m20 1172 1116 m 10 Y s 1172 1141 m 8 Y s 1148 1133 m 17 X s 1180 1133 m 16 X s 1165 1116 m 15
 X s 1165 1149 m 15 X s 1148 1126 m 15 Y s 1196 1126 m 15 Y s 1172 1133 m20 1220 954 m 18 Y s 1220 987 m 15 Y s 1196 980 m 17 X s 1228 980 m 16 X s 1213 954 m 15 X s 1213 1002 m 15 X s 1196 972 m 15 Y s 1244 972 m 15 Y s 1220 980 m20 1268 703 m 38 Y
 s 1268 756 m 30 Y s 1244 748 m 16 X s 1276 748 m 16 X s 1260 703 m 16 X s 1260 786 m 16 X s 1244 741 m 15 Y s 1292 741 m 15 Y s 1268 748 m20 1316 373 m 92 Y s 1316 480 m 60 Y s 1292 472 m 16 X s 1324 472 m 16 X s 1308 373 m 16 X s 1308 540 m 16 X s
 1292 465 m 15 Y s 1340 465 m 15 Y s 1316 472 m20 1364 373 m 92 Y s 1364 480 m 60 Y s 1340 472 m 16 X s 1371 472 m 17 X s 1356 373 m 15 X s 1356 540 m 15 X s 1340 465 m 15 Y s 1388 465 m 15 Y s 1364 472 m20 1412 277 m 117 Y s 1412 409 m 70 Y s 1388
 402 m 16 X s 1419 402 m 17 X s 1404 277 m 15 X s 1404 479 m 15 X s 1388 394 m 15 Y s 1436 394 m 15 Y s 1412 402 m20 1460 201 m s 1460 216 m 105 Y s 1436 209 m 16 X s 1467 209 m 17 X s 1452 201 m 15 X s 1452 321 m 15 X s 1436 201 m 15 Y s 1484 201 m
 15 Y s 1460 209 m20 black
 gsave  2268 1676 0 0 C 272.126 1240.34 t 0 r /Helvetica-Bold findfont 49.2982 sf 0 0 m (Kolmogorov\255Smirnov test: signal \(background\) probability = 0.089 \(0.064\)) show NC gr  238 201 m 1916 X s 428 244 m -43 Y s 469 222 m -21 Y s 509 222 m -21
 Y s 550 222 m -21 Y s 590 222 m -21 Y s 631 244 m -43 Y s 672 222 m -21 Y s 712 222 m -21 Y s 753 222 m -21 Y s 793 222 m -21 Y s 834 244 m -43 Y s 874 222 m -21 Y s 915 222 m -21 Y s 955 222 m -21 Y s 996 222 m -21 Y s 1036 244 m -43 Y s 1077 222 m
 -21 Y s 1117 222 m -21 Y s 1158 222 m -21 Y s 1198 222 m -21 Y s 1239 244 m -43 Y s 1279 222 m -21 Y s 1320 222 m -21 Y s 1360 222 m -21 Y s 1401 222 m -21 Y s 1441 244 m -43 Y s 1482 222 m -21 Y s 1522 222 m -21 Y s 1563 222 m -21 Y s 1604 222 m
 -21 Y s 1644 244 m -43 Y s 1685 222 m -21 Y s 1725 222 m -21 Y s 1766 222 m -21 Y s 1806 222 m -21 Y s 1847 244 m -43 Y s 1887 222 m -21 Y s 1928 222 m -21 Y s 1968 222 m -21 Y s 2009 222 m -21 Y s 2049 244 m -43 Y s 428 244 m -43 Y s 388 222 m -21
 Y s 347 222 m -21 Y s 307 222 m -21 Y s 266 222 m -21 Y s 2049 244 m -43 Y s 2090 222 m -21 Y s 2130 222 m -21 Y s 238 1509 m 1916 X s 428 1466 m 43 Y s 469 1487 m 22 Y s 509 1487 m 22 Y s 550 1487 m 22 Y s 590 1487 m 22 Y s 631 1466 m 43 Y s 672
 1487 m 22 Y s 712 1487 m 22 Y s 753 1487 m 22 Y s 793 1487 m 22 Y s 834 1466 m 43 Y s 874 1487 m 22 Y s 915 1487 m 22 Y s 955 1487 m 22 Y s 996 1487 m 22 Y s 1036 1466 m 43 Y s 1077 1487 m 22 Y s 1117 1487 m 22 Y s 1158 1487 m 22 Y s 1198 1487 m 22
 Y s 1239 1466 m 43 Y s 1279 1487 m 22 Y s 1320 1487 m 22 Y s 1360 1487 m 22 Y s 1401 1487 m 22 Y s 1441 1466 m 43 Y s 1482 1487 m 22 Y s 1522 1487 m 22 Y s 1563 1487 m 22 Y s 1604 1487 m 22 Y s 1644 1466 m 43 Y s 1685 1487 m 22 Y s 1725 1487 m 22 Y
 s 1766 1487 m 22 Y s 1806 1487 m 22 Y s 1847 1466 m 43 Y s 1887 1487 m 22 Y s 1928 1487 m 22 Y s 1968 1487 m 22 Y s 2009 1487 m 22 Y s 2049 1466 m 43 Y s 428 1466 m 43 Y s 388 1487 m 22 Y s 347 1487 m 22 Y s 307 1487 m 22 Y s 266 1487 m 22 Y s 2049
 1466 m 43 Y s 2090 1487 m 22 Y s 2130 1487 m 22 Y s 238 201 m 1308 Y s 265 244 m -27 X s 265 329 m -27 X s 265 389 m -27 X s 265 436 m -27 X s 265 475 m -27 X s 265 507 m -27 X s 265 535 m -27 X s 265 560 m -27 X s 291 582 m -53 X s 265 728 m -27 X
 s 265 813 m -27 X s 265 874 m -27 X s 265 921 m -27 X s 265 959 m -27 X s 265 992 m -27 X s 265 1020 m -27 X s 265 1044 m -27 X s 291 1067 m -53 X s 265 1212 m -27 X s 265 1298 m -27 X s 265 1358 m -27 X s 265 1405 m -27 X s 265 1444 m -27 X s 265
 1476 m -27 X s 265 1504 m -27 X s 2154 201 m 1308 Y s 2128 244 m 26 X s 2128 329 m 26 X s 2128 389 m 26 X s 2128 436 m 26 X s 2128 475 m 26 X s 2128 507 m 26 X s 2128 535 m 26 X s 2128 560 m 26 X s 2101 582 m 53 X s 2128 728 m 26 X s 2128 813 m 26 X
 s 2128 874 m 26 X s 2128 921 m 26 X s 2128 959 m 26 X s 2128 992 m 26 X s 2128 1020 m 26 X s 2128 1044 m 26 X s 2101 1067 m 53 X s 2128 1212 m 26 X s 2128 1298 m 26 X s 2128 1358 m 26 X s 2128 1405 m 26 X s 2128 1444 m 26 X s 2128 1476 m 26 X s 2128
 1504 m 26 X s
 gsave  2268 1676 0 0 C 2211.02 192.756 t 90 r /Helvetica-Bold findfont 45.506 sf 0 0 m (U/O\255flow \(S,B\): \(0.0, 0.0\)% / \(0.0, 0.0\)%) show NC gr  0.490196 0.545098 0.615686 c 0.364706 0.419608 0.490196 c 1587 96 23 1572 bf 0.490196 0.545098
 0.615686 c 23 1572 m 1587 X s 1610 1572 m 96 Y s 1610 1668 m -1587 X s 23 1668 m -96 Y s 1 1 1 c black 1 1 1 c
 gsave  2268 1676 0 0 C 102.389 1600.29 t 0 r /Helvetica-Bold findfont 68.259 sf 0 0 m (TMVA overtraining check for classifier: BDT) show NC gr 
 gr  gr showpage
end
%%EOF
