%!PS-Adobe-2.0 EPSF-2.0
%%BoundingBox:  0 0 567 533
%%Title: dataset/plots/correlationscatter_y__Id_c2.eps: Correlation profiles for 'Id'-transformed background variables
%%Creator: ROOT Version 6.12/06
%%CreationDate: Mon May 21 12:02:35 2018
%%DocumentNeededResources: ProcSet (FontSetInit)
%%EndComments
%%BeginProlog
80 dict begin
/s {stroke} def /l {lineto} def /m {moveto} def /t {translate} def
/r {rotate} def /rl {roll}  def /R {repeat} def
/d {rlineto} def /rm {rmoveto} def /gr {grestore} def /f {eofill} def
/c {setrgbcolor} def /black {0 setgray} def /sd {setdash} def
/cl {closepath} def /sf {scalefont setfont} def /lw {setlinewidth} def
/box {m dup 0 exch d exch 0 d 0 exch neg d cl} def
/NC{systemdict begin initclip end}def/C{NC box clip newpath}def
/bl {box s} def /bf {gsave box gsave f grestore 1 lw [] 0 sd s grestore} def /Y { 0 exch d} def /X { 0 d} def 
/K {{pop pop 0 moveto} exch kshow} bind def
/ita {/ang 15 def gsave [1 0 ang dup sin exch cos div 1 0 0] concat} def 
/mp {newpath /y exch def /x exch def} def
/side {[w .77 mul w .23 mul] .385 w mul sd w 0 l currentpoint t -144 r} def
/mr {mp x y w2 0 360 arc} def /m24 {mr s} def /m20 {mr f} def
/mb {mp x y w2 add m w2 neg 0 d 0 w neg d w 0 d 0 w d cl} def
/mt {mp x y w2 add m w2 neg w neg d w 0 d cl} def
/w4 {w 4 div} def
/w6 {w 6 div} def
/w8 {w 8 div} def
/m21 {mb f} def /m25 {mb s} def /m22 {mt f} def /m26{mt s} def
/m23 {mp x y w2 sub m w2 w d w neg 0 d cl f} def
/m27 {mp x y w2 add m w3 neg w2 neg d w3 w2 neg d w3 w2 d cl s} def
/m28 {mp x w2 sub y w2 sub w3 add m w3 0 d  0 w3 neg d w3 0 d 0 w3 d w3 0 d  0 w3 d w3 neg 0 d 0 w3 d w3 neg 0 d 0 w3 neg d w3 neg 0 d cl s } def
/m29 {mp gsave x w2 sub y w2 add w3 sub m currentpoint t 4 {side} repeat cl fill gr} def
/m30 {mp gsave x w2 sub y w2 add w3 sub m currentpoint t 4 {side} repeat cl s gr} def
/m31 {mp x y w2 sub m 0 w d x w2 sub y m w 0 d x w2 sub y w2 add m w w neg d x w2 sub y w2 sub m w w d s} def
/m32 {mp x y w2 sub m w2 w d w neg 0 d cl s} def
/m33 {mp x y w2 add m w3 neg w2 neg d w3 w2 neg d w3 w2 d cl f} def
/m34 {mp x w2 sub y w2 sub w3 add m w3 0 d  0 w3 neg d w3 0 d 0 w3 d w3 0 d  0 w3 d w3 neg 0 d 0 w3 d w3 neg 0 d 0 w3 neg d w3 neg 0 d cl f } def
/m35 {mp x y w2 add m w2 neg w2 neg d w2 w2 neg d w2 w2 d w2 neg w2 d x y w2 sub m 0 w d x w2 sub y m w 0 d s} def
/m36 {mb x w2 sub y w2 add m w w neg d x w2 sub y w2 sub m w w d s} def
/m37 {mp x y m w4 neg w2 d w4 neg w2 neg d w2 0 d  w4 neg w2 neg d w2 0 d w4 neg w2 d w2 0 d w4 neg w2 d w4 neg w2 neg d cl s} def
/m38 {mp x w4 sub y w2 add m w4 neg w4 neg d 0 w2 neg d w4 w4 neg d w2 0 d w4 w4 d 0 w2 d w4 neg w4 d w2 neg 0 d x y w2 sub m 0 w d x w2 sub y m w 0 d cl s} def
/m39 {mp x y m w4 neg w2 d w4 neg w2 neg d w2 0 d  w4 neg w2 neg d w2 0 d w4 neg w2 d w2 0 d w4 neg w2 d w4 neg w2 neg d cl f} def
/m40 {mp x y m w4 w2 d w4 w4 neg d w2 neg w4 neg d w2 w4 neg d w4 neg w4 neg d w4 neg w2 d w4 neg w2 neg d w4 neg w4 d w2 w4 d w2 neg w4 d w4 w4 d w4 w2 neg d cl s} def
/m41 {mp x y m w4 w2 d w4 w4 neg d w2 neg w4 neg d w2 w4 neg d w4 neg w4 neg d w4 neg w2 d w4 neg w2 neg d w4 neg w4 d w2 w4 d w2 neg w4 d w4 w4 d w4 w2 neg d cl f} def
/m42 {mp x y w2 add m w8 neg w2 -3 4 div mul d w2 -3 4 div mul w8 neg d w2 3 4 div mul w8 neg d w8 w2 -3 4 div mul d w8 w2 3 4 div mul d w2 3 4 div mul w8 d w2 -3 4 div mul w8 d w8 neg w2 3 4 div mul d cl s} def
/m43 {mp x y w2 add m w8 neg w2 -3 4 div mul d w2 -3 4 div mul w8 neg d w2 3 4 div mul w8 neg d w8 w2 -3 4 div mul d w8 w2 3 4 div mul d w2 3 4 div mul w8 d w2 -3 4 div mul w8 d w8 neg w2 3 4 div mul d cl f} def
/m44 {mp x y m w6 neg w2 d w2 2 3 div mul 0 d w6 neg w2 neg d w2 w6 d 0 w2 -2 3 div mul d w2 neg w6 d w6 w2 neg d w2 -2 3 div mul 0 d w6 w2 d w2 neg w6 neg d 0 w2 2 3 div mul d w2 w6 neg d cl s} def
/m45 {mp x y m w6 neg w2 d w2 2 3 div mul 0 d w6 neg w2 neg d w2 w6 d 0 w2 -2 3 div mul d w2 neg w6 d w6 w2 neg d w2 -2 3 div mul 0 d w6 w2 d w2 neg w6 neg d 0 w2 2 3 div mul d w2 w6 neg d cl f} def
/m46 {mp x y w4 add m w4 neg w4 d w4 neg w4 neg d  w4 w4 neg d w4 neg w4 neg d w4 w4 neg d w4 w4 d w4 w4 neg d w4 w4 d w4 neg w4 d w4 w4 d w4 neg w4 d w4 neg w4 neg d cl s} def
/m47 {mp x y w4 add m w4 neg w4 d w4 neg w4 neg d w4 w4 neg d w4 neg w4 neg d  w4 w4 neg d w4 w4 d w4 w4 neg d w4 w4 d w4 neg w4 d w4 w4 d w4 neg w4 d w4 neg w4 neg d cl f} def
/m48 {mp x y w4 add m w4 neg w4 d w4 neg w4 neg d w4 w4 neg d  w4 neg w4 neg d w4 w4 neg d w4 w4 d w4 w4 neg d w4 w4 d w4 neg w4 d w4 w4 d w4 neg w4 d w4 neg w4 neg d  w4 w4 neg d w4 neg w4 neg d w4 neg w4 d w4 w4 d cl f} def
/m49 {mp x w2 sub w3 add y w2 sub w3 add m  0 w3 neg d w3 0 d 0 w3 d w3 0 d 0 w3 d w3 neg 0 d 0 w3 d w3 neg 0 d 0 w3 neg d w3 neg 0 d 0 w3 neg d w3 0 d 0 w3 d w3 0 d 0 w3 neg d w3 neg 0 d cl f } def
/m2 {mp x y w2 sub m 0 w d x w2 sub y m w 0 d s} def
/m5 {mp x w2 sub y w2 sub m w w d x w2 sub y w2 add m w w neg d s} def
%%IncludeResource: ProcSet (FontSetInit)
%%IncludeResource: font Times-Roman
%%IncludeResource: font Times-Italic
%%IncludeResource: font Times-Bold
%%IncludeResource: font Times-BoldItalic
%%IncludeResource: font Helvetica
%%IncludeResource: font Helvetica-Oblique
%%IncludeResource: font Helvetica-Bold
%%IncludeResource: font Helvetica-BoldOblique
%%IncludeResource: font Courier
%%IncludeResource: font Courier-Oblique
%%IncludeResource: font Courier-Bold
%%IncludeResource: font Courier-BoldOblique
%%IncludeResource: font Symbol
%%IncludeResource: font ZapfDingbats
/reEncode {exch findfont dup length dict begin {1 index /FID eq  {pop pop} {def} ifelse } forall /Encoding exch def currentdict end dup /FontName get exch definefont pop } def [/Times-Bold /Times-Italic /Times-BoldItalic /Helvetica /Helvetica-Oblique
 /Helvetica-Bold /Helvetica-BoldOblique /Courier /Courier-Oblique /Courier-Bold /Courier-BoldOblique /Times-Roman /AvantGarde-Book /AvantGarde-BookOblique /AvantGarde-Demi /AvantGarde-DemiOblique /Bookman-Demi /Bookman-DemiItalic /Bookman-Light
 /Bookman-LightItalic /Helvetica-Narrow /Helvetica-Narrow-Bold /Helvetica-Narrow-BoldOblique /Helvetica-Narrow-Oblique /NewCenturySchlbk-Roman /NewCenturySchlbk-Bold /NewCenturySchlbk-BoldItalic /NewCenturySchlbk-Italic /Palatino-Bold
 /Palatino-BoldItalic /Palatino-Italic /Palatino-Roman ] {ISOLatin1Encoding reEncode } forall
%%EndProlog
%%BeginSetup
%%EndSetup
newpath  gsave  .25 .25 scale  gsave  0 0 t 0.490196 0.545098 0.615686 c[  ] 0 sd 3 lw 0.941176 0.941176 0.941176 c 2268 2131 0 0 bf 0.490196 0.545098 0.615686 c 0.941176 0.941176 0.941176 c 2222 2089 23 21 bf black 1 1 0.992157 c 1801 1579 311 322
 bf black 1801 1579 311 322 bl 1 1 0.992157 c 1801 1579 311 322 bf black 1801 1579 311 322 bl 0.49 0.6 0.82 c 0.2 0 1 c 6 5 1697 617 bf 6 5 1409 622 bf 6 5 1643 643 bf 6 5 1818 654 bf 6 6 1373 669 bf 6 5 1649 696 bf 6 5 1601 706 bf 6 5 1427 733 bf 6
 5 1325 743 bf 6 5 1403 743 bf 6 6 1655 769 bf 6 5 1325 775 bf 6 5 1259 785 bf 6 6 1379 790 bf 6 5 1247 796 bf 6 5 1493 796 bf 6 5 1217 806 bf 6 5 1319 806 bf 6 5 1247 817 bf 6 5 1121 822 bf 6 5 1181 822 bf 6 6 1589 827 bf 6 5 1205 833 bf 6 5 1361
 833 bf 6 5 1457 833 bf 6 5 1121 838 bf 6 5 1217 838 bf 6 5 1187 843 bf 0 0.733333 1 c 6 5 1217 843 bf 0.2 0 1 c 6 5 1271 843 bf 6 5 1421 843 bf 6 6 1109 848 bf 6 6 1139 848 bf 0 0.266667 1 c 6 6 1187 848 bf 0.2 0 1 c 6 6 1265 848 bf 6 6 1307 848 bf
 6 6 1325 848 bf 6 5 1145 854 bf 6 5 1211 854 bf 6 5 1241 854 bf 6 5 1247 854 bf 6 5 1265 854 bf 6 5 1445 854 bf 6 5 1127 859 bf 6 5 1181 859 bf 6 5 1217 859 bf 6 5 1241 859 bf 6 5 1289 859 bf 6 5 1319 859 bf 6 5 1325 859 bf 6 5 1337 859 bf 6 5 1391
 859 bf 6 5 1127 864 bf 6 5 1133 864 bf 6 5 1157 864 bf 6 5 1169 864 bf 6 5 1187 864 bf 6 5 1223 864 bf 6 5 1343 864 bf 6 6 1145 869 bf 6 6 1151 869 bf 6 6 1157 869 bf 6 6 1163 869 bf 6 6 1169 869 bf 0 0.266667 1 c 6 6 1175 869 bf 0.2 0 1 c 6 6 1187
 869 bf 6 6 1205 869 bf 6 6 1211 869 bf 0 0.266667 1 c 6 6 1223 869 bf 0.2 0 1 c 6 6 1265 869 bf 6 6 1301 869 bf 6 5 1139 875 bf 0 0.266667 1 c 6 5 1163 875 bf 0 0.733333 1 c 6 5 1187 875 bf 0 0.266667 1 c 6 5 1199 875 bf 6 5 1205 875 bf 0.2 0 1 c 6
 5 1229 875 bf 6 5 1253 875 bf 6 5 1271 875 bf 6 5 1289 875 bf 6 5 1421 875 bf 6 5 1451 875 bf 6 5 1127 880 bf 0 0.733333 1 c 6 5 1139 880 bf 0 0.266667 1 c 6 5 1157 880 bf 0.2 0 1 c 6 5 1169 880 bf 6 5 1175 880 bf 6 5 1187 880 bf 0 0.266667 1 c 6 5
 1193 880 bf 0 0.733333 1 c 6 5 1199 880 bf 0.2 0 1 c 6 5 1211 880 bf 6 5 1235 880 bf 6 5 1241 880 bf 6 5 1121 885 bf 0 0.266667 1 c 6 5 1139 885 bf 0.2 0 1 c 6 5 1151 885 bf 6 5 1163 885 bf 0 0.733333 1 c 6 5 1169 885 bf 0.2 0 1 c 6 5 1175 885 bf 0
 0.266667 1 c 6 5 1181 885 bf 0.2 0 1 c 6 5 1199 885 bf 6 5 1205 885 bf 6 5 1211 885 bf 6 5 1217 885 bf 6 5 1223 885 bf 6 5 1229 885 bf 6 5 1247 885 bf 6 5 1271 885 bf 6 5 1301 885 bf 6 5 1313 885 bf 6 5 1415 885 bf 0 0.266667 1 c 6 6 1139 890 bf 0.2
 0 1 c 6 6 1157 890 bf 0 0.733333 1 c 6 6 1163 890 bf 0 0.266667 1 c 6 6 1181 890 bf 0 1 0.0533333 c 6 6 1187 890 bf 0 0.266667 1 c 6 6 1193 890 bf 0 0.733333 1 c 6 6 1199 890 bf 0.2 0 1 c 6 6 1205 890 bf 6 6 1217 890 bf 6 6 1223 890 bf 6 6 1229 890
 bf 0 0.266667 1 c 6 6 1235 890 bf 0 0.733333 1 c 6 6 1271 890 bf 0.2 0 1 c 6 6 1277 890 bf 6 6 1301 890 bf 6 6 1355 890 bf 6 6 1403 890 bf 0 0.733333 1 c 6 5 1157 896 bf 0.2 0 1 c 6 5 1163 896 bf 6 5 1169 896 bf 0 0.733333 1 c 6 5 1181 896 bf 0
 0.266667 1 c 6 5 1187 896 bf 0 0.733333 1 c 6 5 1193 896 bf 0 0.266667 1 c 6 5 1211 896 bf 6 5 1223 896 bf 6 5 1229 896 bf 6 5 1235 896 bf 0.2 0 1 c 6 5 1247 896 bf 6 5 1271 896 bf 6 5 1301 896 bf 6 5 1313 896 bf 6 5 1343 896 bf 6 5 1355 896 bf 6 5
 1445 896 bf 6 5 1139 901 bf 6 5 1151 901 bf 6 5 1163 901 bf 6 5 1169 901 bf 6 5 1181 901 bf 6 5 1193 901 bf 0 0.266667 1 c 6 5 1199 901 bf 6 5 1205 901 bf 0.2 0 1 c 6 5 1211 901 bf 6 5 1217 901 bf 0 1 0.8 c 6 5 1229 901 bf 0.2 0 1 c 6 5 1247 901 bf
 6 5 1259 901 bf 0 0.266667 1 c 6 5 1265 901 bf 0.2 0 1 c 6 5 1271 901 bf 6 5 1307 901 bf 6 5 1313 901 bf 6 5 1349 901 bf 6 5 1175 906 bf 6 5 1181 906 bf 0 1 0.333333 c 6 5 1187 906 bf 0 1 0.8 c 6 5 1193 906 bf 0 1 0.0533333 c 6 5 1199 906 bf 0
 0.733333 1 c 6 5 1205 906 bf 0 0.266667 1 c 6 5 1211 906 bf 6 5 1217 906 bf 6 5 1223 906 bf 0.2 0 1 c 6 5 1229 906 bf 0 0.733333 1 c 6 5 1235 906 bf 0.2 0 1 c 6 5 1247 906 bf 0 0.266667 1 c 6 5 1253 906 bf 6 5 1271 906 bf 6 5 1283 906 bf 0.2 0 1 c 6
 5 1313 906 bf 6 5 1325 906 bf 6 5 1331 906 bf 6 5 1355 906 bf 6 5 1391 906 bf 6 5 1523 906 bf 6 6 1127 911 bf 6 6 1139 911 bf 6 6 1169 911 bf 6 6 1175 911 bf 0 1 0.8 c 6 6 1181 911 bf 0.2 0 1 c 6 6 1187 911 bf 6 6 1193 911 bf 0 0.266667 1 c 6 6 1199
 911 bf 6 6 1205 911 bf 0 1 0.8 c 6 6 1211 911 bf 0 1 0.333333 c 6 6 1217 911 bf 6 6 1223 911 bf 0 0.266667 1 c 6 6 1229 911 bf 6 6 1235 911 bf 0 0.733333 1 c 6 6 1247 911 bf 0.2 0 1 c 6 6 1253 911 bf 6 6 1259 911 bf 6 6 1265 911 bf 6 6 1307 911 bf 6
 6 1313 911 bf 6 6 1355 911 bf 6 6 1397 911 bf 0 0.266667 1 c 6 5 1151 917 bf 0.2 0 1 c 6 5 1157 917 bf 6 5 1163 917 bf 6 5 1181 917 bf 0 1 0.8 c 6 5 1187 917 bf 6 5 1199 917 bf 0 0.266667 1 c 6 5 1205 917 bf 0 0.733333 1 c 6 5 1211 917 bf 0 0.266667
 1 c 6 5 1217 917 bf 0.413333 1 0 c 6 5 1223 917 bf 0 0.733333 1 c 6 5 1229 917 bf 0.2 0 1 c 6 5 1235 917 bf 0 1 0.333333 c 6 5 1241 917 bf 0 0.733333 1 c 6 5 1247 917 bf 0.2 0 1 c 6 5 1253 917 bf 0 0.733333 1 c 6 5 1265 917 bf 0.2 0 1 c 6 5 1271 917
 bf 6 5 1277 917 bf 6 5 1283 917 bf 6 5 1289 917 bf 6 5 1313 917 bf 6 5 1337 917 bf 6 5 1415 917 bf 6 5 1133 922 bf 0 0.733333 1 c 6 5 1157 922 bf 0.2 0 1 c 6 5 1175 922 bf 0 0.266667 1 c 6 5 1181 922 bf 6 5 1187 922 bf 0.2 0 1 c 6 5 1199 922 bf 6 5
 1205 922 bf 6 5 1211 922 bf 0 0.266667 1 c 6 5 1217 922 bf 0 1 0.8 c 6 5 1223 922 bf 6 5 1229 922 bf 0 0.266667 1 c 6 5 1235 922 bf 6 5 1241 922 bf 6 5 1247 922 bf 6 5 1253 922 bf 0.2 0 1 c 6 5 1259 922 bf 0 0.266667 1 c 6 5 1271 922 bf 6 5 1289 922
 bf 0.2 0 1 c 6 5 1295 922 bf 6 5 1301 922 bf 6 5 1307 922 bf 0 0.266667 1 c 6 5 1319 922 bf 0.2 0 1 c 6 5 1337 922 bf 6 5 1373 922 bf 6 5 1379 922 bf 6 5 1109 927 bf 6 5 1157 927 bf 0 0.266667 1 c 6 5 1163 927 bf 6 5 1169 927 bf 6 5 1181 927 bf 0.2
 0 1 c 6 5 1199 927 bf 0 1 0.333333 c 6 5 1205 927 bf 0 0.266667 1 c 6 5 1211 927 bf 0 0.733333 1 c 6 5 1223 927 bf 6 5 1235 927 bf 0.2 0 1 c 6 5 1241 927 bf 0 0.266667 1 c 6 5 1247 927 bf 6 5 1253 927 bf 0.2 0 1 c 6 5 1259 927 bf 6 5 1265 927 bf 6 5
 1277 927 bf 6 5 1283 927 bf 6 5 1289 927 bf 0 1 0.8 c 6 5 1301 927 bf 0.2 0 1 c 6 5 1307 927 bf 6 5 1313 927 bf 6 5 1337 927 bf 6 5 1349 927 bf 6 5 1457 927 bf 6 6 1091 932 bf 0 0.266667 1 c 6 6 1133 932 bf 0.2 0 1 c 6 6 1145 932 bf 6 6 1169 932 bf
 0 0.266667 1 c 6 6 1181 932 bf 6 6 1199 932 bf 6 6 1205 932 bf 0.2 0 1 c 6 6 1211 932 bf 0 1 0.0533333 c 6 6 1217 932 bf 0 1 0.8 c 6 6 1223 932 bf 0 0.733333 1 c 6 6 1229 932 bf 0 0.266667 1 c 6 6 1235 932 bf 6 6 1241 932 bf 0 1 0.8 c 6 6 1247 932
 bf 0 0.266667 1 c 6 6 1253 932 bf 0 1 0.0533333 c 6 6 1259 932 bf 0 0.733333 1 c 6 6 1271 932 bf 6 6 1283 932 bf 0.2 0 1 c 6 6 1301 932 bf 6 6 1313 932 bf 6 6 1367 932 bf 6 6 1397 932 bf 6 6 1535 932 bf 6 6 1541 932 bf 6 5 1073 938 bf 6 5 1139 938
 bf 6 5 1145 938 bf 6 5 1151 938 bf 6 5 1181 938 bf 6 5 1193 938 bf 0 0.733333 1 c 6 5 1199 938 bf 0.2 0 1 c 6 5 1205 938 bf 0 0.733333 1 c 6 5 1211 938 bf 0 0.266667 1 c 6 5 1217 938 bf 6 5 1223 938 bf 0 1 0.333333 c 6 5 1235 938 bf 0 1 0.8 c 6 5
 1241 938 bf 0 0.266667 1 c 6 5 1247 938 bf 0.2 0 1 c 6 5 1253 938 bf 0 0.266667 1 c 6 5 1259 938 bf 0 1 0.8 c 6 5 1265 938 bf 0.2 0 1 c 6 5 1271 938 bf 6 5 1277 938 bf 0 0.266667 1 c 6 5 1289 938 bf 0 0.733333 1 c 6 5 1295 938 bf 0.2 0 1 c 6 5 1301
 938 bf 6 5 1307 938 bf 0 0.266667 1 c 6 5 1319 938 bf 0.2 0 1 c 6 5 1373 938 bf 6 5 1379 938 bf 6 5 1391 938 bf 6 5 1409 938 bf 6 5 1415 938 bf 6 5 1475 938 bf 6 5 1487 938 bf 0 0.733333 1 c 6 5 1169 943 bf 0 1 0.0533333 c 6 5 1187 943 bf 0.2 0 1 c
 6 5 1199 943 bf 0 0.266667 1 c 6 5 1205 943 bf 6 5 1223 943 bf 0 0.733333 1 c 6 5 1229 943 bf 0.2 0 1 c 6 5 1235 943 bf 0 1 0.0533333 c 6 5 1241 943 bf 0 1 0.333333 c 6 5 1247 943 bf 0 1 0.0533333 c 6 5 1253 943 bf 0 0.733333 1 c 6 5 1259 943 bf 0 1
 0.0533333 c 6 5 1265 943 bf 0 0.266667 1 c 6 5 1271 943 bf 0.2 0 1 c 6 5 1277 943 bf 6 5 1283 943 bf 0 0.266667 1 c 6 5 1289 943 bf 6 5 1307 943 bf 6 5 1319 943 bf 6 5 1325 943 bf 0 0.733333 1 c 6 5 1331 943 bf 0.2 0 1 c 6 5 1385 943 bf 6 5 1433 943
 bf 6 5 1577 943 bf 6 6 1121 948 bf 6 6 1145 948 bf 6 6 1169 948 bf 6 6 1187 948 bf 6 6 1199 948 bf 0 0.733333 1 c 6 6 1205 948 bf 0.2 0 1 c 6 6 1211 948 bf 6 6 1217 948 bf 6 6 1223 948 bf 0 0.266667 1 c 6 6 1229 948 bf 0.2 0 1 c 6 6 1235 948 bf 0
 0.733333 1 c 6 6 1241 948 bf 0.2 0 1 c 6 6 1247 948 bf 0 1 0.333333 c 6 6 1253 948 bf 0 1 0.8 c 6 6 1259 948 bf 0 0.266667 1 c 6 6 1265 948 bf 0.2 0 1 c 6 6 1271 948 bf 0 1 0.333333 c 6 6 1277 948 bf 0.2 0 1 c 6 6 1283 948 bf 0 0.733333 1 c 6 6 1295
 948 bf 0 0.266667 1 c 6 6 1301 948 bf 6 6 1313 948 bf 0.2 0 1 c 6 6 1325 948 bf 0 0.266667 1 c 6 6 1343 948 bf 0.2 0 1 c 6 6 1355 948 bf 6 6 1361 948 bf 6 6 1373 948 bf 6 6 1397 948 bf 6 6 1469 948 bf 6 6 1505 948 bf 6 6 1553 948 bf 6 5 1151 954 bf
 6 5 1181 954 bf 6 5 1187 954 bf 6 5 1199 954 bf 0 0.266667 1 c 6 5 1211 954 bf 6 5 1217 954 bf 0 1 0.0533333 c 6 5 1223 954 bf 0 0.266667 1 c 6 5 1229 954 bf 0 0.733333 1 c 6 5 1235 954 bf 6 5 1241 954 bf 0 0.266667 1 c 6 5 1247 954 bf 0 0.733333 1
 c 6 5 1253 954 bf 0 1 0.0533333 c 6 5 1259 954 bf 0 1 0.8 c 6 5 1265 954 bf 0 1 0.333333 c 6 5 1271 954 bf 0 0.733333 1 c 6 5 1277 954 bf 0 0.266667 1 c 6 5 1283 954 bf 0 1 0.8 c 6 5 1289 954 bf 0 0.733333 1 c 6 5 1295 954 bf 6 5 1307 954 bf 0
 0.266667 1 c 6 5 1313 954 bf 0.2 0 1 c 6 5 1325 954 bf 6 5 1337 954 bf 0 0.266667 1 c 6 5 1385 954 bf 0.2 0 1 c 6 5 1391 954 bf 6 5 1403 954 bf 6 5 1091 959 bf 6 5 1175 959 bf 6 5 1187 959 bf 0 1 0.333333 c 6 5 1199 959 bf 0.2 0 1 c 6 5 1205 959 bf
 0 0.266667 1 c 6 5 1211 959 bf 0.2 0 1 c 6 5 1217 959 bf 6 5 1223 959 bf 0 0.733333 1 c 6 5 1229 959 bf 6 5 1235 959 bf 6 5 1241 959 bf 6 5 1247 959 bf 6 5 1253 959 bf 6 5 1259 959 bf 0 1 0.0533333 c 6 5 1265 959 bf 0 0.733333 1 c 6 5 1271 959 bf 0
 1 0.333333 c 6 5 1277 959 bf 0.2 0 1 c 6 5 1283 959 bf 0 0.266667 1 c 6 5 1289 959 bf 0.2 0 1 c 6 5 1295 959 bf 0 1 0.0533333 c 6 5 1301 959 bf 0 1 0.8 c 6 5 1307 959 bf 0.2 0 1 c 6 5 1313 959 bf 6 5 1331 959 bf 6 5 1337 959 bf 6 5 1373 959 bf 6 5
 1379 959 bf 6 5 1397 959 bf 0 0.266667 1 c 6 5 1409 959 bf 0.2 0 1 c 6 5 1121 964 bf 6 5 1139 964 bf 6 5 1157 964 bf 0 0.266667 1 c 6 5 1187 964 bf 0.2 0 1 c 6 5 1193 964 bf 6 5 1205 964 bf 0 0.266667 1 c 6 5 1211 964 bf 0 0.733333 1 c 6 5 1217 964
 bf 0 0.266667 1 c 6 5 1223 964 bf 6 5 1229 964 bf 0 1 0.8 c 6 5 1241 964 bf 0 0.266667 1 c 6 5 1247 964 bf 6 5 1259 964 bf 0 1 0.8 c 6 5 1265 964 bf 0 0.266667 1 c 6 5 1271 964 bf 0 1 0.8 c 6 5 1277 964 bf 0.2 0 1 c 6 5 1283 964 bf 0 0.733333 1 c 6
 5 1289 964 bf 0 1 0.333333 c 6 5 1295 964 bf 0.2 0 1 c 6 5 1301 964 bf 0 1 0.8 c 6 5 1307 964 bf 0.2 0 1 c 6 5 1313 964 bf 0 0.266667 1 c 6 5 1319 964 bf 0 0.733333 1 c 6 5 1331 964 bf 0 0.266667 1 c 6 5 1337 964 bf 6 5 1355 964 bf 0.2 0 1 c 6 5
 1373 964 bf 6 5 1385 964 bf 6 5 1391 964 bf 6 5 1409 964 bf 6 5 1463 964 bf 6 5 1625 964 bf 6 6 1115 969 bf 6 6 1133 969 bf 6 6 1181 969 bf 6 6 1193 969 bf 6 6 1205 969 bf 0 1 0.8 c 6 6 1223 969 bf 0 1 0.333333 c 6 6 1229 969 bf 0.2 0 1 c 6 6 1235
 969 bf 0 1 0.8 c 6 6 1241 969 bf 0.2 0 1 c 6 6 1247 969 bf 0 0.733333 1 c 6 6 1253 969 bf 0 1 0.333333 c 6 6 1259 969 bf 0 0.266667 1 c 6 6 1265 969 bf 0 1 0.333333 c 6 6 1271 969 bf 0.88 1 0 c 6 6 1277 969 bf 0 0.733333 1 c 6 6 1283 969 bf 0
 0.266667 1 c 6 6 1289 969 bf 0 1 0.333333 c 6 6 1295 969 bf 0 0.266667 1 c 6 6 1301 969 bf 6 6 1307 969 bf 0 1 0.8 c 6 6 1313 969 bf 0 0.266667 1 c 6 6 1319 969 bf 6 6 1325 969 bf 0.2 0 1 c 6 6 1331 969 bf 0 0.733333 1 c 6 6 1343 969 bf 0.2 0 1 c 6
 6 1349 969 bf 6 6 1361 969 bf 6 6 1379 969 bf 6 6 1439 969 bf 6 6 1451 969 bf 6 6 1499 969 bf 6 5 1115 975 bf 6 5 1121 975 bf 6 5 1157 975 bf 6 5 1163 975 bf 6 5 1187 975 bf 6 5 1193 975 bf 6 5 1199 975 bf 0 0.266667 1 c 6 5 1205 975 bf 0.2 0 1 c 6
 5 1211 975 bf 6 5 1217 975 bf 0 0.266667 1 c 6 5 1223 975 bf 6 5 1235 975 bf 6 5 1241 975 bf 0.2 0 1 c 6 5 1253 975 bf 0 0.266667 1 c 6 5 1259 975 bf 0.2 0 1 c 6 5 1271 975 bf 0 0.266667 1 c 6 5 1277 975 bf 6 5 1283 975 bf 6 5 1289 975 bf 0 0.733333
 1 c 6 5 1295 975 bf 0 1 0.8 c 6 5 1301 975 bf 0 0.266667 1 c 6 5 1307 975 bf 6 5 1313 975 bf 6 5 1319 975 bf 6 5 1325 975 bf 0 0.733333 1 c 6 5 1331 975 bf 6 5 1343 975 bf 0.2 0 1 c 6 5 1349 975 bf 6 5 1355 975 bf 6 5 1367 975 bf 6 5 1397 975 bf 0
 0.266667 1 c 6 5 1421 975 bf 6 5 1079 980 bf 0.2 0 1 c 6 5 1121 980 bf 6 5 1157 980 bf 0 0.266667 1 c 6 5 1169 980 bf 0.2 0 1 c 6 5 1187 980 bf 6 5 1193 980 bf 0 0.266667 1 c 6 5 1217 980 bf 0.2 0 1 c 6 5 1223 980 bf 6 5 1235 980 bf 6 5 1241 980 bf
 0 0.266667 1 c 6 5 1247 980 bf 0.2 0 1 c 6 5 1259 980 bf 0 1 0.8 c 6 5 1265 980 bf 0 0.733333 1 c 6 5 1271 980 bf 0 1 0.333333 c 6 5 1277 980 bf 0 0.266667 1 c 6 5 1283 980 bf 0.2 0 1 c 6 5 1289 980 bf 6 5 1295 980 bf 6 5 1301 980 bf 0 1 0.8 c 6 5
 1307 980 bf 0 1 0.333333 c 6 5 1313 980 bf 0.413333 1 0 c 6 5 1319 980 bf 0 0.266667 1 c 6 5 1325 980 bf 0.2 0 1 c 6 5 1331 980 bf 6 5 1337 980 bf 6 5 1343 980 bf 6 5 1349 980 bf 0 0.733333 1 c 6 5 1355 980 bf 0.2 0 1 c 6 5 1361 980 bf 6 5 1367 980
 bf 6 5 1409 980 bf 6 5 1415 980 bf 0 0.266667 1 c 6 5 1169 985 bf 0.2 0 1 c 6 5 1187 985 bf 6 5 1193 985 bf 6 5 1223 985 bf 0 0.266667 1 c 6 5 1241 985 bf 0.2 0 1 c 6 5 1259 985 bf 0 0.733333 1 c 6 5 1265 985 bf 6 5 1271 985 bf 0 1 0.333333 c 6 5
 1277 985 bf 0.2 0 1 c 6 5 1283 985 bf 0 0.733333 1 c 6 5 1289 985 bf 0.2 0 1 c 6 5 1295 985 bf 0 0.733333 1 c 6 5 1301 985 bf 0.413333 1 0 c 6 5 1307 985 bf 0 0.733333 1 c 6 5 1313 985 bf 0 1 0.333333 c 6 5 1319 985 bf 0 1 0.8 c 6 5 1325 985 bf 0
 0.266667 1 c 6 5 1331 985 bf 0.2 0 1 c 6 5 1337 985 bf 0 0.733333 1 c 6 5 1343 985 bf 0 0.266667 1 c 6 5 1355 985 bf 0.2 0 1 c 6 5 1361 985 bf 6 5 1367 985 bf 6 5 1391 985 bf 6 5 1415 985 bf 6 5 1421 985 bf 6 5 1433 985 bf 6 5 1511 985 bf 6 6 1085
 990 bf 6 6 1169 990 bf 6 6 1175 990 bf 6 6 1211 990 bf 6 6 1217 990 bf 0 0.266667 1 c 6 6 1229 990 bf 0.2 0 1 c 6 6 1235 990 bf 6 6 1259 990 bf 6 6 1265 990 bf 6 6 1271 990 bf 0 1 0.8 c 6 6 1277 990 bf 0 0.266667 1 c 6 6 1283 990 bf 0 1 0.0533333 c
 6 6 1295 990 bf 0 1 0.8 c 6 6 1301 990 bf 0 1 0.333333 c 6 6 1307 990 bf 0 1 0.0533333 c 6 6 1313 990 bf 1 0 0 c 6 6 1319 990 bf 0 1 0.0533333 c 6 6 1325 990 bf 0 1 0.8 c 6 6 1331 990 bf 0.2 0 1 c 6 6 1337 990 bf 0 0.733333 1 c 6 6 1343 990 bf 0
 0.266667 1 c 6 6 1349 990 bf 6 6 1361 990 bf 0.2 0 1 c 6 6 1367 990 bf 6 6 1373 990 bf 6 6 1385 990 bf 6 6 1409 990 bf 6 6 1421 990 bf 0 0.266667 1 c 6 6 1493 990 bf 0.2 0 1 c 6 5 1115 996 bf 6 5 1181 996 bf 6 5 1187 996 bf 0 0.733333 1 c 6 5 1199
 996 bf 0.2 0 1 c 6 5 1223 996 bf 6 5 1229 996 bf 0 0.266667 1 c 6 5 1235 996 bf 0.2 0 1 c 6 5 1247 996 bf 0 0.733333 1 c 6 5 1253 996 bf 6 5 1259 996 bf 0 0.266667 1 c 6 5 1271 996 bf 6 5 1283 996 bf 0.2 0 1 c 6 5 1289 996 bf 0 0.733333 1 c 6 5 1295
 996 bf 0.413333 1 0 c 6 5 1301 996 bf 0 1 0.8 c 6 5 1307 996 bf 0 0.266667 1 c 6 5 1313 996 bf 0 0.733333 1 c 6 5 1319 996 bf 0 1 0.333333 c 6 5 1325 996 bf 0 1 0.8 c 6 5 1331 996 bf 0 0.733333 1 c 6 5 1337 996 bf 0 0.266667 1 c 6 5 1343 996 bf 0
 0.733333 1 c 6 5 1349 996 bf 0 0.266667 1 c 6 5 1355 996 bf 0.2 0 1 c 6 5 1385 996 bf 6 5 1397 996 bf 6 5 1409 996 bf 6 5 1433 996 bf 6 5 1457 996 bf 6 5 1493 996 bf 6 5 1079 1001 bf 6 5 1097 1001 bf 6 5 1175 1001 bf 6 5 1211 1001 bf 0 0.266667 1 c
 6 5 1223 1001 bf 0.2 0 1 c 6 5 1241 1001 bf 0 0.266667 1 c 6 5 1265 1001 bf 0.2 0 1 c 6 5 1271 1001 bf 6 5 1283 1001 bf 0 0.266667 1 c 6 5 1289 1001 bf 6 5 1295 1001 bf 6 5 1301 1001 bf 6 5 1307 1001 bf 0 1 0.8 c 6 5 1313 1001 bf 6 5 1319 1001 bf
 0.88 1 0 c 6 5 1325 1001 bf 0 0.266667 1 c 6 5 1331 1001 bf 0 1 0.333333 c 6 5 1337 1001 bf 6 5 1343 1001 bf 0 0.733333 1 c 6 5 1349 1001 bf 0.2 0 1 c 6 5 1355 1001 bf 0 0.266667 1 c 6 5 1367 1001 bf 0.2 0 1 c 6 5 1385 1001 bf 0 0.733333 1 c 6 5
 1391 1001 bf 0.2 0 1 c 6 5 1403 1001 bf 6 5 1427 1001 bf 6 5 1535 1001 bf 6 5 1085 1006 bf 6 5 1127 1006 bf 6 5 1139 1006 bf 6 5 1169 1006 bf 6 5 1205 1006 bf 6 5 1217 1006 bf 6 5 1235 1006 bf 0 0.266667 1 c 6 5 1241 1006 bf 6 5 1247 1006 bf 6 5
 1265 1006 bf 6 5 1271 1006 bf 0.2 0 1 c 6 5 1283 1006 bf 0 0.266667 1 c 6 5 1289 1006 bf 0.2 0 1 c 6 5 1295 1006 bf 0 1 0.8 c 6 5 1301 1006 bf 0 0.733333 1 c 6 5 1307 1006 bf 0.2 0 1 c 6 5 1313 1006 bf 0 0.266667 1 c 6 5 1319 1006 bf 0 0.733333 1 c
 6 5 1325 1006 bf 0 1 0.0533333 c 6 5 1331 1006 bf 0 1 0.8 c 6 5 1337 1006 bf 0 0.733333 1 c 6 5 1343 1006 bf 0 0.266667 1 c 6 5 1349 1006 bf 0.2 0 1 c 6 5 1355 1006 bf 0 0.733333 1 c 6 5 1367 1006 bf 0.2 0 1 c 6 5 1373 1006 bf 0 0.266667 1 c 6 5
 1379 1006 bf 6 5 1385 1006 bf 0.2 0 1 c 6 5 1391 1006 bf 0 0.733333 1 c 6 5 1397 1006 bf 0 0.266667 1 c 6 5 1415 1006 bf 0.2 0 1 c 6 5 1439 1006 bf 6 5 1469 1006 bf 6 6 1073 1011 bf 6 6 1079 1011 bf 6 6 1127 1011 bf 6 6 1151 1011 bf 6 6 1163 1011 bf
 6 6 1175 1011 bf 6 6 1181 1011 bf 6 6 1187 1011 bf 6 6 1205 1011 bf 0 0.266667 1 c 6 6 1247 1011 bf 6 6 1253 1011 bf 0.2 0 1 c 6 6 1259 1011 bf 6 6 1265 1011 bf 6 6 1271 1011 bf 0 0.266667 1 c 6 6 1289 1011 bf 0 1 0.333333 c 6 6 1301 1011 bf 0.2 0 1
 c 6 6 1307 1011 bf 6 6 1313 1011 bf 1 0.653333 0 c 6 6 1319 1011 bf 0 0.266667 1 c 6 6 1325 1011 bf 0 1 0.0533333 c 6 6 1331 1011 bf 0.413333 1 0 c 6 6 1337 1011 bf 0 1 0.333333 c 6 6 1343 1011 bf 0 0.266667 1 c 6 6 1349 1011 bf 0 0.733333 1 c 6 6
 1355 1011 bf 0 1 0.8 c 6 6 1361 1011 bf 6 6 1367 1011 bf 0.413333 1 0 c 6 6 1373 1011 bf 0.2 0 1 c 6 6 1385 1011 bf 0 0.733333 1 c 6 6 1391 1011 bf 0.2 0 1 c 6 6 1397 1011 bf 6 6 1415 1011 bf 6 5 1037 1017 bf 6 5 1115 1017 bf 6 5 1211 1017 bf 6 5
 1217 1017 bf 6 5 1229 1017 bf 6 5 1235 1017 bf 6 5 1247 1017 bf 6 5 1265 1017 bf 6 5 1271 1017 bf 6 5 1277 1017 bf 0 0.733333 1 c 6 5 1283 1017 bf 0 0.266667 1 c 6 5 1289 1017 bf 6 5 1295 1017 bf 6 5 1301 1017 bf 0.2 0 1 c 6 5 1307 1017 bf 0
 0.266667 1 c 6 5 1313 1017 bf 6 5 1319 1017 bf 6 5 1331 1017 bf 0.2 0 1 c 6 5 1337 1017 bf 0 0.733333 1 c 6 5 1343 1017 bf 0 1 0.8 c 6 5 1349 1017 bf 0.413333 1 0 c 6 5 1355 1017 bf 0 0.266667 1 c 6 5 1361 1017 bf 0.2 0 1 c 6 5 1367 1017 bf 6 5 1373
 1017 bf 0 1 0.8 c 6 5 1379 1017 bf 0.2 0 1 c 6 5 1385 1017 bf 6 5 1391 1017 bf 6 5 1397 1017 bf 6 5 1403 1017 bf 6 5 1409 1017 bf 6 5 1415 1017 bf 6 5 1421 1017 bf 6 5 1439 1017 bf 6 5 1091 1022 bf 6 5 1121 1022 bf 6 5 1163 1022 bf 0 0.266667 1 c 6
 5 1205 1022 bf 0.2 0 1 c 6 5 1217 1022 bf 6 5 1241 1022 bf 6 5 1253 1022 bf 6 5 1259 1022 bf 6 5 1265 1022 bf 0 0.266667 1 c 6 5 1271 1022 bf 6 5 1277 1022 bf 0.2 0 1 c 6 5 1289 1022 bf 0 0.733333 1 c 6 5 1307 1022 bf 0.2 0 1 c 6 5 1325 1022 bf 0 1
 0.8 c 6 5 1331 1022 bf 0 1 0.333333 c 6 5 1337 1022 bf 0 1 0.0533333 c 6 5 1343 1022 bf 0 0.266667 1 c 6 5 1349 1022 bf 0 1 0.8 c 6 5 1355 1022 bf 0.413333 1 0 c 6 5 1361 1022 bf 6 5 1367 1022 bf 0 0.733333 1 c 6 5 1373 1022 bf 0.2 0 1 c 6 5 1379
 1022 bf 0 0.733333 1 c 6 5 1391 1022 bf 6 5 1397 1022 bf 0.2 0 1 c 6 5 1403 1022 bf 0 0.266667 1 c 6 5 1409 1022 bf 0 0.733333 1 c 6 5 1415 1022 bf 0.2 0 1 c 6 5 1421 1022 bf 6 5 1433 1022 bf 0 0.266667 1 c 6 5 1439 1022 bf 0.2 0 1 c 6 5 989 1027 bf
 6 5 1055 1027 bf 6 5 1073 1027 bf 6 5 1169 1027 bf 6 5 1211 1027 bf 6 5 1229 1027 bf 6 5 1235 1027 bf 6 5 1253 1027 bf 0 0.266667 1 c 6 5 1283 1027 bf 0.2 0 1 c 6 5 1289 1027 bf 0 0.266667 1 c 6 5 1301 1027 bf 0 1 0.333333 c 6 5 1307 1027 bf 0.2 0 1
 c 6 5 1313 1027 bf 6 5 1319 1027 bf 6 5 1325 1027 bf 6 5 1331 1027 bf 0 1 0.8 c 6 5 1337 1027 bf 0 0.733333 1 c 6 5 1343 1027 bf 0.88 1 0 c 6 5 1349 1027 bf 0 1 0.0533333 c 6 5 1355 1027 bf 0 1 0.333333 c 6 5 1361 1027 bf 0.88 1 0 c 6 5 1367 1027 bf
 0 0.733333 1 c 6 5 1373 1027 bf 0 1 0.8 c 6 5 1379 1027 bf 0 1 0.333333 c 6 5 1385 1027 bf 0 0.266667 1 c 6 5 1391 1027 bf 6 5 1397 1027 bf 0.2 0 1 c 6 5 1403 1027 bf 0 0.266667 1 c 6 5 1439 1027 bf 0.2 0 1 c 6 5 1445 1027 bf 6 5 1451 1027 bf 6 5
 1469 1027 bf 6 6 1079 1032 bf 6 6 1085 1032 bf 6 6 1109 1032 bf 0 0.266667 1 c 6 6 1181 1032 bf 0.2 0 1 c 6 6 1193 1032 bf 6 6 1229 1032 bf 6 6 1259 1032 bf 0 1 0.8 c 6 6 1277 1032 bf 0.2 0 1 c 6 6 1283 1032 bf 6 6 1295 1032 bf 6 6 1307 1032 bf 0
 0.733333 1 c 6 6 1313 1032 bf 0 1 0.8 c 6 6 1319 1032 bf 6 6 1325 1032 bf 0 0.266667 1 c 6 6 1331 1032 bf 0 0.733333 1 c 6 6 1337 1032 bf 0.2 0 1 c 6 6 1343 1032 bf 0 1 0.8 c 6 6 1349 1032 bf 0 0.266667 1 c 6 6 1355 1032 bf 0 1 0.8 c 6 6 1361 1032
 bf 0 0.266667 1 c 6 6 1367 1032 bf 0.413333 1 0 c 6 6 1373 1032 bf 0 1 0.0533333 c 6 6 1379 1032 bf 0 1 0.8 c 6 6 1385 1032 bf 0 0.733333 1 c 6 6 1391 1032 bf 0.2 0 1 c 6 6 1397 1032 bf 6 6 1403 1032 bf 6 6 1409 1032 bf 6 6 1415 1032 bf 6 6 1451
 1032 bf 6 6 1505 1032 bf 6 6 1559 1032 bf 6 5 1109 1038 bf 6 5 1145 1038 bf 6 5 1151 1038 bf 6 5 1163 1038 bf 6 5 1247 1038 bf 6 5 1259 1038 bf 0 0.266667 1 c 6 5 1271 1038 bf 0.2 0 1 c 6 5 1289 1038 bf 6 5 1301 1038 bf 0 0.733333 1 c 6 5 1307 1038
 bf 0.2 0 1 c 6 5 1319 1038 bf 0 0.266667 1 c 6 5 1331 1038 bf 6 5 1337 1038 bf 0.2 0 1 c 6 5 1343 1038 bf 0.413333 1 0 c 6 5 1349 1038 bf 0 1 0.8 c 6 5 1355 1038 bf 0.2 0 1 c 6 5 1361 1038 bf 1 0.653333 0 c 6 5 1367 1038 bf 0 1 0.0533333 c 6 5 1373
 1038 bf 0 0.733333 1 c 6 5 1379 1038 bf 0 0.266667 1 c 6 5 1385 1038 bf 6 5 1391 1038 bf 0 1 0.333333 c 6 5 1397 1038 bf 0 0.733333 1 c 6 5 1403 1038 bf 0 1 0.8 c 6 5 1409 1038 bf 0 0.733333 1 c 6 5 1415 1038 bf 0.2 0 1 c 6 5 1421 1038 bf 0 0.266667
 1 c 6 5 1427 1038 bf 0.2 0 1 c 6 5 1433 1038 bf 6 5 1451 1038 bf 6 5 1463 1038 bf 0 0.266667 1 c 6 5 1475 1038 bf 0.2 0 1 c 6 5 1061 1043 bf 6 5 1097 1043 bf 6 5 1133 1043 bf 6 5 1163 1043 bf 6 5 1175 1043 bf 6 5 1193 1043 bf 6 5 1199 1043 bf 6 5
 1211 1043 bf 6 5 1217 1043 bf 6 5 1247 1043 bf 6 5 1271 1043 bf 6 5 1277 1043 bf 6 5 1283 1043 bf 6 5 1289 1043 bf 6 5 1295 1043 bf 0 0.266667 1 c 6 5 1301 1043 bf 0.2 0 1 c 6 5 1313 1043 bf 0 0.733333 1 c 6 5 1319 1043 bf 0.2 0 1 c 6 5 1325 1043 bf
 6 5 1337 1043 bf 0 0.266667 1 c 6 5 1349 1043 bf 0 1 0.8 c 6 5 1355 1043 bf 0 0.266667 1 c 6 5 1361 1043 bf 0 0.733333 1 c 6 5 1367 1043 bf 6 5 1373 1043 bf 6 5 1379 1043 bf 0 0.266667 1 c 6 5 1385 1043 bf 0 1 0.333333 c 6 5 1391 1043 bf 0 0.733333
 1 c 6 5 1397 1043 bf 0 0.266667 1 c 6 5 1403 1043 bf 0 1 0.333333 c 6 5 1409 1043 bf 0.2 0 1 c 6 5 1427 1043 bf 0 0.266667 1 c 6 5 1433 1043 bf 0.2 0 1 c 6 5 1439 1043 bf 6 5 1451 1043 bf 6 5 1475 1043 bf 6 6 1073 1048 bf 6 6 1133 1048 bf 6 6 1157
 1048 bf 6 6 1181 1048 bf 0 0.733333 1 c 6 6 1187 1048 bf 0.2 0 1 c 6 6 1211 1048 bf 6 6 1223 1048 bf 0 0.266667 1 c 6 6 1241 1048 bf 0.2 0 1 c 6 6 1271 1048 bf 0 0.266667 1 c 6 6 1295 1048 bf 0.2 0 1 c 6 6 1301 1048 bf 6 6 1313 1048 bf 0 0.266667 1
 c 6 6 1319 1048 bf 0.2 0 1 c 6 6 1325 1048 bf 0 0.266667 1 c 6 6 1331 1048 bf 0 0.733333 1 c 6 6 1337 1048 bf 0 0.266667 1 c 6 6 1343 1048 bf 0.2 0 1 c 6 6 1355 1048 bf 0 0.266667 1 c 6 6 1361 1048 bf 0 1 0.8 c 6 6 1367 1048 bf 0.413333 1 0 c 6 6
 1373 1048 bf 0 0.266667 1 c 6 6 1379 1048 bf 0.413333 1 0 c 6 6 1385 1048 bf 0.2 0 1 c 6 6 1391 1048 bf 0 1 0.8 c 6 6 1397 1048 bf 0.88 1 0 c 6 6 1403 1048 bf 0.2 0 1 c 6 6 1409 1048 bf 0 0.733333 1 c 6 6 1415 1048 bf 0.2 0 1 c 6 6 1427 1048 bf 0
 0.733333 1 c 6 6 1433 1048 bf 0.2 0 1 c 6 6 1445 1048 bf 6 6 1457 1048 bf 0 0.266667 1 c 6 6 1463 1048 bf 0.2 0 1 c 6 6 1475 1048 bf 6 6 1499 1048 bf 6 5 1007 1054 bf 0 0.266667 1 c 6 5 1109 1054 bf 0.2 0 1 c 6 5 1133 1054 bf 6 5 1157 1054 bf 6 5
 1187 1054 bf 6 5 1211 1054 bf 6 5 1253 1054 bf 6 5 1265 1054 bf 6 5 1295 1054 bf 0 0.266667 1 c 6 5 1301 1054 bf 0.2 0 1 c 6 5 1313 1054 bf 6 5 1319 1054 bf 6 5 1331 1054 bf 6 5 1337 1054 bf 6 5 1343 1054 bf 0 0.266667 1 c 6 5 1349 1054 bf 6 5 1367
 1054 bf 6 5 1373 1054 bf 0.2 0 1 c 6 5 1379 1054 bf 0 0.266667 1 c 6 5 1385 1054 bf 0 1 0.333333 c 6 5 1391 1054 bf 0 0.733333 1 c 6 5 1397 1054 bf 0.413333 1 0 c 6 5 1403 1054 bf 0 1 0.0533333 c 6 5 1409 1054 bf 0 0.266667 1 c 6 5 1415 1054 bf 0 1
 0.8 c 6 5 1421 1054 bf 0 0.266667 1 c 6 5 1427 1054 bf 6 5 1439 1054 bf 0.2 0 1 c 6 5 1445 1054 bf 6 5 1457 1054 bf 6 5 1049 1059 bf 6 5 1073 1059 bf 6 5 1181 1059 bf 6 5 1187 1059 bf 6 5 1217 1059 bf 6 5 1247 1059 bf 6 5 1283 1059 bf 6 5 1301 1059
 bf 6 5 1319 1059 bf 6 5 1349 1059 bf 0 0.266667 1 c 6 5 1355 1059 bf 6 5 1367 1059 bf 6 5 1373 1059 bf 6 5 1379 1059 bf 0.2 0 1 c 6 5 1391 1059 bf 0 0.266667 1 c 6 5 1397 1059 bf 0 0.733333 1 c 6 5 1403 1059 bf 0.88 1 0 c 6 5 1409 1059 bf 0 0.733333
 1 c 6 5 1415 1059 bf 6 5 1421 1059 bf 0 0.266667 1 c 6 5 1427 1059 bf 6 5 1433 1059 bf 0.2 0 1 c 6 5 1439 1059 bf 6 5 1481 1059 bf 6 5 1499 1059 bf 6 5 1043 1064 bf 6 5 1079 1064 bf 6 5 1103 1064 bf 6 5 1115 1064 bf 6 5 1145 1064 bf 6 5 1151 1064 bf
 6 5 1169 1064 bf 0 0.266667 1 c 6 5 1187 1064 bf 0.2 0 1 c 6 5 1205 1064 bf 6 5 1229 1064 bf 0 0.266667 1 c 6 5 1241 1064 bf 0.2 0 1 c 6 5 1253 1064 bf 6 5 1295 1064 bf 6 5 1319 1064 bf 0 0.266667 1 c 6 5 1325 1064 bf 6 5 1343 1064 bf 0 0.733333 1 c
 6 5 1349 1064 bf 0.2 0 1 c 6 5 1355 1064 bf 0 0.266667 1 c 6 5 1361 1064 bf 0 0.733333 1 c 6 5 1367 1064 bf 0 1 0.8 c 6 5 1385 1064 bf 0 0.733333 1 c 6 5 1391 1064 bf 6 5 1397 1064 bf 0 0.266667 1 c 6 5 1409 1064 bf 0 0.733333 1 c 6 5 1415 1064 bf
 0.2 0 1 c 6 5 1421 1064 bf 0 0.266667 1 c 6 5 1427 1064 bf 0.2 0 1 c 6 5 1433 1064 bf 0 0.733333 1 c 6 5 1439 1064 bf 0 0.266667 1 c 6 5 1451 1064 bf 6 5 1475 1064 bf 0.2 0 1 c 6 6 1061 1069 bf 6 6 1139 1069 bf 6 6 1235 1069 bf 6 6 1253 1069 bf 6 6
 1289 1069 bf 6 6 1295 1069 bf 6 6 1307 1069 bf 6 6 1313 1069 bf 6 6 1349 1069 bf 6 6 1355 1069 bf 0 0.266667 1 c 6 6 1373 1069 bf 0.2 0 1 c 6 6 1379 1069 bf 0 0.266667 1 c 6 6 1385 1069 bf 0.2 0 1 c 6 6 1391 1069 bf 0 0.733333 1 c 6 6 1397 1069 bf
 0.2 0 1 c 6 6 1403 1069 bf 0 0.733333 1 c 6 6 1409 1069 bf 0 1 0.0533333 c 6 6 1415 1069 bf 0 1 0.8 c 6 6 1421 1069 bf 0 1 0.333333 c 6 6 1427 1069 bf 0 0.266667 1 c 6 6 1433 1069 bf 0 0.733333 1 c 6 6 1439 1069 bf 0.2 0 1 c 6 6 1445 1069 bf 6 6
 1463 1069 bf 6 5 953 1075 bf 6 5 1001 1075 bf 6 5 1055 1075 bf 0 0.266667 1 c 6 5 1067 1075 bf 0.2 0 1 c 6 5 1079 1075 bf 6 5 1109 1075 bf 6 5 1175 1075 bf 6 5 1193 1075 bf 6 5 1211 1075 bf 6 5 1289 1075 bf 6 5 1295 1075 bf 0 0.266667 1 c 6 5 1313
 1075 bf 0.2 0 1 c 6 5 1325 1075 bf 0 0.266667 1 c 6 5 1331 1075 bf 6 5 1337 1075 bf 0.2 0 1 c 6 5 1361 1075 bf 0 0.266667 1 c 6 5 1367 1075 bf 0.2 0 1 c 6 5 1373 1075 bf 0 0.266667 1 c 6 5 1397 1075 bf 0 1 0.8 c 6 5 1403 1075 bf 0 1 0.333333 c 6 5
 1409 1075 bf 0 1 0.8 c 6 5 1415 1075 bf 0 0.266667 1 c 6 5 1427 1075 bf 6 5 1433 1075 bf 0 0.733333 1 c 6 5 1439 1075 bf 0 0.266667 1 c 6 5 1445 1075 bf 6 5 1451 1075 bf 0.2 0 1 c 6 5 1457 1075 bf 6 5 1505 1075 bf 6 5 1061 1080 bf 6 5 1139 1080 bf 6
 5 1169 1080 bf 6 5 1235 1080 bf 6 5 1289 1080 bf 6 5 1301 1080 bf 6 5 1313 1080 bf 6 5 1337 1080 bf 6 5 1361 1080 bf 6 5 1367 1080 bf 6 5 1373 1080 bf 0 1 0.8 c 6 5 1379 1080 bf 0.2 0 1 c 6 5 1391 1080 bf 6 5 1397 1080 bf 0 0.733333 1 c 6 5 1403
 1080 bf 6 5 1415 1080 bf 0 0.266667 1 c 6 5 1421 1080 bf 0 0.733333 1 c 6 5 1427 1080 bf 6 5 1433 1080 bf 6 5 1439 1080 bf 0.2 0 1 c 6 5 1445 1080 bf 6 5 1451 1080 bf 6 5 1469 1080 bf 0 0.266667 1 c 6 5 1481 1080 bf 0.2 0 1 c 6 5 1085 1085 bf 6 5
 1115 1085 bf 6 5 1127 1085 bf 6 5 1157 1085 bf 6 5 1205 1085 bf 6 5 1235 1085 bf 6 5 1253 1085 bf 6 5 1259 1085 bf 6 5 1271 1085 bf 6 5 1331 1085 bf 6 5 1385 1085 bf 0 0.266667 1 c 6 5 1397 1085 bf 0.2 0 1 c 6 5 1403 1085 bf 0 0.733333 1 c 6 5 1409
 1085 bf 0 0.266667 1 c 6 5 1415 1085 bf 0.2 0 1 c 6 5 1421 1085 bf 0 0.266667 1 c 6 5 1433 1085 bf 0 0.733333 1 c 6 5 1439 1085 bf 0 0.266667 1 c 6 5 1445 1085 bf 6 5 1451 1085 bf 6 5 1457 1085 bf 0.2 0 1 c 6 5 1463 1085 bf 6 5 1469 1085 bf 0
 0.266667 1 c 6 5 1475 1085 bf 0.2 0 1 c 6 6 989 1090 bf 6 6 1001 1090 bf 6 6 1013 1090 bf 6 6 1067 1090 bf 6 6 1085 1090 bf 6 6 1097 1090 bf 6 6 1151 1090 bf 6 6 1187 1090 bf 6 6 1265 1090 bf 6 6 1283 1090 bf 6 6 1301 1090 bf 6 6 1343 1090 bf 0
 0.266667 1 c 6 6 1355 1090 bf 0.2 0 1 c 6 6 1361 1090 bf 6 6 1373 1090 bf 6 6 1379 1090 bf 6 6 1385 1090 bf 6 6 1397 1090 bf 6 6 1403 1090 bf 0 0.266667 1 c 6 6 1409 1090 bf 0.2 0 1 c 6 6 1415 1090 bf 6 6 1427 1090 bf 0 0.266667 1 c 6 6 1439 1090 bf
 6 6 1445 1090 bf 0 0.733333 1 c 6 6 1451 1090 bf 0 0.266667 1 c 6 6 1457 1090 bf 0.2 0 1 c 6 6 1463 1090 bf 6 6 1481 1090 bf 6 5 1055 1096 bf 0 0.266667 1 c 6 5 1109 1096 bf 0.2 0 1 c 6 5 1151 1096 bf 6 5 1157 1096 bf 6 5 1217 1096 bf 6 5 1277 1096
 bf 6 5 1319 1096 bf 0 0.266667 1 c 6 5 1337 1096 bf 0.2 0 1 c 6 5 1343 1096 bf 6 5 1355 1096 bf 6 5 1367 1096 bf 0 0.266667 1 c 6 5 1379 1096 bf 6 5 1391 1096 bf 0.2 0 1 c 6 5 1403 1096 bf 0 0.266667 1 c 6 5 1415 1096 bf 0.2 0 1 c 6 5 1421 1096 bf 0
 0.266667 1 c 6 5 1439 1096 bf 0.2 0 1 c 6 5 1445 1096 bf 6 5 1469 1096 bf 6 5 1481 1096 bf 6 5 989 1101 bf 0 0.266667 1 c 6 5 1013 1101 bf 0.2 0 1 c 6 5 1037 1101 bf 6 5 1055 1101 bf 6 5 1061 1101 bf 0 0.266667 1 c 6 5 1073 1101 bf 0.2 0 1 c 6 5
 1085 1101 bf 0 0.266667 1 c 6 5 1091 1101 bf 0.2 0 1 c 6 5 1097 1101 bf 6 5 1121 1101 bf 6 5 1163 1101 bf 6 5 1169 1101 bf 6 5 1265 1101 bf 6 5 1355 1101 bf 6 5 1361 1101 bf 6 5 1367 1101 bf 0 0.266667 1 c 6 5 1391 1101 bf 0.2 0 1 c 6 5 1403 1101 bf
 6 5 1415 1101 bf 0 1 0.8 c 6 5 1427 1101 bf 0 0.266667 1 c 6 5 1439 1101 bf 6 5 1445 1101 bf 6 5 1451 1101 bf 6 5 1463 1101 bf 0.2 0 1 c 6 5 1475 1101 bf 0 0.733333 1 c 6 5 1487 1101 bf 0.2 0 1 c 6 5 983 1106 bf 6 5 989 1106 bf 6 5 995 1106 bf 6 5
 1013 1106 bf 6 5 1067 1106 bf 6 5 1139 1106 bf 6 5 1157 1106 bf 6 5 1259 1106 bf 6 5 1301 1106 bf 6 5 1331 1106 bf 6 5 1367 1106 bf 6 5 1379 1106 bf 6 5 1397 1106 bf 6 5 1403 1106 bf 0 0.266667 1 c 6 5 1409 1106 bf 6 5 1427 1106 bf 6 5 1433 1106 bf
 0.2 0 1 c 6 5 1445 1106 bf 0 0.266667 1 c 6 5 1463 1106 bf 0 0.733333 1 c 6 5 1487 1106 bf 0.2 0 1 c 6 5 1493 1106 bf 6 6 941 1111 bf 6 6 953 1111 bf 6 6 1049 1111 bf 6 6 1079 1111 bf 6 6 1187 1111 bf 6 6 1211 1111 bf 6 6 1217 1111 bf 6 6 1247 1111
 bf 0 0.266667 1 c 6 6 1301 1111 bf 0.2 0 1 c 6 6 1307 1111 bf 6 6 1313 1111 bf 6 6 1391 1111 bf 6 6 1403 1111 bf 0 0.266667 1 c 6 6 1415 1111 bf 0.2 0 1 c 6 6 1439 1111 bf 6 6 1445 1111 bf 6 6 1463 1111 bf 6 6 1469 1111 bf 6 6 1481 1111 bf 6 6 1487
 1111 bf 6 5 893 1117 bf 6 5 989 1117 bf 6 5 1061 1117 bf 6 5 1175 1117 bf 0 0.266667 1 c 6 5 1187 1117 bf 0.2 0 1 c 6 5 1205 1117 bf 6 5 1247 1117 bf 6 5 1301 1117 bf 6 5 1319 1117 bf 0 0.266667 1 c 6 5 1415 1117 bf 0.2 0 1 c 6 5 1433 1117 bf 6 5
 1439 1117 bf 0 0.266667 1 c 6 5 1445 1117 bf 0.2 0 1 c 6 5 1457 1117 bf 6 5 815 1122 bf 6 5 881 1122 bf 6 5 899 1122 bf 6 5 959 1122 bf 6 5 965 1122 bf 6 5 1013 1122 bf 6 5 1037 1122 bf 0 0.266667 1 c 6 5 1229 1122 bf 0.2 0 1 c 6 5 1265 1122 bf 6 5
 1313 1122 bf 6 5 1319 1122 bf 6 5 1337 1122 bf 6 5 1355 1122 bf 6 5 1361 1122 bf 6 5 1403 1122 bf 0 0.266667 1 c 6 5 1421 1122 bf 0.2 0 1 c 6 5 1439 1122 bf 6 5 1445 1122 bf 6 5 1469 1122 bf 6 5 1283 1127 bf 6 5 1295 1127 bf 6 5 1343 1127 bf 6 5
 1349 1127 bf 6 5 1367 1127 bf 6 5 1397 1127 bf 0 0.266667 1 c 6 5 1457 1127 bf 0.2 0 1 c 6 5 1469 1127 bf 6 6 929 1132 bf 6 6 947 1132 bf 6 6 989 1132 bf 6 6 1007 1132 bf 6 6 1013 1132 bf 6 6 1019 1132 bf 6 6 1031 1132 bf 6 6 1037 1132 bf 6 6 1055
 1132 bf 6 6 1067 1132 bf 6 6 1079 1132 bf 6 6 1139 1132 bf 6 6 1145 1132 bf 0 0.266667 1 c 6 6 1151 1132 bf 0.2 0 1 c 6 6 1211 1132 bf 6 6 1265 1132 bf 6 6 1283 1132 bf 6 6 1313 1132 bf 6 6 1319 1132 bf 6 6 1331 1132 bf 6 6 1355 1132 bf 6 6 1379
 1132 bf 6 6 1439 1132 bf 6 5 905 1138 bf 6 5 977 1138 bf 6 5 983 1138 bf 6 5 1019 1138 bf 6 5 1097 1138 bf 6 5 1109 1138 bf 6 5 1115 1138 bf 6 5 1127 1138 bf 6 5 1145 1138 bf 6 5 1295 1138 bf 6 5 1313 1138 bf 6 5 1325 1138 bf 6 5 1349 1138 bf 6 5
 1397 1138 bf 6 5 1409 1138 bf 6 5 1439 1138 bf 6 5 1523 1138 bf 6 5 887 1143 bf 6 5 905 1143 bf 6 5 935 1143 bf 6 5 941 1143 bf 6 5 959 1143 bf 6 5 983 1143 bf 6 5 1025 1143 bf 6 5 1097 1143 bf 6 5 1175 1143 bf 6 5 1187 1143 bf 6 5 1223 1143 bf 6 5
 1235 1143 bf 6 5 1259 1143 bf 6 5 1307 1143 bf 6 5 1367 1143 bf 6 5 1403 1143 bf 6 5 1421 1143 bf 6 6 845 1148 bf 6 6 863 1148 bf 6 6 887 1148 bf 6 6 911 1148 bf 0 0.266667 1 c 6 6 947 1148 bf 0.2 0 1 c 6 6 959 1148 bf 6 6 965 1148 bf 6 6 983 1148
 bf 6 6 1013 1148 bf 6 6 1049 1148 bf 6 6 1055 1148 bf 6 6 1073 1148 bf 6 6 1091 1148 bf 6 6 1169 1148 bf 6 6 1223 1148 bf 6 6 1277 1148 bf 6 6 1283 1148 bf 0 0.266667 1 c 6 5 881 1154 bf 0.2 0 1 c 6 5 917 1154 bf 6 5 929 1154 bf 6 5 941 1154 bf 6 5
 947 1154 bf 6 5 953 1154 bf 6 5 989 1154 bf 6 5 1019 1154 bf 6 5 1055 1154 bf 6 5 1067 1154 bf 6 5 1211 1154 bf 6 5 1235 1154 bf 6 5 1241 1154 bf 6 5 1253 1154 bf 6 5 1277 1154 bf 6 5 1283 1154 bf 6 5 1361 1154 bf 6 5 1379 1154 bf 6 5 1505 1154 bf 0
 0.266667 1 c 6 5 875 1159 bf 0.2 0 1 c 6 5 881 1159 bf 6 5 887 1159 bf 6 5 899 1159 bf 6 5 911 1159 bf 6 5 917 1159 bf 0 0.266667 1 c 6 5 941 1159 bf 0.2 0 1 c 6 5 959 1159 bf 6 5 989 1159 bf 6 5 1037 1159 bf 6 5 1145 1159 bf 0 0.266667 1 c 6 5 1157
 1159 bf 0.2 0 1 c 6 5 1205 1159 bf 6 5 1235 1159 bf 6 5 1277 1159 bf 6 5 1283 1159 bf 6 5 1343 1159 bf 6 5 851 1164 bf 6 5 869 1164 bf 6 5 875 1164 bf 6 5 881 1164 bf 6 5 899 1164 bf 6 5 911 1164 bf 6 5 929 1164 bf 6 5 959 1164 bf 6 5 1007 1164 bf 6
 5 1025 1164 bf 6 5 1031 1164 bf 6 5 1043 1164 bf 0 0.266667 1 c 6 5 1067 1164 bf 6 5 1097 1164 bf 0.2 0 1 c 6 5 1151 1164 bf 6 5 1331 1164 bf 6 5 1409 1164 bf 6 5 1415 1164 bf 6 5 1421 1164 bf 6 5 1445 1164 bf 6 6 863 1169 bf 6 6 869 1169 bf 6 6 875
 1169 bf 0 0.266667 1 c 6 6 881 1169 bf 6 6 887 1169 bf 0.2 0 1 c 6 6 893 1169 bf 0 0.266667 1 c 6 6 899 1169 bf 0.2 0 1 c 6 6 905 1169 bf 0 0.266667 1 c 6 6 917 1169 bf 0.2 0 1 c 6 6 923 1169 bf 0 0.266667 1 c 6 6 929 1169 bf 0.2 0 1 c 6 6 935 1169
 bf 6 6 953 1169 bf 6 6 959 1169 bf 6 6 965 1169 bf 6 6 983 1169 bf 6 6 989 1169 bf 6 6 1163 1169 bf 6 6 1307 1169 bf 6 6 1313 1169 bf 6 6 1391 1169 bf 6 5 833 1175 bf 6 5 869 1175 bf 0 0.266667 1 c 6 5 875 1175 bf 0.2 0 1 c 6 5 887 1175 bf 6 5 893
 1175 bf 6 5 899 1175 bf 0 0.266667 1 c 6 5 905 1175 bf 6 5 911 1175 bf 6 5 917 1175 bf 0.2 0 1 c 6 5 923 1175 bf 0 0.266667 1 c 6 5 929 1175 bf 6 5 947 1175 bf 0 0.733333 1 c 6 5 953 1175 bf 0.2 0 1 c 6 5 983 1175 bf 6 5 1025 1175 bf 6 5 1073 1175
 bf 6 5 1079 1175 bf 6 5 1085 1175 bf 6 5 1139 1175 bf 6 5 1163 1175 bf 0 0.266667 1 c 6 5 1211 1175 bf 0.2 0 1 c 6 5 1217 1175 bf 6 5 1241 1175 bf 6 5 1247 1175 bf 6 5 1265 1175 bf 6 5 1421 1175 bf 6 5 851 1180 bf 6 5 863 1180 bf 6 5 869 1180 bf 6 5
 875 1180 bf 6 5 881 1180 bf 0 0.266667 1 c 6 5 887 1180 bf 0.2 0 1 c 6 5 893 1180 bf 6 5 899 1180 bf 0 0.266667 1 c 6 5 905 1180 bf 6 5 911 1180 bf 0.2 0 1 c 6 5 917 1180 bf 6 5 923 1180 bf 0 0.266667 1 c 6 5 929 1180 bf 0.2 0 1 c 6 5 941 1180 bf 6
 5 947 1180 bf 0 0.733333 1 c 6 5 953 1180 bf 0.2 0 1 c 6 5 965 1180 bf 6 5 989 1180 bf 6 5 995 1180 bf 6 5 1007 1180 bf 0 0.266667 1 c 6 5 1013 1180 bf 6 5 1019 1180 bf 0.2 0 1 c 6 5 1037 1180 bf 6 5 1049 1180 bf 6 5 1067 1180 bf 6 5 1073 1180 bf 6
 5 1079 1180 bf 6 5 1181 1180 bf 6 5 1241 1180 bf 6 5 1283 1180 bf 6 5 1301 1180 bf 6 5 1355 1180 bf 6 5 863 1185 bf 6 5 869 1185 bf 0 0.733333 1 c 6 5 875 1185 bf 0 0.266667 1 c 6 5 887 1185 bf 0.2 0 1 c 6 5 893 1185 bf 0 0.733333 1 c 6 5 899 1185
 bf 0 0.266667 1 c 6 5 905 1185 bf 6 5 911 1185 bf 6 5 929 1185 bf 6 5 947 1185 bf 0.2 0 1 c 6 5 953 1185 bf 0 0.266667 1 c 6 5 959 1185 bf 0.2 0 1 c 6 5 965 1185 bf 6 5 971 1185 bf 0 0.266667 1 c 6 5 983 1185 bf 0.2 0 1 c 6 5 995 1185 bf 6 5 1007
 1185 bf 6 5 1097 1185 bf 6 5 1175 1185 bf 6 5 1265 1185 bf 6 5 1409 1185 bf 6 6 869 1190 bf 6 6 887 1190 bf 6 6 899 1190 bf 6 6 905 1190 bf 6 6 911 1190 bf 0 1 0.8 c 6 6 917 1190 bf 6 6 923 1190 bf 0 0.266667 1 c 6 6 941 1190 bf 0.2 0 1 c 6 6 953
 1190 bf 0 0.266667 1 c 6 6 959 1190 bf 0.2 0 1 c 6 6 965 1190 bf 6 6 971 1190 bf 0 0.266667 1 c 6 6 977 1190 bf 0.2 0 1 c 6 6 983 1190 bf 6 6 989 1190 bf 6 6 1007 1190 bf 6 6 1019 1190 bf 6 6 1025 1190 bf 6 6 1055 1190 bf 6 6 1061 1190 bf 6 6 1067
 1190 bf 6 6 1073 1190 bf 6 6 1145 1190 bf 6 6 1151 1190 bf 6 6 1157 1190 bf 6 6 1169 1190 bf 6 6 1181 1190 bf 6 6 1217 1190 bf 6 6 1223 1190 bf 6 5 857 1196 bf 6 5 863 1196 bf 6 5 887 1196 bf 6 5 893 1196 bf 6 5 899 1196 bf 6 5 905 1196 bf 0
 0.266667 1 c 6 5 911 1196 bf 6 5 917 1196 bf 0 1 0.333333 c 6 5 923 1196 bf 0.2 0 1 c 6 5 929 1196 bf 0 0.266667 1 c 6 5 935 1196 bf 0 0.733333 1 c 6 5 941 1196 bf 0 0.266667 1 c 6 5 947 1196 bf 6 5 953 1196 bf 0.2 0 1 c 6 5 959 1196 bf 6 5 965 1196
 bf 0 0.266667 1 c 6 5 971 1196 bf 0.2 0 1 c 6 5 977 1196 bf 0 0.266667 1 c 6 5 983 1196 bf 0.2 0 1 c 6 5 989 1196 bf 6 5 1001 1196 bf 6 5 1007 1196 bf 6 5 1013 1196 bf 6 5 1025 1196 bf 6 5 1043 1196 bf 6 5 1049 1196 bf 6 5 1085 1196 bf 6 5 1091 1196
 bf 6 5 1115 1196 bf 6 5 1121 1196 bf 6 5 1199 1196 bf 6 5 1223 1196 bf 6 5 1229 1196 bf 6 5 1235 1196 bf 6 5 1271 1196 bf 6 5 1325 1196 bf 6 5 1385 1196 bf 6 5 827 1201 bf 6 5 833 1201 bf 6 5 881 1201 bf 0 0.733333 1 c 6 5 899 1201 bf 0.2 0 1 c 6 5
 905 1201 bf 0 1 0.8 c 6 5 911 1201 bf 0.2 0 1 c 6 5 917 1201 bf 0 0.266667 1 c 6 5 929 1201 bf 0.2 0 1 c 6 5 935 1201 bf 0 0.733333 1 c 6 5 941 1201 bf 0 0.266667 1 c 6 5 947 1201 bf 6 5 965 1201 bf 0.2 0 1 c 6 5 977 1201 bf 6 5 983 1201 bf 6 5 989
 1201 bf 6 5 995 1201 bf 6 5 1007 1201 bf 0 0.733333 1 c 6 5 1025 1201 bf 0.2 0 1 c 6 5 1031 1201 bf 6 5 1085 1201 bf 6 5 1223 1201 bf 6 5 1247 1201 bf 6 5 1283 1201 bf 6 5 1313 1201 bf 6 5 1325 1201 bf 6 5 863 1206 bf 0 0.266667 1 c 6 5 899 1206 bf
 0.2 0 1 c 6 5 905 1206 bf 6 5 911 1206 bf 0 0.266667 1 c 6 5 917 1206 bf 0 0.733333 1 c 6 5 923 1206 bf 0 0.266667 1 c 6 5 929 1206 bf 0 0.733333 1 c 6 5 935 1206 bf 0.2 0 1 c 6 5 941 1206 bf 0 0.266667 1 c 6 5 947 1206 bf 0 1 0.333333 c 6 5 959
 1206 bf 0 0.266667 1 c 6 5 965 1206 bf 6 5 971 1206 bf 0.2 0 1 c 6 5 977 1206 bf 0 0.266667 1 c 6 5 989 1206 bf 0.2 0 1 c 6 5 995 1206 bf 6 5 1001 1206 bf 6 5 1007 1206 bf 6 5 1013 1206 bf 6 5 1019 1206 bf 6 5 1031 1206 bf 6 5 1061 1206 bf 6 5 1127
 1206 bf 6 5 1139 1206 bf 0 0.266667 1 c 6 5 1151 1206 bf 0.2 0 1 c 6 5 1181 1206 bf 6 5 1259 1206 bf 6 5 1271 1206 bf 6 5 1277 1206 bf 6 5 1325 1206 bf 6 6 839 1211 bf 6 6 857 1211 bf 6 6 869 1211 bf 0 0.266667 1 c 6 6 875 1211 bf 0.2 0 1 c 6 6 881
 1211 bf 0 0.266667 1 c 6 6 905 1211 bf 0.2 0 1 c 6 6 911 1211 bf 0 0.266667 1 c 6 6 917 1211 bf 0 1 0.8 c 6 6 923 1211 bf 0 1 0.333333 c 6 6 929 1211 bf 0.2 0 1 c 6 6 935 1211 bf 6 6 941 1211 bf 0 0.733333 1 c 6 6 947 1211 bf 0 1 0.8 c 6 6 953 1211
 bf 0 0.266667 1 c 6 6 959 1211 bf 0.2 0 1 c 6 6 965 1211 bf 6 6 971 1211 bf 6 6 977 1211 bf 0 0.733333 1 c 6 6 983 1211 bf 6 6 989 1211 bf 0.2 0 1 c 6 6 995 1211 bf 6 6 1001 1211 bf 0 0.266667 1 c 6 6 1007 1211 bf 0.2 0 1 c 6 6 1019 1211 bf 6 6 1049
 1211 bf 0 0.733333 1 c 6 6 1055 1211 bf 0.2 0 1 c 6 6 1073 1211 bf 6 6 1085 1211 bf 0 0.266667 1 c 6 6 1091 1211 bf 0.2 0 1 c 6 6 1097 1211 bf 6 6 1139 1211 bf 6 6 1223 1211 bf 6 5 905 1217 bf 6 5 911 1217 bf 0 0.733333 1 c 6 5 917 1217 bf 0.2 0 1 c
 6 5 923 1217 bf 0 0.733333 1 c 6 5 929 1217 bf 0 0.266667 1 c 6 5 935 1217 bf 6 5 941 1217 bf 0 0.733333 1 c 6 5 947 1217 bf 0 0.266667 1 c 6 5 953 1217 bf 0 1 0.8 c 6 5 959 1217 bf 0.2 0 1 c 6 5 965 1217 bf 0 0.733333 1 c 6 5 971 1217 bf 0 1
 0.333333 c 6 5 977 1217 bf 0 0.733333 1 c 6 5 983 1217 bf 0.2 0 1 c 6 5 989 1217 bf 6 5 995 1217 bf 6 5 1007 1217 bf 0 0.266667 1 c 6 5 1019 1217 bf 0.2 0 1 c 6 5 1025 1217 bf 0 0.266667 1 c 6 5 1031 1217 bf 0.2 0 1 c 6 5 1049 1217 bf 6 5 1073 1217
 bf 6 5 1085 1217 bf 0 0.266667 1 c 6 5 1091 1217 bf 0.2 0 1 c 6 5 1109 1217 bf 6 5 1115 1217 bf 6 5 1187 1217 bf 6 5 1229 1217 bf 6 5 1265 1217 bf 6 5 1271 1217 bf 6 5 1295 1217 bf 6 5 1415 1217 bf 0 0.733333 1 c 6 5 905 1222 bf 0 1 0.8 c 6 5 923
 1222 bf 0 0.266667 1 c 6 5 929 1222 bf 6 5 935 1222 bf 0 0.733333 1 c 6 5 941 1222 bf 0.413333 1 0 c 6 5 947 1222 bf 0 0.266667 1 c 6 5 953 1222 bf 0 0.733333 1 c 6 5 959 1222 bf 6 5 965 1222 bf 0 1 0.8 c 6 5 971 1222 bf 0 1 0.333333 c 6 5 977 1222
 bf 0 0.733333 1 c 6 5 983 1222 bf 6 5 989 1222 bf 0 1 0.8 c 6 5 995 1222 bf 0.2 0 1 c 6 5 1001 1222 bf 6 5 1013 1222 bf 6 5 1019 1222 bf 0 1 0.333333 c 6 5 1025 1222 bf 0 0.266667 1 c 6 5 1037 1222 bf 6 5 1043 1222 bf 0.2 0 1 c 6 5 1049 1222 bf 6 5
 1097 1222 bf 6 5 1109 1222 bf 0 0.733333 1 c 6 5 1127 1222 bf 0.2 0 1 c 6 5 1139 1222 bf 6 5 1151 1222 bf 6 5 1157 1222 bf 6 5 1181 1222 bf 6 5 1205 1222 bf 6 5 1349 1222 bf 6 5 869 1227 bf 6 5 875 1227 bf 6 5 881 1227 bf 6 5 887 1227 bf 0 0.266667
 1 c 6 5 893 1227 bf 0.2 0 1 c 6 5 899 1227 bf 0 0.266667 1 c 6 5 911 1227 bf 0 0.733333 1 c 6 5 923 1227 bf 0 0.266667 1 c 6 5 929 1227 bf 0.413333 1 0 c 6 5 935 1227 bf 0 0.733333 1 c 6 5 941 1227 bf 0 1 0.8 c 6 5 947 1227 bf 6 5 953 1227 bf 0.2 0
 1 c 6 5 965 1227 bf 0 0.733333 1 c 6 5 971 1227 bf 0.2 0 1 c 6 5 977 1227 bf 0 0.733333 1 c 6 5 983 1227 bf 0 0.266667 1 c 6 5 989 1227 bf 6 5 995 1227 bf 0 0.733333 1 c 6 5 1013 1227 bf 6 5 1019 1227 bf 0.2 0 1 c 6 5 1037 1227 bf 0 0.266667 1 c 6 5
 1049 1227 bf 0.2 0 1 c 6 5 1055 1227 bf 6 5 1061 1227 bf 6 5 1067 1227 bf 6 5 1103 1227 bf 6 5 1121 1227 bf 6 5 1145 1227 bf 6 5 1157 1227 bf 6 5 1193 1227 bf 6 6 815 1232 bf 6 6 851 1232 bf 6 6 899 1232 bf 6 6 911 1232 bf 6 6 917 1232 bf 6 6 935
 1232 bf 0 1 0.8 c 6 6 941 1232 bf 0 0.733333 1 c 6 6 947 1232 bf 0 0.266667 1 c 6 6 953 1232 bf 0 0.733333 1 c 6 6 959 1232 bf 0.413333 1 0 c 6 6 965 1232 bf 0 0.733333 1 c 6 6 971 1232 bf 0 0.266667 1 c 6 6 989 1232 bf 0.2 0 1 c 6 6 995 1232 bf 0
 0.266667 1 c 6 6 1001 1232 bf 0.2 0 1 c 6 6 1007 1232 bf 0 0.266667 1 c 6 6 1019 1232 bf 0.2 0 1 c 6 6 1025 1232 bf 6 6 1043 1232 bf 0 0.733333 1 c 6 6 1067 1232 bf 0.2 0 1 c 6 6 1085 1232 bf 6 6 1097 1232 bf 6 6 1109 1232 bf 6 6 1121 1232 bf 6 6
 1157 1232 bf 6 6 1175 1232 bf 6 6 1229 1232 bf 6 6 1271 1232 bf 6 5 875 1238 bf 0 0.266667 1 c 6 5 899 1238 bf 0.2 0 1 c 6 5 917 1238 bf 0 0.266667 1 c 6 5 923 1238 bf 0 1 0.0533333 c 6 5 935 1238 bf 0.2 0 1 c 6 5 941 1238 bf 0 1 0.333333 c 6 5 947
 1238 bf 6 5 953 1238 bf 0.413333 1 0 c 6 5 959 1238 bf 0 0.733333 1 c 6 5 971 1238 bf 0.2 0 1 c 6 5 977 1238 bf 0 0.733333 1 c 6 5 983 1238 bf 0 1 0.333333 c 6 5 989 1238 bf 0.2 0 1 c 6 5 995 1238 bf 0 0.266667 1 c 6 5 1001 1238 bf 0.2 0 1 c 6 5
 1007 1238 bf 0 1 0.8 c 6 5 1013 1238 bf 0.2 0 1 c 6 5 1019 1238 bf 0 1 0.333333 c 6 5 1025 1238 bf 0 0.266667 1 c 6 5 1031 1238 bf 6 5 1037 1238 bf 0.2 0 1 c 6 5 1055 1238 bf 6 5 1067 1238 bf 6 5 1079 1238 bf 6 5 1085 1238 bf 6 5 1097 1238 bf 6 5
 1115 1238 bf 6 5 1193 1238 bf 0 0.733333 1 c 6 5 1211 1238 bf 0.2 0 1 c 6 5 1217 1238 bf 6 5 1247 1238 bf 6 5 1277 1238 bf 6 5 1349 1238 bf 0 0.266667 1 c 6 5 887 1243 bf 6 5 917 1243 bf 0 0.733333 1 c 6 5 929 1243 bf 0 0.266667 1 c 6 5 935 1243 bf
 0 1 0.8 c 6 5 941 1243 bf 0 1 0.333333 c 6 5 947 1243 bf 0 0.733333 1 c 6 5 953 1243 bf 0 0.266667 1 c 6 5 959 1243 bf 0.2 0 1 c 6 5 965 1243 bf 0 0.733333 1 c 6 5 971 1243 bf 0 1 0.8 c 6 5 977 1243 bf 0 0.733333 1 c 6 5 983 1243 bf 0 1 0.333333 c 6
 5 989 1243 bf 0 1 0.8 c 6 5 995 1243 bf 0 0.733333 1 c 6 5 1001 1243 bf 6 5 1007 1243 bf 0 0.266667 1 c 6 5 1013 1243 bf 0 0.733333 1 c 6 5 1019 1243 bf 6 5 1025 1243 bf 0.2 0 1 c 6 5 1031 1243 bf 6 5 1037 1243 bf 0 0.266667 1 c 6 5 1055 1243 bf 0.2
 0 1 c 6 5 1073 1243 bf 6 5 1079 1243 bf 6 5 1097 1243 bf 6 5 1127 1243 bf 6 5 1157 1243 bf 6 5 1175 1243 bf 6 5 1217 1243 bf 0 0.266667 1 c 6 5 1223 1243 bf 0.2 0 1 c 6 6 911 1248 bf 6 6 929 1248 bf 6 6 935 1248 bf 0 1 0.333333 c 6 6 941 1248 bf 0
 0.266667 1 c 6 6 947 1248 bf 6 6 953 1248 bf 0 1 0.333333 c 6 6 959 1248 bf 0 1 0.8 c 6 6 965 1248 bf 0 0.266667 1 c 6 6 971 1248 bf 0 0.733333 1 c 6 6 977 1248 bf 6 6 983 1248 bf 0 1 0.8 c 6 6 989 1248 bf 0 1 0.333333 c 6 6 995 1248 bf 0 0.266667 1
 c 6 6 1001 1248 bf 0.2 0 1 c 6 6 1007 1248 bf 0 0.266667 1 c 6 6 1013 1248 bf 6 6 1019 1248 bf 0.2 0 1 c 6 6 1025 1248 bf 0 0.266667 1 c 6 6 1031 1248 bf 0 0.733333 1 c 6 6 1037 1248 bf 0.2 0 1 c 6 6 1043 1248 bf 0 1 0.333333 c 6 6 1055 1248 bf 0
 0.266667 1 c 6 6 1073 1248 bf 0.2 0 1 c 6 6 1091 1248 bf 6 6 1103 1248 bf 6 6 1109 1248 bf 6 6 1151 1248 bf 6 6 1157 1248 bf 6 6 1187 1248 bf 6 6 1217 1248 bf 6 6 1277 1248 bf 6 5 851 1254 bf 6 5 857 1254 bf 0 0.266667 1 c 6 5 899 1254 bf 0 0.733333
 1 c 6 5 917 1254 bf 0.2 0 1 c 6 5 923 1254 bf 6 5 929 1254 bf 6 5 941 1254 bf 0 0.266667 1 c 6 5 959 1254 bf 6 5 965 1254 bf 0 0.733333 1 c 6 5 971 1254 bf 0 1 0.8 c 6 5 977 1254 bf 0 0.733333 1 c 6 5 983 1254 bf 0 1 0.8 c 6 5 989 1254 bf 0.2 0 1 c
 6 5 995 1254 bf 0 1 0.333333 c 6 5 1001 1254 bf 0 1 0.0533333 c 6 5 1007 1254 bf 0 0.266667 1 c 6 5 1013 1254 bf 0 0.733333 1 c 6 5 1025 1254 bf 0.2 0 1 c 6 5 1031 1254 bf 0 0.266667 1 c 6 5 1037 1254 bf 0.2 0 1 c 6 5 1043 1254 bf 0 1 0.8 c 6 5 1049
 1254 bf 0 0.266667 1 c 6 5 1055 1254 bf 0.2 0 1 c 6 5 1061 1254 bf 6 5 1067 1254 bf 6 5 1085 1254 bf 6 5 1097 1254 bf 6 5 1103 1254 bf 6 5 1109 1254 bf 6 5 1133 1254 bf 6 5 1151 1254 bf 6 5 1205 1254 bf 6 5 1217 1254 bf 6 5 899 1259 bf 6 5 911 1259
 bf 6 5 923 1259 bf 6 5 929 1259 bf 6 5 935 1259 bf 6 5 947 1259 bf 0 0.266667 1 c 6 5 953 1259 bf 0.2 0 1 c 6 5 959 1259 bf 0 0.733333 1 c 6 5 965 1259 bf 0.2 0 1 c 6 5 971 1259 bf 0 1 0.333333 c 6 5 977 1259 bf 0 1 0.8 c 6 5 983 1259 bf 0 1
 0.333333 c 6 5 989 1259 bf 0 0.266667 1 c 6 5 995 1259 bf 0 1 0.8 c 6 5 1001 1259 bf 6 5 1007 1259 bf 0 0.733333 1 c 6 5 1013 1259 bf 0 1 0.333333 c 6 5 1025 1259 bf 0 0.266667 1 c 6 5 1031 1259 bf 0 0.733333 1 c 6 5 1043 1259 bf 0.2 0 1 c 6 5 1049
 1259 bf 0 0.266667 1 c 6 5 1061 1259 bf 6 5 1073 1259 bf 0 0.733333 1 c 6 5 1079 1259 bf 0.2 0 1 c 6 5 1085 1259 bf 0 0.266667 1 c 6 5 1097 1259 bf 0.2 0 1 c 6 5 1109 1259 bf 6 5 1115 1259 bf 0 0.733333 1 c 6 5 1121 1259 bf 0.2 0 1 c 6 5 1133 1259
 bf 0 0.266667 1 c 6 5 1157 1259 bf 6 5 1181 1259 bf 0.2 0 1 c 6 5 1187 1259 bf 6 5 1223 1259 bf 6 5 1229 1259 bf 6 5 1289 1259 bf 6 5 923 1264 bf 6 5 935 1264 bf 6 5 941 1264 bf 6 5 947 1264 bf 0 0.733333 1 c 6 5 953 1264 bf 6 5 971 1264 bf 0 1 0.8
 c 6 5 977 1264 bf 0 1 0.333333 c 6 5 983 1264 bf 0 1 0.8 c 6 5 989 1264 bf 0 0.266667 1 c 6 5 995 1264 bf 0 0.733333 1 c 6 5 1001 1264 bf 0.2 0 1 c 6 5 1007 1264 bf 6 5 1013 1264 bf 0 0.733333 1 c 6 5 1019 1264 bf 0.2 0 1 c 6 5 1025 1264 bf 0
 0.266667 1 c 6 5 1031 1264 bf 6 5 1037 1264 bf 0 0.733333 1 c 6 5 1043 1264 bf 0.2 0 1 c 6 5 1049 1264 bf 6 5 1055 1264 bf 6 5 1061 1264 bf 6 5 1067 1264 bf 6 5 1097 1264 bf 6 5 1127 1264 bf 6 5 1139 1264 bf 6 5 1157 1264 bf 6 5 1163 1264 bf 6 5
 1265 1264 bf 6 5 1277 1264 bf 6 5 1313 1264 bf 6 5 1319 1264 bf 6 6 863 1269 bf 6 6 893 1269 bf 6 6 899 1269 bf 6 6 929 1269 bf 6 6 935 1269 bf 6 6 941 1269 bf 6 6 953 1269 bf 0 0.266667 1 c 6 6 977 1269 bf 0 1 0.8 c 6 6 983 1269 bf 0 0.266667 1 c 6
 6 989 1269 bf 0.2 0 1 c 6 6 995 1269 bf 0 0.266667 1 c 6 6 1001 1269 bf 0.2 0 1 c 6 6 1007 1269 bf 0 0.266667 1 c 6 6 1013 1269 bf 6 6 1019 1269 bf 0 1 0.8 c 6 6 1025 1269 bf 0 0.733333 1 c 6 6 1031 1269 bf 0 0.266667 1 c 6 6 1037 1269 bf 6 6 1043
 1269 bf 6 6 1049 1269 bf 0 0.733333 1 c 6 6 1055 1269 bf 0.2 0 1 c 6 6 1061 1269 bf 0 0.266667 1 c 6 6 1067 1269 bf 6 6 1073 1269 bf 0.2 0 1 c 6 6 1079 1269 bf 6 6 1085 1269 bf 6 6 1091 1269 bf 6 6 1121 1269 bf 6 6 1169 1269 bf 6 6 1223 1269 bf 6 6
 1235 1269 bf 6 5 893 1275 bf 6 5 899 1275 bf 6 5 953 1275 bf 6 5 959 1275 bf 6 5 977 1275 bf 0 1 0.8 c 6 5 983 1275 bf 6 5 989 1275 bf 0 0.733333 1 c 6 5 995 1275 bf 6 5 1001 1275 bf 0 1 0.8 c 6 5 1007 1275 bf 0 1 0.333333 c 6 5 1013 1275 bf 0
 0.733333 1 c 6 5 1019 1275 bf 1 0.653333 0 c 6 5 1025 1275 bf 0 1 0.8 c 6 5 1031 1275 bf 0.2 0 1 c 6 5 1037 1275 bf 6 5 1043 1275 bf 0 0.733333 1 c 6 5 1049 1275 bf 0.2 0 1 c 6 5 1061 1275 bf 0 0.266667 1 c 6 5 1067 1275 bf 6 5 1079 1275 bf 0.2 0 1
 c 6 5 1091 1275 bf 0 0.266667 1 c 6 5 1097 1275 bf 0.2 0 1 c 6 5 1127 1275 bf 6 5 1163 1275 bf 6 5 1217 1275 bf 6 5 1283 1275 bf 6 5 845 1280 bf 6 5 857 1280 bf 6 5 893 1280 bf 6 5 923 1280 bf 6 5 935 1280 bf 6 5 947 1280 bf 6 5 959 1280 bf 6 5 971
 1280 bf 6 5 977 1280 bf 0 0.266667 1 c 6 5 983 1280 bf 6 5 989 1280 bf 0 0.733333 1 c 6 5 995 1280 bf 0 1 0.0533333 c 6 5 1001 1280 bf 0 1 0.8 c 6 5 1007 1280 bf 6 5 1013 1280 bf 0 1 0.0533333 c 6 5 1019 1280 bf 0 0.266667 1 c 6 5 1025 1280 bf 0 1
 0.8 c 6 5 1031 1280 bf 0 0.266667 1 c 6 5 1037 1280 bf 0 0.733333 1 c 6 5 1043 1280 bf 6 5 1049 1280 bf 6 5 1055 1280 bf 0 0.266667 1 c 6 5 1061 1280 bf 6 5 1067 1280 bf 6 5 1073 1280 bf 6 5 1079 1280 bf 0 0.733333 1 c 6 5 1091 1280 bf 0.2 0 1 c 6 5
 1121 1280 bf 6 5 1139 1280 bf 6 5 1151 1280 bf 6 5 1157 1280 bf 6 5 1169 1280 bf 6 5 1187 1280 bf 6 5 1235 1280 bf 6 5 755 1285 bf 6 5 839 1285 bf 6 5 905 1285 bf 6 5 923 1285 bf 6 5 941 1285 bf 0 0.266667 1 c 6 5 965 1285 bf 0.2 0 1 c 6 5 977 1285
 bf 0 0.266667 1 c 6 5 983 1285 bf 0.2 0 1 c 6 5 989 1285 bf 0 0.266667 1 c 6 5 995 1285 bf 0 0.733333 1 c 6 5 1001 1285 bf 0 1 0.8 c 6 5 1007 1285 bf 6 5 1013 1285 bf 0 1 0.0533333 c 6 5 1019 1285 bf 0 0.733333 1 c 6 5 1025 1285 bf 1 0.653333 0 c 6
 5 1031 1285 bf 0 0.733333 1 c 6 5 1037 1285 bf 0 0.266667 1 c 6 5 1043 1285 bf 6 5 1049 1285 bf 0.2 0 1 c 6 5 1055 1285 bf 0 1 0.8 c 6 5 1061 1285 bf 6 5 1067 1285 bf 0.2 0 1 c 6 5 1073 1285 bf 6 5 1085 1285 bf 6 5 1091 1285 bf 6 5 1097 1285 bf 6 5
 1103 1285 bf 0 0.266667 1 c 6 5 1109 1285 bf 0.2 0 1 c 6 5 1121 1285 bf 6 5 1127 1285 bf 6 5 1151 1285 bf 6 5 1169 1285 bf 6 5 1205 1285 bf 6 5 1235 1285 bf 6 5 1253 1285 bf 6 6 815 1290 bf 6 6 851 1290 bf 6 6 863 1290 bf 6 6 953 1290 bf 6 6 959
 1290 bf 0 0.733333 1 c 6 6 971 1290 bf 0 0.266667 1 c 6 6 977 1290 bf 6 6 983 1290 bf 0.2 0 1 c 6 6 989 1290 bf 6 6 1001 1290 bf 0 0.733333 1 c 6 6 1007 1290 bf 0 1 0.8 c 6 6 1013 1290 bf 0 0.733333 1 c 6 6 1019 1290 bf 1 0.653333 0 c 6 6 1025 1290
 bf 0 1 0.333333 c 6 6 1031 1290 bf 0 0.733333 1 c 6 6 1037 1290 bf 0 1 0.333333 c 6 6 1043 1290 bf 0 0.733333 1 c 6 6 1049 1290 bf 6 6 1061 1290 bf 0 0.266667 1 c 6 6 1067 1290 bf 0.2 0 1 c 6 6 1073 1290 bf 0 0.733333 1 c 6 6 1079 1290 bf 6 6 1085
 1290 bf 0 0.266667 1 c 6 6 1091 1290 bf 0.2 0 1 c 6 6 1097 1290 bf 6 6 1109 1290 bf 6 6 1127 1290 bf 6 6 1169 1290 bf 6 6 1175 1290 bf 6 6 1205 1290 bf 6 5 887 1296 bf 6 5 899 1296 bf 6 5 935 1296 bf 6 5 941 1296 bf 6 5 947 1296 bf 6 5 965 1296 bf 6
 5 971 1296 bf 0 0.266667 1 c 6 5 1001 1296 bf 6 5 1007 1296 bf 0 0.733333 1 c 6 5 1013 1296 bf 0.2 0 1 c 6 5 1019 1296 bf 6 5 1025 1296 bf 0 1 0.333333 c 6 5 1031 1296 bf 6 5 1037 1296 bf 0.413333 1 0 c 6 5 1043 1296 bf 0 1 0.333333 c 6 5 1049 1296
 bf 0 1 0.8 c 6 5 1055 1296 bf 6 5 1061 1296 bf 6 5 1067 1296 bf 0 0.266667 1 c 6 5 1073 1296 bf 6 5 1079 1296 bf 0.2 0 1 c 6 5 1085 1296 bf 0 0.266667 1 c 6 5 1091 1296 bf 0.2 0 1 c 6 5 1097 1296 bf 6 5 1103 1296 bf 0 0.733333 1 c 6 5 1109 1296 bf
 0.2 0 1 c 6 5 1121 1296 bf 6 5 1133 1296 bf 0 0.266667 1 c 6 5 1139 1296 bf 0 0.733333 1 c 6 5 1145 1296 bf 0.2 0 1 c 6 5 1157 1296 bf 6 5 1223 1296 bf 6 5 869 1301 bf 6 5 929 1301 bf 6 5 935 1301 bf 0 0.266667 1 c 6 5 941 1301 bf 0.2 0 1 c 6 5 953
 1301 bf 6 5 959 1301 bf 6 5 983 1301 bf 6 5 989 1301 bf 6 5 1013 1301 bf 0 0.266667 1 c 6 5 1019 1301 bf 0 1 0.8 c 6 5 1031 1301 bf 0 0.733333 1 c 6 5 1037 1301 bf 0.2 0 1 c 6 5 1043 1301 bf 0 1 0.0533333 c 6 5 1049 1301 bf 0 0.733333 1 c 6 5 1055
 1301 bf 0.413333 1 0 c 6 5 1061 1301 bf 0 0.733333 1 c 6 5 1067 1301 bf 6 5 1073 1301 bf 0.2 0 1 c 6 5 1079 1301 bf 6 5 1085 1301 bf 6 5 1091 1301 bf 0 0.733333 1 c 6 5 1097 1301 bf 0.2 0 1 c 6 5 1109 1301 bf 6 5 1115 1301 bf 0 0.733333 1 c 6 5 1121
 1301 bf 0.2 0 1 c 6 5 1127 1301 bf 6 5 1151 1301 bf 6 5 1169 1301 bf 0 0.266667 1 c 6 5 1187 1301 bf 0.2 0 1 c 6 5 1193 1301 bf 0 0.266667 1 c 6 5 1205 1301 bf 0.2 0 1 c 6 5 1223 1301 bf 6 5 1235 1301 bf 6 5 767 1306 bf 6 5 971 1306 bf 0 0.266667 1
 c 6 5 989 1306 bf 6 5 995 1306 bf 0.2 0 1 c 6 5 1001 1306 bf 6 5 1007 1306 bf 0 0.733333 1 c 6 5 1019 1306 bf 0 0.266667 1 c 6 5 1025 1306 bf 0.2 0 1 c 6 5 1031 1306 bf 0 0.266667 1 c 6 5 1037 1306 bf 6 5 1043 1306 bf 0 1 0.8 c 6 5 1049 1306 bf 6 5
 1055 1306 bf 0 1 0.333333 c 6 5 1061 1306 bf 0 0.733333 1 c 6 5 1067 1306 bf 0.88 1 0 c 6 5 1073 1306 bf 0 0.733333 1 c 6 5 1079 1306 bf 0 1 0.0533333 c 6 5 1085 1306 bf 0.2 0 1 c 6 5 1091 1306 bf 0 0.266667 1 c 6 5 1097 1306 bf 0.2 0 1 c 6 5 1103
 1306 bf 0 1 0.333333 c 6 5 1109 1306 bf 0 0.266667 1 c 6 5 1115 1306 bf 0.2 0 1 c 6 5 1127 1306 bf 6 5 1133 1306 bf 6 5 1139 1306 bf 0 0.266667 1 c 6 5 1145 1306 bf 0.2 0 1 c 6 5 1205 1306 bf 6 5 1211 1306 bf 6 5 1277 1306 bf 6 6 809 1311 bf 6 6 929
 1311 bf 6 6 965 1311 bf 6 6 971 1311 bf 6 6 983 1311 bf 6 6 989 1311 bf 6 6 995 1311 bf 6 6 1007 1311 bf 0 0.266667 1 c 6 6 1019 1311 bf 0.2 0 1 c 6 6 1031 1311 bf 0 0.733333 1 c 6 6 1037 1311 bf 0.2 0 1 c 6 6 1043 1311 bf 0 0.733333 1 c 6 6 1049
 1311 bf 6 6 1055 1311 bf 0 1 0.333333 c 6 6 1061 1311 bf 0 0.266667 1 c 6 6 1067 1311 bf 0 1 0.8 c 6 6 1073 1311 bf 6 6 1079 1311 bf 0.88 1 0 c 6 6 1085 1311 bf 0 1 0.333333 c 6 6 1091 1311 bf 0 1 0.8 c 6 6 1097 1311 bf 0 1 0.333333 c 6 6 1109 1311
 bf 0.2 0 1 c 6 6 1115 1311 bf 0 0.266667 1 c 6 6 1121 1311 bf 6 6 1127 1311 bf 0.2 0 1 c 6 6 1133 1311 bf 6 6 1301 1311 bf 6 5 875 1317 bf 6 5 929 1317 bf 6 5 959 1317 bf 6 5 965 1317 bf 6 5 995 1317 bf 6 5 1007 1317 bf 0 0.266667 1 c 6 5 1025 1317
 bf 0.2 0 1 c 6 5 1037 1317 bf 6 5 1043 1317 bf 0 1 0.333333 c 6 5 1049 1317 bf 0 0.733333 1 c 6 5 1055 1317 bf 0 1 0.8 c 6 5 1061 1317 bf 6 5 1067 1317 bf 0.413333 1 0 c 6 5 1073 1317 bf 0 1 0.333333 c 6 5 1079 1317 bf 0.413333 1 0 c 6 5 1085 1317
 bf 0.2 0 1 c 6 5 1091 1317 bf 6 5 1097 1317 bf 0 0.266667 1 c 6 5 1103 1317 bf 0 0.733333 1 c 6 5 1109 1317 bf 0 0.266667 1 c 6 5 1115 1317 bf 0.2 0 1 c 6 5 1121 1317 bf 0 0.266667 1 c 6 5 1133 1317 bf 0.2 0 1 c 6 5 1139 1317 bf 6 5 1145 1317 bf 0 1
 0.8 c 6 5 1151 1317 bf 0.2 0 1 c 6 5 1175 1317 bf 6 5 1241 1317 bf 6 5 905 1322 bf 6 5 947 1322 bf 0 0.266667 1 c 6 5 971 1322 bf 6 5 1001 1322 bf 0.2 0 1 c 6 5 1007 1322 bf 6 5 1019 1322 bf 6 5 1025 1322 bf 6 5 1031 1322 bf 6 5 1037 1322 bf 0
 0.733333 1 c 6 5 1043 1322 bf 0 0.266667 1 c 6 5 1049 1322 bf 0 1 0.8 c 6 5 1055 1322 bf 6 5 1061 1322 bf 0 0.266667 1 c 6 5 1067 1322 bf 0 1 0.8 c 6 5 1073 1322 bf 0.413333 1 0 c 6 5 1079 1322 bf 0 1 0.0533333 c 6 5 1085 1322 bf 0 1 0.333333 c 6 5
 1091 1322 bf 0 0.733333 1 c 6 5 1097 1322 bf 0 0.266667 1 c 6 5 1103 1322 bf 6 5 1109 1322 bf 0 0.733333 1 c 6 5 1115 1322 bf 0 0.266667 1 c 6 5 1121 1322 bf 0.2 0 1 c 6 5 1127 1322 bf 6 5 1139 1322 bf 6 5 1151 1322 bf 0 0.266667 1 c 6 5 1157 1322
 bf 0.2 0 1 c 6 5 1169 1322 bf 6 5 857 1327 bf 6 5 947 1327 bf 6 5 977 1327 bf 0 0.266667 1 c 6 5 983 1327 bf 0.2 0 1 c 6 5 1007 1327 bf 6 5 1019 1327 bf 0 0.266667 1 c 6 5 1025 1327 bf 0.2 0 1 c 6 5 1031 1327 bf 6 5 1043 1327 bf 0 0.266667 1 c 6 5
 1049 1327 bf 0 1 0.8 c 6 5 1055 1327 bf 0 1 0.333333 c 6 5 1061 1327 bf 0.2 0 1 c 6 5 1067 1327 bf 0 1 0.333333 c 6 5 1073 1327 bf 0.2 0 1 c 6 5 1079 1327 bf 0 1 0.333333 c 6 5 1085 1327 bf 0.413333 1 0 c 6 5 1091 1327 bf 0 1 0.333333 c 6 5 1097
 1327 bf 0.2 0 1 c 6 5 1103 1327 bf 0 0.733333 1 c 6 5 1109 1327 bf 0.413333 1 0 c 6 5 1115 1327 bf 0 1 0.8 c 6 5 1121 1327 bf 0 0.266667 1 c 6 5 1127 1327 bf 6 5 1133 1327 bf 0.2 0 1 c 6 5 1139 1327 bf 6 5 1145 1327 bf 0 0.266667 1 c 6 5 1151 1327
 bf 0.2 0 1 c 6 5 1181 1327 bf 6 6 1031 1332 bf 0 0.266667 1 c 6 6 1037 1332 bf 6 6 1043 1332 bf 6 6 1049 1332 bf 0 0.733333 1 c 6 6 1055 1332 bf 6 6 1067 1332 bf 0.2 0 1 c 6 6 1079 1332 bf 0.88 1 0 c 6 6 1085 1332 bf 0 1 0.0533333 c 6 6 1091 1332 bf
 0.2 0 1 c 6 6 1097 1332 bf 0.413333 1 0 c 6 6 1103 1332 bf 0 0.266667 1 c 6 6 1109 1332 bf 0.2 0 1 c 6 6 1115 1332 bf 0 1 0.333333 c 6 6 1121 1332 bf 0 0.266667 1 c 6 6 1127 1332 bf 0 0.733333 1 c 6 6 1133 1332 bf 0.2 0 1 c 6 6 1139 1332 bf 6 6 1145
 1332 bf 6 6 1151 1332 bf 6 6 1157 1332 bf 6 6 1169 1332 bf 6 6 1193 1332 bf 6 5 815 1338 bf 6 5 899 1338 bf 6 5 947 1338 bf 6 5 959 1338 bf 6 5 1019 1338 bf 6 5 1031 1338 bf 0 0.266667 1 c 6 5 1043 1338 bf 0.2 0 1 c 6 5 1049 1338 bf 0 1 0.8 c 6 5
 1055 1338 bf 0 0.266667 1 c 6 5 1061 1338 bf 0 1 0.8 c 6 5 1067 1338 bf 6 5 1079 1338 bf 0 1 0.333333 c 6 5 1085 1338 bf 0.2 0 1 c 6 5 1091 1338 bf 0 1 0.333333 c 6 5 1097 1338 bf 6 5 1103 1338 bf 0 0.266667 1 c 6 5 1109 1338 bf 0 1 0.8 c 6 5 1115
 1338 bf 0.413333 1 0 c 6 5 1121 1338 bf 0 0.266667 1 c 6 5 1127 1338 bf 0 0.733333 1 c 6 5 1133 1338 bf 0.2 0 1 c 6 5 1139 1338 bf 6 5 1145 1338 bf 0 0.266667 1 c 6 5 1151 1338 bf 0.2 0 1 c 6 5 1157 1338 bf 6 5 1181 1338 bf 6 5 1193 1338 bf 6 5 917
 1343 bf 6 5 935 1343 bf 6 5 941 1343 bf 6 5 977 1343 bf 6 5 1007 1343 bf 6 5 1031 1343 bf 6 5 1043 1343 bf 0 0.266667 1 c 6 5 1049 1343 bf 6 5 1055 1343 bf 0.2 0 1 c 6 5 1061 1343 bf 0 1 0.333333 c 6 5 1067 1343 bf 0 0.266667 1 c 6 5 1073 1343 bf
 0.2 0 1 c 6 5 1079 1343 bf 0 1 0.0533333 c 6 5 1091 1343 bf 0.2 0 1 c 6 5 1097 1343 bf 6 5 1103 1343 bf 6 5 1109 1343 bf 0 1 0.8 c 6 5 1115 1343 bf 0 1 0.0533333 c 6 5 1121 1343 bf 0 1 0.333333 c 6 5 1127 1343 bf 0 0.266667 1 c 6 5 1133 1343 bf 6 5
 1139 1343 bf 6 5 1145 1343 bf 0 1 0.8 c 6 5 1151 1343 bf 0.2 0 1 c 6 5 1157 1343 bf 6 5 1163 1343 bf 6 5 1169 1343 bf 6 5 1175 1343 bf 6 5 1205 1343 bf 6 6 947 1348 bf 6 6 959 1348 bf 6 6 965 1348 bf 6 6 977 1348 bf 6 6 1007 1348 bf 6 6 1019 1348 bf
 6 6 1031 1348 bf 6 6 1061 1348 bf 0 0.266667 1 c 6 6 1067 1348 bf 0.2 0 1 c 6 6 1073 1348 bf 0 0.266667 1 c 6 6 1079 1348 bf 0 0.733333 1 c 6 6 1091 1348 bf 0 0.266667 1 c 6 6 1097 1348 bf 0.2 0 1 c 6 6 1103 1348 bf 0 0.266667 1 c 6 6 1109 1348 bf 0
 1 0.0533333 c 6 6 1115 1348 bf 0 1 0.333333 c 6 6 1121 1348 bf 0 1 0.8 c 6 6 1127 1348 bf 0 0.266667 1 c 6 6 1133 1348 bf 0 1 0.333333 c 6 6 1139 1348 bf 0 0.266667 1 c 6 6 1145 1348 bf 6 6 1151 1348 bf 0.2 0 1 c 6 6 1157 1348 bf 6 6 1163 1348 bf 6
 6 1169 1348 bf 6 6 1175 1348 bf 6 6 1187 1348 bf 6 5 899 1354 bf 6 5 983 1354 bf 6 5 1013 1354 bf 6 5 1019 1354 bf 6 5 1031 1354 bf 0 0.266667 1 c 6 5 1049 1354 bf 6 5 1055 1354 bf 0.2 0 1 c 6 5 1079 1354 bf 0 0.266667 1 c 6 5 1085 1354 bf 6 5 1091
 1354 bf 0.2 0 1 c 6 5 1097 1354 bf 0 1 0.8 c 6 5 1103 1354 bf 0 0.733333 1 c 6 5 1109 1354 bf 0 1 0.333333 c 6 5 1115 1354 bf 0 1 0.8 c 6 5 1121 1354 bf 0 0.266667 1 c 6 5 1127 1354 bf 0 1 0.333333 c 6 5 1133 1354 bf 0 0.733333 1 c 6 5 1139 1354 bf
 0.2 0 1 c 6 5 1145 1354 bf 6 5 1151 1354 bf 6 5 1157 1354 bf 0 0.266667 1 c 6 5 1163 1354 bf 0.2 0 1 c 6 5 1169 1354 bf 6 5 1175 1354 bf 6 5 1187 1354 bf 6 5 1277 1354 bf 6 5 863 1359 bf 6 5 953 1359 bf 6 5 1001 1359 bf 6 5 1049 1359 bf 0 0.266667 1
 c 6 5 1055 1359 bf 0.2 0 1 c 6 5 1061 1359 bf 6 5 1073 1359 bf 6 5 1085 1359 bf 0 1 0.8 c 6 5 1091 1359 bf 6 5 1097 1359 bf 0.2 0 1 c 6 5 1103 1359 bf 6 5 1109 1359 bf 0 0.733333 1 c 6 5 1115 1359 bf 0 0.266667 1 c 6 5 1121 1359 bf 6 5 1127 1359 bf
 0.2 0 1 c 6 5 1133 1359 bf 0 0.266667 1 c 6 5 1139 1359 bf 0.2 0 1 c 6 5 1157 1359 bf 6 5 1205 1359 bf 6 5 977 1364 bf 0 0.266667 1 c 6 5 1001 1364 bf 0.2 0 1 c 6 5 1055 1364 bf 6 5 1061 1364 bf 6 5 1085 1364 bf 0 0.266667 1 c 6 5 1091 1364 bf 6 5
 1097 1364 bf 6 5 1103 1364 bf 0 1 0.333333 c 6 5 1109 1364 bf 0 1 0.0533333 c 6 5 1121 1364 bf 0 0.266667 1 c 6 5 1133 1364 bf 0 1 0.8 c 6 5 1139 1364 bf 6 5 1145 1364 bf 0.2 0 1 c 6 5 1151 1364 bf 6 5 1157 1364 bf 6 5 1163 1364 bf 0 0.266667 1 c 6
 5 1169 1364 bf 0.2 0 1 c 6 5 1175 1364 bf 6 5 1187 1364 bf 6 5 1193 1364 bf 6 5 1199 1364 bf 6 6 1019 1369 bf 6 6 1055 1369 bf 0 0.266667 1 c 6 6 1061 1369 bf 0.2 0 1 c 6 6 1079 1369 bf 0 0.266667 1 c 6 6 1085 1369 bf 0.2 0 1 c 6 6 1091 1369 bf 6 6
 1097 1369 bf 0 0.733333 1 c 6 6 1103 1369 bf 0 0.266667 1 c 6 6 1109 1369 bf 0 1 0.333333 c 6 6 1115 1369 bf 0 0.733333 1 c 6 6 1127 1369 bf 0.413333 1 0 c 6 6 1133 1369 bf 0.2 0 1 c 6 6 1139 1369 bf 0 0.733333 1 c 6 6 1145 1369 bf 0 0.266667 1 c 6
 6 1151 1369 bf 0.2 0 1 c 6 6 1157 1369 bf 0 0.266667 1 c 6 6 1163 1369 bf 6 6 1169 1369 bf 6 6 1187 1369 bf 0.2 0 1 c 6 5 941 1375 bf 0 0.266667 1 c 6 5 1031 1375 bf 0.2 0 1 c 6 5 1049 1375 bf 6 5 1055 1375 bf 0 0.266667 1 c 6 5 1061 1375 bf 6 5
 1067 1375 bf 0.2 0 1 c 6 5 1097 1375 bf 0 0.733333 1 c 6 5 1103 1375 bf 0.2 0 1 c 6 5 1109 1375 bf 6 5 1115 1375 bf 0 0.266667 1 c 6 5 1121 1375 bf 6 5 1127 1375 bf 0.2 0 1 c 6 5 1133 1375 bf 0 1 0.8 c 6 5 1139 1375 bf 6 5 1145 1375 bf 0 0.266667 1
 c 6 5 1151 1375 bf 0 0.733333 1 c 6 5 1157 1375 bf 0 0.266667 1 c 6 5 1163 1375 bf 6 5 1169 1375 bf 0.2 0 1 c 6 5 1181 1375 bf 6 5 1217 1375 bf 6 5 983 1380 bf 6 5 995 1380 bf 6 5 1001 1380 bf 6 5 1007 1380 bf 6 5 1013 1380 bf 6 5 1031 1380 bf 0
 0.266667 1 c 6 5 1091 1380 bf 6 5 1115 1380 bf 0.2 0 1 c 6 5 1121 1380 bf 0 0.266667 1 c 6 5 1127 1380 bf 0 1 0.8 c 6 5 1139 1380 bf 0 0.266667 1 c 6 5 1145 1380 bf 6 5 1151 1380 bf 0.2 0 1 c 6 5 1175 1380 bf 6 5 1181 1380 bf 6 5 1187 1380 bf 6 5
 1193 1380 bf 6 5 911 1385 bf 6 5 983 1385 bf 6 5 1079 1385 bf 6 5 1085 1385 bf 6 5 1097 1385 bf 6 5 1103 1385 bf 6 5 1109 1385 bf 6 5 1115 1385 bf 6 5 1121 1385 bf 6 5 1139 1385 bf 0 1 0.8 c 6 5 1145 1385 bf 0 0.733333 1 c 6 5 1157 1385 bf 6 5 1169
 1385 bf 0 0.266667 1 c 6 5 1181 1385 bf 0 0.733333 1 c 6 5 1187 1385 bf 0.2 0 1 c 6 5 1199 1385 bf 6 6 959 1390 bf 6 6 1073 1390 bf 6 6 1103 1390 bf 6 6 1115 1390 bf 0 0.266667 1 c 6 6 1121 1390 bf 6 6 1139 1390 bf 0.2 0 1 c 6 6 1151 1390 bf 0
 0.733333 1 c 6 6 1157 1390 bf 0 0.266667 1 c 6 6 1169 1390 bf 6 6 1175 1390 bf 0.2 0 1 c 6 6 1181 1390 bf 6 6 1217 1390 bf 6 5 875 1396 bf 6 5 1043 1396 bf 6 5 1079 1396 bf 6 5 1091 1396 bf 6 5 1109 1396 bf 6 5 1127 1396 bf 6 5 1139 1396 bf 6 5 1145
 1396 bf 6 5 1163 1396 bf 6 5 1169 1396 bf 6 5 1181 1396 bf 6 5 1187 1396 bf 6 5 1199 1396 bf 6 5 1205 1396 bf 6 5 1019 1401 bf 6 5 1115 1401 bf 6 5 1133 1401 bf 6 5 1139 1401 bf 6 5 1151 1401 bf 0 0.266667 1 c 6 5 1157 1401 bf 0.2 0 1 c 6 5 1169
 1401 bf 6 5 1181 1401 bf 0 1 0.8 c 6 5 1193 1401 bf 0.2 0 1 c 6 5 1133 1406 bf 6 5 1163 1406 bf 0 0.266667 1 c 6 5 1181 1406 bf 0.2 0 1 c 6 5 1229 1406 bf 6 6 743 1411 bf 6 6 791 1411 bf 6 6 851 1411 bf 6 6 1085 1411 bf 6 6 1115 1411 bf 6 6 1133
 1411 bf 6 6 1169 1411 bf 6 6 1187 1411 bf 6 5 815 1417 bf 6 5 1037 1417 bf 6 5 1043 1417 bf 6 5 1049 1417 bf 6 5 1103 1417 bf 6 5 1127 1417 bf 6 5 1151 1417 bf 6 5 1175 1417 bf 6 5 1181 1417 bf 6 5 1187 1417 bf 6 5 1205 1417 bf 6 5 839 1422 bf 6 5
 1043 1422 bf 6 5 1055 1422 bf 6 5 1067 1422 bf 0 0.266667 1 c 6 5 1127 1422 bf 0.2 0 1 c 6 5 1139 1422 bf 6 5 1145 1422 bf 6 5 1157 1422 bf 6 5 1199 1422 bf 6 5 953 1427 bf 6 5 1091 1427 bf 6 5 1127 1427 bf 6 5 1175 1427 bf 6 5 1181 1427 bf 6 6 791
 1432 bf 6 6 1091 1432 bf 0 0.266667 1 c 6 5 1097 1438 bf 0.2 0 1 c 6 5 1175 1438 bf 6 5 1187 1438 bf 6 5 1025 1443 bf 6 6 821 1448 bf 6 6 959 1448 bf 6 6 1247 1448 bf 6 5 941 1454 bf 6 5 761 1459 bf 6 5 803 1464 bf 6 5 947 1464 bf 6 6 1019 1469 bf 6
 6 1067 1469 bf 6 5 1073 1480 bf 6 5 881 1485 bf 6 5 1067 1485 bf 6 5 1181 1485 bf 6 5 1055 1522 bf 6 5 923 1527 bf 6 5 1061 1538 bf 6 5 701 1543 bf 6 6 617 1569 bf 6 5 941 1575 bf 6 5 527 1601 bf 6 5 311 1822 bf 6 5 311 1838 bf 0.49 0.6 0.82 c black
 311 322 m 1801 X s 592 373 m -51 Y s 665 347 m -25 Y s 738 347 m -25 Y s 811 347 m -25 Y s 883 373 m -51 Y s 956 347 m -25 Y s 1029 347 m -25 Y s 1102 347 m -25 Y s 1175 373 m -51 Y s 1248 347 m -25 Y s 1321 347 m -25 Y s 1394 347 m -25 Y s 1467 373
 m -51 Y s 1539 347 m -25 Y s 1612 347 m -25 Y s 1685 347 m -25 Y s 1758 373 m -51 Y s 1831 347 m -25 Y s 1904 347 m -25 Y s 1977 347 m -25 Y s 2050 373 m -51 Y s 592 373 m -51 Y s 519 347 m -25 Y s 446 347 m -25 Y s 373 347 m -25 Y s 2050 373 m -51
 Y s
 gsave  2222 2089 23 21 C 581.174 222.213 t 0 r /Helvetica findfont 91.294 sf 0 0 m (4) show NC gr 
 gsave  2222 2089 23 21 C 535.591 222.213 t 0 r /Symbol findfont 91.294 sf 0 0 m (-) show NC gr 
 gsave  2222 2089 23 21 C 877.458 222.213 t 0 r /Helvetica findfont 91.294 sf 0 0 m (2) show NC gr 
 gsave  2222 2089 23 21 C 831.876 222.213 t 0 r /Symbol findfont 91.294 sf 0 0 m (-) show NC gr 
 gsave  2222 2089 23 21 C 1145.25 222.213 t 0 r /Helvetica findfont 91.294 sf 0 0 m (0) show NC gr 
 gsave  2222 2089 23 21 C 1435.84 222.213 t 0 r /Helvetica findfont 91.294 sf 0 0 m (2) show NC gr 
 gsave  2222 2089 23 21 C 1726.43 222.213 t 0 r /Helvetica findfont 91.294 sf 0 0 m (4) show NC gr 
 gsave  2222 2089 23 21 C 2017.01 222.213 t 0 r /Helvetica findfont 91.294 sf 0 0 m (6) show NC gr 
 gsave  2222 2089 23 21 C 1475.73 62.6756 t 0 r /Helvetica findfont 102.706 sf 0 0 m (Variable 1  [F]) show NC gr  311 1901 m 1801 X s 592 1850 m 51 Y s 665 1875 m 26 Y s 738 1875 m 26 Y s 811 1875 m 26 Y s 883 1850 m 51 Y s 956 1875 m 26 Y s 1029
 1875 m 26 Y s 1102 1875 m 26 Y s 1175 1850 m 51 Y s 1248 1875 m 26 Y s 1321 1875 m 26 Y s 1394 1875 m 26 Y s 1467 1850 m 51 Y s 1539 1875 m 26 Y s 1612 1875 m 26 Y s 1685 1875 m 26 Y s 1758 1850 m 51 Y s 1831 1875 m 26 Y s 1904 1875 m 26 Y s 1977
 1875 m 26 Y s 2050 1850 m 51 Y s 592 1850 m 51 Y s 519 1875 m 26 Y s 446 1875 m 26 Y s 373 1875 m 26 Y s 2050 1850 m 51 Y s 311 322 m 1579 Y s 361 370 m -50 X s 336 434 m -25 X s 336 498 m -25 X s 336 562 m -25 X s 361 626 m -50 X s 336 690 m -25 X
 s 336 754 m -25 X s 336 819 m -25 X s 361 883 m -50 X s 336 947 m -25 X s 336 1011 m -25 X s 336 1075 m -25 X s 361 1139 m -50 X s 336 1203 m -25 X s 336 1268 m -25 X s 336 1332 m -25 X s 361 1396 m -50 X s 336 1460 m -25 X s 336 1524 m -25 X s 336
 1588 m -25 X s 361 1652 m -50 X s 361 370 m -50 X s 361 1652 m -50 X s 336 1717 m -25 X s 336 1781 m -25 X s 336 1845 m -25 X s
 gsave  2222 2089 23 21 C 227.911 336.169 t 0 r /Helvetica findfont 91.294 sf 0 0 m (6) show NC gr 
 gsave  2222 2089 23 21 C 176.631 336.169 t 0 r /Symbol findfont 91.294 sf 0 0 m (-) show NC gr 
 gsave  2222 2089 23 21 C 227.911 586.871 t 0 r /Helvetica findfont 91.294 sf 0 0 m (4) show NC gr 
 gsave  2222 2089 23 21 C 176.631 586.871 t 0 r /Symbol findfont 91.294 sf 0 0 m (-) show NC gr 
 gsave  2222 2089 23 21 C 227.911 843.271 t 0 r /Helvetica findfont 91.294 sf 0 0 m (2) show NC gr 
 gsave  2222 2089 23 21 C 176.631 843.271 t 0 r /Symbol findfont 91.294 sf 0 0 m (-) show NC gr 
 gsave  2222 2089 23 21 C 227.911 1105.37 t 0 r /Helvetica findfont 91.294 sf 0 0 m (0) show NC gr 
 gsave  2222 2089 23 21 C 227.911 1356.07 t 0 r /Helvetica findfont 91.294 sf 0 0 m (2) show NC gr 
 gsave  2222 2089 23 21 C 227.911 1618.17 t 0 r /Helvetica findfont 91.294 sf 0 0 m (4) show NC gr 
 gsave  2222 2089 23 21 C 102.56 1270.6 t 90 r /Helvetica findfont 102.706 sf 0 0 m (Variable 2  [F]) show NC gr  2112 322 m 1579 Y s 2061 370 m 51 X s 2086 434 m 26 X s 2086 498 m 26 X s 2086 562 m 26 X s 2061 626 m 51 X s 2086 690 m 26 X s 2086 754
 m 26 X s 2086 819 m 26 X s 2061 883 m 51 X s 2086 947 m 26 X s 2086 1011 m 26 X s 2086 1075 m 26 X s 2061 1139 m 51 X s 2086 1203 m 26 X s 2086 1268 m 26 X s 2086 1332 m 26 X s 2061 1396 m 51 X s 2086 1460 m 26 X s 2086 1524 m 26 X s 2086 1588 m 26
 X s 2061 1652 m 51 X s 2061 370 m 51 X s 2061 1652 m 51 X s 2086 1717 m 26 X s 2086 1781 m 26 X s 2086 1845 m 26 X s 1 0 0 c 0.81 0.37 0.38 c 1 0 0 c 333 1825 m 5 Y s 333 1830 m 6 Y s 311 1830 m 22 X s 333 1830 m 23 X s 322 1825 m 23 X s 322 1836 m
 23 X s 311 1819 m 23 Y s 356 1819 m 23 Y s /w 2 def /w2 {w 2 div} def /w3 {w 3 div} def 333 1830 m20 491 1605 m 22 X s 513 1605 m 23 X s 491 1594 m 22 Y s 536 1594 m 22 Y s 513 1605 m20 581 1572 m 22 X s 603 1572 m 23 X s 581 1561 m 22 Y s 626 1561
 m 22 Y s 603 1572 m20 671 1544 m 22 X s 693 1544 m 23 X s 671 1533 m 22 Y s 716 1533 m 22 Y s 693 1544 m20 738 1304 m 45 Y s 738 1349 m 45 Y s 716 1349 m 22 X s 738 1349 m 23 X s 727 1304 m 23 X s 727 1394 m 23 X s 716 1338 m 22 Y s 761 1338 m 22 Y
 s 738 1349 m20 783 1390 m 27 Y s 783 1417 m 26 Y s 761 1417 m 22 X s 783 1417 m 23 X s 772 1390 m 23 X s 772 1443 m 23 X s 761 1405 m 23 Y s 806 1405 m 23 Y s 783 1417 m20 828 1250 m 25 Y s 828 1275 m 25 Y s 806 1275 m 22 X s 828 1275 m 23 X s 817
 1250 m 23 X s 817 1300 m 23 X s 806 1264 m 22 Y s 851 1264 m 22 Y s 828 1275 m20 874 1206 m 8 Y s 874 1214 m 7 Y s 851 1214 m 23 X s 874 1214 m 22 X s 862 1206 m 23 X s 862 1221 m 23 X s 851 1202 m 23 Y s 896 1202 m 23 Y s 874 1214 m20 919 1216 m 3
 Y s 919 1219 m 4 Y s 896 1219 m 23 X s 919 1219 m 22 X s 907 1216 m 23 X s 907 1223 m 23 X s 896 1208 m 23 Y s 941 1208 m 23 Y s 919 1219 m20 964 1237 m 3 Y s 964 1240 m 2 Y s 941 1240 m 23 X s 964 1240 m 22 X s 952 1237 m 23 X s 952 1242 m 23 X s
 941 1228 m 23 Y s 986 1228 m 23 Y s 964 1240 m20 1009 1253 m 3 Y s 1009 1256 m 3 Y s 986 1256 m 23 X s 1009 1256 m 22 X s 997 1253 m 23 X s 997 1259 m 23 X s 986 1245 m 22 Y s 1031 1245 m 22 Y s 1009 1256 m20 1054 1283 m 3 Y s 1054 1286 m 3 Y s 1031
 1286 m 23 X s 1054 1286 m 22 X s 1042 1283 m 23 X s 1042 1289 m 23 X s 1031 1275 m 22 Y s 1076 1275 m 22 Y s 1054 1286 m20 1099 1287 m 5 Y s 1099 1292 m 5 Y s 1076 1292 m 23 X s 1099 1292 m 22 X s 1087 1287 m 23 X s 1087 1297 m 23 X s 1076 1281 m 22
 Y s 1121 1281 m 22 Y s 1099 1292 m20 1144 1238 m 9 Y s 1144 1247 m 9 Y s 1121 1247 m 23 X s 1144 1247 m 22 X s 1132 1238 m 23 X s 1132 1256 m 23 X s 1121 1236 m 22 Y s 1166 1236 m 22 Y s 1144 1247 m20 1189 1062 m 11 Y s 1189 1073 m 10 Y s 1166 1073
 m 23 X s 1189 1073 m 22 X s 1177 1062 m 23 X s 1177 1083 m 23 X s 1166 1061 m 23 Y s 1211 1061 m 23 Y s 1189 1073 m20 1234 981 m 5 Y s 1234 986 m 6 Y s 1211 986 m 23 X s 1234 986 m 22 X s 1222 981 m 23 X s 1222 992 m 23 X s 1211 975 m 23 Y s 1256
 975 m 23 Y s 1234 986 m20 1279 989 m 4 Y s 1279 993 m 4 Y s 1256 993 m 23 X s 1279 993 m 22 X s 1267 989 m 23 X s 1267 997 m 23 X s 1256 982 m 22 Y s 1301 982 m 22 Y s 1279 993 m20 1324 1003 m 3 Y s 1324 1006 m 3 Y s 1301 1006 m 23 X s 1324 1006 m
 22 X s 1312 1003 m 23 X s 1312 1009 m 23 X s 1301 994 m 23 Y s 1346 994 m 23 Y s 1324 1006 m20 1369 1028 m 3 Y s 1369 1031 m 2 Y s 1346 1031 m 23 X s 1369 1031 m 22 X s 1357 1028 m 23 X s 1357 1033 m 23 X s 1346 1019 m 23 Y s 1391 1019 m 23 Y s 1369
 1031 m20 1414 1047 m 3 Y s 1414 1050 m 4 Y s 1391 1050 m 23 X s 1414 1050 m 22 X s 1402 1047 m 23 X s 1402 1054 m 23 X s 1391 1039 m 23 Y s 1436 1039 m 23 Y s 1414 1050 m20 1459 1060 m 5 Y s 1459 1065 m 4 Y s 1436 1065 m 23 X s 1459 1065 m 22 X s
 1447 1060 m 23 X s 1447 1069 m 23 X s 1436 1053 m 23 Y s 1481 1053 m 23 Y s 1459 1065 m20 1504 1036 m 14 Y s 1504 1050 m 15 Y s 1481 1050 m 23 X s 1504 1050 m 22 X s 1492 1036 m 23 X s 1492 1065 m 23 X s 1481 1039 m 23 Y s 1526 1039 m 23 Y s 1504
 1050 m20 1549 954 m 18 Y s 1549 972 m 19 Y s 1526 972 m 23 X s 1549 972 m 22 X s 1537 954 m 23 X s 1537 991 m 23 X s 1526 961 m 23 Y s 1571 961 m 23 Y s 1549 972 m20 1594 772 m 57 Y s 1594 829 m 56 Y s 1571 829 m 23 X s 1594 829 m 22 X s 1583 772 m
 22 X s 1583 885 m 22 X s 1571 817 m 23 Y s 1616 817 m 23 Y s 1594 829 m20 1639 709 m 61 Y s 1639 770 m 61 Y s 1616 770 m 23 X s 1639 770 m 22 X s 1628 709 m 22 X s 1628 831 m 22 X s 1616 759 m 22 Y s 1661 759 m 22 Y s 1639 770 m20 1661 620 m 23 X s
 1684 620 m 22 X s 1661 608 m 23 Y s 1706 608 m 23 Y s 1684 620 m20 1797 658 m 22 X s 1819 658 m 23 X s 1797 646 m 23 Y s 1842 646 m 23 Y s 1819 658 m20 black 311 322 m 1801 X s 592 373 m -51 Y s 665 347 m -25 Y s 738 347 m -25 Y s 811 347 m -25 Y s
 883 373 m -51 Y s 956 347 m -25 Y s 1029 347 m -25 Y s 1102 347 m -25 Y s 1175 373 m -51 Y s 1248 347 m -25 Y s 1321 347 m -25 Y s 1394 347 m -25 Y s 1467 373 m -51 Y s 1539 347 m -25 Y s 1612 347 m -25 Y s 1685 347 m -25 Y s 1758 373 m -51 Y s 1831
 347 m -25 Y s 1904 347 m -25 Y s 1977 347 m -25 Y s 2050 373 m -51 Y s 592 373 m -51 Y s 519 347 m -25 Y s 446 347 m -25 Y s 373 347 m -25 Y s 2050 373 m -51 Y s 311 1901 m 1801 X s 592 1850 m 51 Y s 665 1875 m 26 Y s 738 1875 m 26 Y s 811 1875 m 26
 Y s 883 1850 m 51 Y s 956 1875 m 26 Y s 1029 1875 m 26 Y s 1102 1875 m 26 Y s 1175 1850 m 51 Y s 1248 1875 m 26 Y s 1321 1875 m 26 Y s 1394 1875 m 26 Y s 1467 1850 m 51 Y s 1539 1875 m 26 Y s 1612 1875 m 26 Y s 1685 1875 m 26 Y s 1758 1850 m 51 Y s
 1831 1875 m 26 Y s 1904 1875 m 26 Y s 1977 1875 m 26 Y s 2050 1850 m 51 Y s 592 1850 m 51 Y s 519 1875 m 26 Y s 446 1875 m 26 Y s 373 1875 m 26 Y s 2050 1850 m 51 Y s 311 322 m 1579 Y s 361 370 m -50 X s 336 434 m -25 X s 336 498 m -25 X s 336 562 m
 -25 X s 361 626 m -50 X s 336 690 m -25 X s 336 754 m -25 X s 336 819 m -25 X s 361 883 m -50 X s 336 947 m -25 X s 336 1011 m -25 X s 336 1075 m -25 X s 361 1139 m -50 X s 336 1203 m -25 X s 336 1268 m -25 X s 336 1332 m -25 X s 361 1396 m -50 X s
 336 1460 m -25 X s 336 1524 m -25 X s 336 1588 m -25 X s 361 1652 m -50 X s 361 370 m -50 X s 361 1652 m -50 X s 336 1717 m -25 X s 336 1781 m -25 X s 336 1845 m -25 X s 2112 322 m 1579 Y s 2061 370 m 51 X s 2086 434 m 26 X s 2086 498 m 26 X s 2086
 562 m 26 X s 2061 626 m 51 X s 2086 690 m 26 X s 2086 754 m 26 X s 2086 819 m 26 X s 2061 883 m 51 X s 2086 947 m 26 X s 2086 1011 m 26 X s 2086 1075 m 26 X s 2061 1139 m 51 X s 2086 1203 m 26 X s 2086 1268 m 26 X s 2086 1332 m 26 X s 2061 1396 m 51
 X s 2086 1460 m 26 X s 2086 1524 m 26 X s 2086 1588 m 26 X s 2061 1652 m 51 X s 2061 370 m 51 X s 2061 1652 m 51 X s 2086 1717 m 26 X s 2086 1781 m 26 X s 2086 1845 m 26 X s 0.490196 0.545098 0.615686 c 0.364706 0.419608 0.490196 c 1556 123 45 1976
 bf 0.490196 0.545098 0.615686 c 45 1976 m 1556 X s 1601 1976 m 123 Y s 1601 2099 m -1556 X s 45 2099 m -123 Y s 1 1 1 c black 1 1 1 c
 gsave  2222 2089 23 21 C 85.4667 2017.01 t 0 r /Helvetica-Bold findfont 68.4705 sf 0 0 m (Variable 2 versus Variable 1 \(Background\)_Id) show NC gr 
 gr  gr showpage
end
%%EOF
