%!PS-Adobe-2.0 EPSF-2.0
%%BoundingBox:  0 0 567 533
%%Title: dataset/plots/correlationscatter_x__PCA_c2.eps: Correlation profiles for 'PCA'-transformed background variables
%%Creator: ROOT Version 6.12/06
%%CreationDate: Mon May 21 12:02:48 2018
%%DocumentNeededResources: ProcSet (FontSetInit)
%%EndComments
%%BeginProlog
80 dict begin
/s {stroke} def /l {lineto} def /m {moveto} def /t {translate} def
/r {rotate} def /rl {roll}  def /R {repeat} def
/d {rlineto} def /rm {rmoveto} def /gr {grestore} def /f {eofill} def
/c {setrgbcolor} def /black {0 setgray} def /sd {setdash} def
/cl {closepath} def /sf {scalefont setfont} def /lw {setlinewidth} def
/box {m dup 0 exch d exch 0 d 0 exch neg d cl} def
/NC{systemdict begin initclip end}def/C{NC box clip newpath}def
/bl {box s} def /bf {gsave box gsave f grestore 1 lw [] 0 sd s grestore} def /Y { 0 exch d} def /X { 0 d} def 
/K {{pop pop 0 moveto} exch kshow} bind def
/ita {/ang 15 def gsave [1 0 ang dup sin exch cos div 1 0 0] concat} def 
/mp {newpath /y exch def /x exch def} def
/side {[w .77 mul w .23 mul] .385 w mul sd w 0 l currentpoint t -144 r} def
/mr {mp x y w2 0 360 arc} def /m24 {mr s} def /m20 {mr f} def
/mb {mp x y w2 add m w2 neg 0 d 0 w neg d w 0 d 0 w d cl} def
/mt {mp x y w2 add m w2 neg w neg d w 0 d cl} def
/w4 {w 4 div} def
/w6 {w 6 div} def
/w8 {w 8 div} def
/m21 {mb f} def /m25 {mb s} def /m22 {mt f} def /m26{mt s} def
/m23 {mp x y w2 sub m w2 w d w neg 0 d cl f} def
/m27 {mp x y w2 add m w3 neg w2 neg d w3 w2 neg d w3 w2 d cl s} def
/m28 {mp x w2 sub y w2 sub w3 add m w3 0 d  0 w3 neg d w3 0 d 0 w3 d w3 0 d  0 w3 d w3 neg 0 d 0 w3 d w3 neg 0 d 0 w3 neg d w3 neg 0 d cl s } def
/m29 {mp gsave x w2 sub y w2 add w3 sub m currentpoint t 4 {side} repeat cl fill gr} def
/m30 {mp gsave x w2 sub y w2 add w3 sub m currentpoint t 4 {side} repeat cl s gr} def
/m31 {mp x y w2 sub m 0 w d x w2 sub y m w 0 d x w2 sub y w2 add m w w neg d x w2 sub y w2 sub m w w d s} def
/m32 {mp x y w2 sub m w2 w d w neg 0 d cl s} def
/m33 {mp x y w2 add m w3 neg w2 neg d w3 w2 neg d w3 w2 d cl f} def
/m34 {mp x w2 sub y w2 sub w3 add m w3 0 d  0 w3 neg d w3 0 d 0 w3 d w3 0 d  0 w3 d w3 neg 0 d 0 w3 d w3 neg 0 d 0 w3 neg d w3 neg 0 d cl f } def
/m35 {mp x y w2 add m w2 neg w2 neg d w2 w2 neg d w2 w2 d w2 neg w2 d x y w2 sub m 0 w d x w2 sub y m w 0 d s} def
/m36 {mb x w2 sub y w2 add m w w neg d x w2 sub y w2 sub m w w d s} def
/m37 {mp x y m w4 neg w2 d w4 neg w2 neg d w2 0 d  w4 neg w2 neg d w2 0 d w4 neg w2 d w2 0 d w4 neg w2 d w4 neg w2 neg d cl s} def
/m38 {mp x w4 sub y w2 add m w4 neg w4 neg d 0 w2 neg d w4 w4 neg d w2 0 d w4 w4 d 0 w2 d w4 neg w4 d w2 neg 0 d x y w2 sub m 0 w d x w2 sub y m w 0 d cl s} def
/m39 {mp x y m w4 neg w2 d w4 neg w2 neg d w2 0 d  w4 neg w2 neg d w2 0 d w4 neg w2 d w2 0 d w4 neg w2 d w4 neg w2 neg d cl f} def
/m40 {mp x y m w4 w2 d w4 w4 neg d w2 neg w4 neg d w2 w4 neg d w4 neg w4 neg d w4 neg w2 d w4 neg w2 neg d w4 neg w4 d w2 w4 d w2 neg w4 d w4 w4 d w4 w2 neg d cl s} def
/m41 {mp x y m w4 w2 d w4 w4 neg d w2 neg w4 neg d w2 w4 neg d w4 neg w4 neg d w4 neg w2 d w4 neg w2 neg d w4 neg w4 d w2 w4 d w2 neg w4 d w4 w4 d w4 w2 neg d cl f} def
/m42 {mp x y w2 add m w8 neg w2 -3 4 div mul d w2 -3 4 div mul w8 neg d w2 3 4 div mul w8 neg d w8 w2 -3 4 div mul d w8 w2 3 4 div mul d w2 3 4 div mul w8 d w2 -3 4 div mul w8 d w8 neg w2 3 4 div mul d cl s} def
/m43 {mp x y w2 add m w8 neg w2 -3 4 div mul d w2 -3 4 div mul w8 neg d w2 3 4 div mul w8 neg d w8 w2 -3 4 div mul d w8 w2 3 4 div mul d w2 3 4 div mul w8 d w2 -3 4 div mul w8 d w8 neg w2 3 4 div mul d cl f} def
/m44 {mp x y m w6 neg w2 d w2 2 3 div mul 0 d w6 neg w2 neg d w2 w6 d 0 w2 -2 3 div mul d w2 neg w6 d w6 w2 neg d w2 -2 3 div mul 0 d w6 w2 d w2 neg w6 neg d 0 w2 2 3 div mul d w2 w6 neg d cl s} def
/m45 {mp x y m w6 neg w2 d w2 2 3 div mul 0 d w6 neg w2 neg d w2 w6 d 0 w2 -2 3 div mul d w2 neg w6 d w6 w2 neg d w2 -2 3 div mul 0 d w6 w2 d w2 neg w6 neg d 0 w2 2 3 div mul d w2 w6 neg d cl f} def
/m46 {mp x y w4 add m w4 neg w4 d w4 neg w4 neg d  w4 w4 neg d w4 neg w4 neg d w4 w4 neg d w4 w4 d w4 w4 neg d w4 w4 d w4 neg w4 d w4 w4 d w4 neg w4 d w4 neg w4 neg d cl s} def
/m47 {mp x y w4 add m w4 neg w4 d w4 neg w4 neg d w4 w4 neg d w4 neg w4 neg d  w4 w4 neg d w4 w4 d w4 w4 neg d w4 w4 d w4 neg w4 d w4 w4 d w4 neg w4 d w4 neg w4 neg d cl f} def
/m48 {mp x y w4 add m w4 neg w4 d w4 neg w4 neg d w4 w4 neg d  w4 neg w4 neg d w4 w4 neg d w4 w4 d w4 w4 neg d w4 w4 d w4 neg w4 d w4 w4 d w4 neg w4 d w4 neg w4 neg d  w4 w4 neg d w4 neg w4 neg d w4 neg w4 d w4 w4 d cl f} def
/m49 {mp x w2 sub w3 add y w2 sub w3 add m  0 w3 neg d w3 0 d 0 w3 d w3 0 d 0 w3 d w3 neg 0 d 0 w3 d w3 neg 0 d 0 w3 neg d w3 neg 0 d 0 w3 neg d w3 0 d 0 w3 d w3 0 d 0 w3 neg d w3 neg 0 d cl f } def
/m2 {mp x y w2 sub m 0 w d x w2 sub y m w 0 d s} def
/m5 {mp x w2 sub y w2 sub m w w d x w2 sub y w2 add m w w neg d s} def
%%IncludeResource: ProcSet (FontSetInit)
%%IncludeResource: font Times-Roman
%%IncludeResource: font Times-Italic
%%IncludeResource: font Times-Bold
%%IncludeResource: font Times-BoldItalic
%%IncludeResource: font Helvetica
%%IncludeResource: font Helvetica-Oblique
%%IncludeResource: font Helvetica-Bold
%%IncludeResource: font Helvetica-BoldOblique
%%IncludeResource: font Courier
%%IncludeResource: font Courier-Oblique
%%IncludeResource: font Courier-Bold
%%IncludeResource: font Courier-BoldOblique
%%IncludeResource: font Symbol
%%IncludeResource: font ZapfDingbats
/reEncode {exch findfont dup length dict begin {1 index /FID eq  {pop pop} {def} ifelse } forall /Encoding exch def currentdict end dup /FontName get exch definefont pop } def [/Times-Bold /Times-Italic /Times-BoldItalic /Helvetica /Helvetica-Oblique
 /Helvetica-Bold /Helvetica-BoldOblique /Courier /Courier-Oblique /Courier-Bold /Courier-BoldOblique /Times-Roman /AvantGarde-Book /AvantGarde-BookOblique /AvantGarde-Demi /AvantGarde-DemiOblique /Bookman-Demi /Bookman-DemiItalic /Bookman-Light
 /Bookman-LightItalic /Helvetica-Narrow /Helvetica-Narrow-Bold /Helvetica-Narrow-BoldOblique /Helvetica-Narrow-Oblique /NewCenturySchlbk-Roman /NewCenturySchlbk-Bold /NewCenturySchlbk-BoldItalic /NewCenturySchlbk-Italic /Palatino-Bold
 /Palatino-BoldItalic /Palatino-Italic /Palatino-Roman ] {ISOLatin1Encoding reEncode } forall
%%EndProlog
%%BeginSetup
%%EndSetup
newpath  gsave  .25 .25 scale  gsave  0 0 t 0.490196 0.545098 0.615686 c[  ] 0 sd 3 lw 0.941176 0.941176 0.941176 c 2268 2131 0 0 bf 0.490196 0.545098 0.615686 c 0.941176 0.941176 0.941176 c 2222 2089 23 21 bf black 1 1 0.992157 c 1801 1579 311 322
 bf black 1801 1579 311 322 bl 1 1 0.992157 c 1801 1579 311 322 bf black 1801 1579 311 322 bl 0.49 0.6 0.82 c 0.2 0 1 c 6 5 953 322 bf 6 5 1061 617 bf 6 5 959 659 bf 6 5 947 696 bf 6 5 995 717 bf 6 6 977 748 bf 6 6 1061 748 bf 6 5 797 801 bf 6 5 1067
 806 bf 6 5 815 843 bf 6 5 899 843 bf 6 5 989 843 bf 6 5 1199 854 bf 6 5 893 864 bf 6 6 1157 869 bf 6 5 995 875 bf 6 5 1091 875 bf 6 5 1127 880 bf 6 5 1145 880 bf 6 5 1121 885 bf 6 6 1007 890 bf 6 5 917 896 bf 6 5 983 896 bf 6 5 1025 896 bf 6 5 845
 901 bf 6 5 1121 906 bf 6 6 1007 911 bf 6 6 1043 911 bf 6 6 1091 911 bf 6 6 1097 911 bf 6 6 1181 911 bf 6 5 869 917 bf 6 5 1133 917 bf 6 5 1217 917 bf 6 5 941 922 bf 6 5 977 922 bf 6 5 1019 922 bf 6 5 1073 922 bf 6 5 1097 922 bf 6 5 1151 922 bf 6 5
 1013 927 bf 6 5 1139 927 bf 6 5 1145 927 bf 6 6 893 932 bf 6 6 1037 932 bf 6 6 1109 932 bf 6 6 1151 932 bf 6 5 1073 938 bf 6 5 1103 938 bf 6 5 947 943 bf 6 5 1019 943 bf 6 5 1025 943 bf 0 0.266667 1 c 6 5 1055 943 bf 0.2 0 1 c 6 5 1187 943 bf 6 6
 845 948 bf 6 6 929 948 bf 6 6 941 948 bf 6 6 959 948 bf 6 6 1037 948 bf 6 6 1097 948 bf 6 6 1127 948 bf 6 6 1145 948 bf 6 6 1193 948 bf 6 5 941 954 bf 6 5 983 954 bf 6 5 989 954 bf 6 5 1019 954 bf 6 5 1067 954 bf 6 5 1073 954 bf 6 5 1091 954 bf 6 5
 845 959 bf 6 5 923 959 bf 6 5 983 959 bf 6 5 989 959 bf 6 5 995 959 bf 6 5 1019 959 bf 0 0.266667 1 c 6 5 1043 959 bf 0.2 0 1 c 6 5 1055 959 bf 6 5 1061 959 bf 6 5 1073 959 bf 0 0.266667 1 c 6 5 1091 959 bf 0.2 0 1 c 6 5 1109 959 bf 6 5 1115 959 bf
 6 5 1157 959 bf 6 5 1169 959 bf 0 0.266667 1 c 6 5 1175 959 bf 0.2 0 1 c 6 5 1205 959 bf 6 5 1217 959 bf 6 5 1001 964 bf 6 5 1025 964 bf 6 5 1031 964 bf 6 5 1037 964 bf 0 0.266667 1 c 6 5 1055 964 bf 0.2 0 1 c 6 5 1067 964 bf 6 5 1091 964 bf 6 5
 1097 964 bf 0 0.266667 1 c 6 5 1103 964 bf 0.2 0 1 c 6 5 1115 964 bf 6 5 1127 964 bf 6 5 1133 964 bf 6 5 1163 964 bf 6 5 1181 964 bf 6 5 1199 964 bf 6 6 923 969 bf 6 6 935 969 bf 6 6 953 969 bf 6 6 983 969 bf 6 6 995 969 bf 6 6 1043 969 bf 6 6 1049
 969 bf 6 6 1055 969 bf 6 6 1061 969 bf 6 6 1067 969 bf 6 6 1079 969 bf 0 0.266667 1 c 6 6 1097 969 bf 6 6 1139 969 bf 6 6 1145 969 bf 6 6 1151 969 bf 0.2 0 1 c 6 6 1157 969 bf 0 0.266667 1 c 6 6 1175 969 bf 0.2 0 1 c 6 6 1193 969 bf 6 5 863 975 bf 0
 0.266667 1 c 6 5 899 975 bf 0.2 0 1 c 6 5 947 975 bf 6 5 953 975 bf 6 5 965 975 bf 6 5 977 975 bf 6 5 995 975 bf 6 5 1001 975 bf 6 5 1013 975 bf 6 5 1031 975 bf 6 5 1037 975 bf 6 5 1049 975 bf 6 5 1055 975 bf 6 5 1061 975 bf 6 5 1079 975 bf 6 5 1109
 975 bf 6 5 1115 975 bf 6 5 1121 975 bf 6 5 1127 975 bf 6 5 1133 975 bf 6 5 1145 975 bf 6 5 1163 975 bf 6 5 1169 975 bf 6 5 1193 975 bf 0 0.266667 1 c 6 5 1211 975 bf 0.2 0 1 c 6 5 839 980 bf 6 5 905 980 bf 6 5 929 980 bf 6 5 959 980 bf 6 5 965 980
 bf 0 0.266667 1 c 6 5 971 980 bf 0.2 0 1 c 6 5 977 980 bf 6 5 1079 980 bf 0 0.266667 1 c 6 5 1091 980 bf 0.2 0 1 c 6 5 1103 980 bf 6 5 1115 980 bf 6 5 1121 980 bf 6 5 1127 980 bf 0 0.546666 1 c 6 5 1151 980 bf 0.2 0 1 c 6 5 1163 980 bf 6 5 1169 980
 bf 6 5 1175 980 bf 0 0.266667 1 c 6 5 1181 980 bf 0.2 0 1 c 6 5 1193 980 bf 6 5 1199 980 bf 6 5 1205 980 bf 6 5 1211 980 bf 6 5 1223 980 bf 6 5 1229 980 bf 0 0.266667 1 c 6 5 1235 980 bf 0.2 0 1 c 6 5 1283 980 bf 6 5 917 985 bf 6 5 923 985 bf 6 5
 971 985 bf 6 5 983 985 bf 0 0.266667 1 c 6 5 989 985 bf 6 5 1013 985 bf 0.2 0 1 c 6 5 1019 985 bf 6 5 1025 985 bf 0 0.266667 1 c 6 5 1043 985 bf 0.2 0 1 c 6 5 1049 985 bf 6 5 1061 985 bf 0 1 0.986667 c 6 5 1091 985 bf 0 0.266667 1 c 6 5 1097 985 bf
 0 0.546666 1 c 6 5 1103 985 bf 0.2 0 1 c 6 5 1115 985 bf 0 0.266667 1 c 6 5 1121 985 bf 0 0.546666 1 c 6 5 1127 985 bf 0.2 0 1 c 6 5 1133 985 bf 0 0.266667 1 c 6 5 1139 985 bf 6 5 1145 985 bf 6 5 1151 985 bf 0 0.546666 1 c 6 5 1157 985 bf 0 0.266667
 1 c 6 5 1163 985 bf 0.2 0 1 c 6 5 1169 985 bf 6 5 1175 985 bf 0 0.266667 1 c 6 5 1187 985 bf 0.2 0 1 c 6 5 1205 985 bf 6 5 1211 985 bf 6 5 1217 985 bf 6 5 1223 985 bf 6 5 1229 985 bf 0 0.546666 1 c 6 5 1235 985 bf 0.2 0 1 c 6 5 1241 985 bf 0
 0.266667 1 c 6 6 893 990 bf 0.2 0 1 c 6 6 929 990 bf 6 6 935 990 bf 0 0.266667 1 c 6 6 941 990 bf 0.2 0 1 c 6 6 977 990 bf 0 0.266667 1 c 6 6 983 990 bf 6 6 989 990 bf 0.2 0 1 c 6 6 995 990 bf 0 0.266667 1 c 6 6 1001 990 bf 6 6 1007 990 bf 0.2 0 1 c
 6 6 1013 990 bf 6 6 1019 990 bf 6 6 1031 990 bf 6 6 1037 990 bf 0 0.546666 1 c 6 6 1043 990 bf 0.2 0 1 c 6 6 1049 990 bf 0 1 0.986667 c 6 6 1055 990 bf 0 0.266667 1 c 6 6 1061 990 bf 6 6 1067 990 bf 0.2 0 1 c 6 6 1073 990 bf 6 6 1079 990 bf 0
 0.546666 1 c 6 6 1097 990 bf 6 6 1103 990 bf 0.2 0 1 c 6 6 1109 990 bf 0 1 0.8 c 6 6 1115 990 bf 0 1 0.986667 c 6 6 1121 990 bf 0 0.266667 1 c 6 6 1127 990 bf 0 1 0.986667 c 6 6 1133 990 bf 0 0.546666 1 c 6 6 1139 990 bf 0.2 0 1 c 6 6 1145 990 bf 6
 6 1151 990 bf 0 0.546666 1 c 6 6 1157 990 bf 0 1 0.986667 c 6 6 1163 990 bf 0.2 0 1 c 6 6 1169 990 bf 0 1 0.986667 c 6 6 1175 990 bf 6 6 1181 990 bf 0 0.266667 1 c 6 6 1187 990 bf 0.2 0 1 c 6 6 1193 990 bf 0 1 0.8 c 6 6 1199 990 bf 0 0.266667 1 c 6
 6 1205 990 bf 0.2 0 1 c 6 6 1211 990 bf 6 6 1217 990 bf 6 6 1223 990 bf 6 6 1235 990 bf 0 0.266667 1 c 6 5 863 996 bf 0.2 0 1 c 6 5 893 996 bf 6 5 917 996 bf 0 0.266667 1 c 6 5 935 996 bf 6 5 953 996 bf 6 5 965 996 bf 0.2 0 1 c 6 5 971 996 bf 0
 0.266667 1 c 6 5 977 996 bf 6 5 983 996 bf 0.2 0 1 c 6 5 989 996 bf 6 5 995 996 bf 6 5 1001 996 bf 6 5 1007 996 bf 0 0.266667 1 c 6 5 1013 996 bf 0.2 0 1 c 6 5 1025 996 bf 0 1 0.986667 c 6 5 1031 996 bf 0 0.266667 1 c 6 5 1037 996 bf 0 0.546666 1 c
 6 5 1043 996 bf 0 0.266667 1 c 6 5 1055 996 bf 0 0.546666 1 c 6 5 1061 996 bf 0 0.266667 1 c 6 5 1067 996 bf 6 5 1079 996 bf 6 5 1085 996 bf 0 1 0.0533333 c 6 5 1091 996 bf 0 0.266667 1 c 6 5 1097 996 bf 0 0.546666 1 c 6 5 1103 996 bf 0 0.266667 1 c
 6 5 1109 996 bf 0 0.546666 1 c 6 5 1115 996 bf 6 5 1121 996 bf 6 5 1127 996 bf 0 1 0.0533333 c 6 5 1133 996 bf 0 1 0.8 c 6 5 1139 996 bf 0 0.266667 1 c 6 5 1145 996 bf 0 1 0.8 c 6 5 1151 996 bf 0 1 0.333333 c 6 5 1157 996 bf 0 0.546666 1 c 6 5 1163
 996 bf 6 5 1169 996 bf 0 1 0.8 c 6 5 1175 996 bf 0 0.546666 1 c 6 5 1181 996 bf 0 1 0.8 c 6 5 1187 996 bf 0 0.266667 1 c 6 5 1193 996 bf 0.2 0 1 c 6 5 1199 996 bf 6 5 1205 996 bf 0 0.266667 1 c 6 5 1217 996 bf 6 5 1223 996 bf 0.2 0 1 c 6 5 1229 996
 bf 6 5 1283 996 bf 6 5 851 1001 bf 6 5 863 1001 bf 6 5 869 1001 bf 6 5 887 1001 bf 6 5 911 1001 bf 0 0.266667 1 c 6 5 941 1001 bf 0 0.546666 1 c 6 5 947 1001 bf 0.2 0 1 c 6 5 959 1001 bf 6 5 971 1001 bf 6 5 977 1001 bf 6 5 989 1001 bf 0 0.546666 1 c
 6 5 995 1001 bf 0 0.266667 1 c 6 5 1007 1001 bf 0 0.546666 1 c 6 5 1013 1001 bf 0 0.266667 1 c 6 5 1019 1001 bf 0.2 0 1 c 6 5 1025 1001 bf 0 0.266667 1 c 6 5 1031 1001 bf 0 0.546666 1 c 6 5 1037 1001 bf 0.2 0 1 c 6 5 1043 1001 bf 0 0.266667 1 c 6 5
 1049 1001 bf 6 5 1055 1001 bf 6 5 1061 1001 bf 0 1 0.986667 c 6 5 1067 1001 bf 0 0.266667 1 c 6 5 1073 1001 bf 0 0.546666 1 c 6 5 1085 1001 bf 0 1 0.0533333 c 6 5 1091 1001 bf 0 1 0.986667 c 6 5 1097 1001 bf 6 5 1103 1001 bf 6 5 1109 1001 bf 0 1
 0.333333 c 6 5 1115 1001 bf 0 1 0.986667 c 6 5 1121 1001 bf 0 0.546666 1 c 6 5 1127 1001 bf 0 1 0.8 c 6 5 1133 1001 bf 0.413333 1 0 c 6 5 1139 1001 bf 0.6 1 0 c 6 5 1145 1001 bf 1 0.186667 0 c 6 5 1151 1001 bf 0 1 0.8 c 6 5 1157 1001 bf 0 1 0.333333
 c 6 5 1163 1001 bf 0 1 0.8 c 6 5 1169 1001 bf 0 0.266667 1 c 6 5 1175 1001 bf 0 1 0.333333 c 6 5 1181 1001 bf 0 0.546666 1 c 6 5 1187 1001 bf 0 0.266667 1 c 6 5 1193 1001 bf 0 1 0.986667 c 6 5 1199 1001 bf 0 0.546666 1 c 6 5 1205 1001 bf 0 0.266667
 1 c 6 5 1211 1001 bf 0.2 0 1 c 6 5 1235 1001 bf 6 5 1241 1001 bf 6 5 833 1006 bf 6 5 869 1006 bf 6 5 881 1006 bf 0 0.266667 1 c 6 5 893 1006 bf 0.2 0 1 c 6 5 899 1006 bf 6 5 905 1006 bf 6 5 917 1006 bf 0 0.266667 1 c 6 5 929 1006 bf 6 5 941 1006 bf
 0 0.546666 1 c 6 5 953 1006 bf 0 0.266667 1 c 6 5 959 1006 bf 6 5 965 1006 bf 0 1 0.986667 c 6 5 977 1006 bf 0 0.266667 1 c 6 5 983 1006 bf 0 0.546666 1 c 6 5 989 1006 bf 6 5 995 1006 bf 0.2 0 1 c 6 5 1001 1006 bf 0 1 0.986667 c 6 5 1007 1006 bf 6 5
 1013 1006 bf 0 0.266667 1 c 6 5 1019 1006 bf 0 1 0.986667 c 6 5 1025 1006 bf 0 0.546666 1 c 6 5 1031 1006 bf 0 0.266667 1 c 6 5 1037 1006 bf 0 0.546666 1 c 6 5 1043 1006 bf 0 1 0.986667 c 6 5 1049 1006 bf 0 0.266667 1 c 6 5 1055 1006 bf 0 1 0.986667
 c 6 5 1061 1006 bf 0 1 0.333333 c 6 5 1067 1006 bf 0 1 0.986667 c 6 5 1073 1006 bf 0 0.546666 1 c 6 5 1079 1006 bf 0 1 0.8 c 6 5 1085 1006 bf 0 1 0.986667 c 6 5 1091 1006 bf 1 0.186667 0 c 6 5 1097 1006 bf 0 1 0.8 c 6 5 1103 1006 bf 1 0.933333 0 c 6
 5 1109 1006 bf 0 1 0.333333 c 6 5 1115 1006 bf 6 5 1121 1006 bf 0 1 0.0533333 c 6 5 1127 1006 bf 0 0.546666 1 c 6 5 1133 1006 bf 0 1 0.0533333 c 6 5 1139 1006 bf 0 1 0.986667 c 6 5 1145 1006 bf 6 5 1151 1006 bf 0 0.266667 1 c 6 5 1157 1006 bf 0 1
 0.8 c 6 5 1163 1006 bf 0 1 0.333333 c 6 5 1169 1006 bf 0 1 0.986667 c 6 5 1175 1006 bf 0.2 0 1 c 6 5 1181 1006 bf 6 5 1187 1006 bf 0 0.266667 1 c 6 5 1205 1006 bf 6 5 1211 1006 bf 0.2 0 1 c 6 5 1229 1006 bf 6 5 1235 1006 bf 6 6 887 1011 bf 6 6 905
 1011 bf 6 6 911 1011 bf 0 0.266667 1 c 6 6 917 1011 bf 0.2 0 1 c 6 6 923 1011 bf 6 6 935 1011 bf 0 0.546666 1 c 6 6 941 1011 bf 0 0.266667 1 c 6 6 947 1011 bf 6 6 953 1011 bf 0.2 0 1 c 6 6 965 1011 bf 0 0.546666 1 c 6 6 971 1011 bf 0.2 0 1 c 6 6 977
 1011 bf 0 0.266667 1 c 6 6 983 1011 bf 6 6 989 1011 bf 6 6 995 1011 bf 0 1 0.333333 c 6 6 1001 1011 bf 0 1 0.986667 c 6 6 1007 1011 bf 6 6 1013 1011 bf 0 1 0.8 c 6 6 1019 1011 bf 0 1 0.986667 c 6 6 1025 1011 bf 0.413333 1 0 c 6 6 1031 1011 bf 0 1
 0.986667 c 6 6 1037 1011 bf 0.413333 1 0 c 6 6 1043 1011 bf 1 0.933333 0 c 6 6 1049 1011 bf 0 1 0.333333 c 6 6 1055 1011 bf 0 1 0.986667 c 6 6 1061 1011 bf 0.6 1 0 c 6 6 1067 1011 bf 0 1 0.986667 c 6 6 1073 1011 bf 6 6 1079 1011 bf 1 0.933333 0 c 6
 6 1085 1011 bf 0 1 0.333333 c 6 6 1091 1011 bf 0.413333 1 0 c 6 6 1097 1011 bf 0 1 0.333333 c 6 6 1103 1011 bf 0.413333 1 0 c 6 6 1109 1011 bf 0.6 1 0 c 6 6 1115 1011 bf 0 1 0.986667 c 6 6 1121 1011 bf 0 1 0.333333 c 6 6 1127 1011 bf 0 0.266667 1 c
 6 6 1133 1011 bf 0.2 0 1 c 6 6 1139 1011 bf 0 0.546666 1 c 6 6 1145 1011 bf 0 1 0.986667 c 6 6 1151 1011 bf 0 0.546666 1 c 6 6 1157 1011 bf 0 1 0.333333 c 6 6 1163 1011 bf 0.2 0 1 c 6 6 1169 1011 bf 0 0.546666 1 c 6 6 1175 1011 bf 0.2 0 1 c 6 6 1181
 1011 bf 0 0.266667 1 c 6 6 1187 1011 bf 0 1 0.986667 c 6 6 1193 1011 bf 0 0.546666 1 c 6 6 1205 1011 bf 0.2 0 1 c 6 6 1211 1011 bf 0 0.266667 1 c 6 6 1217 1011 bf 6 6 1223 1011 bf 0.2 0 1 c 6 6 1235 1011 bf 0 0.546666 1 c 6 5 851 1017 bf 0 0.266667
 1 c 6 5 881 1017 bf 0.2 0 1 c 6 5 887 1017 bf 0 0.266667 1 c 6 5 899 1017 bf 0.2 0 1 c 6 5 905 1017 bf 0 1 0.986667 c 6 5 911 1017 bf 0 0.546666 1 c 6 5 917 1017 bf 0 0.266667 1 c 6 5 929 1017 bf 0 1 0.8 c 6 5 941 1017 bf 0 0.546666 1 c 6 5 947 1017
 bf 6 5 953 1017 bf 0 1 0.986667 c 6 5 959 1017 bf 6 5 971 1017 bf 0 0.266667 1 c 6 5 977 1017 bf 0 0.546666 1 c 6 5 983 1017 bf 0 1 0.8 c 6 5 989 1017 bf 0 1 0.986667 c 6 5 995 1017 bf 0.2 0 1 c 6 5 1001 1017 bf 0 1 0.333333 c 6 5 1007 1017 bf 0 1
 0.0533333 c 6 5 1013 1017 bf 0 1 0.986667 c 6 5 1019 1017 bf 0 1 0.333333 c 6 5 1025 1017 bf 0.413333 1 0 c 6 5 1031 1017 bf 1 0.933333 0 c 6 5 1037 1017 bf 1 0.653333 0 c 6 5 1043 1017 bf 0 0.546666 1 c 6 5 1049 1017 bf 1 0.933333 0 c 6 5 1055 1017
 bf 1 0.653333 0 c 6 5 1061 1017 bf 0.413333 1 0 c 6 5 1067 1017 bf 0.6 1 0 c 6 5 1073 1017 bf 0 1 0.333333 c 6 5 1079 1017 bf 0.413333 1 0 c 6 5 1085 1017 bf 6 5 1091 1017 bf 0 1 0.8 c 6 5 1097 1017 bf 0 1 0.333333 c 6 5 1103 1017 bf 0 0.266667 1 c
 6 5 1109 1017 bf 0 1 0.8 c 6 5 1115 1017 bf 0.413333 1 0 c 6 5 1121 1017 bf 0 0.546666 1 c 6 5 1127 1017 bf 6 5 1133 1017 bf 0 0.266667 1 c 6 5 1139 1017 bf 0 1 0.986667 c 6 5 1145 1017 bf 0 0.546666 1 c 6 5 1157 1017 bf 0.2 0 1 c 6 5 1163 1017 bf 0
 0.266667 1 c 6 5 1169 1017 bf 0 0.546666 1 c 6 5 1175 1017 bf 0 0.266667 1 c 6 5 1181 1017 bf 0.2 0 1 c 6 5 1193 1017 bf 6 5 1199 1017 bf 6 5 1211 1017 bf 6 5 1223 1017 bf 6 5 857 1022 bf 6 5 869 1022 bf 0 1 0.986667 c 6 5 881 1022 bf 0 0.546666 1 c
 6 5 887 1022 bf 0.2 0 1 c 6 5 905 1022 bf 0 0.266667 1 c 6 5 911 1022 bf 0.2 0 1 c 6 5 917 1022 bf 0 0.546666 1 c 6 5 923 1022 bf 6 5 929 1022 bf 0 0.266667 1 c 6 5 935 1022 bf 0 1 0.333333 c 6 5 941 1022 bf 0 0.266667 1 c 6 5 947 1022 bf 0 1
 0.986667 c 6 5 953 1022 bf 0 0.546666 1 c 6 5 959 1022 bf 0.413333 1 0 c 6 5 965 1022 bf 0 1 0.0533333 c 6 5 971 1022 bf 0 1 0.986667 c 6 5 977 1022 bf 0 1 0.333333 c 6 5 983 1022 bf 0 0.546666 1 c 6 5 989 1022 bf 0 1 0.0533333 c 6 5 995 1022 bf 0 1
 0.986667 c 6 5 1001 1022 bf 6 5 1007 1022 bf 0 0.546666 1 c 6 5 1013 1022 bf 0.2 0 1 c 6 5 1019 1022 bf 0 1 0.8 c 6 5 1031 1022 bf 1 0.653333 0 c 6 5 1037 1022 bf 0 1 0.8 c 6 5 1043 1022 bf 0 1 0.333333 c 6 5 1049 1022 bf 0 0.546666 1 c 6 5 1055
 1022 bf 0 1 0.333333 c 6 5 1061 1022 bf 0 0.546666 1 c 6 5 1067 1022 bf 0.2 0 1 c 6 5 1073 1022 bf 0 1 0.986667 c 6 5 1079 1022 bf 6 5 1085 1022 bf 0 0.546666 1 c 6 5 1091 1022 bf 0 1 0.8 c 6 5 1097 1022 bf 0 1 0.333333 c 6 5 1103 1022 bf 0 1 0.8 c
 6 5 1109 1022 bf 0 0.266667 1 c 6 5 1115 1022 bf 6 5 1121 1022 bf 0 0.546666 1 c 6 5 1127 1022 bf 0 0.266667 1 c 6 5 1139 1022 bf 0.2 0 1 c 6 5 1145 1022 bf 6 5 1157 1022 bf 0 0.266667 1 c 6 5 1169 1022 bf 0.2 0 1 c 6 5 1175 1022 bf 6 5 1181 1022 bf
 0 0.266667 1 c 6 5 1193 1022 bf 0 0.546666 1 c 6 5 1199 1022 bf 0.2 0 1 c 6 5 1205 1022 bf 0 0.266667 1 c 6 5 1211 1022 bf 6 5 1229 1022 bf 0.2 0 1 c 6 5 863 1027 bf 6 5 869 1027 bf 0 0.546666 1 c 6 5 875 1027 bf 0 0.266667 1 c 6 5 881 1027 bf 0
 0.546666 1 c 6 5 893 1027 bf 0 0.266667 1 c 6 5 899 1027 bf 0 1 0.986667 c 6 5 905 1027 bf 0.2 0 1 c 6 5 911 1027 bf 0 1 0.986667 c 6 5 917 1027 bf 0 1 0.8 c 6 5 923 1027 bf 0.6 1 0 c 6 5 929 1027 bf 0 0.546666 1 c 6 5 935 1027 bf 0 1 0.986667 c 6 5
 941 1027 bf 0 0.546666 1 c 6 5 947 1027 bf 0 1 0.986667 c 6 5 953 1027 bf 0 1 0.8 c 6 5 959 1027 bf 0 1 0.0533333 c 6 5 965 1027 bf 6 5 971 1027 bf 1 0.653333 0 c 6 5 977 1027 bf 0 1 0.986667 c 6 5 983 1027 bf 1 0.933333 0 c 6 5 989 1027 bf 0 1
 0.986667 c 6 5 995 1027 bf 1 0.653333 0 c 6 5 1001 1027 bf 0 1 0.986667 c 6 5 1007 1027 bf 0 0.546666 1 c 6 5 1013 1027 bf 6 5 1019 1027 bf 6 5 1025 1027 bf 0 1 0.333333 c 6 5 1031 1027 bf 0 0.266667 1 c 6 5 1037 1027 bf 0 1 0.986667 c 6 5 1043 1027
 bf 6 5 1049 1027 bf 0.2 0 1 c 6 5 1055 1027 bf 0 1 0.986667 c 6 5 1061 1027 bf 0 0.266667 1 c 6 5 1067 1027 bf 6 5 1073 1027 bf 0 1 0.986667 c 6 5 1079 1027 bf 0 0.546666 1 c 6 5 1085 1027 bf 6 5 1091 1027 bf 0.2 0 1 c 6 5 1097 1027 bf 0 0.266667 1
 c 6 5 1103 1027 bf 0.2 0 1 c 6 5 1109 1027 bf 6 5 1115 1027 bf 0 0.266667 1 c 6 5 1121 1027 bf 0 0.546666 1 c 6 5 1127 1027 bf 6 5 1133 1027 bf 0.2 0 1 c 6 5 1139 1027 bf 0 0.266667 1 c 6 5 1145 1027 bf 0 1 0.986667 c 6 5 1151 1027 bf 0.2 0 1 c 6 5
 1163 1027 bf 6 5 1169 1027 bf 0 0.546666 1 c 6 5 1175 1027 bf 0.2 0 1 c 6 5 1181 1027 bf 6 5 1187 1027 bf 6 6 857 1032 bf 6 6 863 1032 bf 6 6 875 1032 bf 0 0.266667 1 c 6 6 881 1032 bf 0 1 0.0533333 c 6 6 887 1032 bf 0 0.546666 1 c 6 6 893 1032 bf 0
 0.266667 1 c 6 6 899 1032 bf 6 6 905 1032 bf 0 0.546666 1 c 6 6 911 1032 bf 0 1 0.8 c 6 6 917 1032 bf 0 1 0.986667 c 6 6 923 1032 bf 0 1 0.8 c 6 6 929 1032 bf 0 1 0.333333 c 6 6 935 1032 bf 0 1 0.986667 c 6 6 941 1032 bf 0 0.266667 1 c 6 6 947 1032
 bf 0 1 0.8 c 6 6 953 1032 bf 0 1 0.333333 c 6 6 959 1032 bf 0 1 0.986667 c 6 6 965 1032 bf 0 0.266667 1 c 6 6 971 1032 bf 0 1 0.986667 c 6 6 977 1032 bf 0 0.546666 1 c 6 6 983 1032 bf 0 1 0.8 c 6 6 989 1032 bf 0 0.266667 1 c 6 6 995 1032 bf 6 6 1001
 1032 bf 0 1 0.986667 c 6 6 1007 1032 bf 0 1 0.333333 c 6 6 1013 1032 bf 0 1 0.986667 c 6 6 1019 1032 bf 0 0.546666 1 c 6 6 1025 1032 bf 0 1 0.986667 c 6 6 1031 1032 bf 0 0.266667 1 c 6 6 1037 1032 bf 0 0.546666 1 c 6 6 1043 1032 bf 0 1 0.0533333 c 6
 6 1049 1032 bf 0 0.266667 1 c 6 6 1055 1032 bf 0 1 0.333333 c 6 6 1061 1032 bf 0 0.266667 1 c 6 6 1073 1032 bf 0 1 0.986667 c 6 6 1079 1032 bf 0 0.546666 1 c 6 6 1085 1032 bf 0 0.266667 1 c 6 6 1091 1032 bf 0 1 0.986667 c 6 6 1097 1032 bf 0 0.546666
 1 c 6 6 1103 1032 bf 0.2 0 1 c 6 6 1109 1032 bf 6 6 1115 1032 bf 0 0.546666 1 c 6 6 1121 1032 bf 0.2 0 1 c 6 6 1127 1032 bf 0 0.266667 1 c 6 6 1133 1032 bf 0.2 0 1 c 6 6 1139 1032 bf 6 6 1145 1032 bf 0 0.266667 1 c 6 6 1157 1032 bf 6 6 1163 1032 bf
 0.2 0 1 c 6 6 1181 1032 bf 6 6 1193 1032 bf 6 6 1199 1032 bf 6 6 1223 1032 bf 6 6 1253 1032 bf 6 5 791 1038 bf 6 5 827 1038 bf 6 5 833 1038 bf 6 5 845 1038 bf 6 5 857 1038 bf 0 0.266667 1 c 6 5 863 1038 bf 6 5 869 1038 bf 0.2 0 1 c 6 5 875 1038 bf 0
 0.266667 1 c 6 5 881 1038 bf 0 1 0.986667 c 6 5 887 1038 bf 0 0.266667 1 c 6 5 893 1038 bf 0.2 0 1 c 6 5 899 1038 bf 0.6 1 0 c 6 5 905 1038 bf 0 1 0.8 c 6 5 911 1038 bf 0 0.266667 1 c 6 5 917 1038 bf 0 0.546666 1 c 6 5 923 1038 bf 0.2 0 1 c 6 5 929
 1038 bf 0 1 0.8 c 6 5 935 1038 bf 0 0.546666 1 c 6 5 941 1038 bf 6 5 947 1038 bf 0 1 0.986667 c 6 5 953 1038 bf 0 0.266667 1 c 6 5 959 1038 bf 0 0.546666 1 c 6 5 965 1038 bf 0 1 0.333333 c 6 5 971 1038 bf 0 1 0.8 c 6 5 977 1038 bf 0 0.546666 1 c 6 5
 983 1038 bf 6 5 989 1038 bf 0 1 0.986667 c 6 5 995 1038 bf 0 0.266667 1 c 6 5 1001 1038 bf 0 1 0.986667 c 6 5 1007 1038 bf 0 0.546666 1 c 6 5 1013 1038 bf 0 1 0.8 c 6 5 1019 1038 bf 0 0.266667 1 c 6 5 1031 1038 bf 0.2 0 1 c 6 5 1037 1038 bf 0 1 0.8
 c 6 5 1043 1038 bf 0 0.266667 1 c 6 5 1049 1038 bf 6 5 1055 1038 bf 0.2 0 1 c 6 5 1061 1038 bf 0 1 0.8 c 6 5 1067 1038 bf 0 0.266667 1 c 6 5 1073 1038 bf 6 5 1079 1038 bf 0 1 0.986667 c 6 5 1085 1038 bf 0.2 0 1 c 6 5 1091 1038 bf 6 5 1097 1038 bf 6
 5 1103 1038 bf 6 5 1115 1038 bf 6 5 1121 1038 bf 6 5 1145 1038 bf 6 5 1151 1038 bf 6 5 1157 1038 bf 6 5 1175 1038 bf 6 5 1211 1038 bf 0 0.266667 1 c 6 5 851 1043 bf 0 0.546666 1 c 6 5 857 1043 bf 6 5 869 1043 bf 0.2 0 1 c 6 5 875 1043 bf 6 5 893
 1043 bf 0 1 0.8 c 6 5 899 1043 bf 0 0.546666 1 c 6 5 905 1043 bf 0 1 0.8 c 6 5 917 1043 bf 0 0.266667 1 c 6 5 923 1043 bf 0 1 0.8 c 6 5 929 1043 bf 0 0.266667 1 c 6 5 935 1043 bf 0 1 0.333333 c 6 5 941 1043 bf 0 0.266667 1 c 6 5 953 1043 bf 0
 0.546666 1 c 6 5 959 1043 bf 0 1 0.986667 c 6 5 965 1043 bf 0 0.546666 1 c 6 5 971 1043 bf 0 1 0.8 c 6 5 977 1043 bf 0 1 0.986667 c 6 5 983 1043 bf 0 0.266667 1 c 6 5 989 1043 bf 0.2 0 1 c 6 5 1001 1043 bf 0 1 0.986667 c 6 5 1007 1043 bf 0.2 0 1 c 6
 5 1013 1043 bf 6 5 1019 1043 bf 0 0.266667 1 c 6 5 1025 1043 bf 0 0.546666 1 c 6 5 1043 1043 bf 6 5 1049 1043 bf 0.2 0 1 c 6 5 1061 1043 bf 6 5 1067 1043 bf 6 5 1073 1043 bf 0 0.546666 1 c 6 5 1079 1043 bf 0.2 0 1 c 6 5 1085 1043 bf 0 1 0.986667 c 6
 5 1091 1043 bf 0 0.266667 1 c 6 5 1097 1043 bf 6 5 1109 1043 bf 6 5 1121 1043 bf 6 5 1145 1043 bf 0.2 0 1 c 6 5 1151 1043 bf 0 0.266667 1 c 6 5 1157 1043 bf 0.2 0 1 c 6 5 1169 1043 bf 6 5 1199 1043 bf 6 5 1211 1043 bf 6 5 1217 1043 bf 0 0.266667 1 c
 6 5 1241 1043 bf 0.2 0 1 c 6 6 809 1048 bf 6 6 827 1048 bf 0 0.266667 1 c 6 6 833 1048 bf 0.2 0 1 c 6 6 845 1048 bf 6 6 863 1048 bf 6 6 869 1048 bf 0 1 0.8 c 6 6 875 1048 bf 0 0.266667 1 c 6 6 881 1048 bf 0.2 0 1 c 6 6 887 1048 bf 0 1 0.333333 c 6 6
 899 1048 bf 0 0.546666 1 c 6 6 905 1048 bf 0 1 0.986667 c 6 6 911 1048 bf 6 6 929 1048 bf 0 0.266667 1 c 6 6 935 1048 bf 6 6 941 1048 bf 0.2 0 1 c 6 6 947 1048 bf 6 6 953 1048 bf 0 1 0.333333 c 6 6 959 1048 bf 0 1 0.986667 c 6 6 965 1048 bf 0
 0.546666 1 c 6 6 971 1048 bf 0 1 0.986667 c 6 6 977 1048 bf 0 0.266667 1 c 6 6 983 1048 bf 0 0.546666 1 c 6 6 995 1048 bf 0.2 0 1 c 6 6 1007 1048 bf 0 1 0.986667 c 6 6 1013 1048 bf 6 6 1025 1048 bf 0 0.266667 1 c 6 6 1031 1048 bf 6 6 1037 1048 bf 6
 6 1043 1048 bf 0.2 0 1 c 6 6 1049 1048 bf 0 0.266667 1 c 6 6 1055 1048 bf 6 6 1067 1048 bf 6 6 1073 1048 bf 6 6 1079 1048 bf 0.2 0 1 c 6 6 1103 1048 bf 6 6 1115 1048 bf 6 6 1121 1048 bf 6 6 1127 1048 bf 0 0.266667 1 c 6 6 1139 1048 bf 0.2 0 1 c 6 6
 1151 1048 bf 6 6 1193 1048 bf 6 6 1235 1048 bf 6 6 1253 1048 bf 6 5 809 1054 bf 6 5 845 1054 bf 0 0.546666 1 c 6 5 851 1054 bf 0.2 0 1 c 6 5 857 1054 bf 0 0.266667 1 c 6 5 875 1054 bf 0.2 0 1 c 6 5 893 1054 bf 0 0.266667 1 c 6 5 905 1054 bf 6 5 911
 1054 bf 0.2 0 1 c 6 5 917 1054 bf 0 0.266667 1 c 6 5 929 1054 bf 0.2 0 1 c 6 5 935 1054 bf 0 0.266667 1 c 6 5 941 1054 bf 6 5 947 1054 bf 6 5 953 1054 bf 0 0.546666 1 c 6 5 959 1054 bf 6 5 965 1054 bf 0 1 0.8 c 6 5 971 1054 bf 0 0.266667 1 c 6 5 977
 1054 bf 6 5 983 1054 bf 0.2 0 1 c 6 5 995 1054 bf 6 5 1007 1054 bf 6 5 1013 1054 bf 6 5 1025 1054 bf 0 0.266667 1 c 6 5 1031 1054 bf 0.2 0 1 c 6 5 1037 1054 bf 0 0.266667 1 c 6 5 1043 1054 bf 6 5 1049 1054 bf 6 5 1055 1054 bf 6 5 1067 1054 bf 0.2 0
 1 c 6 5 1073 1054 bf 6 5 1079 1054 bf 0 0.266667 1 c 6 5 1085 1054 bf 0.2 0 1 c 6 5 1091 1054 bf 0 0.546666 1 c 6 5 1109 1054 bf 0.2 0 1 c 6 5 1115 1054 bf 6 5 1127 1054 bf 0 0.266667 1 c 6 5 1139 1054 bf 6 5 1175 1054 bf 0.2 0 1 c 6 5 1181 1054 bf
 6 5 839 1059 bf 0 0.266667 1 c 6 5 857 1059 bf 0.2 0 1 c 6 5 863 1059 bf 6 5 875 1059 bf 6 5 899 1059 bf 0 0.266667 1 c 6 5 905 1059 bf 6 5 917 1059 bf 0.2 0 1 c 6 5 923 1059 bf 0 1 0.8 c 6 5 929 1059 bf 0 0.266667 1 c 6 5 935 1059 bf 0 1 0.333333 c
 6 5 947 1059 bf 0.2 0 1 c 6 5 953 1059 bf 6 5 959 1059 bf 6 5 965 1059 bf 6 5 971 1059 bf 0 0.546666 1 c 6 5 977 1059 bf 0.2 0 1 c 6 5 983 1059 bf 0 0.546666 1 c 6 5 995 1059 bf 0 0.266667 1 c 6 5 1001 1059 bf 0.2 0 1 c 6 5 1007 1059 bf 0 0.546666 1
 c 6 5 1013 1059 bf 6 5 1019 1059 bf 0 0.266667 1 c 6 5 1025 1059 bf 0.2 0 1 c 6 5 1031 1059 bf 0 0.546666 1 c 6 5 1055 1059 bf 0.2 0 1 c 6 5 1067 1059 bf 6 5 1079 1059 bf 6 5 1091 1059 bf 6 5 1103 1059 bf 6 5 1115 1059 bf 6 5 1127 1059 bf 6 5 1145
 1059 bf 6 5 1181 1059 bf 6 5 1199 1059 bf 6 5 1211 1059 bf 6 5 1235 1059 bf 6 5 1253 1059 bf 6 5 845 1064 bf 6 5 869 1064 bf 0 0.266667 1 c 6 5 887 1064 bf 0 0.546666 1 c 6 5 893 1064 bf 6 5 899 1064 bf 0.2 0 1 c 6 5 905 1064 bf 6 5 911 1064 bf 0
 0.266667 1 c 6 5 935 1064 bf 0.2 0 1 c 6 5 941 1064 bf 6 5 947 1064 bf 6 5 959 1064 bf 0 0.546666 1 c 6 5 965 1064 bf 0.2 0 1 c 6 5 971 1064 bf 6 5 983 1064 bf 0 0.266667 1 c 6 5 995 1064 bf 0.2 0 1 c 6 5 1001 1064 bf 6 5 1007 1064 bf 6 5 1013 1064
 bf 0 0.266667 1 c 6 5 1031 1064 bf 0.2 0 1 c 6 5 1043 1064 bf 6 5 1055 1064 bf 6 5 1061 1064 bf 6 5 1079 1064 bf 6 5 1091 1064 bf 0 0.266667 1 c 6 5 1097 1064 bf 0.2 0 1 c 6 5 1109 1064 bf 6 5 1163 1064 bf 6 5 1169 1064 bf 6 5 1175 1064 bf 6 6 875
 1069 bf 0 0.266667 1 c 6 6 917 1069 bf 6 6 923 1069 bf 0.2 0 1 c 6 6 935 1069 bf 0 0.546666 1 c 6 6 947 1069 bf 0.2 0 1 c 6 6 953 1069 bf 6 6 959 1069 bf 6 6 983 1069 bf 6 6 995 1069 bf 6 6 1013 1069 bf 6 6 1019 1069 bf 6 6 1025 1069 bf 6 6 1043
 1069 bf 6 6 1049 1069 bf 6 6 1061 1069 bf 6 6 1097 1069 bf 6 6 1103 1069 bf 6 6 1115 1069 bf 6 6 1139 1069 bf 6 6 1181 1069 bf 6 6 1199 1069 bf 6 6 1283 1069 bf 6 5 869 1075 bf 0 0.266667 1 c 6 5 899 1075 bf 0.2 0 1 c 6 5 905 1075 bf 0 0.546666 1 c
 6 5 959 1075 bf 0.2 0 1 c 6 5 965 1075 bf 6 5 977 1075 bf 6 5 983 1075 bf 6 5 989 1075 bf 6 5 1001 1075 bf 6 5 1019 1075 bf 6 5 1025 1075 bf 6 5 1043 1075 bf 6 5 1055 1075 bf 6 5 1133 1075 bf 0 0.266667 1 c 6 5 1145 1075 bf 0.2 0 1 c 6 5 1151 1075
 bf 6 5 1169 1075 bf 6 5 1253 1075 bf 6 5 881 1080 bf 6 5 887 1080 bf 6 5 893 1080 bf 6 5 899 1080 bf 6 5 905 1080 bf 6 5 917 1080 bf 6 5 965 1080 bf 6 5 983 1080 bf 6 5 989 1080 bf 0 0.546666 1 c 6 5 1007 1080 bf 0.2 0 1 c 6 5 1025 1080 bf 6 5 1043
 1080 bf 6 5 1049 1080 bf 0 0.266667 1 c 6 5 1061 1080 bf 0.2 0 1 c 6 5 1067 1080 bf 6 5 1109 1080 bf 6 5 1127 1080 bf 0 0.266667 1 c 6 5 1133 1080 bf 0.2 0 1 c 6 5 1157 1080 bf 6 5 1169 1080 bf 6 5 1193 1080 bf 6 5 929 1085 bf 0 0.266667 1 c 6 5 941
 1085 bf 0.2 0 1 c 6 5 947 1085 bf 6 5 953 1085 bf 6 5 959 1085 bf 0 0.266667 1 c 6 5 971 1085 bf 0.2 0 1 c 6 5 995 1085 bf 0 0.266667 1 c 6 5 1001 1085 bf 0.2 0 1 c 6 5 1013 1085 bf 6 5 1037 1085 bf 0 0.266667 1 c 6 5 1061 1085 bf 0.2 0 1 c 6 5 1085
 1085 bf 6 5 1091 1085 bf 6 5 1097 1085 bf 6 5 1103 1085 bf 6 5 1139 1085 bf 6 5 1157 1085 bf 6 5 1163 1085 bf 6 5 1193 1085 bf 6 5 1217 1085 bf 6 6 869 1090 bf 6 6 917 1090 bf 6 6 941 1090 bf 0 0.266667 1 c 6 6 953 1090 bf 0.2 0 1 c 6 6 959 1090 bf
 6 6 965 1090 bf 6 6 989 1090 bf 0 0.266667 1 c 6 6 1025 1090 bf 0.2 0 1 c 6 6 1085 1090 bf 6 6 1103 1090 bf 6 6 1139 1090 bf 6 6 1163 1090 bf 6 5 893 1096 bf 6 5 923 1096 bf 6 5 971 1096 bf 6 5 977 1096 bf 6 5 983 1096 bf 6 5 1007 1096 bf 6 5 1013
 1096 bf 6 5 1025 1096 bf 0 0.266667 1 c 6 5 1037 1096 bf 0.2 0 1 c 6 5 1049 1096 bf 6 5 1061 1096 bf 6 5 1067 1096 bf 6 5 1073 1096 bf 6 5 1103 1096 bf 0 0.266667 1 c 6 5 1133 1096 bf 0.2 0 1 c 6 5 1151 1096 bf 6 5 863 1101 bf 6 5 911 1101 bf 6 5
 971 1101 bf 0 0.266667 1 c 6 5 1001 1101 bf 0.2 0 1 c 6 5 1013 1101 bf 6 5 1037 1101 bf 6 5 1121 1101 bf 6 5 1181 1101 bf 6 5 1187 1101 bf 6 5 911 1106 bf 0 0.266667 1 c 6 5 917 1106 bf 0.2 0 1 c 6 5 923 1106 bf 6 5 965 1106 bf 6 5 977 1106 bf 6 5
 989 1106 bf 0 0.266667 1 c 6 5 1013 1106 bf 0.2 0 1 c 6 5 1019 1106 bf 6 5 1049 1106 bf 6 5 1103 1106 bf 6 5 1109 1106 bf 6 5 1127 1106 bf 0 0.266667 1 c 6 5 1151 1106 bf 0.2 0 1 c 6 5 1157 1106 bf 6 5 1163 1106 bf 0 0.266667 1 c 6 5 1217 1106 bf
 0.2 0 1 c 6 5 1247 1106 bf 6 6 857 1111 bf 6 6 887 1111 bf 6 6 953 1111 bf 6 6 989 1111 bf 6 6 1007 1111 bf 6 6 1013 1111 bf 6 6 1019 1111 bf 6 6 1025 1111 bf 6 6 1031 1111 bf 6 6 1151 1111 bf 6 6 1157 1111 bf 6 6 1187 1111 bf 6 6 1217 1111 bf 6 6
 1223 1111 bf 6 6 1265 1111 bf 6 5 929 1117 bf 0 0.266667 1 c 6 5 947 1117 bf 0.2 0 1 c 6 5 983 1117 bf 0 0.266667 1 c 6 5 995 1117 bf 0.2 0 1 c 6 5 1019 1117 bf 6 5 1025 1117 bf 6 5 1043 1117 bf 6 5 1055 1117 bf 6 5 1073 1117 bf 6 5 1103 1117 bf 6 5
 1133 1117 bf 6 5 1175 1117 bf 6 5 983 1122 bf 6 5 1013 1122 bf 6 5 1031 1122 bf 6 5 1079 1122 bf 6 5 1085 1122 bf 6 5 1097 1122 bf 6 5 1115 1122 bf 6 5 1139 1122 bf 6 5 1163 1122 bf 6 5 893 1127 bf 6 5 899 1127 bf 6 5 947 1127 bf 6 5 953 1127 bf 6 5
 983 1127 bf 6 5 1001 1127 bf 6 5 1031 1127 bf 6 5 1049 1127 bf 6 5 1085 1127 bf 6 5 1133 1127 bf 6 5 1169 1127 bf 6 5 1217 1127 bf 6 6 911 1132 bf 6 6 923 1132 bf 6 6 983 1132 bf 6 6 1001 1132 bf 6 6 1007 1132 bf 6 6 1097 1132 bf 6 6 1109 1132 bf 6
 6 1121 1132 bf 6 6 1127 1132 bf 6 6 1133 1132 bf 6 6 1181 1132 bf 0 0.266667 1 c 6 6 1193 1132 bf 0.2 0 1 c 6 5 911 1138 bf 6 5 923 1138 bf 6 5 959 1138 bf 6 5 965 1138 bf 6 5 989 1138 bf 6 5 1007 1138 bf 6 5 1031 1138 bf 6 5 1043 1138 bf 6 5 1067
 1138 bf 0 0.266667 1 c 6 5 1073 1138 bf 6 5 1151 1138 bf 0.2 0 1 c 6 5 1157 1138 bf 6 5 1193 1138 bf 6 5 1265 1138 bf 6 5 923 1143 bf 6 5 935 1143 bf 6 5 971 1143 bf 6 5 1013 1143 bf 6 5 1025 1143 bf 0 0.266667 1 c 6 5 1037 1143 bf 0.2 0 1 c 6 5
 1043 1143 bf 6 5 1049 1143 bf 6 5 1061 1143 bf 6 5 1115 1143 bf 6 5 1187 1143 bf 6 5 1199 1143 bf 6 5 1205 1143 bf 6 5 1265 1143 bf 6 6 917 1148 bf 6 6 941 1148 bf 6 6 959 1148 bf 6 6 977 1148 bf 6 6 983 1148 bf 6 6 1013 1148 bf 6 6 1091 1148 bf 6 6
 1115 1148 bf 0 0.266667 1 c 6 6 1133 1148 bf 0.2 0 1 c 6 6 1175 1148 bf 6 6 1211 1148 bf 6 6 1223 1148 bf 6 6 1247 1148 bf 6 5 935 1154 bf 6 5 941 1154 bf 6 5 977 1154 bf 6 5 1037 1154 bf 6 5 1085 1154 bf 6 5 1133 1154 bf 0 0.266667 1 c 6 5 1151
 1154 bf 0.2 0 1 c 6 5 1157 1154 bf 6 5 1163 1154 bf 6 5 1229 1154 bf 6 5 989 1159 bf 6 5 1001 1159 bf 6 5 1061 1159 bf 6 5 1085 1159 bf 6 5 1145 1159 bf 6 5 1157 1159 bf 6 5 1241 1159 bf 6 5 1253 1159 bf 6 5 899 1164 bf 6 5 917 1164 bf 6 5 953 1164
 bf 6 5 1007 1164 bf 6 5 1019 1164 bf 0 0.266667 1 c 6 5 1061 1164 bf 0.2 0 1 c 6 5 1139 1164 bf 6 5 1169 1164 bf 6 5 1175 1164 bf 6 5 1205 1164 bf 6 6 941 1169 bf 6 6 959 1169 bf 6 6 965 1169 bf 6 6 995 1169 bf 6 6 1007 1169 bf 6 6 1055 1169 bf 6 6
 1061 1169 bf 6 6 1085 1169 bf 6 6 1091 1169 bf 6 6 1115 1169 bf 6 6 1193 1169 bf 6 6 1235 1169 bf 6 6 1289 1169 bf 6 5 971 1175 bf 6 5 977 1175 bf 6 5 983 1175 bf 6 5 989 1175 bf 6 5 1007 1175 bf 6 5 1049 1175 bf 0 0.266667 1 c 6 5 1103 1175 bf 0.2
 0 1 c 6 5 1121 1175 bf 6 5 1127 1175 bf 6 5 1163 1175 bf 6 5 1193 1175 bf 6 5 941 1180 bf 6 5 959 1180 bf 6 5 971 1180 bf 0 0.546666 1 c 6 5 1001 1180 bf 0.2 0 1 c 6 5 1079 1180 bf 6 5 1091 1180 bf 6 5 1121 1180 bf 6 5 1139 1180 bf 6 5 1181 1180 bf
 0 1 0.986667 c 6 5 1187 1180 bf 0.2 0 1 c 6 5 1193 1180 bf 6 5 1205 1180 bf 6 5 1223 1180 bf 6 5 1247 1180 bf 6 5 1277 1180 bf 6 5 947 1185 bf 6 5 959 1185 bf 6 5 965 1185 bf 6 5 977 1185 bf 0 0.266667 1 c 6 5 989 1185 bf 0.2 0 1 c 6 5 1043 1185 bf
 6 5 1049 1185 bf 6 5 1091 1185 bf 6 5 1109 1185 bf 0 0.266667 1 c 6 5 1151 1185 bf 0.2 0 1 c 6 5 1163 1185 bf 6 5 1193 1185 bf 6 5 1199 1185 bf 6 5 1211 1185 bf 6 6 977 1190 bf 6 6 989 1190 bf 6 6 995 1190 bf 6 6 1007 1190 bf 6 6 1031 1190 bf 0
 0.266667 1 c 6 6 1109 1190 bf 0.2 0 1 c 6 6 1175 1190 bf 6 6 1193 1190 bf 6 6 1211 1190 bf 6 6 1229 1190 bf 6 6 1235 1190 bf 6 5 881 1196 bf 6 5 983 1196 bf 6 5 1019 1196 bf 6 5 1037 1196 bf 0 0.266667 1 c 6 5 1121 1196 bf 0.2 0 1 c 6 5 1157 1196 bf
 6 5 1175 1196 bf 6 5 1217 1196 bf 6 5 917 1201 bf 6 5 971 1201 bf 6 5 989 1201 bf 6 5 995 1201 bf 6 5 1037 1201 bf 6 5 1055 1201 bf 6 5 1115 1201 bf 6 5 1121 1201 bf 6 5 1133 1201 bf 0 0.266667 1 c 6 5 1139 1201 bf 0.2 0 1 c 6 5 1163 1201 bf 0
 0.546666 1 c 6 5 1181 1201 bf 0.2 0 1 c 6 5 1235 1201 bf 6 5 1241 1201 bf 6 5 1247 1201 bf 6 5 1265 1201 bf 6 5 1313 1201 bf 6 5 1013 1206 bf 6 5 1031 1206 bf 6 5 1055 1206 bf 6 5 1091 1206 bf 6 5 1109 1206 bf 6 5 1145 1206 bf 6 5 1217 1206 bf 6 5
 1223 1206 bf 6 6 923 1211 bf 6 6 953 1211 bf 6 6 983 1211 bf 6 6 1007 1211 bf 6 6 1031 1211 bf 6 6 1055 1211 bf 6 6 1079 1211 bf 6 6 1091 1211 bf 6 6 1127 1211 bf 6 6 1133 1211 bf 6 6 1157 1211 bf 6 6 1205 1211 bf 0 0.266667 1 c 6 6 1229 1211 bf 0.2
 0 1 c 6 6 1235 1211 bf 6 6 1241 1211 bf 6 5 941 1217 bf 0 0.546666 1 c 6 5 959 1217 bf 0 0.266667 1 c 6 5 1025 1217 bf 0.2 0 1 c 6 5 1037 1217 bf 6 5 1043 1217 bf 6 5 1049 1217 bf 6 5 1055 1217 bf 6 5 1109 1217 bf 0 0.546666 1 c 6 5 1121 1217 bf 0.2
 0 1 c 6 5 1157 1217 bf 0 0.266667 1 c 6 5 1163 1217 bf 0 0.546666 1 c 6 5 1169 1217 bf 0.2 0 1 c 6 5 1175 1217 bf 6 5 1187 1217 bf 6 5 1193 1217 bf 6 5 1223 1217 bf 0 0.266667 1 c 6 5 995 1222 bf 0.2 0 1 c 6 5 1019 1222 bf 0 0.266667 1 c 6 5 1055
 1222 bf 0.2 0 1 c 6 5 1073 1222 bf 6 5 1079 1222 bf 6 5 1097 1222 bf 6 5 1103 1222 bf 6 5 1109 1222 bf 6 5 1121 1222 bf 6 5 1127 1222 bf 6 5 1139 1222 bf 6 5 1187 1222 bf 6 5 1205 1222 bf 6 5 1217 1222 bf 6 5 1223 1222 bf 6 5 935 1227 bf 6 5 941
 1227 bf 6 5 953 1227 bf 6 5 971 1227 bf 6 5 989 1227 bf 6 5 1055 1227 bf 6 5 1067 1227 bf 6 5 1079 1227 bf 0 0.266667 1 c 6 5 1091 1227 bf 6 5 1097 1227 bf 0.2 0 1 c 6 5 1115 1227 bf 6 5 1127 1227 bf 0 0.266667 1 c 6 5 1151 1227 bf 0.2 0 1 c 6 5
 1157 1227 bf 6 5 1187 1227 bf 0 0.266667 1 c 6 5 1199 1227 bf 0.2 0 1 c 6 6 899 1232 bf 0 0.266667 1 c 6 6 947 1232 bf 0.2 0 1 c 6 6 977 1232 bf 6 6 983 1232 bf 6 6 989 1232 bf 6 6 995 1232 bf 0 0.266667 1 c 6 6 1019 1232 bf 0.2 0 1 c 6 6 1025 1232
 bf 0 0.266667 1 c 6 6 1061 1232 bf 6 6 1091 1232 bf 0.2 0 1 c 6 6 1103 1232 bf 6 6 1115 1232 bf 6 6 1121 1232 bf 0 0.266667 1 c 6 6 1151 1232 bf 0.2 0 1 c 6 6 1157 1232 bf 6 6 1175 1232 bf 6 6 1181 1232 bf 6 6 1187 1232 bf 6 6 1199 1232 bf 6 6 1211
 1232 bf 6 6 1247 1232 bf 6 6 1253 1232 bf 6 6 1265 1232 bf 6 5 953 1238 bf 6 5 995 1238 bf 6 5 1007 1238 bf 6 5 1019 1238 bf 6 5 1037 1238 bf 6 5 1043 1238 bf 6 5 1055 1238 bf 6 5 1073 1238 bf 6 5 1079 1238 bf 6 5 1115 1238 bf 6 5 1127 1238 bf 0
 0.266667 1 c 6 5 1133 1238 bf 0.2 0 1 c 6 5 1139 1238 bf 6 5 1151 1238 bf 6 5 1157 1238 bf 0 0.266667 1 c 6 5 1193 1238 bf 0.2 0 1 c 6 5 1199 1238 bf 6 5 1223 1238 bf 6 5 1235 1238 bf 6 5 1247 1238 bf 6 5 1277 1238 bf 6 5 971 1243 bf 6 5 1025 1243
 bf 6 5 1049 1243 bf 6 5 1055 1243 bf 0 0.266667 1 c 6 5 1073 1243 bf 0.2 0 1 c 6 5 1085 1243 bf 0 0.266667 1 c 6 5 1109 1243 bf 6 5 1121 1243 bf 0.2 0 1 c 6 5 1127 1243 bf 0 0.266667 1 c 6 5 1133 1243 bf 0.2 0 1 c 6 5 1139 1243 bf 0 0.266667 1 c 6 5
 1163 1243 bf 0.2 0 1 c 6 5 1169 1243 bf 6 5 1175 1243 bf 0 1 0.986667 c 6 5 1187 1243 bf 0 0.266667 1 c 6 5 1199 1243 bf 0.2 0 1 c 6 5 1211 1243 bf 0 0.266667 1 c 6 5 1217 1243 bf 0.2 0 1 c 6 5 1223 1243 bf 6 5 1229 1243 bf 6 5 1235 1243 bf 6 5 1259
 1243 bf 6 5 1265 1243 bf 0 0.266667 1 c 6 5 1277 1243 bf 0.2 0 1 c 6 5 1295 1243 bf 6 6 947 1248 bf 6 6 965 1248 bf 6 6 971 1248 bf 6 6 977 1248 bf 6 6 1007 1248 bf 6 6 1019 1248 bf 0 0.266667 1 c 6 6 1025 1248 bf 6 6 1067 1248 bf 0 1 0.986667 c 6 6
 1091 1248 bf 0.2 0 1 c 6 6 1097 1248 bf 0 0.266667 1 c 6 6 1109 1248 bf 0.2 0 1 c 6 6 1121 1248 bf 6 6 1133 1248 bf 6 6 1139 1248 bf 6 6 1169 1248 bf 6 6 1193 1248 bf 6 6 1199 1248 bf 6 6 1205 1248 bf 0 0.266667 1 c 6 6 1211 1248 bf 6 6 1217 1248 bf
 0.2 0 1 c 6 6 1229 1248 bf 6 6 1241 1248 bf 0 0.266667 1 c 6 6 1247 1248 bf 0.2 0 1 c 6 6 1253 1248 bf 6 6 1307 1248 bf 6 6 1331 1248 bf 6 5 935 1254 bf 6 5 941 1254 bf 6 5 977 1254 bf 6 5 989 1254 bf 6 5 1013 1254 bf 6 5 1025 1254 bf 0 0.546666 1 c
 6 5 1037 1254 bf 0 0.266667 1 c 6 5 1049 1254 bf 6 5 1073 1254 bf 0 0.546666 1 c 6 5 1079 1254 bf 0.2 0 1 c 6 5 1085 1254 bf 6 5 1097 1254 bf 0 0.266667 1 c 6 5 1109 1254 bf 0.2 0 1 c 6 5 1115 1254 bf 6 5 1121 1254 bf 0 0.546666 1 c 6 5 1127 1254 bf
 0.2 0 1 c 6 5 1139 1254 bf 0 0.266667 1 c 6 5 1145 1254 bf 6 5 1163 1254 bf 0.2 0 1 c 6 5 1169 1254 bf 6 5 1175 1254 bf 0 0.546666 1 c 6 5 1181 1254 bf 0.2 0 1 c 6 5 1187 1254 bf 0 0.546666 1 c 6 5 1193 1254 bf 0.2 0 1 c 6 5 1199 1254 bf 0 0.266667
 1 c 6 5 1205 1254 bf 0.2 0 1 c 6 5 1211 1254 bf 0 0.266667 1 c 6 5 1217 1254 bf 0.2 0 1 c 6 5 1223 1254 bf 0 0.266667 1 c 6 5 1229 1254 bf 0.2 0 1 c 6 5 1235 1254 bf 0 0.266667 1 c 6 5 1241 1254 bf 6 5 1253 1254 bf 0.2 0 1 c 6 5 1271 1254 bf 0
 0.266667 1 c 6 5 1277 1254 bf 0.2 0 1 c 6 5 1289 1254 bf 6 5 1295 1254 bf 6 5 1307 1254 bf 6 5 923 1259 bf 6 5 989 1259 bf 6 5 995 1259 bf 6 5 1019 1259 bf 0 0.266667 1 c 6 5 1031 1259 bf 6 5 1043 1259 bf 0.2 0 1 c 6 5 1049 1259 bf 0 0.266667 1 c 6
 5 1061 1259 bf 6 5 1067 1259 bf 0.2 0 1 c 6 5 1073 1259 bf 6 5 1079 1259 bf 6 5 1091 1259 bf 6 5 1103 1259 bf 6 5 1109 1259 bf 0 0.266667 1 c 6 5 1121 1259 bf 6 5 1139 1259 bf 0 0.546666 1 c 6 5 1145 1259 bf 0 0.266667 1 c 6 5 1151 1259 bf 0.2 0 1 c
 6 5 1163 1259 bf 0 0.546666 1 c 6 5 1169 1259 bf 0 0.266667 1 c 6 5 1175 1259 bf 0 0.546666 1 c 6 5 1181 1259 bf 6 5 1187 1259 bf 0 0.266667 1 c 6 5 1193 1259 bf 6 5 1205 1259 bf 0 0.546666 1 c 6 5 1211 1259 bf 0.2 0 1 c 6 5 1217 1259 bf 6 5 1223
 1259 bf 0 1 0.8 c 6 5 1229 1259 bf 6 5 1235 1259 bf 0.2 0 1 c 6 5 1241 1259 bf 0 0.546666 1 c 6 5 1247 1259 bf 0 0.266667 1 c 6 5 1259 1259 bf 0.2 0 1 c 6 5 1265 1259 bf 6 5 1271 1259 bf 6 5 1277 1259 bf 6 5 1283 1259 bf 0 0.546666 1 c 6 5 1289 1259
 bf 0.2 0 1 c 6 5 1301 1259 bf 6 5 1373 1259 bf 6 5 947 1264 bf 6 5 959 1264 bf 6 5 965 1264 bf 6 5 971 1264 bf 6 5 995 1264 bf 6 5 1001 1264 bf 0 0.266667 1 c 6 5 1007 1264 bf 0.2 0 1 c 6 5 1013 1264 bf 0 0.266667 1 c 6 5 1031 1264 bf 6 5 1043 1264
 bf 0.2 0 1 c 6 5 1049 1264 bf 0 0.546666 1 c 6 5 1055 1264 bf 0 1 0.986667 c 6 5 1061 1264 bf 0.2 0 1 c 6 5 1067 1264 bf 6 5 1073 1264 bf 0 1 0.986667 c 6 5 1097 1264 bf 0 0.546666 1 c 6 5 1103 1264 bf 0 0.266667 1 c 6 5 1109 1264 bf 0 0.546666 1 c
 6 5 1115 1264 bf 0 0.266667 1 c 6 5 1121 1264 bf 0.2 0 1 c 6 5 1127 1264 bf 0 0.546666 1 c 6 5 1133 1264 bf 0 0.266667 1 c 6 5 1139 1264 bf 6 5 1151 1264 bf 0 0.546666 1 c 6 5 1157 1264 bf 0 1 0.986667 c 6 5 1163 1264 bf 0 0.266667 1 c 6 5 1169 1264
 bf 0.413333 1 0 c 6 5 1181 1264 bf 0 0.266667 1 c 6 5 1187 1264 bf 6 5 1193 1264 bf 6 5 1199 1264 bf 0 0.546666 1 c 6 5 1205 1264 bf 6 5 1211 1264 bf 0 1 0.333333 c 6 5 1217 1264 bf 0.2 0 1 c 6 5 1223 1264 bf 0 1 0.333333 c 6 5 1229 1264 bf 0
 0.546666 1 c 6 5 1235 1264 bf 0 0.266667 1 c 6 5 1241 1264 bf 0.2 0 1 c 6 5 1247 1264 bf 6 5 1253 1264 bf 0 0.266667 1 c 6 5 1259 1264 bf 0 1 0.8 c 6 5 1265 1264 bf 0.2 0 1 c 6 5 1271 1264 bf 6 5 1277 1264 bf 6 5 1283 1264 bf 0 0.266667 1 c 6 5 1289
 1264 bf 0 0.546666 1 c 6 5 1301 1264 bf 0 0.266667 1 c 6 5 1307 1264 bf 0.2 0 1 c 6 5 1325 1264 bf 0 0.266667 1 c 6 6 953 1269 bf 0.2 0 1 c 6 6 959 1269 bf 6 6 971 1269 bf 0 0.266667 1 c 6 6 1007 1269 bf 0.2 0 1 c 6 6 1013 1269 bf 6 6 1019 1269 bf 6
 6 1025 1269 bf 6 6 1031 1269 bf 0 0.266667 1 c 6 6 1037 1269 bf 6 6 1043 1269 bf 0.2 0 1 c 6 6 1049 1269 bf 6 6 1055 1269 bf 0 0.546666 1 c 6 6 1061 1269 bf 0 0.266667 1 c 6 6 1073 1269 bf 0 1 0.986667 c 6 6 1079 1269 bf 0.2 0 1 c 6 6 1085 1269 bf 0
 0.266667 1 c 6 6 1097 1269 bf 0 1 0.986667 c 6 6 1103 1269 bf 0 0.266667 1 c 6 6 1115 1269 bf 6 6 1121 1269 bf 0 0.546666 1 c 6 6 1127 1269 bf 0 0.266667 1 c 6 6 1133 1269 bf 6 6 1139 1269 bf 6 6 1145 1269 bf 0 1 0.986667 c 6 6 1151 1269 bf 0
 0.546666 1 c 6 6 1157 1269 bf 0.2 0 1 c 6 6 1163 1269 bf 0 0.266667 1 c 6 6 1169 1269 bf 0 1 0.8 c 6 6 1175 1269 bf 0 0.266667 1 c 6 6 1181 1269 bf 0 1 0.986667 c 6 6 1187 1269 bf 6 6 1193 1269 bf 0.6 1 0 c 6 6 1199 1269 bf 0 1 0.8 c 6 6 1205 1269
 bf 1 0.933333 0 c 6 6 1211 1269 bf 0 1 0.8 c 6 6 1217 1269 bf 0 1 0.986667 c 6 6 1223 1269 bf 6 6 1229 1269 bf 6 6 1235 1269 bf 6 6 1247 1269 bf 0 0.266667 1 c 6 6 1253 1269 bf 6 6 1259 1269 bf 6 6 1265 1269 bf 0 1 0.986667 c 6 6 1277 1269 bf 0.2 0
 1 c 6 6 1283 1269 bf 0 1 0.986667 c 6 6 1289 1269 bf 0.2 0 1 c 6 6 1295 1269 bf 6 6 1301 1269 bf 6 6 1307 1269 bf 6 6 1325 1269 bf 6 5 935 1275 bf 6 5 941 1275 bf 0 0.266667 1 c 6 5 959 1275 bf 0.2 0 1 c 6 5 965 1275 bf 6 5 977 1275 bf 0 0.266667 1
 c 6 5 983 1275 bf 0.2 0 1 c 6 5 989 1275 bf 6 5 1001 1275 bf 0 0.266667 1 c 6 5 1007 1275 bf 0 0.546666 1 c 6 5 1013 1275 bf 0.2 0 1 c 6 5 1019 1275 bf 0 0.266667 1 c 6 5 1025 1275 bf 0.2 0 1 c 6 5 1031 1275 bf 0 0.266667 1 c 6 5 1037 1275 bf 0.2 0
 1 c 6 5 1055 1275 bf 0 0.546666 1 c 6 5 1061 1275 bf 6 5 1067 1275 bf 6 5 1073 1275 bf 0 1 0.333333 c 6 5 1079 1275 bf 0 1 0.0533333 c 6 5 1091 1275 bf 0 1 0.8 c 6 5 1103 1275 bf 6 5 1109 1275 bf 0.2 0 1 c 6 5 1115 1275 bf 0 0.546666 1 c 6 5 1121
 1275 bf 6 5 1127 1275 bf 0 1 0.986667 c 6 5 1133 1275 bf 0 1 0.8 c 6 5 1139 1275 bf 0 0.266667 1 c 6 5 1145 1275 bf 0 0.546666 1 c 6 5 1151 1275 bf 0 0.266667 1 c 6 5 1157 1275 bf 0 1 0.0533333 c 6 5 1163 1275 bf 1 0.653333 0 c 6 5 1169 1275 bf 0.2
 0 1 c 6 5 1175 1275 bf 0 0.546666 1 c 6 5 1181 1275 bf 0.413333 1 0 c 6 5 1187 1275 bf 0 0.546666 1 c 6 5 1193 1275 bf 0 1 0.8 c 6 5 1199 1275 bf 0 0.546666 1 c 6 5 1205 1275 bf 0.413333 1 0 c 6 5 1211 1275 bf 0 1 0.333333 c 6 5 1217 1275 bf 0 1 0.8
 c 6 5 1223 1275 bf 6 5 1229 1275 bf 0 0.546666 1 c 6 5 1235 1275 bf 0 1 0.986667 c 6 5 1241 1275 bf 0 0.266667 1 c 6 5 1247 1275 bf 0.413333 1 0 c 6 5 1253 1275 bf 0 1 0.333333 c 6 5 1259 1275 bf 0.2 0 1 c 6 5 1265 1275 bf 0 0.546666 1 c 6 5 1271
 1275 bf 0 0.266667 1 c 6 5 1277 1275 bf 6 5 1283 1275 bf 0.2 0 1 c 6 5 1289 1275 bf 6 5 1301 1275 bf 6 5 1307 1275 bf 6 5 1319 1275 bf 6 5 953 1280 bf 6 5 959 1280 bf 6 5 965 1280 bf 6 5 977 1280 bf 0 0.546666 1 c 6 5 983 1280 bf 6 5 995 1280 bf 0
 0.266667 1 c 6 5 1001 1280 bf 0.2 0 1 c 6 5 1007 1280 bf 6 5 1013 1280 bf 0 0.546666 1 c 6 5 1019 1280 bf 0.2 0 1 c 6 5 1025 1280 bf 0 1 0.986667 c 6 5 1031 1280 bf 6 5 1037 1280 bf 0 0.546666 1 c 6 5 1043 1280 bf 0 1 0.986667 c 6 5 1049 1280 bf 0.2
 0 1 c 6 5 1055 1280 bf 0 0.266667 1 c 6 5 1061 1280 bf 0 0.546666 1 c 6 5 1067 1280 bf 0 1 0.986667 c 6 5 1073 1280 bf 0 0.546666 1 c 6 5 1079 1280 bf 0.2 0 1 c 6 5 1085 1280 bf 0 1 0.333333 c 6 5 1091 1280 bf 0 0.546666 1 c 6 5 1097 1280 bf 0
 0.266667 1 c 6 5 1103 1280 bf 0 1 0.986667 c 6 5 1109 1280 bf 0 0.546666 1 c 6 5 1115 1280 bf 0 0.266667 1 c 6 5 1121 1280 bf 0 1 0.333333 c 6 5 1127 1280 bf 0 0.266667 1 c 6 5 1133 1280 bf 0 0.546666 1 c 6 5 1139 1280 bf 0.413333 1 0 c 6 5 1145
 1280 bf 0 1 0.8 c 6 5 1151 1280 bf 0.413333 1 0 c 6 5 1157 1280 bf 0 1 0.333333 c 6 5 1163 1280 bf 0 1 0.0533333 c 6 5 1169 1280 bf 1 0 0 c 6 5 1175 1280 bf 0 1 0.8 c 6 5 1181 1280 bf 0 1 0.0533333 c 6 5 1187 1280 bf 0 0.546666 1 c 6 5 1193 1280 bf
 0.6 1 0 c 6 5 1199 1280 bf 0 0.266667 1 c 6 5 1205 1280 bf 6 5 1211 1280 bf 0 1 0.0533333 c 6 5 1217 1280 bf 0.413333 1 0 c 6 5 1223 1280 bf 0 1 0.8 c 6 5 1229 1280 bf 0 1 0.986667 c 6 5 1235 1280 bf 0.413333 1 0 c 6 5 1241 1280 bf 0 0.546666 1 c 6
 5 1247 1280 bf 0 1 0.8 c 6 5 1253 1280 bf 0 0.546666 1 c 6 5 1259 1280 bf 0 0.266667 1 c 6 5 1265 1280 bf 0.2 0 1 c 6 5 1271 1280 bf 6 5 1277 1280 bf 0 0.546666 1 c 6 5 1289 1280 bf 0.2 0 1 c 6 5 1301 1280 bf 6 5 1307 1280 bf 6 5 1319 1280 bf 6 5
 899 1285 bf 6 5 911 1285 bf 6 5 923 1285 bf 6 5 929 1285 bf 6 5 959 1285 bf 6 5 971 1285 bf 0 1 0.986667 c 6 5 983 1285 bf 0 0.546666 1 c 6 5 989 1285 bf 0 0.266667 1 c 6 5 995 1285 bf 6 5 1001 1285 bf 6 5 1007 1285 bf 0.2 0 1 c 6 5 1013 1285 bf 0
 0.546666 1 c 6 5 1019 1285 bf 0 0.266667 1 c 6 5 1025 1285 bf 0 1 0.8 c 6 5 1031 1285 bf 0 1 0.333333 c 6 5 1037 1285 bf 0 1 0.986667 c 6 5 1043 1285 bf 6 5 1049 1285 bf 0.2 0 1 c 6 5 1055 1285 bf 0 1 0.986667 c 6 5 1061 1285 bf 6 5 1067 1285 bf 0
 0.266667 1 c 6 5 1073 1285 bf 0 1 0.986667 c 6 5 1079 1285 bf 0.2 0 1 c 6 5 1085 1285 bf 0 0.546666 1 c 6 5 1091 1285 bf 0 0.266667 1 c 6 5 1097 1285 bf 0 1 0.986667 c 6 5 1103 1285 bf 0 0.546666 1 c 6 5 1109 1285 bf 0 1 0.8 c 6 5 1115 1285 bf 0
 0.266667 1 c 6 5 1121 1285 bf 6 5 1127 1285 bf 0 1 0.0533333 c 6 5 1133 1285 bf 0 1 0.333333 c 6 5 1139 1285 bf 6 5 1145 1285 bf 1 0.933333 0 c 6 5 1151 1285 bf 0 1 0.8 c 6 5 1157 1285 bf 0 1 0.333333 c 6 5 1163 1285 bf 1 0.933333 0 c 6 5 1169 1285
 bf 0 1 0.0533333 c 6 5 1175 1285 bf 0 1 0.986667 c 6 5 1181 1285 bf 1 0.186667 0 c 6 5 1187 1285 bf 0.6 1 0 c 6 5 1193 1285 bf 0 1 0.986667 c 6 5 1199 1285 bf 6 5 1205 1285 bf 6 5 1211 1285 bf 0 0.546666 1 c 6 5 1217 1285 bf 0 1 0.333333 c 6 5 1223
 1285 bf 0 0.266667 1 c 6 5 1229 1285 bf 0.2 0 1 c 6 5 1235 1285 bf 0 0.266667 1 c 6 5 1241 1285 bf 6 5 1247 1285 bf 0.2 0 1 c 6 5 1259 1285 bf 0 1 0.986667 c 6 5 1265 1285 bf 0.2 0 1 c 6 5 1271 1285 bf 6 5 1277 1285 bf 6 5 1313 1285 bf 6 5 1331 1285
 bf 6 6 899 1290 bf 6 6 935 1290 bf 0 0.266667 1 c 6 6 947 1290 bf 0.2 0 1 c 6 6 953 1290 bf 6 6 959 1290 bf 0 0.266667 1 c 6 6 965 1290 bf 6 6 971 1290 bf 0.2 0 1 c 6 6 977 1290 bf 0 0.266667 1 c 6 6 989 1290 bf 0 1 0.8 c 6 6 995 1290 bf 0 0.266667
 1 c 6 6 1007 1290 bf 0 1 0.986667 c 6 6 1013 1290 bf 0.2 0 1 c 6 6 1019 1290 bf 0 0.546666 1 c 6 6 1025 1290 bf 0 1 0.8 c 6 6 1031 1290 bf 0 1 0.986667 c 6 6 1037 1290 bf 0 0.266667 1 c 6 6 1043 1290 bf 0 1 0.8 c 6 6 1055 1290 bf 0.413333 1 0 c 6 6
 1061 1290 bf 0 1 0.8 c 6 6 1067 1290 bf 0 1 0.0533333 c 6 6 1073 1290 bf 6 6 1079 1290 bf 0 1 0.8 c 6 6 1085 1290 bf 0 0.546666 1 c 6 6 1091 1290 bf 0 1 0.986667 c 6 6 1097 1290 bf 0.6 1 0 c 6 6 1103 1290 bf 0 1 0.333333 c 6 6 1109 1290 bf 0 1
 0.0533333 c 6 6 1115 1290 bf 1 0.186667 0 c 6 6 1121 1290 bf 6 6 1127 1290 bf 0 1 0.8 c 6 6 1133 1290 bf 6 6 1139 1290 bf 0.413333 1 0 c 6 6 1145 1290 bf 0.2 0 1 c 6 6 1151 1290 bf 0.6 1 0 c 6 6 1157 1290 bf 0 1 0.986667 c 6 6 1163 1290 bf 0 1 0.8 c
 6 6 1169 1290 bf 6 6 1175 1290 bf 0 1 0.333333 c 6 6 1187 1290 bf 0 0.266667 1 c 6 6 1193 1290 bf 0 1 0.8 c 6 6 1199 1290 bf 0 0.546666 1 c 6 6 1205 1290 bf 6 6 1211 1290 bf 0 1 0.8 c 6 6 1217 1290 bf 0 1 0.986667 c 6 6 1223 1290 bf 6 6 1229 1290 bf
 6 6 1235 1290 bf 0 0.266667 1 c 6 6 1241 1290 bf 6 6 1247 1290 bf 0.2 0 1 c 6 6 1259 1290 bf 6 6 1271 1290 bf 6 6 1295 1290 bf 6 6 1301 1290 bf 6 6 1325 1290 bf 0 0.266667 1 c 6 5 953 1296 bf 0.2 0 1 c 6 5 959 1296 bf 0 0.266667 1 c 6 5 965 1296 bf
 0 0.546666 1 c 6 5 971 1296 bf 0 0.266667 1 c 6 5 977 1296 bf 0.2 0 1 c 6 5 983 1296 bf 0 1 0.986667 c 6 5 989 1296 bf 0.2 0 1 c 6 5 995 1296 bf 0 1 0.8 c 6 5 1001 1296 bf 6 5 1013 1296 bf 0 0.266667 1 c 6 5 1019 1296 bf 0 1 0.0533333 c 6 5 1025
 1296 bf 0 1 0.986667 c 6 5 1031 1296 bf 6 5 1037 1296 bf 0.2 0 1 c 6 5 1043 1296 bf 0 1 0.986667 c 6 5 1049 1296 bf 0 1 0.8 c 6 5 1055 1296 bf 0 0.546666 1 c 6 5 1061 1296 bf 0 1 0.8 c 6 5 1067 1296 bf 0 0.546666 1 c 6 5 1073 1296 bf 0 1 0.986667 c
 6 5 1079 1296 bf 0 1 0.8 c 6 5 1085 1296 bf 0 0.546666 1 c 6 5 1091 1296 bf 0 1 0.8 c 6 5 1097 1296 bf 1 0.933333 0 c 6 5 1103 1296 bf 0.413333 1 0 c 6 5 1109 1296 bf 6 5 1115 1296 bf 0 1 0.0533333 c 6 5 1121 1296 bf 0 1 0.8 c 6 5 1127 1296 bf 0 1
 0.986667 c 6 5 1133 1296 bf 6 5 1139 1296 bf 0.2 0 1 c 6 5 1145 1296 bf 0.413333 1 0 c 6 5 1151 1296 bf 0 1 0.333333 c 6 5 1157 1296 bf 0 0.546666 1 c 6 5 1163 1296 bf 0 1 0.8 c 6 5 1169 1296 bf 0 0.546666 1 c 6 5 1175 1296 bf 6 5 1181 1296 bf 0
 0.266667 1 c 6 5 1187 1296 bf 0 0.546666 1 c 6 5 1193 1296 bf 0.2 0 1 c 6 5 1199 1296 bf 6 5 1205 1296 bf 0 1 0.8 c 6 5 1211 1296 bf 0.2 0 1 c 6 5 1217 1296 bf 0 0.266667 1 c 6 5 1223 1296 bf 0 1 0.8 c 6 5 1229 1296 bf 0 0.266667 1 c 6 5 1235 1296
 bf 6 5 1241 1296 bf 0 0.546666 1 c 6 5 1253 1296 bf 0.2 0 1 c 6 5 1271 1296 bf 6 5 1277 1296 bf 6 5 1295 1296 bf 6 5 917 1301 bf 6 5 923 1301 bf 6 5 935 1301 bf 6 5 941 1301 bf 6 5 947 1301 bf 0 1 0.8 c 6 5 959 1301 bf 0.2 0 1 c 6 5 965 1301 bf 6 5
 971 1301 bf 0 1 0.986667 c 6 5 977 1301 bf 0 0.266667 1 c 6 5 983 1301 bf 0.2 0 1 c 6 5 989 1301 bf 0 0.546666 1 c 6 5 995 1301 bf 0.2 0 1 c 6 5 1001 1301 bf 0 1 0.8 c 6 5 1007 1301 bf 6 5 1013 1301 bf 6 5 1019 1301 bf 0.2 0 1 c 6 5 1025 1301 bf
 0.413333 1 0 c 6 5 1037 1301 bf 0 0.546666 1 c 6 5 1043 1301 bf 0 1 0.333333 c 6 5 1049 1301 bf 0 1 0.986667 c 6 5 1055 1301 bf 0 1 0.333333 c 6 5 1061 1301 bf 0 1 0.0533333 c 6 5 1067 1301 bf 0 1 0.8 c 6 5 1073 1301 bf 0 1 0.986667 c 6 5 1079 1301
 bf 0 0.546666 1 c 6 5 1085 1301 bf 0 1 0.986667 c 6 5 1091 1301 bf 0 1 0.8 c 6 5 1097 1301 bf 0.413333 1 0 c 6 5 1103 1301 bf 0 1 0.986667 c 6 5 1109 1301 bf 6 5 1115 1301 bf 0 0.546666 1 c 6 5 1121 1301 bf 6 5 1133 1301 bf 0.2 0 1 c 6 5 1139 1301
 bf 0 1 0.333333 c 6 5 1145 1301 bf 0 0.266667 1 c 6 5 1151 1301 bf 0 1 0.986667 c 6 5 1157 1301 bf 0 0.266667 1 c 6 5 1163 1301 bf 0.413333 1 0 c 6 5 1169 1301 bf 0 1 0.986667 c 6 5 1175 1301 bf 0 0.546666 1 c 6 5 1181 1301 bf 0 1 0.8 c 6 5 1187
 1301 bf 0.2 0 1 c 6 5 1193 1301 bf 6 5 1205 1301 bf 0 0.266667 1 c 6 5 1211 1301 bf 0.2 0 1 c 6 5 1217 1301 bf 6 5 1223 1301 bf 0 0.266667 1 c 6 5 1241 1301 bf 0.2 0 1 c 6 5 1247 1301 bf 0 0.266667 1 c 6 5 1253 1301 bf 6 5 1277 1301 bf 0.2 0 1 c 6 5
 1289 1301 bf 0 0.266667 1 c 6 5 923 1306 bf 0.2 0 1 c 6 5 929 1306 bf 6 5 941 1306 bf 0 0.266667 1 c 6 5 947 1306 bf 0 0.546666 1 c 6 5 953 1306 bf 0 0.266667 1 c 6 5 959 1306 bf 6 5 965 1306 bf 0 0.546666 1 c 6 5 971 1306 bf 0 1 0.986667 c 6 5 977
 1306 bf 0 1 0.8 c 6 5 983 1306 bf 0 0.266667 1 c 6 5 989 1306 bf 0 0.546666 1 c 6 5 995 1306 bf 0 0.266667 1 c 6 5 1001 1306 bf 0 1 0.986667 c 6 5 1007 1306 bf 6 5 1013 1306 bf 0.6 1 0 c 6 5 1019 1306 bf 0 1 0.0533333 c 6 5 1025 1306 bf 0.413333 1 0
 c 6 5 1031 1306 bf 6 5 1037 1306 bf 0.2 0 1 c 6 5 1043 1306 bf 0 1 0.0533333 c 6 5 1049 1306 bf 0 0.546666 1 c 6 5 1055 1306 bf 0 1 0.333333 c 6 5 1061 1306 bf 0 0.546666 1 c 6 5 1067 1306 bf 0 1 0.333333 c 6 5 1073 1306 bf 0 1 0.0533333 c 6 5 1079
 1306 bf 0 1 0.8 c 6 5 1085 1306 bf 0 0.266667 1 c 6 5 1091 1306 bf 0 1 0.333333 c 6 5 1097 1306 bf 0 1 0.8 c 6 5 1103 1306 bf 0 1 0.986667 c 6 5 1109 1306 bf 0 1 0.8 c 6 5 1115 1306 bf 0.2 0 1 c 6 5 1121 1306 bf 0 1 0.986667 c 6 5 1127 1306 bf 0.2 0
 1 c 6 5 1133 1306 bf 6 5 1139 1306 bf 0 0.266667 1 c 6 5 1145 1306 bf 0.2 0 1 c 6 5 1151 1306 bf 0 0.266667 1 c 6 5 1157 1306 bf 0.2 0 1 c 6 5 1163 1306 bf 0 0.266667 1 c 6 5 1169 1306 bf 6 5 1175 1306 bf 0 0.546666 1 c 6 5 1181 1306 bf 0.2 0 1 c 6
 5 1187 1306 bf 6 5 1205 1306 bf 6 5 1211 1306 bf 0 0.266667 1 c 6 5 1217 1306 bf 6 5 1229 1306 bf 0.2 0 1 c 6 5 1235 1306 bf 6 5 1259 1306 bf 6 5 1265 1306 bf 6 5 1277 1306 bf 6 5 1283 1306 bf 6 5 1289 1306 bf 6 5 1367 1306 bf 6 6 905 1311 bf 0
 0.266667 1 c 6 6 923 1311 bf 0.2 0 1 c 6 6 929 1311 bf 0 0.546666 1 c 6 6 935 1311 bf 0 0.266667 1 c 6 6 941 1311 bf 0.2 0 1 c 6 6 947 1311 bf 0 0.546666 1 c 6 6 953 1311 bf 6 6 959 1311 bf 6 6 965 1311 bf 0 0.266667 1 c 6 6 971 1311 bf 0 1 0.986667
 c 6 6 977 1311 bf 0.2 0 1 c 6 6 983 1311 bf 0 1 0.986667 c 6 6 989 1311 bf 0 1 0.8 c 6 6 995 1311 bf 6 6 1001 1311 bf 6 6 1007 1311 bf 0 1 0.333333 c 6 6 1013 1311 bf 0.413333 1 0 c 6 6 1019 1311 bf 0 1 0.986667 c 6 6 1025 1311 bf 1 0.933333 0 c 6 6
 1031 1311 bf 0 1 0.986667 c 6 6 1037 1311 bf 0 1 0.333333 c 6 6 1043 1311 bf 0 0.266667 1 c 6 6 1049 1311 bf 0 1 0.333333 c 6 6 1055 1311 bf 0.2 0 1 c 6 6 1061 1311 bf 0 1 0.8 c 6 6 1067 1311 bf 0 0.546666 1 c 6 6 1073 1311 bf 6 6 1079 1311 bf 0 1
 0.8 c 6 6 1085 1311 bf 0 1 0.986667 c 6 6 1091 1311 bf 0 0.266667 1 c 6 6 1097 1311 bf 0.2 0 1 c 6 6 1103 1311 bf 0 0.266667 1 c 6 6 1109 1311 bf 0.2 0 1 c 6 6 1121 1311 bf 0 0.266667 1 c 6 6 1127 1311 bf 0.2 0 1 c 6 6 1139 1311 bf 0 0.266667 1 c 6
 6 1145 1311 bf 6 6 1151 1311 bf 6 6 1157 1311 bf 6 6 1163 1311 bf 0.2 0 1 c 6 6 1169 1311 bf 0 0.546666 1 c 6 6 1175 1311 bf 0.2 0 1 c 6 6 1181 1311 bf 0 0.546666 1 c 6 6 1187 1311 bf 6 6 1193 1311 bf 0.2 0 1 c 6 6 1199 1311 bf 0 0.266667 1 c 6 6
 1211 1311 bf 0.2 0 1 c 6 6 1223 1311 bf 6 6 1229 1311 bf 6 6 1241 1311 bf 0 0.266667 1 c 6 5 929 1317 bf 6 5 935 1317 bf 6 5 941 1317 bf 6 5 947 1317 bf 0 0.546666 1 c 6 5 953 1317 bf 0.2 0 1 c 6 5 959 1317 bf 6 5 965 1317 bf 0 0.546666 1 c 6 5 971
 1317 bf 6 5 977 1317 bf 0.2 0 1 c 6 5 983 1317 bf 0 0.546666 1 c 6 5 989 1317 bf 6 5 995 1317 bf 6 5 1001 1317 bf 0 0.266667 1 c 6 5 1007 1317 bf 0.2 0 1 c 6 5 1013 1317 bf 0 0.266667 1 c 6 5 1019 1317 bf 0 1 0.333333 c 6 5 1025 1317 bf 0 1 0.986667
 c 6 5 1031 1317 bf 6 5 1037 1317 bf 0.2 0 1 c 6 5 1049 1317 bf 0 0.546666 1 c 6 5 1055 1317 bf 0 0.266667 1 c 6 5 1079 1317 bf 6 5 1091 1317 bf 0.2 0 1 c 6 5 1097 1317 bf 6 5 1109 1317 bf 6 5 1115 1317 bf 0 0.266667 1 c 6 5 1127 1317 bf 0.2 0 1 c 6
 5 1145 1317 bf 0 0.266667 1 c 6 5 1163 1317 bf 0.2 0 1 c 6 5 1169 1317 bf 6 5 1193 1317 bf 0 0.266667 1 c 6 5 1199 1317 bf 0 1 0.986667 c 6 5 1205 1317 bf 0.2 0 1 c 6 5 1223 1317 bf 6 5 1265 1317 bf 6 5 899 1322 bf 0 0.266667 1 c 6 5 929 1322 bf 6 5
 935 1322 bf 0.2 0 1 c 6 5 941 1322 bf 0 0.266667 1 c 6 5 947 1322 bf 0.2 0 1 c 6 5 959 1322 bf 6 5 965 1322 bf 6 5 977 1322 bf 0 0.266667 1 c 6 5 983 1322 bf 6 5 989 1322 bf 0.2 0 1 c 6 5 995 1322 bf 0 0.266667 1 c 6 5 1001 1322 bf 6 5 1007 1322 bf
 0.2 0 1 c 6 5 1013 1322 bf 6 5 1019 1322 bf 0 1 0.986667 c 6 5 1025 1322 bf 0 0.266667 1 c 6 5 1031 1322 bf 6 5 1037 1322 bf 0.2 0 1 c 6 5 1043 1322 bf 0 0.266667 1 c 6 5 1049 1322 bf 6 5 1055 1322 bf 0.2 0 1 c 6 5 1067 1322 bf 0 0.266667 1 c 6 5
 1073 1322 bf 0.2 0 1 c 6 5 1079 1322 bf 0 1 0.986667 c 6 5 1085 1322 bf 0 0.266667 1 c 6 5 1091 1322 bf 6 5 1103 1322 bf 0 0.546666 1 c 6 5 1109 1322 bf 0 0.266667 1 c 6 5 1115 1322 bf 0.2 0 1 c 6 5 1121 1322 bf 0 0.266667 1 c 6 5 1127 1322 bf 0.2 0
 1 c 6 5 1133 1322 bf 6 5 1139 1322 bf 6 5 1151 1322 bf 6 5 1169 1322 bf 6 5 1199 1322 bf 6 5 1235 1322 bf 6 5 1253 1322 bf 6 5 857 1327 bf 6 5 911 1327 bf 0 0.266667 1 c 6 5 935 1327 bf 0.2 0 1 c 6 5 941 1327 bf 0 0.266667 1 c 6 5 947 1327 bf 0.2 0
 1 c 6 5 959 1327 bf 6 5 989 1327 bf 6 5 995 1327 bf 6 5 1001 1327 bf 0 0.266667 1 c 6 5 1013 1327 bf 6 5 1019 1327 bf 6 5 1025 1327 bf 0.2 0 1 c 6 5 1031 1327 bf 6 5 1037 1327 bf 6 5 1043 1327 bf 0 0.266667 1 c 6 5 1049 1327 bf 0.2 0 1 c 6 5 1067
 1327 bf 6 5 1085 1327 bf 6 5 1091 1327 bf 6 5 1109 1327 bf 6 5 1151 1327 bf 6 5 1163 1327 bf 6 5 1169 1327 bf 0 0.266667 1 c 6 5 1271 1327 bf 6 5 1277 1327 bf 0.2 0 1 c 6 6 929 1332 bf 6 6 947 1332 bf 6 6 971 1332 bf 0 0.266667 1 c 6 6 989 1332 bf
 0.2 0 1 c 6 6 995 1332 bf 0 0.266667 1 c 6 6 1001 1332 bf 0.2 0 1 c 6 6 1019 1332 bf 0 0.546666 1 c 6 6 1025 1332 bf 0.2 0 1 c 6 6 1031 1332 bf 6 6 1043 1332 bf 0 0.546666 1 c 6 6 1049 1332 bf 0 0.266667 1 c 6 6 1067 1332 bf 0.2 0 1 c 6 6 1079 1332
 bf 0 0.266667 1 c 6 6 1085 1332 bf 0.2 0 1 c 6 6 1097 1332 bf 6 6 1103 1332 bf 0 0.266667 1 c 6 6 1121 1332 bf 0.2 0 1 c 6 6 1157 1332 bf 6 6 1163 1332 bf 6 6 1181 1332 bf 6 6 1187 1332 bf 6 6 1193 1332 bf 6 5 911 1338 bf 6 5 941 1338 bf 6 5 959
 1338 bf 0 0.546666 1 c 6 5 965 1338 bf 0 0.266667 1 c 6 5 983 1338 bf 0.2 0 1 c 6 5 1001 1338 bf 6 5 1055 1338 bf 6 5 1079 1338 bf 6 5 1097 1338 bf 0 0.266667 1 c 6 5 1103 1338 bf 6 5 1109 1338 bf 0.2 0 1 c 6 5 1121 1338 bf 6 5 1163 1338 bf 6 5 1193
 1338 bf 6 5 1211 1338 bf 6 5 1247 1338 bf 6 5 953 1343 bf 6 5 977 1343 bf 0 0.266667 1 c 6 5 995 1343 bf 6 5 1013 1343 bf 0.2 0 1 c 6 5 1019 1343 bf 6 5 1025 1343 bf 0 0.266667 1 c 6 5 1049 1343 bf 0.2 0 1 c 6 5 1067 1343 bf 6 5 1073 1343 bf 0
 0.266667 1 c 6 5 1079 1343 bf 0.2 0 1 c 6 5 1133 1343 bf 6 5 1145 1343 bf 6 5 1163 1343 bf 6 5 1169 1343 bf 6 5 1181 1343 bf 6 5 1229 1343 bf 0 0.266667 1 c 6 5 1235 1343 bf 0.2 0 1 c 6 5 1241 1343 bf 6 6 977 1348 bf 6 6 989 1348 bf 0 0.266667 1 c 6
 6 1031 1348 bf 6 6 1073 1348 bf 0.2 0 1 c 6 6 1115 1348 bf 6 6 1139 1348 bf 6 6 1175 1348 bf 6 6 1181 1348 bf 6 6 1229 1348 bf 0 0.266667 1 c 6 5 935 1354 bf 0.2 0 1 c 6 5 947 1354 bf 0 0.266667 1 c 6 5 1025 1354 bf 0.2 0 1 c 6 5 1037 1354 bf 6 5
 1043 1354 bf 6 5 1079 1354 bf 6 5 1085 1354 bf 6 5 1097 1354 bf 6 5 1103 1354 bf 0 0.266667 1 c 6 5 1127 1354 bf 0.2 0 1 c 6 5 1151 1354 bf 6 5 1175 1354 bf 6 5 1199 1354 bf 6 5 971 1359 bf 0 0.266667 1 c 6 5 1109 1359 bf 0.2 0 1 c 6 5 1115 1359 bf
 6 5 1163 1359 bf 6 5 1169 1359 bf 6 5 1289 1359 bf 6 5 1301 1359 bf 6 5 995 1364 bf 6 5 1043 1364 bf 6 5 1049 1364 bf 6 5 1133 1364 bf 6 5 1295 1364 bf 6 6 989 1369 bf 6 6 1007 1369 bf 6 6 1073 1369 bf 6 6 1109 1369 bf 6 6 1241 1369 bf 6 5 947 1375
 bf 6 5 1007 1375 bf 6 5 1025 1375 bf 6 5 1097 1375 bf 6 5 1133 1375 bf 6 5 1163 1375 bf 6 5 1007 1380 bf 6 5 1037 1380 bf 6 5 1085 1380 bf 6 5 1259 1380 bf 6 5 1007 1385 bf 6 5 1019 1385 bf 6 5 1049 1385 bf 6 5 1325 1385 bf 6 6 1097 1390 bf 6 6 1337
 1390 bf 6 5 1055 1396 bf 6 5 1127 1396 bf 6 5 1187 1396 bf 6 5 1001 1401 bf 6 5 1205 1401 bf 6 5 1079 1406 bf 6 6 1199 1411 bf 6 5 1013 1417 bf 6 5 1115 1417 bf 6 5 1211 1417 bf 6 5 1037 1422 bf 6 5 959 1427 bf 6 5 983 1427 bf 6 5 1115 1438 bf 6 6
 1121 1448 bf 6 5 1253 1454 bf 6 5 1097 1459 bf 6 5 1193 1459 bf 6 5 1079 1464 bf 6 6 1127 1469 bf 6 6 1295 1469 bf 6 5 1097 1475 bf 6 5 1133 1485 bf 6 6 1049 1490 bf 6 5 1103 1501 bf 6 6 1133 1569 bf 6 5 1109 1622 bf 6 5 1085 1685 bf 6 6 1133 1890
 bf 0.49 0.6 0.82 c black 311 322 m 1801 X s 332 373 m -51 Y s 399 347 m -25 Y s 466 347 m -25 Y s 533 347 m -25 Y s 599 373 m -51 Y s 666 347 m -25 Y s 733 347 m -25 Y s 800 347 m -25 Y s 867 373 m -51 Y s 934 347 m -25 Y s 1001 347 m -25 Y s 1068
 347 m -25 Y s 1134 373 m -51 Y s 1201 347 m -25 Y s 1268 347 m -25 Y s 1335 347 m -25 Y s 1402 373 m -51 Y s 1469 347 m -25 Y s 1536 347 m -25 Y s 1603 347 m -25 Y s 1669 373 m -51 Y s 1736 347 m -25 Y s 1803 347 m -25 Y s 1870 347 m -25 Y s 1937
 373 m -51 Y s 332 373 m -51 Y s 1937 373 m -51 Y s 2004 347 m -25 Y s 2071 347 m -25 Y s
 gsave  2222 2089 23 21 C 324.773 222.213 t 0 r /Helvetica findfont 91.294 sf 0 0 m (6) show NC gr 
 gsave  2222 2089 23 21 C 279.191 222.213 t 0 r /Symbol findfont 91.294 sf 0 0 m (-) show NC gr 
 gsave  2222 2089 23 21 C 592.569 222.213 t 0 r /Helvetica findfont 91.294 sf 0 0 m (4) show NC gr 
 gsave  2222 2089 23 21 C 546.987 222.213 t 0 r /Symbol findfont 91.294 sf 0 0 m (-) show NC gr 
 gsave  2222 2089 23 21 C 860.365 222.213 t 0 r /Helvetica findfont 91.294 sf 0 0 m (2) show NC gr 
 gsave  2222 2089 23 21 C 814.783 222.213 t 0 r /Symbol findfont 91.294 sf 0 0 m (-) show NC gr 
 gsave  2222 2089 23 21 C 1105.37 222.213 t 0 r /Helvetica findfont 91.294 sf 0 0 m (0) show NC gr 
 gsave  2222 2089 23 21 C 1373.17 222.213 t 0 r /Helvetica findfont 91.294 sf 0 0 m (2) show NC gr 
 gsave  2222 2089 23 21 C 1640.96 222.213 t 0 r /Helvetica findfont 91.294 sf 0 0 m (4) show NC gr 
 gsave  2222 2089 23 21 C 1903.06 222.213 t 0 r /Helvetica findfont 91.294 sf 0 0 m (6) show NC gr 
 gsave  2222 2089 23 21 C 1168.04 62.6756 t 0 r /Helvetica findfont 102.706 sf 0 0 m (Variable 1 \(PCA\)  [F]) show NC gr  311 1901 m 1801 X s 332 1850 m 51 Y s 399 1875 m 26 Y s 466 1875 m 26 Y s 533 1875 m 26 Y s 599 1850 m 51 Y s 666 1875 m 26 Y s
 733 1875 m 26 Y s 800 1875 m 26 Y s 867 1850 m 51 Y s 934 1875 m 26 Y s 1001 1875 m 26 Y s 1068 1875 m 26 Y s 1134 1850 m 51 Y s 1201 1875 m 26 Y s 1268 1875 m 26 Y s 1335 1875 m 26 Y s 1402 1850 m 51 Y s 1469 1875 m 26 Y s 1536 1875 m 26 Y s 1603
 1875 m 26 Y s 1669 1850 m 51 Y s 1736 1875 m 26 Y s 1803 1875 m 26 Y s 1870 1875 m 26 Y s 1937 1850 m 51 Y s 332 1850 m 51 Y s 1937 1850 m 51 Y s 2004 1875 m 26 Y s 2071 1875 m 26 Y s 311 322 m 1579 Y s 361 445 m -50 X s 336 491 m -25 X s 336 537 m
 -25 X s 336 584 m -25 X s 361 630 m -50 X s 336 676 m -25 X s 336 723 m -25 X s 336 769 m -25 X s 361 815 m -50 X s 336 862 m -25 X s 336 908 m -25 X s 336 954 m -25 X s 361 1001 m -50 X s 336 1047 m -25 X s 336 1094 m -25 X s 336 1140 m -25 X s 361
 1186 m -50 X s 336 1233 m -25 X s 336 1279 m -25 X s 336 1325 m -25 X s 361 1372 m -50 X s 336 1418 m -25 X s 336 1464 m -25 X s 336 1511 m -25 X s 361 1557 m -50 X s 336 1604 m -25 X s 336 1650 m -25 X s 336 1696 m -25 X s 361 1743 m -50 X s 361
 445 m -50 X s 336 398 m -25 X s 336 352 m -25 X s 361 1743 m -50 X s 336 1789 m -25 X s 336 1835 m -25 X s 336 1882 m -25 X s
 gsave  2222 2089 23 21 C 227.911 415.938 t 0 r /Helvetica findfont 91.294 sf 0 0 m (8) show NC gr 
 gsave  2222 2089 23 21 C 176.631 415.938 t 0 r /Symbol findfont 91.294 sf 0 0 m (-) show NC gr 
 gsave  2222 2089 23 21 C 227.911 598.267 t 0 r /Helvetica findfont 91.294 sf 0 0 m (6) show NC gr 
 gsave  2222 2089 23 21 C 176.631 598.267 t 0 r /Symbol findfont 91.294 sf 0 0 m (-) show NC gr 
 gsave  2222 2089 23 21 C 227.911 780.596 t 0 r /Helvetica findfont 91.294 sf 0 0 m (4) show NC gr 
 gsave  2222 2089 23 21 C 176.631 780.596 t 0 r /Symbol findfont 91.294 sf 0 0 m (-) show NC gr 
 gsave  2222 2089 23 21 C 227.911 962.925 t 0 r /Helvetica findfont 91.294 sf 0 0 m (2) show NC gr 
 gsave  2222 2089 23 21 C 176.631 962.925 t 0 r /Symbol findfont 91.294 sf 0 0 m (-) show NC gr 
 gsave  2222 2089 23 21 C 227.911 1156.65 t 0 r /Helvetica findfont 91.294 sf 0 0 m (0) show NC gr 
 gsave  2222 2089 23 21 C 227.911 1333.28 t 0 r /Helvetica findfont 91.294 sf 0 0 m (2) show NC gr 
 gsave  2222 2089 23 21 C 227.911 1521.31 t 0 r /Helvetica findfont 91.294 sf 0 0 m (4) show NC gr 
 gsave  2222 2089 23 21 C 227.911 1709.33 t 0 r /Helvetica findfont 91.294 sf 0 0 m (6) show NC gr 
 gsave  2222 2089 23 21 C 102.56 962.925 t 90 r /Helvetica findfont 102.706 sf 0 0 m (Variable 2 \(PCA\)  [F]) show NC gr  2112 322 m 1579 Y s 2061 445 m 51 X s 2086 491 m 26 X s 2086 537 m 26 X s 2086 584 m 26 X s 2061 630 m 51 X s 2086 676 m 26 X s
 2086 723 m 26 X s 2086 769 m 26 X s 2061 815 m 51 X s 2086 862 m 26 X s 2086 908 m 26 X s 2086 954 m 26 X s 2061 1001 m 51 X s 2086 1047 m 26 X s 2086 1094 m 26 X s 2086 1140 m 26 X s 2061 1186 m 51 X s 2086 1233 m 26 X s 2086 1279 m 26 X s 2086
 1325 m 26 X s 2061 1372 m 51 X s 2086 1418 m 26 X s 2086 1464 m 26 X s 2086 1511 m 26 X s 2061 1557 m 51 X s 2086 1604 m 26 X s 2086 1650 m 26 X s 2086 1696 m 26 X s 2061 1743 m 51 X s 2061 445 m 51 X s 2086 398 m 26 X s 2086 352 m 26 X s 2061 1743
 m 51 X s 2086 1789 m 26 X s 2086 1835 m 26 X s 2086 1882 m 26 X s 1 0 0 c 0.81 0.37 0.38 c 1 0 0 c 783 838 m 83 Y s 783 921 m 83 Y s 761 921 m 22 X s 783 921 m 23 X s 772 838 m 23 X s 772 1004 m 23 X s 761 910 m 22 Y s 806 910 m 22 Y s /w 2 def /w2
 {w 2 div} def /w3 {w 3 div} def 783 921 m20 828 1001 m 14 Y s 828 1015 m 15 Y s 806 1015 m 22 X s 828 1015 m 23 X s 817 1001 m 23 X s 817 1030 m 23 X s 806 1004 m 23 Y s 851 1004 m 23 Y s 828 1015 m20 874 1037 m 4 Y s 874 1041 m 4 Y s 851 1041 m 23
 X s 874 1041 m 22 X s 862 1037 m 23 X s 862 1045 m 23 X s 851 1030 m 23 Y s 896 1030 m 23 Y s 874 1041 m20 919 1075 m 6 Y s 919 1081 m 6 Y s 896 1081 m 23 X s 919 1081 m 22 X s 907 1075 m 23 X s 907 1087 m 23 X s 896 1069 m 23 Y s 941 1069 m 23 Y s
 919 1081 m20 964 1112 m 5 Y s 964 1117 m 6 Y s 941 1117 m 23 X s 964 1117 m 22 X s 952 1112 m 23 X s 952 1123 m 23 X s 941 1106 m 23 Y s 986 1106 m 23 Y s 964 1117 m20 1009 1146 m 5 Y s 1009 1151 m 6 Y s 986 1151 m 23 X s 1009 1151 m 22 X s 997 1146
 m 23 X s 997 1157 m 23 X s 986 1140 m 23 Y s 1031 1140 m 23 Y s 1009 1151 m20 1054 1146 m 5 Y s 1054 1151 m 5 Y s 1031 1151 m 23 X s 1054 1151 m 22 X s 1042 1146 m 23 X s 1042 1156 m 23 X s 1031 1140 m 22 Y s 1076 1140 m 22 Y s 1054 1151 m20 1099
 1154 m 5 Y s 1099 1159 m 5 Y s 1076 1159 m 23 X s 1099 1159 m 22 X s 1087 1154 m 23 X s 1087 1164 m 23 X s 1076 1147 m 23 Y s 1121 1147 m 23 Y s 1099 1159 m20 1144 1155 m 6 Y s 1144 1161 m 5 Y s 1121 1161 m 23 X s 1144 1161 m 22 X s 1132 1155 m 23 X
 s 1132 1166 m 23 X s 1121 1150 m 22 Y s 1166 1150 m 22 Y s 1144 1161 m20 1189 1187 m 5 Y s 1189 1192 m 6 Y s 1166 1192 m 23 X s 1189 1192 m 22 X s 1177 1187 m 23 X s 1177 1198 m 23 X s 1166 1181 m 23 Y s 1211 1181 m 23 Y s 1189 1192 m20 1234 1223 m
 6 Y s 1234 1229 m 5 Y s 1211 1229 m 23 X s 1234 1229 m 22 X s 1222 1223 m 23 X s 1222 1234 m 23 X s 1211 1217 m 23 Y s 1256 1217 m 23 Y s 1234 1229 m20 1279 1262 m 6 Y s 1279 1268 m 5 Y s 1256 1268 m 23 X s 1279 1268 m 22 X s 1267 1262 m 23 X s 1267
 1273 m 23 X s 1256 1256 m 23 Y s 1301 1256 m 23 Y s 1279 1268 m20 1324 1275 m 7 Y s 1324 1282 m 8 Y s 1301 1282 m 23 X s 1324 1282 m 22 X s 1312 1275 m 23 X s 1312 1290 m 23 X s 1301 1271 m 23 Y s 1346 1271 m 23 Y s 1324 1282 m20 1369 1267 m 18 Y s
 1369 1285 m 17 Y s 1346 1285 m 23 X s 1369 1285 m 22 X s 1357 1267 m 23 X s 1357 1302 m 23 X s 1346 1273 m 23 Y s 1391 1273 m 23 Y s 1369 1285 m20 black 311 322 m 1801 X s 332 373 m -51 Y s 399 347 m -25 Y s 466 347 m -25 Y s 533 347 m -25 Y s 599
 373 m -51 Y s 666 347 m -25 Y s 733 347 m -25 Y s 800 347 m -25 Y s 867 373 m -51 Y s 934 347 m -25 Y s 1001 347 m -25 Y s 1068 347 m -25 Y s 1134 373 m -51 Y s 1201 347 m -25 Y s 1268 347 m -25 Y s 1335 347 m -25 Y s 1402 373 m -51 Y s 1469 347 m
 -25 Y s 1536 347 m -25 Y s 1603 347 m -25 Y s 1669 373 m -51 Y s 1736 347 m -25 Y s 1803 347 m -25 Y s 1870 347 m -25 Y s 1937 373 m -51 Y s 332 373 m -51 Y s 1937 373 m -51 Y s 2004 347 m -25 Y s 2071 347 m -25 Y s 311 1901 m 1801 X s 332 1850 m 51
 Y s 399 1875 m 26 Y s 466 1875 m 26 Y s 533 1875 m 26 Y s 599 1850 m 51 Y s 666 1875 m 26 Y s 733 1875 m 26 Y s 800 1875 m 26 Y s 867 1850 m 51 Y s 934 1875 m 26 Y s 1001 1875 m 26 Y s 1068 1875 m 26 Y s 1134 1850 m 51 Y s 1201 1875 m 26 Y s 1268
 1875 m 26 Y s 1335 1875 m 26 Y s 1402 1850 m 51 Y s 1469 1875 m 26 Y s 1536 1875 m 26 Y s 1603 1875 m 26 Y s 1669 1850 m 51 Y s 1736 1875 m 26 Y s 1803 1875 m 26 Y s 1870 1875 m 26 Y s 1937 1850 m 51 Y s 332 1850 m 51 Y s 1937 1850 m 51 Y s 2004
 1875 m 26 Y s 2071 1875 m 26 Y s 311 322 m 1579 Y s 361 445 m -50 X s 336 491 m -25 X s 336 537 m -25 X s 336 584 m -25 X s 361 630 m -50 X s 336 676 m -25 X s 336 723 m -25 X s 336 769 m -25 X s 361 815 m -50 X s 336 862 m -25 X s 336 908 m -25 X s
 336 954 m -25 X s 361 1001 m -50 X s 336 1047 m -25 X s 336 1094 m -25 X s 336 1140 m -25 X s 361 1186 m -50 X s 336 1233 m -25 X s 336 1279 m -25 X s 336 1325 m -25 X s 361 1372 m -50 X s 336 1418 m -25 X s 336 1464 m -25 X s 336 1511 m -25 X s 361
 1557 m -50 X s 336 1604 m -25 X s 336 1650 m -25 X s 336 1696 m -25 X s 361 1743 m -50 X s 361 445 m -50 X s 336 398 m -25 X s 336 352 m -25 X s 361 1743 m -50 X s 336 1789 m -25 X s 336 1835 m -25 X s 336 1882 m -25 X s 2112 322 m 1579 Y s 2061 445
 m 51 X s 2086 491 m 26 X s 2086 537 m 26 X s 2086 584 m 26 X s 2061 630 m 51 X s 2086 676 m 26 X s 2086 723 m 26 X s 2086 769 m 26 X s 2061 815 m 51 X s 2086 862 m 26 X s 2086 908 m 26 X s 2086 954 m 26 X s 2061 1001 m 51 X s 2086 1047 m 26 X s 2086
 1094 m 26 X s 2086 1140 m 26 X s 2061 1186 m 51 X s 2086 1233 m 26 X s 2086 1279 m 26 X s 2086 1325 m 26 X s 2061 1372 m 51 X s 2086 1418 m 26 X s 2086 1464 m 26 X s 2086 1511 m 26 X s 2061 1557 m 51 X s 2086 1604 m 26 X s 2086 1650 m 26 X s 2086
 1696 m 26 X s 2061 1743 m 51 X s 2061 445 m 51 X s 2086 398 m 26 X s 2086 352 m 26 X s 2061 1743 m 51 X s 2086 1789 m 26 X s 2086 1835 m 26 X s 2086 1882 m 26 X s 0.490196 0.545098 0.615686 c 0.364706 0.419608 0.490196 c 1556 123 45 1976 bf 0.490196
 0.545098 0.615686 c 45 1976 m 1556 X s 1601 1976 m 123 Y s 1601 2099 m -1556 X s 45 2099 m -123 Y s 1 1 1 c black 1 1 1 c
 gsave  2222 2089 23 21 C 108.258 2017.01 t 0 r /Helvetica-Bold findfont 62.7646 sf 0 0 m (Variable 2 versus Variable 1 \(Background\)_PCA) show NC gr 
 gr  gr showpage
end
%%EOF
