%!PS-Adobe-2.0 EPSF-2.0
%%BoundingBox:  0 0 567 419
%%Title: : TMVA comparison LikelihoodPCA
%%Creator: ROOT Version 6.12/06
%%CreationDate: Mon May 21 11:05:59 2018
%%DocumentNeededResources: ProcSet (FontSetInit)
%%EndComments
%%BeginProlog
80 dict begin
/s {stroke} def /l {lineto} def /m {moveto} def /t {translate} def
/r {rotate} def /rl {roll}  def /R {repeat} def
/d {rlineto} def /rm {rmoveto} def /gr {grestore} def /f {eofill} def
/c {setrgbcolor} def /black {0 setgray} def /sd {setdash} def
/cl {closepath} def /sf {scalefont setfont} def /lw {setlinewidth} def
/box {m dup 0 exch d exch 0 d 0 exch neg d cl} def
/NC{systemdict begin initclip end}def/C{NC box clip newpath}def
/bl {box s} def /bf {gsave box gsave f grestore 1 lw [] 0 sd s grestore} def /Y { 0 exch d} def /X { 0 d} def 
/K {{pop pop 0 moveto} exch kshow} bind def
/ita {/ang 15 def gsave [1 0 ang dup sin exch cos div 1 0 0] concat} def 
/mp {newpath /y exch def /x exch def} def
/side {[w .77 mul w .23 mul] .385 w mul sd w 0 l currentpoint t -144 r} def
/mr {mp x y w2 0 360 arc} def /m24 {mr s} def /m20 {mr f} def
/mb {mp x y w2 add m w2 neg 0 d 0 w neg d w 0 d 0 w d cl} def
/mt {mp x y w2 add m w2 neg w neg d w 0 d cl} def
/w4 {w 4 div} def
/w6 {w 6 div} def
/w8 {w 8 div} def
/m21 {mb f} def /m25 {mb s} def /m22 {mt f} def /m26{mt s} def
/m23 {mp x y w2 sub m w2 w d w neg 0 d cl f} def
/m27 {mp x y w2 add m w3 neg w2 neg d w3 w2 neg d w3 w2 d cl s} def
/m28 {mp x w2 sub y w2 sub w3 add m w3 0 d  0 w3 neg d w3 0 d 0 w3 d w3 0 d  0 w3 d w3 neg 0 d 0 w3 d w3 neg 0 d 0 w3 neg d w3 neg 0 d cl s } def
/m29 {mp gsave x w2 sub y w2 add w3 sub m currentpoint t 4 {side} repeat cl fill gr} def
/m30 {mp gsave x w2 sub y w2 add w3 sub m currentpoint t 4 {side} repeat cl s gr} def
/m31 {mp x y w2 sub m 0 w d x w2 sub y m w 0 d x w2 sub y w2 add m w w neg d x w2 sub y w2 sub m w w d s} def
/m32 {mp x y w2 sub m w2 w d w neg 0 d cl s} def
/m33 {mp x y w2 add m w3 neg w2 neg d w3 w2 neg d w3 w2 d cl f} def
/m34 {mp x w2 sub y w2 sub w3 add m w3 0 d  0 w3 neg d w3 0 d 0 w3 d w3 0 d  0 w3 d w3 neg 0 d 0 w3 d w3 neg 0 d 0 w3 neg d w3 neg 0 d cl f } def
/m35 {mp x y w2 add m w2 neg w2 neg d w2 w2 neg d w2 w2 d w2 neg w2 d x y w2 sub m 0 w d x w2 sub y m w 0 d s} def
/m36 {mb x w2 sub y w2 add m w w neg d x w2 sub y w2 sub m w w d s} def
/m37 {mp x y m w4 neg w2 d w4 neg w2 neg d w2 0 d  w4 neg w2 neg d w2 0 d w4 neg w2 d w2 0 d w4 neg w2 d w4 neg w2 neg d cl s} def
/m38 {mp x w4 sub y w2 add m w4 neg w4 neg d 0 w2 neg d w4 w4 neg d w2 0 d w4 w4 d 0 w2 d w4 neg w4 d w2 neg 0 d x y w2 sub m 0 w d x w2 sub y m w 0 d cl s} def
/m39 {mp x y m w4 neg w2 d w4 neg w2 neg d w2 0 d  w4 neg w2 neg d w2 0 d w4 neg w2 d w2 0 d w4 neg w2 d w4 neg w2 neg d cl f} def
/m40 {mp x y m w4 w2 d w4 w4 neg d w2 neg w4 neg d w2 w4 neg d w4 neg w4 neg d w4 neg w2 d w4 neg w2 neg d w4 neg w4 d w2 w4 d w2 neg w4 d w4 w4 d w4 w2 neg d cl s} def
/m41 {mp x y m w4 w2 d w4 w4 neg d w2 neg w4 neg d w2 w4 neg d w4 neg w4 neg d w4 neg w2 d w4 neg w2 neg d w4 neg w4 d w2 w4 d w2 neg w4 d w4 w4 d w4 w2 neg d cl f} def
/m42 {mp x y w2 add m w8 neg w2 -3 4 div mul d w2 -3 4 div mul w8 neg d w2 3 4 div mul w8 neg d w8 w2 -3 4 div mul d w8 w2 3 4 div mul d w2 3 4 div mul w8 d w2 -3 4 div mul w8 d w8 neg w2 3 4 div mul d cl s} def
/m43 {mp x y w2 add m w8 neg w2 -3 4 div mul d w2 -3 4 div mul w8 neg d w2 3 4 div mul w8 neg d w8 w2 -3 4 div mul d w8 w2 3 4 div mul d w2 3 4 div mul w8 d w2 -3 4 div mul w8 d w8 neg w2 3 4 div mul d cl f} def
/m44 {mp x y m w6 neg w2 d w2 2 3 div mul 0 d w6 neg w2 neg d w2 w6 d 0 w2 -2 3 div mul d w2 neg w6 d w6 w2 neg d w2 -2 3 div mul 0 d w6 w2 d w2 neg w6 neg d 0 w2 2 3 div mul d w2 w6 neg d cl s} def
/m45 {mp x y m w6 neg w2 d w2 2 3 div mul 0 d w6 neg w2 neg d w2 w6 d 0 w2 -2 3 div mul d w2 neg w6 d w6 w2 neg d w2 -2 3 div mul 0 d w6 w2 d w2 neg w6 neg d 0 w2 2 3 div mul d w2 w6 neg d cl f} def
/m46 {mp x y w4 add m w4 neg w4 d w4 neg w4 neg d  w4 w4 neg d w4 neg w4 neg d w4 w4 neg d w4 w4 d w4 w4 neg d w4 w4 d w4 neg w4 d w4 w4 d w4 neg w4 d w4 neg w4 neg d cl s} def
/m47 {mp x y w4 add m w4 neg w4 d w4 neg w4 neg d w4 w4 neg d w4 neg w4 neg d  w4 w4 neg d w4 w4 d w4 w4 neg d w4 w4 d w4 neg w4 d w4 w4 d w4 neg w4 d w4 neg w4 neg d cl f} def
/m48 {mp x y w4 add m w4 neg w4 d w4 neg w4 neg d w4 w4 neg d  w4 neg w4 neg d w4 w4 neg d w4 w4 d w4 w4 neg d w4 w4 d w4 neg w4 d w4 w4 d w4 neg w4 d w4 neg w4 neg d  w4 w4 neg d w4 neg w4 neg d w4 neg w4 d w4 w4 d cl f} def
/m49 {mp x w2 sub w3 add y w2 sub w3 add m  0 w3 neg d w3 0 d 0 w3 d w3 0 d 0 w3 d w3 neg 0 d 0 w3 d w3 neg 0 d 0 w3 neg d w3 neg 0 d 0 w3 neg d w3 0 d 0 w3 d w3 0 d 0 w3 neg d w3 neg 0 d cl f } def
/m2 {mp x y w2 sub m 0 w d x w2 sub y m w 0 d s} def
/m5 {mp x w2 sub y w2 sub m w w d x w2 sub y w2 add m w w neg d s} def
%%IncludeResource: ProcSet (FontSetInit)
%%IncludeResource: font Times-Roman
%%IncludeResource: font Times-Italic
%%IncludeResource: font Times-Bold
%%IncludeResource: font Times-BoldItalic
%%IncludeResource: font Helvetica
%%IncludeResource: font Helvetica-Oblique
%%IncludeResource: font Helvetica-Bold
%%IncludeResource: font Helvetica-BoldOblique
%%IncludeResource: font Courier
%%IncludeResource: font Courier-Oblique
%%IncludeResource: font Courier-Bold
%%IncludeResource: font Courier-BoldOblique
%%IncludeResource: font Symbol
%%IncludeResource: font ZapfDingbats
/reEncode {exch findfont dup length dict begin {1 index /FID eq  {pop pop} {def} ifelse } forall /Encoding exch def currentdict end dup /FontName get exch definefont pop } def [/Times-Bold /Times-Italic /Times-BoldItalic /Helvetica /Helvetica-Oblique
 /Helvetica-Bold /Helvetica-BoldOblique /Courier /Courier-Oblique /Courier-Bold /Courier-BoldOblique /Times-Roman /AvantGarde-Book /AvantGarde-BookOblique /AvantGarde-Demi /AvantGarde-DemiOblique /Bookman-Demi /Bookman-DemiItalic /Bookman-Light
 /Bookman-LightItalic /Helvetica-Narrow /Helvetica-Narrow-Bold /Helvetica-Narrow-BoldOblique /Helvetica-Narrow-Oblique /NewCenturySchlbk-Roman /NewCenturySchlbk-Bold /NewCenturySchlbk-BoldItalic /NewCenturySchlbk-Italic /Palatino-Bold
 /Palatino-BoldItalic /Palatino-Italic /Palatino-Roman ] {ISOLatin1Encoding reEncode } forall
%%EndProlog
%%BeginSetup
%%EndSetup
newpath  gsave  .25 .25 scale  gsave  0 0 t 0.490196 0.545098 0.615686 c[  ] 0 sd 3 lw 0.941176 0.941176 0.941176 c 2268 1676 0 0 bf black 1 1 0.992157 c 1916 1308 238 201 bf black 1916 1308 238 201 bl 1 1 0.992157 c 1916 1308 238 201 bf black 1916
 1308 238 201 bl 238 201 m 1916 X s 238 244 m -43 Y s 334 222 m -21 Y s 430 222 m -21 Y s 526 222 m -21 Y s 621 244 m -43 Y s 717 222 m -21 Y s 813 222 m -21 Y s 909 222 m -21 Y s 1005 244 m -43 Y s 1100 222 m -21 Y s 1196 222 m -21 Y s 1292 222 m
 -21 Y s 1388 244 m -43 Y s 1484 222 m -21 Y s 1579 222 m -21 Y s 1675 222 m -21 Y s 1771 244 m -43 Y s 1867 222 m -21 Y s 1963 222 m -21 Y s 2059 222 m -21 Y s 2154 244 m -43 Y s 2154 244 m -43 Y s
 gsave  2268 1676 0 0 C 216.154 128.934 t 0 r /Helvetica-Bold findfont 64.4669 sf 0 0 m (0) show NC gr 
 gsave  2268 1676 0 0 C 572.617 128.934 t 0 r /Helvetica-Bold findfont 64.4669 sf 0 0 m (0.2) show NC gr 
 gsave  2268 1676 0 0 C 955.626 128.934 t 0 r /Helvetica-Bold findfont 64.4669 sf 0 0 m (0.4) show NC gr 
 gsave  2268 1676 0 0 C 1338.64 128.934 t 0 r /Helvetica-Bold findfont 64.4669 sf 0 0 m (0.6) show NC gr 
 gsave  2268 1676 0 0 C 1725.44 128.934 t 0 r /Helvetica-Bold findfont 64.4669 sf 0 0 m (0.8) show NC gr 
 gsave  2268 1676 0 0 C 2138.78 128.934 t 0 r /Helvetica-Bold findfont 64.4669 sf 0 0 m (1) show NC gr 
 gsave  2268 1676 0 0 C 1300.71 30.3373 t 0 r /Helvetica-Bold findfont 72.0512 sf 0 0 m (LikelihoodPCA response) show NC gr  238 1509 m 1916 X s 238 1466 m 43 Y s 334 1487 m 22 Y s 430 1487 m 22 Y s 526 1487 m 22 Y s 621 1466 m 43 Y s 717 1487 m 22 Y
 s 813 1487 m 22 Y s 909 1487 m 22 Y s 1005 1466 m 43 Y s 1100 1487 m 22 Y s 1196 1487 m 22 Y s 1292 1487 m 22 Y s 1388 1466 m 43 Y s 1484 1487 m 22 Y s 1579 1487 m 22 Y s 1675 1487 m 22 Y s 1771 1466 m 43 Y s 1867 1487 m 22 Y s 1963 1487 m 22 Y s
 2059 1487 m 22 Y s 2154 1466 m 43 Y s 2154 1466 m 43 Y s 238 201 m 1308 Y s 265 228 m -27 X s 265 256 m -27 X s 265 281 m -27 X s 291 303 m -53 X s
 gsave  2268 1676 0 0 C 182.024 303.373 t 0 r /Helvetica-Bold findfont 41.7138 sf 0 0 m (1) show NC gr 
 gsave  2268 1676 0 0 C 159.271 303.373 t 0 r /Symbol findfont 41.7138 sf 0 0 m (-) show NC gr 
 gsave  2268 1676 0 0 C 87.2199 273.036 t 0 r /Helvetica-Bold findfont 64.4669 sf 0 0 m (10) show NC gr  265 449 m -27 X s 265 534 m -27 X s 265 595 m -27 X s 265 642 m -27 X s 265 680 m -27 X s 265 712 m -27 X s 265 741 m -27 X s 265 765 m -27 X s
 291 788 m -53 X s
 gsave  2268 1676 0 0 C 174.44 762.226 t 0 r /Helvetica-Bold findfont 64.4669 sf 0 0 m (1) show NC gr  265 933 m -27 X s 265 1019 m -27 X s 265 1079 m -27 X s 265 1126 m -27 X s 265 1164 m -27 X s 265 1197 m -27 X s 265 1225 m -27 X s 265 1250 m -27
 X s 291 1272 m -53 X s
 gsave  2268 1676 0 0 C 128.934 1247.62 t 0 r /Helvetica-Bold findfont 64.4669 sf 0 0 m (10) show NC gr  265 1418 m -27 X s 265 1503 m -27 X s
 gsave  2268 1676 0 0 C 64.4669 1425.86 t 90 r /Helvetica-Bold findfont 72.0512 sf 0 0 m (dx) show NC gr 
 gsave  2268 1676 0 0 C 30.3373 1406.89 t 90 r /Helvetica-Bold findfont 45.506 sf 0 0 m ( ) show NC gr 
 gsave  2268 1676 0 0 C 64.4669 1384.14 t 90 r /Helvetica-Bold findfont 72.0512 sf 0 0 m (/) show NC gr 
 gsave  2268 1676 0 0 C 30.3373 1365.18 t 90 r /Helvetica-Bold findfont 45.506 sf 0 0 m ( ) show NC gr 
 gsave  2268 1676 0 0 C 60.6747 1092.14 t 90 r /Helvetica-Bold findfont 72.0512 sf 0 0 m (\(1/N\) dN) show NC gr  2154 201 m 1308 Y s 2128 228 m 26 X s 2128 256 m 26 X s 2128 281 m 26 X s 2101 303 m 53 X s 2128 449 m 26 X s 2128 534 m 26 X s 2128 595
 m 26 X s 2128 642 m 26 X s 2128 680 m 26 X s 2128 712 m 26 X s 2128 741 m 26 X s 2128 765 m 26 X s 2101 788 m 53 X s 2128 933 m 26 X s 2128 1019 m 26 X s 2128 1079 m 26 X s 2128 1126 m 26 X s 2128 1164 m 26 X s 2128 1197 m 26 X s 2128 1225 m 26 X s
 2128 1250 m 26 X s 2101 1272 m 53 X s 2128 1418 m 26 X s 2128 1503 m 26 X s 0.490196 0.545098 0.615686 c 1 1 1 c 0.490196 0.545098 0.615686 c 907 202 238 1307 bl 238 1307 m 907 X s 1145 1307 m 202 Y s 1145 1509 m -907 X s 238 1509 m -202 Y s black
 gsave  2268 1676 0 0 C 417.138 1437.23 t 0 r /Helvetica-Bold findfont 56.8825 sf 0 0 m (Signal \(test sample\)) show NC gr  0.49 0.6 0.82 c 265 1423 m 127 X 70 Y -127 X f 0 0 0.933333 c 265 1493 m 127 X s 265 1423 m 127 X s 392 1423 m 70 Y s 265
 1423 m 70 Y s black
 gsave  2268 1676 0 0 C 417.138 1338.64 t 0 r /Helvetica-Bold findfont 56.8825 sf 0 0 m (Background \(test sample\)) show NC gr  1 0 0 c 392 1354 m -32 -32 d s 383 1393 m -71 -71 d s 335 1393 m -70 -69 d s 286 1393 m -21 -21 d s 0 0 0.933333 c 1 0 0
 c 265 1393 m 127 X s 265 1322 m 127 X s 392 1322 m 71 Y s 265 1322 m 71 Y s 0 0 0.933333 c 0.49 0.6 0.82 c black 0.49 0.6 0.82 c 238 201 m 96 X 94 Y 48 X -94 Y 48 X 126 Y 48 X -51 Y 48 X 35 Y 95 X 57 Y 48 X -41 Y 48 X -93 Y 48 X 42 Y 48 X 79 Y 48 X
 67 Y 48 X 35 Y 48 X 63 Y 48 X -63 Y 48 X 50 Y 47 X 19 Y 48 X -12 Y 48 X 108 Y 48 X 61 Y 48 X 76 Y 48 X 7 Y 48 X -15 Y 48 X -13 Y 48 X -20 Y 48 X 3 Y 47 X 49 Y 48 X 22 Y 48 X -54 Y 48 X 23 Y 48 X 69 Y 48 X 15 Y 48 X 22 Y 48 X 70 Y 48 X 19 Y 48 X 101
 Y 48 X 143 Y 47 X 43 Y 48 X -1042 Y f 0 0 0.933333 c 0.49 0.6 0.82 c 0 0 0.933333 c 238 201 m 96 X 94 Y 48 X -94 Y 48 X 126 Y 48 X -51 Y 48 X 35 Y 95 X 57 Y 48 X -41 Y 48 X -93 Y 48 X 42 Y 48 X 79 Y 48 X 67 Y 48 X 35 Y 48 X 63 Y 48 X -63 Y 48 X 50 Y
 47 X 19 Y 48 X -12 Y 48 X 108 Y 48 X 61 Y 48 X 76 Y 48 X 7 Y 48 X -15 Y 48 X -13 Y 48 X -20 Y 48 X 3 Y 47 X 49 Y 48 X 22 Y 48 X -54 Y 48 X 23 Y 48 X 69 Y 48 X 15 Y 48 X 22 Y 48 X 70 Y 48 X 19 Y 48 X 101 Y 48 X 143 Y 47 X 43 Y 48 X -1042 Y s 1 0 0 c
 black 1 0 0 c 2154 230 m -29 -29 d s 2154 278 m -77 -77 d s 2154 326 m -125 -125 d s 2154 374 m -173 -173 d s 2154 423 m -143 -144 d s 2008 276 m -75 -75 d s 2141 457 m -130 -130 d s 1963 279 m -78 -78 d s 2093 457 m -82 -82 d s 1963 327 m -126 -126
 d s 2019 431 m -8 -8 d s 1963 375 m -174 -174 d s 1952 412 m -211 -211 d s 1871 380 m -179 -179 d s 1834 391 m -190 -190 d s 1819 424 m -223 -223 d s 1819 472 m -271 -271 d s 1772 473 m -272 -272 d s 1731 480 m -8 -8 d s 1682 431 m -230 -230 d s
 1675 473 m -271 -272 d s 1662 507 m -306 -306 d s 1587 480 m -279 -279 d s 1579 521 m -320 -320 d s 1553 542 m -342 -341 d s 1532 569 m -369 -368 d s 1513 599 m -398 -398 d s 1465 599 m -398 -398 d s 1436 618 m -417 -417 d s 1410 640 m -439 -439 d s
 1388 666 m -465 -465 d s 1388 714 m -513 -513 d s 1382 757 m -42 -42 d s 1339 714 m -143 -143 d s 1178 553 m -351 -352 d s 1271 694 m -27 -27 d s 1224 647 m -28 -28 d s 1109 531 m -331 -330 d s 1100 571 m -370 -370 d s 1084 603 m -31 -32 d s 1049
 568 m -367 -367 d s 964 531 m -330 -330 d s 957 572 m -371 -371 d s 914 577 m -376 -376 d s 903 615 m -42 -43 d s 836 548 m -23 -24 d s 802 514 m -312 -313 d s 765 525 m -323 -324 d s 765 573 m -48 -48 d s 693 501 m -299 -300 d s 722 577 m -5 -4 d s
 669 525 m -324 -324 d s 669 573 m -372 -372 d s 639 590 m -390 -389 d s 607 607 m -369 -369 d s 573 622 m -335 -336 d s 557 653 m -319 -319 d s 518 662 m -280 -280 d s 478 670 m -240 -239 d s 453 694 m -215 -215 d s 430 718 m -192 -191 d s 382 719 m
 -144 -144 d s 382 767 m -144 -144 d s 351 784 m -113 -113 d s 334 815 m -96 -96 d s 334 863 m -96 -96 d s 325 903 m -87 -88 d s 286 911 m -48 -48 d s 286 959 m -48 -47 d s 286 1008 m -48 -48 d s 286 1056 m -48 -48 d s 286 1104 m -48 -48 d s 286 1152
 m -48 -48 d s 286 1200 m -48 -48 d s 286 1248 m -48 -48 d s 286 1296 m -48 -48 d s 286 1344 m -48 -48 d s 286 1392 m -48 -47 d s 286 1441 m -48 -48 d s 251 1453 m -13 -12 d s 238 1453 m 48 X -550 Y 48 X -119 Y 48 X -66 Y 48 X -24 Y 48 X -32 Y 48 X
 -9 Y 47 X -46 Y 48 X -17 Y 48 X -89 Y 48 X 76 Y 48 X -63 Y 48 X 34 Y 48 X 67 Y 48 X -38 Y 48 X -46 Y 48 X 37 Y 48 X 35 Y 47 X -72 Y 48 X 22 Y 48 X 94 Y 48 X 47 Y 48 X 20 Y 48 X 43 Y 48 X -117 Y 48 X -41 Y 96 X -57 Y 47 X -62 Y 48 X 27 Y 48 X -76 Y
 48 X 49 Y 48 X -7 Y 48 X -82 Y 48 X -11 Y 48 X 32 Y 48 X -136 Y 48 X 155 Y 48 X 26 Y 95 X -256 Y s 0.490196 0.545098 0.615686 c 1 1 1 c 0.490196 0.545098 0.615686 c 952 202 1202 1307 bl 1202 1307 m 952 X s 2154 1307 m 202 Y s 2154 1509 m -952 X s
 1202 1509 m -202 Y s black
 gsave  2268 1676 0 0 C 1296.92 1437.23 t 0 r /Helvetica-Bold findfont 56.8825 sf 0 0 m (Signal \(training sample\)) show NC gr  0 0 0.933333 c /w 21 def /w2 {w 2 div} def /w3 {w 3 div} def 1250 1458 m20 black
 gsave  2268 1676 0 0 C 1296.92 1338.64 t 0 r /Helvetica-Bold findfont 56.8825 sf 0 0 m (Background \(training sample\)) show NC gr  1 0 0 c 1250 1358 m20 0 0 0.933333 c 1 1 1 c 0 0 0.933333 c 262 201 m 1 Y s 262 217 m 56 Y s 238 209 m 16 X s 270 209
 m 16 X s 254 201 m 16 X s 254 273 m 16 X s 238 202 m 15 Y s 286 202 m 15 Y s 262 209 m20 310 201 m 25 Y s 310 242 m 53 Y s 286 234 m 16 X s 318 234 m 16 X s 302 201 m 16 X s 302 295 m 16 X s 286 226 m 16 Y s 334 226 m 16 Y s 310 234 m20 358 201 m 1
 Y s 358 217 m 56 Y s 334 209 m 16 X s 365 209 m 17 X s 350 201 m 15 X s 350 273 m 15 X s 334 202 m 15 Y s 382 202 m 15 Y s 358 209 m20 454 201 m 48 Y s 454 264 m 50 Y s 430 256 m 16 X s 461 256 m 17 X s 446 201 m 15 X s 446 314 m 15 X s 430 249 m 15
 Y s 478 249 m 15 Y s 454 256 m20 502 201 m 68 Y s 502 284 m 48 Y s 478 276 m 16 X s 509 276 m 17 X s 494 201 m 15 X s 494 332 m 15 X s 478 269 m 15 Y s 526 269 m 15 Y s 502 276 m20 549 201 m 25 Y s 549 242 m 53 Y s 526 234 m 16 X s 557 234 m 16 X s
 542 201 m 15 X s 542 295 m 15 X s 526 226 m 16 Y s 573 226 m 16 Y s 549 234 m20 597 201 m 48 Y s 597 264 m 50 Y s 573 256 m 17 X s 605 256 m 16 X s 590 201 m 15 X s 590 314 m 15 X s 573 249 m 15 Y s 621 249 m 15 Y s 597 256 m20 645 279 m 55 Y s 645
 349 m 41 Y s 621 341 m 17 X s 653 341 m 16 X s 638 279 m 15 X s 638 390 m 15 X s 621 334 m 15 Y s 669 334 m 15 Y s 645 341 m20 693 295 m 52 Y s 693 363 m 39 Y s 669 355 m 17 X s 701 355 m 16 X s 686 295 m 15 X s 686 402 m 15 X s 669 347 m 16 Y s 717
 347 m 16 Y s 693 355 m20 741 262 m 57 Y s 741 335 m 42 Y s 717 327 m 17 X s 749 327 m 16 X s 734 262 m 15 X s 734 377 m 15 X s 717 319 m 16 Y s 765 319 m 16 Y s 741 327 m20 789 336 m 48 Y s 789 399 m 36 Y s 765 391 m 16 X s 797 391 m 16 X s 781 336
 m 16 X s 781 435 m 16 X s 765 384 m 15 Y s 813 384 m 15 Y s 789 391 m20 837 336 m 48 Y s 837 399 m 36 Y s 813 391 m 16 X s 845 391 m 16 X s 829 336 m 16 X s 829 435 m 16 X s 813 384 m 15 Y s 861 384 m 15 Y s 837 391 m20 885 295 m 52 Y s 885 363 m 39
 Y s 861 355 m 16 X s 892 355 m 17 X s 877 295 m 15 X s 877 402 m 15 X s 861 347 m 16 Y s 909 347 m 16 Y s 885 355 m20 933 336 m 48 Y s 933 399 m 36 Y s 909 391 m 16 X s 940 391 m 17 X s 925 336 m 15 X s 925 435 m 15 X s 909 384 m 15 Y s 957 384 m 15
 Y s 933 391 m20 981 420 m 38 Y s 981 473 m 29 Y s 957 465 m 16 X s 988 465 m 17 X s 973 420 m 15 X s 973 502 m 15 X s 957 458 m 15 Y s 1005 458 m 15 Y s 981 465 m20 1029 467 m 33 Y s 1029 515 m 26 Y s 1005 507 m 16 X s 1036 507 m 17 X s 1021 467 m
 15 X s 1021 541 m 15 X s 1005 500 m 15 Y s 1053 500 m 15 Y s 1029 507 m20 1076 481 m 31 Y s 1076 527 m 26 Y s 1053 520 m 16 X s 1084 520 m 16 X s 1069 481 m 15 X s 1069 553 m 15 X s 1053 512 m 15 Y s 1100 512 m 15 Y s 1076 520 m20 1124 467 m 33 Y s
 1124 515 m 26 Y s 1100 507 m 17 X s 1132 507 m 16 X s 1117 467 m 15 X s 1117 541 m 15 X s 1100 500 m 15 Y s 1148 500 m 15 Y s 1124 507 m20 1172 512 m 28 Y s 1172 555 m 24 Y s 1148 548 m 17 X s 1180 548 m 16 X s 1165 512 m 15 X s 1165 579 m 15 X s
 1148 540 m 15 Y s 1196 540 m 15 Y s 1172 548 m20 1220 584 m 23 Y s 1220 622 m 19 Y s 1196 615 m 17 X s 1228 615 m 16 X s 1213 584 m 15 X s 1213 641 m 15 X s 1196 607 m 15 Y s 1244 607 m 15 Y s 1220 615 m20 1268 642 m 19 Y s 1268 676 m 16 Y s 1244
 669 m 16 X s 1276 669 m 16 X s 1260 642 m 16 X s 1260 692 m 16 X s 1244 661 m 15 Y s 1292 661 m 15 Y s 1268 669 m20 1316 695 m 16 Y s 1316 726 m 13 Y s 1292 718 m 16 X s 1324 718 m 16 X s 1308 695 m 16 X s 1308 739 m 16 X s 1292 711 m 15 Y s 1340
 711 m 15 Y s 1316 718 m20 1364 749 m 13 Y s 1364 778 m 11 Y s 1340 770 m 16 X s 1371 770 m 17 X s 1356 749 m 15 X s 1356 789 m 15 X s 1340 762 m 16 Y s 1388 762 m 16 Y s 1364 770 m20 1412 733 m 14 Y s 1412 762 m 12 Y s 1388 755 m 16 X s 1419 755 m
 17 X s 1404 733 m 15 X s 1404 774 m 15 X s 1388 747 m 15 Y s 1436 747 m 15 Y s 1412 755 m20 1460 755 m 13 Y s 1460 783 m 11 Y s 1436 775 m 16 X s 1467 775 m 17 X s 1452 755 m 15 X s 1452 794 m 15 X s 1436 768 m 15 Y s 1484 768 m 15 Y s 1460 775 m20
 1508 690 m 16 Y s 1508 721 m 14 Y s 1484 714 m 16 X s 1515 714 m 17 X s 1500 690 m 15 X s 1500 735 m 15 X s 1484 706 m 15 Y s 1532 706 m 15 Y s 1508 714 m20 1556 705 m 15 Y s 1556 735 m 13 Y s 1532 728 m 16 X s 1563 728 m 16 X s 1548 705 m 15 X s
 1548 748 m 15 X s 1532 720 m 15 Y s 1579 720 m 15 Y s 1556 728 m20 1603 735 m 14 Y s 1603 764 m 12 Y s 1579 757 m 17 X s 1611 757 m 16 X s 1596 735 m 15 X s 1596 776 m 15 X s 1579 749 m 15 Y s 1627 749 m 15 Y s 1603 757 m20 1651 776 m 12 Y s 1651
 803 m 10 Y s 1627 796 m 17 X s 1659 796 m 16 X s 1644 776 m 15 X s 1644 813 m 15 X s 1627 788 m 15 Y s 1675 788 m 15 Y s 1651 796 m20 1699 783 m 12 Y s 1699 810 m 10 Y s 1675 802 m 17 X s 1707 802 m 16 X s 1692 783 m 15 X s 1692 820 m 15 X s 1675
 795 m 15 Y s 1723 795 m 15 Y s 1699 802 m20 1747 809 m 11 Y s 1747 835 m 9 Y s 1723 827 m 17 X s 1755 827 m 16 X s 1740 809 m 15 X s 1740 844 m 15 X s 1723 820 m 15 Y s 1771 820 m 15 Y s 1747 827 m20 1795 793 m 11 Y s 1795 819 m 9 Y s 1771 811 m 16
 X s 1803 811 m 16 X s 1787 793 m 16 X s 1787 828 m 16 X s 1771 804 m 15 Y s 1819 804 m 15 Y s 1795 811 m20 1843 794 m 11 Y s 1843 820 m 10 Y s 1819 813 m 16 X s 1851 813 m 16 X s 1835 794 m 16 X s 1835 830 m 16 X s 1819 805 m 15 Y s 1867 805 m 15 Y
 s 1843 813 m20 1891 865 m 8 Y s 1891 889 m 7 Y s 1867 881 m 16 X s 1898 881 m 17 X s 1883 865 m 15 X s 1883 896 m 15 X s 1867 873 m 16 Y s 1915 873 m 16 Y s 1891 881 m20 1939 884 m 7 Y s 1939 906 m 7 Y s 1915 899 m 16 X s 1946 899 m 17 X s 1931 884
 m 15 X s 1931 913 m 15 X s 1915 891 m 15 Y s 1963 891 m 15 Y s 1939 899 m20 1987 939 m 6 Y s 1987 960 m 5 Y s 1963 953 m 16 X s 1994 953 m 17 X s 1979 939 m 15 X s 1979 965 m 15 X s 1963 945 m 15 Y s 2011 945 m 15 Y s 1987 953 m20 2035 1044 m 3 Y s
 2035 1062 m 2 Y s 2011 1055 m 16 X s 2042 1055 m 17 X s 2027 1044 m 15 X s 2027 1064 m 15 X s 2011 1047 m 15 Y s 2059 1047 m 15 Y s 2035 1055 m20 2059 1215 m 16 X s 2090 1215 m 16 X s 2059 1207 m 15 Y s 2106 1207 m 15 Y s 2082 1215 m20 2106 1230 m
 17 X s 2138 1230 m 16 X s 2106 1222 m 15 Y s 2154 1222 m 15 Y s 2130 1230 m20 1 0 0 c 1 1 1 c 1 0 0 c 238 1450 m 16 X s 270 1450 m 16 X s 238 1442 m 15 Y s 286 1442 m 15 Y s 262 1450 m20 310 896 m 7 Y s 310 918 m 6 Y s 286 910 m 16 X s 318 910 m 16
 X s 302 896 m 16 X s 302 924 m 16 X s 286 903 m 15 Y s 334 903 m 15 Y s 310 910 m20 358 776 m 12 Y s 358 803 m 10 Y s 334 796 m 16 X s 365 796 m 17 X s 350 776 m 15 X s 350 813 m 15 X s 334 788 m 15 Y s 382 788 m 15 Y s 358 796 m20 406 697 m 16 Y s
 406 728 m 14 Y s 382 721 m 16 X s 413 721 m 17 X s 398 697 m 15 X s 398 742 m 15 X s 382 713 m 15 Y s 430 713 m 15 Y s 406 721 m20 454 648 m 19 Y s 454 682 m 16 Y s 430 674 m 16 X s 461 674 m 17 X s 446 648 m 15 X s 446 698 m 15 X s 430 667 m 15 Y s
 478 667 m 15 Y s 454 674 m20 502 576 m 23 Y s 502 615 m 19 Y s 478 607 m 16 X s 509 607 m 17 X s 494 576 m 15 X s 494 634 m 15 X s 478 599 m 16 Y s 526 599 m 16 Y s 502 607 m20 549 636 m 19 Y s 549 670 m 16 Y s 526 663 m 16 X s 557 663 m 16 X s 542
 636 m 15 X s 542 686 m 15 X s 526 655 m 15 Y s 573 655 m 15 Y s 549 663 m20 597 576 m 23 Y s 597 615 m 19 Y s 573 607 m 17 X s 605 607 m 16 X s 590 576 m 15 X s 590 634 m 15 X s 573 599 m 16 Y s 621 599 m 16 Y s 597 607 m20 645 572 m 23 Y s 645 611
 m 19 Y s 621 603 m 17 X s 653 603 m 16 X s 638 572 m 15 X s 638 630 m 15 X s 621 595 m 16 Y s 669 595 m 16 Y s 645 603 m20 693 563 m 24 Y s 693 602 m 21 Y s 669 595 m 17 X s 701 595 m 16 X s 686 563 m 15 X s 686 623 m 15 X s 669 587 m 15 Y s 717 587
 m 15 Y s 693 595 m20 741 544 m 26 Y s 741 585 m 21 Y s 717 577 m 17 X s 749 577 m 16 X s 734 544 m 15 X s 734 606 m 15 X s 717 570 m 15 Y s 765 570 m 15 Y s 741 577 m20 789 534 m 26 Y s 789 575 m 22 Y s 765 568 m 16 X s 797 568 m 16 X s 781 534 m 16
 X s 781 597 m 16 X s 765 560 m 15 Y s 813 560 m 15 Y s 789 568 m20 837 567 m 24 Y s 837 607 m 20 Y s 813 599 m 16 X s 845 599 m 16 X s 829 567 m 16 X s 829 627 m 16 X s 813 591 m 16 Y s 861 591 m 16 Y s 837 599 m20 885 534 m 26 Y s 885 575 m 22 Y s
 861 568 m 16 X s 892 568 m 17 X s 877 534 m 15 X s 877 597 m 15 X s 861 560 m 15 Y s 909 560 m 15 Y s 885 568 m20 933 544 m 26 Y s 933 585 m 21 Y s 909 577 m 16 X s 940 577 m 17 X s 925 544 m 15 X s 925 606 m 15 X s 909 570 m 15 Y s 957 570 m 15 Y s
 933 577 m20 981 512 m 28 Y s 981 555 m 24 Y s 957 548 m 16 X s 988 548 m 17 X s 973 512 m 15 X s 973 579 m 15 X s 957 540 m 15 Y s 1005 540 m 15 Y s 981 548 m20 1029 549 m 25 Y s 1029 589 m 21 Y s 1005 582 m 16 X s 1036 582 m 17 X s 1021 549 m 15 X
 s 1021 610 m 15 X s 1005 574 m 15 Y s 1053 574 m 15 Y s 1029 582 m20 1076 467 m 33 Y s 1076 515 m 26 Y s 1053 507 m 16 X s 1084 507 m 16 X s 1069 467 m 15 X s 1069 541 m 15 X s 1053 500 m 15 Y s 1100 500 m 15 Y s 1076 507 m20 1124 567 m 24 Y s 1124
 607 m 20 Y s 1100 599 m 17 X s 1132 599 m 16 X s 1117 567 m 15 X s 1117 627 m 15 X s 1100 591 m 16 Y s 1148 591 m 16 Y s 1124 599 m20 1172 572 m 23 Y s 1172 611 m 19 Y s 1148 603 m 17 X s 1180 603 m 16 X s 1165 572 m 15 X s 1165 630 m 15 X s 1148
 595 m 16 Y s 1196 595 m 16 Y s 1172 603 m20 1220 567 m 24 Y s 1220 607 m 20 Y s 1196 599 m 17 X s 1228 599 m 16 X s 1213 567 m 15 X s 1213 627 m 15 X s 1196 591 m 16 Y s 1244 591 m 16 Y s 1220 599 m20 1268 626 m 20 Y s 1268 661 m 17 Y s 1244 653 m
 16 X s 1276 653 m 16 X s 1260 626 m 16 X s 1260 678 m 16 X s 1244 646 m 15 Y s 1292 646 m 15 Y s 1268 653 m20 1316 663 m 18 Y s 1316 696 m 15 Y s 1292 688 m 16 X s 1324 688 m 16 X s 1308 663 m 16 X s 1308 711 m 16 X s 1292 681 m 15 Y s 1340 681 m 15
 Y s 1316 688 m20 1364 705 m 15 Y s 1364 735 m 13 Y s 1340 728 m 16 X s 1371 728 m 17 X s 1356 705 m 15 X s 1356 748 m 15 X s 1340 720 m 15 Y s 1388 720 m 15 Y s 1364 728 m20 1412 674 m 17 Y s 1412 706 m 15 Y s 1388 699 m 16 X s 1419 699 m 17 X s
 1404 674 m 15 X s 1404 721 m 15 X s 1388 691 m 15 Y s 1436 691 m 15 Y s 1412 699 m20 1460 567 m 24 Y s 1460 607 m 20 Y s 1436 599 m 16 X s 1467 599 m 17 X s 1452 567 m 15 X s 1452 627 m 15 X s 1436 591 m 16 Y s 1484 591 m 16 Y s 1460 599 m20 1508
 592 m 23 Y s 1508 630 m 19 Y s 1484 622 m 16 X s 1515 622 m 17 X s 1500 592 m 15 X s 1500 649 m 15 X s 1484 615 m 15 Y s 1532 615 m 15 Y s 1508 622 m20 1556 523 m 28 Y s 1556 566 m 22 Y s 1532 558 m 16 X s 1563 558 m 16 X s 1548 523 m 15 X s 1548
 588 m 15 X s 1532 551 m 15 Y s 1579 551 m 15 Y s 1556 558 m20 1603 558 m 25 Y s 1603 598 m 21 Y s 1579 591 m 17 X s 1611 591 m 16 X s 1596 558 m 15 X s 1596 619 m 15 X s 1579 583 m 15 Y s 1627 583 m 15 Y s 1603 591 m20 1651 481 m 31 Y s 1651 527 m
 26 Y s 1627 520 m 17 X s 1659 520 m 16 X s 1644 481 m 15 X s 1644 553 m 15 X s 1627 512 m 15 Y s 1675 512 m 15 Y s 1651 520 m20 1699 453 m 34 Y s 1699 502 m 27 Y s 1675 494 m 17 X s 1707 494 m 16 X s 1692 453 m 15 X s 1692 529 m 15 X s 1675 487 m 15
 Y s 1723 487 m 15 Y s 1699 494 m20 1747 437 m 36 Y s 1747 488 m 28 Y s 1723 480 m 17 X s 1755 480 m 16 X s 1740 437 m 15 X s 1740 516 m 15 X s 1723 473 m 15 Y s 1771 473 m 15 Y s 1747 480 m20 1795 262 m 57 Y s 1795 335 m 42 Y s 1771 327 m 16 X s
 1803 327 m 16 X s 1787 262 m 16 X s 1787 377 m 16 X s 1771 319 m 16 Y s 1819 319 m 16 Y s 1795 327 m20 1843 349 m 45 Y s 1843 410 m 34 Y s 1819 402 m 16 X s 1851 402 m 16 X s 1835 349 m 16 X s 1835 444 m 16 X s 1819 394 m 16 Y s 1867 394 m 16 Y s
 1843 402 m20 1891 223 m 64 Y s 1891 302 m 46 Y s 1867 295 m 16 X s 1898 295 m 17 X s 1883 223 m 15 X s 1883 348 m 15 X s 1867 287 m 15 Y s 1915 287 m 15 Y s 1891 295 m20 1939 323 m 49 Y s 1939 387 m 37 Y s 1915 380 m 16 X s 1946 380 m 17 X s 1931
 323 m 15 X s 1931 424 m 15 X s 1915 372 m 15 Y s 1963 372 m 15 Y s 1939 380 m20 1987 411 m 39 Y s 1987 465 m 30 Y s 1963 457 m 16 X s 1994 457 m 17 X s 1979 411 m 15 X s 1979 495 m 15 X s 1963 450 m 15 Y s 2011 450 m 15 Y s 1987 457 m20 2035 392 m
 41 Y s 2035 448 m 31 Y s 2011 440 m 16 X s 2042 440 m 17 X s 2027 392 m 15 X s 2027 479 m 15 X s 2011 433 m 15 Y s 2059 433 m 15 Y s 2035 440 m20 2082 445 m 35 Y s 2082 495 m 28 Y s 2059 487 m 16 X s 2090 487 m 16 X s 2075 445 m 15 X s 2075 523 m 15
 X s 2059 480 m 15 Y s 2106 480 m 15 Y s 2082 487 m20 2130 437 m 36 Y s 2130 488 m 28 Y s 2106 480 m 17 X s 2138 480 m 16 X s 2123 437 m 15 X s 2123 516 m 15 X s 2106 473 m 15 Y s 2154 473 m 15 Y s 2130 480 m20 black
 gsave  2268 1676 0 0 C 272.126 1240.34 t 0 r /Helvetica-Bold findfont 49.2982 sf 0 0 m (Kolmogorov\255Smirnov test: signal \(background\) probability = 0.126 \(0.186\)) show NC gr  238 201 m 1916 X s 238 244 m -43 Y s 334 222 m -21 Y s 430 222 m -21
 Y s 526 222 m -21 Y s 621 244 m -43 Y s 717 222 m -21 Y s 813 222 m -21 Y s 909 222 m -21 Y s 1005 244 m -43 Y s 1100 222 m -21 Y s 1196 222 m -21 Y s 1292 222 m -21 Y s 1388 244 m -43 Y s 1484 222 m -21 Y s 1579 222 m -21 Y s 1675 222 m -21 Y s
 1771 244 m -43 Y s 1867 222 m -21 Y s 1963 222 m -21 Y s 2059 222 m -21 Y s 2154 244 m -43 Y s 2154 244 m -43 Y s 238 1509 m 1916 X s 238 1466 m 43 Y s 334 1487 m 22 Y s 430 1487 m 22 Y s 526 1487 m 22 Y s 621 1466 m 43 Y s 717 1487 m 22 Y s 813
 1487 m 22 Y s 909 1487 m 22 Y s 1005 1466 m 43 Y s 1100 1487 m 22 Y s 1196 1487 m 22 Y s 1292 1487 m 22 Y s 1388 1466 m 43 Y s 1484 1487 m 22 Y s 1579 1487 m 22 Y s 1675 1487 m 22 Y s 1771 1466 m 43 Y s 1867 1487 m 22 Y s 1963 1487 m 22 Y s 2059
 1487 m 22 Y s 2154 1466 m 43 Y s 2154 1466 m 43 Y s 238 201 m 1308 Y s 265 228 m -27 X s 265 256 m -27 X s 265 281 m -27 X s 291 303 m -53 X s 265 449 m -27 X s 265 534 m -27 X s 265 595 m -27 X s 265 642 m -27 X s 265 680 m -27 X s 265 712 m -27 X
 s 265 741 m -27 X s 265 765 m -27 X s 291 788 m -53 X s 265 933 m -27 X s 265 1019 m -27 X s 265 1079 m -27 X s 265 1126 m -27 X s 265 1164 m -27 X s 265 1197 m -27 X s 265 1225 m -27 X s 265 1250 m -27 X s 291 1272 m -53 X s 265 1418 m -27 X s 265
 1503 m -27 X s 2154 201 m 1308 Y s 2128 228 m 26 X s 2128 256 m 26 X s 2128 281 m 26 X s 2101 303 m 53 X s 2128 449 m 26 X s 2128 534 m 26 X s 2128 595 m 26 X s 2128 642 m 26 X s 2128 680 m 26 X s 2128 712 m 26 X s 2128 741 m 26 X s 2128 765 m 26 X
 s 2101 788 m 53 X s 2128 933 m 26 X s 2128 1019 m 26 X s 2128 1079 m 26 X s 2128 1126 m 26 X s 2128 1164 m 26 X s 2128 1197 m 26 X s 2128 1225 m 26 X s 2128 1250 m 26 X s 2101 1272 m 53 X s 2128 1418 m 26 X s 2128 1503 m 26 X s
 gsave  2268 1676 0 0 C 2211.02 192.756 t 90 r /Helvetica-Bold findfont 45.506 sf 0 0 m (U/O\255flow \(S,B\): \(0.0, 0.0\)% / \(0.0, 0.0\)%) show NC gr  0.490196 0.545098 0.615686 c 0.364706 0.419608 0.490196 c 1587 96 23 1572 bf 0.490196 0.545098
 0.615686 c 23 1572 m 1587 X s 1610 1572 m 96 Y s 1610 1668 m -1587 X s 23 1668 m -96 Y s 1 1 1 c black 1 1 1 c
 gsave  2268 1676 0 0 C 75.8434 1604.09 t 0 r /Helvetica-Bold findfont 56.8825 sf 0 0 m (TMVA overtraining check for classifier: LikelihoodPCA) show NC gr 
 gr  gr showpage
end
%%EOF
