%!PS-Adobe-2.0 EPSF-2.0
%%BoundingBox:  0 0 567 419
%%Title: : TMVA comparison Likelihood
%%Creator: ROOT Version 6.12/06
%%CreationDate: Mon May 21 11:05:36 2018
%%DocumentNeededResources: ProcSet (FontSetInit)
%%EndComments
%%BeginProlog
80 dict begin
/s {stroke} def /l {lineto} def /m {moveto} def /t {translate} def
/r {rotate} def /rl {roll}  def /R {repeat} def
/d {rlineto} def /rm {rmoveto} def /gr {grestore} def /f {eofill} def
/c {setrgbcolor} def /black {0 setgray} def /sd {setdash} def
/cl {closepath} def /sf {scalefont setfont} def /lw {setlinewidth} def
/box {m dup 0 exch d exch 0 d 0 exch neg d cl} def
/NC{systemdict begin initclip end}def/C{NC box clip newpath}def
/bl {box s} def /bf {gsave box gsave f grestore 1 lw [] 0 sd s grestore} def /Y { 0 exch d} def /X { 0 d} def 
/K {{pop pop 0 moveto} exch kshow} bind def
/ita {/ang 15 def gsave [1 0 ang dup sin exch cos div 1 0 0] concat} def 
/mp {newpath /y exch def /x exch def} def
/side {[w .77 mul w .23 mul] .385 w mul sd w 0 l currentpoint t -144 r} def
/mr {mp x y w2 0 360 arc} def /m24 {mr s} def /m20 {mr f} def
/mb {mp x y w2 add m w2 neg 0 d 0 w neg d w 0 d 0 w d cl} def
/mt {mp x y w2 add m w2 neg w neg d w 0 d cl} def
/w4 {w 4 div} def
/w6 {w 6 div} def
/w8 {w 8 div} def
/m21 {mb f} def /m25 {mb s} def /m22 {mt f} def /m26{mt s} def
/m23 {mp x y w2 sub m w2 w d w neg 0 d cl f} def
/m27 {mp x y w2 add m w3 neg w2 neg d w3 w2 neg d w3 w2 d cl s} def
/m28 {mp x w2 sub y w2 sub w3 add m w3 0 d  0 w3 neg d w3 0 d 0 w3 d w3 0 d  0 w3 d w3 neg 0 d 0 w3 d w3 neg 0 d 0 w3 neg d w3 neg 0 d cl s } def
/m29 {mp gsave x w2 sub y w2 add w3 sub m currentpoint t 4 {side} repeat cl fill gr} def
/m30 {mp gsave x w2 sub y w2 add w3 sub m currentpoint t 4 {side} repeat cl s gr} def
/m31 {mp x y w2 sub m 0 w d x w2 sub y m w 0 d x w2 sub y w2 add m w w neg d x w2 sub y w2 sub m w w d s} def
/m32 {mp x y w2 sub m w2 w d w neg 0 d cl s} def
/m33 {mp x y w2 add m w3 neg w2 neg d w3 w2 neg d w3 w2 d cl f} def
/m34 {mp x w2 sub y w2 sub w3 add m w3 0 d  0 w3 neg d w3 0 d 0 w3 d w3 0 d  0 w3 d w3 neg 0 d 0 w3 d w3 neg 0 d 0 w3 neg d w3 neg 0 d cl f } def
/m35 {mp x y w2 add m w2 neg w2 neg d w2 w2 neg d w2 w2 d w2 neg w2 d x y w2 sub m 0 w d x w2 sub y m w 0 d s} def
/m36 {mb x w2 sub y w2 add m w w neg d x w2 sub y w2 sub m w w d s} def
/m37 {mp x y m w4 neg w2 d w4 neg w2 neg d w2 0 d  w4 neg w2 neg d w2 0 d w4 neg w2 d w2 0 d w4 neg w2 d w4 neg w2 neg d cl s} def
/m38 {mp x w4 sub y w2 add m w4 neg w4 neg d 0 w2 neg d w4 w4 neg d w2 0 d w4 w4 d 0 w2 d w4 neg w4 d w2 neg 0 d x y w2 sub m 0 w d x w2 sub y m w 0 d cl s} def
/m39 {mp x y m w4 neg w2 d w4 neg w2 neg d w2 0 d  w4 neg w2 neg d w2 0 d w4 neg w2 d w2 0 d w4 neg w2 d w4 neg w2 neg d cl f} def
/m40 {mp x y m w4 w2 d w4 w4 neg d w2 neg w4 neg d w2 w4 neg d w4 neg w4 neg d w4 neg w2 d w4 neg w2 neg d w4 neg w4 d w2 w4 d w2 neg w4 d w4 w4 d w4 w2 neg d cl s} def
/m41 {mp x y m w4 w2 d w4 w4 neg d w2 neg w4 neg d w2 w4 neg d w4 neg w4 neg d w4 neg w2 d w4 neg w2 neg d w4 neg w4 d w2 w4 d w2 neg w4 d w4 w4 d w4 w2 neg d cl f} def
/m42 {mp x y w2 add m w8 neg w2 -3 4 div mul d w2 -3 4 div mul w8 neg d w2 3 4 div mul w8 neg d w8 w2 -3 4 div mul d w8 w2 3 4 div mul d w2 3 4 div mul w8 d w2 -3 4 div mul w8 d w8 neg w2 3 4 div mul d cl s} def
/m43 {mp x y w2 add m w8 neg w2 -3 4 div mul d w2 -3 4 div mul w8 neg d w2 3 4 div mul w8 neg d w8 w2 -3 4 div mul d w8 w2 3 4 div mul d w2 3 4 div mul w8 d w2 -3 4 div mul w8 d w8 neg w2 3 4 div mul d cl f} def
/m44 {mp x y m w6 neg w2 d w2 2 3 div mul 0 d w6 neg w2 neg d w2 w6 d 0 w2 -2 3 div mul d w2 neg w6 d w6 w2 neg d w2 -2 3 div mul 0 d w6 w2 d w2 neg w6 neg d 0 w2 2 3 div mul d w2 w6 neg d cl s} def
/m45 {mp x y m w6 neg w2 d w2 2 3 div mul 0 d w6 neg w2 neg d w2 w6 d 0 w2 -2 3 div mul d w2 neg w6 d w6 w2 neg d w2 -2 3 div mul 0 d w6 w2 d w2 neg w6 neg d 0 w2 2 3 div mul d w2 w6 neg d cl f} def
/m46 {mp x y w4 add m w4 neg w4 d w4 neg w4 neg d  w4 w4 neg d w4 neg w4 neg d w4 w4 neg d w4 w4 d w4 w4 neg d w4 w4 d w4 neg w4 d w4 w4 d w4 neg w4 d w4 neg w4 neg d cl s} def
/m47 {mp x y w4 add m w4 neg w4 d w4 neg w4 neg d w4 w4 neg d w4 neg w4 neg d  w4 w4 neg d w4 w4 d w4 w4 neg d w4 w4 d w4 neg w4 d w4 w4 d w4 neg w4 d w4 neg w4 neg d cl f} def
/m48 {mp x y w4 add m w4 neg w4 d w4 neg w4 neg d w4 w4 neg d  w4 neg w4 neg d w4 w4 neg d w4 w4 d w4 w4 neg d w4 w4 d w4 neg w4 d w4 w4 d w4 neg w4 d w4 neg w4 neg d  w4 w4 neg d w4 neg w4 neg d w4 neg w4 d w4 w4 d cl f} def
/m49 {mp x w2 sub w3 add y w2 sub w3 add m  0 w3 neg d w3 0 d 0 w3 d w3 0 d 0 w3 d w3 neg 0 d 0 w3 d w3 neg 0 d 0 w3 neg d w3 neg 0 d 0 w3 neg d w3 0 d 0 w3 d w3 0 d 0 w3 neg d w3 neg 0 d cl f } def
/m2 {mp x y w2 sub m 0 w d x w2 sub y m w 0 d s} def
/m5 {mp x w2 sub y w2 sub m w w d x w2 sub y w2 add m w w neg d s} def
%%IncludeResource: ProcSet (FontSetInit)
%%IncludeResource: font Times-Roman
%%IncludeResource: font Times-Italic
%%IncludeResource: font Times-Bold
%%IncludeResource: font Times-BoldItalic
%%IncludeResource: font Helvetica
%%IncludeResource: font Helvetica-Oblique
%%IncludeResource: font Helvetica-Bold
%%IncludeResource: font Helvetica-BoldOblique
%%IncludeResource: font Courier
%%IncludeResource: font Courier-Oblique
%%IncludeResource: font Courier-Bold
%%IncludeResource: font Courier-BoldOblique
%%IncludeResource: font Symbol
%%IncludeResource: font ZapfDingbats
/reEncode {exch findfont dup length dict begin {1 index /FID eq  {pop pop} {def} ifelse } forall /Encoding exch def currentdict end dup /FontName get exch definefont pop } def [/Times-Bold /Times-Italic /Times-BoldItalic /Helvetica /Helvetica-Oblique
 /Helvetica-Bold /Helvetica-BoldOblique /Courier /Courier-Oblique /Courier-Bold /Courier-BoldOblique /Times-Roman /AvantGarde-Book /AvantGarde-BookOblique /AvantGarde-Demi /AvantGarde-DemiOblique /Bookman-Demi /Bookman-DemiItalic /Bookman-Light
 /Bookman-LightItalic /Helvetica-Narrow /Helvetica-Narrow-Bold /Helvetica-Narrow-BoldOblique /Helvetica-Narrow-Oblique /NewCenturySchlbk-Roman /NewCenturySchlbk-Bold /NewCenturySchlbk-BoldItalic /NewCenturySchlbk-Italic /Palatino-Bold
 /Palatino-BoldItalic /Palatino-Italic /Palatino-Roman ] {ISOLatin1Encoding reEncode } forall
%%EndProlog
%%BeginSetup
%%EndSetup
newpath  gsave  .25 .25 scale  gsave  0 0 t 0.490196 0.545098 0.615686 c[  ] 0 sd 3 lw 0.941176 0.941176 0.941176 c 2268 1676 0 0 bf black 1 1 0.992157 c 1916 1308 238 201 bf black 1916 1308 238 201 bl 1 1 0.992157 c 1916 1308 238 201 bf black 1916
 1308 238 201 bl 238 201 m 1916 X s 238 244 m -43 Y s 334 222 m -21 Y s 430 222 m -21 Y s 526 222 m -21 Y s 621 244 m -43 Y s 717 222 m -21 Y s 813 222 m -21 Y s 909 222 m -21 Y s 1005 244 m -43 Y s 1100 222 m -21 Y s 1196 222 m -21 Y s 1292 222 m
 -21 Y s 1388 244 m -43 Y s 1484 222 m -21 Y s 1579 222 m -21 Y s 1675 222 m -21 Y s 1771 244 m -43 Y s 1867 222 m -21 Y s 1963 222 m -21 Y s 2059 222 m -21 Y s 2154 244 m -43 Y s 2154 244 m -43 Y s
 gsave  2268 1676 0 0 C 216.154 128.934 t 0 r /Helvetica-Bold findfont 64.4669 sf 0 0 m (0) show NC gr 
 gsave  2268 1676 0 0 C 572.617 128.934 t 0 r /Helvetica-Bold findfont 64.4669 sf 0 0 m (0.2) show NC gr 
 gsave  2268 1676 0 0 C 955.626 128.934 t 0 r /Helvetica-Bold findfont 64.4669 sf 0 0 m (0.4) show NC gr 
 gsave  2268 1676 0 0 C 1338.64 128.934 t 0 r /Helvetica-Bold findfont 64.4669 sf 0 0 m (0.6) show NC gr 
 gsave  2268 1676 0 0 C 1725.44 128.934 t 0 r /Helvetica-Bold findfont 64.4669 sf 0 0 m (0.8) show NC gr 
 gsave  2268 1676 0 0 C 2138.78 128.934 t 0 r /Helvetica-Bold findfont 64.4669 sf 0 0 m (1) show NC gr 
 gsave  2268 1676 0 0 C 1452.4 34.1295 t 0 r /Helvetica-Bold findfont 72.0512 sf 0 0 m (Likelihood response) show NC gr  238 1509 m 1916 X s 238 1466 m 43 Y s 334 1487 m 22 Y s 430 1487 m 22 Y s 526 1487 m 22 Y s 621 1466 m 43 Y s 717 1487 m 22 Y s
 813 1487 m 22 Y s 909 1487 m 22 Y s 1005 1466 m 43 Y s 1100 1487 m 22 Y s 1196 1487 m 22 Y s 1292 1487 m 22 Y s 1388 1466 m 43 Y s 1484 1487 m 22 Y s 1579 1487 m 22 Y s 1675 1487 m 22 Y s 1771 1466 m 43 Y s 1867 1487 m 22 Y s 1963 1487 m 22 Y s 2059
 1487 m 22 Y s 2154 1466 m 43 Y s 2154 1466 m 43 Y s 238 201 m 1308 Y s 265 229 m -27 X s 265 275 m -27 X s 265 314 m -27 X s 265 346 m -27 X s 265 374 m -27 X s 265 399 m -27 X s 291 421 m -53 X s
 gsave  2268 1676 0 0 C 182.024 424.723 t 0 r /Helvetica-Bold findfont 41.7138 sf 0 0 m (1) show NC gr 
 gsave  2268 1676 0 0 C 159.271 424.723 t 0 r /Symbol findfont 41.7138 sf 0 0 m (-) show NC gr 
 gsave  2268 1676 0 0 C 87.2199 394.385 t 0 r /Helvetica-Bold findfont 64.4669 sf 0 0 m (10) show NC gr  265 567 m -27 X s 265 652 m -27 X s 265 713 m -27 X s 265 760 m -27 X s 265 798 m -27 X s 265 831 m -27 X s 265 859 m -27 X s 265 884 m -27 X s
 291 906 m -53 X s
 gsave  2268 1676 0 0 C 174.44 879.783 t 0 r /Helvetica-Bold findfont 64.4669 sf 0 0 m (1) show NC gr  265 1052 m -27 X s 265 1137 m -27 X s 265 1197 m -27 X s 265 1244 m -27 X s 265 1283 m -27 X s 265 1315 m -27 X s 265 1343 m -27 X s 265 1368 m -27
 X s 291 1390 m -53 X s
 gsave  2268 1676 0 0 C 128.934 1365.18 t 0 r /Helvetica-Bold findfont 64.4669 sf 0 0 m (10) show NC gr 
 gsave  2268 1676 0 0 C 64.4669 1425.86 t 90 r /Helvetica-Bold findfont 72.0512 sf 0 0 m (dx) show NC gr 
 gsave  2268 1676 0 0 C 30.3373 1406.89 t 90 r /Helvetica-Bold findfont 45.506 sf 0 0 m ( ) show NC gr 
 gsave  2268 1676 0 0 C 64.4669 1384.14 t 90 r /Helvetica-Bold findfont 72.0512 sf 0 0 m (/) show NC gr 
 gsave  2268 1676 0 0 C 30.3373 1365.18 t 90 r /Helvetica-Bold findfont 45.506 sf 0 0 m ( ) show NC gr 
 gsave  2268 1676 0 0 C 60.6747 1092.14 t 90 r /Helvetica-Bold findfont 72.0512 sf 0 0 m (\(1/N\) dN) show NC gr  2154 201 m 1308 Y s 2128 229 m 26 X s 2128 275 m 26 X s 2128 314 m 26 X s 2128 346 m 26 X s 2128 374 m 26 X s 2128 399 m 26 X s 2101 421
 m 53 X s 2128 567 m 26 X s 2128 652 m 26 X s 2128 713 m 26 X s 2128 760 m 26 X s 2128 798 m 26 X s 2128 831 m 26 X s 2128 859 m 26 X s 2128 884 m 26 X s 2101 906 m 53 X s 2128 1052 m 26 X s 2128 1137 m 26 X s 2128 1197 m 26 X s 2128 1244 m 26 X s
 2128 1283 m 26 X s 2128 1315 m 26 X s 2128 1343 m 26 X s 2128 1368 m 26 X s 2101 1390 m 53 X s 0.490196 0.545098 0.615686 c 1 1 1 c 0.490196 0.545098 0.615686 c 907 202 238 1307 bl 238 1307 m 907 X s 1145 1307 m 202 Y s 1145 1509 m -907 X s 238 1509
 m -202 Y s black
 gsave  2268 1676 0 0 C 417.138 1437.23 t 0 r /Helvetica-Bold findfont 56.8825 sf 0 0 m (Signal \(test sample\)) show NC gr  0.49 0.6 0.82 c 265 1423 m 127 X 70 Y -127 X f 0 0 0.933333 c 265 1493 m 127 X s 265 1423 m 127 X s 392 1423 m 70 Y s 265
 1423 m 70 Y s black
 gsave  2268 1676 0 0 C 417.138 1338.64 t 0 r /Helvetica-Bold findfont 56.8825 sf 0 0 m (Background \(test sample\)) show NC gr  1 0 0 c 392 1354 m -32 -32 d s 383 1393 m -71 -71 d s 335 1393 m -70 -69 d s 286 1393 m -21 -21 d s 0 0 0.933333 c 1 0 0
 c 265 1393 m 127 X s 265 1322 m 127 X s 392 1322 m 71 Y s 265 1322 m 71 Y s 0 0 0.933333 c 0.49 0.6 0.82 c black 0.49 0.6 0.82 c 238 201 m 272 Y 48 X -272 Y 48 X 98 Y 48 X -98 Y 48 X 173 Y 96 X 217 Y 47 X 28 Y 48 X 7 Y 48 X -76 Y 48 X 17 Y 96 X -94
 Y 48 X 146 Y 48 X 7 Y 48 X -35 Y 48 X 70 Y 48 X 48 Y 95 X -54 Y 48 X 110 Y 48 X 36 Y 48 X -39 Y 48 X 84 Y 48 X 74 Y 48 X 14 Y 48 X 22 Y 48 X 28 Y 47 X 49 Y 48 X 92 Y 48 X 24 Y 48 X 141 Y 48 X 89 Y 48 X -136 Y 48 X -723 Y 48 X -319 Y 239 X f 0 0
 0.933333 c 0.49 0.6 0.82 c 0 0 0.933333 c 238 473 m 48 X -272 Y 48 X 98 Y 48 X -98 Y 48 X 173 Y 96 X 217 Y 47 X 28 Y 48 X 7 Y 48 X -76 Y 48 X 17 Y 96 X -94 Y 48 X 146 Y 48 X 7 Y 48 X -35 Y 48 X 70 Y 48 X 48 Y 95 X -54 Y 48 X 110 Y 48 X 36 Y 48 X -39
 Y 48 X 84 Y 48 X 74 Y 48 X 14 Y 48 X 22 Y 48 X 28 Y 47 X 49 Y 48 X 92 Y 48 X 24 Y 48 X 141 Y 48 X 89 Y 48 X -136 Y 48 X -723 Y 48 X -319 Y 239 X s 1 0 0 c black 1 0 0 c 2125 201 m s 2077 201 m s 2029 201 m s 1981 201 m s 1933 201 m s 1915 231 m -30
 -30 d s 1915 279 m -78 -78 d s 1915 327 m -126 -126 d s 1867 328 m -126 -127 d s 1867 376 m -175 -175 d s 1867 424 m -223 -223 d s 1867 472 m -271 -271 d s 1867 520 m -319 -319 d s 1839 540 m -339 -339 d s 1819 568 m -367 -367 d s 1819 616 m -415
 -415 d s 1819 664 m -463 -463 d s 1819 713 m -511 -512 d s 1787 729 m -16 -16 d s 1729 671 m -6 -6 d s 1714 655 m -455 -454 d s 1675 665 m -464 -464 d s 1671 709 m -508 -508 d s 1618 704 m -503 -503 d s 1579 714 m -512 -513 d s 1579 762 m -560 -561
 d s 1559 790 m -588 -589 d s 1532 810 m -48 -48 d s 1455 733 m -532 -532 d s 1496 822 m -12 -12 d s 1436 762 m -561 -561 d s 1436 810 m -609 -609 d s 1402 825 m -14 -14 d s 1381 804 m -603 -603 d s 1336 806 m -606 -605 d s 1292 811 m -610 -610 d s
 1262 829 m -628 -628 d s 1204 820 m -8 -9 d s 1153 768 m -567 -567 d s 1148 812 m -610 -611 d s 1141 852 m -651 -651 d s 1100 860 m -95 -96 d s 992 751 m -550 -550 d s 1086 894 m -33 -34 d s 1027 834 m -22 -22 d s 957 764 m -563 -563 d s 957 812 m
 -96 -95 d s 849 704 m -504 -503 d s 918 822 m -9 -9 d s 877 781 m -16 -16 d s 813 717 m -516 -516 d s 813 765 m -564 -564 d s 813 813 m -575 -575 d s 813 861 m -575 -575 d s 765 861 m -527 -527 d s 758 902 m -520 -520 d s 717 910 m -479 -479 d s 717
 958 m -96 -96 d s 618 859 m -380 -380 d s 679 968 m -58 -58 d s 573 862 m -335 -335 d s 668 1005 m -47 -47 d s 573 910 m -335 -335 d s 573 958 m -95 -96 d s 467 852 m -37 -37 d s 416 801 m -178 -178 d s 573 1006 m -47 -48 d s 484 917 m -6 -6 d s 382
 815 m -144 -144 d s 538 1019 m -12 -12 d s 382 863 m -144 -144 d s 382 911 m -144 -144 d s 382 959 m -144 -144 d s 382 1007 m -144 -144 d s 342 1016 m -104 -104 d s 334 1056 m -96 -96 d s 334 1104 m -96 -96 d s 323 1141 m -85 -85 d s 286 1152 m -48
 -48 d s 286 1200 m -48 -48 d s 286 1248 m -48 -48 d s 286 1296 m -48 -48 d s 286 1344 m -48 -48 d s 286 1392 m -48 -47 d s 286 1441 m -48 -48 d s 250 1453 m -12 -12 d s 238 1453 m 48 X -312 Y 48 X -125 Y 48 X -215 Y 48 X 51 Y 48 X 65 Y 48 X 102 Y 47
 X -160 Y 48 X 146 Y 48 X -37 Y 48 X -66 Y 48 X -41 Y 48 X -157 Y 48 X 77 Y 48 X 41 Y 48 X -71 Y 48 X 83 Y 48 X 60 Y 47 X -42 Y 48 X -84 Y 48 X 52 Y 48 X 9 Y 48 X -23 Y 48 X -2 Y 48 X 21 Y 48 X -92 Y 48 X 89 Y 48 X -32 Y 47 X -86 Y 48 X 5 Y 48 X -54
 Y 48 X 16 Y 48 X 58 Y 48 X -189 Y 48 X -213 Y 48 X -126 Y 239 X s 0.490196 0.545098 0.615686 c 1 1 1 c 0.490196 0.545098 0.615686 c 952 202 1202 1307 bl 1202 1307 m 952 X s 2154 1307 m 202 Y s 2154 1509 m -952 X s 1202 1509 m -202 Y s black
 gsave  2268 1676 0 0 C 1296.92 1437.23 t 0 r /Helvetica-Bold findfont 56.8825 sf 0 0 m (Signal \(training sample\)) show NC gr  0 0 0.933333 c /w 21 def /w2 {w 2 div} def /w3 {w 3 div} def 1250 1458 m20 black
 gsave  2268 1676 0 0 C 1296.92 1338.64 t 0 r /Helvetica-Bold findfont 56.8825 sf 0 0 m (Background \(training sample\)) show NC gr  1 0 0 c 1250 1358 m20 0 0 0.933333 c 1 1 1 c 0 0 0.933333 c 262 201 m 20 Y s 262 236 m 70 Y s 238 229 m 16 X s 270
 229 m 16 X s 254 201 m 16 X s 254 306 m 16 X s 238 221 m 15 Y s 286 221 m 15 Y s 262 229 m20 310 201 m 58 Y s 310 274 m 65 Y s 286 267 m 16 X s 318 267 m 16 X s 302 201 m 16 X s 302 339 m 16 X s 286 259 m 15 Y s 334 259 m 15 Y s 310 267 m20 358 201
 m 91 Y s 358 307 m 60 Y s 334 299 m 16 X s 365 299 m 17 X s 350 201 m 15 X s 350 367 m 15 X s 334 292 m 15 Y s 382 292 m 15 Y s 358 299 m20 406 267 m 78 Y s 406 360 m 53 Y s 382 352 m 16 X s 413 352 m 17 X s 398 267 m 15 X s 398 413 m 15 X s 382 345
 m 15 Y s 430 345 m 15 Y s 406 352 m20 454 361 m 61 Y s 454 437 m 44 Y s 430 430 m 16 X s 461 430 m 17 X s 446 361 m 15 X s 446 481 m 15 X s 430 422 m 15 Y s 478 422 m 15 Y s 454 430 m20 502 380 m 58 Y s 502 453 m 42 Y s 478 445 m 16 X s 509 445 m 17
 X s 494 380 m 15 X s 494 495 m 15 X s 478 438 m 15 Y s 526 438 m 15 Y s 502 445 m20 549 592 m 32 Y s 549 639 m 26 Y s 526 632 m 16 X s 557 632 m 16 X s 542 592 m 15 X s 542 665 m 15 X s 526 624 m 15 Y s 573 624 m 15 Y s 549 632 m20 597 555 m 36 Y s
 597 606 m 28 Y s 573 598 m 17 X s 605 598 m 16 X s 590 555 m 15 X s 590 634 m 15 X s 573 591 m 15 Y s 621 591 m 15 Y s 597 598 m20 645 599 m 31 Y s 645 645 m 26 Y s 621 638 m 17 X s 653 638 m 16 X s 638 599 m 15 X s 638 671 m 15 X s 621 630 m 15 Y s
 669 630 m 15 Y s 645 638 m20 693 467 m 46 Y s 693 528 m 35 Y s 669 520 m 17 X s 701 520 m 16 X s 686 467 m 15 X s 686 563 m 15 X s 669 513 m 15 Y s 717 513 m 15 Y s 693 520 m20 741 455 m 47 Y s 741 517 m 36 Y s 717 509 m 17 X s 749 509 m 16 X s 734
 455 m 15 X s 734 553 m 15 X s 717 502 m 15 Y s 765 502 m 15 Y s 741 509 m20 789 500 m 42 Y s 789 557 m 32 Y s 765 550 m 16 X s 797 550 m 16 X s 781 500 m 16 X s 781 589 m 16 X s 765 542 m 15 Y s 813 542 m 15 Y s 789 550 m20 837 428 m 50 Y s 837 494
 m 38 Y s 813 486 m 16 X s 845 486 m 16 X s 829 428 m 16 X s 829 532 m 16 X s 813 478 m 16 Y s 861 478 m 16 Y s 837 486 m20 885 520 m 40 Y s 885 575 m 30 Y s 861 567 m 16 X s 892 567 m 17 X s 877 520 m 15 X s 877 605 m 15 X s 861 560 m 15 Y s 909 560
 m 15 Y s 885 567 m20 933 630 m 28 Y s 933 674 m 23 Y s 909 666 m 16 X s 940 666 m 17 X s 925 630 m 15 X s 925 697 m 15 X s 909 658 m 16 Y s 957 658 m 16 Y s 933 666 m20 981 500 m 42 Y s 981 557 m 32 Y s 957 550 m 16 X s 988 550 m 17 X s 973 500 m 15
 X s 973 589 m 15 X s 957 542 m 15 Y s 1005 542 m 15 Y s 981 550 m20 1029 578 m 33 Y s 1029 627 m 26 Y s 1005 619 m 16 X s 1036 619 m 17 X s 1021 578 m 15 X s 1021 653 m 15 X s 1005 611 m 16 Y s 1053 611 m 16 Y s 1029 619 m20 1076 618 m 30 Y s 1076
 663 m 24 Y s 1053 655 m 16 X s 1084 655 m 16 X s 1069 618 m 15 X s 1069 687 m 15 X s 1053 648 m 15 Y s 1100 648 m 15 Y s 1076 655 m20 1124 707 m 22 Y s 1124 744 m 19 Y s 1100 737 m 17 X s 1132 737 m 16 X s 1117 707 m 15 X s 1117 763 m 15 X s 1100
 729 m 15 Y s 1148 729 m 15 Y s 1124 737 m20 1172 646 m 28 Y s 1172 689 m 22 Y s 1148 681 m 17 X s 1180 681 m 16 X s 1165 646 m 15 X s 1165 711 m 15 X s 1148 674 m 15 Y s 1196 674 m 15 Y s 1172 681 m20 1220 760 m 19 Y s 1220 794 m 16 Y s 1196 787 m
 17 X s 1228 787 m 16 X s 1213 760 m 15 X s 1213 810 m 15 X s 1196 779 m 15 Y s 1244 779 m 15 Y s 1220 787 m20 1268 792 m 17 Y s 1268 825 m 14 Y s 1244 817 m 16 X s 1276 817 m 16 X s 1260 792 m 16 X s 1260 839 m 16 X s 1244 809 m 16 Y s 1292 809 m 16
 Y s 1268 817 m20 1316 760 m 19 Y s 1316 794 m 16 Y s 1292 787 m 16 X s 1324 787 m 16 X s 1308 760 m 16 X s 1308 810 m 16 X s 1292 779 m 15 Y s 1340 779 m 15 Y s 1316 787 m20 1364 718 m 22 Y s 1364 755 m 18 Y s 1340 748 m 16 X s 1371 748 m 17 X s
 1356 718 m 15 X s 1356 773 m 15 X s 1340 740 m 15 Y s 1388 740 m 15 Y s 1364 748 m20 1412 916 m 10 Y s 1412 942 m 9 Y s 1388 934 m 16 X s 1419 934 m 17 X s 1404 916 m 15 X s 1404 951 m 15 X s 1388 926 m 16 Y s 1436 926 m 16 Y s 1412 934 m20 1460 913
 m 10 Y s 1460 939 m 9 Y s 1436 931 m 16 X s 1467 931 m 17 X s 1452 913 m 15 X s 1452 948 m 15 X s 1436 923 m 16 Y s 1484 923 m 16 Y s 1460 931 m20 1508 943 m 10 Y s 1508 968 m 8 Y s 1484 960 m 16 X s 1515 960 m 17 X s 1500 943 m 15 X s 1500 976 m 15
 X s 1484 953 m 15 Y s 1532 953 m 15 Y s 1508 960 m20 1556 1023 m 7 Y s 1556 1045 m 6 Y s 1532 1038 m 16 X s 1563 1038 m 16 X s 1548 1023 m 15 X s 1548 1051 m 15 X s 1532 1030 m 15 Y s 1579 1030 m 15 Y s 1556 1038 m20 1603 1054 m 5 Y s 1603 1075 m 4
 Y s 1579 1067 m 17 X s 1611 1067 m 16 X s 1596 1054 m 15 X s 1596 1079 m 15 X s 1579 1059 m 16 Y s 1627 1059 m 16 Y s 1603 1067 m20 1651 1087 m 5 Y s 1651 1107 m 4 Y s 1627 1099 m 17 X s 1659 1099 m 16 X s 1644 1087 m 15 X s 1644 1111 m 15 X s 1627
 1092 m 15 Y s 1675 1092 m 15 Y s 1651 1099 m20 1699 1110 m 4 Y s 1699 1129 m 4 Y s 1675 1122 m 17 X s 1707 1122 m 16 X s 1692 1110 m 15 X s 1692 1133 m 15 X s 1675 1114 m 15 Y s 1723 1114 m 15 Y s 1699 1122 m20 1747 1283 m 1 Y s 1723 1291 m 17 X s
 1755 1291 m 16 X s 1740 1283 m 15 X s 1723 1284 m 15 Y s 1771 1284 m 15 Y s 1747 1291 m20 1771 1378 m 16 X s 1803 1378 m 16 X s 1771 1371 m 15 Y s 1819 1371 m 15 Y s 1795 1378 m20 1843 1238 m 1 Y s 1843 1254 m s 1819 1246 m 16 X s 1851 1246 m 16 X s
 1835 1238 m 16 X s 1835 1254 m 16 X s 1819 1239 m 15 Y s 1867 1239 m 15 Y s 1843 1246 m20 1891 500 m 42 Y s 1891 557 m 32 Y s 1867 550 m 16 X s 1898 550 m 17 X s 1883 500 m 15 X s 1883 589 m 15 X s 1867 542 m 15 Y s 1915 542 m 15 Y s 1891 550 m20 1
 0 0 c 1 1 1 c 1 0 0 c 238 1453 m 16 X s 270 1453 m 16 X s 238 1446 m 15 Y s 286 1446 m 15 Y s 262 1453 m20 310 1106 m 4 Y s 310 1125 m 4 Y s 286 1117 m 16 X s 318 1117 m 16 X s 302 1106 m 16 X s 302 1129 m 16 X s 286 1110 m 15 Y s 334 1110 m 15 Y s
 310 1117 m20 358 1012 m 7 Y s 358 1034 m 6 Y s 334 1027 m 16 X s 365 1027 m 17 X s 350 1012 m 15 X s 350 1040 m 15 X s 334 1019 m 15 Y s 382 1019 m 15 Y s 358 1027 m20 406 818 m 16 Y s 406 849 m 13 Y s 382 841 m 16 X s 413 841 m 17 X s 398 818 m 15
 X s 398 862 m 15 X s 382 834 m 15 Y s 430 834 m 15 Y s 406 841 m20 454 818 m 16 Y s 454 849 m 13 Y s 430 841 m 16 X s 461 841 m 17 X s 446 818 m 15 X s 446 862 m 15 X s 430 834 m 15 Y s 478 834 m 15 Y s 454 841 m20 502 908 m 11 Y s 502 934 m 10 Y s
 478 927 m 16 X s 509 927 m 17 X s 494 908 m 15 X s 494 944 m 15 X s 478 919 m 15 Y s 526 919 m 15 Y s 502 927 m20 549 988 m 8 Y s 549 1011 m 7 Y s 526 1004 m 16 X s 557 1004 m 16 X s 542 988 m 15 X s 542 1018 m 15 X s 526 996 m 15 Y s 573 996 m 15 Y
 s 549 1004 m20 597 820 m 16 Y s 597 851 m 13 Y s 573 844 m 17 X s 605 844 m 16 X s 590 820 m 15 X s 590 864 m 15 X s 573 836 m 15 Y s 621 836 m 15 Y s 597 844 m20 645 997 m 7 Y s 645 1019 m 7 Y s 621 1012 m 17 X s 653 1012 m 16 X s 638 997 m 15 X s
 638 1026 m 15 X s 621 1004 m 15 Y s 669 1004 m 15 Y s 645 1012 m20 693 929 m 10 Y s 693 954 m 9 Y s 669 947 m 17 X s 701 947 m 16 X s 686 929 m 15 X s 686 963 m 15 X s 669 939 m 15 Y s 717 939 m 15 Y s 693 947 m20 741 891 m 12 Y s 741 918 m 11 Y s
 717 911 m 17 X s 749 911 m 16 X s 734 891 m 15 X s 734 929 m 15 X s 717 903 m 15 Y s 765 903 m 15 Y s 741 911 m20 789 862 m 13 Y s 789 890 m 12 Y s 765 883 m 16 X s 797 883 m 16 X s 781 862 m 16 X s 781 902 m 16 X s 765 875 m 15 Y s 813 875 m 15 Y s
 789 883 m20 837 744 m 20 Y s 837 779 m 17 Y s 813 771 m 16 X s 845 771 m 16 X s 829 744 m 16 X s 829 796 m 16 X s 813 764 m 15 Y s 861 764 m 15 Y s 837 771 m20 885 715 m 22 Y s 885 752 m 18 Y s 861 744 m 16 X s 892 744 m 17 X s 877 715 m 15 X s 877
 770 m 15 X s 861 737 m 15 Y s 909 737 m 15 Y s 885 744 m20 933 800 m 17 Y s 933 832 m 14 Y s 909 825 m 16 X s 940 825 m 17 X s 925 800 m 15 X s 925 846 m 15 X s 909 817 m 15 Y s 957 817 m 15 Y s 933 825 m20 981 763 m 19 Y s 981 797 m 16 Y s 957 790
 m 16 X s 988 790 m 17 X s 973 763 m 15 X s 973 813 m 15 X s 957 782 m 15 Y s 1005 782 m 15 Y s 981 790 m20 1029 787 m 17 Y s 1029 819 m 15 Y s 1005 812 m 16 X s 1036 812 m 17 X s 1021 787 m 15 X s 1021 834 m 15 X s 1005 804 m 15 Y s 1053 804 m 15 Y
 s 1029 812 m20 1076 860 m 13 Y s 1076 888 m 12 Y s 1053 881 m 16 X s 1084 881 m 16 X s 1069 860 m 15 X s 1069 900 m 15 X s 1053 873 m 15 Y s 1100 873 m 15 Y s 1076 881 m20 1124 837 m 14 Y s 1124 866 m 13 Y s 1100 859 m 17 X s 1132 859 m 16 X s 1117
 837 m 15 X s 1117 879 m 15 X s 1100 851 m 15 Y s 1148 851 m 15 Y s 1124 859 m20 1172 787 m 17 Y s 1172 819 m 15 Y s 1148 812 m 17 X s 1180 812 m 16 X s 1165 787 m 15 X s 1165 834 m 15 X s 1148 804 m 15 Y s 1196 804 m 15 Y s 1172 812 m20 1220 798 m
 17 Y s 1220 830 m 14 Y s 1196 822 m 17 X s 1228 822 m 16 X s 1213 798 m 15 X s 1213 844 m 15 X s 1196 815 m 15 Y s 1244 815 m 15 Y s 1220 822 m20 1268 792 m 17 Y s 1268 825 m 14 Y s 1244 817 m 16 X s 1276 817 m 16 X s 1260 792 m 16 X s 1260 839 m 16
 X s 1244 809 m 16 Y s 1292 809 m 16 Y s 1268 817 m20 1316 740 m 21 Y s 1316 776 m 17 Y s 1292 768 m 16 X s 1324 768 m 16 X s 1308 740 m 16 X s 1308 793 m 16 X s 1292 761 m 15 Y s 1340 761 m 15 Y s 1316 768 m20 1364 778 m 18 Y s 1364 811 m 16 Y s
 1340 804 m 16 X s 1371 804 m 17 X s 1356 778 m 15 X s 1356 827 m 15 X s 1340 796 m 15 Y s 1388 796 m 15 Y s 1364 804 m20 1412 784 m 18 Y s 1412 817 m 15 Y s 1388 809 m 16 X s 1419 809 m 17 X s 1404 784 m 15 X s 1404 832 m 15 X s 1388 802 m 15 Y s
 1436 802 m 15 Y s 1412 809 m20 1460 811 m 16 Y s 1460 842 m 13 Y s 1436 834 m 16 X s 1467 834 m 17 X s 1452 811 m 15 X s 1452 855 m 15 X s 1436 827 m 15 Y s 1484 827 m 15 Y s 1460 834 m20 1508 790 m 17 Y s 1508 822 m 15 Y s 1484 814 m 16 X s 1515
 814 m 17 X s 1500 790 m 15 X s 1500 837 m 15 X s 1484 807 m 15 Y s 1532 807 m 15 Y s 1508 814 m20 1556 757 m 19 Y s 1556 791 m 17 Y s 1532 784 m 16 X s 1563 784 m 16 X s 1548 757 m 15 X s 1548 808 m 15 X s 1532 776 m 15 Y s 1579 776 m 15 Y s 1556
 784 m20 1603 635 m 29 Y s 1603 679 m 23 Y s 1579 671 m 17 X s 1611 671 m 16 X s 1596 635 m 15 X s 1596 702 m 15 X s 1579 664 m 15 Y s 1627 664 m 15 Y s 1603 671 m20 1651 681 m 24 Y s 1651 721 m 20 Y s 1627 713 m 17 X s 1659 713 m 16 X s 1644 681 m
 15 X s 1644 741 m 15 X s 1627 705 m 16 Y s 1675 705 m 16 Y s 1651 713 m20 1699 612 m 30 Y s 1699 657 m 25 Y s 1675 650 m 17 X s 1707 650 m 16 X s 1692 612 m 15 X s 1692 682 m 15 X s 1675 642 m 15 Y s 1723 642 m 15 Y s 1699 650 m20 1747 681 m 24 Y s
 1747 721 m 20 Y s 1723 713 m 17 X s 1755 713 m 16 X s 1740 681 m 15 X s 1740 741 m 15 X s 1723 705 m 16 Y s 1771 705 m 16 Y s 1747 713 m20 1795 681 m 24 Y s 1795 721 m 20 Y s 1771 713 m 16 X s 1803 713 m 16 X s 1787 681 m 16 X s 1787 741 m 16 X s
 1771 705 m 16 Y s 1819 705 m 16 Y s 1795 713 m20 1843 467 m 46 Y s 1843 528 m 35 Y s 1819 520 m 16 X s 1851 520 m 16 X s 1835 467 m 16 X s 1835 563 m 16 X s 1819 513 m 15 Y s 1867 513 m 15 Y s 1843 520 m20 1891 201 m 91 Y s 1891 307 m 60 Y s 1867
 299 m 16 X s 1898 299 m 17 X s 1883 201 m 15 X s 1883 367 m 15 X s 1867 292 m 15 Y s 1915 292 m 15 Y s 1891 299 m20 black
 gsave  2268 1676 0 0 C 272.126 1240.34 t 0 r /Helvetica-Bold findfont 49.2982 sf 0 0 m (Kolmogorov\255Smirnov test: signal \(background\) probability = 0.075 \( 0.78\)) show NC gr  238 201 m 1916 X s 238 244 m -43 Y s 334 222 m -21 Y s 430 222 m -21
 Y s 526 222 m -21 Y s 621 244 m -43 Y s 717 222 m -21 Y s 813 222 m -21 Y s 909 222 m -21 Y s 1005 244 m -43 Y s 1100 222 m -21 Y s 1196 222 m -21 Y s 1292 222 m -21 Y s 1388 244 m -43 Y s 1484 222 m -21 Y s 1579 222 m -21 Y s 1675 222 m -21 Y s
 1771 244 m -43 Y s 1867 222 m -21 Y s 1963 222 m -21 Y s 2059 222 m -21 Y s 2154 244 m -43 Y s 2154 244 m -43 Y s 238 1509 m 1916 X s 238 1466 m 43 Y s 334 1487 m 22 Y s 430 1487 m 22 Y s 526 1487 m 22 Y s 621 1466 m 43 Y s 717 1487 m 22 Y s 813
 1487 m 22 Y s 909 1487 m 22 Y s 1005 1466 m 43 Y s 1100 1487 m 22 Y s 1196 1487 m 22 Y s 1292 1487 m 22 Y s 1388 1466 m 43 Y s 1484 1487 m 22 Y s 1579 1487 m 22 Y s 1675 1487 m 22 Y s 1771 1466 m 43 Y s 1867 1487 m 22 Y s 1963 1487 m 22 Y s 2059
 1487 m 22 Y s 2154 1466 m 43 Y s 2154 1466 m 43 Y s 238 201 m 1308 Y s 265 229 m -27 X s 265 275 m -27 X s 265 314 m -27 X s 265 346 m -27 X s 265 374 m -27 X s 265 399 m -27 X s 291 421 m -53 X s 265 567 m -27 X s 265 652 m -27 X s 265 713 m -27 X
 s 265 760 m -27 X s 265 798 m -27 X s 265 831 m -27 X s 265 859 m -27 X s 265 884 m -27 X s 291 906 m -53 X s 265 1052 m -27 X s 265 1137 m -27 X s 265 1197 m -27 X s 265 1244 m -27 X s 265 1283 m -27 X s 265 1315 m -27 X s 265 1343 m -27 X s 265
 1368 m -27 X s 291 1390 m -53 X s 2154 201 m 1308 Y s 2128 229 m 26 X s 2128 275 m 26 X s 2128 314 m 26 X s 2128 346 m 26 X s 2128 374 m 26 X s 2128 399 m 26 X s 2101 421 m 53 X s 2128 567 m 26 X s 2128 652 m 26 X s 2128 713 m 26 X s 2128 760 m 26 X
 s 2128 798 m 26 X s 2128 831 m 26 X s 2128 859 m 26 X s 2128 884 m 26 X s 2101 906 m 53 X s 2128 1052 m 26 X s 2128 1137 m 26 X s 2128 1197 m 26 X s 2128 1244 m 26 X s 2128 1283 m 26 X s 2128 1315 m 26 X s 2128 1343 m 26 X s 2128 1368 m 26 X s 2101
 1390 m 53 X s
 gsave  2268 1676 0 0 C 2211.02 192.756 t 90 r /Helvetica-Bold findfont 45.506 sf 0 0 m (U/O\255flow \(S,B\): \(0.0, 0.0\)% / \(0.0, 0.0\)%) show NC gr  0.490196 0.545098 0.615686 c 0.364706 0.419608 0.490196 c 1587 96 23 1572 bf 0.490196 0.545098
 0.615686 c 23 1572 m 1587 X s 1610 1572 m 96 Y s 1610 1668 m -1587 X s 23 1668 m -96 Y s 1 1 1 c black 1 1 1 c
 gsave  2268 1676 0 0 C 91.012 1604.09 t 0 r /Helvetica-Bold findfont 60.6747 sf 0 0 m (TMVA overtraining check for classifier: Likelihood) show NC gr 
 gr  gr showpage
end
%%EOF
