%!PS-Adobe-2.0 EPSF-2.0
%%BoundingBox:  0 0 567 419
%%Title: : TMVA comparison LikelihoodPCA
%%Creator: ROOT Version 6.12/06
%%CreationDate: Mon May 21 12:03:20 2018
%%DocumentNeededResources: ProcSet (FontSetInit)
%%EndComments
%%BeginProlog
80 dict begin
/s {stroke} def /l {lineto} def /m {moveto} def /t {translate} def
/r {rotate} def /rl {roll}  def /R {repeat} def
/d {rlineto} def /rm {rmoveto} def /gr {grestore} def /f {eofill} def
/c {setrgbcolor} def /black {0 setgray} def /sd {setdash} def
/cl {closepath} def /sf {scalefont setfont} def /lw {setlinewidth} def
/box {m dup 0 exch d exch 0 d 0 exch neg d cl} def
/NC{systemdict begin initclip end}def/C{NC box clip newpath}def
/bl {box s} def /bf {gsave box gsave f grestore 1 lw [] 0 sd s grestore} def /Y { 0 exch d} def /X { 0 d} def 
/K {{pop pop 0 moveto} exch kshow} bind def
/ita {/ang 15 def gsave [1 0 ang dup sin exch cos div 1 0 0] concat} def 
/mp {newpath /y exch def /x exch def} def
/side {[w .77 mul w .23 mul] .385 w mul sd w 0 l currentpoint t -144 r} def
/mr {mp x y w2 0 360 arc} def /m24 {mr s} def /m20 {mr f} def
/mb {mp x y w2 add m w2 neg 0 d 0 w neg d w 0 d 0 w d cl} def
/mt {mp x y w2 add m w2 neg w neg d w 0 d cl} def
/w4 {w 4 div} def
/w6 {w 6 div} def
/w8 {w 8 div} def
/m21 {mb f} def /m25 {mb s} def /m22 {mt f} def /m26{mt s} def
/m23 {mp x y w2 sub m w2 w d w neg 0 d cl f} def
/m27 {mp x y w2 add m w3 neg w2 neg d w3 w2 neg d w3 w2 d cl s} def
/m28 {mp x w2 sub y w2 sub w3 add m w3 0 d  0 w3 neg d w3 0 d 0 w3 d w3 0 d  0 w3 d w3 neg 0 d 0 w3 d w3 neg 0 d 0 w3 neg d w3 neg 0 d cl s } def
/m29 {mp gsave x w2 sub y w2 add w3 sub m currentpoint t 4 {side} repeat cl fill gr} def
/m30 {mp gsave x w2 sub y w2 add w3 sub m currentpoint t 4 {side} repeat cl s gr} def
/m31 {mp x y w2 sub m 0 w d x w2 sub y m w 0 d x w2 sub y w2 add m w w neg d x w2 sub y w2 sub m w w d s} def
/m32 {mp x y w2 sub m w2 w d w neg 0 d cl s} def
/m33 {mp x y w2 add m w3 neg w2 neg d w3 w2 neg d w3 w2 d cl f} def
/m34 {mp x w2 sub y w2 sub w3 add m w3 0 d  0 w3 neg d w3 0 d 0 w3 d w3 0 d  0 w3 d w3 neg 0 d 0 w3 d w3 neg 0 d 0 w3 neg d w3 neg 0 d cl f } def
/m35 {mp x y w2 add m w2 neg w2 neg d w2 w2 neg d w2 w2 d w2 neg w2 d x y w2 sub m 0 w d x w2 sub y m w 0 d s} def
/m36 {mb x w2 sub y w2 add m w w neg d x w2 sub y w2 sub m w w d s} def
/m37 {mp x y m w4 neg w2 d w4 neg w2 neg d w2 0 d  w4 neg w2 neg d w2 0 d w4 neg w2 d w2 0 d w4 neg w2 d w4 neg w2 neg d cl s} def
/m38 {mp x w4 sub y w2 add m w4 neg w4 neg d 0 w2 neg d w4 w4 neg d w2 0 d w4 w4 d 0 w2 d w4 neg w4 d w2 neg 0 d x y w2 sub m 0 w d x w2 sub y m w 0 d cl s} def
/m39 {mp x y m w4 neg w2 d w4 neg w2 neg d w2 0 d  w4 neg w2 neg d w2 0 d w4 neg w2 d w2 0 d w4 neg w2 d w4 neg w2 neg d cl f} def
/m40 {mp x y m w4 w2 d w4 w4 neg d w2 neg w4 neg d w2 w4 neg d w4 neg w4 neg d w4 neg w2 d w4 neg w2 neg d w4 neg w4 d w2 w4 d w2 neg w4 d w4 w4 d w4 w2 neg d cl s} def
/m41 {mp x y m w4 w2 d w4 w4 neg d w2 neg w4 neg d w2 w4 neg d w4 neg w4 neg d w4 neg w2 d w4 neg w2 neg d w4 neg w4 d w2 w4 d w2 neg w4 d w4 w4 d w4 w2 neg d cl f} def
/m42 {mp x y w2 add m w8 neg w2 -3 4 div mul d w2 -3 4 div mul w8 neg d w2 3 4 div mul w8 neg d w8 w2 -3 4 div mul d w8 w2 3 4 div mul d w2 3 4 div mul w8 d w2 -3 4 div mul w8 d w8 neg w2 3 4 div mul d cl s} def
/m43 {mp x y w2 add m w8 neg w2 -3 4 div mul d w2 -3 4 div mul w8 neg d w2 3 4 div mul w8 neg d w8 w2 -3 4 div mul d w8 w2 3 4 div mul d w2 3 4 div mul w8 d w2 -3 4 div mul w8 d w8 neg w2 3 4 div mul d cl f} def
/m44 {mp x y m w6 neg w2 d w2 2 3 div mul 0 d w6 neg w2 neg d w2 w6 d 0 w2 -2 3 div mul d w2 neg w6 d w6 w2 neg d w2 -2 3 div mul 0 d w6 w2 d w2 neg w6 neg d 0 w2 2 3 div mul d w2 w6 neg d cl s} def
/m45 {mp x y m w6 neg w2 d w2 2 3 div mul 0 d w6 neg w2 neg d w2 w6 d 0 w2 -2 3 div mul d w2 neg w6 d w6 w2 neg d w2 -2 3 div mul 0 d w6 w2 d w2 neg w6 neg d 0 w2 2 3 div mul d w2 w6 neg d cl f} def
/m46 {mp x y w4 add m w4 neg w4 d w4 neg w4 neg d  w4 w4 neg d w4 neg w4 neg d w4 w4 neg d w4 w4 d w4 w4 neg d w4 w4 d w4 neg w4 d w4 w4 d w4 neg w4 d w4 neg w4 neg d cl s} def
/m47 {mp x y w4 add m w4 neg w4 d w4 neg w4 neg d w4 w4 neg d w4 neg w4 neg d  w4 w4 neg d w4 w4 d w4 w4 neg d w4 w4 d w4 neg w4 d w4 w4 d w4 neg w4 d w4 neg w4 neg d cl f} def
/m48 {mp x y w4 add m w4 neg w4 d w4 neg w4 neg d w4 w4 neg d  w4 neg w4 neg d w4 w4 neg d w4 w4 d w4 w4 neg d w4 w4 d w4 neg w4 d w4 w4 d w4 neg w4 d w4 neg w4 neg d  w4 w4 neg d w4 neg w4 neg d w4 neg w4 d w4 w4 d cl f} def
/m49 {mp x w2 sub w3 add y w2 sub w3 add m  0 w3 neg d w3 0 d 0 w3 d w3 0 d 0 w3 d w3 neg 0 d 0 w3 d w3 neg 0 d 0 w3 neg d w3 neg 0 d 0 w3 neg d w3 0 d 0 w3 d w3 0 d 0 w3 neg d w3 neg 0 d cl f } def
/m2 {mp x y w2 sub m 0 w d x w2 sub y m w 0 d s} def
/m5 {mp x w2 sub y w2 sub m w w d x w2 sub y w2 add m w w neg d s} def
%%IncludeResource: ProcSet (FontSetInit)
%%IncludeResource: font Times-Roman
%%IncludeResource: font Times-Italic
%%IncludeResource: font Times-Bold
%%IncludeResource: font Times-BoldItalic
%%IncludeResource: font Helvetica
%%IncludeResource: font Helvetica-Oblique
%%IncludeResource: font Helvetica-Bold
%%IncludeResource: font Helvetica-BoldOblique
%%IncludeResource: font Courier
%%IncludeResource: font Courier-Oblique
%%IncludeResource: font Courier-Bold
%%IncludeResource: font Courier-BoldOblique
%%IncludeResource: font Symbol
%%IncludeResource: font ZapfDingbats
/reEncode {exch findfont dup length dict begin {1 index /FID eq  {pop pop} {def} ifelse } forall /Encoding exch def currentdict end dup /FontName get exch definefont pop } def [/Times-Bold /Times-Italic /Times-BoldItalic /Helvetica /Helvetica-Oblique
 /Helvetica-Bold /Helvetica-BoldOblique /Courier /Courier-Oblique /Courier-Bold /Courier-BoldOblique /Times-Roman /AvantGarde-Book /AvantGarde-BookOblique /AvantGarde-Demi /AvantGarde-DemiOblique /Bookman-Demi /Bookman-DemiItalic /Bookman-Light
 /Bookman-LightItalic /Helvetica-Narrow /Helvetica-Narrow-Bold /Helvetica-Narrow-BoldOblique /Helvetica-Narrow-Oblique /NewCenturySchlbk-Roman /NewCenturySchlbk-Bold /NewCenturySchlbk-BoldItalic /NewCenturySchlbk-Italic /Palatino-Bold
 /Palatino-BoldItalic /Palatino-Italic /Palatino-Roman ] {ISOLatin1Encoding reEncode } forall
%%EndProlog
%%BeginSetup
%%EndSetup
newpath  gsave  .25 .25 scale  gsave  0 0 t 0.490196 0.545098 0.615686 c[  ] 0 sd 3 lw 0.941176 0.941176 0.941176 c 2268 1676 0 0 bf black 1 1 0.992157 c 1916 1308 238 201 bf black 1916 1308 238 201 bl 1 1 0.992157 c 1916 1308 238 201 bf black 1916
 1308 238 201 bl 238 201 m 1916 X s 238 244 m -43 Y s 334 222 m -21 Y s 430 222 m -21 Y s 526 222 m -21 Y s 621 244 m -43 Y s 717 222 m -21 Y s 813 222 m -21 Y s 909 222 m -21 Y s 1005 244 m -43 Y s 1100 222 m -21 Y s 1196 222 m -21 Y s 1292 222 m
 -21 Y s 1388 244 m -43 Y s 1484 222 m -21 Y s 1579 222 m -21 Y s 1675 222 m -21 Y s 1771 244 m -43 Y s 1867 222 m -21 Y s 1963 222 m -21 Y s 2059 222 m -21 Y s 2154 244 m -43 Y s 238 244 m -43 Y s 2154 244 m -43 Y s
 gsave  2268 1676 0 0 C 216.154 128.934 t 0 r /Helvetica-Bold findfont 64.4669 sf 0 0 m (0) show NC gr 
 gsave  2268 1676 0 0 C 572.617 128.934 t 0 r /Helvetica-Bold findfont 64.4669 sf 0 0 m (0.2) show NC gr 
 gsave  2268 1676 0 0 C 955.626 128.934 t 0 r /Helvetica-Bold findfont 64.4669 sf 0 0 m (0.4) show NC gr 
 gsave  2268 1676 0 0 C 1338.64 128.934 t 0 r /Helvetica-Bold findfont 64.4669 sf 0 0 m (0.6) show NC gr 
 gsave  2268 1676 0 0 C 1725.44 128.934 t 0 r /Helvetica-Bold findfont 64.4669 sf 0 0 m (0.8) show NC gr 
 gsave  2268 1676 0 0 C 2138.78 128.934 t 0 r /Helvetica-Bold findfont 64.4669 sf 0 0 m (1) show NC gr 
 gsave  2268 1676 0 0 C 1300.71 30.3373 t 0 r /Helvetica-Bold findfont 72.0512 sf 0 0 m (LikelihoodPCA response) show NC gr  238 1509 m 1916 X s 238 1466 m 43 Y s 334 1487 m 22 Y s 430 1487 m 22 Y s 526 1487 m 22 Y s 621 1466 m 43 Y s 717 1487 m 22 Y
 s 813 1487 m 22 Y s 909 1487 m 22 Y s 1005 1466 m 43 Y s 1100 1487 m 22 Y s 1196 1487 m 22 Y s 1292 1487 m 22 Y s 1388 1466 m 43 Y s 1484 1487 m 22 Y s 1579 1487 m 22 Y s 1675 1487 m 22 Y s 1771 1466 m 43 Y s 1867 1487 m 22 Y s 1963 1487 m 22 Y s
 2059 1487 m 22 Y s 2154 1466 m 43 Y s 238 1466 m 43 Y s 2154 1466 m 43 Y s 238 201 m 1308 Y s 265 232 m -27 X s 265 271 m -27 X s 265 303 m -27 X s 265 331 m -27 X s 265 356 m -27 X s 291 378 m -53 X s
 gsave  2268 1676 0 0 C 182.024 379.217 t 0 r /Helvetica-Bold findfont 41.7138 sf 0 0 m (1) show NC gr 
 gsave  2268 1676 0 0 C 159.271 379.217 t 0 r /Symbol findfont 41.7138 sf 0 0 m (-) show NC gr 
 gsave  2268 1676 0 0 C 87.2199 348.879 t 0 r /Helvetica-Bold findfont 64.4669 sf 0 0 m (10) show NC gr  265 524 m -27 X s 265 609 m -27 X s 265 670 m -27 X s 265 717 m -27 X s 265 755 m -27 X s 265 787 m -27 X s 265 816 m -27 X s 265 840 m -27 X s
 291 863 m -53 X s
 gsave  2268 1676 0 0 C 174.44 838.069 t 0 r /Helvetica-Bold findfont 64.4669 sf 0 0 m (1) show NC gr  265 1008 m -27 X s 265 1094 m -27 X s 265 1154 m -27 X s 265 1201 m -27 X s 265 1239 m -27 X s 265 1272 m -27 X s 265 1300 m -27 X s 265 1325 m -27
 X s 291 1347 m -53 X s
 gsave  2268 1676 0 0 C 128.934 1323.47 t 0 r /Helvetica-Bold findfont 64.4669 sf 0 0 m (10) show NC gr  265 1493 m -27 X s
 gsave  2268 1676 0 0 C 64.4669 1425.86 t 90 r /Helvetica-Bold findfont 72.0512 sf 0 0 m (dx) show NC gr 
 gsave  2268 1676 0 0 C 30.3373 1406.89 t 90 r /Helvetica-Bold findfont 45.506 sf 0 0 m ( ) show NC gr 
 gsave  2268 1676 0 0 C 64.4669 1384.14 t 90 r /Helvetica-Bold findfont 72.0512 sf 0 0 m (/) show NC gr 
 gsave  2268 1676 0 0 C 30.3373 1365.18 t 90 r /Helvetica-Bold findfont 45.506 sf 0 0 m ( ) show NC gr 
 gsave  2268 1676 0 0 C 60.6747 1092.14 t 90 r /Helvetica-Bold findfont 72.0512 sf 0 0 m (\(1/N\) dN) show NC gr  2154 201 m 1308 Y s 2128 232 m 26 X s 2128 271 m 26 X s 2128 303 m 26 X s 2128 331 m 26 X s 2128 356 m 26 X s 2101 378 m 53 X s 2128 524
 m 26 X s 2128 609 m 26 X s 2128 670 m 26 X s 2128 717 m 26 X s 2128 755 m 26 X s 2128 787 m 26 X s 2128 816 m 26 X s 2128 840 m 26 X s 2101 863 m 53 X s 2128 1008 m 26 X s 2128 1094 m 26 X s 2128 1154 m 26 X s 2128 1201 m 26 X s 2128 1239 m 26 X s
 2128 1272 m 26 X s 2128 1300 m 26 X s 2128 1325 m 26 X s 2101 1347 m 53 X s 2128 1493 m 26 X s 0.490196 0.545098 0.615686 c 1 1 1 c 0.490196 0.545098 0.615686 c 907 202 238 1307 bl 238 1307 m 907 X s 1145 1307 m 202 Y s 1145 1509 m -907 X s 238 1509
 m -202 Y s black
 gsave  2268 1676 0 0 C 417.138 1437.23 t 0 r /Helvetica-Bold findfont 56.8825 sf 0 0 m (Signal \(test sample\)) show NC gr  0.49 0.6 0.82 c 265 1423 m 127 X 70 Y -127 X f 0 0 0.933333 c 265 1493 m 127 X s 265 1423 m 127 X s 392 1423 m 70 Y s 265
 1423 m 70 Y s black
 gsave  2268 1676 0 0 C 417.138 1338.64 t 0 r /Helvetica-Bold findfont 56.8825 sf 0 0 m (Background \(test sample\)) show NC gr  1 0 0 c 392 1354 m -32 -32 d s 383 1393 m -71 -71 d s 335 1393 m -70 -69 d s 286 1393 m -21 -21 d s 0 0 0.933333 c 1 0 0
 c 265 1393 m 127 X s 265 1322 m 127 X s 392 1322 m 71 Y s 265 1322 m 71 Y s 0 0 0.933333 c 0.49 0.6 0.82 c black 0.49 0.6 0.82 c 238 201 m 229 Y 48 X -229 Y 192 X 23 Y 48 X 32 Y 47 X 28 Y 48 X 492 Y 48 X 104 Y 48 X -75 Y 48 X -21 Y 48 X -10 Y 48 X
 -25 Y 48 X -11 Y 48 X -7 Y 48 X -57 Y 48 X 54 Y 47 X -3 Y 48 X -10 Y 48 X -82 Y 48 X 19 Y 48 X 5 Y 48 X 40 Y 48 X 31 Y 48 X 30 Y 48 X 35 Y 48 X 12 Y 47 X -7 Y 48 X 2 Y 48 X 26 Y 48 X 28 Y 48 X -2 Y 48 X 4 Y 48 X 20 Y 48 X 104 Y 48 X -24 Y 48 X -55 Y
 48 X 13 Y 47 X 531 Y 48 X -1244 Y f 0 0 0.933333 c 0.49 0.6 0.82 c 0 0 0.933333 c 238 430 m 48 X -229 Y 192 X 23 Y 48 X 32 Y 47 X 28 Y 48 X 492 Y 48 X 104 Y 48 X -75 Y 48 X -21 Y 48 X -10 Y 48 X -25 Y 48 X -11 Y 48 X -7 Y 48 X -57 Y 48 X 54 Y 47 X
 -3 Y 48 X -10 Y 48 X -82 Y 48 X 19 Y 48 X 5 Y 48 X 40 Y 48 X 31 Y 48 X 30 Y 48 X 35 Y 48 X 12 Y 47 X -7 Y 48 X 2 Y 48 X 26 Y 48 X 28 Y 48 X -2 Y 48 X 4 Y 48 X 20 Y 48 X 104 Y 48 X -24 Y 48 X -55 Y 48 X 13 Y 47 X 531 Y 48 X -1244 Y s 1 0 0 c black 1
 0 0 c 2154 230 m -29 -29 d s 2154 278 m -77 -77 d s 2137 309 m -108 -108 d s 2089 309 m -108 -108 d s 2059 327 m -126 -126 d s 2059 375 m -174 -174 d s 2022 386 m -185 -185 d s 2011 423 m -222 -222 d s 2011 471 m -270 -270 d s 2011 519 m -319 -318 d
 s 1991 548 m -347 -347 d s 1963 568 m -367 -367 d s 1963 616 m -48 -48 d s 1879 532 m -331 -331 d s 1963 664 m -48 -48 d s 1861 562 m -361 -361 d s 1937 686 m -22 -22 d s 1813 562 m -42 -42 d s 1738 487 m -286 -286 d s 1723 521 m -319 -320 d s 1678
 524 m -3 -3 d s 1670 515 m -314 -314 d s 1627 521 m -319 -320 d s 1627 569 m -368 -368 d s 1565 555 m -354 -354 d s 1532 569 m -369 -368 d s 1515 601 m -400 -400 d s 1478 612 m -42 -42 d s 1390 524 m -323 -323 d s 1388 570 m -369 -369 d s 1388 618 m
 -48 -48 d s 1317 548 m -346 -347 d s 1344 623 m -4 -5 d s 1246 524 m -323 -323 d s 1244 571 m -369 -370 d s 1244 619 m -417 -418 d s 1215 638 m -19 -19 d s 1195 617 m -417 -416 d s 1148 619 m -418 -418 d s 1148 667 m -466 -466 d s 1103 670 m -469
 -469 d s 1078 694 m -457 -457 d s 609 224 m -23 -23 d s 1023 686 m -18 -18 d s 970 633 m -349 -348 d s 573 237 m -35 -36 d s 957 668 m -336 -335 d s 573 285 m -83 -84 d s 957 716 m -336 -335 d s 573 333 m -131 -132 d s 957 764 m -336 -335 d s 573
 381 m -179 -180 d s 938 793 m -317 -316 d s 573 429 m -228 -228 d s 909 813 m -288 -288 d s 539 443 m -242 -242 d s 872 824 m -251 -251 d s 491 443 m -242 -242 d s 861 861 m -240 -240 d s 443 443 m -205 -205 d s 835 883 m -214 -214 d s 430 478 m
 -192 -192 d s 813 909 m -192 -191 d s 430 526 m -192 -192 d s 813 957 m -192 -191 d s 403 548 m -165 -166 d s 770 962 m -149 -148 d s 382 574 m -144 -143 d s 765 1006 m -144 -144 d s 382 622 m -144 -143 d s 765 1054 m -144 -144 d s 344 633 m -106
 -106 d s 748 1085 m -127 -127 d s 334 671 m -96 -96 d s 717 1102 m -96 -96 d s 334 719 m -96 -96 d s 717 1150 m -48 -48 d s 662 1095 m -41 -41 d s 334 767 m -96 -96 d s 712 1194 m -43 -44 d s 334 815 m -96 -96 d s 328 857 m -90 -90 d s 286 863 m -48
 -48 d s 286 911 m -48 -48 d s 286 959 m -48 -47 d s 286 1008 m -48 -48 d s 286 1056 m -48 -48 d s 286 1104 m -48 -48 d s 286 1152 m -48 -48 d s 286 1200 m -48 -48 d s 286 1248 m -48 -48 d s 286 1296 m -48 -48 d s 286 1344 m -48 -48 d s 286 1392 m
 -48 -47 d s 286 1441 m -48 -48 d s 251 1453 m -13 -12 d s 238 1453 m 48 X -596 Y 48 X -224 Y 48 X -85 Y 48 X -105 Y 143 X -219 Y 48 X 871 Y 48 X 99 Y 48 X -109 Y 48 X -123 Y 48 X -79 Y 48 X -59 Y 48 X -31 Y 48 X -160 Y 48 X 53 Y 48 X 8 Y 47 X -24 Y
 48 X -53 Y 48 X 21 Y 48 X -114 Y 48 X 24 Y 48 X 75 Y 48 X -99 Y 48 X 88 Y 48 X -11 Y 48 X -46 Y 47 X 14 Y 48 X -54 Y 48 X 9 Y 48 X -37 Y 48 X 75 Y 96 X -30 Y 48 X 154 Y 48 X -138 Y 48 X -162 Y 48 X -77 Y 95 X -108 Y s 0.490196 0.545098 0.615686 c 1
 1 1 c 0.490196 0.545098 0.615686 c 952 202 1202 1307 bl 1202 1307 m 952 X s 2154 1307 m 202 Y s 2154 1509 m -952 X s 1202 1509 m -202 Y s black
 gsave  2268 1676 0 0 C 1296.92 1437.23 t 0 r /Helvetica-Bold findfont 56.8825 sf 0 0 m (Signal \(training sample\)) show NC gr  0 0 0.933333 c /w 21 def /w2 {w 2 div} def /w3 {w 3 div} def 1250 1458 m20 black
 gsave  2268 1676 0 0 C 1296.92 1338.64 t 0 r /Helvetica-Bold findfont 56.8825 sf 0 0 m (Background \(training sample\)) show NC gr  1 0 0 c 1250 1358 m20 0 0 0.933333 c 1 1 1 c 0 0 0.933333 c 262 337 m 57 Y s 262 410 m 42 Y s 238 402 m 16 X s 270
 402 m 16 X s 254 337 m 16 X s 254 452 m 16 X s 238 394 m 16 Y s 286 394 m 16 Y s 262 402 m20 310 251 m 73 Y s 310 339 m 50 Y s 286 331 m 16 X s 318 331 m 16 X s 302 251 m 16 X s 302 389 m 16 X s 286 324 m 15 Y s 334 324 m 15 Y s 310 331 m20 406 201
 m 76 Y s 406 292 m 56 Y s 382 284 m 16 X s 413 284 m 17 X s 398 201 m 15 X s 398 348 m 15 X s 382 277 m 15 Y s 430 277 m 15 Y s 406 284 m20 549 201 m 15 Y s 549 231 m 65 Y s 526 224 m 16 X s 557 224 m 16 X s 542 201 m 15 X s 542 296 m 15 X s 526 216
 m 15 Y s 573 216 m 15 Y s 549 224 m20 645 755 m 16 Y s 645 786 m 15 Y s 621 779 m 17 X s 653 779 m 16 X s 638 755 m 15 X s 638 801 m 15 X s 621 771 m 15 Y s 669 771 m 15 Y s 645 779 m20 693 853 m 12 Y s 693 880 m 10 Y s 669 872 m 17 X s 701 872 m 16
 X s 686 853 m 15 X s 686 890 m 15 X s 669 865 m 15 Y s 717 865 m 15 Y s 693 872 m20 741 791 m 15 Y s 741 821 m 13 Y s 717 813 m 17 X s 749 813 m 16 X s 734 791 m 15 X s 734 834 m 15 X s 717 806 m 15 Y s 765 806 m 15 Y s 741 813 m20 789 784 m 15 Y s
 789 815 m 12 Y s 765 807 m 16 X s 797 807 m 16 X s 781 784 m 16 X s 781 827 m 16 X s 765 799 m 16 Y s 813 799 m 16 Y s 789 807 m20 837 755 m 16 Y s 837 786 m 15 Y s 813 779 m 16 X s 845 779 m 16 X s 829 755 m 16 X s 829 801 m 16 X s 813 771 m 15 Y s
 861 771 m 15 Y s 837 779 m20 885 744 m 17 Y s 885 776 m 15 Y s 861 769 m 16 X s 892 769 m 17 X s 877 744 m 15 X s 877 791 m 15 X s 861 761 m 15 Y s 909 761 m 15 Y s 885 769 m20 933 755 m 16 Y s 933 786 m 15 Y s 909 779 m 16 X s 940 779 m 17 X s 925
 755 m 15 X s 925 801 m 15 X s 909 771 m 15 Y s 957 771 m 15 Y s 933 779 m20 981 667 m 23 Y s 981 705 m 18 Y s 957 697 m 16 X s 988 697 m 17 X s 973 667 m 15 X s 973 723 m 15 X s 957 690 m 15 Y s 1005 690 m 15 Y s 981 697 m20 1029 642 m 24 Y s 1029
 681 m 20 Y s 1005 674 m 16 X s 1036 674 m 17 X s 1021 642 m 15 X s 1021 701 m 15 X s 1005 666 m 15 Y s 1053 666 m 15 Y s 1029 674 m20 1076 647 m 23 Y s 1076 686 m 19 Y s 1053 678 m 16 X s 1084 678 m 16 X s 1069 647 m 15 X s 1069 705 m 15 X s 1053
 670 m 16 Y s 1100 670 m 16 Y s 1076 678 m20 1124 667 m 23 Y s 1124 705 m 18 Y s 1100 697 m 17 X s 1132 697 m 16 X s 1117 667 m 15 X s 1117 723 m 15 X s 1100 690 m 15 Y s 1148 690 m 15 Y s 1124 697 m20 1172 619 m 26 Y s 1172 660 m 21 Y s 1148 652 m
 17 X s 1180 652 m 16 X s 1165 619 m 15 X s 1165 681 m 15 X s 1148 645 m 15 Y s 1196 645 m 15 Y s 1172 652 m20 1220 633 m 25 Y s 1220 673 m 21 Y s 1196 665 m 17 X s 1228 665 m 16 X s 1213 633 m 15 X s 1213 694 m 15 X s 1196 658 m 15 Y s 1244 658 m 15
 Y s 1220 665 m20 1268 679 m 22 Y s 1268 716 m 18 Y s 1244 708 m 16 X s 1276 708 m 16 X s 1260 679 m 16 X s 1260 734 m 16 X s 1244 701 m 15 Y s 1292 701 m 15 Y s 1268 708 m20 1316 628 m 26 Y s 1316 669 m 21 Y s 1292 661 m 16 X s 1324 661 m 16 X s
 1308 628 m 16 X s 1308 690 m 16 X s 1292 654 m 15 Y s 1340 654 m 15 Y s 1316 661 m20 1364 659 m 23 Y s 1364 697 m 19 Y s 1340 690 m 16 X s 1371 690 m 17 X s 1356 659 m 15 X s 1356 716 m 15 X s 1340 682 m 15 Y s 1388 682 m 15 Y s 1364 690 m20 1412
 749 m 17 Y s 1412 781 m 15 Y s 1388 774 m 16 X s 1419 774 m 17 X s 1404 749 m 15 X s 1404 796 m 15 X s 1388 766 m 15 Y s 1436 766 m 15 Y s 1412 774 m20 1460 714 m 19 Y s 1460 748 m 16 Y s 1436 741 m 16 X s 1467 741 m 17 X s 1452 714 m 15 X s 1452
 764 m 15 X s 1436 733 m 15 Y s 1484 733 m 15 Y s 1460 741 m20 1508 717 m 19 Y s 1508 751 m 16 Y s 1484 744 m 16 X s 1515 744 m 17 X s 1500 717 m 15 X s 1500 767 m 15 X s 1484 736 m 15 Y s 1532 736 m 15 Y s 1508 744 m20 1556 741 m 17 Y s 1556 774 m
 14 Y s 1532 766 m 16 X s 1563 766 m 16 X s 1548 741 m 15 X s 1548 788 m 15 X s 1532 758 m 16 Y s 1579 758 m 16 Y s 1556 766 m20 1603 793 m 15 Y s 1603 823 m 13 Y s 1579 816 m 17 X s 1611 816 m 16 X s 1596 793 m 15 X s 1596 836 m 15 X s 1579 808 m 15
 Y s 1627 808 m 15 Y s 1603 816 m20 1651 770 m 16 Y s 1651 801 m 13 Y s 1627 793 m 17 X s 1659 793 m 16 X s 1644 770 m 15 X s 1644 814 m 15 X s 1627 786 m 15 Y s 1675 786 m 15 Y s 1651 793 m20 1699 806 m 14 Y s 1699 835 m 12 Y s 1675 828 m 17 X s
 1707 828 m 16 X s 1692 806 m 15 X s 1692 847 m 15 X s 1675 820 m 15 Y s 1723 820 m 15 Y s 1699 828 m20 1747 822 m 14 Y s 1747 851 m 11 Y s 1723 843 m 17 X s 1755 843 m 16 X s 1740 822 m 15 X s 1740 862 m 15 X s 1723 836 m 15 Y s 1771 836 m 15 Y s
 1747 843 m20 1795 822 m 14 Y s 1795 851 m 11 Y s 1771 843 m 16 X s 1803 843 m 16 X s 1787 822 m 16 X s 1787 862 m 16 X s 1771 836 m 15 Y s 1819 836 m 15 Y s 1795 843 m20 1843 855 m 11 Y s 1843 882 m 10 Y s 1819 874 m 16 X s 1851 874 m 16 X s 1835
 855 m 16 X s 1835 892 m 16 X s 1819 866 m 16 Y s 1867 866 m 16 Y s 1843 874 m20 1891 889 m 10 Y s 1891 914 m 9 Y s 1867 906 m 16 X s 1898 906 m 17 X s 1883 889 m 15 X s 1883 923 m 15 X s 1867 899 m 15 Y s 1915 899 m 15 Y s 1891 906 m20 1939 955 m 7
 Y s 1939 977 m 7 Y s 1915 970 m 16 X s 1946 970 m 17 X s 1931 955 m 15 X s 1931 984 m 15 X s 1915 962 m 15 Y s 1963 962 m 15 Y s 1939 970 m20 1987 938 m 8 Y s 1987 961 m 8 Y s 1963 954 m 16 X s 1994 954 m 17 X s 1979 938 m 15 X s 1979 969 m 15 X s
 1963 946 m 15 Y s 2011 946 m 15 Y s 1987 954 m20 2035 889 m 10 Y s 2035 914 m 9 Y s 2011 906 m 16 X s 2042 906 m 17 X s 2027 889 m 15 X s 2027 923 m 15 X s 2011 899 m 15 Y s 2059 899 m 15 Y s 2035 906 m20 2082 896 m 10 Y s 2082 921 m 8 Y s 2059 913
 m 16 X s 2090 913 m 16 X s 2075 896 m 15 X s 2075 929 m 15 X s 2059 906 m 15 Y s 2106 906 m 15 Y s 2082 913 m20 2106 1445 m 17 X s 2138 1445 m 16 X s 2106 1437 m 15 Y s 2154 1437 m 15 Y s 2130 1445 m20 1 0 0 c 1 1 1 c 1 0 0 c 238 1446 m 16 X s 270
 1446 m 16 X s 238 1439 m 15 Y s 286 1439 m 15 Y s 262 1446 m20 310 884 m 11 Y s 310 910 m 9 Y s 286 902 m 16 X s 318 902 m 16 X s 302 884 m 16 X s 302 919 m 16 X s 286 895 m 15 Y s 334 895 m 15 Y s 310 902 m20 358 638 m 24 Y s 358 677 m 21 Y s 334
 670 m 16 X s 365 670 m 17 X s 350 638 m 15 X s 350 698 m 15 X s 334 662 m 15 Y s 382 662 m 15 Y s 358 670 m20 406 467 m 41 Y s 406 523 m 31 Y s 382 515 m 16 X s 413 515 m 17 X s 398 467 m 15 X s 398 554 m 15 X s 382 508 m 15 Y s 430 508 m 15 Y s 406
 515 m20 454 384 m 51 Y s 454 450 m 38 Y s 430 443 m 16 X s 461 443 m 17 X s 446 384 m 15 X s 446 488 m 15 X s 430 435 m 15 Y s 478 435 m 15 Y s 454 443 m20 502 370 m 52 Y s 502 438 m 39 Y s 478 430 m 16 X s 509 430 m 17 X s 494 370 m 15 X s 494 477
 m 15 X s 478 422 m 16 Y s 526 422 m 16 Y s 502 430 m20 549 201 m 76 Y s 549 292 m 56 Y s 526 284 m 16 X s 557 284 m 16 X s 542 201 m 15 X s 542 348 m 15 X s 526 277 m 15 Y s 573 277 m 15 Y s 549 284 m20 597 251 m 73 Y s 597 339 m 50 Y s 573 331 m 17
 X s 605 331 m 16 X s 590 251 m 15 X s 590 389 m 15 X s 573 324 m 15 Y s 621 324 m 15 Y s 597 331 m20 645 1081 m 4 Y s 645 1100 m 3 Y s 621 1093 m 17 X s 653 1093 m 16 X s 638 1081 m 15 X s 638 1103 m 15 X s 621 1085 m 15 Y s 669 1085 m 15 Y s 645
 1093 m20 693 1176 m 2 Y s 693 1193 m 1 Y s 669 1185 m 17 X s 701 1185 m 16 X s 686 1176 m 15 X s 686 1194 m 15 X s 669 1178 m 15 Y s 717 1178 m 15 Y s 693 1185 m20 741 1074 m 4 Y s 741 1093 m 3 Y s 717 1086 m 17 X s 749 1086 m 16 X s 734 1074 m 15 X
 s 734 1096 m 15 X s 717 1078 m 15 Y s 765 1078 m 15 Y s 741 1086 m20 789 975 m 7 Y s 789 997 m 6 Y s 765 990 m 16 X s 797 990 m 16 X s 781 975 m 16 X s 781 1003 m 16 X s 765 982 m 15 Y s 813 982 m 15 Y s 789 990 m20 837 903 m 9 Y s 837 927 m 8 Y s
 813 920 m 16 X s 845 920 m 16 X s 829 903 m 16 X s 829 935 m 16 X s 813 912 m 15 Y s 861 912 m 15 Y s 837 920 m20 885 819 m 13 Y s 885 847 m 11 Y s 861 839 m 16 X s 892 839 m 17 X s 877 819 m 15 X s 877 858 m 15 X s 861 832 m 15 Y s 909 832 m 15 Y s
 885 839 m20 933 798 m 14 Y s 933 827 m 13 Y s 909 820 m 16 X s 940 820 m 17 X s 925 798 m 15 X s 925 840 m 15 X s 909 812 m 15 Y s 957 812 m 15 Y s 933 820 m20 981 701 m 20 Y s 981 736 m 17 Y s 957 728 m 16 X s 988 728 m 17 X s 973 701 m 15 X s 973
 753 m 15 X s 957 721 m 15 Y s 1005 721 m 15 Y s 981 728 m20 1029 690 m 21 Y s 1029 726 m 17 Y s 1005 718 m 16 X s 1036 718 m 17 X s 1021 690 m 15 X s 1021 743 m 15 X s 1005 711 m 15 Y s 1053 711 m 15 Y s 1029 718 m20 1076 655 m 23 Y s 1076 694 m 19
 Y s 1053 686 m 16 X s 1084 686 m 16 X s 1069 655 m 15 X s 1069 713 m 15 X s 1053 678 m 16 Y s 1100 678 m 16 Y s 1076 686 m20 1124 598 m 27 Y s 1124 641 m 22 Y s 1100 633 m 17 X s 1132 633 m 16 X s 1117 598 m 15 X s 1117 663 m 15 X s 1100 625 m 16 Y
 s 1148 625 m 16 Y s 1124 633 m20 1172 528 m 34 Y s 1172 577 m 27 Y s 1148 569 m 17 X s 1180 569 m 16 X s 1165 528 m 15 X s 1165 604 m 15 X s 1148 562 m 15 Y s 1196 562 m 15 Y s 1172 569 m20 1220 549 m 32 Y s 1220 596 m 26 Y s 1196 589 m 17 X s 1228
 589 m 16 X s 1213 549 m 15 X s 1213 622 m 15 X s 1196 581 m 15 Y s 1244 581 m 15 Y s 1220 589 m20 1268 556 m 31 Y s 1268 602 m 26 Y s 1244 595 m 16 X s 1276 595 m 16 X s 1260 556 m 16 X s 1260 628 m 16 X s 1244 587 m 15 Y s 1292 587 m 15 Y s 1268
 595 m20 1316 477 m 39 Y s 1316 532 m 30 Y s 1292 524 m 16 X s 1324 524 m 16 X s 1308 477 m 16 X s 1308 562 m 16 X s 1292 516 m 16 Y s 1340 516 m 16 Y s 1316 524 m20 1364 504 m 36 Y s 1364 555 m 29 Y s 1340 548 m 16 X s 1371 548 m 17 X s 1356 504 m
 15 X s 1356 584 m 15 X s 1340 540 m 15 Y s 1388 540 m 15 Y s 1364 548 m20 1412 486 m 39 Y s 1412 540 m 30 Y s 1388 532 m 16 X s 1419 532 m 17 X s 1404 486 m 15 X s 1404 570 m 15 X s 1388 525 m 15 Y s 1436 525 m 15 Y s 1412 532 m20 1460 520 m 35 Y s
 1460 570 m 28 Y s 1436 562 m 16 X s 1467 562 m 17 X s 1452 520 m 15 X s 1452 598 m 15 X s 1436 555 m 15 Y s 1484 555 m 15 Y s 1460 562 m20 1508 467 m 41 Y s 1508 523 m 31 Y s 1484 515 m 16 X s 1515 515 m 17 X s 1500 467 m 15 X s 1500 554 m 15 X s
 1484 508 m 15 Y s 1532 508 m 15 Y s 1508 515 m20 1556 614 m 26 Y s 1556 655 m 22 Y s 1532 648 m 16 X s 1563 648 m 16 X s 1548 614 m 15 X s 1548 677 m 15 X s 1532 640 m 15 Y s 1579 640 m 15 Y s 1556 648 m20 1603 528 m 34 Y s 1603 577 m 27 Y s 1579
 569 m 17 X s 1611 569 m 16 X s 1596 528 m 15 X s 1596 604 m 15 X s 1579 562 m 15 Y s 1627 562 m 15 Y s 1603 569 m20 1651 535 m 33 Y s 1651 583 m 27 Y s 1627 576 m 17 X s 1659 576 m 16 X s 1644 535 m 15 X s 1644 610 m 15 X s 1627 568 m 15 Y s 1675
 568 m 15 Y s 1651 576 m20 1699 457 m 42 Y s 1699 514 m 32 Y s 1675 506 m 17 X s 1707 506 m 16 X s 1692 457 m 15 X s 1692 546 m 15 X s 1675 499 m 15 Y s 1723 499 m 15 Y s 1699 506 m20 1747 457 m 42 Y s 1747 514 m 32 Y s 1723 506 m 17 X s 1755 506 m
 16 X s 1740 457 m 15 X s 1740 546 m 15 X s 1723 499 m 15 Y s 1771 499 m 15 Y s 1747 506 m20 1795 520 m 35 Y s 1795 570 m 28 Y s 1771 562 m 16 X s 1803 562 m 16 X s 1787 520 m 16 X s 1787 598 m 16 X s 1771 555 m 15 Y s 1819 555 m 15 Y s 1795 562 m20
 1843 542 m 33 Y s 1843 590 m 26 Y s 1819 582 m 16 X s 1851 582 m 16 X s 1835 542 m 16 X s 1835 616 m 16 X s 1819 575 m 15 Y s 1867 575 m 15 Y s 1843 582 m20 1891 384 m 51 Y s 1891 450 m 38 Y s 1867 443 m 16 X s 1898 443 m 17 X s 1883 384 m 15 X s
 1883 488 m 15 X s 1867 435 m 15 Y s 1915 435 m 15 Y s 1891 443 m20 1939 562 m 31 Y s 1939 608 m 25 Y s 1915 601 m 16 X s 1946 601 m 17 X s 1931 562 m 15 X s 1931 633 m 15 X s 1915 593 m 15 Y s 1963 593 m 15 Y s 1939 601 m20 1987 569 m 30 Y s 1987
 614 m 24 Y s 1963 606 m 16 X s 1994 606 m 17 X s 1979 569 m 15 X s 1979 638 m 15 X s 1963 599 m 15 Y s 2011 599 m 15 Y s 1987 606 m20 2035 298 m 64 Y s 2035 377 m 46 Y s 2011 370 m 16 X s 2042 370 m 17 X s 2027 298 m 15 X s 2027 423 m 15 X s 2011
 362 m 15 Y s 2059 362 m 15 Y s 2035 370 m20 2082 276 m 68 Y s 2082 359 m 48 Y s 2059 351 m 16 X s 2090 351 m 16 X s 2075 276 m 15 X s 2075 407 m 15 X s 2059 344 m 15 Y s 2106 344 m 15 Y s 2082 351 m20 2130 251 m 73 Y s 2130 339 m 50 Y s 2106 331 m
 17 X s 2138 331 m 16 X s 2123 251 m 15 X s 2123 389 m 15 X s 2106 324 m 15 Y s 2154 324 m 15 Y s 2130 331 m20 black
 gsave  2268 1676 0 0 C 272.126 1240.34 t 0 r /Helvetica-Bold findfont 49.2982 sf 0 0 m (Kolmogorov\255Smirnov test: signal \(background\) probability = 0.795 \(0.144\)) show NC gr  238 201 m 1916 X s 238 244 m -43 Y s 334 222 m -21 Y s 430 222 m -21
 Y s 526 222 m -21 Y s 621 244 m -43 Y s 717 222 m -21 Y s 813 222 m -21 Y s 909 222 m -21 Y s 1005 244 m -43 Y s 1100 222 m -21 Y s 1196 222 m -21 Y s 1292 222 m -21 Y s 1388 244 m -43 Y s 1484 222 m -21 Y s 1579 222 m -21 Y s 1675 222 m -21 Y s
 1771 244 m -43 Y s 1867 222 m -21 Y s 1963 222 m -21 Y s 2059 222 m -21 Y s 2154 244 m -43 Y s 238 244 m -43 Y s 2154 244 m -43 Y s 238 1509 m 1916 X s 238 1466 m 43 Y s 334 1487 m 22 Y s 430 1487 m 22 Y s 526 1487 m 22 Y s 621 1466 m 43 Y s 717
 1487 m 22 Y s 813 1487 m 22 Y s 909 1487 m 22 Y s 1005 1466 m 43 Y s 1100 1487 m 22 Y s 1196 1487 m 22 Y s 1292 1487 m 22 Y s 1388 1466 m 43 Y s 1484 1487 m 22 Y s 1579 1487 m 22 Y s 1675 1487 m 22 Y s 1771 1466 m 43 Y s 1867 1487 m 22 Y s 1963 1487
 m 22 Y s 2059 1487 m 22 Y s 2154 1466 m 43 Y s 238 1466 m 43 Y s 2154 1466 m 43 Y s 238 201 m 1308 Y s 265 232 m -27 X s 265 271 m -27 X s 265 303 m -27 X s 265 331 m -27 X s 265 356 m -27 X s 291 378 m -53 X s 265 524 m -27 X s 265 609 m -27 X s
 265 670 m -27 X s 265 717 m -27 X s 265 755 m -27 X s 265 787 m -27 X s 265 816 m -27 X s 265 840 m -27 X s 291 863 m -53 X s 265 1008 m -27 X s 265 1094 m -27 X s 265 1154 m -27 X s 265 1201 m -27 X s 265 1239 m -27 X s 265 1272 m -27 X s 265 1300
 m -27 X s 265 1325 m -27 X s 291 1347 m -53 X s 265 1493 m -27 X s 2154 201 m 1308 Y s 2128 232 m 26 X s 2128 271 m 26 X s 2128 303 m 26 X s 2128 331 m 26 X s 2128 356 m 26 X s 2101 378 m 53 X s 2128 524 m 26 X s 2128 609 m 26 X s 2128 670 m 26 X s
 2128 717 m 26 X s 2128 755 m 26 X s 2128 787 m 26 X s 2128 816 m 26 X s 2128 840 m 26 X s 2101 863 m 53 X s 2128 1008 m 26 X s 2128 1094 m 26 X s 2128 1154 m 26 X s 2128 1201 m 26 X s 2128 1239 m 26 X s 2128 1272 m 26 X s 2128 1300 m 26 X s 2128
 1325 m 26 X s 2101 1347 m 53 X s 2128 1493 m 26 X s
 gsave  2268 1676 0 0 C 2211.02 192.756 t 90 r /Helvetica-Bold findfont 45.506 sf 0 0 m (U/O\255flow \(S,B\): \(0.0, 0.0\)% / \(0.0, 0.0\)%) show NC gr  0.490196 0.545098 0.615686 c 0.364706 0.419608 0.490196 c 1587 96 23 1572 bf 0.490196 0.545098
 0.615686 c 23 1572 m 1587 X s 1610 1572 m 96 Y s 1610 1668 m -1587 X s 23 1668 m -96 Y s 1 1 1 c black 1 1 1 c
 gsave  2268 1676 0 0 C 75.8434 1604.09 t 0 r /Helvetica-Bold findfont 56.8825 sf 0 0 m (TMVA overtraining check for classifier: LikelihoodPCA) show NC gr 
 gr  gr showpage
end
%%EOF
