%!PS-Adobe-2.0 EPSF-2.0
%%BoundingBox:  0 0 567 419
%%Title: : TMVA comparison MLPBNN
%%Creator: ROOT Version 6.12/06
%%CreationDate: Mon May 21 12:03:39 2018
%%DocumentNeededResources: ProcSet (FontSetInit)
%%EndComments
%%BeginProlog
80 dict begin
/s {stroke} def /l {lineto} def /m {moveto} def /t {translate} def
/r {rotate} def /rl {roll}  def /R {repeat} def
/d {rlineto} def /rm {rmoveto} def /gr {grestore} def /f {eofill} def
/c {setrgbcolor} def /black {0 setgray} def /sd {setdash} def
/cl {closepath} def /sf {scalefont setfont} def /lw {setlinewidth} def
/box {m dup 0 exch d exch 0 d 0 exch neg d cl} def
/NC{systemdict begin initclip end}def/C{NC box clip newpath}def
/bl {box s} def /bf {gsave box gsave f grestore 1 lw [] 0 sd s grestore} def /Y { 0 exch d} def /X { 0 d} def 
/K {{pop pop 0 moveto} exch kshow} bind def
/ita {/ang 15 def gsave [1 0 ang dup sin exch cos div 1 0 0] concat} def 
/mp {newpath /y exch def /x exch def} def
/side {[w .77 mul w .23 mul] .385 w mul sd w 0 l currentpoint t -144 r} def
/mr {mp x y w2 0 360 arc} def /m24 {mr s} def /m20 {mr f} def
/mb {mp x y w2 add m w2 neg 0 d 0 w neg d w 0 d 0 w d cl} def
/mt {mp x y w2 add m w2 neg w neg d w 0 d cl} def
/w4 {w 4 div} def
/w6 {w 6 div} def
/w8 {w 8 div} def
/m21 {mb f} def /m25 {mb s} def /m22 {mt f} def /m26{mt s} def
/m23 {mp x y w2 sub m w2 w d w neg 0 d cl f} def
/m27 {mp x y w2 add m w3 neg w2 neg d w3 w2 neg d w3 w2 d cl s} def
/m28 {mp x w2 sub y w2 sub w3 add m w3 0 d  0 w3 neg d w3 0 d 0 w3 d w3 0 d  0 w3 d w3 neg 0 d 0 w3 d w3 neg 0 d 0 w3 neg d w3 neg 0 d cl s } def
/m29 {mp gsave x w2 sub y w2 add w3 sub m currentpoint t 4 {side} repeat cl fill gr} def
/m30 {mp gsave x w2 sub y w2 add w3 sub m currentpoint t 4 {side} repeat cl s gr} def
/m31 {mp x y w2 sub m 0 w d x w2 sub y m w 0 d x w2 sub y w2 add m w w neg d x w2 sub y w2 sub m w w d s} def
/m32 {mp x y w2 sub m w2 w d w neg 0 d cl s} def
/m33 {mp x y w2 add m w3 neg w2 neg d w3 w2 neg d w3 w2 d cl f} def
/m34 {mp x w2 sub y w2 sub w3 add m w3 0 d  0 w3 neg d w3 0 d 0 w3 d w3 0 d  0 w3 d w3 neg 0 d 0 w3 d w3 neg 0 d 0 w3 neg d w3 neg 0 d cl f } def
/m35 {mp x y w2 add m w2 neg w2 neg d w2 w2 neg d w2 w2 d w2 neg w2 d x y w2 sub m 0 w d x w2 sub y m w 0 d s} def
/m36 {mb x w2 sub y w2 add m w w neg d x w2 sub y w2 sub m w w d s} def
/m37 {mp x y m w4 neg w2 d w4 neg w2 neg d w2 0 d  w4 neg w2 neg d w2 0 d w4 neg w2 d w2 0 d w4 neg w2 d w4 neg w2 neg d cl s} def
/m38 {mp x w4 sub y w2 add m w4 neg w4 neg d 0 w2 neg d w4 w4 neg d w2 0 d w4 w4 d 0 w2 d w4 neg w4 d w2 neg 0 d x y w2 sub m 0 w d x w2 sub y m w 0 d cl s} def
/m39 {mp x y m w4 neg w2 d w4 neg w2 neg d w2 0 d  w4 neg w2 neg d w2 0 d w4 neg w2 d w2 0 d w4 neg w2 d w4 neg w2 neg d cl f} def
/m40 {mp x y m w4 w2 d w4 w4 neg d w2 neg w4 neg d w2 w4 neg d w4 neg w4 neg d w4 neg w2 d w4 neg w2 neg d w4 neg w4 d w2 w4 d w2 neg w4 d w4 w4 d w4 w2 neg d cl s} def
/m41 {mp x y m w4 w2 d w4 w4 neg d w2 neg w4 neg d w2 w4 neg d w4 neg w4 neg d w4 neg w2 d w4 neg w2 neg d w4 neg w4 d w2 w4 d w2 neg w4 d w4 w4 d w4 w2 neg d cl f} def
/m42 {mp x y w2 add m w8 neg w2 -3 4 div mul d w2 -3 4 div mul w8 neg d w2 3 4 div mul w8 neg d w8 w2 -3 4 div mul d w8 w2 3 4 div mul d w2 3 4 div mul w8 d w2 -3 4 div mul w8 d w8 neg w2 3 4 div mul d cl s} def
/m43 {mp x y w2 add m w8 neg w2 -3 4 div mul d w2 -3 4 div mul w8 neg d w2 3 4 div mul w8 neg d w8 w2 -3 4 div mul d w8 w2 3 4 div mul d w2 3 4 div mul w8 d w2 -3 4 div mul w8 d w8 neg w2 3 4 div mul d cl f} def
/m44 {mp x y m w6 neg w2 d w2 2 3 div mul 0 d w6 neg w2 neg d w2 w6 d 0 w2 -2 3 div mul d w2 neg w6 d w6 w2 neg d w2 -2 3 div mul 0 d w6 w2 d w2 neg w6 neg d 0 w2 2 3 div mul d w2 w6 neg d cl s} def
/m45 {mp x y m w6 neg w2 d w2 2 3 div mul 0 d w6 neg w2 neg d w2 w6 d 0 w2 -2 3 div mul d w2 neg w6 d w6 w2 neg d w2 -2 3 div mul 0 d w6 w2 d w2 neg w6 neg d 0 w2 2 3 div mul d w2 w6 neg d cl f} def
/m46 {mp x y w4 add m w4 neg w4 d w4 neg w4 neg d  w4 w4 neg d w4 neg w4 neg d w4 w4 neg d w4 w4 d w4 w4 neg d w4 w4 d w4 neg w4 d w4 w4 d w4 neg w4 d w4 neg w4 neg d cl s} def
/m47 {mp x y w4 add m w4 neg w4 d w4 neg w4 neg d w4 w4 neg d w4 neg w4 neg d  w4 w4 neg d w4 w4 d w4 w4 neg d w4 w4 d w4 neg w4 d w4 w4 d w4 neg w4 d w4 neg w4 neg d cl f} def
/m48 {mp x y w4 add m w4 neg w4 d w4 neg w4 neg d w4 w4 neg d  w4 neg w4 neg d w4 w4 neg d w4 w4 d w4 w4 neg d w4 w4 d w4 neg w4 d w4 w4 d w4 neg w4 d w4 neg w4 neg d  w4 w4 neg d w4 neg w4 neg d w4 neg w4 d w4 w4 d cl f} def
/m49 {mp x w2 sub w3 add y w2 sub w3 add m  0 w3 neg d w3 0 d 0 w3 d w3 0 d 0 w3 d w3 neg 0 d 0 w3 d w3 neg 0 d 0 w3 neg d w3 neg 0 d 0 w3 neg d w3 0 d 0 w3 d w3 0 d 0 w3 neg d w3 neg 0 d cl f } def
/m2 {mp x y w2 sub m 0 w d x w2 sub y m w 0 d s} def
/m5 {mp x w2 sub y w2 sub m w w d x w2 sub y w2 add m w w neg d s} def
%%IncludeResource: ProcSet (FontSetInit)
%%IncludeResource: font Times-Roman
%%IncludeResource: font Times-Italic
%%IncludeResource: font Times-Bold
%%IncludeResource: font Times-BoldItalic
%%IncludeResource: font Helvetica
%%IncludeResource: font Helvetica-Oblique
%%IncludeResource: font Helvetica-Bold
%%IncludeResource: font Helvetica-BoldOblique
%%IncludeResource: font Courier
%%IncludeResource: font Courier-Oblique
%%IncludeResource: font Courier-Bold
%%IncludeResource: font Courier-BoldOblique
%%IncludeResource: font Symbol
%%IncludeResource: font ZapfDingbats
/reEncode {exch findfont dup length dict begin {1 index /FID eq  {pop pop} {def} ifelse } forall /Encoding exch def currentdict end dup /FontName get exch definefont pop } def [/Times-Bold /Times-Italic /Times-BoldItalic /Helvetica /Helvetica-Oblique
 /Helvetica-Bold /Helvetica-BoldOblique /Courier /Courier-Oblique /Courier-Bold /Courier-BoldOblique /Times-Roman /AvantGarde-Book /AvantGarde-BookOblique /AvantGarde-Demi /AvantGarde-DemiOblique /Bookman-Demi /Bookman-DemiItalic /Bookman-Light
 /Bookman-LightItalic /Helvetica-Narrow /Helvetica-Narrow-Bold /Helvetica-Narrow-BoldOblique /Helvetica-Narrow-Oblique /NewCenturySchlbk-Roman /NewCenturySchlbk-Bold /NewCenturySchlbk-BoldItalic /NewCenturySchlbk-Italic /Palatino-Bold
 /Palatino-BoldItalic /Palatino-Italic /Palatino-Roman ] {ISOLatin1Encoding reEncode } forall
%%EndProlog
%%BeginSetup
%%EndSetup
newpath  gsave  .25 .25 scale  gsave  0 0 t 0.490196 0.545098 0.615686 c[  ] 0 sd 3 lw 0.941176 0.941176 0.941176 c 2268 1676 0 0 bf black 1 1 0.992157 c 1916 1308 238 201 bf black 1916 1308 238 201 bl 1 1 0.992157 c 1916 1308 238 201 bf black 1916
 1308 238 201 bl 238 201 m 1916 X s 427 244 m -43 Y s 465 222 m -21 Y s 504 222 m -21 Y s 542 222 m -21 Y s 580 222 m -21 Y s 619 244 m -43 Y s 657 222 m -21 Y s 696 222 m -21 Y s 734 222 m -21 Y s 772 222 m -21 Y s 811 244 m -43 Y s 849 222 m -21 Y
 s 888 222 m -21 Y s 926 222 m -21 Y s 964 222 m -21 Y s 1003 244 m -43 Y s 1041 222 m -21 Y s 1079 222 m -21 Y s 1118 222 m -21 Y s 1156 222 m -21 Y s 1195 244 m -43 Y s 1233 222 m -21 Y s 1271 222 m -21 Y s 1310 222 m -21 Y s 1348 222 m -21 Y s
 1387 244 m -43 Y s 1425 222 m -21 Y s 1463 222 m -21 Y s 1502 222 m -21 Y s 1540 222 m -21 Y s 1578 244 m -43 Y s 1617 222 m -21 Y s 1655 222 m -21 Y s 1694 222 m -21 Y s 1732 222 m -21 Y s 1770 244 m -43 Y s 1809 222 m -21 Y s 1847 222 m -21 Y s
 1886 222 m -21 Y s 1924 222 m -21 Y s 1962 244 m -43 Y s 2001 222 m -21 Y s 2039 222 m -21 Y s 2078 222 m -21 Y s 2116 222 m -21 Y s 2154 244 m -43 Y s 427 244 m -43 Y s 388 222 m -21 Y s 350 222 m -21 Y s 312 222 m -21 Y s 273 222 m -21 Y s 2154
 244 m -43 Y s
 gsave  2268 1676 0 0 C 383.009 128.934 t 0 r /Helvetica-Bold findfont 64.4669 sf 0 0 m (0.1) show NC gr 
 gsave  2268 1676 0 0 C 572.617 128.934 t 0 r /Helvetica-Bold findfont 64.4669 sf 0 0 m (0.2) show NC gr 
 gsave  2268 1676 0 0 C 762.226 128.934 t 0 r /Helvetica-Bold findfont 64.4669 sf 0 0 m (0.3) show NC gr 
 gsave  2268 1676 0 0 C 955.626 128.934 t 0 r /Helvetica-Bold findfont 64.4669 sf 0 0 m (0.4) show NC gr 
 gsave  2268 1676 0 0 C 1149.03 128.934 t 0 r /Helvetica-Bold findfont 64.4669 sf 0 0 m (0.5) show NC gr 
 gsave  2268 1676 0 0 C 1338.64 128.934 t 0 r /Helvetica-Bold findfont 64.4669 sf 0 0 m (0.6) show NC gr 
 gsave  2268 1676 0 0 C 1532.04 128.934 t 0 r /Helvetica-Bold findfont 64.4669 sf 0 0 m (0.7) show NC gr 
 gsave  2268 1676 0 0 C 1721.64 128.934 t 0 r /Helvetica-Bold findfont 64.4669 sf 0 0 m (0.8) show NC gr 
 gsave  2268 1676 0 0 C 1915.04 128.934 t 0 r /Helvetica-Bold findfont 64.4669 sf 0 0 m (0.9) show NC gr 
 gsave  2268 1676 0 0 C 2138.78 128.934 t 0 r /Helvetica-Bold findfont 64.4669 sf 0 0 m (1) show NC gr 
 gsave  2268 1676 0 0 C 1505.49 34.1295 t 0 r /Helvetica-Bold findfont 72.0512 sf 0 0 m (MLPBNN response) show NC gr  238 1509 m 1916 X s 427 1466 m 43 Y s 465 1487 m 22 Y s 504 1487 m 22 Y s 542 1487 m 22 Y s 580 1487 m 22 Y s 619 1466 m 43 Y s 657
 1487 m 22 Y s 696 1487 m 22 Y s 734 1487 m 22 Y s 772 1487 m 22 Y s 811 1466 m 43 Y s 849 1487 m 22 Y s 888 1487 m 22 Y s 926 1487 m 22 Y s 964 1487 m 22 Y s 1003 1466 m 43 Y s 1041 1487 m 22 Y s 1079 1487 m 22 Y s 1118 1487 m 22 Y s 1156 1487 m 22
 Y s 1195 1466 m 43 Y s 1233 1487 m 22 Y s 1271 1487 m 22 Y s 1310 1487 m 22 Y s 1348 1487 m 22 Y s 1387 1466 m 43 Y s 1425 1487 m 22 Y s 1463 1487 m 22 Y s 1502 1487 m 22 Y s 1540 1487 m 22 Y s 1578 1466 m 43 Y s 1617 1487 m 22 Y s 1655 1487 m 22 Y
 s 1694 1487 m 22 Y s 1732 1487 m 22 Y s 1770 1466 m 43 Y s 1809 1487 m 22 Y s 1847 1487 m 22 Y s 1886 1487 m 22 Y s 1924 1487 m 22 Y s 1962 1466 m 43 Y s 2001 1487 m 22 Y s 2039 1487 m 22 Y s 2078 1487 m 22 Y s 2116 1487 m 22 Y s 2154 1466 m 43 Y s
 427 1466 m 43 Y s 388 1487 m 22 Y s 350 1487 m 22 Y s 312 1487 m 22 Y s 273 1487 m 22 Y s 2154 1466 m 43 Y s 238 201 m 1308 Y s 265 230 m -27 X s 265 268 m -27 X s 265 300 m -27 X s 265 328 m -27 X s 265 353 m -27 X s 291 375 m -53 X s
 gsave  2268 1676 0 0 C 182.024 375.425 t 0 r /Helvetica-Bold findfont 41.7138 sf 0 0 m (1) show NC gr 
 gsave  2268 1676 0 0 C 159.271 375.425 t 0 r /Symbol findfont 41.7138 sf 0 0 m (-) show NC gr 
 gsave  2268 1676 0 0 C 87.2199 345.087 t 0 r /Helvetica-Bold findfont 64.4669 sf 0 0 m (10) show NC gr  265 521 m -27 X s 265 606 m -27 X s 265 667 m -27 X s 265 714 m -27 X s 265 752 m -27 X s 265 785 m -27 X s 265 813 m -27 X s 265 838 m -27 X s
 291 860 m -53 X s
 gsave  2268 1676 0 0 C 174.44 834.277 t 0 r /Helvetica-Bold findfont 64.4669 sf 0 0 m (1) show NC gr  265 1006 m -27 X s 265 1091 m -27 X s 265 1151 m -27 X s 265 1198 m -27 X s 265 1237 m -27 X s 265 1269 m -27 X s 265 1297 m -27 X s 265 1322 m -27
 X s 291 1344 m -53 X s
 gsave  2268 1676 0 0 C 128.934 1319.67 t 0 r /Helvetica-Bold findfont 64.4669 sf 0 0 m (10) show NC gr  265 1490 m -27 X s
 gsave  2268 1676 0 0 C 64.4669 1425.86 t 90 r /Helvetica-Bold findfont 72.0512 sf 0 0 m (dx) show NC gr 
 gsave  2268 1676 0 0 C 30.3373 1406.89 t 90 r /Helvetica-Bold findfont 45.506 sf 0 0 m ( ) show NC gr 
 gsave  2268 1676 0 0 C 64.4669 1384.14 t 90 r /Helvetica-Bold findfont 72.0512 sf 0 0 m (/) show NC gr 
 gsave  2268 1676 0 0 C 30.3373 1365.18 t 90 r /Helvetica-Bold findfont 45.506 sf 0 0 m ( ) show NC gr 
 gsave  2268 1676 0 0 C 60.6747 1092.14 t 90 r /Helvetica-Bold findfont 72.0512 sf 0 0 m (\(1/N\) dN) show NC gr  2154 201 m 1308 Y s 2128 230 m 26 X s 2128 268 m 26 X s 2128 300 m 26 X s 2128 328 m 26 X s 2128 353 m 26 X s 2101 375 m 53 X s 2128 521
 m 26 X s 2128 606 m 26 X s 2128 667 m 26 X s 2128 714 m 26 X s 2128 752 m 26 X s 2128 785 m 26 X s 2128 813 m 26 X s 2128 838 m 26 X s 2101 860 m 53 X s 2128 1006 m 26 X s 2128 1091 m 26 X s 2128 1151 m 26 X s 2128 1198 m 26 X s 2128 1237 m 26 X s
 2128 1269 m 26 X s 2128 1297 m 26 X s 2128 1322 m 26 X s 2101 1344 m 53 X s 2128 1490 m 26 X s 0.490196 0.545098 0.615686 c 1 1 1 c 0.490196 0.545098 0.615686 c 907 202 238 1307 bl 238 1307 m 907 X s 1145 1307 m 202 Y s 1145 1509 m -907 X s 238 1509
 m -202 Y s black
 gsave  2268 1676 0 0 C 417.138 1437.23 t 0 r /Helvetica-Bold findfont 56.8825 sf 0 0 m (Signal \(test sample\)) show NC gr  0.49 0.6 0.82 c 265 1423 m 127 X 70 Y -127 X f 0 0 0.933333 c 265 1493 m 127 X s 265 1423 m 127 X s 392 1423 m 70 Y s 265
 1423 m 70 Y s black
 gsave  2268 1676 0 0 C 417.138 1338.64 t 0 r /Helvetica-Bold findfont 56.8825 sf 0 0 m (Background \(test sample\)) show NC gr  1 0 0 c 392 1354 m -32 -32 d s 383 1393 m -71 -71 d s 335 1393 m -70 -69 d s 286 1393 m -21 -21 d s 0 0 0.933333 c 1 0 0
 c 265 1393 m 127 X s 265 1322 m 127 X s 392 1322 m 71 Y s 265 1322 m 71 Y s 0 0 0.933333 c 0.49 0.6 0.82 c black 0.49 0.6 0.82 c 238 201 m 284 Y 48 X -231 Y 48 X -53 Y 144 X 20 Y 48 X 146 Y 47 X 171 Y 48 X 88 Y 48 X 121 Y 48 X -48 Y 48 X 67 Y 48 X
 34 Y 48 X -59 Y 48 X 38 Y 48 X -5 Y 48 X 10 Y 48 X 7 Y 47 X -36 Y 48 X -11 Y 48 X 25 Y 96 X 22 Y 48 X 5 Y 48 X 13 Y 48 X -25 Y 48 X 27 Y 48 X 8 Y 47 X 39 Y 48 X 2 Y 48 X 25 Y 48 X 26 Y 48 X -21 Y 48 X 4 Y 48 X 6 Y 48 X 4 Y 48 X 3 Y 48 X 20 Y 48 X 78
 Y 47 X 385 Y 48 X -1189 Y f 0 0 0.933333 c 0.49 0.6 0.82 c 0 0 0.933333 c 238 485 m 48 X -231 Y 48 X -53 Y 144 X 20 Y 48 X 146 Y 47 X 171 Y 48 X 88 Y 48 X 121 Y 48 X -48 Y 48 X 67 Y 48 X 34 Y 48 X -59 Y 48 X 38 Y 48 X -5 Y 48 X 10 Y 48 X 7 Y 47 X
 -36 Y 48 X -11 Y 48 X 25 Y 96 X 22 Y 48 X 5 Y 48 X 13 Y 48 X -25 Y 48 X 27 Y 48 X 8 Y 47 X 39 Y 48 X 2 Y 48 X 25 Y 48 X 26 Y 48 X -21 Y 48 X 4 Y 48 X 6 Y 48 X 4 Y 48 X 3 Y 48 X 20 Y 48 X 78 Y 47 X 385 Y 48 X -1189 Y s 1 0 0 c black 1 0 0 c 2125 201
 m s 2077 201 m s 2059 231 m -30 -30 d s 2059 279 m -78 -78 d s 2014 282 m -81 -81 d s 2011 327 m -126 -126 d s 2011 375 m -174 -174 d s 1987 400 m -198 -199 d s 1963 423 m -222 -222 d s 1963 471 m -271 -270 d s 1938 495 m -294 -294 d s 1890 495 m
 -294 -294 d s 1867 520 m -319 -319 d s 1867 568 m -367 -367 d s 1837 586 m -385 -385 d s 1807 604 m -403 -403 d s 1771 617 m -48 -48 d s 1707 553 m -351 -352 d s 1752 645 m -29 -28 d s 1675 569 m -367 -368 d s 1662 604 m -403 -403 d s 1608 598 m
 -397 -397 d s 1548 586 m -385 -385 d s 1494 580 m -379 -379 d s 1464 598 m -397 -397 d s 1404 586 m -385 -385 d s 1388 618 m -417 -417 d s 1342 620 m -419 -419 d s 1340 666 m -465 -465 d s 1305 680 m -478 -479 d s 1292 715 m -514 -514 d s 1255 726 m
 -11 -11 d s 1235 706 m -505 -505 d s 1196 715 m -514 -514 d s 1196 763 m -562 -562 d s 1159 774 m -573 -573 d s 1130 793 m -592 -592 d s 1100 812 m -610 -611 d s 1070 829 m -628 -628 d s 1053 860 m -659 -659 d s 1013 868 m -440 -439 d s 544 400 m
 -199 -199 d s 1005 908 m -432 -431 d s 526 429 m -229 -228 d s 959 911 m -338 -338 d s 586 538 m -13 -13 d s 512 464 m -263 -263 d s 957 957 m -288 -288 d s 663 663 m -42 -42 d s 452 452 m -214 -214 d s 919 967 m -250 -250 d s 430 478 m -192 -192 d
 s 909 1005 m -192 -192 d s 678 774 m -9 -9 d s 430 526 m -192 -192 d s 870 1014 m -153 -153 d s 393 538 m -155 -156 d s 859 1051 m -142 -141 d s 382 574 m -144 -143 d s 813 1054 m -48 -48 d s 718 959 m -1 -1 d s 382 622 m -144 -143 d s 778 1066 m
 -13 -12 d s 337 626 m -99 -99 d s 334 671 m -96 -96 d s 334 719 m -96 -96 d s 334 767 m -96 -96 d s 328 809 m -90 -90 d s 286 815 m -48 -48 d s 286 863 m -48 -48 d s 286 911 m -48 -48 d s 286 959 m -48 -47 d s 286 1008 m -48 -48 d s 286 1056 m -48
 -48 d s 286 1104 m -48 -48 d s 286 1152 m -48 -48 d s 286 1200 m -48 -48 d s 286 1248 m -48 -48 d s 286 1296 m -48 -48 d s 286 1344 m -48 -48 d s 286 1392 m -48 -47 d s 286 1441 m -48 -48 d s 251 1453 m -13 -12 d s 238 1453 m 48 X -644 Y 48 X -183 Y
 48 X -88 Y 48 X -86 Y 48 X 12 Y 48 X -64 Y 47 X 138 Y 48 X 125 Y 48 X 111 Y 48 X 185 Y 48 X 107 Y 48 X -15 Y 48 X -37 Y 48 X -47 Y 48 X -56 Y 48 X -43 Y 48 X -39 Y 47 X -36 Y 48 X -19 Y 48 X -68 Y 48 X 20 Y 48 X -46 Y 48 X -60 Y 48 X -34 Y 48 X 12 Y
 48 X -18 Y 48 X 6 Y 47 X 12 Y 48 X 6 Y 48 X -51 Y 48 X 92 Y 48 X -41 Y 48 X -18 Y 48 X -91 Y 96 X -95 Y 48 X -118 Y 48 X -81 Y 95 X s 0.490196 0.545098 0.615686 c 1 1 1 c 0.490196 0.545098 0.615686 c 952 202 1202 1307 bl 1202 1307 m 952 X s 2154
 1307 m 202 Y s 2154 1509 m -952 X s 1202 1509 m -202 Y s black
 gsave  2268 1676 0 0 C 1296.92 1437.23 t 0 r /Helvetica-Bold findfont 56.8825 sf 0 0 m (Signal \(training sample\)) show NC gr  0 0 0.933333 c /w 21 def /w2 {w 2 div} def /w3 {w 3 div} def 1250 1458 m20 black
 gsave  2268 1676 0 0 C 1296.92 1338.64 t 0 r /Helvetica-Bold findfont 56.8825 sf 0 0 m (Background \(training sample\)) show NC gr  1 0 0 c 1250 1358 m20 0 0 0.933333 c 1 1 1 c 0 0 0.933333 c 262 421 m 46 Y s 262 482 m 35 Y s 238 475 m 16 X s 270
 475 m 16 X s 254 421 m 16 X s 254 517 m 16 X s 238 467 m 15 Y s 286 467 m 15 Y s 262 475 m20 310 201 m 13 Y s 310 229 m 64 Y s 286 221 m 16 X s 318 221 m 16 X s 302 201 m 16 X s 302 293 m 16 X s 286 214 m 15 Y s 334 214 m 15 Y s 310 221 m20 358 201
 m 73 Y s 358 289 m 56 Y s 334 282 m 16 X s 365 282 m 17 X s 350 201 m 15 X s 350 345 m 15 X s 334 274 m 15 Y s 382 274 m 15 Y s 358 282 m20 454 201 m 45 Y s 454 261 m 60 Y s 430 254 m 16 X s 461 254 m 17 X s 446 201 m 15 X s 446 321 m 15 X s 430 246
 m 15 Y s 478 246 m 15 Y s 454 254 m20 549 273 m 68 Y s 549 356 m 48 Y s 526 349 m 16 X s 557 349 m 16 X s 542 273 m 15 X s 542 404 m 15 X s 526 341 m 15 Y s 573 341 m 15 Y s 549 349 m20 597 547 m 32 Y s 597 594 m 25 Y s 573 586 m 17 X s 605 586 m 16
 X s 590 547 m 15 X s 590 619 m 15 X s 573 579 m 15 Y s 621 579 m 15 Y s 597 586 m20 645 673 m 22 Y s 645 710 m 18 Y s 621 702 m 17 X s 653 702 m 16 X s 638 673 m 15 X s 638 728 m 15 X s 621 695 m 15 Y s 669 695 m 15 Y s 645 702 m20 693 640 m 24 Y s
 693 679 m 20 Y s 669 671 m 17 X s 701 671 m 16 X s 686 640 m 15 X s 686 699 m 15 X s 669 664 m 15 Y s 717 664 m 15 Y s 693 671 m20 741 733 m 18 Y s 741 766 m 15 Y s 717 758 m 17 X s 749 758 m 16 X s 734 733 m 15 X s 734 781 m 15 X s 717 751 m 15 Y s
 765 751 m 15 Y s 741 758 m20 789 736 m 17 Y s 789 768 m 15 Y s 765 761 m 16 X s 797 761 m 16 X s 781 736 m 16 X s 781 783 m 16 X s 765 753 m 15 Y s 813 753 m 15 Y s 789 761 m20 837 741 m 18 Y s 837 774 m 14 Y s 813 766 m 16 X s 845 766 m 16 X s 829
 741 m 16 X s 829 788 m 16 X s 813 759 m 15 Y s 861 759 m 15 Y s 837 766 m20 885 752 m 17 Y s 885 784 m 14 Y s 861 776 m 16 X s 892 776 m 17 X s 877 752 m 15 X s 877 798 m 15 X s 861 769 m 15 Y s 909 769 m 15 Y s 885 776 m20 933 780 m 15 Y s 933 810
 m 13 Y s 909 802 m 16 X s 940 802 m 17 X s 925 780 m 15 X s 925 823 m 15 X s 909 795 m 15 Y s 957 795 m 15 Y s 933 802 m20 981 775 m 15 Y s 981 805 m 14 Y s 957 798 m 16 X s 988 798 m 17 X s 973 775 m 15 X s 973 819 m 15 X s 957 790 m 15 Y s 1005
 790 m 15 Y s 981 798 m20 1029 763 m 16 Y s 1029 794 m 14 Y s 1005 786 m 16 X s 1036 786 m 17 X s 1021 763 m 15 X s 1021 808 m 15 X s 1005 779 m 15 Y s 1053 779 m 15 Y s 1029 786 m20 1076 705 m 19 Y s 1076 740 m 16 Y s 1053 732 m 16 X s 1084 732 m 16
 X s 1069 705 m 15 X s 1069 756 m 15 X s 1053 724 m 16 Y s 1100 724 m 16 Y s 1076 732 m20 1124 755 m 16 Y s 1124 787 m 14 Y s 1100 779 m 17 X s 1132 779 m 16 X s 1117 755 m 15 X s 1117 801 m 15 X s 1100 771 m 16 Y s 1148 771 m 16 Y s 1124 779 m20
 1172 738 m 18 Y s 1172 771 m 15 Y s 1148 764 m 17 X s 1180 764 m 16 X s 1165 738 m 15 X s 1165 786 m 15 X s 1148 756 m 15 Y s 1196 756 m 15 Y s 1172 764 m20 1220 727 m 18 Y s 1220 760 m 16 Y s 1196 753 m 17 X s 1228 753 m 16 X s 1213 727 m 15 X s
 1213 776 m 15 X s 1196 745 m 15 Y s 1244 745 m 15 Y s 1220 753 m20 1268 757 m 17 Y s 1268 789 m 14 Y s 1244 781 m 16 X s 1276 781 m 16 X s 1260 757 m 16 X s 1260 803 m 16 X s 1244 774 m 15 Y s 1292 774 m 15 Y s 1268 781 m20 1316 747 m 17 Y s 1316
 779 m 14 Y s 1292 771 m 16 X s 1324 771 m 16 X s 1308 747 m 16 X s 1308 793 m 16 X s 1292 764 m 15 Y s 1340 764 m 15 Y s 1316 771 m20 1364 749 m 17 Y s 1364 782 m 14 Y s 1340 774 m 16 X s 1371 774 m 17 X s 1356 749 m 15 X s 1356 796 m 15 X s 1340
 766 m 16 Y s 1388 766 m 16 Y s 1364 774 m20 1412 772 m 16 Y s 1412 803 m 13 Y s 1388 796 m 16 X s 1419 796 m 17 X s 1404 772 m 15 X s 1404 816 m 15 X s 1388 788 m 15 Y s 1436 788 m 15 Y s 1412 796 m20 1460 741 m 18 Y s 1460 774 m 14 Y s 1436 766 m
 16 X s 1467 766 m 17 X s 1452 741 m 15 X s 1452 788 m 15 X s 1436 759 m 15 Y s 1484 759 m 15 Y s 1460 766 m20 1508 806 m 14 Y s 1508 835 m 12 Y s 1484 827 m 16 X s 1515 827 m 17 X s 1500 806 m 15 X s 1500 847 m 15 X s 1484 820 m 15 Y s 1532 820 m 15
 Y s 1508 827 m20 1556 736 m 17 Y s 1556 768 m 15 Y s 1532 761 m 16 X s 1563 761 m 16 X s 1548 736 m 15 X s 1548 783 m 15 X s 1532 753 m 15 Y s 1579 753 m 15 Y s 1556 761 m20 1603 824 m 13 Y s 1603 852 m 11 Y s 1579 844 m 17 X s 1611 844 m 16 X s
 1596 824 m 15 X s 1596 863 m 15 X s 1579 837 m 15 Y s 1627 837 m 15 Y s 1603 844 m20 1651 818 m 13 Y s 1651 846 m 12 Y s 1627 839 m 17 X s 1659 839 m 16 X s 1644 818 m 15 X s 1644 858 m 15 X s 1627 831 m 15 Y s 1675 831 m 15 Y s 1651 839 m20 1699
 849 m 12 Y s 1699 876 m 10 Y s 1675 868 m 17 X s 1707 868 m 16 X s 1692 849 m 15 X s 1692 886 m 15 X s 1675 861 m 15 Y s 1723 861 m 15 Y s 1699 868 m20 1747 936 m 8 Y s 1747 959 m 7 Y s 1723 951 m 17 X s 1755 951 m 16 X s 1740 936 m 15 X s 1740 966
 m 15 X s 1723 944 m 15 Y s 1771 944 m 15 Y s 1747 951 m20 1795 909 m 9 Y s 1795 934 m 8 Y s 1771 926 m 16 X s 1803 926 m 16 X s 1787 909 m 16 X s 1787 942 m 16 X s 1771 918 m 16 Y s 1819 918 m 16 Y s 1795 926 m20 1843 859 m 11 Y s 1843 885 m 10 Y s
 1819 878 m 16 X s 1851 878 m 16 X s 1835 859 m 16 X s 1835 895 m 16 X s 1819 870 m 15 Y s 1867 870 m 15 Y s 1843 878 m20 1891 854 m 12 Y s 1891 881 m 10 Y s 1867 873 m 16 X s 1898 873 m 17 X s 1883 854 m 15 X s 1883 891 m 15 X s 1867 866 m 15 Y s
 1915 866 m 15 Y s 1891 873 m20 1939 886 m 10 Y s 1939 912 m 8 Y s 1915 904 m 16 X s 1946 904 m 17 X s 1931 886 m 15 X s 1931 920 m 15 X s 1915 896 m 16 Y s 1963 896 m 16 Y s 1939 904 m20 1987 870 m 11 Y s 1987 896 m 9 Y s 1963 888 m 16 X s 1994 888
 m 17 X s 1979 870 m 15 X s 1979 905 m 15 X s 1963 881 m 15 Y s 2011 881 m 15 Y s 1987 888 m20 2035 948 m 8 Y s 2035 971 m 6 Y s 2011 963 m 16 X s 2042 963 m 17 X s 2027 948 m 15 X s 2027 977 m 15 X s 2011 956 m 15 Y s 2059 956 m 15 Y s 2035 963 m20
 2082 975 m 7 Y s 2082 997 m 6 Y s 2059 989 m 16 X s 2090 989 m 16 X s 2075 975 m 15 X s 2075 1003 m 15 X s 2059 982 m 15 Y s 2106 982 m 15 Y s 2082 989 m20 2106 1391 m 17 X s 2138 1391 m 16 X s 2106 1384 m 15 Y s 2154 1384 m 15 Y s 2130 1391 m20 1 0
 0 c 1 1 1 c 1 0 0 c 238 1449 m 16 X s 270 1449 m 16 X s 238 1441 m 16 Y s 286 1441 m 16 Y s 262 1449 m20 310 816 m 13 Y s 310 845 m 11 Y s 286 837 m 16 X s 318 837 m 16 X s 302 816 m 16 X s 302 856 m 16 X s 286 829 m 16 Y s 334 829 m 16 Y s 310 837
 m20 358 606 m 27 Y s 358 648 m 22 Y s 334 641 m 16 X s 365 641 m 17 X s 350 606 m 15 X s 350 670 m 15 X s 334 633 m 15 Y s 382 633 m 15 Y s 358 641 m20 406 421 m 46 Y s 406 482 m 35 Y s 382 475 m 16 X s 413 475 m 17 X s 398 421 m 15 X s 398 517 m 15
 X s 382 467 m 15 Y s 430 467 m 15 Y s 406 475 m20 454 351 m 56 Y s 454 422 m 40 Y s 430 414 m 16 X s 461 414 m 17 X s 446 351 m 15 X s 446 462 m 15 X s 430 407 m 15 Y s 478 407 m 15 Y s 454 414 m20 502 396 m 49 Y s 502 460 m 37 Y s 478 452 m 16 X s
 509 452 m 17 X s 494 396 m 15 X s 494 497 m 15 X s 478 445 m 15 Y s 526 445 m 15 Y s 502 452 m20 549 433 m 44 Y s 549 492 m 34 Y s 526 485 m 16 X s 557 485 m 16 X s 542 433 m 15 X s 542 526 m 15 X s 526 477 m 15 Y s 573 477 m 15 Y s 549 485 m20 597
 518 m 34 Y s 597 568 m 27 Y s 573 560 m 17 X s 605 560 m 16 X s 590 518 m 15 X s 590 595 m 15 X s 573 552 m 16 Y s 621 552 m 16 Y s 597 560 m20 645 601 m 27 Y s 645 643 m 23 Y s 621 636 m 17 X s 653 636 m 16 X s 638 601 m 15 X s 638 666 m 15 X s 621
 628 m 15 Y s 669 628 m 15 Y s 645 636 m20 693 775 m 15 Y s 693 806 m 13 Y s 669 798 m 17 X s 701 798 m 16 X s 686 775 m 15 X s 686 819 m 15 X s 669 790 m 16 Y s 717 790 m 16 Y s 693 798 m20 741 938 m 8 Y s 741 961 m 7 Y s 717 954 m 17 X s 749 954 m
 16 X s 734 938 m 15 X s 734 968 m 15 X s 717 946 m 15 Y s 765 946 m 15 Y s 741 954 m20 789 1060 m 4 Y s 789 1079 m 3 Y s 765 1071 m 16 X s 797 1071 m 16 X s 781 1060 m 16 X s 781 1082 m 16 X s 765 1064 m 15 Y s 813 1064 m 15 Y s 789 1071 m20 837
 1033 m 4 Y s 837 1053 m 4 Y s 813 1045 m 16 X s 845 1045 m 16 X s 829 1033 m 16 X s 829 1057 m 16 X s 813 1037 m 16 Y s 861 1037 m 16 Y s 837 1045 m20 885 991 m 6 Y s 885 1012 m 5 Y s 861 1004 m 16 X s 892 1004 m 17 X s 877 991 m 15 X s 877 1017 m
 15 X s 861 997 m 15 Y s 909 997 m 15 Y s 885 1004 m20 933 966 m 7 Y s 933 989 m 6 Y s 909 981 m 16 X s 940 981 m 17 X s 925 966 m 15 X s 925 995 m 15 X s 909 973 m 16 Y s 957 973 m 16 Y s 933 981 m20 981 907 m 9 Y s 981 931 m 8 Y s 957 924 m 16 X s
 988 924 m 17 X s 973 907 m 15 X s 973 939 m 15 X s 957 916 m 15 Y s 1005 916 m 15 Y s 981 924 m20 1029 864 m 11 Y s 1029 890 m 10 Y s 1005 883 m 16 X s 1036 883 m 17 X s 1021 864 m 15 X s 1021 900 m 15 X s 1005 875 m 15 Y s 1053 875 m 15 Y s 1029
 883 m20 1076 826 m 13 Y s 1076 854 m 11 Y s 1053 846 m 16 X s 1084 846 m 16 X s 1069 826 m 15 X s 1069 865 m 15 X s 1053 839 m 15 Y s 1100 839 m 15 Y s 1076 846 m20 1124 802 m 14 Y s 1124 831 m 12 Y s 1100 823 m 17 X s 1132 823 m 16 X s 1117 802 m
 15 X s 1117 843 m 15 X s 1100 816 m 15 Y s 1148 816 m 15 Y s 1124 823 m20 1172 718 m 19 Y s 1172 752 m 16 Y s 1148 744 m 17 X s 1180 744 m 16 X s 1165 718 m 15 X s 1165 768 m 15 X s 1148 737 m 15 Y s 1196 737 m 15 Y s 1172 744 m20 1220 718 m 19 Y s
 1220 752 m 16 Y s 1196 744 m 17 X s 1228 744 m 16 X s 1213 718 m 15 X s 1213 768 m 15 X s 1196 737 m 15 Y s 1244 737 m 15 Y s 1220 744 m20 1268 688 m 20 Y s 1268 724 m 17 Y s 1244 716 m 16 X s 1276 716 m 16 X s 1260 688 m 16 X s 1260 741 m 16 X s
 1244 708 m 16 Y s 1292 708 m 16 Y s 1268 716 m20 1316 640 m 24 Y s 1316 679 m 20 Y s 1292 672 m 16 X s 1324 672 m 16 X s 1308 640 m 16 X s 1308 699 m 16 X s 1292 664 m 15 Y s 1340 664 m 15 Y s 1316 672 m20 1364 533 m 33 Y s 1364 581 m 27 Y s 1340
 574 m 16 X s 1371 574 m 17 X s 1356 533 m 15 X s 1356 608 m 15 X s 1340 566 m 15 Y s 1388 566 m 15 Y s 1364 574 m20 1412 590 m 28 Y s 1412 633 m 23 Y s 1388 626 m 16 X s 1419 626 m 17 X s 1404 590 m 15 X s 1404 656 m 15 X s 1388 618 m 15 Y s 1436
 618 m 15 Y s 1412 626 m20 1460 493 m 37 Y s 1460 545 m 30 Y s 1436 538 m 16 X s 1467 538 m 17 X s 1452 493 m 15 X s 1452 575 m 15 X s 1436 530 m 15 Y s 1484 530 m 15 Y s 1460 538 m20 1508 518 m 34 Y s 1508 568 m 27 Y s 1484 560 m 16 X s 1515 560 m
 17 X s 1500 518 m 15 X s 1500 595 m 15 X s 1484 552 m 16 Y s 1532 552 m 16 Y s 1508 560 m20 1556 533 m 33 Y s 1556 581 m 27 Y s 1532 574 m 16 X s 1563 574 m 16 X s 1548 533 m 15 X s 1548 608 m 15 X s 1532 566 m 15 Y s 1579 566 m 15 Y s 1556 574 m20
 1603 566 m 30 Y s 1603 612 m 24 Y s 1579 604 m 17 X s 1611 604 m 16 X s 1596 566 m 15 X s 1596 636 m 15 X s 1579 596 m 16 Y s 1627 596 m 16 Y s 1603 604 m20 1651 484 m 38 Y s 1651 537 m 31 Y s 1627 530 m 17 X s 1659 530 m 16 X s 1644 484 m 15 X s
 1644 568 m 15 X s 1627 522 m 15 Y s 1675 522 m 15 Y s 1651 530 m20 1699 493 m 37 Y s 1699 545 m 30 Y s 1675 538 m 17 X s 1707 538 m 16 X s 1692 493 m 15 X s 1692 575 m 15 X s 1675 530 m 15 Y s 1723 530 m 15 Y s 1699 538 m20 1747 611 m 27 Y s 1747
 653 m 21 Y s 1723 645 m 17 X s 1755 645 m 16 X s 1740 611 m 15 X s 1740 674 m 15 X s 1723 638 m 15 Y s 1771 638 m 15 Y s 1747 645 m20 1795 547 m 32 Y s 1795 594 m 26 Y s 1771 586 m 16 X s 1803 586 m 16 X s 1787 547 m 16 X s 1787 620 m 16 X s 1771
 579 m 15 Y s 1819 579 m 15 Y s 1795 586 m20 1843 493 m 37 Y s 1843 545 m 30 Y s 1819 538 m 16 X s 1851 538 m 16 X s 1835 493 m 16 X s 1835 575 m 16 X s 1819 530 m 15 Y s 1867 530 m 15 Y s 1843 538 m20 1891 493 m 37 Y s 1891 545 m 30 Y s 1867 538 m
 16 X s 1898 538 m 17 X s 1883 493 m 15 X s 1883 575 m 15 X s 1867 530 m 15 Y s 1915 530 m 15 Y s 1891 538 m20 1939 525 m 34 Y s 1939 574 m 28 Y s 1915 567 m 16 X s 1946 567 m 17 X s 1931 525 m 15 X s 1931 602 m 15 X s 1915 559 m 15 Y s 1963 559 m 15
 Y s 1939 567 m20 1987 421 m 46 Y s 1987 482 m 35 Y s 1963 475 m 16 X s 1994 475 m 17 X s 1979 421 m 15 X s 1979 517 m 15 X s 1963 467 m 15 Y s 2011 467 m 15 Y s 1987 475 m20 2035 221 m 78 Y s 2035 314 m 53 Y s 2011 307 m 16 X s 2042 307 m 17 X s
 2027 221 m 15 X s 2027 367 m 15 X s 2011 299 m 15 Y s 2059 299 m 15 Y s 2035 307 m20 2082 201 m 45 Y s 2082 261 m 60 Y s 2059 254 m 16 X s 2090 254 m 16 X s 2075 201 m 15 X s 2075 321 m 15 X s 2059 246 m 15 Y s 2106 246 m 15 Y s 2082 254 m20 black
 gsave  2268 1676 0 0 C 272.126 1240.34 t 0 r /Helvetica-Bold findfont 49.2982 sf 0 0 m (Kolmogorov\255Smirnov test: signal \(background\) probability = 0.672 \(0.619\)) show NC gr  238 201 m 1916 X s 427 244 m -43 Y s 465 222 m -21 Y s 504 222 m -21
 Y s 542 222 m -21 Y s 580 222 m -21 Y s 619 244 m -43 Y s 657 222 m -21 Y s 696 222 m -21 Y s 734 222 m -21 Y s 772 222 m -21 Y s 811 244 m -43 Y s 849 222 m -21 Y s 888 222 m -21 Y s 926 222 m -21 Y s 964 222 m -21 Y s 1003 244 m -43 Y s 1041 222 m
 -21 Y s 1079 222 m -21 Y s 1118 222 m -21 Y s 1156 222 m -21 Y s 1195 244 m -43 Y s 1233 222 m -21 Y s 1271 222 m -21 Y s 1310 222 m -21 Y s 1348 222 m -21 Y s 1387 244 m -43 Y s 1425 222 m -21 Y s 1463 222 m -21 Y s 1502 222 m -21 Y s 1540 222 m
 -21 Y s 1578 244 m -43 Y s 1617 222 m -21 Y s 1655 222 m -21 Y s 1694 222 m -21 Y s 1732 222 m -21 Y s 1770 244 m -43 Y s 1809 222 m -21 Y s 1847 222 m -21 Y s 1886 222 m -21 Y s 1924 222 m -21 Y s 1962 244 m -43 Y s 2001 222 m -21 Y s 2039 222 m
 -21 Y s 2078 222 m -21 Y s 2116 222 m -21 Y s 2154 244 m -43 Y s 427 244 m -43 Y s 388 222 m -21 Y s 350 222 m -21 Y s 312 222 m -21 Y s 273 222 m -21 Y s 2154 244 m -43 Y s 238 1509 m 1916 X s 427 1466 m 43 Y s 465 1487 m 22 Y s 504 1487 m 22 Y s
 542 1487 m 22 Y s 580 1487 m 22 Y s 619 1466 m 43 Y s 657 1487 m 22 Y s 696 1487 m 22 Y s 734 1487 m 22 Y s 772 1487 m 22 Y s 811 1466 m 43 Y s 849 1487 m 22 Y s 888 1487 m 22 Y s 926 1487 m 22 Y s 964 1487 m 22 Y s 1003 1466 m 43 Y s 1041 1487 m 22
 Y s 1079 1487 m 22 Y s 1118 1487 m 22 Y s 1156 1487 m 22 Y s 1195 1466 m 43 Y s 1233 1487 m 22 Y s 1271 1487 m 22 Y s 1310 1487 m 22 Y s 1348 1487 m 22 Y s 1387 1466 m 43 Y s 1425 1487 m 22 Y s 1463 1487 m 22 Y s 1502 1487 m 22 Y s 1540 1487 m 22 Y
 s 1578 1466 m 43 Y s 1617 1487 m 22 Y s 1655 1487 m 22 Y s 1694 1487 m 22 Y s 1732 1487 m 22 Y s 1770 1466 m 43 Y s 1809 1487 m 22 Y s 1847 1487 m 22 Y s 1886 1487 m 22 Y s 1924 1487 m 22 Y s 1962 1466 m 43 Y s 2001 1487 m 22 Y s 2039 1487 m 22 Y s
 2078 1487 m 22 Y s 2116 1487 m 22 Y s 2154 1466 m 43 Y s 427 1466 m 43 Y s 388 1487 m 22 Y s 350 1487 m 22 Y s 312 1487 m 22 Y s 273 1487 m 22 Y s 2154 1466 m 43 Y s 238 201 m 1308 Y s 265 230 m -27 X s 265 268 m -27 X s 265 300 m -27 X s 265 328 m
 -27 X s 265 353 m -27 X s 291 375 m -53 X s 265 521 m -27 X s 265 606 m -27 X s 265 667 m -27 X s 265 714 m -27 X s 265 752 m -27 X s 265 785 m -27 X s 265 813 m -27 X s 265 838 m -27 X s 291 860 m -53 X s 265 1006 m -27 X s 265 1091 m -27 X s 265
 1151 m -27 X s 265 1198 m -27 X s 265 1237 m -27 X s 265 1269 m -27 X s 265 1297 m -27 X s 265 1322 m -27 X s 291 1344 m -53 X s 265 1490 m -27 X s 2154 201 m 1308 Y s 2128 230 m 26 X s 2128 268 m 26 X s 2128 300 m 26 X s 2128 328 m 26 X s 2128 353
 m 26 X s 2101 375 m 53 X s 2128 521 m 26 X s 2128 606 m 26 X s 2128 667 m 26 X s 2128 714 m 26 X s 2128 752 m 26 X s 2128 785 m 26 X s 2128 813 m 26 X s 2128 838 m 26 X s 2101 860 m 53 X s 2128 1006 m 26 X s 2128 1091 m 26 X s 2128 1151 m 26 X s
 2128 1198 m 26 X s 2128 1237 m 26 X s 2128 1269 m 26 X s 2128 1297 m 26 X s 2128 1322 m 26 X s 2101 1344 m 53 X s 2128 1490 m 26 X s
 gsave  2268 1676 0 0 C 2211.02 192.756 t 90 r /Helvetica-Bold findfont 45.506 sf 0 0 m (U/O\255flow \(S,B\): \(0.0, 0.0\)% / \(0.0, 0.0\)%) show NC gr  0.490196 0.545098 0.615686 c 0.364706 0.419608 0.490196 c 1587 96 23 1572 bf 0.490196 0.545098
 0.615686 c 23 1572 m 1587 X s 1610 1572 m 96 Y s 1610 1668 m -1587 X s 23 1668 m -96 Y s 1 1 1 c black 1 1 1 c
 gsave  2268 1676 0 0 C 72.0512 1604.09 t 0 r /Helvetica-Bold findfont 64.4669 sf 0 0 m (TMVA overtraining check for classifier: MLPBNN) show NC gr 
 gr  gr showpage
end
%%EOF
