%!PS-Adobe-2.0 EPSF-2.0
%%BoundingBox:  0 0 567 419
%%Title: : TMVA comparison MLP
%%Creator: ROOT Version 6.12/06
%%CreationDate: Mon May 21 12:03:53 2018
%%DocumentNeededResources: ProcSet (FontSetInit)
%%EndComments
%%BeginProlog
80 dict begin
/s {stroke} def /l {lineto} def /m {moveto} def /t {translate} def
/r {rotate} def /rl {roll}  def /R {repeat} def
/d {rlineto} def /rm {rmoveto} def /gr {grestore} def /f {eofill} def
/c {setrgbcolor} def /black {0 setgray} def /sd {setdash} def
/cl {closepath} def /sf {scalefont setfont} def /lw {setlinewidth} def
/box {m dup 0 exch d exch 0 d 0 exch neg d cl} def
/NC{systemdict begin initclip end}def/C{NC box clip newpath}def
/bl {box s} def /bf {gsave box gsave f grestore 1 lw [] 0 sd s grestore} def /Y { 0 exch d} def /X { 0 d} def 
/K {{pop pop 0 moveto} exch kshow} bind def
/ita {/ang 15 def gsave [1 0 ang dup sin exch cos div 1 0 0] concat} def 
/mp {newpath /y exch def /x exch def} def
/side {[w .77 mul w .23 mul] .385 w mul sd w 0 l currentpoint t -144 r} def
/mr {mp x y w2 0 360 arc} def /m24 {mr s} def /m20 {mr f} def
/mb {mp x y w2 add m w2 neg 0 d 0 w neg d w 0 d 0 w d cl} def
/mt {mp x y w2 add m w2 neg w neg d w 0 d cl} def
/w4 {w 4 div} def
/w6 {w 6 div} def
/w8 {w 8 div} def
/m21 {mb f} def /m25 {mb s} def /m22 {mt f} def /m26{mt s} def
/m23 {mp x y w2 sub m w2 w d w neg 0 d cl f} def
/m27 {mp x y w2 add m w3 neg w2 neg d w3 w2 neg d w3 w2 d cl s} def
/m28 {mp x w2 sub y w2 sub w3 add m w3 0 d  0 w3 neg d w3 0 d 0 w3 d w3 0 d  0 w3 d w3 neg 0 d 0 w3 d w3 neg 0 d 0 w3 neg d w3 neg 0 d cl s } def
/m29 {mp gsave x w2 sub y w2 add w3 sub m currentpoint t 4 {side} repeat cl fill gr} def
/m30 {mp gsave x w2 sub y w2 add w3 sub m currentpoint t 4 {side} repeat cl s gr} def
/m31 {mp x y w2 sub m 0 w d x w2 sub y m w 0 d x w2 sub y w2 add m w w neg d x w2 sub y w2 sub m w w d s} def
/m32 {mp x y w2 sub m w2 w d w neg 0 d cl s} def
/m33 {mp x y w2 add m w3 neg w2 neg d w3 w2 neg d w3 w2 d cl f} def
/m34 {mp x w2 sub y w2 sub w3 add m w3 0 d  0 w3 neg d w3 0 d 0 w3 d w3 0 d  0 w3 d w3 neg 0 d 0 w3 d w3 neg 0 d 0 w3 neg d w3 neg 0 d cl f } def
/m35 {mp x y w2 add m w2 neg w2 neg d w2 w2 neg d w2 w2 d w2 neg w2 d x y w2 sub m 0 w d x w2 sub y m w 0 d s} def
/m36 {mb x w2 sub y w2 add m w w neg d x w2 sub y w2 sub m w w d s} def
/m37 {mp x y m w4 neg w2 d w4 neg w2 neg d w2 0 d  w4 neg w2 neg d w2 0 d w4 neg w2 d w2 0 d w4 neg w2 d w4 neg w2 neg d cl s} def
/m38 {mp x w4 sub y w2 add m w4 neg w4 neg d 0 w2 neg d w4 w4 neg d w2 0 d w4 w4 d 0 w2 d w4 neg w4 d w2 neg 0 d x y w2 sub m 0 w d x w2 sub y m w 0 d cl s} def
/m39 {mp x y m w4 neg w2 d w4 neg w2 neg d w2 0 d  w4 neg w2 neg d w2 0 d w4 neg w2 d w2 0 d w4 neg w2 d w4 neg w2 neg d cl f} def
/m40 {mp x y m w4 w2 d w4 w4 neg d w2 neg w4 neg d w2 w4 neg d w4 neg w4 neg d w4 neg w2 d w4 neg w2 neg d w4 neg w4 d w2 w4 d w2 neg w4 d w4 w4 d w4 w2 neg d cl s} def
/m41 {mp x y m w4 w2 d w4 w4 neg d w2 neg w4 neg d w2 w4 neg d w4 neg w4 neg d w4 neg w2 d w4 neg w2 neg d w4 neg w4 d w2 w4 d w2 neg w4 d w4 w4 d w4 w2 neg d cl f} def
/m42 {mp x y w2 add m w8 neg w2 -3 4 div mul d w2 -3 4 div mul w8 neg d w2 3 4 div mul w8 neg d w8 w2 -3 4 div mul d w8 w2 3 4 div mul d w2 3 4 div mul w8 d w2 -3 4 div mul w8 d w8 neg w2 3 4 div mul d cl s} def
/m43 {mp x y w2 add m w8 neg w2 -3 4 div mul d w2 -3 4 div mul w8 neg d w2 3 4 div mul w8 neg d w8 w2 -3 4 div mul d w8 w2 3 4 div mul d w2 3 4 div mul w8 d w2 -3 4 div mul w8 d w8 neg w2 3 4 div mul d cl f} def
/m44 {mp x y m w6 neg w2 d w2 2 3 div mul 0 d w6 neg w2 neg d w2 w6 d 0 w2 -2 3 div mul d w2 neg w6 d w6 w2 neg d w2 -2 3 div mul 0 d w6 w2 d w2 neg w6 neg d 0 w2 2 3 div mul d w2 w6 neg d cl s} def
/m45 {mp x y m w6 neg w2 d w2 2 3 div mul 0 d w6 neg w2 neg d w2 w6 d 0 w2 -2 3 div mul d w2 neg w6 d w6 w2 neg d w2 -2 3 div mul 0 d w6 w2 d w2 neg w6 neg d 0 w2 2 3 div mul d w2 w6 neg d cl f} def
/m46 {mp x y w4 add m w4 neg w4 d w4 neg w4 neg d  w4 w4 neg d w4 neg w4 neg d w4 w4 neg d w4 w4 d w4 w4 neg d w4 w4 d w4 neg w4 d w4 w4 d w4 neg w4 d w4 neg w4 neg d cl s} def
/m47 {mp x y w4 add m w4 neg w4 d w4 neg w4 neg d w4 w4 neg d w4 neg w4 neg d  w4 w4 neg d w4 w4 d w4 w4 neg d w4 w4 d w4 neg w4 d w4 w4 d w4 neg w4 d w4 neg w4 neg d cl f} def
/m48 {mp x y w4 add m w4 neg w4 d w4 neg w4 neg d w4 w4 neg d  w4 neg w4 neg d w4 w4 neg d w4 w4 d w4 w4 neg d w4 w4 d w4 neg w4 d w4 w4 d w4 neg w4 d w4 neg w4 neg d  w4 w4 neg d w4 neg w4 neg d w4 neg w4 d w4 w4 d cl f} def
/m49 {mp x w2 sub w3 add y w2 sub w3 add m  0 w3 neg d w3 0 d 0 w3 d w3 0 d 0 w3 d w3 neg 0 d 0 w3 d w3 neg 0 d 0 w3 neg d w3 neg 0 d 0 w3 neg d w3 0 d 0 w3 d w3 0 d 0 w3 neg d w3 neg 0 d cl f } def
/m2 {mp x y w2 sub m 0 w d x w2 sub y m w 0 d s} def
/m5 {mp x w2 sub y w2 sub m w w d x w2 sub y w2 add m w w neg d s} def
%%IncludeResource: ProcSet (FontSetInit)
%%IncludeResource: font Times-Roman
%%IncludeResource: font Times-Italic
%%IncludeResource: font Times-Bold
%%IncludeResource: font Times-BoldItalic
%%IncludeResource: font Helvetica
%%IncludeResource: font Helvetica-Oblique
%%IncludeResource: font Helvetica-Bold
%%IncludeResource: font Helvetica-BoldOblique
%%IncludeResource: font Courier
%%IncludeResource: font Courier-Oblique
%%IncludeResource: font Courier-Bold
%%IncludeResource: font Courier-BoldOblique
%%IncludeResource: font Symbol
%%IncludeResource: font ZapfDingbats
/reEncode {exch findfont dup length dict begin {1 index /FID eq  {pop pop} {def} ifelse } forall /Encoding exch def currentdict end dup /FontName get exch definefont pop } def [/Times-Bold /Times-Italic /Times-BoldItalic /Helvetica /Helvetica-Oblique
 /Helvetica-Bold /Helvetica-BoldOblique /Courier /Courier-Oblique /Courier-Bold /Courier-BoldOblique /Times-Roman /AvantGarde-Book /AvantGarde-BookOblique /AvantGarde-Demi /AvantGarde-DemiOblique /Bookman-Demi /Bookman-DemiItalic /Bookman-Light
 /Bookman-LightItalic /Helvetica-Narrow /Helvetica-Narrow-Bold /Helvetica-Narrow-BoldOblique /Helvetica-Narrow-Oblique /NewCenturySchlbk-Roman /NewCenturySchlbk-Bold /NewCenturySchlbk-BoldItalic /NewCenturySchlbk-Italic /Palatino-Bold
 /Palatino-BoldItalic /Palatino-Italic /Palatino-Roman ] {ISOLatin1Encoding reEncode } forall
%%EndProlog
%%BeginSetup
%%EndSetup
newpath  gsave  .25 .25 scale  gsave  0 0 t 0.490196 0.545098 0.615686 c[  ] 0 sd 3 lw 0.941176 0.941176 0.941176 c 2268 1676 0 0 bf black 1 1 0.992157 c 1916 1308 238 201 bf black 1916 1308 238 201 bl 1 1 0.992157 c 1916 1308 238 201 bf black 1916
 1308 238 201 bl 238 201 m 1916 X s 430 244 m -43 Y s 468 222 m -21 Y s 506 222 m -21 Y s 545 222 m -21 Y s 583 222 m -21 Y s 621 244 m -43 Y s 660 222 m -21 Y s 698 222 m -21 Y s 736 222 m -21 Y s 775 222 m -21 Y s 813 244 m -43 Y s 851 222 m -21 Y
 s 890 222 m -21 Y s 928 222 m -21 Y s 966 222 m -21 Y s 1005 244 m -43 Y s 1043 222 m -21 Y s 1081 222 m -21 Y s 1120 222 m -21 Y s 1158 222 m -21 Y s 1196 244 m -43 Y s 1234 222 m -21 Y s 1273 222 m -21 Y s 1311 222 m -21 Y s 1349 222 m -21 Y s
 1388 244 m -43 Y s 1426 222 m -21 Y s 1464 222 m -21 Y s 1503 222 m -21 Y s 1541 222 m -21 Y s 1579 244 m -43 Y s 1618 222 m -21 Y s 1656 222 m -21 Y s 1694 222 m -21 Y s 1733 222 m -21 Y s 1771 244 m -43 Y s 1809 222 m -21 Y s 1848 222 m -21 Y s
 1886 222 m -21 Y s 1924 222 m -21 Y s 1963 244 m -43 Y s 2001 222 m -21 Y s 2039 222 m -21 Y s 2078 222 m -21 Y s 2116 222 m -21 Y s 2154 244 m -43 Y s 430 244 m -43 Y s 391 222 m -21 Y s 353 222 m -21 Y s 315 222 m -21 Y s 276 222 m -21 Y s 2154
 244 m -43 Y s
 gsave  2268 1676 0 0 C 386.801 128.934 t 0 r /Helvetica-Bold findfont 64.4669 sf 0 0 m (0.1) show NC gr 
 gsave  2268 1676 0 0 C 572.617 128.934 t 0 r /Helvetica-Bold findfont 64.4669 sf 0 0 m (0.2) show NC gr 
 gsave  2268 1676 0 0 C 766.018 128.934 t 0 r /Helvetica-Bold findfont 64.4669 sf 0 0 m (0.3) show NC gr 
 gsave  2268 1676 0 0 C 955.626 128.934 t 0 r /Helvetica-Bold findfont 64.4669 sf 0 0 m (0.4) show NC gr 
 gsave  2268 1676 0 0 C 1149.03 128.934 t 0 r /Helvetica-Bold findfont 64.4669 sf 0 0 m (0.5) show NC gr 
 gsave  2268 1676 0 0 C 1338.64 128.934 t 0 r /Helvetica-Bold findfont 64.4669 sf 0 0 m (0.6) show NC gr 
 gsave  2268 1676 0 0 C 1532.04 128.934 t 0 r /Helvetica-Bold findfont 64.4669 sf 0 0 m (0.7) show NC gr 
 gsave  2268 1676 0 0 C 1725.44 128.934 t 0 r /Helvetica-Bold findfont 64.4669 sf 0 0 m (0.8) show NC gr 
 gsave  2268 1676 0 0 C 1915.04 128.934 t 0 r /Helvetica-Bold findfont 64.4669 sf 0 0 m (0.9) show NC gr 
 gsave  2268 1676 0 0 C 2138.78 128.934 t 0 r /Helvetica-Bold findfont 64.4669 sf 0 0 m (1) show NC gr 
 gsave  2268 1676 0 0 C 1660.97 34.1295 t 0 r /Helvetica-Bold findfont 72.0512 sf 0 0 m (MLP response) show NC gr  238 1509 m 1916 X s 430 1466 m 43 Y s 468 1487 m 22 Y s 506 1487 m 22 Y s 545 1487 m 22 Y s 583 1487 m 22 Y s 621 1466 m 43 Y s 660
 1487 m 22 Y s 698 1487 m 22 Y s 736 1487 m 22 Y s 775 1487 m 22 Y s 813 1466 m 43 Y s 851 1487 m 22 Y s 890 1487 m 22 Y s 928 1487 m 22 Y s 966 1487 m 22 Y s 1005 1466 m 43 Y s 1043 1487 m 22 Y s 1081 1487 m 22 Y s 1120 1487 m 22 Y s 1158 1487 m 22
 Y s 1196 1466 m 43 Y s 1234 1487 m 22 Y s 1273 1487 m 22 Y s 1311 1487 m 22 Y s 1349 1487 m 22 Y s 1388 1466 m 43 Y s 1426 1487 m 22 Y s 1464 1487 m 22 Y s 1503 1487 m 22 Y s 1541 1487 m 22 Y s 1579 1466 m 43 Y s 1618 1487 m 22 Y s 1656 1487 m 22 Y
 s 1694 1487 m 22 Y s 1733 1487 m 22 Y s 1771 1466 m 43 Y s 1809 1487 m 22 Y s 1848 1487 m 22 Y s 1886 1487 m 22 Y s 1924 1487 m 22 Y s 1963 1466 m 43 Y s 2001 1487 m 22 Y s 2039 1487 m 22 Y s 2078 1487 m 22 Y s 2116 1487 m 22 Y s 2154 1466 m 43 Y s
 430 1466 m 43 Y s 391 1487 m 22 Y s 353 1487 m 22 Y s 315 1487 m 22 Y s 276 1487 m 22 Y s 2154 1466 m 43 Y s 238 201 m 1308 Y s 265 212 m -27 X s 265 259 m -27 X s 265 297 m -27 X s 265 330 m -27 X s 265 358 m -27 X s 265 382 m -27 X s 291 405 m -53
 X s
 gsave  2268 1676 0 0 C 182.024 405.762 t 0 r /Helvetica-Bold findfont 41.7138 sf 0 0 m (1) show NC gr 
 gsave  2268 1676 0 0 C 159.271 405.762 t 0 r /Symbol findfont 41.7138 sf 0 0 m (-) show NC gr 
 gsave  2268 1676 0 0 C 87.2199 375.425 t 0 r /Helvetica-Bold findfont 64.4669 sf 0 0 m (10) show NC gr  265 550 m -27 X s 265 636 m -27 X s 265 696 m -27 X s 265 743 m -27 X s 265 781 m -27 X s 265 814 m -27 X s 265 842 m -27 X s 265 867 m -27 X s
 291 889 m -53 X s
 gsave  2268 1676 0 0 C 174.44 864.614 t 0 r /Helvetica-Bold findfont 64.4669 sf 0 0 m (1) show NC gr  265 1035 m -27 X s 265 1120 m -27 X s 265 1181 m -27 X s 265 1228 m -27 X s 265 1266 m -27 X s 265 1298 m -27 X s 265 1326 m -27 X s 265 1351 m -27
 X s 291 1373 m -53 X s
 gsave  2268 1676 0 0 C 128.934 1350.01 t 0 r /Helvetica-Bold findfont 64.4669 sf 0 0 m (10) show NC gr 
 gsave  2268 1676 0 0 C 64.4669 1425.86 t 90 r /Helvetica-Bold findfont 72.0512 sf 0 0 m (dx) show NC gr 
 gsave  2268 1676 0 0 C 30.3373 1406.89 t 90 r /Helvetica-Bold findfont 45.506 sf 0 0 m ( ) show NC gr 
 gsave  2268 1676 0 0 C 64.4669 1384.14 t 90 r /Helvetica-Bold findfont 72.0512 sf 0 0 m (/) show NC gr 
 gsave  2268 1676 0 0 C 30.3373 1365.18 t 90 r /Helvetica-Bold findfont 45.506 sf 0 0 m ( ) show NC gr 
 gsave  2268 1676 0 0 C 60.6747 1092.14 t 90 r /Helvetica-Bold findfont 72.0512 sf 0 0 m (\(1/N\) dN) show NC gr  2154 201 m 1308 Y s 2128 212 m 26 X s 2128 259 m 26 X s 2128 297 m 26 X s 2128 330 m 26 X s 2128 358 m 26 X s 2128 382 m 26 X s 2101 405
 m 53 X s 2128 550 m 26 X s 2128 636 m 26 X s 2128 696 m 26 X s 2128 743 m 26 X s 2128 781 m 26 X s 2128 814 m 26 X s 2128 842 m 26 X s 2128 867 m 26 X s 2101 889 m 53 X s 2128 1035 m 26 X s 2128 1120 m 26 X s 2128 1181 m 26 X s 2128 1228 m 26 X s
 2128 1266 m 26 X s 2128 1298 m 26 X s 2128 1326 m 26 X s 2128 1351 m 26 X s 2101 1373 m 53 X s 0.490196 0.545098 0.615686 c 1 1 1 c 0.490196 0.545098 0.615686 c 907 202 238 1307 bl 238 1307 m 907 X s 1145 1307 m 202 Y s 1145 1509 m -907 X s 238 1509
 m -202 Y s black
 gsave  2268 1676 0 0 C 417.138 1437.23 t 0 r /Helvetica-Bold findfont 56.8825 sf 0 0 m (Signal \(test sample\)) show NC gr  0.49 0.6 0.82 c 265 1423 m 127 X 70 Y -127 X f 0 0 0.933333 c 265 1493 m 127 X s 265 1423 m 127 X s 392 1423 m 70 Y s 265
 1423 m 70 Y s black
 gsave  2268 1676 0 0 C 417.138 1338.64 t 0 r /Helvetica-Bold findfont 56.8825 sf 0 0 m (Background \(test sample\)) show NC gr  1 0 0 c 392 1354 m -32 -32 d s 383 1393 m -71 -71 d s 335 1393 m -70 -69 d s 286 1393 m -21 -21 d s 0 0 0.933333 c 1 0 0
 c 265 1393 m 127 X s 265 1322 m 127 X s 392 1322 m 71 Y s 265 1322 m 71 Y s 0 0 0.933333 c 0.49 0.6 0.82 c black 0.49 0.6 0.82 c 2154 201 m -1916 X 195 Y 48 X -146 Y 48 X -38 Y 48 X -11 Y 144 X 491 Y 47 X 95 Y 48 X 16 Y 48 X -79 Y 48 X 27 Y 48 X -51
 Y 48 X 48 Y 48 X -48 Y 48 X 20 Y 96 X -28 Y 48 X 28 Y 47 X 31 Y 48 X -55 Y 48 X 42 Y 48 X -42 Y 48 X 68 Y 48 X -16 Y 48 X -10 Y 96 X 3 Y 48 X 74 Y 47 X -23 Y 48 X 74 Y 48 X 9 Y 48 X 33 Y 48 X 114 Y 48 X 6 Y 48 X -60 Y 48 X 12 Y 48 X 5 Y 48 X 8 Y 48
 X 63 Y 47 X 376 Y 48 X f 0 0 0.933333 c 0.49 0.6 0.82 c 0 0 0.933333 c 238 396 m 48 X -146 Y 48 X -38 Y 48 X -11 Y 144 X 491 Y 47 X 95 Y 48 X 16 Y 48 X -79 Y 48 X 27 Y 48 X -51 Y 48 X 48 Y 48 X -48 Y 48 X 20 Y 96 X -28 Y 48 X 28 Y 47 X 31 Y 48 X -55
 Y 48 X 42 Y 48 X -42 Y 48 X 68 Y 48 X -16 Y 48 X -10 Y 96 X 3 Y 48 X 74 Y 47 X -23 Y 48 X 74 Y 48 X 9 Y 48 X 33 Y 48 X 114 Y 48 X 6 Y 48 X -60 Y 48 X 12 Y 48 X 5 Y 48 X 8 Y 48 X 63 Y 47 X 376 Y 48 X s 1 0 0 c black 1 0 0 c 2154 230 m -29 -29 d s
 2154 278 m -77 -77 d s 2111 283 m -82 -82 d s 2106 327 m -125 -126 d s 2089 358 m -156 -157 d s 2059 375 m -174 -174 d s 2059 423 m -222 -222 d s 2059 471 m -270 -270 d s 2059 519 m -318 -318 d s 2015 523 m -4 -4 d s 1984 493 m -292 -292 d s 1963
 520 m -319 -319 d s 1919 523 m -323 -322 d s 1915 568 m -367 -367 d s 1915 616 m -415 -415 d s 1915 664 m -463 -463 d s 1890 688 m -486 -487 d s 1819 664 m -463 -463 d s 1819 713 m -48 -48 d s 1734 627 m -11 -10 d s 1688 582 m -380 -381 d s 1796 738
 m -25 -25 d s 1640 582 m -381 -381 d s 1625 615 m -414 -414 d s 1544 582 m -12 -13 d s 1512 550 m -349 -349 d s 1484 570 m -369 -369 d s 1484 618 m -417 -417 d s 1456 638 m -20 -20 d s 1420 602 m -401 -401 d s 1388 618 m -417 -417 d s 1388 666 m -48
 -48 d s 1303 582 m -380 -381 d s 1343 669 m -3 -3 d s 1292 619 m -417 -418 d s 1292 667 m -465 -466 d s 1260 683 m -482 -482 d s 1230 700 m -500 -499 d s 1160 679 m -478 -478 d s 1148 715 m -514 -514 d s 1148 763 m -48 -47 d s 1097 712 m -511 -511 d
 s 1107 770 m -7 -6 d s 1053 716 m -515 -515 d s 1053 764 m -563 -563 d s 1011 770 m -569 -569 d s 977 784 m -583 -583 d s 957 812 m -612 -611 d s 944 848 m -647 -647 d s 909 861 m -660 -660 d s 892 892 m -654 -654 d s 861 909 m -623 -623 d s 821 917
 m -583 -583 d s 789 933 m -263 -263 d s 483 627 m -5 -5 d s 471 615 m -233 -233 d s 761 954 m -235 -236 d s 430 622 m -192 -191 d s 717 958 m -191 -192 d s 424 664 m -186 -185 d s 717 1006 m -191 -192 d s 382 670 m -144 -143 d s 682 1019 m -156 -157
 d s 382 719 m -144 -144 d s 663 1048 m -137 -138 d s 382 767 m -144 -144 d s 621 1054 m -95 -96 d s 382 815 m -144 -144 d s 621 1102 m -48 -47 d s 526 1007 m s 346 827 m -108 -108 d s 576 1105 m -3 -2 d s 334 863 m -96 -96 d s 334 911 m -96 -96 d s
 334 959 m -96 -96 d s 334 1007 m -96 -95 d s 296 1017 m -58 -57 d s 286 1056 m -48 -48 d s 286 1104 m -48 -48 d s 286 1152 m -48 -48 d s 286 1200 m -48 -48 d s 286 1248 m -48 -48 d s 286 1296 m -48 -48 d s 286 1344 m -48 -48 d s 286 1392 m -48 -47 d
 s 286 1441 m -48 -48 d s 251 1453 m -13 -12 d s 238 1453 m 48 X -436 Y 48 X -190 Y 48 X -163 Y 48 X -49 Y 48 X 12 Y 48 X 380 Y 47 X 98 Y 48 X -57 Y 48 X -29 Y 48 X -65 Y 48 X -21 Y 48 X -16 Y 48 X -25 Y 48 X -44 Y 48 X -64 Y 48 X -14 Y 48 X -58 Y 47
 X 58 Y 48 X -91 Y 48 X 21 Y 48 X -17 Y 48 X -101 Y 48 X 87 Y 48 X -67 Y 48 X 36 Y 48 X -88 Y 48 X 32 Y 47 X 33 Y 48 X -33 Y 96 X 45 Y 48 X 111 Y 48 X -74 Y 48 X 24 Y 48 X -165 Y 48 X -30 Y 48 X 30 Y 48 X -165 Y 47 X -75 Y 48 X s 0.490196 0.545098
 0.615686 c 1 1 1 c 0.490196 0.545098 0.615686 c 952 202 1202 1307 bl 1202 1307 m 952 X s 2154 1307 m 202 Y s 2154 1509 m -952 X s 1202 1509 m -202 Y s black
 gsave  2268 1676 0 0 C 1296.92 1437.23 t 0 r /Helvetica-Bold findfont 56.8825 sf 0 0 m (Signal \(training sample\)) show NC gr  0 0 0.933333 c /w 21 def /w2 {w 2 div} def /w3 {w 3 div} def 1250 1458 m20 black
 gsave  2268 1676 0 0 C 1296.92 1338.64 t 0 r /Helvetica-Bold findfont 56.8825 sf 0 0 m (Background \(training sample\)) show NC gr  1 0 0 c 1250 1358 m20 0 0 0.933333 c 1 1 1 c 0 0 0.933333 c 262 250 m 78 Y s 262 343 m 53 Y s 238 335 m 16 X s 270
 335 m 16 X s 254 250 m 16 X s 254 396 m 16 X s 238 328 m 15 Y s 286 328 m 15 Y s 262 335 m20 310 201 m 42 Y s 310 258 m 64 Y s 286 250 m 16 X s 318 250 m 16 X s 302 201 m 16 X s 302 322 m 16 X s 286 243 m 15 Y s 334 243 m 15 Y s 310 250 m20 358 219
 m 84 Y s 358 318 m 56 Y s 334 311 m 16 X s 365 311 m 17 X s 350 219 m 15 X s 350 374 m 15 X s 334 303 m 15 Y s 382 303 m 15 Y s 358 311 m20 502 219 m 84 Y s 502 318 m 56 Y s 478 311 m 16 X s 509 311 m 17 X s 494 219 m 15 X s 494 374 m 15 X s 478 303
 m 15 Y s 526 303 m 15 Y s 502 311 m20 549 561 m 34 Y s 549 610 m 27 Y s 526 602 m 16 X s 557 602 m 16 X s 542 561 m 15 X s 542 637 m 15 X s 526 595 m 15 Y s 573 595 m 15 Y s 549 602 m20 597 762 m 17 Y s 597 795 m 15 Y s 573 787 m 17 X s 605 787 m 16
 X s 590 762 m 15 X s 590 810 m 15 X s 573 779 m 16 Y s 621 779 m 16 Y s 597 787 m20 645 740 m 19 Y s 645 775 m 16 Y s 621 767 m 17 X s 653 767 m 16 X s 638 740 m 15 X s 638 791 m 15 X s 621 759 m 16 Y s 669 759 m 16 Y s 645 767 m20 693 784 m 16 Y s
 693 815 m 14 Y s 669 808 m 17 X s 701 808 m 16 X s 686 784 m 15 X s 686 829 m 15 X s 669 800 m 15 Y s 717 800 m 15 Y s 693 808 m20 741 716 m 21 Y s 741 752 m 18 Y s 717 745 m 17 X s 749 745 m 16 X s 734 716 m 15 X s 734 770 m 15 X s 717 737 m 15 Y s
 765 737 m 15 Y s 741 745 m20 789 698 m 22 Y s 789 735 m 18 Y s 765 727 m 16 X s 797 727 m 16 X s 781 698 m 16 X s 781 753 m 16 X s 765 720 m 15 Y s 813 720 m 15 Y s 789 727 m20 837 720 m 21 Y s 837 756 m 17 Y s 813 748 m 16 X s 845 748 m 16 X s 829
 720 m 16 X s 829 773 m 16 X s 813 741 m 15 Y s 861 741 m 15 Y s 837 748 m20 885 705 m 22 Y s 885 742 m 18 Y s 861 735 m 16 X s 892 735 m 17 X s 877 705 m 15 X s 877 760 m 15 X s 861 727 m 15 Y s 909 727 m 15 Y s 885 735 m20 933 720 m 21 Y s 933 756
 m 17 Y s 909 748 m 16 X s 940 748 m 17 X s 925 720 m 15 X s 925 773 m 15 X s 909 741 m 15 Y s 957 741 m 15 Y s 933 748 m20 981 664 m 25 Y s 981 704 m 20 Y s 957 696 m 16 X s 988 696 m 17 X s 973 664 m 15 X s 973 724 m 15 X s 957 689 m 15 Y s 1005
 689 m 15 Y s 981 696 m20 1029 624 m 28 Y s 1029 667 m 23 Y s 1005 660 m 16 X s 1036 660 m 17 X s 1021 624 m 15 X s 1021 690 m 15 X s 1005 652 m 15 Y s 1053 652 m 15 Y s 1029 660 m20 1076 630 m 27 Y s 1076 672 m 22 Y s 1053 664 m 16 X s 1084 664 m 16
 X s 1069 630 m 15 X s 1069 694 m 15 X s 1053 657 m 15 Y s 1100 657 m 15 Y s 1076 664 m20 1124 650 m 26 Y s 1124 691 m 21 Y s 1100 683 m 17 X s 1132 683 m 16 X s 1117 650 m 15 X s 1117 712 m 15 X s 1100 676 m 15 Y s 1148 676 m 15 Y s 1124 683 m20
 1172 702 m 21 Y s 1172 739 m 18 Y s 1148 731 m 17 X s 1180 731 m 16 X s 1165 702 m 15 X s 1165 757 m 15 X s 1148 723 m 16 Y s 1196 723 m 16 Y s 1172 731 m20 1220 716 m 21 Y s 1220 752 m 18 Y s 1196 745 m 17 X s 1228 745 m 16 X s 1213 716 m 15 X s
 1213 770 m 15 X s 1196 737 m 15 Y s 1244 737 m 15 Y s 1220 745 m20 1268 690 m 22 Y s 1268 728 m 18 Y s 1244 720 m 16 X s 1276 720 m 16 X s 1260 690 m 16 X s 1260 746 m 16 X s 1244 712 m 16 Y s 1292 712 m 16 Y s 1268 720 m20 1316 720 m 21 Y s 1316
 756 m 17 Y s 1292 748 m 16 X s 1324 748 m 16 X s 1308 720 m 16 X s 1308 773 m 16 X s 1292 741 m 15 Y s 1340 741 m 15 Y s 1316 748 m20 1364 682 m 23 Y s 1364 720 m 19 Y s 1340 712 m 16 X s 1371 712 m 17 X s 1356 682 m 15 X s 1356 739 m 15 X s 1340
 705 m 15 Y s 1388 705 m 15 Y s 1364 712 m20 1412 756 m 18 Y s 1412 789 m 15 Y s 1388 782 m 16 X s 1419 782 m 17 X s 1404 756 m 15 X s 1404 804 m 15 X s 1388 774 m 15 Y s 1436 774 m 15 Y s 1412 782 m20 1460 730 m 20 Y s 1460 765 m 17 Y s 1436 758 m
 16 X s 1467 758 m 17 X s 1452 730 m 15 X s 1452 782 m 15 X s 1436 750 m 15 Y s 1484 750 m 15 Y s 1460 758 m20 1508 720 m 21 Y s 1508 756 m 17 Y s 1484 748 m 16 X s 1515 748 m 17 X s 1500 720 m 15 X s 1500 773 m 15 X s 1484 741 m 15 Y s 1532 741 m 15
 Y s 1508 748 m20 1556 764 m 18 Y s 1556 797 m 15 Y s 1532 790 m 16 X s 1563 790 m 16 X s 1548 764 m 15 X s 1548 812 m 15 X s 1532 782 m 15 Y s 1579 782 m 15 Y s 1556 790 m20 1603 813 m 15 Y s 1603 843 m 13 Y s 1579 836 m 17 X s 1611 836 m 16 X s
 1596 813 m 15 X s 1596 856 m 15 X s 1579 828 m 15 Y s 1627 828 m 15 Y s 1603 836 m20 1651 806 m 15 Y s 1651 837 m 13 Y s 1627 829 m 17 X s 1659 829 m 16 X s 1644 806 m 15 X s 1644 850 m 15 X s 1627 821 m 16 Y s 1675 821 m 16 Y s 1651 829 m20 1699
 822 m 15 Y s 1699 852 m 12 Y s 1675 844 m 17 X s 1707 844 m 16 X s 1692 822 m 15 X s 1692 864 m 15 X s 1675 837 m 15 Y s 1723 837 m 15 Y s 1699 844 m20 1747 953 m 9 Y s 1747 977 m 7 Y s 1723 969 m 17 X s 1755 969 m 16 X s 1740 953 m 15 X s 1740 984
 m 15 X s 1723 962 m 15 Y s 1771 962 m 15 Y s 1747 969 m20 1795 991 m 7 Y s 1795 1014 m 6 Y s 1771 1006 m 16 X s 1803 1006 m 16 X s 1787 991 m 16 X s 1787 1020 m 16 X s 1771 998 m 16 Y s 1819 998 m 16 Y s 1795 1006 m20 1843 1013 m 6 Y s 1843 1035 m 5
 Y s 1819 1027 m 16 X s 1851 1027 m 16 X s 1835 1013 m 16 X s 1835 1040 m 16 X s 1819 1019 m 16 Y s 1867 1019 m 16 Y s 1843 1027 m20 1891 939 m 10 Y s 1891 964 m 8 Y s 1867 956 m 16 X s 1898 956 m 17 X s 1883 939 m 15 X s 1883 972 m 15 X s 1867 949 m
 15 Y s 1915 949 m 15 Y s 1891 956 m20 1939 965 m 8 Y s 1939 988 m 7 Y s 1915 980 m 16 X s 1946 980 m 17 X s 1931 965 m 15 X s 1931 995 m 15 X s 1915 973 m 15 Y s 1963 973 m 15 Y s 1939 980 m20 1987 930 m 10 Y s 1987 955 m 8 Y s 1963 947 m 16 X s
 1994 947 m 17 X s 1979 930 m 15 X s 1979 963 m 15 X s 1963 940 m 15 Y s 2011 940 m 15 Y s 1987 947 m20 2035 995 m 7 Y s 2035 1017 m 6 Y s 2011 1010 m 16 X s 2042 1010 m 17 X s 2027 995 m 15 X s 2027 1023 m 15 X s 2011 1002 m 15 Y s 2059 1002 m 15 Y
 s 2035 1010 m20 2082 1053 m 5 Y s 2082 1073 m 4 Y s 2059 1065 m 16 X s 2090 1065 m 16 X s 2075 1053 m 15 X s 2075 1077 m 15 X s 2059 1058 m 15 Y s 2106 1058 m 15 Y s 2082 1065 m20 2106 1432 m 17 X s 2138 1432 m 16 X s 2106 1425 m 15 Y s 2154 1425 m
 15 Y s 2130 1432 m20 1 0 0 c 1 1 1 c 1 0 0 c 238 1446 m 16 X s 270 1446 m 16 X s 238 1439 m 15 Y s 286 1439 m 15 Y s 262 1446 m20 310 1021 m 6 Y s 310 1042 m 6 Y s 286 1035 m 16 X s 318 1035 m 16 X s 302 1021 m 16 X s 302 1048 m 16 X s 286 1027 m 15
 Y s 334 1027 m 15 Y s 310 1035 m20 358 849 m 13 Y s 358 877 m 11 Y s 334 870 m 16 X s 365 870 m 17 X s 350 849 m 15 X s 350 888 m 15 X s 334 862 m 15 Y s 382 862 m 15 Y s 358 870 m20 406 669 m 24 Y s 406 708 m 20 Y s 382 700 m 16 X s 413 700 m 17 X
 s 398 669 m 15 X s 398 728 m 15 X s 382 693 m 15 Y s 430 693 m 15 Y s 406 700 m20 454 530 m 37 Y s 454 582 m 29 Y s 430 574 m 16 X s 461 574 m 17 X s 446 530 m 15 X s 446 611 m 15 X s 430 567 m 15 Y s 478 567 m 15 Y s 454 574 m20 502 380 m 55 Y s
 502 451 m 40 Y s 478 443 m 16 X s 509 443 m 17 X s 494 380 m 15 X s 494 491 m 15 X s 478 435 m 16 Y s 526 435 m 16 Y s 502 443 m20 549 986 m 8 Y s 549 1009 m 6 Y s 526 1001 m 16 X s 557 1001 m 16 X s 542 986 m 15 X s 542 1015 m 15 X s 526 994 m 15 Y
 s 573 994 m 15 Y s 549 1001 m20 597 1107 m 3 Y s 597 1125 m 3 Y s 573 1118 m 17 X s 605 1118 m 16 X s 590 1107 m 15 X s 590 1128 m 15 X s 573 1110 m 15 Y s 621 1110 m 15 Y s 597 1118 m20 645 1033 m 6 Y s 645 1054 m 5 Y s 621 1046 m 17 X s 653 1046 m
 16 X s 638 1033 m 15 X s 638 1059 m 15 X s 621 1039 m 15 Y s 669 1039 m 15 Y s 645 1046 m20 693 984 m 8 Y s 693 1007 m 6 Y s 669 999 m 17 X s 701 999 m 16 X s 686 984 m 15 X s 686 1013 m 15 X s 669 992 m 15 Y s 717 992 m 15 Y s 693 999 m20 741 976 m
 7 Y s 741 999 m 6 Y s 717 991 m 17 X s 749 991 m 16 X s 734 976 m 15 X s 734 1005 m 15 X s 717 983 m 16 Y s 765 983 m 16 Y s 741 991 m20 789 937 m 9 Y s 789 961 m 8 Y s 765 954 m 16 X s 797 954 m 16 X s 781 937 m 16 X s 781 969 m 16 X s 765 946 m 15
 Y s 813 946 m 15 Y s 789 954 m20 837 912 m 11 Y s 837 938 m 9 Y s 813 930 m 16 X s 845 930 m 16 X s 829 912 m 16 X s 829 947 m 16 X s 813 923 m 15 Y s 861 923 m 15 Y s 837 930 m20 885 824 m 15 Y s 885 854 m 12 Y s 861 846 m 16 X s 892 846 m 17 X s
 877 824 m 15 X s 877 866 m 15 X s 861 839 m 15 Y s 909 839 m 15 Y s 885 846 m20 933 811 m 15 Y s 933 841 m 13 Y s 909 833 m 16 X s 940 833 m 17 X s 925 811 m 15 X s 925 854 m 15 X s 909 826 m 15 Y s 957 826 m 15 Y s 933 833 m20 981 776 m 17 Y s 981
 808 m 14 Y s 957 800 m 16 X s 988 800 m 17 X s 973 776 m 15 X s 973 822 m 15 X s 957 793 m 15 Y s 1005 793 m 15 Y s 981 800 m20 1029 743 m 19 Y s 1029 778 m 16 Y s 1005 770 m 16 X s 1036 770 m 17 X s 1021 743 m 15 X s 1021 794 m 15 X s 1005 762 m 16
 Y s 1053 762 m 16 Y s 1029 770 m20 1076 724 m 20 Y s 1076 759 m 17 Y s 1053 751 m 16 X s 1084 751 m 16 X s 1069 724 m 15 X s 1069 776 m 15 X s 1053 744 m 15 Y s 1100 744 m 15 Y s 1076 751 m20 1124 759 m 18 Y s 1124 792 m 15 Y s 1100 784 m 17 X s
 1132 784 m 16 X s 1117 759 m 15 X s 1117 807 m 15 X s 1100 777 m 15 Y s 1148 777 m 15 Y s 1124 784 m20 1172 705 m 22 Y s 1172 742 m 18 Y s 1148 735 m 17 X s 1180 735 m 16 X s 1165 705 m 15 X s 1165 760 m 15 X s 1148 727 m 15 Y s 1196 727 m 15 Y s
 1172 735 m20 1220 705 m 22 Y s 1220 742 m 18 Y s 1196 735 m 17 X s 1228 735 m 16 X s 1213 705 m 15 X s 1213 760 m 15 X s 1196 727 m 15 Y s 1244 727 m 15 Y s 1220 735 m20 1268 601 m 30 Y s 1268 646 m 24 Y s 1244 638 m 16 X s 1276 638 m 16 X s 1260
 601 m 16 X s 1260 670 m 16 X s 1244 631 m 15 Y s 1292 631 m 15 Y s 1268 638 m20 1316 613 m 29 Y s 1316 657 m 23 Y s 1292 649 m 16 X s 1324 649 m 16 X s 1308 613 m 16 X s 1308 680 m 16 X s 1292 642 m 15 Y s 1340 642 m 15 Y s 1316 649 m20 1364 530 m
 37 Y s 1364 582 m 29 Y s 1340 574 m 16 X s 1371 574 m 17 X s 1356 530 m 15 X s 1356 611 m 15 X s 1340 567 m 15 Y s 1388 567 m 15 Y s 1364 574 m20 1412 538 m 36 Y s 1412 589 m 28 Y s 1388 582 m 16 X s 1419 582 m 17 X s 1404 538 m 15 X s 1404 617 m 15
 X s 1388 574 m 15 Y s 1436 574 m 15 Y s 1412 582 m20 1460 601 m 30 Y s 1460 646 m 24 Y s 1436 638 m 16 X s 1467 638 m 17 X s 1452 601 m 15 X s 1452 670 m 15 X s 1436 631 m 15 Y s 1484 631 m 15 Y s 1460 638 m20 1508 450 m 46 Y s 1508 511 m 35 Y s
 1484 503 m 16 X s 1515 503 m 17 X s 1500 450 m 15 X s 1500 546 m 15 X s 1484 496 m 15 Y s 1532 496 m 15 Y s 1508 503 m20 1556 554 m 34 Y s 1556 603 m 27 Y s 1532 596 m 16 X s 1563 596 m 16 X s 1548 554 m 15 X s 1548 630 m 15 X s 1532 588 m 15 Y s
 1579 588 m 15 Y s 1556 596 m20 1603 595 m 30 Y s 1603 640 m 25 Y s 1579 633 m 17 X s 1611 633 m 16 X s 1596 595 m 15 X s 1596 665 m 15 X s 1579 625 m 15 Y s 1627 625 m 15 Y s 1603 633 m20 1651 494 m 40 Y s 1651 549 m 32 Y s 1627 542 m 17 X s 1659
 542 m 16 X s 1644 494 m 15 X s 1644 581 m 15 X s 1627 534 m 15 Y s 1675 534 m 15 Y s 1651 542 m20 1699 589 m 31 Y s 1699 635 m 25 Y s 1675 627 m 17 X s 1707 627 m 16 X s 1692 589 m 15 X s 1692 660 m 15 X s 1675 620 m 15 Y s 1723 620 m 15 Y s 1699
 627 m20 1747 569 m 32 Y s 1747 616 m 27 Y s 1723 609 m 17 X s 1755 609 m 16 X s 1740 569 m 15 X s 1740 643 m 15 X s 1723 601 m 15 Y s 1771 601 m 15 Y s 1747 609 m20 1795 650 m 26 Y s 1795 691 m 21 Y s 1771 683 m 16 X s 1803 683 m 16 X s 1787 650 m
 16 X s 1787 712 m 16 X s 1771 676 m 15 Y s 1819 676 m 15 Y s 1795 683 m20 1843 673 m 24 Y s 1843 712 m 20 Y s 1819 704 m 16 X s 1851 704 m 16 X s 1835 673 m 16 X s 1835 732 m 16 X s 1819 697 m 15 Y s 1867 697 m 15 Y s 1843 704 m20 1891 582 m 32 Y s
 1891 629 m 25 Y s 1867 621 m 16 X s 1898 621 m 17 X s 1883 582 m 15 X s 1883 654 m 15 X s 1867 614 m 15 Y s 1915 614 m 15 Y s 1891 621 m20 1939 530 m 37 Y s 1939 582 m 29 Y s 1915 574 m 16 X s 1946 574 m 17 X s 1931 530 m 15 X s 1931 611 m 15 X s
 1915 567 m 15 Y s 1963 567 m 15 Y s 1939 574 m20 1987 473 m 43 Y s 1987 531 m 33 Y s 1963 523 m 16 X s 1994 523 m 17 X s 1979 473 m 15 X s 1979 564 m 15 X s 1963 516 m 15 Y s 2011 516 m 15 Y s 1987 523 m20 2035 462 m 44 Y s 2035 521 m 34 Y s 2011
 514 m 16 X s 2042 514 m 17 X s 2027 462 m 15 X s 2027 555 m 15 X s 2011 506 m 15 Y s 2059 506 m 15 Y s 2035 514 m20 2082 278 m 72 Y s 2082 365 m 50 Y s 2059 358 m 16 X s 2090 358 m 16 X s 2075 278 m 15 X s 2075 415 m 15 X s 2059 350 m 15 Y s 2106
 350 m 15 Y s 2082 358 m20 2130 250 m 78 Y s 2130 343 m 53 Y s 2106 335 m 17 X s 2138 335 m 16 X s 2123 250 m 15 X s 2123 396 m 15 X s 2106 328 m 15 Y s 2154 328 m 15 Y s 2130 335 m20 black
 gsave  2268 1676 0 0 C 272.126 1240.34 t 0 r /Helvetica-Bold findfont 49.2982 sf 0 0 m (Kolmogorov\255Smirnov test: signal \(background\) probability = 0.848 \(0.279\)) show NC gr  238 201 m 1916 X s 430 244 m -43 Y s 468 222 m -21 Y s 506 222 m -21
 Y s 545 222 m -21 Y s 583 222 m -21 Y s 621 244 m -43 Y s 660 222 m -21 Y s 698 222 m -21 Y s 736 222 m -21 Y s 775 222 m -21 Y s 813 244 m -43 Y s 851 222 m -21 Y s 890 222 m -21 Y s 928 222 m -21 Y s 966 222 m -21 Y s 1005 244 m -43 Y s 1043 222 m
 -21 Y s 1081 222 m -21 Y s 1120 222 m -21 Y s 1158 222 m -21 Y s 1196 244 m -43 Y s 1234 222 m -21 Y s 1273 222 m -21 Y s 1311 222 m -21 Y s 1349 222 m -21 Y s 1388 244 m -43 Y s 1426 222 m -21 Y s 1464 222 m -21 Y s 1503 222 m -21 Y s 1541 222 m
 -21 Y s 1579 244 m -43 Y s 1618 222 m -21 Y s 1656 222 m -21 Y s 1694 222 m -21 Y s 1733 222 m -21 Y s 1771 244 m -43 Y s 1809 222 m -21 Y s 1848 222 m -21 Y s 1886 222 m -21 Y s 1924 222 m -21 Y s 1963 244 m -43 Y s 2001 222 m -21 Y s 2039 222 m
 -21 Y s 2078 222 m -21 Y s 2116 222 m -21 Y s 2154 244 m -43 Y s 430 244 m -43 Y s 391 222 m -21 Y s 353 222 m -21 Y s 315 222 m -21 Y s 276 222 m -21 Y s 2154 244 m -43 Y s 238 1509 m 1916 X s 430 1466 m 43 Y s 468 1487 m 22 Y s 506 1487 m 22 Y s
 545 1487 m 22 Y s 583 1487 m 22 Y s 621 1466 m 43 Y s 660 1487 m 22 Y s 698 1487 m 22 Y s 736 1487 m 22 Y s 775 1487 m 22 Y s 813 1466 m 43 Y s 851 1487 m 22 Y s 890 1487 m 22 Y s 928 1487 m 22 Y s 966 1487 m 22 Y s 1005 1466 m 43 Y s 1043 1487 m 22
 Y s 1081 1487 m 22 Y s 1120 1487 m 22 Y s 1158 1487 m 22 Y s 1196 1466 m 43 Y s 1234 1487 m 22 Y s 1273 1487 m 22 Y s 1311 1487 m 22 Y s 1349 1487 m 22 Y s 1388 1466 m 43 Y s 1426 1487 m 22 Y s 1464 1487 m 22 Y s 1503 1487 m 22 Y s 1541 1487 m 22 Y
 s 1579 1466 m 43 Y s 1618 1487 m 22 Y s 1656 1487 m 22 Y s 1694 1487 m 22 Y s 1733 1487 m 22 Y s 1771 1466 m 43 Y s 1809 1487 m 22 Y s 1848 1487 m 22 Y s 1886 1487 m 22 Y s 1924 1487 m 22 Y s 1963 1466 m 43 Y s 2001 1487 m 22 Y s 2039 1487 m 22 Y s
 2078 1487 m 22 Y s 2116 1487 m 22 Y s 2154 1466 m 43 Y s 430 1466 m 43 Y s 391 1487 m 22 Y s 353 1487 m 22 Y s 315 1487 m 22 Y s 276 1487 m 22 Y s 2154 1466 m 43 Y s 238 201 m 1308 Y s 265 212 m -27 X s 265 259 m -27 X s 265 297 m -27 X s 265 330 m
 -27 X s 265 358 m -27 X s 265 382 m -27 X s 291 405 m -53 X s 265 550 m -27 X s 265 636 m -27 X s 265 696 m -27 X s 265 743 m -27 X s 265 781 m -27 X s 265 814 m -27 X s 265 842 m -27 X s 265 867 m -27 X s 291 889 m -53 X s 265 1035 m -27 X s 265
 1120 m -27 X s 265 1181 m -27 X s 265 1228 m -27 X s 265 1266 m -27 X s 265 1298 m -27 X s 265 1326 m -27 X s 265 1351 m -27 X s 291 1373 m -53 X s 2154 201 m 1308 Y s 2128 212 m 26 X s 2128 259 m 26 X s 2128 297 m 26 X s 2128 330 m 26 X s 2128 358
 m 26 X s 2128 382 m 26 X s 2101 405 m 53 X s 2128 550 m 26 X s 2128 636 m 26 X s 2128 696 m 26 X s 2128 743 m 26 X s 2128 781 m 26 X s 2128 814 m 26 X s 2128 842 m 26 X s 2128 867 m 26 X s 2101 889 m 53 X s 2128 1035 m 26 X s 2128 1120 m 26 X s 2128
 1181 m 26 X s 2128 1228 m 26 X s 2128 1266 m 26 X s 2128 1298 m 26 X s 2128 1326 m 26 X s 2128 1351 m 26 X s 2101 1373 m 53 X s
 gsave  2268 1676 0 0 C 2211.02 192.756 t 90 r /Helvetica-Bold findfont 45.506 sf 0 0 m (U/O\255flow \(S,B\): \(0.0, 0.0\)% / \(0.0, 0.0\)%) show NC gr  0.490196 0.545098 0.615686 c 0.364706 0.419608 0.490196 c 1587 96 23 1572 bf 0.490196 0.545098
 0.615686 c 23 1572 m 1587 X s 1610 1572 m 96 Y s 1610 1668 m -1587 X s 23 1668 m -96 Y s 1 1 1 c black 1 1 1 c
 gsave  2268 1676 0 0 C 98.5964 1600.29 t 0 r /Helvetica-Bold findfont 68.259 sf 0 0 m (TMVA overtraining check for classifier: MLP) show NC gr 
 gr  gr showpage
end
%%EOF
