%!PS-Adobe-2.0 EPSF-2.0
%%BoundingBox:  0 0 567 419
%%Title: dataset/plots/mvaeffs_Likelihood.eps: Cut efficiencies for Likelihood classifier
%%Creator: ROOT Version 6.12/06
%%CreationDate: Mon May 21 12:04:07 2018
%%DocumentNeededResources: ProcSet (FontSetInit)
%%EndComments
%%BeginProlog
80 dict begin
/s {stroke} def /l {lineto} def /m {moveto} def /t {translate} def
/r {rotate} def /rl {roll}  def /R {repeat} def
/d {rlineto} def /rm {rmoveto} def /gr {grestore} def /f {eofill} def
/c {setrgbcolor} def /black {0 setgray} def /sd {setdash} def
/cl {closepath} def /sf {scalefont setfont} def /lw {setlinewidth} def
/box {m dup 0 exch d exch 0 d 0 exch neg d cl} def
/NC{systemdict begin initclip end}def/C{NC box clip newpath}def
/bl {box s} def /bf {gsave box gsave f grestore 1 lw [] 0 sd s grestore} def /Y { 0 exch d} def /X { 0 d} def 
/K {{pop pop 0 moveto} exch kshow} bind def
/ita {/ang 15 def gsave [1 0 ang dup sin exch cos div 1 0 0] concat} def 
/mp {newpath /y exch def /x exch def} def
/side {[w .77 mul w .23 mul] .385 w mul sd w 0 l currentpoint t -144 r} def
/mr {mp x y w2 0 360 arc} def /m24 {mr s} def /m20 {mr f} def
/mb {mp x y w2 add m w2 neg 0 d 0 w neg d w 0 d 0 w d cl} def
/mt {mp x y w2 add m w2 neg w neg d w 0 d cl} def
/w4 {w 4 div} def
/w6 {w 6 div} def
/w8 {w 8 div} def
/m21 {mb f} def /m25 {mb s} def /m22 {mt f} def /m26{mt s} def
/m23 {mp x y w2 sub m w2 w d w neg 0 d cl f} def
/m27 {mp x y w2 add m w3 neg w2 neg d w3 w2 neg d w3 w2 d cl s} def
/m28 {mp x w2 sub y w2 sub w3 add m w3 0 d  0 w3 neg d w3 0 d 0 w3 d w3 0 d  0 w3 d w3 neg 0 d 0 w3 d w3 neg 0 d 0 w3 neg d w3 neg 0 d cl s } def
/m29 {mp gsave x w2 sub y w2 add w3 sub m currentpoint t 4 {side} repeat cl fill gr} def
/m30 {mp gsave x w2 sub y w2 add w3 sub m currentpoint t 4 {side} repeat cl s gr} def
/m31 {mp x y w2 sub m 0 w d x w2 sub y m w 0 d x w2 sub y w2 add m w w neg d x w2 sub y w2 sub m w w d s} def
/m32 {mp x y w2 sub m w2 w d w neg 0 d cl s} def
/m33 {mp x y w2 add m w3 neg w2 neg d w3 w2 neg d w3 w2 d cl f} def
/m34 {mp x w2 sub y w2 sub w3 add m w3 0 d  0 w3 neg d w3 0 d 0 w3 d w3 0 d  0 w3 d w3 neg 0 d 0 w3 d w3 neg 0 d 0 w3 neg d w3 neg 0 d cl f } def
/m35 {mp x y w2 add m w2 neg w2 neg d w2 w2 neg d w2 w2 d w2 neg w2 d x y w2 sub m 0 w d x w2 sub y m w 0 d s} def
/m36 {mb x w2 sub y w2 add m w w neg d x w2 sub y w2 sub m w w d s} def
/m37 {mp x y m w4 neg w2 d w4 neg w2 neg d w2 0 d  w4 neg w2 neg d w2 0 d w4 neg w2 d w2 0 d w4 neg w2 d w4 neg w2 neg d cl s} def
/m38 {mp x w4 sub y w2 add m w4 neg w4 neg d 0 w2 neg d w4 w4 neg d w2 0 d w4 w4 d 0 w2 d w4 neg w4 d w2 neg 0 d x y w2 sub m 0 w d x w2 sub y m w 0 d cl s} def
/m39 {mp x y m w4 neg w2 d w4 neg w2 neg d w2 0 d  w4 neg w2 neg d w2 0 d w4 neg w2 d w2 0 d w4 neg w2 d w4 neg w2 neg d cl f} def
/m40 {mp x y m w4 w2 d w4 w4 neg d w2 neg w4 neg d w2 w4 neg d w4 neg w4 neg d w4 neg w2 d w4 neg w2 neg d w4 neg w4 d w2 w4 d w2 neg w4 d w4 w4 d w4 w2 neg d cl s} def
/m41 {mp x y m w4 w2 d w4 w4 neg d w2 neg w4 neg d w2 w4 neg d w4 neg w4 neg d w4 neg w2 d w4 neg w2 neg d w4 neg w4 d w2 w4 d w2 neg w4 d w4 w4 d w4 w2 neg d cl f} def
/m42 {mp x y w2 add m w8 neg w2 -3 4 div mul d w2 -3 4 div mul w8 neg d w2 3 4 div mul w8 neg d w8 w2 -3 4 div mul d w8 w2 3 4 div mul d w2 3 4 div mul w8 d w2 -3 4 div mul w8 d w8 neg w2 3 4 div mul d cl s} def
/m43 {mp x y w2 add m w8 neg w2 -3 4 div mul d w2 -3 4 div mul w8 neg d w2 3 4 div mul w8 neg d w8 w2 -3 4 div mul d w8 w2 3 4 div mul d w2 3 4 div mul w8 d w2 -3 4 div mul w8 d w8 neg w2 3 4 div mul d cl f} def
/m44 {mp x y m w6 neg w2 d w2 2 3 div mul 0 d w6 neg w2 neg d w2 w6 d 0 w2 -2 3 div mul d w2 neg w6 d w6 w2 neg d w2 -2 3 div mul 0 d w6 w2 d w2 neg w6 neg d 0 w2 2 3 div mul d w2 w6 neg d cl s} def
/m45 {mp x y m w6 neg w2 d w2 2 3 div mul 0 d w6 neg w2 neg d w2 w6 d 0 w2 -2 3 div mul d w2 neg w6 d w6 w2 neg d w2 -2 3 div mul 0 d w6 w2 d w2 neg w6 neg d 0 w2 2 3 div mul d w2 w6 neg d cl f} def
/m46 {mp x y w4 add m w4 neg w4 d w4 neg w4 neg d  w4 w4 neg d w4 neg w4 neg d w4 w4 neg d w4 w4 d w4 w4 neg d w4 w4 d w4 neg w4 d w4 w4 d w4 neg w4 d w4 neg w4 neg d cl s} def
/m47 {mp x y w4 add m w4 neg w4 d w4 neg w4 neg d w4 w4 neg d w4 neg w4 neg d  w4 w4 neg d w4 w4 d w4 w4 neg d w4 w4 d w4 neg w4 d w4 w4 d w4 neg w4 d w4 neg w4 neg d cl f} def
/m48 {mp x y w4 add m w4 neg w4 d w4 neg w4 neg d w4 w4 neg d  w4 neg w4 neg d w4 w4 neg d w4 w4 d w4 w4 neg d w4 w4 d w4 neg w4 d w4 w4 d w4 neg w4 d w4 neg w4 neg d  w4 w4 neg d w4 neg w4 neg d w4 neg w4 d w4 w4 d cl f} def
/m49 {mp x w2 sub w3 add y w2 sub w3 add m  0 w3 neg d w3 0 d 0 w3 d w3 0 d 0 w3 d w3 neg 0 d 0 w3 d w3 neg 0 d 0 w3 neg d w3 neg 0 d 0 w3 neg d w3 0 d 0 w3 d w3 0 d 0 w3 neg d w3 neg 0 d cl f } def
/m2 {mp x y w2 sub m 0 w d x w2 sub y m w 0 d s} def
/m5 {mp x w2 sub y w2 sub m w w d x w2 sub y w2 add m w w neg d s} def
%%IncludeResource: ProcSet (FontSetInit)
%%IncludeResource: font Times-Roman
%%IncludeResource: font Times-Italic
%%IncludeResource: font Times-Bold
%%IncludeResource: font Times-BoldItalic
%%IncludeResource: font Helvetica
%%IncludeResource: font Helvetica-Oblique
%%IncludeResource: font Helvetica-Bold
%%IncludeResource: font Helvetica-BoldOblique
%%IncludeResource: font Courier
%%IncludeResource: font Courier-Oblique
%%IncludeResource: font Courier-Bold
%%IncludeResource: font Courier-BoldOblique
%%IncludeResource: font Symbol
%%IncludeResource: font ZapfDingbats
/reEncode {exch findfont dup length dict begin {1 index /FID eq  {pop pop} {def} ifelse } forall /Encoding exch def currentdict end dup /FontName get exch definefont pop } def [/Times-Bold /Times-Italic /Times-BoldItalic /Helvetica /Helvetica-Oblique
 /Helvetica-Bold /Helvetica-BoldOblique /Courier /Courier-Oblique /Courier-Bold /Courier-BoldOblique /Times-Roman /AvantGarde-Book /AvantGarde-BookOblique /AvantGarde-Demi /AvantGarde-DemiOblique /Bookman-Demi /Bookman-DemiItalic /Bookman-Light
 /Bookman-LightItalic /Helvetica-Narrow /Helvetica-Narrow-Bold /Helvetica-Narrow-BoldOblique /Helvetica-Narrow-Oblique /NewCenturySchlbk-Roman /NewCenturySchlbk-Bold /NewCenturySchlbk-BoldItalic /NewCenturySchlbk-Italic /Palatino-Bold
 /Palatino-BoldItalic /Palatino-Italic /Palatino-Roman ] {ISOLatin1Encoding reEncode } forall
%%EndProlog
%%BeginSetup
%%EndSetup
newpath  gsave  .25 .25 scale  gsave  0 0 t 0.490196 0.545098 0.615686 c[  ] 0 sd 3 lw 0.941176 0.941176 0.941176 c 2268 1676 0 0 bf black 1 1 0.992157 c 1796 1140 245 201 bf black 1796 1140 245 201 bl 1 1 0.992157 c 1796 1140 245 201 bf black 1796
 1140 245 201 bl 245 201 m 1796 X s[ 4 8] 0 sd 294 1341 m -1140 Y s 488 1341 m -1140 Y s 682 1341 m -1140 Y s 876 1341 m -1140 Y s 1070 1341 m -1140 Y s 1264 1341 m -1140 Y s 1459 1341 m -1140 Y s 1653 1341 m -1140 Y s 1847 1341 m -1140 Y s 2041 1341
 m -1140 Y s 294 1341 m -1140 Y s 2041 1341 m -1140 Y s[  ] 0 sd 245 201 m 1140 Y s[ 4 8] 0 sd 2041 201 m -1796 X s 2041 408 m -1796 X s 2041 616 m -1796 X s 2041 823 m -1796 X s 2041 1030 m -1796 X s 2041 1237 m -1796 X s 2041 1237 m -1796 X s 0 0
 0.933333 c[  22 12 ] 0 sd 6 lw 0.49 0.6 0.82 c black 0 0 0.933333 c 245 719 m 9 X s 254 719 m 9 X s 263 719 m 8 X s 271 719 m 9 X s 280 719 m 4 X -1 Y 2 X 1 Y 1 X 1 -1 d 1 X s 289 718 m 9 X s 298 718 m 8 X 1 Y 1 -1 d s 307 718 m 2 X 1 Y 6 X s 315
 719 m 6 X 1 Y -1 Y 3 X s 324 719 m 1 X 1 Y 1 X 1 -1 d 1 Y 5 X 1 1 d s 333 721 m 1 -1 d 1 Y 8 X s 342 721 m 1 Y 4 X 1 Y -1 Y 1 Y 4 X 1 Y 1 X s 351 724 m 4 X 1 Y 1 X 1 1 d -1 Y 1 Y 2 X 1 Y s 359 727 m 1 X 1 Y 1 X 1 Y 2 X 1 Y 2 X 1 Y 2 X 1 Y 1 X s 368
 732 m 1 1 d 1 X 1 Y 2 X 1 Y 1 X 1 Y 1 X 1 1 d 1 X 1 Y 1 X s 377 738 m 1 Y 2 X 1 Y -1 Y 1 1 d 1 1 d 1 1 d 1 1 d 1 X 1 Y 2 X s 386 744 m 1 Y 1 X 1 1 d 1 X 1 Y 1 X 1 Y 1 X 1 1 d 1 X 1 Y 1 X 1 1 d s 395 751 m 1 X 1 1 d 1 Y 2 X 1 Y 2 X 1 Y 2 X 1 Y s 403
 756 m 3 X 1 1 d 2 X 1 Y -1 Y 1 X 1 Y 2 X 1 Y s 412 759 m 3 X 1 Y 4 X 1 Y 2 X s 421 761 m 2 X 1 Y -1 Y 1 X 1 Y 2 X 1 Y 2 X 1 Y 2 X s 430 764 m 1 Y 2 X 1 Y 1 X 1 Y 1 X 1 1 d 2 X 1 Y 2 X s 439 769 m 1 Y 2 X 1 Y 2 X 1 Y 2 X 1 Y 2 X s 447 773 m 1 X 1 Y
 -1 Y 1 X 1 Y 2 X 1 Y 3 X 1 Y 2 X 1 Y s 456 777 m 3 X 1 Y 3 X 1 1 d -1 Y 1 Y 2 X s 465 779 m 1 X 1 Y 4 X 1 Y 1 X -1 Y 1 Y 2 X 1 Y 1 X s 474 782 m 1 X 1 Y 4 X 1 1 d 1 X 1 Y 2 X s 483 785 m 3 X 1 1 d 2 X 1 Y 2 X s 491 787 m 1 X 1 Y -1 Y 1 X 1 Y -1 Y 1
 1 d 4 X 1 Y 2 X s 500 789 m 3 X 1 Y 6 X s 509 790 m 1 X 1 Y 6 X 1 1 d 1 X s 518 792 m 7 X 1 Y 2 X s 527 793 m 6 X 1 -1 d 1 Y 1 X s 535 793 m 4 X 1 Y 2 X -1 Y 1 X 1 Y 2 X s 544 794 m 9 X s 553 794 m 5 X 1 Y 1 -1 d 1 Y 3 X s 562 795 m 9 X s 571 795 m
 3 X 1 Y 3 X -1 Y 2 X s 579 795 m 4 X 1 Y 1 X 1 -1 d 1 X 1 Y 2 X s 588 796 m 5 X 1 Y 1 -1 d 1 Y 1 -1 d 2 X s 597 796 m 9 X s 606 796 m 6 X 1 Y 3 X s 615 797 m 1 X 1 1 d 6 X s 623 798 m 1 1 d 2 X -1 Y 1 Y 3 X -1 Y 3 X s 632 798 m 1 X 1 1 d 4 X 1 Y 3 X
 s 641 800 m 9 X s 650 800 m 1 X 1 -1 d 1 X 1 Y 6 X s 659 800 m 1 X -1 Y 7 X s 667 799 m 6 X -1 Y 1 1 d 2 X s 676 799 m 6 X 1 -1 d 1 Y 2 X s 685 799 m 6 X 1 -1 d 2 X 1 Y s 694 799 m -1 Y 1 X 1 Y 2 X -1 Y 1 X 1 Y 5 X s 703 799 m 6 X 1 Y 1 X -1 Y 1 X 1
 Y s 711 800 m 1 X -1 Y 2 X 1 Y 6 X s 720 800 m 1 X 1 Y 1 X 1 -1 d 1 X 1 1 d -1 Y 4 X s 729 800 m 9 X s 738 800 m 3 X 1 -1 d 2 X 1 Y -1 Y 2 X 1 Y -1 Y 1 X s 747 799 m 8 X s 755 799 m 9 X s 764 799 m 4 X -1 Y 4 X 1 Y -1 Y 1 1 d s 773 799 m 5 X 1 -1 d
 3 X s 782 798 m 3 X 1 -1 d 4 X 1 Y 1 X s 791 798 m 1 -1 d 1 Y 1 X -1 Y 1 X 1 Y 1 X -1 Y 1 X 1 Y -1 Y 1 X 1 Y -1 Y 2 X s 799 797 m 2 X -1 Y 3 X 1 Y -1 Y 4 X s 808 796 m 3 X -1 Y 2 X 1 Y -1 Y 2 X 1 -1 d 1 Y 1 X s 817 795 m 1 -1 d 1 Y 1 X -1 Y 1 Y 1 -1
 d 1 Y 1 X 1 -1 d 4 X s 826 794 m 1 X 1 1 d -1 Y 4 X -1 Y 1 X 1 Y 1 -1 d 1 1 d s 835 794 m 1 X -1 Y 1 X 1 Y 1 X -1 Y 1 Y 3 X 1 -1 d 1 Y 1 X s 843 794 m 1 -1 d 1 Y 1 X -1 Y 3 X -1 Y 1 -1 d 1 Y 3 X s 852 792 m 1 X 1 Y 1 X -1 Y 1 Y 1 X -1 Y 1 X 1 Y -1 Y
 2 X -1 Y 1 X 1 Y 1 X -1 Y 1 Y -1 Y 1 X s 861 791 m 1 X -1 Y 1 X 1 Y 1 X -1 Y 1 X 1 Y 1 -1 d 2 X -1 Y 1 X -1 Y 1 X -1 Y s 870 787 m 2 X -1 Y 1 Y 1 X -1 Y 1 Y 1 -1 d 1 Y -1 Y 1 X -1 Y 2 X -1 Y 1 1 d -1 Y 1 X s 879 784 m 1 X -1 Y 1 X 1 Y 1 -1 d 1 Y 2 X
 1 Y 1 X -1 Y 2 X s 887 784 m 1 X 1 Y -1 Y 1 Y 1 -1 d -1 Y 1 Y 1 X -1 Y 1 X -1 Y 3 X -1 Y 2 X s 896 781 m 2 X -1 Y 1 X -1 Y 1 Y 1 X -1 Y 3 X -1 Y 1 X 1 1 d -1 Y s 905 778 m 1 -1 d -1 Y 4 X -1 Y 2 X 1 Y -1 Y 2 X 1 Y s 914 776 m -1 Y 1 Y 2 X -1 Y 1 X 1
 Y -1 Y 1 X -1 Y 1 Y 5 X s 923 775 m 1 Y -1 Y 1 Y 1 -1 d 1 Y 1 X -1 Y 4 X -1 Y 1 Y 1 -1 d 1 X -1 Y s 931 773 m 1 X 1 -1 d -1 Y 5 X -1 Y 1 X -1 Y 1 X s 940 769 m 3 X -1 Y 2 X -1 Y 2 X -1 Y 1 1 d -1 Y 1 X -1 Y s 949 765 m 1 X 1 Y 1 -1 d -1 Y 1 X -1 Y 6
 X s 958 763 m 1 X -1 Y 1 X 1 -1 d 1 Y -1 Y 4 X -1 Y 1 X 1 Y 1 X s 967 761 m -1 Y 1 Y -1 Y 1 1 d -1 Y 1 1 d -1 Y 1 X 1 Y -1 Y 1 Y 1 X -1 Y 1 1 d -1 Y 1 Y 1 X -1 Y 1 X -1 Y 1 X -2 Y s 975 757 m 1 X -1 Y 1 X -1 Y 1 Y 1 -1 d -1 Y 1 Y -1 Y 1 1 d -1 Y 2 X
 -1 Y 1 X 1 Y 1 X -1 Y 1 -1 d s 984 752 m 1 X -1 Y 2 X -1 Y 2 X -2 Y 2 X -2 Y 2 X -1 Y s 993 745 m 1 X 1 Y -1 Y 1 X -1 Y 2 X -1 Y 1 X -1 Y 1 X 1 Y -1 Y 1 X -1 Y 1 X 1 Y 1 -1 d s 1002 741 m -1 Y 1 X -1 Y 1 X -1 Y 1 Y 1 X -1 Y 2 X -1 Y 1 X -1 Y 1 X -1
 Y 1 1 d -1 Y 1 -1 d s 1011 734 m -1 Y 1 1 d -1 Y 1 -1 d 1 X -2 Y 1 X -1 Y 1 X -1 Y 1 X -1 Y 1 X -1 Y 1 X -1 Y s 1019 725 m 1 X 1 Y -2 Y 1 X -1 Y 1 X -1 Y 1 X 1 Y -1 Y 1 X -1 Y 1 Y -1 Y 1 X 1 -1 d 1 X -1 Y 1 -1 d -1 Y s 1028 717 m -1 Y 1 X -2 Y 1 X
 -1 Y 1 X -2 Y 1 X -1 Y 1 X -1 Y 1 X -1 Y 1 X -1 Y 1 X -1 Y 1 X -1 Y s 1037 705 m 1 1 d -2 Y 1 X 1 -1 d 1 Y -1 Y 1 X -1 Y 1 X 1 -1 d -1 Y 2 X -2 Y 1 X s 1046 698 m 1 -1 d -1 Y 1 Y 1 X 1 -1 d 1 Y 1 X 1 -1 d -1 Y 1 X -1 Y 2 X -1 Y 1 X s 1055 693 m -1 Y
 1 X -1 Y 2 X -2 Y 1 X -1 Y 1 -1 d -1 Y 1 Y 1 -1 d 1 X -1 Y 1 X -1 Y s 1063 684 m 1 X -1 Y 1 X -1 Y 1 -1 d 1 X -1 Y 1 X -1 Y 1 X -1 Y 1 -1 d 1 X -1 Y 1 X -1 Y s 1072 675 m 1 X -1 Y 1 X -1 Y 1 -1 d -1 Y 2 X -1 Y 1 X -1 Y 1 X -1 Y 1 Y 1 X -1 Y 1 X s
 1081 668 m -1 Y 1 X -1 Y 2 X -1 Y 1 Y 1 -1 d -1 Y 1 X -2 Y 1 X -1 Y 1 Y -1 Y 1 X -3 Y 2 X s 1090 658 m -1 Y 1 1 d 1 X -1 Y 1 X -1 Y 2 X -1 Y 1 1 d -1 Y 1 X -1 Y 1 X -1 Y 1 Y 1 X s 1099 654 m -1 Y 2 X -1 Y 1 X 1 -1 d 1 -1 d -1 Y 2 X -2 Y 1 X -1 Y s
 1107 646 m 4 X -1 Y 1 Y -1 Y 1 1 d -1 Y 1 X -1 Y 1 X -1 Y 1 X -1 Y 1 Y 1 -1 d s 1116 642 m 1 X -1 Y 3 X -1 Y 1 X -1 Y 1 -1 d 1 X -1 Y 2 X s 1125 637 m 1 X -1 Y 1 X 1 -1 d 1 X 1 Y 1 -1 d 1 X -1 Y 1 1 d -1 Y 1 X 1 Y -1 Y 1 X s 1134 634 m 1 X -1 Y 2 X
 -1 Y 1 X 1 Y -1 Y 1 X -1 Y 1 X -1 Y 1 X -1 Y 2 X s 1143 629 m -1 Y 1 X -1 Y 1 X 1 -1 d 1 X -1 Y 1 X -1 Y 3 X -1 Y s 1151 623 m 1 X -1 Y 2 X -1 Y 1 X -1 Y 1 1 d -1 Y 1 X 1 -1 d 1 X -1 Y 1 X s 1160 618 m 2 X -1 Y 1 Y 1 X -1 Y 1 X -1 Y 1 X -1 Y 1 X 1
 -1 d -1 Y 1 1 d -1 Y 1 X s 1169 613 m -1 Y 1 Y 1 -1 d 1 Y 1 X -1 Y 1 Y -1 Y 2 X 1 Y 1 X -1 Y 1 X -1 Y 2 X 1 -1 d s 1178 610 m 2 X -1 Y 1 X -1 Y 2 X -1 Y 1 X -1 Y 1 Y 1 X -1 Y 2 X s 1187 606 m 2 X -1 Y 1 X -1 Y 1 X 1 Y -1 Y 1 X 1 Y -1 Y 3 X -1 Y 1 Y
 -1 Y s 1195 603 m 2 X 1 -1 d 1 X -1 Y 1 X -1 Y 1 X 1 -1 d 1 X -1 Y 1 Y -1 Y 1 X s 1204 598 m 2 X -1 Y 2 X -1 Y 1 X 1 Y -1 Y 3 X -1 Y 1 X s 1213 595 m 3 X -1 Y 1 X -1 Y 1 Y 1 X -1 Y 4 X s 1222 593 m 1 X -1 Y 1 X -1 Y 1 Y 1 X -1 Y 1 Y 2 X -1 Y 2 X 1
 -1 d 1 X s 1231 590 m -1 Y 1 X -1 Y 3 X -1 Y 1 X -1 Y 3 X -1 Y s 1239 585 m 9 X -1 Y s 1248 584 m 2 X -1 Y 1 Y 3 X -1 Y 1 X -1 Y 1 X -1 Y 1 X -1 Y 1 X s 1257 580 m 1 X -1 Y 1 X 1 Y 1 X -1 Y 1 Y -1 Y 4 X -1 Y 1 X 1 Y -1 Y 1 1 d s 1266 579 m 1 X -1 Y
 1 X -1 Y 2 X -1 Y 1 1 d -1 Y 4 X s 1275 576 m 1 X 1 -1 d 3 X -1 Y 1 Y 1 -1 d 1 X -1 Y 1 Y -1 Y 1 X -1 Y s 1283 572 m 1 X -1 Y 1 X -1 Y 1 Y 1 -1 d 2 X -1 Y 1 -1 d 3 X s 1292 568 m 1 X -1 Y 2 X 1 -1 d 1 Y 1 -1 d 1 Y -1 Y 1 X -1 Y 2 X -1 Y 1 X s 1301
 564 m 1 X -1 Y 2 X -1 Y 2 X -1 Y 4 X s 1310 561 m 1 -1 d 3 X -1 Y 3 X -1 Y 2 X s 1319 558 m 2 X -1 Y 1 X -1 Y 1 X 1 Y 1 X -1 Y 2 X -1 Y 1 X s 1327 555 m 1 -1 d 3 X 1 -1 d 1 Y 1 X -2 Y 3 X -1 Y s 1336 551 m 1 X -1 Y 1 X 1 Y -1 Y 1 Y -1 Y 1 X -1 Y 2 X
 -1 Y 1 X 1 1 d -1 Y 1 1 d -1 Y 1 X s 1345 548 m 3 X 1 -1 d 1 Y -1 Y 1 X -1 Y 1 X -1 Y 1 Y 2 X -1 Y 1 X -1 Y s 1354 544 m 1 Y -1 Y 4 X -1 Y 1 X -1 Y 2 X 1 -1 d 1 X s 1363 541 m 3 X 1 -1 d 1 X -1 Y 1 X 1 Y -1 Y 2 X s 1371 539 m 1 -1 d 5 X -1 Y 2 X -1
 Y 1 X s 1380 536 m 2 X -1 Y 1 X 1 Y -1 Y 3 X -1 Y 2 X 1 -1 d s 1389 533 m 2 X 1 Y 7 X s 1398 534 m 1 X -1 Y 1 X 1 Y 1 X -1 Y 3 X -1 Y 1 X 1 Y -1 Y 1 -1 d 1 X s 1407 531 m 1 -1 d 1 -1 d 1 X -1 Y 4 X -1 Y 1 X s 1415 527 m 2 X -1 Y 2 X -1 Y 2 X -1 Y 1
 X -1 Y 2 X -1 Y s 1424 522 m 2 X -1 Y 1 X -1 Y 2 X -1 Y 3 X 1 1 d -1 Y s 1433 519 m 4 X -1 Y 5 X s 1442 518 m 1 X -1 Y 1 X -1 Y 1 X 1 Y -1 Y 5 X -1 Y 1 X s 1451 515 m 1 X 1 -1 d 1 Y -1 Y 2 X -1 Y 4 X -1 Y 1 Y s 1459 513 m 3 X -1 Y 5 X 1 -1 d s 1468
 511 m 1 X 1 Y -1 Y 3 X -1 Y 5 X s 1477 510 m 1 X -1 Y 2 X -1 Y 1 X 1 Y 2 X -1 Y 1 X -1 Y 2 X s 1486 507 m 3 X -1 Y 4 X -1 Y 2 X s 1495 505 m -1 Y 4 X -1 Y 3 X -1 Y 1 Y 1 X s 1503 503 m 1 X -1 Y 3 X -1 Y 5 X -1 Y s 1512 500 m 2 X 1 Y -1 Y 3 X -1 Y 1
 X 1 Y 1 -1 d 1 X 1 1 d -1 Y s 1521 499 m 8 X -1 Y 1 X s 1530 498 m 1 X -1 Y 4 X -1 Y 1 Y -1 Y 4 X s 1539 496 m 1 X -1 Y 3 X -1 Y 1 X 1 Y -1 Y 1 X 1 Y 2 X -1 Y s 1547 494 m 2 X 1 Y -1 Y 1 X 1 Y 1 X -1 Y 5 X -1 Y s 1556 493 m 2 X 1 Y 1 X -1 Y 1 X 1 Y
 -1 Y 1 Y -1 Y 3 X -1 Y 1 X -1 Y 1 X s 1565 491 m 4 X -1 Y 5 X s 1574 490 m 1 X -1 Y 5 X -1 Y 3 X s 1583 488 m 1 X -1 Y 1 1 d 4 X -1 Y 2 X -1 Y s 1591 486 m 2 X 1 -1 d 3 X -1 Y 1 X -1 Y 1 X -1 Y 1 X s 1600 482 m 1 X -1 Y 1 X -1 Y 1 -1 d 2 X -1 Y 3 X
 -1 Y 1 X s 1609 477 m -1 Y 3 X -1 Y 1 X -1 Y 1 Y 1 -1 d -1 Y 2 X -1 Y 2 X s 1618 472 m 1 X 1 -1 d 1 X -1 Y 2 X -1 Y 4 X s 1627 469 m 2 X -1 Y 2 X 1 Y 2 X -1 Y 2 X s 1635 468 m 1 X -1 Y 1 X -1 Y 7 X s 1644 466 m 1 X 1 -1 d 2 X -1 Y 1 X 1 -1 d 1 X 1 Y
 -1 Y 2 X s 1653 463 m 2 X -1 Y 1 X 1 Y 1 X -1 Y 5 X s 1662 462 m 3 X -1 Y 4 X -1 Y 2 X s 1671 460 m 2 X 1 -1 d 5 X -1 Y s 1679 458 m 4 X -1 Y 4 X -1 Y 1 X s 1688 456 m 2 X -1 Y 3 X -1 Y 3 X -1 Y 1 X s 1697 453 m 1 X -1 Y 2 X -1 Y 1 X 1 Y -1 Y 5 X s
 1706 451 m -1 Y 3 X -1 Y 4 X -1 Y 2 X s 1715 448 m 1 X -1 Y 1 Y -1 Y 1 1 d -1 Y 1 X 1 -1 d 4 X s 1723 446 m 1 -1 d 1 1 d 1 X -1 Y 2 X -1 Y 4 X s 1732 444 m -1 Y 7 X 1 Y 1 X -1 Y 1 X s 1741 443 m -1 Y 2 X -1 Y 7 X s 1750 441 m 2 X -1 Y 1 Y -1 Y 5 X
 -1 Y 1 Y 1 X -1 Y 1 1 d s 1759 440 m 3 X -1 Y 3 X -1 Y 2 X s 1767 438 m 1 X -1 Y 5 X -1 Y 2 X -1 Y 1 X s 1776 435 m 9 X s 1785 435 m 4 X -1 Y 4 X -1 Y 1 X s 1794 433 m 2 X 1 -1 d 1 X 1 1 d 1 X 1 -1 d 2 X s 1803 432 m 9 X s 1812 432 m 2 X -1 Y 4 X -1
 Y 1 Y 1 X -1 Y 1 X s 1820 430 m 4 X -1 Y 1 Y 1 -1 d 1 X 1 Y 2 X -1 Y 1 X 1 Y s 1829 430 m -1 Y 3 X -1 Y 5 X -1 Y 1 X s 1838 427 m 3 X -1 Y 6 X s 1847 426 m 1 X -1 Y 4 X -1 Y 4 X s 1856 424 m -1 Y 2 X 1 -1 d 2 X -1 Y 2 X -1 Y 1 X s 1864 420 m 3 X -1
 Y 3 X -1 Y 1 X -1 Y 2 X s 1873 417 m 1 X -1 Y 8 X -1 Y s 1882 415 m 1 -1 d 1 X -1 Y 2 X -1 Y 2 X -1 Y 1 X -1 Y 2 X s 1891 410 m -1 Y 1 X -1 Y 1 X -1 Y 2 X -1 Y 1 X -1 Y 3 X -1 Y 1 X s 1900 404 m 2 X -1 Y 1 X -1 Y 2 X -1 Y 1 X -1 Y 1 X -1 Y 1 X s
 1908 399 m 1 -1 d 1 X -1 Y 3 X -1 Y 2 X -1 Y 1 X 1 -1 d -1 Y s 1917 393 m 1 -1 d 2 X -1 Y 1 X -1 Y 1 X -1 Y 1 X 1 -1 d 1 X -2 Y 1 X s 1926 386 m -1 Y 1 X -2 Y 1 X -2 Y 1 -1 d 1 X -2 Y 1 X -1 Y 1 -1 d -1 Y 1 X 1 -1 d 1 X s 1935 374 m -1 Y 1 X -2 Y 1
 X -2 Y 1 X 1 -1 d 1 X -2 Y 1 X -1 Y 1 X -2 Y 1 -1 d -1 Y 1 X s 1944 361 m -1 Y 1 X -1 Y 1 X -1 Y 1 X -2 Y 2 X -1 Y 3 X -2 Y s 1952 353 m 1 X -1 Y 1 -1 d -1 Y 1 X -1 Y 1 X -1 Y 1 X -1 Y 1 X -1 Y 1 -1 d 1 X -1 Y 1 X -1 Y s 1961 343 m 1 X 1 -1 d -1 Y 1
 X 1 -1 d -1 Y 2 X -1 Y 1 X -1 Y 1 X -1 Y 1 X s 1970 336 m 1 -1 d 1 X -1 Y 2 X -1 Y 1 X -1 Y 2 X -1 Y 1 -1 d 1 X s 1979 330 m -1 Y 2 X -1 Y 1 -1 d 1 X -1 Y 1 X -2 Y 2 X -1 Y 1 X -1 Y 1 X s 1988 322 m -1 Y 1 X -1 Y 1 X -2 Y 1 X -1 Y 1 X -1 Y 2 X -1 Y
 2 X -1 Y s 1996 314 m 1 X -1 Y 1 X 1 -1 d 1 X -1 Y 1 X 1 -1 d 2 X -1 Y 1 X -1 Y s 2005 308 m -1 Y 2 X -1 Y 1 X -1 Y 1 X -1 Y 1 X -1 Y 1 X -2 Y 1 X -1 Y 2 X s 2014 300 m 1 X -1 Y 1 -1 d 1 X -1 Y 1 -1 d -1 Y 1 X -1 Y 1 X -1 Y 1 X -1 Y 1 X -2 Y 1 X s
 2023 290 m 1 -1 d -1 Y 1 X 1 -1 d -1 Y 2 X -2 Y 1 X 1 -1 d -1 Y 1 X -1 Y 1 -1 d s 2032 280 m -1 Y 1 X -3 Y 1 X -1 Y 1 -1 d -4 Y 1 -1 d -2 Y 1 -1 d -4 Y 1 -1 d -3 Y 1 X -4 Y 1 -1 d -4 Y s 2040 249 m -1 Y 1 -1 d s black[  ] 0 sd 3 lw 245 201 m 1796 X
 s 294 241 m -40 Y s 333 221 m -20 Y s 372 221 m -20 Y s 410 221 m -20 Y s 449 221 m -20 Y s 488 241 m -40 Y s 527 221 m -20 Y s 566 221 m -20 Y s 604 221 m -20 Y s 643 221 m -20 Y s 682 241 m -40 Y s 721 221 m -20 Y s 760 221 m -20 Y s 799 221 m -20
 Y s 837 221 m -20 Y s 876 241 m -40 Y s 915 221 m -20 Y s 954 221 m -20 Y s 993 221 m -20 Y s 1032 221 m -20 Y s 1070 241 m -40 Y s 1109 221 m -20 Y s 1148 221 m -20 Y s 1187 221 m -20 Y s 1226 221 m -20 Y s 1264 241 m -40 Y s 1303 221 m -20 Y s
 1342 221 m -20 Y s 1381 221 m -20 Y s 1420 221 m -20 Y s 1459 241 m -40 Y s 1497 221 m -20 Y s 1536 221 m -20 Y s 1575 221 m -20 Y s 1614 221 m -20 Y s 1653 241 m -40 Y s 1692 221 m -20 Y s 1730 221 m -20 Y s 1769 221 m -20 Y s 1808 221 m -20 Y s
 1847 241 m -40 Y s 1886 221 m -20 Y s 1924 221 m -20 Y s 1963 221 m -20 Y s 2002 221 m -20 Y s 2041 241 m -40 Y s 294 241 m -40 Y s 255 221 m -20 Y s 2041 241 m -40 Y s
 gsave  2268 1676 0 0 C 250.283 128.934 t 0 r /Helvetica-Bold findfont 64.4669 sf 0 0 m (0.1) show NC gr 
 gsave  2268 1676 0 0 C 439.892 128.934 t 0 r /Helvetica-Bold findfont 64.4669 sf 0 0 m (0.2) show NC gr 
 gsave  2268 1676 0 0 C 633.292 128.934 t 0 r /Helvetica-Bold findfont 64.4669 sf 0 0 m (0.3) show NC gr 
 gsave  2268 1676 0 0 C 830.485 128.934 t 0 r /Helvetica-Bold findfont 64.4669 sf 0 0 m (0.4) show NC gr 
 gsave  2268 1676 0 0 C 1023.89 128.934 t 0 r /Helvetica-Bold findfont 64.4669 sf 0 0 m (0.5) show NC gr 
 gsave  2268 1676 0 0 C 1217.29 128.934 t 0 r /Helvetica-Bold findfont 64.4669 sf 0 0 m (0.6) show NC gr 
 gsave  2268 1676 0 0 C 1410.69 128.934 t 0 r /Helvetica-Bold findfont 64.4669 sf 0 0 m (0.7) show NC gr 
 gsave  2268 1676 0 0 C 1604.09 128.934 t 0 r /Helvetica-Bold findfont 64.4669 sf 0 0 m (0.8) show NC gr 
 gsave  2268 1676 0 0 C 1801.28 128.934 t 0 r /Helvetica-Bold findfont 64.4669 sf 0 0 m (0.9) show NC gr 
 gsave  2268 1676 0 0 C 2025.02 128.934 t 0 r /Helvetica-Bold findfont 64.4669 sf 0 0 m (1) show NC gr 
 gsave  2268 1676 0 0 C 712.928 30.3373 t 0 r /Helvetica-Bold findfont 72.0512 sf 0 0 m (Cut value applied on Likelihood output) show NC gr  245 201 m 1140 Y s 291 201 m -46 X s 268 253 m -23 X s 268 305 m -23 X s 268 357 m -23 X s 291 408 m -46 X s
 268 460 m -23 X s 268 512 m -23 X s 268 564 m -23 X s 291 616 m -46 X s 268 667 m -23 X s 268 719 m -23 X s 268 771 m -23 X s 291 823 m -46 X s 268 875 m -23 X s 268 926 m -23 X s 268 978 m -23 X s 291 1030 m -46 X s 268 1082 m -23 X s 268 1134 m
 -23 X s 268 1185 m -23 X s 291 1237 m -46 X s 291 1237 m -46 X s 268 1289 m -23 X s 268 1341 m -23 X s
 gsave  2268 1676 0 0 C 182.024 178.232 t 0 r /Helvetica-Bold findfont 64.4669 sf 0 0 m (0) show NC gr 
 gsave  2268 1676 0 0 C 128.934 383.009 t 0 r /Helvetica-Bold findfont 64.4669 sf 0 0 m (0.2) show NC gr 
 gsave  2268 1676 0 0 C 125.142 591.578 t 0 r /Helvetica-Bold findfont 64.4669 sf 0 0 m (0.4) show NC gr 
 gsave  2268 1676 0 0 C 128.934 796.355 t 0 r /Helvetica-Bold findfont 64.4669 sf 0 0 m (0.6) show NC gr 
 gsave  2268 1676 0 0 C 125.142 1004.92 t 0 r /Helvetica-Bold findfont 64.4669 sf 0 0 m (0.8) show NC gr 
 gsave  2268 1676 0 0 C 189.608 1213.49 t 0 r /Helvetica-Bold findfont 64.4669 sf 0 0 m (1) show NC gr 
 gsave  2268 1676 0 0 C 64.4669 731.888 t 90 r /Helvetica-Bold findfont 72.0512 sf 0 0 m (Efficiency \(Purity\)) show NC gr  0 0 0.933333 c[  52 12 ] 0 sd 6 lw 0.49 0.6 0.82 c black 0 0 0.933333 c 245 719 m 9 X s 254 719 m 9 X s 263 719 m 8 X s 271
 719 m 9 X s 280 719 m 9 X s 289 719 m 9 X s 298 719 m 5 X 1 Y 4 X s 307 720 m 7 X 1 1 d s 315 721 m 4 X 1 Y 5 X s 324 722 m 4 X 1 Y 5 X s 333 723 m 1 X 1 Y 5 X 1 1 d 2 X s 342 725 m 1 X 1 Y 3 X 1 Y 4 X 1 Y 1 X s 351 728 m 2 X 1 Y 2 X 1 1 d 1 X 1 Y 2
 X 1 Y s 359 732 m 1 X 1 Y 1 X 1 Y 2 X 1 Y 1 X 1 Y 2 X 1 Y 1 X 1 1 d s 368 738 m 1 X 1 Y 1 X 1 1 d 1 X 1 Y 1 X 1 Y 1 X 1 Y 1 X 1 Y 1 X 1 Y 1 X s 377 745 m 1 X 1 Y 1 X 1 Y 1 X 1 Y 1 X 1 Y 1 X 1 Y 1 X 1 Y 2 X 1 Y 1 X s 386 752 m 1 1 d 1 X 1 Y 1 X 1 Y 1
 X 1 Y 1 X 1 Y 2 X 1 Y 1 X 1 Y 1 X s 395 759 m 1 1 d 1 X 1 Y 1 X 1 Y 1 X 1 Y 2 X 1 Y 1 X 1 Y 1 X s 403 765 m 1 X 1 Y 2 X 1 1 d 2 X 1 Y 2 X 1 Y 1 X s 412 769 m 1 Y 2 X 1 1 d 2 X 1 Y 2 X 1 1 d 1 X s 421 773 m 1 X 1 Y 2 X 1 Y 2 X 1 Y 2 X 1 Y 2 X s 430
 777 m 1 Y 1 X 1 Y 2 X 1 Y 1 X 1 Y 1 X 1 1 d 2 X 1 Y 1 X s 439 783 m 1 Y 2 X 1 Y 2 X 1 Y 1 X 1 Y 1 X 1 1 d -1 Y 1 Y 1 X s 447 788 m 2 X 1 Y 1 X 1 1 d 2 X 1 Y 2 X 1 Y 1 X s 456 792 m 1 X 1 Y 2 X 1 Y 2 X 1 Y 3 X 1 Y 1 X s 465 796 m 1 X 1 Y 3 X 1 Y 3 X
 1 Y 1 X 1 Y 1 X s 474 800 m 1 X 1 Y 2 X 1 Y 2 X 1 1 d 1 X 1 Y 2 X s 483 804 m 1 Y 4 X 1 Y 2 X 1 Y 2 X s 491 807 m 1 X 1 Y 4 X 1 Y 4 X 1 Y s 500 810 m 2 X 1 Y 2 X 1 Y 5 X s 509 812 m 1 X 1 Y 4 X 1 Y 3 X 1 Y 1 X s 518 815 m 4 X 1 Y 4 X 1 Y 1 X s 527
 817 m 7 X 1 1 d -1 Y s 535 817 m 1 1 d 3 X 1 Y 4 X 1 Y 1 X s 544 820 m 7 X 1 Y 2 X s 553 821 m 1 -1 d 1 Y 4 X 1 Y 4 X s 562 822 m 1 Y 9 X s 571 823 m 1 Y 5 X 1 Y 1 X -1 Y 1 X 1 Y 1 X s 579 825 m 5 X 1 Y 1 -1 d 1 Y 3 X s 588 826 m 2 X 1 1 d 6 X 1 Y s
 597 828 m 9 X s 606 828 m 3 X 1 Y 5 X 1 Y 1 X s 615 830 m 2 X 1 Y 4 X 1 Y 2 X s 623 832 m 5 X 1 Y 1 X -1 Y 1 1 d 2 X s 632 833 m 2 X 1 Y 4 X 1 Y 3 X s 641 835 m 4 X 1 Y 5 X s 650 836 m 5 X 1 Y 4 X s 659 837 m 7 X 1 Y 1 X s 667 838 m 9 X s 676 838 m
 2 X 1 Y 7 X s 685 839 m 9 X s 694 839 m 1 X 1 Y 8 X s 703 840 m 1 X 1 Y 7 X 1 Y s 711 842 m 7 X 1 Y -1 Y 1 X 1 Y 1 X s 720 843 m 6 X 1 Y 3 X s 729 844 m 6 X 1 Y 3 X s 738 845 m 9 X s 747 845 m 1 X 1 1 d 5 X 1 Y 1 X s 755 847 m 9 X s 764 847 m 3 X 1
 1 d -1 Y 2 X 1 Y 3 X s 773 848 m 3 X 1 Y -1 Y 1 Y 1 X -1 Y 1 1 d 4 X s 782 849 m 5 X 1 Y 4 X s 791 850 m 4 X 1 1 d 3 X s 799 851 m 7 X 1 1 d 1 X s 808 852 m 1 X 1 1 d 6 X 1 Y 1 X s 817 854 m 3 X 1 Y 4 X 1 Y 2 X s 826 856 m 1 X 1 Y 2 X 1 Y 2 X 1 Y 2
 X 1 1 d 1 X s 835 860 m 2 X 1 Y 1 X 1 Y 2 X 1 Y -1 Y 1 X 1 Y -1 Y 1 Y 1 X 1 1 d s 843 864 m 1 X 1 Y 2 X 1 Y 3 X 1 Y 1 1 d 1 X 1 1 d s 852 869 m 1 X 1 Y 1 X 1 Y 2 X 1 Y 2 X 1 1 d 1 X 1 Y 1 X s 861 874 m 1 X 1 1 d 1 Y 2 X 1 Y 1 X 1 Y 1 X 1 Y 2 X 1 Y 1
 X s 870 880 m 2 X 1 Y -1 Y 1 Y 1 X 1 Y 2 X 1 Y 1 X 1 Y -1 Y 1 Y 2 X 1 Y 1 X s 879 885 m 1 X 1 Y 1 X 1 Y 1 X 1 Y 1 X 1 Y 1 X 1 Y 1 1 d 1 X 1 Y 1 X s 887 892 m 1 1 d 1 Y 2 X 1 Y 2 X 1 Y 2 X 1 Y 2 X 1 Y s 896 898 m 3 X 1 Y 2 X 1 1 d -1 Y 1 Y 2 X 1 Y 1
 X s 905 901 m 2 X 1 Y 1 X 1 Y 1 X 1 Y 2 X 1 1 d 1 X 1 Y 1 X s 914 906 m 1 Y 1 X 1 Y 3 X 2 Y 1 X 1 Y 1 X 1 Y 2 X 2 Y 1 X s 923 914 m 1 1 d 2 X 1 Y 1 X 1 Y 2 X 1 Y -1 Y 1 Y 1 X 1 Y 1 -1 d 1 Y s 931 919 m 3 X 1 Y 1 X 1 Y -1 Y 1 Y 2 X 1 Y 2 X 1 Y 1 X 1
 Y s 940 924 m 1 X 1 Y 1 -1 d 1 Y 2 X 1 Y 1 X 1 1 d -1 Y 1 Y 1 X 1 Y 2 X s 949 928 m 1 X 1 Y 3 X 1 Y 2 X 1 Y 1 X 1 Y 2 X 1 Y s 958 933 m 3 X 1 Y 2 X 1 Y 1 -1 d 1 Y 2 X 1 Y 1 X s 967 936 m 1 Y 1 X 1 Y -1 Y 1 Y 2 X 2 Y 2 X 1 Y 1 X 1 Y 1 X -1 Y 1 X s
 975 941 m 2 X 1 Y 1 X -1 Y 1 1 d 1 X 1 Y 1 -1 d 1 X 2 Y 2 X s 984 944 m 1 X 1 Y 5 X 1 Y 3 X 1 Y s 993 947 m 1 X 1 Y 2 X 1 1 d 1 X 1 Y 2 X 1 Y 1 X 1 Y 1 X s 1002 952 m 2 X 1 1 d 2 X 1 Y 3 X 1 Y 1 X s 1011 955 m 1 X 1 Y 4 X 1 Y 2 X 1 Y -1 Y 1 X 1 Y s
 1019 958 m 2 X 1 Y 1 X 1 Y 1 X 1 Y 2 X 1 Y 2 X 1 Y 1 X s 1028 963 m 1 X -1 Y 1 X 1 1 d 3 X 1 Y 1 X -1 Y 1 X 1 Y 1 X -1 Y 1 Y s 1037 964 m 2 X 1 Y 1 X 1 Y 2 X 1 Y -1 Y 1 Y 2 X 1 Y 1 X 1 Y 1 X s 1046 969 m 1 X 1 1 d 1 Y 1 X 1 Y 1 X 1 Y 2 X 1 Y 1 X 1 Y
 1 X -1 Y 1 Y 1 X s 1055 975 m 6 X 1 Y 2 X s 1063 976 m 1 1 d 2 X 1 Y 2 X 1 Y 1 X -1 Y 1 Y 1 X 1 Y 2 X s 1072 980 m 2 X 1 Y 1 -1 d 1 X 1 Y -1 Y 1 1 d 2 X 1 Y 1 X 1 1 d -1 Y 1 Y s 1081 983 m 1 X 1 1 d 1 Y 5 X -1 Y 1 X 1 Y 1 X s 1090 985 m 1 Y 1 X 1 Y
 1 X -1 Y 1 X 1 Y 3 X 1 1 d 1 X 1 Y 1 X s 1099 989 m 1 X 1 Y 1 -1 d 1 Y 4 X 1 1 d -1 Y 1 Y 1 X -1 Y 1 Y s 1107 991 m 1 1 d 1 X 1 Y 2 X 1 Y 1 X 1 Y 3 X 1 Y 1 X s 1116 996 m 2 X 1 Y 1 X 1 Y 1 X 1 -1 d 1 Y -1 Y 1 X 1 1 d 2 X s 1125 998 m 1 1 d -1 Y 1 Y
 -1 Y 1 1 d 1 X -1 Y 1 Y 1 X 1 Y 2 X 1 1 d 1 1 d 1 X s 1134 1002 m 1 Y 4 X 1 Y -1 Y 1 1 d 3 X 1 Y 1 X s 1143 1005 m 2 X 1 Y 1 -1 d 1 1 d 1 X -1 Y 1 1 d 1 X 1 Y 1 X 1 Y s 1151 1008 m 1 X 1 -1 d 2 Y 2 X 1 Y 2 X 1 Y 3 X s 1160 1011 m 1 X 1 Y 3 X 1 1 d 4
 X 1 Y -1 Y s 1169 1013 m 1 Y 1 X 1 Y 1 X 1 1 d 1 X 2 Y 3 X 1 1 d 1 X s 1178 1019 m 2 X 1 Y 3 X 1 Y 2 X 1 Y 2 X s 1187 1022 m 1 Y 1 1 d 1 Y 1 X -1 Y 1 1 d 1 X 1 Y 1 X 1 Y 3 X 1 Y -1 Y s 1195 1027 m 2 X 2 Y 1 -1 d 1 Y 1 X -1 Y 2 X 1 Y 1 X -1 Y 1 Y 2 X
 1 Y -1 Y 1 Y s 1204 1030 m 2 X 1 Y -1 Y 1 X 1 Y 2 X 1 Y 1 X 1 Y 3 X s 1213 1033 m 4 X 1 Y 1 X -1 Y 1 Y -1 Y 1 X 1 Y 2 X 1 1 d s 1222 1035 m 1 X 1 Y -1 Y 1 X 1 Y 1 X 1 Y 3 X 1 Y 3 X s 1231 1038 m 3 X 1 Y 4 X 1 Y 1 X s 1239 1040 m 2 X 1 Y 1 X 1 Y 1 X
 1 Y 1 X 1 Y 2 X 1 Y 1 X 1 1 d -1 Y s 1248 1045 m 2 X 1 Y 1 X 1 Y 1 X 1 Y -1 Y 1 1 d -1 Y 3 X 1 Y -1 Y 1 X 1 Y s 1257 1048 m 1 X -1 Y 1 Y 1 X 1 Y 5 X 1 Y 1 X 1 Y 1 X s 1266 1051 m 1 Y 2 X 1 Y 1 X 1 Y 2 X 1 Y 1 -1 d 1 Y 2 X 1 Y 1 X s 1275 1056 m 1 Y 3
 X 1 Y 2 X 1 Y 1 -1 d 1 Y 1 X -1 Y 1 Y 1 X s 1283 1059 m 1 X -1 Y 5 X -1 Y 1 Y 2 X 1 Y 1 X s 1292 1059 m 5 X 1 Y 4 X 1 Y s 1301 1061 m 1 -1 d 1 Y 1 X -1 Y 1 Y 4 X 1 Y 1 X -1 Y 1 1 d 1 X s 1310 1062 m 1 X 1 Y -1 Y 1 X 1 Y 3 X 1 Y 2 X 1 Y 2 X s 1319
 1065 m 1 Y 3 X 1 Y 1 X 1 1 d 3 X s 1327 1068 m 4 X 1 Y 1 X 1 Y 1 X -1 Y 1 X 1 Y 2 X s 1336 1070 m 2 X 1 Y -1 Y 4 X 1 Y 1 1 d 1 X 1 Y 1 X 1 Y s 1345 1074 m 2 X 1 Y 2 X 1 Y 1 -1 d 1 X 1 1 d 1 Y 2 X s 1354 1077 m 3 X 1 Y 1 X -1 Y 5 X s 1363 1077 m 1 X
 1 Y 1 X 1 Y 2 X 1 Y 1 X -1 Y 1 Y 1 X 1 Y 2 X s 1371 1081 m 1 -1 d 1 1 d 1 X 1 Y 1 X 1 Y 1 X 1 Y 2 X 1 Y 2 X s 1380 1085 m 1 Y 1 X -1 Y 1 X 1 Y 2 X 1 Y 1 X 1 Y 4 X s 1389 1088 m 1 X 1 1 d 2 Y 2 X 1 Y 1 X 1 Y 3 X 1 1 d s 1398 1094 m 2 X 1 Y 1 X -1 Y 1
 Y 1 X 1 Y 1 X 1 1 d 3 X s 1407 1097 m 1 Y 1 X 1 -1 d 2 X 1 1 d 1 Y 3 X 1 Y s 1415 1100 m 1 X 1 Y 1 X 1 Y 1 X 1 Y 1 X -1 Y 1 1 d 1 X -1 Y 1 X 1 Y 1 -1 d 1 Y 1 X s 1424 1103 m 1 X -1 Y 1 Y 5 X 1 1 d 1 X 1 Y 1 X s 1433 1105 m 1 X 1 1 d 1 Y 1 X 1 Y 1 X
 -1 Y 1 X 1 Y 1 X 1 Y 1 X 1 Y 1 X 1 Y -1 Y 1 X s 1442 1110 m 1 X 1 Y 1 X -1 Y 1 1 d 2 X 1 Y 1 X 1 Y 2 X 1 Y -1 Y 1 X s 1451 1113 m 2 X 1 Y -1 Y 1 X 1 Y 1 X 1 -1 d 1 X 1 Y 2 X 1 Y s 1459 1115 m 1 1 d 2 X 1 1 d 2 X 1 Y 1 X 1 Y 2 X s 1468 1119 m 2 X 1 Y
 4 X 1 Y 3 X s 1477 1121 m 4 X 1 Y 2 X -1 Y 3 X s 1486 1121 m 1 1 d -1 Y 1 X 1 Y 3 X 1 Y 1 X 1 -1 d 1 Y 2 X s 1495 1123 m 3 X 1 Y 4 X 1 Y 1 X s 1503 1125 m 6 X 1 1 d 2 X s 1512 1126 m 3 X 1 Y 3 X 2 Y 2 X 1 Y 1 X 1 Y s 1521 1131 m 5 X 1 Y 1 X 1 Y 2 X
 1 Y 1 X s 1530 1134 m 1 X -1 Y 2 X 1 Y 2 X 1 Y 4 X s 1539 1135 m 2 X 1 Y 3 X 1 Y -1 Y 1 X 2 Y 2 X -1 Y s 1547 1137 m 2 X 1 Y 1 X 1 Y 1 X 1 Y 2 X 1 Y 1 X 1 Y 2 X s 1556 1142 m 1 X 1 Y 1 X 1 Y 2 X 2 Y 2 X -1 Y 3 X s 1565 1145 m 2 X 1 Y 7 X s 1574 1146
 m 2 X 1 1 d 1 Y 6 X s 1583 1148 m 2 X 1 Y 2 X 2 Y 1 X -1 Y 3 X s 1591 1150 m 2 X 1 Y 1 -1 d 6 X 1 Y s 1600 1151 m 1 X -1 Y 1 X 1 Y 1 X -1 Y 1 X 1 Y 4 X 1 Y 1 X s 1609 1152 m 2 X 1 Y 2 X 1 Y 1 X -1 Y 1 X 1 1 d 1 Y 2 X s 1618 1155 m 7 X -1 Y 1 1 d 1 X
 s 1627 1155 m 1 Y 2 X -1 Y 2 X 1 Y 3 X 1 Y 1 X s 1635 1157 m 5 X 1 Y 2 X 1 1 d 1 Y 1 X s 1644 1160 m 9 X s 1653 1160 m 1 Y 6 X 1 Y 3 X s 1662 1162 m 2 X 1 Y 3 X 1 Y 4 X s 1671 1164 m 1 X -1 Y 3 X 1 Y 2 X 1 Y 2 X s 1679 1165 m 6 X 1 1 d 2 X s 1688
 1166 m 1 1 d 2 X 1 Y 1 X 1 Y 3 X 1 Y 2 X s 1697 1170 m 1 Y 3 X -1 Y 1 X 2 Y 5 X s 1706 1172 m -1 Y 1 X 1 Y 1 X 1 Y 3 X 1 Y 4 X s 1715 1174 m 1 X 1 1 d 6 X s 1723 1175 m 1 X 1 1 d 1 Y 2 X -1 Y 2 X 1 Y 1 X 1 Y 2 X s 1732 1178 m 4 X 1 Y 1 X 1 Y -1 Y 1
 X 2 Y 1 X 1 Y 2 X s 1741 1182 m 2 X 1 Y 5 X 2 Y 2 X s 1750 1185 m 1 X 1 Y -1 Y 1 X 1 Y 3 X 1 Y 1 1 d 1 X -1 Y 2 Y 1 X 1 1 d s 1759 1190 m 1 Y 1 X -1 Y 1 X 1 Y 6 X s 1767 1191 m 8 X 1 -1 d 1 Y s 1776 1191 m 4 X 1 Y 1 X 1 Y 4 X s 1785 1193 m 9 X 1 Y s
 1794 1194 m 4 X 1 Y 1 1 d 4 X s 1803 1196 m 3 X 2 Y 5 X 1 Y 1 X s 1812 1199 m 2 X -1 Y 3 X 1 Y 1 X 1 Y 2 X s 1820 1200 m 1 X 1 Y 3 X 1 Y 2 X 2 Y 3 X 1 Y s 1829 1205 m 9 X s 1838 1205 m 5 X 1 Y 1 X 1 Y 1 X 1 1 d 1 X s 1847 1208 m 7 X 1 1 d 1 X s 1856
 1209 m 4 X 1 Y 2 X 1 -1 d 1 X s 1864 1209 m 2 X 1 Y 7 X s 1873 1210 m 2 X 1 Y 4 X 1 Y 3 X s 1882 1212 m -1 Y 4 X 1 Y 4 X 1 Y 1 X s 1891 1213 m 2 X -1 Y 1 X 1 1 d 5 X s 1900 1213 m 7 X 1 1 d -1 Y s 1908 1213 m 9 X s 1917 1213 m 2 X 1 Y 2 X -1 Y 1 X 1
 Y 1 X 1 Y 1 X 1 1 d 1 X s 1926 1216 m 2 X 1 -1 d 1 X 2 Y -1 Y 3 X 1 Y 2 X s 1935 1217 m 1 X 1 1 d 1 X 2 Y 4 X -1 Y 2 X s 1944 1219 m 6 X -1 Y 2 X s 1952 1218 m 1 X 1 Y 7 X -1 Y 1 X s 1961 1218 m 2 Y 3 X -1 Y 6 X 1 Y s 1970 1220 m 9 X s 1979 1220 m
 -1 Y 1 X 1 2 d 3 X -1 Y 4 X s 1988 1220 m 2 X 1 -1 d 5 X s 1996 1219 m 4 X -1 Y 2 X 1 2 d 2 X s 2005 1220 m 2 X -1 Y 6 X -1 Y 1 X s 2014 1218 m 4 X 1 -1 d 3 X 1 -1 d s 2023 1216 m 4 X -1 Y 1 X 1 2 d 2 X 1 -1 d s 2032 1216 m 1 X -1 Y 1 X 1 3 d -2 Y 1
 X -1 Y 1 3 d -1 Y 1 X -1 Y 1 -1 d -1 Y 1 X -1 Y 3 Y s 2040 1216 m 1 -1 d s[  ] 0 sd 9 lw 0.49 0.6 0.82 c black 0 0 0.933333 c 245 1237 m 9 X s 254 1237 m 9 X s 263 1237 m 8 X s 271 1237 m 3 X -1 Y 6 X s 280 1236 m 9 X s 289 1236 m 6 X -1 Y 3 X s 298
 1235 m 9 X s 307 1235 m 1 X 1 -1 d 6 X s 315 1234 m 1 X -1 Y 5 X -1 Y 3 X s 324 1232 m 9 X s 333 1232 m 1 -1 d 3 X 1 -1 d 4 X s 342 1230 m 4 X -1 Y 5 X s 351 1229 m 2 X -1 Y 6 X s 359 1228 m 3 X -1 Y 4 X -1 Y 2 X s 368 1226 m 3 X -1 Y 6 X s 377 1225
 m 1 -1 d 1 X -1 Y 7 X s 386 1223 m 2 X 1 -1 d 6 X s 395 1222 m 1 X -1 Y 5 X -1 Y 2 X s 403 1220 m 2 X -1 Y 4 X -1 Y 3 X s 412 1218 m 1 X -1 Y 3 X 1 -1 d 3 X 1 -1 d s 421 1215 m 2 X 1 -1 d 6 X s 430 1214 m -1 Y 9 X s 439 1213 m 2 X 1 -1 d 4 X -1 Y 1
 X s 447 1211 m 6 X -1 Y 3 X s 456 1210 m 1 X -1 Y 6 X -1 Y 2 X s 465 1208 m 2 X -1 Y 6 X -1 Y 1 X s 474 1206 m 3 X -1 Y 5 X -1 Y 1 X s 483 1204 m 1 X -1 Y 7 X s 491 1203 m 2 X -1 Y 7 X s 500 1202 m 1 X -1 Y 6 X -1 Y 2 X s 509 1200 m 2 X 1 -1 d 6 X s
 518 1199 m -1 Y 6 X -1 Y 3 X s 527 1197 m 5 X -1 Y 3 X -1 Y s 535 1195 m 9 X -1 Y s 544 1194 m 9 X s 553 1194 m -1 Y 2 X -1 Y 5 X -1 Y 2 X s 562 1191 m 4 X -1 Y 5 X s 571 1190 m 5 X -1 Y 2 X -1 Y 1 X s 579 1188 m 5 X 1 -1 d 3 X s 588 1187 m 6 X 1 -1
 d 2 X s 597 1186 m 1 -1 d 7 X -1 Y 1 X s 606 1184 m 5 X -1 Y 4 X s 615 1183 m 7 X -1 Y 1 X s 623 1182 m 6 X -1 Y 3 X -1 Y s 632 1180 m 9 X s 641 1180 m 2 X -1 Y 7 X s 650 1179 m -1 Y 2 X -1 Y 7 X s 659 1177 m 1 X -1 Y 3 X 1 -1 d 3 X s 667 1175 m 3 X
 -1 Y 3 X -1 Y 3 X s 676 1173 m 6 X -1 Y 3 X s 685 1172 m 5 X -1 Y 4 X s 694 1171 m 3 X -1 Y 6 X s 703 1170 m 7 X -1 Y 1 X s 711 1169 m 7 X -1 Y 2 X s 720 1168 m 6 X -1 Y 3 X s 729 1167 m 3 X -1 Y 6 X s 738 1166 m 1 X 1 -1 d 1 X 1 -1 d 4 X -1 Y 1 X s
 747 1163 m 2 X -1 Y 4 X -1 Y 2 X s 755 1161 m 6 X -1 Y 3 X s 764 1160 m 4 X -1 Y 4 X -1 Y 1 X s 773 1158 m 5 X -1 Y 1 X 1 -1 d 2 X s 782 1156 m 1 X -1 Y 2 X 1 -1 d 5 X s 791 1154 m 2 X -1 Y 3 X -1 Y 3 X s 799 1152 m 1 X -1 Y 2 X -1 Y 3 X -1 Y 1 X -1
 Y 2 X s 808 1148 m 1 X -1 Y 2 X -1 Y 2 X -1 Y 1 X 1 -1 d 2 X s 817 1144 m 1 -1 d 1 X 1 -1 d 1 X 1 -1 d 2 X -1 Y 1 X -1 Y 1 X s 826 1139 m 1 -1 d 2 X -1 Y 1 X -1 Y 1 X -1 Y 1 X -1 Y 1 -1 d 2 X s 835 1133 m 1 -1 d 1 X -1 Y 2 X -1 Y 2 X -1 Y 1 X -1 Y 1
 X -1 Y s 843 1127 m 2 X -2 Y 1 X -1 Y 1 X 1 -1 d -2 Y 1 X -1 Y 1 X -1 Y 2 X -1 Y s 852 1118 m 1 X 1 -1 d -1 Y 1 X -1 Y 1 X -1 Y 1 X -1 Y 1 X -1 Y 1 X 1 -1 d -1 Y 1 X s 861 1110 m -1 Y 1 X -1 Y 1 -1 d 1 X -2 Y 1 X -1 Y 1 X -2 Y 1 X 1 -1 d -1 Y 1 -1 d
 -1 Y 1 -1 d s 870 1097 m -1 Y 1 X -1 Y 1 X -1 Y 1 X -1 Y 1 -1 d -1 Y 1 X -2 Y 1 X -2 Y 1 -1 d 1 X -1 Y 1 X s 879 1085 m -1 Y 1 X -2 Y 1 X -1 Y 1 X -1 Y 1 X 1 -1 d 1 -1 d -1 Y 1 X -1 Y 1 X -1 Y s 887 1075 m 1 X -1 Y 1 -1 d -1 Y 1 X -2 Y 1 X -1 Y 1 X
 -1 Y 1 X -1 Y 1 X -2 Y 1 X -1 Y 1 X s 896 1064 m 1 X -1 Y 1 X -1 Y 1 X -1 Y 1 -1 d 1 -1 d 1 X -1 Y 1 X -1 Y 1 -1 d 1 X -1 Y s 905 1055 m 1 -1 d -2 Y 1 X -1 Y 1 X -1 Y 1 X -1 Y 1 X -1 Y 1 -1 d 1 X -1 Y 1 X -1 Y 1 X s 914 1045 m 1 X -1 Y 1 X -1 Y 1 X
 -2 Y 1 X -1 Y 1 X -1 Y 1 X -1 Y 1 X -1 Y 1 X -1 Y 1 X s 923 1036 m -1 Y 2 X -1 Y 1 X -1 Y 1 X -1 Y 2 X -2 Y 1 X -1 Y 1 X -2 Y s 931 1027 m 1 X -1 Y 1 -1 d -1 Y 1 X -1 Y 1 -1 d 1 X -1 Y 1 X -1 Y 1 X -2 Y 1 X -1 Y 1 X -1 Y s 940 1016 m -1 Y 1 X 1 -1 d
 1 -1 d -1 Y 1 X -1 Y 1 X -1 Y 1 -1 d 1 X -2 Y 1 X 1 -1 d s 949 1006 m -1 Y 1 X -1 Y 1 X -1 Y 1 -1 d -1 Y 1 X -1 Y 1 X -1 Y 2 X -1 Y 1 X -1 Y 1 X s 958 997 m 1 X -1 Y 1 X -1 Y 1 -1 d 1 -1 d 2 X -1 Y 1 X -2 Y 2 X s 967 990 m -1 Y 1 X -1 Y 1 X -1 Y 1 X
 1 -1 d -1 Y 1 X 1 -1 d -1 Y 1 X -1 Y 1 X -2 Y s 975 980 m 1 -1 d 1 -1 d -1 Y 1 X -1 Y 1 X -1 Y 1 -1 d 1 -1 d -1 Y 2 X -1 Y 1 -1 d -1 Y s 984 969 m 1 X -1 Y 1 X -1 Y 1 X -1 Y 1 X 1 -1 d -2 Y 1 X -1 Y 1 X -2 Y 1 X -1 Y 1 -1 d s 993 958 m 1 -1 d -1 Y 1
 X -1 Y 1 X -1 Y 1 -1 d -1 Y 1 X -2 Y 2 X -2 Y 1 X -1 Y 1 X s 1002 947 m -2 Y 1 X -1 Y 1 -1 d -1 Y 1 X -1 Y 1 X -1 Y 1 X -1 Y 1 X -1 Y 1 -1 d -1 Y 1 X -1 Y 1 -1 d s 1011 934 m -1 Y 1 X -1 Y 1 -1 d -1 Y 1 -1 d -1 Y 1 -1 d -1 Y 1 X -2 Y 1 X -2 Y 1 X -2
 Y 1 X -1 Y s 1019 919 m 1 X -2 Y 1 X -2 Y 1 -1 d -1 Y 1 X -2 Y 1 X -2 Y 2 X -1 Y 1 X -3 Y 1 -1 d -1 Y s 1028 903 m -1 Y 1 X -3 Y 1 X -2 Y 1 X -2 Y 1 X -2 Y 1 X -1 Y 1 -1 d -1 Y 1 X -2 Y 1 X -1 Y 1 X -1 Y s 1037 886 m 1 X -2 Y 1 X -1 Y 1 X -1 Y 1 X
 -2 Y 1 X -1 Y 1 -1 d -2 Y 1 X -1 Y 1 X -3 Y 1 X s 1046 872 m -1 Y 1 X -2 Y 1 X -1 Y 1 X -1 Y 1 X -1 Y 1 X -2 Y 1 X -1 Y 1 -1 d 1 -1 d -1 Y 1 X s 1055 860 m -1 Y 1 -1 d -1 Y 1 X 1 -1 d -2 Y 1 X -2 Y 1 X -1 Y 1 -1 d 1 X -2 Y 1 X -2 Y s 1063 846 m 1 X
 -1 Y 1 -1 d -1 Y 1 -1 d -1 Y 1 X -1 Y 1 -1 d -1 Y 1 X -2 Y 1 X -2 Y 1 X -1 Y 1 X -1 Y s 1072 832 m 1 -1 d -1 Y 1 X -2 Y 1 -1 d -1 Y 1 X 1 -1 d -1 Y 1 X -2 Y 2 X -1 Y 1 -1 d s 1081 820 m -1 Y 1 X -2 Y 1 X -1 Y 1 -1 d 1 X -2 Y 1 X -3 Y 1 X -1 Y 1 X -3
 Y 1 X -1 Y 1 X -1 Y s 1090 804 m 1 X -1 Y 1 X -1 Y 1 X -1 Y 2 X -1 Y 1 X -1 Y 1 X -2 Y 1 X -1 Y 1 X s 1099 796 m -1 Y 1 X 1 -1 d -1 Y 1 X 1 -1 d -1 Y 1 X -2 Y 1 X 1 -1 d -1 Y 1 -1 d -1 Y s 1107 785 m 1 X -1 Y 1 X -1 Y 2 X -1 Y 1 X -2 Y 1 X -1 Y 1 X
 -1 Y 1 X -1 Y 1 -1 d s 1116 776 m 1 -1 d 1 X -1 Y 1 X -1 Y 1 X -1 Y 1 X -2 Y 2 X -1 Y 1 -1 d 1 X s 1125 768 m 1 -1 d -1 Y 1 X 1 -1 d 1 X 1 -1 d 1 X -1 Y 1 X -1 Y 1 X -1 Y 1 X s 1134 761 m 1 -1 d 1 X 1 -1 d -1 Y 2 X -2 Y 1 X -1 Y 1 X -1 Y 1 X -1 Y 1
 X s 1143 753 m -2 Y 1 X -1 Y 1 X -1 Y 1 X -1 Y 1 X -1 Y 1 X -1 Y 1 X -1 Y 1 X -1 Y 1 X -1 Y s 1151 743 m 1 X -1 Y 1 -1 d 1 X -1 Y 1 X -2 Y 1 X -1 Y 1 X 1 -1 d 1 X -1 Y 1 X -1 Y s 1160 734 m 2 X -1 Y 1 X 1 -1 d -1 Y 1 X -1 Y 1 -1 d 1 X -1 Y 1 X -2 Y
 1 X s 1169 726 m 1 X -1 Y 1 X -1 Y 3 X -2 Y 1 X -1 Y 1 X -1 Y 2 X s 1178 720 m -1 Y 1 X 1 -1 d -1 Y 1 X -1 Y 1 X -1 Y 1 X -1 Y 1 X -1 Y 1 X -1 Y 2 X s 1187 712 m -1 Y 2 X -2 Y 1 X -1 Y 2 X -1 Y 1 X -1 Y 2 X s 1195 706 m 1 -1 d 1 X -1 Y 1 X -1 Y 1 X
 -1 Y 1 X -1 Y 1 X -1 Y 1 X -1 Y 1 X -1 Y 1 X -1 Y s 1204 697 m 2 X -1 Y 1 X 1 -1 d -1 Y 2 X -1 Y 2 X -1 Y 1 X s 1213 692 m 1 X -1 Y 2 X -1 Y 2 X -1 Y 1 X -1 Y 3 X s 1222 688 m 1 X -1 Y 1 -1 d 1 -1 d 2 X -1 Y 2 X -1 Y 1 X -1 Y 1 X s 1231 682 m -1 Y 1
 X -1 Y 2 X -1 Y 2 X -1 Y 1 X -1 Y 1 X -1 Y 1 X -1 Y s 1239 675 m 2 X -1 Y 3 X -1 Y 3 X -1 Y 1 X -1 Y s 1248 671 m 2 X -1 Y 2 X -1 Y 2 X -1 Y 1 X -2 Y 1 X 1 -1 d s 1257 665 m 1 X -1 Y 2 X -1 Y 2 X -1 Y 3 X -1 Y 1 X s 1266 661 m 1 X -1 Y 1 X -1 Y 1 X
 -1 Y 1 X -1 Y 2 X -1 Y 1 X 1 -1 d 1 X s 1275 655 m 1 X 1 -1 d 2 X -1 Y 1 X -1 Y 1 X 1 -1 d 1 X -1 Y s 1283 650 m 1 X -1 Y 1 -1 d 1 X -1 Y 2 X -1 Y 1 -1 d 3 X -1 Y s 1292 644 m 1 X -1 Y 2 X 1 -1 d 2 X -2 Y 2 X -1 Y 1 X s 1301 639 m -1 Y 1 X -1 Y 2 X
 -1 Y 2 X -1 Y 2 X -1 Y 2 X s 1310 634 m 1 -1 d 2 X -1 Y 1 X 1 -1 d 1 X -1 Y 1 X -1 Y 2 X s 1319 629 m 1 X -1 Y 1 X -1 Y 3 X -1 Y 1 X -1 Y 1 X -1 Y 1 X s 1327 624 m 1 -1 d 2 X 1 -1 d 2 X -2 Y 3 X -1 Y s 1336 619 m 1 -1 d 1 X -1 Y 1 X -1 Y 2 X -1 Y 2
 X -1 Y 1 X 1 -1 d s 1345 613 m 1 X 1 -1 d 2 X -1 Y 1 X -1 Y 1 X -1 Y 2 X -1 Y 1 X s 1354 608 m -1 Y 2 X 1 -1 d 1 X 1 -1 d 1 X -1 Y 2 X -1 Y 1 X s 1363 603 m 2 X -1 Y 2 X -1 Y 1 -1 d 2 X -1 Y 1 X s 1371 599 m 1 -1 d 2 X 1 -1 d -1 Y 2 X -1 Y 2 X -1 Y
 1 X s 1380 594 m 1 X -1 Y 2 X -1 Y 2 X -1 Y 1 X -1 Y 2 X 1 -1 d s 1389 589 m 4 X -1 Y 5 X s 1398 588 m -1 Y 3 X -1 Y 2 X 1 -1 d -1 Y 1 X -1 Y 1 X -1 Y 1 X s 1407 582 m 1 X -1 Y 1 X -1 Y 1 X -1 Y 2 X 1 -1 d 1 X -1 Y 1 X s 1415 577 m 1 X -1 Y 1 X -1 Y
 1 X -1 Y 2 X -1 Y 1 X -1 Y 1 X -1 Y 2 X -1 Y s 1424 570 m 1 X -1 Y 1 X -1 Y 2 X 1 -1 d 1 X -1 Y 3 X s 1433 566 m -1 Y 3 X -1 Y 2 X -1 Y 2 X -1 Y 2 X s 1442 562 m 1 X -1 Y 1 X -1 Y 3 X -1 Y 3 X -1 Y 1 X s 1451 558 m -1 Y 3 X -1 Y 1 X 1 -1 d 3 X -1 Y
 s 1459 554 m 3 X -1 Y 4 X -1 Y 1 X 1 -1 d s 1468 551 m 2 X -1 Y 2 X -1 Y 5 X s 1477 549 m 1 X -1 Y 2 X -1 Y 4 X -1 Y 2 X s 1486 546 m 1 X -1 Y 2 X -1 Y 4 X -1 Y 2 X s 1495 543 m -1 Y 1 X -1 Y 4 X -1 Y 2 X -1 Y 1 X s 1503 539 m 3 X -1 Y 2 X -1 Y 4 X
 -1 Y s 1512 536 m 4 X 1 -1 d 1 X 1 -1 d 2 X s 1521 534 m -1 Y 6 X -1 Y 2 X -1 Y 1 X s 1530 531 m 1 X -1 Y 3 X -1 Y 5 X -1 Y s 1539 528 m 1 X -1 Y 2 X -1 Y 5 X s 1547 526 m 2 X -1 Y 3 X -1 Y 4 X -1 Y s 1556 523 m 3 X -1 Y 3 X -1 Y 1 X -1 Y 2 X -1 Y s
 1565 519 m 4 X -1 Y 5 X s 1574 518 m -1 Y 4 X -1 Y 2 X 1 -1 d 2 X s 1583 515 m 1 X -1 Y 5 X -1 Y 2 X -1 Y s 1591 512 m 2 X 1 -1 d 3 X -2 Y 2 X -1 Y 1 X -1 Y s 1600 507 m 1 X 1 -1 d -1 Y 1 X -1 Y 3 X -1 Y 2 X -1 Y 1 X s 1609 502 m -1 Y 2 X -1 Y 1 X
 -1 Y 1 X 1 -1 d -1 Y 2 X -1 Y 1 X 1 -1 d s 1618 495 m 2 X -1 Y 1 X -1 Y 3 X -1 Y 3 X s 1627 492 m 2 X -1 Y 5 X -1 Y 1 X s 1635 490 m 1 X -1 Y 2 X 1 -1 d 5 X -1 Y s 1644 487 m 2 X -1 Y 3 X -1 Y 2 X -1 Y 2 X s 1653 484 m 2 X -1 Y 4 X -1 Y 3 X s 1662
 482 m 4 X -1 Y 3 X -1 Y 2 X s 1671 480 m 1 X -1 Y 5 X -1 Y 2 X s 1679 478 m 2 X -1 Y 4 X -1 Y 2 X -1 Y 1 X s 1688 475 m 2 X -2 Y 3 X -1 Y 2 X -1 Y 2 X -1 Y s 1697 470 m 2 X 1 -1 d 1 X -1 Y 3 X -1 Y 2 X s 1706 467 m 1 X 1 -1 d 2 X -1 Y 3 X -1 Y 2 X s
 1715 464 m 1 X -1 Y 2 X 1 -1 d 4 X -1 Y s 1723 461 m 4 X -1 Y 1 X -1 Y 4 X -1 Y s 1732 458 m 4 X -1 Y 5 X -1 Y s 1741 456 m 1 X -1 Y 2 X 1 -1 d 4 X -1 Y 1 X s 1750 453 m 4 X -1 Y 3 X -1 Y 2 X s 1759 451 m 3 X -1 Y 3 X -1 Y 2 X s 1767 449 m 2 X 1 -1
 d 3 X -1 Y 2 X -1 Y 1 X s 1776 446 m 5 X -1 Y 4 X s 1785 445 m 6 X -1 Y 3 X -1 Y s 1794 443 m 3 X -1 Y 6 X s 1803 442 m 3 X -1 Y 6 X s 1812 441 m 2 X -1 Y 3 X -1 Y 3 X s 1820 439 m 2 X -1 Y 2 X 1 -1 d 4 X s 1829 437 m 1 -1 d 3 X -1 Y 5 X -1 Y s 1838
 434 m 4 X -1 Y 3 X -1 Y 2 X s 1847 432 m 3 X -1 Y 4 X -1 Y 2 X s 1856 430 m 1 X -1 Y 2 X -1 Y 2 X -1 Y 2 X -1 Y 1 X s 1864 426 m 2 X -1 Y 4 X -1 Y 1 -1 d 2 X -1 Y s 1873 422 m 2 X -1 Y 7 X -1 Y s 1882 420 m 2 X -1 Y 1 X -1 Y 1 X 1 -1 d 1 X -1 Y 1 X
 1 -1 d 1 X s 1891 415 m -1 Y 1 X -1 Y 1 X -1 Y 2 X -2 Y 4 X -1 Y 1 X s 1900 409 m 1 X -1 Y 2 X -1 Y 2 X -1 Y 1 X -1 Y 1 X -1 Y 1 X -1 Y s 1908 403 m 1 X 1 -1 d 2 X -1 Y 2 X -1 Y 1 X -1 Y 2 X -2 Y s 1917 397 m 2 X -1 Y 2 X -1 Y 1 -1 d -1 Y 1 X 1 -1 d
 1 X -2 Y 1 X s 1926 390 m -1 Y 1 -1 d -1 Y 1 X -2 Y 1 -1 d 1 X -2 Y 1 -1 d -1 Y 1 X -1 Y 1 X -1 Y 1 X -1 Y 1 X s 1935 377 m 1 X -2 Y 1 -1 d -1 Y 1 X -2 Y 1 X 1 -1 d -1 Y 1 X -1 Y 1 X -3 Y 1 X -1 Y 1 X s 1944 364 m -1 Y 1 X -1 Y 1 X -1 Y 1 -1 d -1 Y
 2 X -1 Y 2 X -1 Y 1 X -1 Y s 1952 356 m 1 X -2 Y 1 X -2 Y 1 X -1 Y 2 X -1 Y 1 X -2 Y 1 X 1 -1 d 1 X -1 Y s 1961 346 m 1 X -1 Y 1 X -1 Y 1 X -1 Y 1 X -1 Y 1 X 1 -1 d 1 -1 d 1 X -1 Y 1 X s 1970 339 m -1 Y 1 X -1 Y 2 X -1 Y 1 X -1 Y 1 X -1 Y 2 X -1 Y 1
 X -1 Y 1 X s 1979 332 m -1 Y 2 X -1 Y 1 -1 d 1 X -1 Y 1 X -1 Y 1 X -1 Y 1 X -1 Y 1 X -1 Y 1 X s 1988 324 m -1 Y 1 X -1 Y 1 X -2 Y 1 X -1 Y 1 X -1 Y 2 X -1 Y 2 X -1 Y s 1996 316 m 1 X -1 Y 1 X 1 -1 d 1 X -1 Y 1 X 1 -1 d 1 X 1 -1 d 1 X -1 Y s 2005 310
 m -1 Y 2 X -1 Y 1 -1 d 1 X -1 Y 1 X -1 Y 1 X -2 Y 1 X -1 Y 2 X s 2014 302 m -1 Y 1 X -1 Y 1 X 1 -1 d 1 -1 d -1 Y 1 X -1 Y 1 X -1 Y 1 X -1 Y 1 -1 d -1 Y 1 X s 2023 292 m -1 Y 1 X -1 Y 1 X -1 Y 1 X -1 Y 2 X -2 Y 1 X -1 Y 1 X -1 Y 1 -1 d -1 Y 1 X s
 2032 282 m -1 Y 1 -1 d -2 Y 1 -1 d -1 Y 1 X -5 Y 1 -1 d -2 Y 1 X -5 Y 1 -1 d -2 Y 1 -1 d -3 Y 1 -1 d -5 Y s 2040 250 m -1 Y 1 -1 d s 1 0 0 c black 1 0 0 c 245 1237 m 9 X s 254 1237 m 9 X s 263 1237 m 8 X s 271 1237 m 9 X s 280 1237 m 5 X -1 Y 4 X s
 289 1236 m 1 X -1 Y 8 X s 298 1235 m 4 X -1 Y 2 X -1 Y 2 X 1 -1 d s 307 1232 m 2 X -1 Y 1 X 1 -1 d -1 Y 4 X -2 Y s 315 1227 m 1 X -1 Y 1 X -1 Y 1 X 1 -1 d -1 Y 1 X -1 Y 3 X -1 Y 1 X s 324 1221 m 2 X -1 Y 2 X -1 Y 1 X -1 Y 1 -1 d 1 X -1 Y 1 X 1 -1 d
 s 333 1215 m 1 X -1 Y 1 X 1 -1 d -1 Y 1 X -1 Y 1 X -1 Y 1 X 1 -1 d -1 Y 1 X -1 Y 1 X s 342 1207 m -1 Y 1 X -1 Y 1 X -1 Y 1 X -1 Y 1 -1 d -1 Y 1 X -1 Y 1 X -1 Y 1 X -2 Y 1 X -1 Y 1 X s 351 1196 m -2 Y 1 X -1 Y 1 X -2 Y 1 X -1 Y 1 X -2 Y 1 X -2 Y 1 X
 -2 Y 1 -1 d -1 Y 1 X -4 Y s 359 1178 m 1 X -3 Y 1 X -3 Y 1 X -2 Y 1 X -3 Y 1 X -3 Y 1 X -2 Y 1 -1 d -1 Y 1 X -4 Y 1 X -3 Y s 368 1153 m 1 X -2 Y 1 X -2 Y 1 -1 d -2 Y 1 X -4 Y 1 X -3 Y 1 X -3 Y 1 -1 d -3 Y 1 X -3 Y 1 X -1 Y s 377 1128 m -1 Y 1 -1 d
 -2 Y 1 -1 d -3 Y 1 X -4 Y 1 -1 d -3 Y 1 X -3 Y 1 -1 d -2 Y 1 -1 d -1 Y 1 -1 d -2 Y 1 X s 386 1101 m -2 Y 1 X -2 Y 1 -1 d -2 Y 1 -1 d -3 Y 1 -1 d -2 Y 1 -1 d -2 Y 1 X -2 Y 1 X -3 Y 1 X -2 Y 1 -1 d s 395 1076 m -1 Y 1 -1 d -2 Y 1 -1 d -3 Y 1 -1 d -2 Y
 1 X -2 Y 1 -1 d -1 Y 1 -1 d -2 Y 1 X -2 Y 1 -1 d -1 Y s 403 1054 m 1 X -2 Y 1 X -1 Y 1 X -1 Y 1 -1 d -2 Y 1 X -1 Y 1 X -2 Y 1 X -2 Y 1 X -1 Y 1 -1 d -1 Y s 412 1039 m -1 Y 1 -1 d -2 Y 1 X -1 Y 1 X -2 Y 1 X -1 Y 1 X -2 Y 1 X -1 Y 1 X -1 Y 1 X -2 Y 1
 X s 421 1025 m -1 Y 1 X -2 Y 1 X -1 Y 1 X -2 Y 1 -1 d -1 Y 1 X -2 Y 1 X -1 Y 1 X -2 Y 1 -1 d -1 Y 1 X -1 Y s 430 1009 m -1 Y 1 X -3 Y 1 X -1 Y 1 -1 d -2 Y 1 -1 d -2 Y 1 -1 d -1 Y 1 X -1 Y 1 X -1 Y 1 -1 d -1 Y 1 -1 d s 439 991 m -2 Y 1 X -2 Y 1 X -2
 Y 1 X -1 Y 1 X -2 Y 1 -1 d -2 Y 1 X -2 Y 1 -1 d 1 -1 d -1 Y s 447 974 m 1 X -1 Y 1 X -2 Y 1 X -1 Y 1 -1 d -1 Y 1 X -1 Y 1 -1 d 1 -1 d -2 Y 1 X -1 Y 1 -1 d -1 Y s 456 960 m 1 X -2 Y 1 X -1 Y 1 X -1 Y 1 -1 d -1 Y 1 X -1 Y 1 X -1 Y 1 X -2 Y 1 X -1 Y 1
 X -1 Y s 465 948 m -1 Y 1 X -1 Y 1 X -1 Y 1 X -1 Y 1 -1 d -1 Y 1 X -1 Y 1 X -1 Y 1 X -1 Y 1 X -2 Y 1 -1 d s 474 936 m -1 Y 1 -1 d -1 Y 1 X -1 Y 1 X -2 Y 1 X -1 Y 1 X -2 Y 1 -1 d -1 Y 1 X -2 Y 1 X -1 Y 1 X s 483 922 m -2 Y 1 X -1 Y 1 X -1 Y 2 X -2 Y
 1 X -1 Y 1 X -2 Y 1 X -1 Y 1 X s 491 912 m 1 X -2 Y 2 X -1 Y 1 -1 d 1 X -1 Y 2 X -1 Y 1 -1 d 1 X -1 Y s 500 904 m 1 X -1 Y 1 -1 d 1 -1 d -1 Y 1 X -2 Y 2 X -1 Y 2 X 1 -1 d s 509 896 m -1 Y 1 X -1 Y 1 X 1 -1 d 1 X -1 Y 1 X -1 Y 1 X -1 Y 1 X -1 Y 1 X
 -1 Y 1 X s 518 888 m -1 Y 3 X -1 Y 1 X -1 Y 1 X -1 Y 1 X -1 Y 2 X -1 Y 1 X s 527 882 m 1 X -1 Y 2 X -1 Y 2 X -1 Y 2 X 1 -1 d s 535 878 m 1 X 1 -1 d 1 X -1 Y 1 X -1 Y 4 X -2 Y 1 X -1 Y s 544 872 m 1 -1 d 2 X -1 Y 2 X 1 -1 d 3 X s 553 869 m 1 X -1 Y 1
 X -1 Y 2 X -1 Y 1 X -1 Y 1 X -1 Y 1 -1 d 1 X -1 Y 1 X s 562 862 m 2 X 1 -1 d 1 X -1 Y 4 X 1 -1 d s 571 859 m -1 Y 1 X -1 Y 3 X -1 Y 2 X 1 -1 d 1 X -1 Y s 579 854 m 2 X -1 Y 3 X -1 Y 1 X -1 Y 2 X -1 Y 1 X -1 Y s 588 849 m 3 X -1 Y 2 X -1 Y 2 X -1 Y 1
 X 1 -1 d s 597 845 m 2 X -1 Y 4 X -1 Y 3 X s 606 843 m -1 Y 3 X -1 Y 1 -1 d 2 X -1 Y 2 X -1 Y 1 X s 615 838 m 1 X -1 Y 1 -1 d -1 Y 2 X -1 Y 1 X -1 Y 2 X -1 Y 1 X s 623 832 m 1 X -1 Y 2 X -1 Y 3 X -1 Y 2 X -1 Y 1 X s 632 828 m 1 X -1 Y 1 X -1 Y 2 X
 -1 Y 1 X -1 Y 1 X -1 Y 2 X 1 -1 d s 641 822 m 2 X 1 -1 d 2 X -1 Y 2 X -1 Y 2 X s 650 819 m 1 X -1 Y 3 X -1 Y 1 X 1 -1 d 3 X s 659 816 m 2 X -1 Y 2 X -1 Y 3 X -1 Y 1 -1 d s 667 812 m 6 X 1 -1 d 2 X -1 Y s 676 810 m 2 X -1 Y 5 X -1 Y 2 X s 685 808 m 1
 X -1 Y 4 X -1 Y 4 X s 694 806 m 1 X -1 Y 2 X -1 Y 3 X -1 Y 3 X s 703 803 m 1 X -1 Y 2 X -1 Y 3 X -1 Y 2 X -1 Y s 711 799 m 3 X -1 Y 2 X 1 -1 d 3 X -1 Y s 720 796 m 1 X -1 Y 3 X -1 Y 2 X -1 Y 3 X s 729 793 m -1 Y 2 X 1 -1 d 3 X -1 Y 3 X s 738 790 m
 -1 Y 4 X -1 Y 3 X -1 Y 2 X s 747 787 m 1 X -1 Y 1 -1 d 1 X -1 Y 3 X -1 Y 1 X -1 Y 1 X s 755 782 m 3 X -1 Y 4 X -1 Y 2 X s 764 780 m 3 X -1 Y 3 X -1 Y 3 X s 773 778 m 1 -1 d 1 X -1 Y 2 X 1 -1 d 2 X -1 Y 1 X -1 Y 1 X s 782 773 m 2 X -1 Y 3 X -1 Y 3 X
 -1 Y 1 X s 791 770 m 2 X -1 Y 1 X -1 Y 2 X -1 Y 3 X s 799 767 m 2 X 1 -1 d 1 X -1 Y 1 X -1 Y 2 X -1 Y 1 X -1 Y 1 X -2 Y s 808 760 m 2 X -1 Y 2 X -1 Y 1 X -1 Y 3 X -1 Y 1 X -1 Y s 817 755 m 1 X -1 Y 1 X -1 Y 1 X -1 Y 1 X -1 Y 1 X -1 Y 2 X -1 Y 1 X -1
 Y 1 X -1 Y s 826 747 m -1 Y 1 X -2 Y 1 X -1 Y 1 X -1 Y 1 X -2 Y 1 X -2 Y 1 X -1 Y 1 X -1 Y 1 X -1 Y 1 X s 835 735 m -1 Y 1 X -1 Y 1 X -2 Y 1 X -1 Y 1 X -2 Y 2 X -2 Y 1 X -2 Y 1 X -1 Y s 843 723 m 1 X -2 Y 1 X -2 Y 1 X -1 Y 1 X -2 Y 1 X -2 Y 1 X -2 Y
 1 -1 d -1 Y 1 X -2 Y 1 X -1 Y s 852 707 m -1 Y 1 X -2 Y 1 X -2 Y 1 X -2 Y 1 X -1 Y 1 -1 d -1 Y 1 X -1 Y 1 X -2 Y 1 X -2 Y 1 X s 861 692 m -1 Y 1 X -1 Y 1 -1 d -2 Y 1 -1 d -2 Y 1 X -2 Y 1 X -2 Y 1 -1 d -1 Y 1 X -1 Y 1 -1 d -2 Y 1 -1 d s 870 673 m 1 X
 -2 Y 1 X -2 Y 1 X -2 Y 1 X -2 Y 1 X -2 Y 1 -1 d -3 Y 1 X -1 Y 1 X -1 Y 1 X s 879 657 m -2 Y 1 X -1 Y 1 -1 d -2 Y 1 X -2 Y 1 -1 d -1 Y 1 -1 d -3 Y 1 -1 d -2 Y 1 X -1 Y 1 X -2 Y s 887 637 m 1 X -3 Y 1 X -2 Y 1 X -1 Y 1 -1 d -1 Y 1 -1 d -1 Y 1 X -1 Y 1
 X -2 Y 1 X -1 Y 1 X -1 Y s 896 622 m 1 X -1 Y 1 X -1 Y 1 X -1 Y 1 -1 d -1 Y 1 X -1 Y 1 X -1 Y 1 X -1 Y 1 X -2 Y 1 X s 905 612 m -1 Y 1 X -1 Y 1 X -1 Y 1 -1 d -2 Y 1 -1 d -2 Y 2 X -2 Y 1 X -1 Y 1 X -2 Y 1 X -1 Y s 914 597 m -1 Y 1 X -2 Y 1 X 1 -1 d
 -1 Y 1 X -3 Y 1 X -2 Y 1 X -3 Y 1 X -1 Y 1 X -3 Y 1 X s 923 580 m -1 Y 1 X -2 Y 1 X -1 Y 1 X -1 Y 1 X -1 Y 1 X -2 Y 1 X -1 Y 1 X -2 Y 1 X -1 Y s 931 568 m 1 -1 d 1 X -2 Y 1 X -2 Y 1 X 1 -1 d 1 -1 d -2 Y 1 X -1 Y 1 X -1 Y 1 X -3 Y s 940 554 m 1 X -1
 Y 1 X -1 Y 1 -1 d 1 -1 d -1 Y 1 X -1 Y 1 -1 d 1 -1 d -1 Y 1 X 1 -1 d s 949 544 m -1 Y 1 X -2 Y 1 X -1 Y 1 X 1 -1 d -1 Y 1 -1 d 1 X -2 Y 1 X -2 Y 2 X s 958 533 m -1 Y 2 X -1 Y 1 X -2 Y 2 X -1 Y 1 X -1 Y 1 X -1 Y 1 X -1 Y 1 -1 d s 967 524 m -1 Y 1 X
 -2 Y 1 X -1 Y 1 X -2 Y 1 -1 d -1 Y 1 X -1 Y 1 X -2 Y 2 X s 975 513 m 1 X -1 Y 1 X -1 Y 1 X 1 -1 d -1 Y 1 X -1 Y 2 X -2 Y 1 X -1 Y 1 X -1 Y s 984 504 m 1 X -2 Y 2 X -1 Y 2 X -1 Y 1 X -1 Y 1 X -1 Y 1 X -1 Y 1 X -1 Y s 993 496 m 1 X -2 Y 1 -1 d 1 X -1
 Y 1 X -2 Y 1 X -1 Y 1 X -1 Y 1 X -1 Y 1 -1 d -1 Y 1 X -1 Y s 1002 484 m 1 X -1 Y 1 X -1 Y 1 X -1 Y 1 -1 d 1 X -1 Y 1 X -1 Y 1 X 1 -1 d -1 Y 1 X s 1011 476 m -1 Y 1 X -1 Y 1 -1 d 1 X -1 Y 1 X -1 Y 1 X -1 Y 1 -1 d -1 Y 1 X -1 Y 1 X -1 Y s 1019 466 m 1
 X -1 Y 1 X -2 Y 1 X -2 Y 1 X -1 Y 1 X -2 Y 2 X -1 Y 1 X -2 Y 1 X -1 Y s 1028 454 m 1 X -1 Y 1 X 1 -1 d -1 Y 1 X -1 Y 1 X -1 Y 1 X -1 Y 2 X -1 Y 1 X s 1037 447 m -1 Y 1 X 1 -1 d 1 X -2 Y 1 X -1 Y 1 X -2 Y 1 X 1 -1 d -2 Y 1 X -1 Y 1 X s 1046 436 m -1
 Y 1 X -1 Y 1 X -2 Y 1 X -1 Y 1 -1 d -2 Y 2 X -1 Y 1 X -2 Y 1 X 1 -1 d s 1055 424 m 1 X -1 Y 2 X -1 Y 2 X -1 Y 1 X -1 Y 1 X 1 -1 d s 1063 419 m 1 -1 d -1 Y 1 X -1 Y 1 X -1 Y 1 X -1 Y 1 X -1 Y 1 X -1 Y 1 X -1 Y 1 X -1 Y 1 X -1 Y s 1072 409 m 1 X 1 -1
 d 1 X -1 Y 2 X -1 Y 1 X -1 Y 1 X -1 Y 1 X -1 Y 1 X s 1081 403 m -1 Y 1 X -1 Y 1 X -2 Y 1 X -1 Y 2 X 1 -1 d 1 X -1 Y 1 X -1 Y 1 X s 1090 395 m -1 Y 1 X -1 Y 3 X -1 Y 2 X -1 Y 1 X -1 Y 1 X -1 Y 1 -1 d s 1099 388 m 2 X -1 Y 1 X -1 Y 2 X -1 Y 2 X -1 Y 1
 X -1 Y s 1107 383 m 1 -1 d 1 -1 d 1 X -1 Y 1 X -1 Y 1 X -1 Y 1 X -1 Y 2 X -1 Y 1 X s 1116 376 m -1 Y 2 X -1 Y 1 X -1 Y 3 X 1 -1 d 1 X 1 -1 d s 1125 371 m 1 X -1 Y 2 X -1 Y 1 X 1 -1 d 1 X 1 -1 d 1 -1 d 1 -1 d s 1134 365 m 1 X -1 Y 3 X -1 Y 1 X -1 Y 3
 X -2 Y 1 X s 1143 360 m 1 X -1 Y 2 X 1 -1 d 2 X -1 Y 1 X -1 Y 1 X -1 Y s 1151 355 m 2 X -1 Y 1 X -1 Y 1 X -1 Y 2 X -1 Y 2 X -1 Y 1 X s 1160 350 m 2 X -1 Y 1 X -1 Y 2 X -1 Y 3 X -1 Y 1 X s 1169 346 m 1 X -1 Y 1 X -1 Y 1 X -1 Y 1 X -2 Y 3 X -1 Y 2 X
 -1 Y s 1178 339 m 2 X -1 Y 1 X 1 -1 d 1 X 1 -1 d 1 X -1 Y 2 X s 1187 335 m -1 Y 1 X -1 Y 1 X 1 -1 d 1 X -1 Y 1 X -1 Y 3 X -1 Y s 1195 329 m 2 X -1 Y 3 X -1 Y 2 X 1 -1 d 1 X -1 Y s 1204 325 m 2 X 1 -1 d 1 X -1 Y 2 X -1 Y 3 X s 1213 322 m 2 X -1 Y 4 X
 -1 Y 2 X 1 -1 d s 1222 319 m 2 X -1 Y 1 X -1 Y 3 X -1 Y 3 X s 1231 316 m -1 Y 3 X -1 Y 3 X 1 -1 d 1 X -1 Y s 1239 312 m 3 X -1 Y 1 X -1 Y 2 X -1 Y 2 X -1 Y 1 X s 1248 308 m 2 X -1 Y 2 X -1 Y 4 X -1 Y 1 X s 1257 305 m 2 X -1 Y 2 X 1 -1 d 3 X -1 Y 1 X
 s 1266 302 m -1 Y 2 X -1 Y 2 X -1 Y 2 X -1 Y 2 X -1 Y 1 X s 1275 297 m 2 X -1 Y 3 X -1 Y 3 X s 1283 295 m 2 X -1 Y 7 X -1 Y s 1292 293 m 5 X -1 Y 2 X -1 Y 2 X s 1301 291 m 2 X -1 Y 5 X 1 -1 d 1 X s 1310 289 m 2 X -1 Y 3 X -1 Y 4 X s 1319 287 m -1 Y
 2 X -1 Y 2 X 1 -1 d 3 X s 1327 284 m 1 X -1 Y 4 X -1 Y 4 X s 1336 282 m 1 X -1 Y 5 X -1 Y 1 X 1 -1 d 1 X -1 Y s 1345 278 m 3 X -1 Y 4 X -1 Y 2 X s 1354 276 m 2 X -1 Y 7 X s 1363 275 m 1 X -1 Y 2 X -1 Y 2 X 1 -1 d 2 X s 1371 272 m 2 X 1 -1 d 1 X -1 Y
 3 X -1 Y 2 X s 1380 269 m -1 Y 4 X -1 Y 5 X s 1389 267 m 1 X -1 Y 1 X -1 Y 2 X 1 -1 d 3 X 1 -1 d s 1398 263 m 3 X -1 Y 2 X 1 -1 d 3 X s 1407 261 m -1 Y 5 X -1 Y 3 X s 1415 259 m 1 X -1 Y 1 X -1 Y 5 X -1 Y 2 X s 1424 256 m 6 X -1 Y 2 X 1 -1 d s 1433
 254 m 3 X -1 Y 3 X -1 Y 2 X -1 Y 1 X s 1442 251 m 5 X -1 Y 4 X s 1451 250 m 2 X -1 Y 6 X s 1459 249 m 1 -1 d 3 X -1 Y 4 X -1 Y 1 X s 1468 246 m 3 X -1 Y 6 X s 1477 245 m 9 X s 1486 245 m 1 -1 d 8 X s 1495 244 m -1 Y 7 X -1 Y 1 X s 1503 242 m 9 X s
 1512 242 m 2 X -1 Y 4 X -1 Y 2 X 1 -1 d s 1521 239 m 5 X 1 -1 d 3 X s 1530 238 m 4 X -1 Y 5 X s 1539 237 m 3 X -1 Y 5 X s 1547 236 m 2 X -1 Y 4 X -1 Y 3 X s 1556 234 m 1 X -1 Y 3 X -1 Y 5 X s 1565 232 m 9 X s 1574 232 m 2 X 1 -1 d 6 X s 1583 231 m 2
 X -1 Y 6 X s 1591 230 m 8 X -1 Y 1 X s 1600 229 m 7 X -1 Y 2 X s 1609 228 m 2 X -1 Y 5 X -1 Y 2 X s 1618 226 m 9 X s 1627 226 m 8 X -1 Y s 1635 225 m 8 X -1 Y 1 X s 1644 224 m 9 X s 1653 224 m 6 X -1 Y 3 X s 1662 223 m 5 X -1 Y 4 X s 1671 222 m 8 X
 s 1679 222 m 6 X 1 -1 d 2 X s 1688 221 m 4 X -1 Y 5 X s 1697 220 m 4 X -1 Y 5 X s 1706 219 m 5 X -1 Y 4 X s 1715 218 m 8 X s 1723 218 m 2 X -1 Y 7 X s 1732 217 m 4 X -1 Y 3 X -1 Y 2 X s 1741 215 m 9 X s 1750 215 m 1 X -1 Y 6 X -1 Y 2 X s 1759 213 m
 8 X s 1767 213 m 9 X s 1776 213 m 4 X -1 Y 5 X s 1785 212 m 9 X s 1794 212 m 4 X -1 Y 5 X s 1803 211 m 8 X -1 Y 1 X s 1812 210 m 8 X s 1820 210 m 4 X -1 Y 5 X s 1829 209 m 9 X s 1838 209 m 5 X -1 Y 4 X s 1847 208 m 9 X s 1856 208 m 4 X -1 Y 4 X s
 1864 207 m 9 X s 1873 207 m 9 X s 1882 207 m 8 X -1 Y 1 X s 1891 206 m 9 X s 1900 206 m 8 X s 1908 206 m 9 X s 1917 206 m 5 X -1 Y 4 X s 1926 205 m 9 X s 1935 205 m 1 X 1 -1 d 7 X s 1944 204 m 8 X s 1952 204 m 9 X s 1961 204 m 9 X -1 Y s 1970 203 m
 9 X s 1979 203 m 9 X s 1988 203 m 8 X s 1996 203 m 9 X s 2005 203 m 9 X s 2014 203 m 9 X s 2023 203 m 9 X s 2032 203 m 4 X 1 -1 d 3 X s 2040 202 m 1 X s 0 0.666667 0 c 1 1 1 c black 0 0.666667 0 c 245 1164 m 9 X s 254 1164 m 9 X s 263 1164 m 8 X s
 271 1164 m 9 X s 280 1164 m 9 X s 289 1164 m 8 X -1 Y 1 X s 298 1163 m 4 X 1 Y 5 X s 307 1164 m 8 X s 315 1164 m 5 X 1 Y 4 X s 324 1165 m 7 X 1 Y 1 -1 d 1 Y 1 X s 333 1166 m 9 X s 342 1166 m 1 Y 4 X 1 1 d 3 X 1 1 d s 351 1169 m 4 X 1 Y 2 X 1 Y 2 X 1
 Y s 359 1172 m 1 X 1 Y 2 X 1 1 d 1 X 1 Y 3 X 1 Y 1 X 1 Y s 368 1177 m 2 X 1 Y 2 X 1 Y 1 X 1 Y 2 X 1 Y 1 X 1 Y 1 X s 377 1182 m 1 X 1 Y 2 X 1 Y 1 X 1 Y 1 X 1 Y 2 X 1 Y 1 X 1 1 d s 386 1188 m 1 X 1 1 d 1 X 1 Y 1 X 1 Y -1 Y 1 Y 2 X 1 Y 1 X 1 1 d 1 X s
 395 1193 m 1 Y 2 X 1 Y 1 X 1 Y 2 X 1 1 d 2 X 1 Y s 403 1198 m 3 X 1 1 d 2 X 1 Y -1 Y 1 X 1 Y 2 X s 412 1200 m 1 Y 3 X 1 1 d 1 -1 d 1 Y 4 X s 421 1202 m 1 X 1 Y 3 X 1 Y 3 X 1 Y 2 X s 430 1205 m 1 Y 2 X 1 Y 1 X 1 1 d 1 X 1 Y 3 X 1 Y 1 X s 439 1210 m 1
 X 1 Y 3 X 1 Y 1 X 1 Y 3 X 1 Y s 447 1214 m 1 X -1 Y 1 X 1 Y 2 X 1 Y 3 X 1 Y 2 X s 456 1216 m 1 X 1 Y 3 X 1 1 d 3 X 1 Y 1 X -1 Y s 465 1218 m 1 Y 4 X 1 Y -1 Y 1 Y 4 X 1 Y 1 X s 474 1221 m 1 X 1 Y 4 X 1 1 d 2 X 1 Y -1 Y 1 X s 483 1223 m 1 Y 4 X 1 Y 2
 X 1 1 d -1 Y 1 Y 1 X s 491 1226 m 5 X 1 Y 4 X s 500 1227 m 2 X 1 1 d 6 X s 509 1228 m 1 X 1 Y 7 X 1 Y 1 X s 518 1230 m 9 X s 527 1230 m 1 X 1 Y 5 X -1 Y 1 X 1 1 d -1 Y s 535 1230 m 1 X 1 Y 7 X 1 Y 1 X s 544 1232 m 9 X s 553 1232 m 2 X -1 Y 1 Y 7 X s
 562 1232 m 1 Y 4 X -1 Y 1 Y -1 Y 2 X 1 Y 1 -1 d 2 X s 571 1232 m 1 Y 6 X -1 Y 1 1 d -1 Y 1 Y 1 X s 579 1233 m 9 X s 588 1233 m 3 X 1 Y 4 X -1 Y 1 X 1 Y 1 X s 597 1234 m 3 X 1 -1 d 3 X 1 Y 1 X -1 Y 1 X s 606 1233 m 1 Y 1 X -1 Y 2 X 1 Y 6 X s 615 1234
 m 1 X 1 1 d 6 X s 623 1235 m 1 1 d 2 X -1 Y 1 Y 3 X -1 Y 3 X s 632 1235 m 1 X 1 1 d 4 X 1 Y -1 Y 1 X 1 Y 2 X s 641 1237 m 2 X -1 Y 1 Y 7 X s 650 1237 m 1 X 1 -1 d 2 X 1 Y 5 X s 659 1237 m 1 -1 d 7 X s 667 1236 m 6 X -1 Y 1 1 d 2 X s 676 1236 m 6 X 1
 -1 d 1 Y 2 X s 685 1236 m 6 X 1 -1 d 2 X 1 Y s 694 1236 m -1 Y 1 X 1 Y 2 X -1 Y 1 X 1 Y 5 X s 703 1236 m 8 X s 711 1236 m 4 X 1 Y 1 X -1 Y 1 1 d 3 X s 720 1237 m 9 X s 729 1237 m 9 X s 738 1237 m 3 X -1 Y 6 X s 747 1236 m 8 X s 755 1236 m 9 X s 764
 1236 m 4 X -1 Y 4 X 1 Y -1 Y 1 1 d s 773 1236 m 5 X 1 -1 d 3 X s 782 1235 m 4 X -1 Y 1 X 1 Y -1 Y 1 Y 2 X -1 Y 1 Y 2 X s 791 1235 m 1 -1 d 1 Y 1 X -1 Y 1 1 d 1 X -1 Y 1 1 d 1 X -1 Y 2 X s 799 1234 m 3 X -1 Y 1 X 1 1 d 1 X -1 Y 1 Y 1 X -1 Y 2 X s 808
 1233 m 6 X -1 Y 3 X s 817 1232 m 8 X -1 Y 1 X s 826 1231 m 1 Y 3 X -1 Y 1 Y -1 Y 1 1 d -1 Y 1 1 d -1 Y 1 Y -1 Y 1 1 d -1 Y 3 X s 835 1231 m 4 X 1 Y 1 X -1 Y 3 X 1 Y -1 Y 1 Y -1 Y s 843 1231 m 1 X 1 1 d -1 Y 2 X 1 -1 d 1 Y -1 Y 1 -1 d 1 Y 3 X s 852
 1230 m 1 X 1 Y 1 -1 d 1 Y 1 X -1 Y 1 X 1 Y -1 Y 1 X -1 Y 1 X 1 Y -1 Y 1 X 1 Y 1 X -1 Y 1 Y -1 Y 1 X s 861 1229 m 1 X -1 Y 1 X 1 Y 1 X -1 Y 1 X 1 Y 1 -1 d 2 X -1 Y 2 X -1 Y s 870 1226 m 1 -1 d 1 Y -1 Y 4 X -1 Y 1 X -1 Y 1 Y 1 -1 d 1 X 1 Y -1 Y 1 X s
 879 1223 m 1 X -1 Y 2 X 1 Y 2 X 1 Y 1 X -1 Y 2 X s 887 1223 m 2 X -1 Y 2 X -1 Y 3 X -1 Y 2 X s 896 1220 m 2 X 1 -1 d 3 X -1 Y 3 X s 905 1218 m -1 Y 1 X -1 Y 2 X -1 Y 1 Y 2 X -1 Y 1 Y -1 Y 4 X s 914 1215 m 1 1 d 1 X -1 Y 2 X -1 Y 1 Y 5 X s 923 1215 m
 1 X 1 Y -1 Y 1 Y 1 X -1 Y 4 X -1 Y 1 Y 1 -1 d 1 X -1 Y 1 Y s 931 1214 m 1 -1 d 1 -1 d 1 X -1 Y 1 Y 1 X -1 Y 3 X -1 Y 2 X s 940 1210 m 1 X 1 -1 d 1 Y -1 Y 1 Y -1 Y 1 Y 1 -1 d 1 X -1 Y 1 Y 1 X -1 Y 2 X -1 Y 2 X -1 Y s 949 1206 m 1 1 d 1 -1 d -1 Y 1 X
 -1 Y 1 X 1 1 d -1 Y 1 X 1 Y 1 -1 d 1 Y 1 X -1 Y 1 X s 958 1204 m 1 Y -1 Y 2 X -1 Y 4 X -1 Y 1 Y 1 -1 d 2 X s 967 1202 m 7 X -2 Y 1 X -1 Y s 975 1199 m 1 X -1 Y 1 X 1 -1 d 1 X -1 Y 2 X -1 Y 1 X 1 Y 1 X -1 Y 1 X -1 Y s 984 1194 m 1 Y 1 -1 d 1 Y -1 Y 2
 X -1 Y 1 X 1 -1 d -1 Y 2 X -2 Y 1 Y -1 Y 2 X -1 Y s 993 1188 m 1 Y 1 -1 d 1 Y -1 Y 1 Y -1 Y 1 X 1 -1 d 1 Y -1 Y 2 X -1 Y 2 X -1 Y 2 X s 1002 1185 m -1 Y 1 X -1 Y 1 -1 d 1 X -1 Y 1 Y 1 X -1 Y 2 X -1 Y 1 X -1 Y 1 1 d -1 Y 1 Y -1 Y 1 -1 d s 1011 1178 m
 1 X -1 Y 1 X -1 Y 1 Y -1 Y 1 X -1 Y 1 -1 d -1 Y 1 Y 1 X -1 Y 1 X -1 Y 1 X -1 Y 1 X -1 Y s 1019 1170 m 1 X -1 Y 1 X -1 Y 1 X -1 Y 2 X -1 Y 1 Y -1 Y 1 X 1 -1 d 1 Y -1 Y 1 X -1 Y 1 -1 d -1 Y s 1028 1162 m 1 -1 d -2 Y 1 X -1 Y 1 X -1 Y 1 X -1 Y 1 X -1 Y
 1 X -1 Y 1 X -1 Y 1 X -1 Y 1 X -1 Y s 1037 1151 m 1 1 d -2 Y 3 X -2 Y 1 X 1 -1 d -1 Y 1 X 1 Y 1 -1 d -1 Y 1 X -1 Y s 1046 1144 m 1 Y -1 Y 1 X -1 Y 3 X 1 Y -1 Y 1 X -1 Y 1 X -1 Y 2 X -1 Y 1 X s 1055 1140 m -1 Y 1 X -1 Y 2 X -2 Y 1 X -1 Y 1 -1 d -1 Y
 1 Y 1 -1 d 1 X -1 Y 1 X -1 Y s 1063 1131 m 1 X -1 Y 1 X -1 Y 1 X -1 Y 1 X -1 Y 1 X -1 Y 1 X -1 Y 1 X -1 Y 1 X 1 -1 d s 1072 1123 m -1 Y 1 X -1 Y 1 X -1 Y 1 -1 d -1 Y 2 X -1 Y 1 X -1 Y 3 X -1 Y 1 Y -1 Y s 1081 1115 m 1 X -1 Y 1 X 1 -1 d 1 X -1 Y 1 X
 -3 Y 2 X -3 Y 2 X -1 Y s 1090 1105 m 1 X 1 Y -1 Y 1 X -1 Y 2 X -1 Y 2 X -1 Y 1 1 d -2 Y 1 X 1 Y -1 Y 1 X s 1099 1101 m 1 X -1 Y 2 X -1 Y 1 X -1 Y 1 X -1 Y 1 X 1 -1 d -1 Y 1 -1 d s 1107 1094 m 3 X 1 -1 d 1 X 1 Y -1 Y 1 -1 d 1 X -1 Y 1 X -1 Y 1 Y 1 -1
 d s 1116 1090 m 1 -1 d 2 X -1 Y 1 X 1 -1 d -1 Y 2 X -1 Y 2 X s 1125 1085 m 1 X -1 Y 1 X -1 Y 3 X -1 Y 1 Y 1 X -1 Y 2 X -1 Y 1 X 1 Y s 1134 1082 m 1 X -1 Y 2 X -1 Y 2 X -1 Y 1 X -1 Y 1 -1 d 1 X -1 Y 1 Y 1 X s 1143 1077 m -1 Y 1 -1 d -1 Y 2 X -1 Y 2 X
 -1 Y 1 X -1 Y 2 X s 1151 1071 m 1 -1 d -1 Y 2 X 1 -1 d 1 X -1 Y 1 X 1 -1 d 1 Y -1 Y 1 X -1 Y 1 X s 1160 1065 m 3 X 1 -1 d -1 Y 1 X -1 Y 2 X -2 Y 1 1 d -1 Y 1 X s 1169 1060 m -1 Y 1 Y 1 -1 d 1 Y 1 X -1 Y 1 Y -1 Y 2 X 1 Y 1 X -1 Y 1 X -1 Y 2 X 1 -1 d
 s 1178 1057 m 1 X -1 Y 2 X -1 Y 1 X -1 Y 1 X 1 Y -1 Y 1 -1 d 2 X -1 Y 1 X s 1187 1052 m 1 Y 1 X -1 Y 1 Y 1 X -1 Y 1 X -1 Y 3 X -1 Y 1 Y -1 Y 2 X s 1195 1050 m 1 X -1 Y 1 X 1 Y -1 Y 1 X 1 -1 d 1 -1 d -1 Y 1 Y -1 Y 2 X -1 Y 2 X -1 Y s 1204 1044 m 2 X
 -1 Y 2 X -1 Y 1 X 1 Y -1 Y 1 Y -1 Y 3 X -1 Y 1 X s 1213 1041 m 3 X -1 Y 1 X -1 Y 2 X -1 Y 1 X 1 Y 2 X s 1222 1039 m 1 X -1 Y 1 X -1 Y 1 X 1 1 d -1 Y 3 X -1 Y 1 X -1 Y 1 X s 1231 1035 m 1 X -1 Y 1 X -1 Y 1 X 1 Y -1 Y 1 Y 1 X -1 Y 1 X -1 Y 1 X -1 Y 2
 X -1 Y 1 Y -1 Y s 1239 1030 m 4 X 1 Y -1 Y 1 X 1 Y -1 Y 4 X -1 Y s 1248 1029 m 5 X -1 Y 1 X -1 Y 1 X -1 Y 1 X -1 Y 1 X s 1257 1025 m 1 X -1 Y 4 X -1 Y 2 X 1 Y -1 Y 2 X 1 Y -1 Y s 1266 1023 m 1 Y 1 X -1 Y 1 X -1 Y 1 X -1 Y 1 Y 1 -1 d 2 X 1 -1 d 1 X 1
 1 d s 1275 1021 m 1 -1 d 1 X -1 Y 1 X 1 Y 1 X -1 Y 1 Y -1 Y 2 X -1 Y 2 X -1 Y s 1283 1017 m 1 X -1 Y 1 -1 d -1 Y 1 Y 1 -1 d 1 X 1 -1 d -1 Y 4 X s 1292 1012 m 1 X -1 Y 2 X -1 Y 3 X -1 Y 1 X -1 Y 1 Y -1 Y 1 X -1 Y 1 X s 1301 1007 m 1 X -1 Y 2 X -1 Y 2
 X 1 -1 d 1 X -1 Y 1 1 d 1 X s 1310 1004 m 1 -1 d 2 X -1 Y 1 1 d -1 Y 1 X 1 -1 d 2 X -1 Y 1 X s 1319 1000 m 1 Y -1 Y 2 X -1 Y 2 X 1 1 d -1 Y 1 X -1 Y 1 X -1 Y 1 X s 1327 997 m 1 -1 d 1 Y -1 Y 3 X 1 -1 d 1 Y 1 X -2 Y 3 X -1 Y s 1336 993 m 1 -1 d 1 Y
 -1 Y 1 X -1 Y 2 X -1 Y 1 Y 1 X -1 Y 3 X -1 Y 1 X 1 Y s 1345 990 m 1 X -1 Y 3 X -1 Y 1 X -1 Y 1 X -1 Y 1 Y 2 X -1 Y 1 X -1 Y s 1354 985 m 3 X -1 Y 2 X -1 Y 1 X -1 Y 2 X 1 -1 d s 1363 981 m 1 X 1 Y -1 Y 1 Y 1 -1 d 2 X -1 Y 1 X -1 Y 1 X 1 Y 1 X -1 Y 1
 X s 1371 979 m 1 -1 d 3 X -1 Y 1 X 1 Y 1 X -1 Y 2 X -1 Y 1 X s 1380 976 m 1 X -1 Y 3 X 1 -1 d 1 X -1 Y 3 X -1 Y s 1389 972 m 1 X 1 1 d 3 X 1 Y 1 -1 d 3 X s 1398 973 m 3 X -1 Y 1 Y 1 X -1 Y 1 Y -1 Y 2 X -1 Y 1 X 1 Y -1 Y 1 -1 d 1 X s 1407 970 m -1 Y
 1 X 1 -1 d -1 Y 2 X -1 Y 1 1 d -1 Y 2 X -1 Y 1 X s 1415 965 m 1 X 1 Y -1 Y 1 X -1 Y 2 X -1 Y 2 X -1 Y 1 X -1 Y 1 -1 d 1 X s 1424 960 m 1 -1 d 1 X -1 Y 1 X -1 Y 2 X -1 Y 4 X s 1433 956 m 1 -1 d 1 X 1 Y -1 Y 1 X 1 Y -1 Y 1 Y 1 X -1 Y 1 X -1 Y 1 X 1 1
 d -1 Y 1 Y -1 Y 1 X 1 Y -1 Y 1 X s 1442 954 m 1 X -1 Y 1 X -1 Y 1 1 d 1 -1 d 4 X -1 Y 1 X s 1451 951 m 1 X 1 -1 d 2 X -1 Y 1 -1 d 3 X s 1459 948 m 1 X 1 Y 1 X -1 Y 1 X -1 Y 1 1 d 2 X 1 -1 d 2 X s 1468 947 m 1 X -1 Y 3 X -1 Y 5 X s 1477 945 m 1 X -1
 Y 2 X -1 Y 4 X -1 Y 2 X s 1486 942 m -1 Y 1 1 d -1 Y 2 X -1 Y 4 X -1 Y 2 X s 1495 939 m -1 Y 1 X -1 Y 1 X 1 Y -1 Y 1 X 1 Y -1 Y 2 X -1 Y 3 X s 1503 936 m 1 X -1 Y 3 X -1 Y 4 X -1 Y 1 X s 1512 933 m 3 X -1 Y 1 Y 2 X -1 Y 1 X 1 Y -1 Y 3 X s 1521 932 m
 1 X -1 Y 1 X 1 Y 1 -1 d 2 X 1 1 d -1 Y 3 X s 1530 931 m -1 Y 2 X -1 Y 2 X -1 Y 1 X 1 Y -1 Y 4 X s 1539 928 m -1 Y 1 X 1 -1 d 1 Y -1 Y 1 X 1 Y -1 Y 5 X s 1547 926 m 5 X -1 Y 1 Y -1 Y 1 X 1 Y 1 X -1 Y 1 X 1 Y 1 -1 d s 1556 925 m 1 -1 d 1 Y 4 X 1 -1 d
 1 X -2 Y 2 X s 1565 922 m 3 X -1 Y 3 X -1 Y 3 X s 1574 920 m 1 X -1 Y 2 X 1 Y 1 X -1 Y 2 X -1 Y 1 X 1 -1 d 1 X s 1583 917 m 2 X 1 Y 3 X -1 Y 2 X -1 Y 1 X s 1591 916 m 2 X -1 Y 1 X -1 Y 3 X -2 Y 1 X -1 Y 1 X -1 Y 1 X s 1600 910 m 1 X -1 Y 1 X -2 Y 1
 X -1 Y 3 X 1 -1 d 1 Y 1 -1 d -1 Y 1 X s 1609 904 m -1 Y 2 X -1 Y 1 X 1 -1 d 1 X -1 Y 1 -1 d 1 X -1 Y 2 X s 1618 898 m -1 Y 2 X -1 Y 1 X -1 Y 2 X -1 Y 2 X -1 Y 1 1 d 1 X s 1627 894 m 1 X -1 Y 5 X 1 -1 d 1 Y -1 Y 1 X s 1635 892 m 1 X -1 Y 1 X -1 Y 7 X
 -1 Y s 1644 889 m 4 X -1 Y 1 X -1 Y 1 -1 d 1 X 1 Y -1 Y 2 X s 1653 886 m 2 X -1 Y 1 X 1 Y 1 X -1 Y 1 X -1 Y 1 X 1 Y -1 Y 3 X s 1662 884 m 6 X -1 Y 1 X -1 Y 2 X s 1671 882 m 2 X 1 -1 d 4 X -1 Y 1 X s 1679 880 m 3 X -1 Y 3 X -1 Y 1 1 d -1 Y 1 X -1 Y 1
 X s 1688 877 m 2 X -2 Y 1 1 d -1 Y 1 Y -1 Y 3 X -1 Y 1 X -1 Y 2 X s 1697 873 m 1 X -1 Y 1 X 1 -1 d 1 X -1 Y 3 X -1 Y 2 X s 1706 869 m 1 X 1 -1 d 1 Y -1 Y 2 X -1 Y 3 X -1 Y 1 X 1 -1 d s 1715 865 m 3 X 1 -1 d 3 X -1 Y 1 X s 1723 863 m 4 X -1 Y 1 X -1
 Y 4 X -1 Y s 1732 860 m 3 X -1 Y 3 X 1 Y 2 X 1 -1 d s 1741 859 m -1 Y 1 X 1 -1 d 2 X -1 Y 3 X 1 Y -1 Y 2 X s 1750 856 m 3 X -1 Y 4 X -1 Y 1 Y 1 X -1 Y 1 1 d s 1759 855 m 3 X -1 Y 2 X -1 Y 1 X 1 -1 d 1 X s 1767 852 m 2 X 1 -1 d 3 X -1 Y 2 X -1 Y 1 X
 s 1776 849 m 4 X -1 Y 1 Y -1 Y 1 X 1 Y -1 Y 4 X s 1785 848 m 4 X -1 Y 4 X -1 Y 1 X s 1794 846 m 1 X -1 Y 2 X -1 Y 1 X 1 Y 3 X 1 -1 d 1 X s 1803 844 m 9 X s 1812 844 m 2 X -1 Y 1 X -1 Y 2 X 1 Y -1 Y 2 X 1 -1 d s 1820 841 m 1 X 1 Y 1 X -1 Y 2 X -1 Y 1
 Y 1 -1 d 1 X 1 Y 2 X -1 Y 1 X 1 Y s 1829 841 m -1 Y 3 X -1 Y 2 X -1 Y 4 X s 1838 838 m 1 X -1 Y 2 X -1 Y 4 X -1 Y 2 X s 1847 835 m 3 X -1 Y 2 X -1 Y 2 X -1 Y 1 1 d 1 -1 d s 1856 832 m 1 X -1 Y 2 X -1 Y 2 X -1 Y 1 X -1 Y 2 X s 1864 828 m -1 Y 3 X -1
 Y 2 X -1 Y 1 X -1 Y 2 X -1 Y 1 X -1 Y s 1873 822 m 1 X 1 -1 d 1 Y -1 Y 7 X -1 Y s 1882 820 m -1 Y 2 X -1 Y 1 X -1 Y 1 X -1 Y 1 X -1 Y 1 X -1 Y 1 X -1 Y 1 X 1 -1 d s 1891 812 m -1 Y 1 X -1 Y 1 X -1 Y 1 X -1 Y 1 X -2 Y 3 X -1 Y 1 X -1 Y 1 X s 1900 804
 m 1 X -1 Y 1 X -1 Y 1 X -1 Y 1 X -1 Y 1 X -1 Y 1 X 1 -1 d -1 Y 1 X -1 Y s 1908 796 m 1 -1 d 1 -1 d 1 X 1 -1 d 1 X -1 Y 1 X -1 Y 1 X -1 Y 1 X 1 -1 d -2 Y s 1917 787 m 1 -1 d 2 X -1 Y 1 X -2 Y 1 X -2 Y 1 X 1 -1 d 1 -1 d -2 Y 1 X s 1926 777 m -2 Y 1 -1
 d -2 Y 1 X -4 Y 1 X -1 Y 1 X -3 Y 1 -1 d -1 Y 1 -1 d -1 Y 1 X -1 Y 1 -1 d 1 X -1 Y s 1935 757 m 1 X -4 Y 1 X -3 Y 1 X -1 Y 1 -1 d -1 Y 1 X -2 Y 1 X -2 Y 1 X -4 Y 1 -1 d -2 Y 1 X s 1944 736 m -1 Y 1 -1 d -1 Y 1 X -2 Y 1 X -3 Y 2 X -1 Y 1 X -1 Y 1 X
 -1 Y 1 X -2 Y s 1952 723 m 1 -1 d -2 Y 1 -1 d -2 Y 1 X -2 Y 1 X -1 Y 1 X -2 Y 1 X -2 Y 1 -1 d 1 -1 d -1 Y 1 X -1 Y s 1961 706 m 1 X -2 Y 1 X -2 Y 1 X -1 Y 1 X -2 Y 1 X -1 Y 1 X -1 Y 1 -1 d -1 Y 1 X -2 Y 1 X 1 Y s 1970 694 m -1 Y 1 -1 d -1 Y 1 X -1 Y
 1 X -1 Y 1 X -2 Y 1 X -1 Y 1 X -1 Y 1 X -2 Y 1 -1 d -1 Y 1 X s 1979 681 m -1 Y 1 X -1 Y 1 X -2 Y 1 X -1 Y 1 X -2 Y 1 -1 d -2 Y 1 X -1 Y 1 X -1 Y 1 -1 d -1 Y 1 -1 d s 1988 666 m -2 Y 1 X -2 Y 1 X -3 Y 1 -1 d -2 Y 1 X -1 Y 2 X -2 Y 1 X -1 Y 1 X -1 Y s
 1996 651 m 1 X -2 Y 1 X -1 Y 1 -1 d -1 Y 1 X -1 Y 1 X -1 Y 1 -1 d 1 X -1 Y 1 X -1 Y 1 X -3 Y s 2005 638 m 1 X -1 Y 1 X -2 Y 1 -1 d -2 Y 1 X -2 Y 1 X -1 Y 1 -1 d -4 Y 1 X -1 Y 1 X -1 Y 1 X s 2014 622 m -1 Y 1 X -2 Y 1 -1 d -1 Y 1 X -2 Y 1 -1 d -2 Y 1
 -1 d -2 Y 1 X -2 Y 1 X -3 Y 1 -1 d -2 Y 1 X -1 Y s 2023 600 m -1 Y 1 -1 d -1 Y 1 X -2 Y 1 -1 d -2 Y 1 -1 d 1 -1 d -3 Y 1 X -1 Y 1 -1 d -3 Y 1 -1 d -2 Y 1 -1 d s 2032 578 m -3 Y 1 -1 d -6 Y 1 -1 d -3 Y 1 -1 d -11 Y 1 -3 d -5 Y 1 -1 d -13 Y 1 -1 d -8
 Y 1 -1 d -10 Y 1 -3 d -12 Y s 2040 495 m -3 Y 1 -3 d -1 Y s black 3 lw 245 201 m 1796 X s 294 241 m -40 Y s 333 221 m -20 Y s 372 221 m -20 Y s 410 221 m -20 Y s 449 221 m -20 Y s 488 241 m -40 Y s 527 221 m -20 Y s 566 221 m -20 Y s 604 221 m -20 Y
 s 643 221 m -20 Y s 682 241 m -40 Y s 721 221 m -20 Y s 760 221 m -20 Y s 799 221 m -20 Y s 837 221 m -20 Y s 876 241 m -40 Y s 915 221 m -20 Y s 954 221 m -20 Y s 993 221 m -20 Y s 1032 221 m -20 Y s 1070 241 m -40 Y s 1109 221 m -20 Y s 1148 221 m
 -20 Y s 1187 221 m -20 Y s 1226 221 m -20 Y s 1264 241 m -40 Y s 1303 221 m -20 Y s 1342 221 m -20 Y s 1381 221 m -20 Y s 1420 221 m -20 Y s 1459 241 m -40 Y s 1497 221 m -20 Y s 1536 221 m -20 Y s 1575 221 m -20 Y s 1614 221 m -20 Y s 1653 241 m
 -40 Y s 1692 221 m -20 Y s 1730 221 m -20 Y s 1769 221 m -20 Y s 1808 221 m -20 Y s 1847 241 m -40 Y s 1886 221 m -20 Y s 1924 221 m -20 Y s 1963 221 m -20 Y s 2002 221 m -20 Y s 2041 241 m -40 Y s 294 241 m -40 Y s 255 221 m -20 Y s 2041 241 m -40
 Y s 245 201 m 1140 Y s 291 201 m -46 X s 268 253 m -23 X s 268 305 m -23 X s 268 357 m -23 X s 291 408 m -46 X s 268 460 m -23 X s 268 512 m -23 X s 268 564 m -23 X s 291 616 m -46 X s 268 667 m -23 X s 268 719 m -23 X s 268 771 m -23 X s 291 823 m
 -46 X s 268 875 m -23 X s 268 926 m -23 X s 268 978 m -23 X s 291 1030 m -46 X s 268 1082 m -23 X s 268 1134 m -23 X s 268 1185 m -23 X s 291 1237 m -46 X s 291 1237 m -46 X s 268 1289 m -23 X s 268 1341 m -23 X s 0.490196 0.545098 0.615686 c 1 1 1
 c 0.490196 0.545098 0.615686 c 907 201 245 1341 bl 245 1341 m 907 X s 1152 1341 m 201 Y s 1152 1542 m -907 X s 245 1542 m -201 Y s black
 gsave  2268 1676 0 0 C 515.735 1471.36 t 0 r /Helvetica-Bold findfont 56.8825 sf 0 0 m (Signal efficiency) show NC gr  0 0 0.933333 c 9 lw 286 1492 m 190 X s black
 gsave  2268 1676 0 0 C 515.735 1368.97 t 0 r /Helvetica-Bold findfont 56.8825 sf 0 0 m (Background efficiency) show NC gr  1 0 0 c 286 1391 m 190 X s 0.490196 0.545098 0.615686 c 3 lw 1 1 1 c 0.490196 0.545098 0.615686 c 889 201 1152 1341 bl 1152
 1341 m 889 X s 2041 1341 m 201 Y s 2041 1542 m -889 X s 1152 1542 m -201 Y s black
 gsave  2268 1676 0 0 C 1418.27 1494.11 t 0 r /Helvetica-Bold findfont 56.8825 sf 0 0 m (Signal purity) show NC gr  0 0 0.933333 c[  52 12 ] 0 sd 6 lw 1192 1509 m 187 X s black
 gsave  2268 1676 0 0 C 1418.27 1429.65 t 0 r /Helvetica-Bold findfont 56.8825 sf 0 0 m (Signal efficiency*purity) show NC gr  0 0 0.933333 c[  22 12 ] 0 sd 1192 1441 m 187 X s black
 gsave  2268 1676 0 0 C 1501.7 1361.39 t 0 r /Helvetica-Bold findfont 56.8825 sf 0 0 m (S+B) show NC gr [  ] 0 sd 1483 1407 m 7 -49 d s 3 lw 1490 1358 m 8 64 d s 1498 1422 m 114 X s
 gsave  2268 1676 0 0 C 1418.27 1361.39 t 0 r /Helvetica-Bold findfont 56.8825 sf 0 0 m (S/) show NC gr  0 0.666667 0 c 9 lw 1192 1374 m 187 X s black 3 lw 245 1237 m 1796 X s
 gsave  2268 1676 0 0 C 337.503 386.801 t 0 r /Helvetica-Bold findfont 53.0904 sf 0 0 m (For 1000 signal and 1000 background) show NC gr 
 gsave  2268 1676 0 0 C 1058.01 318.542 t 0 r /Helvetica-Bold findfont 53.0904 sf 0 0 m ( is) show NC gr 
 gsave  2268 1676 0 0 C 955.626 318.542 t 0 r /Helvetica-Bold findfont 53.0904 sf 0 0 m (S+B) show NC gr  6 lw 933 360 m 7 -45 d s 3 lw 940 315 m 8 60 d s 948 375 m 110 X s
 gsave  2268 1676 0 0 C 337.503 318.542 t 0 r /Helvetica-Bold findfont 53.0904 sf 0 0 m (events the maximum S/) show NC gr 
 gsave  2268 1676 0 0 C 337.503 254.075 t 0 r /Helvetica-Bold findfont 53.0904 sf 0 0 m (24.05 when cutting at  0.32) show NC gr  0.490196 0.545098 0.615686 c 0.364706 0.419608 0.490196 c 1471 96 23 1572 bf 0.490196 0.545098 0.615686 c 23 1572 m 1471
 X s 1494 1572 m 96 Y s 1494 1668 m -1471 X s 23 1668 m -96 Y s 1 1 1 c black 1 1 1 c
 gsave  2268 1676 0 0 C 75.8434 1600.29 t 0 r /Helvetica-Bold findfont 75.8434 sf 0 0 m (Cut efficiencies and optimal cut value) show NC gr  0 0.666667 0 c 2041 201 m 1140 Y s 1995 201 m 46 X s 2018 244 m 23 X s 2018 287 m 23 X s 2018 330 m 23 X s
 2018 373 m 23 X s 1995 417 m 46 X s 2018 460 m 23 X s 2018 503 m 23 X s 2018 546 m 23 X s 2018 589 m 23 X s 1995 632 m 46 X s 2018 675 m 23 X s 2018 718 m 23 X s 2018 761 m 23 X s 2018 804 m 23 X s 1995 847 m 46 X s 2018 890 m 23 X s 2018 933 m 23 X
 s 2018 977 m 23 X s 2018 1020 m 23 X s 1995 1063 m 46 X s 2018 1106 m 23 X s 2018 1149 m 23 X s 2018 1192 m 23 X s 2018 1235 m 23 X s 1995 1278 m 46 X s 1995 1278 m 46 X s 2018 1321 m 23 X s black 0 0.666667 0 c
 gsave  2268 1676 0 0 C 2051.56 178.232 t 0 r /Helvetica-Bold findfont 64.4669 sf 0 0 m (0) show NC gr  black 0 0.666667 0 c
 gsave  2268 1676 0 0 C 2051.56 390.593 t 0 r /Helvetica-Bold findfont 64.4669 sf 0 0 m (5) show NC gr  black 0 0.666667 0 c
 gsave  2268 1676 0 0 C 2051.56 606.747 t 0 r /Helvetica-Bold findfont 64.4669 sf 0 0 m (10) show NC gr  black 0 0.666667 0 c
 gsave  2268 1676 0 0 C 2051.56 822.901 t 0 r /Helvetica-Bold findfont 64.4669 sf 0 0 m (15) show NC gr  black 0 0.666667 0 c
 gsave  2268 1676 0 0 C 2051.56 1039.05 t 0 r /Helvetica-Bold findfont 64.4669 sf 0 0 m (20) show NC gr  black 0 0.666667 0 c
 gsave  2268 1676 0 0 C 2051.56 1255.21 t 0 r /Helvetica-Bold findfont 64.4669 sf 0 0 m (25) show NC gr  black 0 0.666667 0 c
 gsave  2268 1676 0 0 C 2203.25 963.211 t 90 r /Helvetica-Bold findfont 64.4669 sf 0 0 m (Significance) show NC gr 
 gr  gr showpage
end
%%EOF
