%!PS-Adobe-2.0 EPSF-2.0
%%BoundingBox:  0 0 567 419
%%Title: dataset/plots/mvaeffs_LikelihoodPCA.eps: Cut efficiencies for LikelihoodPCA classifier
%%Creator: ROOT Version 6.12/06
%%CreationDate: Mon May 21 12:04:07 2018
%%DocumentNeededResources: ProcSet (FontSetInit)
%%EndComments
%%BeginProlog
80 dict begin
/s {stroke} def /l {lineto} def /m {moveto} def /t {translate} def
/r {rotate} def /rl {roll}  def /R {repeat} def
/d {rlineto} def /rm {rmoveto} def /gr {grestore} def /f {eofill} def
/c {setrgbcolor} def /black {0 setgray} def /sd {setdash} def
/cl {closepath} def /sf {scalefont setfont} def /lw {setlinewidth} def
/box {m dup 0 exch d exch 0 d 0 exch neg d cl} def
/NC{systemdict begin initclip end}def/C{NC box clip newpath}def
/bl {box s} def /bf {gsave box gsave f grestore 1 lw [] 0 sd s grestore} def /Y { 0 exch d} def /X { 0 d} def 
/K {{pop pop 0 moveto} exch kshow} bind def
/ita {/ang 15 def gsave [1 0 ang dup sin exch cos div 1 0 0] concat} def 
/mp {newpath /y exch def /x exch def} def
/side {[w .77 mul w .23 mul] .385 w mul sd w 0 l currentpoint t -144 r} def
/mr {mp x y w2 0 360 arc} def /m24 {mr s} def /m20 {mr f} def
/mb {mp x y w2 add m w2 neg 0 d 0 w neg d w 0 d 0 w d cl} def
/mt {mp x y w2 add m w2 neg w neg d w 0 d cl} def
/w4 {w 4 div} def
/w6 {w 6 div} def
/w8 {w 8 div} def
/m21 {mb f} def /m25 {mb s} def /m22 {mt f} def /m26{mt s} def
/m23 {mp x y w2 sub m w2 w d w neg 0 d cl f} def
/m27 {mp x y w2 add m w3 neg w2 neg d w3 w2 neg d w3 w2 d cl s} def
/m28 {mp x w2 sub y w2 sub w3 add m w3 0 d  0 w3 neg d w3 0 d 0 w3 d w3 0 d  0 w3 d w3 neg 0 d 0 w3 d w3 neg 0 d 0 w3 neg d w3 neg 0 d cl s } def
/m29 {mp gsave x w2 sub y w2 add w3 sub m currentpoint t 4 {side} repeat cl fill gr} def
/m30 {mp gsave x w2 sub y w2 add w3 sub m currentpoint t 4 {side} repeat cl s gr} def
/m31 {mp x y w2 sub m 0 w d x w2 sub y m w 0 d x w2 sub y w2 add m w w neg d x w2 sub y w2 sub m w w d s} def
/m32 {mp x y w2 sub m w2 w d w neg 0 d cl s} def
/m33 {mp x y w2 add m w3 neg w2 neg d w3 w2 neg d w3 w2 d cl f} def
/m34 {mp x w2 sub y w2 sub w3 add m w3 0 d  0 w3 neg d w3 0 d 0 w3 d w3 0 d  0 w3 d w3 neg 0 d 0 w3 d w3 neg 0 d 0 w3 neg d w3 neg 0 d cl f } def
/m35 {mp x y w2 add m w2 neg w2 neg d w2 w2 neg d w2 w2 d w2 neg w2 d x y w2 sub m 0 w d x w2 sub y m w 0 d s} def
/m36 {mb x w2 sub y w2 add m w w neg d x w2 sub y w2 sub m w w d s} def
/m37 {mp x y m w4 neg w2 d w4 neg w2 neg d w2 0 d  w4 neg w2 neg d w2 0 d w4 neg w2 d w2 0 d w4 neg w2 d w4 neg w2 neg d cl s} def
/m38 {mp x w4 sub y w2 add m w4 neg w4 neg d 0 w2 neg d w4 w4 neg d w2 0 d w4 w4 d 0 w2 d w4 neg w4 d w2 neg 0 d x y w2 sub m 0 w d x w2 sub y m w 0 d cl s} def
/m39 {mp x y m w4 neg w2 d w4 neg w2 neg d w2 0 d  w4 neg w2 neg d w2 0 d w4 neg w2 d w2 0 d w4 neg w2 d w4 neg w2 neg d cl f} def
/m40 {mp x y m w4 w2 d w4 w4 neg d w2 neg w4 neg d w2 w4 neg d w4 neg w4 neg d w4 neg w2 d w4 neg w2 neg d w4 neg w4 d w2 w4 d w2 neg w4 d w4 w4 d w4 w2 neg d cl s} def
/m41 {mp x y m w4 w2 d w4 w4 neg d w2 neg w4 neg d w2 w4 neg d w4 neg w4 neg d w4 neg w2 d w4 neg w2 neg d w4 neg w4 d w2 w4 d w2 neg w4 d w4 w4 d w4 w2 neg d cl f} def
/m42 {mp x y w2 add m w8 neg w2 -3 4 div mul d w2 -3 4 div mul w8 neg d w2 3 4 div mul w8 neg d w8 w2 -3 4 div mul d w8 w2 3 4 div mul d w2 3 4 div mul w8 d w2 -3 4 div mul w8 d w8 neg w2 3 4 div mul d cl s} def
/m43 {mp x y w2 add m w8 neg w2 -3 4 div mul d w2 -3 4 div mul w8 neg d w2 3 4 div mul w8 neg d w8 w2 -3 4 div mul d w8 w2 3 4 div mul d w2 3 4 div mul w8 d w2 -3 4 div mul w8 d w8 neg w2 3 4 div mul d cl f} def
/m44 {mp x y m w6 neg w2 d w2 2 3 div mul 0 d w6 neg w2 neg d w2 w6 d 0 w2 -2 3 div mul d w2 neg w6 d w6 w2 neg d w2 -2 3 div mul 0 d w6 w2 d w2 neg w6 neg d 0 w2 2 3 div mul d w2 w6 neg d cl s} def
/m45 {mp x y m w6 neg w2 d w2 2 3 div mul 0 d w6 neg w2 neg d w2 w6 d 0 w2 -2 3 div mul d w2 neg w6 d w6 w2 neg d w2 -2 3 div mul 0 d w6 w2 d w2 neg w6 neg d 0 w2 2 3 div mul d w2 w6 neg d cl f} def
/m46 {mp x y w4 add m w4 neg w4 d w4 neg w4 neg d  w4 w4 neg d w4 neg w4 neg d w4 w4 neg d w4 w4 d w4 w4 neg d w4 w4 d w4 neg w4 d w4 w4 d w4 neg w4 d w4 neg w4 neg d cl s} def
/m47 {mp x y w4 add m w4 neg w4 d w4 neg w4 neg d w4 w4 neg d w4 neg w4 neg d  w4 w4 neg d w4 w4 d w4 w4 neg d w4 w4 d w4 neg w4 d w4 w4 d w4 neg w4 d w4 neg w4 neg d cl f} def
/m48 {mp x y w4 add m w4 neg w4 d w4 neg w4 neg d w4 w4 neg d  w4 neg w4 neg d w4 w4 neg d w4 w4 d w4 w4 neg d w4 w4 d w4 neg w4 d w4 w4 d w4 neg w4 d w4 neg w4 neg d  w4 w4 neg d w4 neg w4 neg d w4 neg w4 d w4 w4 d cl f} def
/m49 {mp x w2 sub w3 add y w2 sub w3 add m  0 w3 neg d w3 0 d 0 w3 d w3 0 d 0 w3 d w3 neg 0 d 0 w3 d w3 neg 0 d 0 w3 neg d w3 neg 0 d 0 w3 neg d w3 0 d 0 w3 d w3 0 d 0 w3 neg d w3 neg 0 d cl f } def
/m2 {mp x y w2 sub m 0 w d x w2 sub y m w 0 d s} def
/m5 {mp x w2 sub y w2 sub m w w d x w2 sub y w2 add m w w neg d s} def
%%IncludeResource: ProcSet (FontSetInit)
%%IncludeResource: font Times-Roman
%%IncludeResource: font Times-Italic
%%IncludeResource: font Times-Bold
%%IncludeResource: font Times-BoldItalic
%%IncludeResource: font Helvetica
%%IncludeResource: font Helvetica-Oblique
%%IncludeResource: font Helvetica-Bold
%%IncludeResource: font Helvetica-BoldOblique
%%IncludeResource: font Courier
%%IncludeResource: font Courier-Oblique
%%IncludeResource: font Courier-Bold
%%IncludeResource: font Courier-BoldOblique
%%IncludeResource: font Symbol
%%IncludeResource: font ZapfDingbats
/reEncode {exch findfont dup length dict begin {1 index /FID eq  {pop pop} {def} ifelse } forall /Encoding exch def currentdict end dup /FontName get exch definefont pop } def [/Times-Bold /Times-Italic /Times-BoldItalic /Helvetica /Helvetica-Oblique
 /Helvetica-Bold /Helvetica-BoldOblique /Courier /Courier-Oblique /Courier-Bold /Courier-BoldOblique /Times-Roman /AvantGarde-Book /AvantGarde-BookOblique /AvantGarde-Demi /AvantGarde-DemiOblique /Bookman-Demi /Bookman-DemiItalic /Bookman-Light
 /Bookman-LightItalic /Helvetica-Narrow /Helvetica-Narrow-Bold /Helvetica-Narrow-BoldOblique /Helvetica-Narrow-Oblique /NewCenturySchlbk-Roman /NewCenturySchlbk-Bold /NewCenturySchlbk-BoldItalic /NewCenturySchlbk-Italic /Palatino-Bold
 /Palatino-BoldItalic /Palatino-Italic /Palatino-Roman ] {ISOLatin1Encoding reEncode } forall
%%EndProlog
%%BeginSetup
%%EndSetup
newpath  gsave  .25 .25 scale  gsave  0 0 t 0.490196 0.545098 0.615686 c[  ] 0 sd 3 lw 0.941176 0.941176 0.941176 c 2268 1676 0 0 bf black 1 1 0.992157 c 1796 1140 245 201 bf black 1796 1140 245 201 bl 1 1 0.992157 c 1796 1140 245 201 bf black 1796
 1140 245 201 bl 245 201 m 1796 X s[ 4 8] 0 sd 245 1341 m -1140 Y s 604 1341 m -1140 Y s 963 1341 m -1140 Y s 1323 1341 m -1140 Y s 1682 1341 m -1140 Y s 2041 1341 m -1140 Y s 245 1341 m -1140 Y s 2041 1341 m -1140 Y s[  ] 0 sd 245 201 m 1140 Y s[ 4
 8] 0 sd 2041 215 m -1796 X s 2041 356 m -1796 X s 2041 497 m -1796 X s 2041 637 m -1796 X s 2041 778 m -1796 X s 2041 919 m -1796 X s 2041 1059 m -1796 X s 2041 1200 m -1796 X s 2041 1341 m -1796 X s 2041 215 m -1796 X s 0 0 0.933333 c[  22 12 ] 0
 sd 6 lw 0.49 0.6 0.82 c black 0 0 0.933333 c 245 497 m 2 Y 1 X 1 Y 2 X 3 Y 1 1 d 10 Y 1 2 d 9 Y 1 3 d 12 Y 1 3 d 10 Y 1 3 d 15 Y 1 2 d 2 Y s 254 575 m 6 Y 1 2 d 8 Y 1 2 d 8 Y 1 1 d 6 Y 1 2 d 7 Y 1 1 d 3 Y 1 1 d 5 Y 1 1 d 3 Y 1 1 d 5 Y 1 X s 263 637
 m 2 Y 1 1 d 2 Y 1 1 d 3 Y 1 X 2 Y 1 1 d 2 Y 1 1 d 2 Y 1 X 2 Y 1 1 d 1 Y 1 X 3 Y s 271 661 m 1 X 1 Y 1 X 2 Y 1 X 1 Y 1 X 1 Y 1 X 1 Y 1 X 1 Y 1 X 1 Y 1 X 1 Y 1 X s 280 670 m 1 X 2 Y 2 X 1 Y 3 X 1 Y 1 1 d 1 X 1 Y 1 X s 289 676 m 1 X 1 Y 1 X 1 1 d 1 X 1
 1 d 1 -1 d 1 Y 2 X 1 Y 1 X s 298 680 m 2 X 1 Y 4 X 1 Y 1 X 1 Y 2 X s 307 683 m 4 X 1 Y 2 X 1 1 d 1 X s 315 685 m 5 X 1 1 d 2 X 1 Y 1 X s 324 687 m 1 X 1 1 d 4 X 1 Y -1 Y 1 X 1 Y 2 X s 333 689 m 3 X 1 Y 2 X -1 Y 1 X 1 Y 2 X -1 Y 1 X s 342 689 m 1 X 1
 Y 8 X s 351 690 m 2 X 1 Y 6 X s 359 691 m 5 X 1 1 d 3 X s 368 692 m 2 X 1 Y 7 X s 377 693 m 7 X 1 Y 1 X -1 Y 1 X s 386 693 m 1 Y 9 X s 395 694 m 6 X 1 Y 2 X s 403 695 m 9 X s 412 695 m 2 X 1 Y 7 X s 421 696 m 2 X -1 Y 4 X 1 Y 3 X s 430 696 m 9 X s
 439 696 m 8 X s 447 696 m 4 X 1 1 d 4 X s 456 697 m 9 X s 465 697 m 9 X s 474 697 m 2 X 1 Y 7 X s 483 698 m 3 X -1 Y 1 X 1 Y 4 X s 491 698 m 9 X s 500 698 m 9 X s 509 698 m 9 X s 518 698 m 3 X -1 Y 1 Y 3 X 1 -1 d 2 X s 527 697 m 2 X 1 1 d 5 X s 535
 698 m 9 X s 544 698 m 9 X s 553 698 m 9 X s 562 698 m 9 X s 571 698 m 7 X -1 Y 1 X s 579 697 m 9 X s 588 697 m 9 X s 597 697 m 9 X s 606 697 m 9 X s 615 697 m 8 X 1 Y s 623 698 m 1 X 2 Y 1 X 1 1 d 1 Y 2 X 1 Y 1 X 1 Y 1 X 1 1 d 1 X 1 Y s 632 706 m 1
 Y 1 X 1 Y 1 X 1 Y 1 1 d 1 Y 1 X -1 Y 1 Y 1 X 1 Y 1 1 d 1 X 1 Y 1 1 d 1 1 d s 641 716 m 1 X 2 Y 1 X 1 Y -1 Y 1 Y 1 1 d 1 X -1 Y 1 X 1 Y 1 X 2 Y 2 X 1 Y -1 Y 1 X s 650 722 m 1 Y -1 Y 1 1 d 1 Y 1 X 1 1 d 1 Y 1 1 d 1 Y -1 Y 1 X 1 Y 1 1 d 2 Y 1 1 d -1 Y
 2 Y 1 X 1 Y 1 X s 659 734 m 1 Y 1 1 d 1 Y 1 1 d 1 Y 1 X 1 Y 1 1 d 1 Y 1 X 1 Y 1 X 1 Y 1 X 1 Y 1 X 1 Y s 667 746 m 1 X 2 Y 1 X 1 Y -1 Y 1 1 d 1 Y 2 X 1 Y -1 Y 2 Y 1 X 1 Y -1 Y 1 Y 1 -1 d 1 Y 1 X 1 Y 1 X 1 Y s 676 755 m 1 -1 d 1 Y 1 1 d 1 -1 d 2 Y 1 X
 1 Y 1 X 1 Y 1 1 d 1 Y 1 X 2 Y -1 Y 1 X 1 Y 1 X s 685 763 m 1 Y 1 -1 d 1 Y -1 Y 1 Y 1 1 d 1 X 2 Y 1 X 1 Y 2 X 2 Y 1 X 1 Y 1 1 d 1 X s 694 772 m 1 Y 1 1 d 1 Y 1 X 1 Y 1 X -1 Y 1 Y 1 1 d 1 Y 1 X 2 Y 3 X 1 Y 1 X s 703 781 m 1 Y 1 X 1 Y 1 X 1 1 d 1 Y 1 X
 1 1 d -1 Y 1 1 d 1 Y 1 X -1 Y 1 Y 1 X s 711 787 m 1 X 1 Y 1 X 1 1 d 1 Y 1 1 d 1 X -1 Y 1 1 d 2 X 1 Y 1 1 d s 720 793 m 1 Y 1 X 2 Y 1 X 2 Y 1 X -1 Y 1 X 1 Y 1 X 1 Y 1 X 1 Y 1 X 1 1 d 1 X s 729 801 m 1 Y 1 X -1 Y 1 Y 1 X 1 Y 1 X 1 Y 2 X -1 Y 1 Y 3 X 1
 Y 1 X s 738 805 m 1 X 1 Y 1 X 1 Y -1 Y 1 X 1 Y -1 Y 1 Y 1 -1 d 5 X s 747 806 m 1 X 1 Y 1 X -1 Y 1 Y 1 X 1 Y 1 X -1 Y 3 X 1 Y 1 X -1 Y 1 Y s 755 808 m 3 X 1 Y 3 X 1 Y -1 Y 1 1 d 2 X 1 Y s 764 811 m 1 X 1 Y -1 Y 1 Y -1 Y 2 X 1 Y 2 X 1 Y 2 X 1 Y 1 X 1
 Y 1 X s 773 815 m 1 X 1 Y 2 X -1 Y 1 X 1 Y 2 X 1 Y 3 X s 782 817 m 4 X 1 Y 2 X 1 Y -1 Y 2 X -2 Y 1 X s 791 816 m 1 X 1 Y 1 X -1 Y 1 1 d 1 X 1 Y -1 Y 1 X 1 Y 1 X 1 Y 1 X -1 Y 1 Y 1 X -1 Y s 799 818 m 1 X 1 Y -1 Y 1 1 d -1 Y 2 X 1 Y 1 X 1 Y 3 X 1 Y 1
 X -1 Y 1 Y s 808 821 m 1 -1 d 1 X -1 Y 1 Y 1 -1 d 1 Y 1 X 1 Y 2 X 1 Y 1 -1 d 2 X s 817 821 m 1 X 1 -1 d 1 Y 1 X -1 Y 1 X 1 Y -1 Y 3 X -1 Y 1 1 d 1 X s 826 820 m 2 X 1 Y 1 X -1 Y 1 Y 1 X 1 1 d -1 Y 1 Y 1 -1 d 1 Y 1 X -1 Y 1 X 1 1 d s 835 822 m -1 Y 1
 Y 1 X 1 -1 d 5 X -1 Y 1 Y 1 X s 843 821 m 1 X 1 1 d -1 Y 1 1 d 1 X -1 Y 1 X 1 Y 4 X s 852 822 m 7 X -1 Y 1 Y 1 X -1 Y 1 X s 861 821 m 1 Y 1 X -1 Y 7 X -1 Y 1 X s 870 820 m -1 Y 1 X 1 Y 3 X 1 Y -1 Y 3 X -1 Y 1 X 1 Y 1 X s 879 820 m -1 Y 3 X -1 Y 1 1
 d 2 X -1 Y 2 X s 887 818 m 1 1 d -1 Y 1 X 1 Y 2 X 1 Y 1 X -1 Y 1 X 1 1 d 1 X -1 Y 1 X s 896 819 m 2 X 1 Y 1 X -1 Y 4 X 1 1 d -1 Y 1 Y 1 X s 905 820 m 4 X 1 1 d -1 Y 1 Y 4 X s 914 821 m 1 X -1 Y 1 X -1 Y 1 Y 1 X -1 Y 1 X -1 Y 1 Y 1 X -1 Y 1 X 1 Y 1 X
 1 -1 d 1 X s 923 818 m 3 X -1 Y 5 X s 931 817 m 1 X -1 Y 2 X 1 -1 d 3 X -1 Y 2 X s 940 814 m 2 X -2 Y 1 X 1 Y -1 Y 2 X -1 Y 1 Y 2 X -1 Y 2 X s 949 811 m 1 X -1 Y 2 X 1 Y 1 X -1 Y 5 X s 958 810 m 5 X -1 Y 3 X 1 Y 1 X s 967 810 m 8 X -1 Y s 975 809 m
 1 X 1 Y 1 X -1 Y 2 X 1 Y 1 X -1 Y 4 X -1 Y s 984 808 m 3 X 1 Y 1 -1 d 1 Y 2 X -1 Y 3 X s 993 808 m 1 Y 1 X -1 Y 2 X 1 -1 d 1 X 1 Y -1 Y 4 X s 1002 807 m 3 X -1 Y 1 Y 1 -1 d 3 X 1 Y 1 X 1 -1 d s 1011 806 m 1 Y 1 -1 d 1 Y 1 X 1 1 d -1 Y 1 X 1 -1 d 2 X
 1 -1 d 1 Y s 1019 806 m 4 X -1 Y 1 X 1 Y 1 X -1 Y 1 X -1 Y 1 Y -1 Y 2 X s 1028 804 m 2 X -1 Y 4 X -1 Y 1 X -1 Y 2 X s 1037 801 m 2 X 1 Y 4 X -1 Y 1 X 1 Y -1 Y 1 1 d -1 Y 1 X s 1046 801 m 1 Y -1 Y 3 X -1 Y 1 Y 2 X -1 Y 1 Y 1 X -1 Y 3 X s 1055 800 m
 -1 Y 1 Y 3 X -1 Y 1 X 1 1 d -1 Y 2 X -1 Y 1 X s 1063 798 m 1 X -1 Y 1 Y 1 -1 d 4 X -1 Y 3 X s 1072 796 m 2 X -1 Y 1 Y 1 -1 d 1 Y -1 Y 2 X -1 Y 1 X -1 Y 1 X -1 Y 1 X 1 Y 1 X -1 Y 1 Y s 1081 793 m 1 X -1 Y 1 X 1 Y 3 X 1 Y 3 X -1 Y 1 X s 1090 793 m 4 X
 -1 Y 4 X 1 Y -1 Y 1 X s 1099 792 m 7 X 1 Y -1 Y 1 X s 1107 792 m 1 -1 d 1 Y 4 X -1 Y 1 X 1 1 d 2 X s 1116 792 m -1 Y 2 X 1 -1 d 1 X -1 Y 2 X 1 -1 d 1 X 1 -1 d 1 Y s 1125 788 m 2 X -1 Y 4 X 1 Y 1 X -1 Y 2 X s 1134 787 m 1 X 1 -1 d 1 X -1 Y 1 X -1 Y 5
 X s 1143 784 m 1 -1 d 2 X 1 Y -1 Y 4 X -1 Y 1 X s 1151 782 m 6 X 1 Y 1 X -1 Y 1 Y -1 Y 2 X s 1160 782 m 1 Y 2 X -1 Y 1 Y 2 X -1 Y 5 X s 1169 782 m 9 X s 1178 782 m 3 X 1 Y 1 X -1 Y 3 X -1 Y 1 X 1 Y 1 X s 1187 782 m -1 Y 6 X -1 Y 1 X 1 Y 1 -1 d s
 1195 780 m 5 X -1 Y 2 X -1 Y 2 X s 1204 778 m 1 X -1 Y 4 X -1 Y 1 Y 1 X -1 Y 3 X s 1213 776 m 2 X 1 -1 d 1 Y -1 Y 6 X s 1222 775 m 2 X -1 Y 7 X s 1231 774 m 3 X -1 Y 1 X 1 1 d 1 X -1 Y 2 X s 1239 773 m 4 X 1 Y -1 Y 5 X -1 Y s 1248 772 m 6 X -1 Y 3 X
 s 1257 771 m 3 X 1 -1 d 2 X -1 Y 1 X 1 -1 d 1 X s 1266 768 m 3 X 1 Y 1 -1 d 4 X -1 Y 1 X s 1275 767 m 8 X s 1283 767 m 2 X 1 Y -1 Y 3 X -1 Y 2 X 1 Y 1 X -1 Y 1 X s 1292 766 m 1 X 1 Y 2 X -1 Y 2 X 1 Y 1 X 1 -1 d 1 Y 2 X -1 Y s 1301 766 m 3 X -1 Y 5 X
 -1 Y 1 X s 1310 764 m 1 X -1 Y 1 X -1 Y 3 X 1 Y 1 X -1 Y 3 X s 1319 762 m 1 -1 d 2 X -1 Y 1 X 1 Y 1 X -1 Y 1 X -1 Y 2 X s 1327 759 m 3 X -1 Y 4 X -1 Y 2 X -1 Y s 1336 756 m 1 X -1 Y 3 X 1 -1 d 3 X -1 Y 1 X s 1345 753 m 1 Y 2 X 1 1 d -1 Y 1 Y -1 Y 1
 X -1 Y 3 X 1 -1 d 1 X s 1354 752 m 1 X -1 Y 6 X -1 Y 1 Y 1 -1 d 1 X s 1363 750 m 1 X -1 Y 1 X -1 Y 3 X -1 Y 1 X -1 Y 1 1 d 1 X -1 Y s 1371 746 m 1 X 1 -1 d 2 X -1 Y 1 Y 2 X -1 Y 1 Y 3 X s 1380 745 m 1 X -1 Y 2 X 1 Y -1 Y 1 1 d -1 Y 1 Y -1 Y 1 X 1 Y
 -1 Y 1 1 d -1 Y 1 X -1 Y 1 X 1 Y 1 X -1 Y s 1389 743 m 2 X -1 Y 3 X 1 -1 d 1 X -1 Y 2 X s 1398 740 m 1 X 1 -1 d -1 Y 1 X 1 -1 d 1 Y 1 X -1 Y 1 X 1 Y -1 Y 1 Y 3 X s 1407 738 m 1 X 1 -1 d 3 X -2 Y 1 X -1 Y 1 X 1 Y 1 X -1 Y s 1415 734 m 3 X -1 Y 1 X -1
 Y 1 Y 2 X -1 Y 3 X -1 Y s 1424 731 m 1 1 d -2 Y 2 X -1 Y 3 X -1 Y 1 X -1 Y 2 X s 1433 727 m -1 Y 1 X 1 Y -1 Y 1 X 1 -1 d 3 X -1 Y 1 X -1 Y 2 X s 1442 723 m 1 X -1 Y 1 1 d -1 Y 2 X -1 Y 3 X -1 Y 2 X s 1451 720 m 1 X -1 Y 1 Y 1 X -1 Y 3 X -1 Y 1 X 1 Y
 1 X -1 Y 1 X -1 Y s 1459 717 m 2 X -1 Y 3 X -1 Y 4 X -1 Y s 1468 714 m 2 X -1 Y 1 -1 d 1 Y -1 Y 1 X -1 Y 1 X 1 -1 d 1 X 1 Y 1 X -1 Y 1 X s 1477 710 m -1 Y 1 X -1 Y 4 X -1 Y 2 X -1 Y 1 X -1 Y 1 X s 1486 705 m 4 X -1 Y 1 X -1 Y 1 X 1 -1 d 1 -1 d 1 Y 1
 X s 1495 702 m -1 Y 3 X -1 Y 2 X -1 Y 3 X -1 Y s 1503 698 m 2 X -1 Y 3 X -1 Y 4 X s 1512 696 m 1 X -1 Y 2 X -1 Y 2 X -1 Y 1 X -1 Y 1 Y -1 Y 2 X -1 Y 1 X s 1521 691 m 2 X -1 Y 3 X -1 Y 1 1 d -1 Y 2 X -1 Y 1 Y -1 Y 1 1 d -1 Y s 1530 688 m 3 X 1 -1 d 1
 X 1 -1 d 2 X -1 Y 1 X s 1539 685 m 1 X -2 Y 3 X -1 Y 1 X -1 Y 2 X -1 Y 1 Y 1 -1 d 1 Y -1 Y s 1547 680 m 2 X -1 Y 1 X -1 Y 2 X -1 Y 2 X -1 Y 2 X -1 Y s 1556 675 m 9 X s 1565 675 m 1 X 1 -1 d 1 Y 1 -1 d 1 -1 d -1 Y 3 X -1 Y 2 X s 1574 671 m -1 Y 1 X
 -1 Y 3 X -2 Y 2 X 1 -1 d 1 X -1 Y 1 X s 1583 665 m -1 Y 2 X -1 Y 1 X 1 Y 1 -1 d 1 X -2 Y 2 X 1 1 d -2 Y s 1591 660 m 3 X -1 Y 1 -1 d 1 X -1 Y 1 -1 d 1 X 1 -1 d -1 Y 1 X s 1600 654 m 1 X 1 -1 d -1 Y 3 X 1 -1 d 1 X -1 Y 2 X s 1609 650 m 2 X 1 -1 d 1 X
 -1 Y 1 Y 1 -1 d 1 X -1 Y 3 X s 1618 647 m 2 X -2 Y 1 -1 d 1 -1 d 1 Y 1 -1 d -1 Y 1 -1 d 1 X -1 Y 1 Y 1 -1 d 1 X s 1627 640 m 1 -1 d -1 Y 2 X 1 Y -1 Y 1 Y 1 X -1 Y 1 1 d -1 Y 1 Y 1 X -1 Y 1 X 1 Y 1 X -1 Y s 1635 638 m 1 X -1 Y 2 X -1 Y 1 -1 d -1 Y 1
 X 1 -1 d 1 Y -1 Y 2 X -1 Y 1 X -1 Y s 1644 631 m 1 X -1 Y 3 X -1 Y 1 1 d -1 Y 1 X 1 -1 d 1 X -1 Y 1 X s 1653 627 m -1 Y 2 X -1 Y 1 X -1 Y 1 X -1 Y 1 1 d -1 Y 2 X -1 Y 2 X -1 Y s 1662 621 m 1 Y 2 X -2 Y 2 X -1 Y 2 X -1 Y 1 X 1 -1 d -1 Y 1 X -1 Y s
 1671 615 m 1 Y 1 -1 d 3 X -1 Y 1 X -1 Y 1 -1 d 1 X -1 Y 1 X -2 Y s 1679 609 m 4 X -1 Y 1 X -1 Y 2 X -1 Y 2 X -1 Y s 1688 605 m 1 X -1 Y 1 -1 d -1 Y 2 X -1 Y 2 X -1 Y 3 X s 1697 600 m -1 Y 2 X 1 -1 d 1 X -1 Y 1 X -1 Y 2 X -1 Y 1 X -1 Y 1 X s 1706 594
 m 2 X -2 Y 3 X 1 -1 d -1 Y 1 1 d -1 Y 1 X -1 Y 1 X 1 Y s 1715 590 m -1 Y 1 X -1 Y 1 X -1 Y 3 X -1 Y 1 X 1 -1 d -1 Y 1 X -1 Y 1 Y s 1723 584 m 1 -1 d 1 Y 2 X -1 Y 1 X -1 Y 2 X -1 Y 2 X -1 Y 1 X s 1732 580 m 1 X 1 -1 d 3 X 1 -1 d 1 1 d -1 Y 1 X -1 Y 1
 X -1 Y s 1741 576 m 1 X -1 Y 1 Y 1 X -1 Y 2 X -1 Y 1 X -1 Y 1 X -1 Y 3 X -1 Y 1 Y s 1750 572 m -1 Y 2 X -1 Y 2 X -1 Y 1 -1 d -1 Y 1 X -1 Y 1 X -1 Y 1 X -1 Y 1 X s 1759 564 m -1 Y 2 X -1 Y 2 X -1 Y 1 -1 d 1 X -1 Y 1 X -1 Y 1 1 d -1 Y s 1767 558 m 1 X
 1 -1 d 1 X -1 Y 1 X 1 Y -1 Y 2 X -1 Y 1 X -1 Y 1 X 1 -1 d s 1776 553 m 3 X -1 Y 1 X 1 Y -1 Y 1 -1 d 1 X 1 -1 d -2 Y 1 X -1 Y 1 X -1 Y s 1785 546 m 1 X -1 Y 2 X -1 Y 1 Y 1 X -1 Y 1 X -1 Y 1 X -1 Y 2 X -1 Y 1 X s 1794 541 m -1 Y 1 X 1 -1 d 1 X -1 Y 1
 -1 d 1 X -1 Y 1 X -1 Y 1 X -1 Y 1 1 d -1 Y 1 X s 1803 534 m -1 Y 2 X -1 Y 2 X -1 Y 1 -1 d 1 -1 d -1 Y 1 -1 d 2 X s 1812 527 m 1 Y 2 X -1 Y 1 X -1 Y 2 X -1 Y 1 Y 1 X -1 Y 2 X -1 Y s 1820 524 m 1 Y 1 X -1 Y 1 X -1 Y 1 X -1 Y 2 X -1 Y 1 X -2 Y 1 X -2 Y
 2 X -1 Y s 1829 516 m 1 X 1 -1 d 1 X -1 Y 1 -1 d -1 Y 1 X -2 Y 1 X -1 Y 1 X -2 Y 2 X s 1838 507 m 1 -1 d -1 Y 1 X -1 Y 1 X 1 -1 d -1 Y 1 X -1 Y 1 X -2 Y 1 X -1 Y 1 X -1 Y 1 X s 1847 497 m -1 Y 1 X 1 -1 d -1 Y 1 X -1 Y 1 X -1 Y 2 X -1 Y 1 X -1 Y 1 X
 -1 Y 1 Y -1 Y 1 X s 1856 489 m -1 Y 1 X 1 -1 d -1 Y 1 -1 d -1 Y 1 X -2 Y 1 -1 d -2 Y 1 -1 d 1 -1 d -1 Y 1 X -1 Y s 1864 475 m 1 X -1 Y 1 X -2 Y 1 X -2 Y 1 1 d -2 Y 1 X -3 Y 1 X -2 Y 2 X -2 Y 1 X s 1873 462 m -1 Y 1 X -2 Y 1 X -1 Y 1 -1 d 2 X -2 Y 2
 X -1 Y 1 X -1 Y 1 -1 d 1 Y -1 Y s 1882 452 m 1 -1 d 1 X -1 Y 1 X -1 Y 1 X -1 Y 1 X -2 Y 1 -1 d 1 -1 d 1 -1 d 1 X -1 Y s 1891 442 m 2 X -1 Y 1 X -2 Y 1 X -1 Y 1 X -1 Y 1 Y -1 Y 2 X 1 -1 d 1 X s 1900 436 m 1 X -1 Y 2 X -1 Y 2 X -3 Y 1 Y 1 X -1 Y 2 X
 -1 Y s 1908 430 m -1 Y 1 X -1 Y 1 X 1 -1 d 1 -1 d 2 X -1 Y 2 X -1 Y 1 X s 1917 424 m 1 X -1 Y 1 X -1 Y 1 X -1 Y 1 -1 d 1 X -1 Y 1 X -1 Y 1 X -1 Y 1 X -1 Y 1 X s 1926 416 m -1 Y 1 X -1 Y 1 X -1 Y 1 X -1 Y 1 X -1 Y 1 -1 d -1 Y 1 X 1 Y -1 Y 1 X 1 -1 d
 -1 Y 1 X s 1935 407 m 1 -1 d -1 Y 1 X 1 Y 1 -1 d 3 X -1 Y 1 Y 1 -1 d -1 Y 1 X 1 -1 d s 1944 402 m -1 Y 2 X -1 Y 1 -1 d -1 Y 1 X -1 Y 1 X -2 Y 1 X -1 Y 1 X -1 Y 1 -1 d s 1952 392 m -1 Y 1 X 1 -2 d 1 -1 d 1 -1 d -1 Y 1 X -1 Y 1 X -1 Y 1 X -1 Y 2 X -1
 Y s 1961 382 m -1 Y 2 X -1 Y 2 X -1 Y 1 Y 1 -1 d -1 Y 1 X -1 Y 1 X 1 -1 d 1 X -1 Y s 1970 375 m 1 X -1 Y 1 -1 d -1 Y 1 1 d -1 Y 1 X -1 Y 1 X -1 Y 1 -1 d 1 X -1 Y 1 X -1 Y 1 X s 1979 367 m -2 Y 1 1 d -2 Y 2 X -1 Y 2 X -1 Y 1 X 1 Y 1 X -1 Y 1 X -1 Y 1
 X s 1988 361 m -2 Y 1 X -2 Y 1 X 1 -1 d -2 Y 2 X -1 Y 1 X -1 Y 1 X -2 Y 1 X 1 Y s 1996 351 m 1 X -1 Y 1 -1 d -1 Y 2 X -3 Y 2 X -1 Y 1 X -1 Y 1 X -2 Y 1 X s 2005 341 m -1 Y 1 X -2 Y 1 X -1 Y 1 X -1 Y 1 X -1 Y 1 X -2 Y 1 X -1 Y 1 X -1 Y 1 X -2 Y 1 X
 -1 Y s 2014 328 m -1 Y 1 X -2 Y 1 X -1 Y 1 X -1 Y 1 X -1 Y 1 X -2 Y 1 X -1 Y 1 X -2 Y 1 Y 1 X -1 Y 1 X s 2023 317 m -2 Y 1 -1 d -1 Y 1 X -2 Y 1 X -1 Y 1 -1 d -1 Y 1 -1 d -3 Y 1 X -1 Y 1 -1 d -2 Y 1 -1 d -2 Y 1 -1 d s 2032 296 m -1 Y 1 -1 d -1 Y 1 X
 -2 Y 1 -1 d -3 Y 1 -2 d -3 Y 1 -1 d -3 Y 1 -1 d -2 Y 1 -2 d -5 Y 1 -2 d -7 Y s 2040 259 m -1 Y 1 -1 d -2 Y s black[  ] 0 sd 3 lw 245 201 m 1796 X s 245 241 m -40 Y s 335 221 m -20 Y s 425 221 m -20 Y s 514 221 m -20 Y s 604 241 m -40 Y s 694 221 m
 -20 Y s 784 221 m -20 Y s 874 221 m -20 Y s 963 241 m -40 Y s 1053 221 m -20 Y s 1143 221 m -20 Y s 1233 221 m -20 Y s 1323 241 m -40 Y s 1412 221 m -20 Y s 1502 221 m -20 Y s 1592 221 m -20 Y s 1682 241 m -40 Y s 1772 221 m -20 Y s 1861 221 m -20 Y
 s 1951 221 m -20 Y s 2041 241 m -40 Y s 245 241 m -40 Y s 2041 241 m -40 Y s
 gsave  2268 1676 0 0 C 223.738 128.934 t 0 r /Helvetica-Bold findfont 64.4669 sf 0 0 m (0) show NC gr 
 gsave  2268 1676 0 0 C 557.449 128.934 t 0 r /Helvetica-Bold findfont 64.4669 sf 0 0 m (0.2) show NC gr 
 gsave  2268 1676 0 0 C 917.705 128.934 t 0 r /Helvetica-Bold findfont 64.4669 sf 0 0 m (0.4) show NC gr 
 gsave  2268 1676 0 0 C 1274.17 128.934 t 0 r /Helvetica-Bold findfont 64.4669 sf 0 0 m (0.6) show NC gr 
 gsave  2268 1676 0 0 C 1634.42 128.934 t 0 r /Helvetica-Bold findfont 64.4669 sf 0 0 m (0.8) show NC gr 
 gsave  2268 1676 0 0 C 2025.02 128.934 t 0 r /Helvetica-Bold findfont 64.4669 sf 0 0 m (1) show NC gr 
 gsave  2268 1676 0 0 C 557.449 30.3373 t 0 r /Helvetica-Bold findfont 72.0512 sf 0 0 m (Cut value applied on LikelihoodPCA output) show NC gr  245 201 m 1140 Y s 291 215 m -46 X s 268 243 m -23 X s 268 271 m -23 X s 268 300 m -23 X s 268 328 m -23 X
 s 291 356 m -46 X s 268 384 m -23 X s 268 412 m -23 X s 268 440 m -23 X s 268 468 m -23 X s 291 497 m -46 X s 268 525 m -23 X s 268 553 m -23 X s 268 581 m -23 X s 268 609 m -23 X s 291 637 m -46 X s 268 665 m -23 X s 268 694 m -23 X s 268 722 m -23
 X s 268 750 m -23 X s 291 778 m -46 X s 268 806 m -23 X s 268 834 m -23 X s 268 862 m -23 X s 268 891 m -23 X s 291 919 m -46 X s 268 947 m -23 X s 268 975 m -23 X s 268 1003 m -23 X s 268 1031 m -23 X s 291 1059 m -46 X s 268 1088 m -23 X s 268
 1116 m -23 X s 268 1144 m -23 X s 268 1172 m -23 X s 291 1200 m -46 X s 268 1228 m -23 X s 268 1256 m -23 X s 268 1285 m -23 X s 268 1313 m -23 X s 291 1341 m -46 X s 291 215 m -46 X s
 gsave  2268 1676 0 0 C 128.934 189.608 t 0 r /Helvetica-Bold findfont 64.4669 sf 0 0 m (0.3) show NC gr 
 gsave  2268 1676 0 0 C 125.142 329.919 t 0 r /Helvetica-Bold findfont 64.4669 sf 0 0 m (0.4) show NC gr 
 gsave  2268 1676 0 0 C 128.934 470.229 t 0 r /Helvetica-Bold findfont 64.4669 sf 0 0 m (0.5) show NC gr 
 gsave  2268 1676 0 0 C 128.934 614.331 t 0 r /Helvetica-Bold findfont 64.4669 sf 0 0 m (0.6) show NC gr 
 gsave  2268 1676 0 0 C 125.142 754.641 t 0 r /Helvetica-Bold findfont 64.4669 sf 0 0 m (0.7) show NC gr 
 gsave  2268 1676 0 0 C 125.142 894.952 t 0 r /Helvetica-Bold findfont 64.4669 sf 0 0 m (0.8) show NC gr 
 gsave  2268 1676 0 0 C 128.934 1035.26 t 0 r /Helvetica-Bold findfont 64.4669 sf 0 0 m (0.9) show NC gr 
 gsave  2268 1676 0 0 C 189.608 1175.57 t 0 r /Helvetica-Bold findfont 64.4669 sf 0 0 m (1) show NC gr 
 gsave  2268 1676 0 0 C 136.518 1315.88 t 0 r /Helvetica-Bold findfont 64.4669 sf 0 0 m (1.1) show NC gr 
 gsave  2268 1676 0 0 C 64.4669 731.888 t 90 r /Helvetica-Bold findfont 72.0512 sf 0 0 m (Efficiency \(Purity\)) show NC gr  0 0 0.933333 c[  52 12 ] 0 sd 6 lw 0.49 0.6 0.82 c black 0 0 0.933333 c 245 497 m 2 Y 1 X 1 Y 2 X 3 Y 1 1 d 10 Y 1 2 d 9 Y 1
 4 d 11 Y 1 3 d 10 Y 1 3 d 15 Y 1 2 d 2 Y s 254 575 m 7 Y 1 2 d 8 Y 1 1 d 9 Y 1 1 d 6 Y 1 1 d 7 Y 1 2 d 3 Y 1 1 d 6 Y 1 X 4 Y 1 1 d 4 Y 1 1 d s 263 639 m 2 Y 1 1 d 2 Y 1 1 d 3 Y 1 X 2 Y 1 1 d 2 Y 1 1 d 2 Y 1 X 2 Y 1 1 d 1 Y 1 X 3 Y s 271 663 m 1 X 1
 Y 1 X 1 Y 1 1 d 1 Y 1 X 1 Y 1 X 1 Y 1 X 1 Y 1 X 1 Y 1 X 1 Y 1 X 1 Y s 280 673 m 1 X 1 Y 1 X 1 Y 2 X 1 Y 2 X 1 Y 1 X 1 Y 1 X 1 Y 1 X s 289 679 m 1 X 1 Y 3 X 1 Y 2 X 1 Y 1 X 1 1 d 1 X s 298 683 m 1 X 1 1 d 3 X 1 Y 1 X 1 1 d 2 X s 307 686 m 1 X 1 Y 4 X
 1 Y 3 X s 315 688 m 2 X 1 Y 4 X 1 1 d 2 X s 324 690 m 1 Y 3 X 1 Y 5 X 1 Y 1 X s 333 693 m 6 X 1 Y 3 X s 342 694 m 7 X 1 Y 2 X s 351 695 m 8 X s 359 695 m 3 X 1 Y 5 X 1 Y 1 X s 368 697 m 6 X 1 Y 3 X s 377 698 m 9 X s 386 698 m 5 X 1 Y 4 X s 395 699 m
 8 X 1 Y s 403 700 m 9 X s 412 700 m 6 X 1 1 d 2 X s 421 701 m 9 X s 430 701 m 9 X s 439 701 m 8 X s 447 701 m 3 X 1 Y 6 X s 456 702 m 9 X s 465 702 m 3 X 1 1 d 5 X s 474 703 m 9 X s 483 703 m 5 X 1 Y 3 X s 491 704 m 9 X s 500 704 m 9 X s 509 704 m 9
 X s 518 704 m 5 X 1 Y 1 X 1 -1 d 2 X s 527 704 m 2 X 1 Y 6 X s 535 705 m 9 X s 544 705 m 5 X 1 Y 4 X s 553 706 m 9 X s 562 706 m 9 X s 571 706 m 8 X s 579 706 m 9 X s 588 706 m 9 X s 597 706 m 9 X s 606 706 m 9 X s 615 706 m 5 X 1 Y 1 X 1 Y 2 X 1 Y
 s 623 709 m 1 X 2 Y 1 X 1 Y 1 1 d 1 Y 1 X 1 Y 1 X 1 Y 1 1 d 1 1 d 1 1 d 1 Y 1 X 1 Y s 632 721 m 1 1 d 1 Y 1 X 2 Y 1 X 2 Y 1 X 1 1 d 1 Y 1 1 d 1 Y 1 X 2 Y 1 X 1 1 d s 641 734 m 1 1 d 2 Y 1 1 d 1 Y 1 1 d 1 Y 2 X 2 Y 1 X 3 Y 1 X 1 Y 1 X 1 Y 1 X 1 Y s
 650 749 m 1 Y 1 X 2 Y 1 X 1 Y 1 1 d 2 Y 1 X 2 Y -1 Y 1 Y 1 X 2 Y 1 X 2 Y 1 1 d 2 Y 1 X 2 Y 1 X s 659 767 m 2 Y 1 1 d 2 Y 1 X 2 Y 1 X 2 Y 1 1 d 2 Y 1 X 1 Y 1 1 d 1 Y 1 X 2 Y 1 X 2 Y s 667 786 m 1 X 2 Y 1 X 2 Y 1 X 1 Y -1 Y 2 Y 1 X 1 Y 1 X 3 Y 1 X 1 Y
 1 X 2 Y 1 X 1 Y -1 Y 1 Y 1 1 d 1 Y s 676 802 m 1 X 1 Y 1 1 d 1 X 2 Y 1 X 1 Y 1 1 d 1 Y 1 1 d 2 Y 1 X 1 Y 1 X 1 Y 1 1 d s 685 815 m 1 X 2 Y 1 X 1 Y 1 1 d 1 Y 1 1 d 1 Y 1 X 1 Y 1 X 2 Y 1 X 2 Y 1 X 1 Y 1 X s 694 828 m 1 Y 1 1 d 1 Y 1 1 d 1 Y 1 X 2 Y 1
 X 2 Y 1 X 2 Y 1 X 1 Y 1 1 d 1 X 1 Y 1 X s 703 842 m 1 Y 1 1 d 2 Y 1 X 1 1 d 1 Y 1 X 1 Y 1 X 1 Y 1 X 1 Y 1 X 1 Y 1 X 1 Y s 711 853 m 1 X 1 Y 1 X 1 Y 1 X 2 Y 1 X 1 Y 1 X 1 1 d 1 Y 1 X 1 Y 1 X 1 Y 1 1 d 1 Y s 720 864 m 1 1 d 2 Y 1 X 1 Y 1 X 1 Y 1 X 1 Y
 1 1 d 1 X 1 Y 1 1 d 1 Y 1 X 1 Y 1 X s 729 875 m 1 Y 1 X 1 Y 1 X 1 Y 1 1 d 1 Y 1 X 1 Y 1 X 1 1 d 1 X 1 Y 1 X 1 Y 1 1 d s 738 885 m -1 Y 1 X 2 Y 1 X 1 Y 3 X 1 Y 1 X 1 Y 2 X 1 Y -1 Y 1 Y 1 X s 747 890 m 1 1 d 1 X 1 Y 1 X 2 Y 4 X 2 Y 1 X s 755 896 m 1 X
 1 1 d 1 1 d 1 1 d 2 X 1 Y 1 1 d 1 X 1 Y 1 X 1 Y s 764 903 m 1 X 1 Y 1 X 1 1 d 1 1 d 1 X 2 Y 2 X 1 Y 1 1 d 1 Y 1 X s 773 911 m 1 X 2 Y 2 X 1 Y 2 X 1 Y 1 X 1 Y 1 X 1 Y 1 X 1 Y 1 X s 782 918 m 1 X 1 Y 3 X 1 Y 1 X 1 Y 1 X 1 Y -1 Y 1 X 1 Y 2 X s 791 922
 m 1 X 1 Y 2 X 1 Y 1 X 1 Y 1 X 1 Y 2 X 1 Y 1 X -1 Y 1 Y s 799 927 m 1 X 1 1 d 2 X 1 Y 1 X 1 Y 1 X 1 Y 2 X 1 Y 1 X s 808 932 m 1 Y 1 -1 d 1 Y 2 X 1 Y 1 X 2 Y 1 X 1 Y 3 X 1 Y 1 X s 817 938 m 1 X 1 Y -1 Y 1 Y 1 X 1 Y 2 X 1 Y -1 Y 1 X 1 Y 2 X 1 1 d 1 X s
 826 942 m 2 X 1 Y 1 X 1 Y 1 X 1 Y 2 X 1 Y 2 X 1 1 d s 835 947 m 1 X 1 Y 3 X 1 Y 1 X -1 Y 1 X 1 Y 1 X 1 Y 1 X 1 Y s 843 951 m 1 X 1 1 d 1 X 1 Y -1 Y 1 Y 3 X 1 Y 3 X 1 Y s 852 955 m 3 X 1 Y 4 X 1 Y 2 X s 861 957 m 1 Y 1 X -1 Y 1 1 d 1 X 1 Y 5 X 1 Y 1
 X s 870 960 m -1 Y 1 1 d 1 Y -1 Y 1 Y 2 X 1 Y 3 X 1 Y 3 X s 879 963 m 1 X 1 Y 3 X 1 Y 4 X 1 Y s 887 966 m 3 X 1 Y 1 X 1 Y 2 X 1 1 d 2 X 1 Y s 896 970 m 2 X 1 Y 4 X 1 Y 1 X 1 1 d 1 X 1 Y s 905 974 m 1 X 1 Y 2 X 1 Y 1 X 1 1 d 4 X 1 Y s 914 978 m 3 X 1
 Y 1 X -1 Y 1 Y 2 X 1 Y 3 X s 923 980 m 1 Y 2 X 1 Y 1 X -1 Y 3 X 1 Y 2 X s 931 982 m 1 X -1 Y 1 X 1 Y 5 X 1 Y -1 Y 1 X 1 1 d s 940 983 m 6 X 1 Y 3 X -1 Y s 949 983 m 1 X 1 Y 2 X 1 Y 6 X s 958 985 m 1 Y 6 X 1 Y 3 X s 967 987 m 1 Y 2 X 1 1 d 5 X s 975
 989 m 1 X 1 Y 3 X 1 Y 2 X 1 1 d -1 Y 1 Y 2 X s 984 992 m 3 X 1 Y 2 X 1 Y 4 X s 993 994 m 6 X 1 Y 2 X 1 Y 1 X s 1002 996 m 3 X 1 Y 4 X 1 Y 2 X s 1011 998 m 1 X 1 Y 1 X 1 Y 3 X 1 Y 3 X s 1019 1001 m 1 X 1 Y 4 X 1 Y 4 X s 1028 1003 m 3 X 1 Y 4 X 1 Y 1
 X -1 Y 1 X 1 Y s 1037 1005 m 2 X 1 Y 2 X 1 Y 5 X s 1046 1007 m 1 Y 5 X 1 Y 4 X s 1055 1009 m 1 Y 2 X 1 1 d -1 Y 1 X 1 1 d 3 X s 1063 1011 m 3 X 1 1 d 3 X 1 Y 1 X -1 Y 1 Y 1 X s 1072 1013 m 3 X 1 Y 1 X -1 Y 1 1 d 1 X -1 Y 1 1 d 2 X s 1081 1014 m 2 X
 1 Y 2 X 1 Y 2 X 1 Y 3 X s 1090 1017 m 4 X 1 1 d 2 X 1 1 d 1 X s 1099 1019 m 1 X 1 1 d 4 X 1 Y 1 X 1 Y 1 X s 1107 1022 m 2 X 1 Y 5 X 1 Y 2 X s 1116 1024 m 6 X -1 Y 1 X 1 Y 2 X 1 Y s 1125 1025 m 6 X 1 Y 3 X s 1134 1026 m 3 X 1 1 d -1 Y 2 X 1 Y 3 X s
 1143 1027 m 2 X 1 Y 4 X 1 Y 2 X s 1151 1029 m 7 X 1 Y 2 X 1 Y s 1160 1031 m 2 X 1 Y 4 X 1 Y 3 X s 1169 1033 m 4 X 1 Y 5 X 1 Y s 1178 1035 m 2 X 1 Y 4 X 1 Y 3 X s 1187 1037 m 2 X 1 Y 1 X -1 Y 2 X 1 1 d 2 X s 1195 1038 m 3 X 1 Y 3 X -1 Y 3 X s 1204
 1038 m 2 X 1 Y 5 X 1 Y 2 X s 1213 1040 m 6 X 1 Y 2 X 1 1 d s 1222 1042 m 9 X s 1231 1042 m 4 X 1 1 d 3 X 1 Y s 1239 1044 m 9 X s 1248 1044 m 4 X 1 1 d 3 X 1 Y 1 X s 1257 1046 m 9 X s 1266 1046 m 2 X 1 Y 3 X 1 Y 2 X -1 Y 1 Y 2 X s 1275 1048 m 1 X 1 Y
 5 X 1 Y 2 X s 1283 1050 m 1 X 1 Y 1 X 1 Y 7 X s 1292 1052 m 1 Y 5 X 1 Y 3 X 1 Y 1 X s 1301 1055 m 2 X 1 Y 7 X s 1310 1056 m 3 X 1 1 d 3 X 1 Y 2 X s 1319 1058 m 2 X 1 Y 1 X -1 Y 1 X 1 Y 4 X s 1327 1059 m 3 X 1 1 d 5 X s 1336 1060 m 9 X s 1345 1060 m
 1 X 1 Y 1 X 1 1 d 3 X 1 Y 1 X -1 Y 1 Y 2 X s 1354 1063 m 7 X 1 Y 2 X s 1363 1064 m 7 X 1 Y 1 X s 1371 1065 m 5 X 1 Y 2 X 1 Y 2 X s 1380 1067 m 3 X 1 Y 1 X 1 Y 1 X 1 1 d 2 X 1 Y 1 X s 1389 1071 m 9 X s 1398 1071 m 6 X 2 Y 3 X s 1407 1073 m 7 X 1 Y 1
 X s 1415 1074 m 1 X 1 Y 2 X -1 Y 1 Y 6 X s 1424 1075 m 1 1 d 7 X 1 Y 1 X s 1433 1077 m 1 X 1 Y 1 -1 d 1 X 1 Y 6 X s 1442 1078 m 2 X 1 Y 1 X -1 Y 1 Y 6 X s 1451 1079 m 1 Y 1 X 1 1 d 1 X 1 Y 1 X -1 Y 2 X 1 Y 2 X s 1459 1082 m 4 X 1 Y 2 X 1 Y 1 -1 d 1
 Y 2 X s 1468 1084 m 2 X 1 Y 1 -1 d 1 Y 4 X 1 Y 1 X -1 Y 1 X s 1477 1085 m 3 X 1 1 d 5 X s 1486 1086 m 7 X 1 1 d 1 X s 1495 1087 m 1 X 1 Y 4 X 1 1 d 2 X 1 Y s 1503 1090 m 1 X -1 Y 6 X 1 Y 2 X s 1512 1090 m 6 X 1 Y 1 -1 d 1 X 1 1 d s 1521 1091 m 5 X 1
 1 d 2 X 1 Y 1 1 d s 1530 1094 m 8 X 1 Y 1 X s 1539 1095 m 1 X -1 Y 1 X 1 1 d 1 Y 1 X 1 Y 2 X -1 Y 1 X 1 Y 1 X s 1547 1097 m 4 X 1 Y 1 -1 d 2 X 1 1 d 1 X s 1556 1098 m 6 X 1 Y 3 X s 1565 1099 m 1 Y 1 X 1 -1 d 1 Y 7 X s 1574 1100 m 2 X 1 Y 2 X -1 Y 3
 X 1 Y 2 X s 1583 1101 m 7 X 1 Y 1 1 d s 1591 1103 m 2 X 1 Y 1 X -1 Y 6 X s 1600 1103 m 6 X 1 Y 3 X s 1609 1104 m 2 X 1 Y 7 X s 1618 1105 m 1 X 1 Y 1 X 1 -1 d 1 X 1 Y 4 X 1 1 d s 1627 1107 m 1 -1 d 1 X 1 1 d 1 Y 2 X 1 Y 3 X 1 Y s 1635 1110 m 5 X 1 -1
 d 1 Y 3 X s 1644 1110 m 1 X 1 1 d 2 X 1 1 d 3 X 1 Y 1 X s 1653 1113 m -1 Y 3 X 1 Y 4 X 1 Y 2 X -1 Y s 1662 1113 m 1 Y 5 X 1 Y 3 X -1 Y 1 X s 1671 1114 m 1 Y 6 X -1 Y 2 X s 1679 1114 m 1 X 1 Y 8 X s 1688 1115 m 4 X 1 1 d 4 X s 1697 1116 m 1 X 1 1 d 3
 X -1 Y 1 X 1 Y 3 X s 1706 1117 m 1 1 d 1 X 1 Y 3 X 1 Y 1 X -1 Y 1 1 d 2 X 1 Y s 1715 1121 m 2 X 1 Y 4 X 1 Y 2 X s 1723 1123 m 1 X 1 Y 3 X 1 Y 3 X 1 Y 2 X s 1732 1126 m 3 X 1 Y 1 X 1 Y 5 X s 1741 1128 m 1 X 1 Y 5 X 1 1 d 2 X 1 Y s 1750 1131 m 2 X 1 Y
 1 X -1 Y 3 X 1 1 d -1 Y 1 X 1 Y 1 X s 1759 1132 m 5 X 1 Y 2 X 1 1 d -1 Y s 1767 1133 m 2 X 1 Y 2 X 1 Y 3 X -1 Y 1 X 1 Y 1 X s 1776 1135 m 1 X 1 1 d 2 X 1 Y 1 X 1 Y 4 X s 1785 1138 m 2 X 1 Y 2 X 1 Y 3 X 1 Y 2 X s 1794 1141 m 8 X 1 1 d s 1803 1142 m 4
 X 1 -1 d 3 X 1 Y 1 1 d s 1812 1143 m 1 Y 5 X 1 Y 3 X s 1820 1145 m 1 Y 1 X 1 Y 1 X -1 Y 1 X 1 1 d 2 X 1 Y 2 X 1 Y 1 X s 1829 1149 m 3 X 1 1 d 1 X 1 Y 4 X s 1838 1151 m 2 X 1 Y 1 X 1 Y 2 X 1 Y 1 X 1 Y 1 -1 d 1 Y 2 X s 1847 1155 m 1 1 d 1 Y 3 X 1 Y 1
 X 1 Y 1 1 d 1 Y 2 X 1 Y 1 X s 1856 1162 m 1 X 1 Y 2 X 3 Y 1 X 1 1 d 1 Y 1 X 1 Y 2 X s 1864 1169 m 1 1 d 1 X 1 1 d 1 1 d 3 X 1 Y 2 X s 1873 1173 m 2 X 1 Y 1 X 1 1 d 1 X 1 Y 1 X 1 1 d 2 X 1 Y s 1882 1178 m -1 Y 1 Y 1 X 1 Y 1 X 1 Y 7 X s 1891 1180 m 9
 X s 1900 1180 m 5 X 1 Y 3 X s 1908 1181 m 4 X 1 Y 2 X 1 1 d 1 X 1 1 d s 1917 1184 m 3 X 1 1 d 3 X 1 Y 2 X s 1926 1186 m 6 X 1 Y 3 X s 1935 1187 m 6 X 1 Y 3 X s 1944 1188 m 1 X 1 Y 6 X 1 -1 d s 1952 1188 m 5 X 1 Y 4 X s 1961 1189 m 4 X 1 Y 5 X s 1970
 1190 m 2 X 1 1 d 6 X s 1979 1191 m 1 1 d 3 X 1 1 d 4 X s 1988 1193 m 8 X 2 Y s 1996 1195 m 6 X -1 Y 3 X s 2005 1194 m 9 X s 2014 1194 m 1 1 d 1 1 d 5 X 1 Y 1 1 d 1 X s 2023 1198 m 9 X s 2032 1198 m 8 X s 2040 1198 m 1 X s[  ] 0 sd 9 lw 0.49 0.6 0.82
 c black 0 0 0.933333 c 245 1200 m 9 X -1 Y s 254 1199 m 6 X -1 Y 3 X s 263 1198 m -1 Y 8 X s 271 1197 m 5 X -1 Y 4 X s 280 1196 m 9 X s 289 1196 m 5 X 1 -1 d 3 X s 298 1195 m 9 X s 307 1195 m 8 X s 315 1195 m 9 X s 324 1195 m 6 X -1 Y 3 X s 333 1194
 m 8 X -1 Y 1 X s 342 1193 m 9 X s 351 1193 m 8 X s 359 1193 m 9 X s 368 1193 m 9 X s 377 1193 m 9 X s 386 1193 m 9 X s 395 1193 m 8 X s 403 1193 m 9 X s 412 1193 m 7 X -1 Y 2 X s 421 1192 m 9 X s 430 1192 m 9 X s 439 1192 m 8 X s 447 1192 m 9 X s
 456 1192 m 9 X s 465 1192 m 9 X s 474 1192 m 6 X -1 Y 3 X s 483 1191 m 8 X s 491 1191 m 9 X s 500 1191 m 8 X -1 Y 1 X s 509 1190 m 9 X s 518 1190 m 3 X -1 Y 6 X s 527 1189 m 8 X s 535 1189 m 9 X s 544 1189 m 4 X -1 Y 5 X s 553 1188 m 9 X s 562 1188
 m 9 X s 571 1188 m -1 Y 8 X s 579 1187 m 4 X -1 Y 5 X s 588 1186 m 9 X s 597 1186 m 9 X s 606 1186 m 9 X s 615 1186 m 6 X -2 Y 1 X -1 Y 1 X s 623 1183 m 1 X -1 Y 3 X -2 Y 3 X -1 Y 1 X -1 Y 1 X s 632 1178 m 1 -1 d 2 X -1 Y 1 X -1 Y 1 X -1 Y 1 X -1 Y
 3 X s 641 1173 m 1 -1 d 1 -1 d 1 X -2 Y 1 X -2 Y 1 X -1 Y 1 X -1 Y 1 X -1 Y 1 X -2 Y 1 -1 d s 650 1161 m -1 Y 1 X -1 Y 1 X -1 Y 1 X -1 Y 1 X -1 Y 1 -1 d 1 X -1 Y 1 X 1 -1 d -1 Y 1 X s 659 1152 m -1 Y 1 X -1 Y 2 X -1 Y 1 X -1 Y 1 X -1 Y 1 X -1 Y 1 X
 -1 Y 1 X -1 Y s 667 1144 m 2 X -2 Y 1 X -1 Y 1 X -1 Y 1 X -1 Y 1 X -1 Y 1 -1 d 1 -1 d -1 Y 1 X s 676 1135 m 1 -1 d 1 X -1 Y 1 -1 d 1 X -1 Y 2 X -1 Y 3 X -1 Y s 685 1129 m 1 X -1 Y 1 X -1 Y 2 X -1 Y 1 X -1 Y 3 X -1 Y 1 X s 694 1124 m 1 X -1 Y 2 X -1
 Y 1 X -1 Y 2 X -2 Y 1 X -1 Y 2 X s 703 1118 m -1 Y 2 X -1 Y 2 X -1 Y 2 X 1 -1 d 1 X -1 Y s 711 1113 m 2 X -1 Y 3 X -2 Y 1 X -1 Y 2 X -1 Y 1 X s 720 1108 m 3 X -2 Y 3 X 1 -1 d 1 X -1 Y 1 X s 729 1104 m 1 X -1 Y 2 X -1 Y 1 -1 d 1 X -1 Y 1 X -1 Y 2 X
 -1 Y 1 X s 738 1098 m 1 X -1 Y 2 X 1 -1 d -1 Y 2 X -1 Y 2 X -1 Y 1 X s 747 1093 m -1 Y 2 X -1 Y 1 X -1 Y 1 X -1 Y 1 X -1 Y 3 X s 755 1088 m 1 X -1 Y 1 X -1 Y 3 X -1 Y 2 X -1 Y 2 X s 764 1084 m 1 X -1 Y 1 X -1 Y 1 X -1 Y 2 X -1 Y 3 X -1 Y 1 X s 773
 1079 m 2 X -2 Y 3 X -1 Y 2 X -1 Y 1 X 1 -1 d s 782 1074 m 1 X 1 -1 d -1 Y 5 X -1 Y 1 X -3 Y 1 X s 791 1068 m 2 X -1 Y 5 X -1 Y 1 X -1 Y s 799 1065 m 2 X -1 Y 4 X -1 Y 3 X -1 Y s 808 1062 m 1 -1 d 1 X -1 Y 1 X 1 -1 d 2 X -1 Y 1 X -1 Y 2 X s 817 1057
 m -1 Y 1 X -1 Y 1 X -1 Y 1 X 1 -1 d -1 Y 3 X -1 Y 2 X s 826 1051 m 1 X -1 Y 4 X -1 Y 1 X -1 Y 3 X s 835 1048 m -1 Y 1 X 1 -1 d 1 X -1 Y 3 X -1 Y 1 X -1 Y 1 X s 843 1043 m 1 X -1 Y 2 X -1 Y 3 X -1 Y 3 X s 852 1040 m 1 X -1 Y 2 X -1 Y 3 X 1 -1 d 1 X
 -1 Y 1 X s 861 1036 m 1 X -1 Y 2 X -1 Y 3 X -1 Y 2 X -1 Y 1 X s 870 1032 m -1 Y 1 X -1 Y 3 X -1 Y 3 X -1 Y 1 -1 d 1 X s 879 1027 m 1 X -1 Y 2 X -1 Y 3 X -1 Y 2 X -1 Y s 887 1023 m 4 X 1 -1 d 2 X -1 Y 2 X -1 Y s 896 1020 m 3 X -1 Y 1 X -1 Y 4 X -1 Y
 1 X s 905 1017 m -1 Y 3 X -1 Y 2 X -1 Y 4 X s 914 1014 m 1 X -2 Y 2 X -1 Y 1 X -1 Y 1 X -1 Y 3 X -1 Y 1 X s 923 1008 m 1 X -1 Y 1 X -1 Y 1 X -1 Y 5 X s 931 1005 m 1 X -1 Y 2 X -1 Y 2 X -1 Y 2 X -1 Y 2 X s 940 1001 m 1 X -1 Y 1 X -1 Y 1 X -1 Y 2 X -1
 Y 3 X -1 Y 1 X s 949 996 m 1 X -1 Y 3 X -1 Y 2 X -1 Y 3 X s 958 993 m 4 X -1 Y 1 X -1 Y 4 X s 967 991 m 1 X -1 Y 3 X 1 -1 d 3 X s 975 989 m 2 X -1 Y 2 X -1 Y 2 X -1 Y 2 X -1 Y 1 X s 984 985 m 1 -1 d 5 X -1 Y 3 X s 993 983 m 1 X -1 Y 3 X -1 Y 2 X -1
 Y 3 X s 1002 980 m 1 -1 d 1 X -1 Y 1 X 1 -1 d 4 X 1 -1 d s 1011 976 m 3 X -1 Y 1 X -1 Y 1 X -1 Y 2 X 1 -1 d s 1019 972 m 4 X -1 Y 2 X -1 Y 1 X -1 Y 2 X s 1028 969 m 2 X -1 Y 1 X -1 Y 2 X -1 Y 1 X -1 Y 1 X -1 Y 2 X s 1037 964 m 1 X -1 Y 3 X -1 Y 5 X
 s 1046 962 m -1 Y 1 X -1 Y 4 X -1 Y 2 X -1 Y 2 X s 1055 958 m -1 Y 3 X -1 Y 3 X -1 Y 1 X -1 Y 1 X s 1063 954 m 1 X -1 Y 3 X -1 Y 2 X -1 Y 2 X -1 Y 1 X s 1072 950 m 1 X -1 Y 3 X -1 Y 1 X -1 Y 1 X -1 Y 1 X -1 Y 2 X s 1081 945 m 1 X -1 Y 7 X -1 Y 1 X s
 1090 943 m 1 X 1 -1 d 2 X -1 Y 2 X -1 Y 3 X s 1099 940 m 1 X -1 Y 4 X -1 Y 2 X -1 Y 1 X s 1107 937 m 1 -1 d 4 X -1 Y 4 X s 1116 935 m -1 Y 2 X 1 -1 d 1 X -1 Y 2 X 1 -1 d 1 X -1 Y 1 X -1 Y s 1125 929 m 4 X -1 Y 3 X -1 Y 2 X s 1134 927 m 1 X 1 -1 d 1
 X -2 Y 3 X -1 Y 3 X s 1143 923 m 1 -1 d 2 X -1 Y 4 X -1 Y 1 X s 1151 920 m 3 X -1 Y 5 X -1 Y 1 X s 1160 918 m 2 X -1 Y 3 X -1 Y 1 X -1 Y 3 X s 1169 915 m 7 X -1 Y 2 X s 1178 914 m 2 X -1 Y 4 X 1 -1 d -1 Y 2 X s 1187 911 m 3 X -1 Y 3 X -1 Y 2 X s
 1195 909 m 2 X -1 Y 3 X -1 Y 2 X -1 Y 2 X s 1204 906 m 1 X -1 Y 2 X -1 Y 3 X -1 Y 3 X -1 Y s 1213 902 m 3 X -1 Y 3 X 1 -1 d 2 X s 1222 900 m 1 X -1 Y 2 X -1 Y 6 X s 1231 898 m 3 X -1 Y 3 X -1 Y 2 X s 1239 896 m 5 X 1 -1 d 3 X s 1248 895 m 1 -1 d 4 X
 -1 Y 2 X -1 Y 2 X s 1257 892 m 1 X -1 Y 3 X 1 -1 d 2 X -1 Y 1 X -1 Y 1 X s 1266 888 m 3 X 1 -1 d 3 X -1 Y 1 X -1 Y 1 X s 1275 885 m 3 X 1 -1 d 2 X -1 Y 2 X s 1283 883 m 2 X -1 Y 3 X -1 Y 4 X -1 Y s 1292 880 m 6 X 1 -1 d 2 X -1 Y s 1301 878 m 2 X -1
 Y 1 X -1 Y 4 X -1 Y 2 X s 1310 875 m 1 X -1 Y 1 X -1 Y 3 X 1 -1 d 1 -1 d 1 X 1 -1 d s 1319 870 m 3 X -1 Y 2 X -1 Y 1 X -1 Y 2 X s 1327 867 m 1 X -1 Y 2 X -1 Y 1 X -1 Y 4 X -1 Y 1 X -1 Y s 1336 862 m 4 X -1 Y 1 X -1 Y 4 X s 1345 860 m 2 X -1 Y 1 X 1
 -1 d 2 X -1 Y 1 X 1 -1 d 1 X s 1354 856 m -1 Y 3 X -1 Y 4 X -1 Y 1 X -1 Y 1 X s 1363 852 m 1 X -1 Y 1 X 1 -1 d 2 X -1 Y 2 X -1 Y 1 X s 1371 848 m 1 X -1 Y 1 X -1 Y 3 X 1 -1 d 3 X -1 Y s 1380 844 m 2 X -1 Y 2 X -1 Y 2 X -1 Y 1 X -1 Y 2 X s 1389 840 m
 1 -1 d 2 X -1 Y 2 X 1 -1 d 1 X -1 Y 1 X -1 Y 1 X s 1398 835 m 2 X -1 Y 1 X -1 Y 2 X -1 Y 3 X -1 Y 1 X s 1407 831 m 3 X -1 Y 2 X -1 Y 1 -1 d 1 X 1 -1 d -1 Y s 1415 826 m 3 X -1 Y 1 X -1 Y 3 X -1 Y 2 X s 1424 823 m 1 X -2 Y 2 X -1 Y 1 -1 d 2 X 1 -1 d
 -1 Y 2 X -1 Y s 1433 816 m 1 X -1 Y 2 X -1 Y 1 X -1 Y 3 X -1 Y 2 X s 1442 812 m 1 X -1 Y 1 X -1 Y 1 X -1 Y 4 X -2 Y 2 X s 1451 807 m -1 Y 2 X -1 Y 1 X -1 Y 2 X -1 Y 3 X -1 Y s 1459 802 m 1 X -1 Y 2 X -1 Y 2 X -1 Y 1 X 1 -1 d 2 X -1 Y s 1468 797 m 1
 X -1 Y 1 X -1 Y 1 X -1 Y 1 X -1 Y 1 X 1 -1 d 2 X -1 Y 1 X s 1477 791 m 1 X -1 Y 2 X -1 Y 2 X -1 Y 1 X 1 -1 d 1 -1 d 1 X s 1486 786 m 1 X -1 Y 4 X -1 Y 1 X -1 Y 1 X -1 Y 1 -1 d 1 X s 1495 781 m -1 Y 2 X -1 Y 2 X 1 -1 d -1 Y 2 X 1 -1 d s 1503 776 m 1
 X -1 Y 1 X 1 -1 d 2 X 1 -1 d 3 X s 1512 773 m 1 -1 d 1 X -1 Y 1 X -1 Y 2 X -1 Y 1 X -1 Y 2 X -1 Y 1 X s 1521 767 m 2 X -1 Y 1 X -1 Y 3 X -1 Y 1 X -1 Y 1 X -1 Y 1 X s 1530 762 m 1 X -1 Y 2 X 1 -1 d -1 Y 3 X -1 Y 1 X -1 Y 1 X s 1539 757 m 1 X -1 Y 1 X
 -1 Y 1 X -1 Y 1 X -2 Y 3 X -1 Y 1 X -1 Y s 1547 750 m 2 X -1 Y 1 X -1 Y 1 X 1 -1 d 2 X -1 Y 1 X -1 Y 1 X -1 Y s 1556 744 m 6 X -1 Y 3 X s 1565 743 m 1 X 1 -1 d 1 X -1 Y 1 X -1 Y 2 X -1 Y 1 X 1 -1 d 1 X s 1574 738 m -1 Y 1 X -1 Y 2 X -1 Y 1 X -1 Y 2
 X -1 Y 1 X 1 -1 d -1 Y 1 X s 1583 731 m -1 Y 3 X 1 -1 d 1 X -2 Y 2 X -1 Y 1 X -1 Y s 1591 725 m 2 X -1 Y 1 X -1 Y 1 -1 d -1 Y 1 X 1 -1 d 1 X -1 Y 1 X -1 Y 1 X s 1600 718 m 1 X 1 -1 d -1 Y 2 X -1 Y 2 X -1 Y 1 X -1 Y 2 X s 1609 713 m -1 Y 3 X 1 -1 d
 -1 Y 2 X -1 Y 3 X s 1618 709 m 1 -1 d 1 X -2 Y 1 X -1 Y 1 X 1 -1 d -1 Y 1 -1 d 1 X -1 Y 2 X s 1627 701 m 1 -1 d -1 Y 1 X -1 Y 4 X -1 Y 2 X -1 Y s 1635 696 m 1 X -1 Y 2 X -1 Y 1 -1 d -1 Y 1 X 1 -1 d 1 X -1 Y 1 X -1 Y 1 X -1 Y s 1644 688 m 1 X -1 Y 3
 X -1 Y 1 X -1 Y 1 X 1 -1 d -1 Y 2 X s 1653 683 m -1 Y 1 X -1 Y 1 X -1 Y 1 X -1 Y 1 X -1 Y 2 X -1 Y 2 X 1 -1 d s 1662 676 m 2 X -2 Y 2 X -1 Y 1 X -1 Y 1 X -1 Y 2 X -1 Y 1 -1 d s 1671 669 m 1 X -1 Y 3 X -1 Y 1 X -1 Y 1 -1 d 1 X -1 Y 1 X -2 Y s 1679
 662 m 2 X -1 Y 2 X -1 Y 2 X -1 Y 1 X -1 Y 2 X -1 Y s 1688 657 m 1 X -1 Y 1 -1 d -1 Y 2 X -1 Y 1 X 1 -1 d 2 X -1 Y 1 X s 1697 651 m 1 X -1 Y 1 X -1 Y 2 X -1 Y 1 X -1 Y 1 X -1 Y 1 X -1 Y 1 X -1 Y 1 X s 1706 644 m 2 X -2 Y 1 -1 d 2 X -1 Y 1 X -1 Y 1 X
 -1 Y 1 X -1 Y 1 X s 1715 637 m -1 Y 1 X -1 Y 1 X -1 Y 3 X -1 Y 1 X -1 Y 1 -1 d -1 Y 1 X -1 Y s 1723 629 m 3 X -1 Y 1 X -1 Y 2 X -1 Y 1 -1 d 1 X -1 Y 1 X s 1732 624 m 1 X 1 -1 d 1 X -1 Y 2 X -1 Y 2 X -1 Y 2 X -1 Y s 1741 619 m -1 Y 2 X -1 Y 1 X -1 Y
 2 X -2 Y 1 X -1 Y 3 X -1 Y s 1750 612 m 1 X -1 Y 1 X -1 Y 1 X 1 -1 d 1 -1 d -1 Y 1 X -1 Y 1 X -2 Y 1 X -1 Y 1 X s 1759 603 m -1 Y 3 X -1 Y 1 X -1 Y 1 -1 d -1 Y 1 X -1 Y 2 X -1 Y s 1767 596 m 1 X 1 -1 d 1 X -1 Y 2 X 1 -1 d -1 Y 1 X -1 Y 1 X 1 -1 d s
 1776 590 m 2 X -1 Y 1 X -1 Y 1 X -1 Y 1 X -1 Y 1 X 1 -1 d -2 Y 1 X -1 Y 1 X -1 Y s 1785 581 m 1 -1 d 1 X -1 Y 1 X -1 Y 1 X 1 -1 d 1 X -1 Y 1 -1 d 1 X 1 -1 d s 1794 574 m -1 Y 1 X 1 -1 d -1 Y 1 X 1 -1 d 1 X -1 Y 1 X -1 Y 1 X -1 Y 1 X -1 Y 1 X s 1803
 566 m 1 -1 d 1 X -1 Y 2 X -1 Y 1 -1 d 1 -1 d -1 Y 1 -1 d 2 X s 1812 559 m -1 Y 3 X -1 Y 1 X -1 Y 2 X -1 Y 1 X 1 -1 d s 1820 554 m 1 X -1 Y 1 X -1 Y 1 X -1 Y 2 X -1 Y 1 -1 d -1 Y 1 X -3 Y 1 X -1 Y 1 X s 1829 544 m 1 X -1 Y 1 -1 d 1 X -1 Y 1 -1 d -1 Y
 1 X -2 Y 1 -1 d -1 Y 1 X -2 Y 1 X -1 Y 1 X s 1838 532 m 1 X -2 Y 1 X -1 Y 1 X -1 Y 1 X -1 Y 1 -1 d -1 Y 1 X -2 Y 1 -1 d 1 X -1 Y 1 -1 d s 1847 520 m -1 Y 1 X -1 Y 1 X -1 Y 1 X -2 Y 1 X -1 Y 1 X -1 Y 1 -1 d -1 Y 1 X -1 Y 1 X -1 Y 1 -1 d s 1856 508 m
 1 X -1 Y 1 -1 d -1 Y 1 -1 d -3 Y 1 X -2 Y 1 -2 d -2 Y 1 X -2 Y 1 X -1 Y 1 -1 d -1 Y s 1864 490 m 1 X -1 Y 1 X -2 Y 1 X -2 Y 1 X -2 Y 1 X -3 Y 1 X -2 Y 1 X -1 Y 1 X -2 Y 1 X s 1873 475 m -1 Y 1 X -2 Y 1 X -1 Y 1 -1 d -1 Y 1 X 1 -1 d -1 Y 1 -1 d 1 X
 -1 Y 1 X -1 Y 1 -1 d s 1882 463 m 1 -1 d -1 Y 1 X -2 Y 2 X -1 Y 1 -1 d -2 Y 1 X -1 Y 1 X -1 Y 1 X -1 Y 1 X s 1891 452 m 1 X -1 Y 1 X -1 Y 1 X -1 Y 1 -1 d -1 Y 1 X -1 Y 2 X 1 -1 d 1 X s 1900 445 m 2 X -1 Y 1 X -1 Y 2 X -2 Y 1 X -1 Y 1 X -1 Y 1 X -1 Y
 s 1908 438 m 1 X -1 Y 1 X -1 Y 1 X -1 Y 1 X -1 Y 2 X -1 Y 2 X -1 Y 1 -1 d s 1917 431 m 1 X -1 Y 1 X -1 Y 1 X -1 Y 1 -1 d 1 X -2 Y 2 X -2 Y 1 X -1 Y 1 X s 1926 422 m -1 Y 2 X -2 Y 1 X -1 Y 1 X -1 Y 1 -1 d 1 X -1 Y 1 X -1 Y 1 X -1 Y 1 X s 1935 413 m
 -1 Y 1 X -1 Y 3 X -1 Y 3 X -1 Y 1 X -1 Y 1 -1 d s 1944 407 m -1 Y 2 X -1 Y 1 -1 d -1 Y 1 X -1 Y 1 X -2 Y 1 X -1 Y 1 X -1 Y 1 -1 d s 1952 397 m -1 Y 1 X 1 -2 d 1 -1 d 1 -1 d -1 Y 1 X -1 Y 1 X -1 Y 1 X -1 Y 1 X -1 Y 1 X -1 Y s 1961 386 m 2 X -1 Y 2 X
 -1 Y 1 X -1 Y 1 X -1 Y 1 X -1 Y 1 X -1 Y 1 X -1 Y s 1970 379 m 1 X -1 Y 1 -1 d -1 Y 2 X -1 Y 1 X -1 Y 1 -1 d 1 X -1 Y 1 X -1 Y 1 -1 d s 1979 370 m -1 Y 1 X -1 Y 1 X -1 Y 1 X -1 Y 2 X -1 Y 2 X 1 -1 d -1 Y 1 X s 1988 363 m -1 Y 1 X -2 Y 1 X 1 -1 d -2
 Y 2 X -1 Y 1 X -1 Y 1 X -2 Y 1 X s 1996 353 m 1 X -1 Y 1 X -1 Y 1 X -1 Y 1 X -2 Y 1 -1 d 1 X -1 Y 1 X -1 Y 1 X -2 Y 1 X s 2005 343 m -1 Y 1 X -1 Y 1 X -1 Y 1 -1 d -1 Y 1 X -1 Y 1 X -1 Y 1 X -2 Y 1 X -1 Y 1 X -2 Y 1 X -1 Y s 2014 330 m -1 Y 1 X -2 Y
 1 X -1 Y 1 X -2 Y 1 X -1 Y 1 X -1 Y 1 X -1 Y 1 -1 d -1 Y 1 X -1 Y 1 X s 2023 318 m -2 Y 1 -1 d -2 Y 1 X -1 Y 1 -1 d 1 -1 d -1 Y 1 -1 d -3 Y 1 X -1 Y 1 -1 d -3 Y 1 X -3 Y 1 X s 2032 297 m -2 Y 1 X -1 Y 1 -1 d -1 Y 1 -1 d -4 Y 1 -1 d -4 Y 1 X -3 Y 1
 -1 d -3 Y 1 -1 d -6 Y 1 -2 d -6 Y s 2040 260 m -1 Y 1 -1 d -2 Y s 1 0 0 c black 1 0 0 c 245 1200 m -11 Y 1 X -1 Y 1 X -1 Y 1 X -13 Y 1 -5 d -37 Y 1 -7 d -35 Y 1 -12 d -42 Y 1 -9 d -36 Y 1 -9 d -51 Y 1 -7 d -8 Y s 254 916 m -20 Y 1 -7 d -24 Y 1 -5 d
 -28 Y 1 -2 d -19 Y 1 -4 d -20 Y 1 -5 d -8 Y 1 -4 d -16 Y 1 -2 d -9 Y 1 -4 d -12 Y 1 -2 d s 263 725 m -6 Y 1 -3 d -6 Y 1 -1 d -8 Y 1 -2 d -5 Y 1 -2 d -6 Y 1 -2 d -4 Y 1 -1 d -6 Y 1 -2 d -3 Y 1 -1 d -6 Y s 271 661 m 1 -1 d -2 Y 1 -1 d -3 Y 1 -1 d -4 Y
 1 X -3 Y 1 X -2 Y 1 -1 d -2 Y 1 X -3 Y 1 X -2 Y 1 X -2 Y s 280 634 m 1 X -3 Y 1 -1 d -1 Y 1 X -2 Y 1 X 1 -1 d -1 Y 1 X -3 Y 1 X -1 Y 1 X -2 Y 1 X -1 Y s 289 618 m 1 -1 d -1 Y 1 X -1 Y 2 X -2 Y 1 -1 d 1 X -2 Y 1 X -1 Y 1 X -1 Y 1 X s 298 608 m -1 Y 1
 X 1 -1 d -1 Y 2 X -1 Y 1 X 1 -1 d -1 Y 1 -1 d -1 Y 2 X s 307 600 m 1 X -2 Y 3 X -1 Y 1 X -1 Y 1 X -1 Y 2 X -1 Y s 315 594 m 2 X -1 Y 3 X 1 -1 d -1 Y 2 X -1 Y 1 -1 d s 324 589 m 1 X -1 Y 1 X -1 Y 1 X -1 Y 2 X -1 Y 2 X -1 Y 2 X -1 Y s 333 583 m 1 X -1
 Y 5 X -1 Y 1 X -1 Y 2 X s 342 580 m 5 X -1 Y 2 X -1 Y 2 X s 351 578 m 3 X -1 Y 5 X s 359 577 m 2 X 1 -1 d 2 X -1 Y 2 X -1 Y 1 X -1 Y 1 X s 368 573 m 2 X -1 Y 4 X -1 Y 3 X s 377 571 m 4 X 1 -1 d 4 X -1 Y s 386 569 m 5 X -1 Y 4 X s 395 568 m 3 X -1 Y
 3 X 1 -1 d 1 X s 403 566 m 3 X 1 -1 d 4 X -1 Y 1 X s 412 564 m 7 X -1 Y 2 X s 421 563 m 6 X -1 Y 3 X s 430 562 m 8 X 1 -1 d s 439 561 m 8 X s 447 561 m 4 X -1 Y 5 X s 456 560 m 5 X -1 Y 4 X s 465 559 m 3 X 1 -1 d 2 X -1 Y 3 X s 474 557 m 7 X -1 Y 2
 X s 483 556 m 7 X -1 Y 1 X s 491 555 m 9 X s 500 555 m 1 X -1 Y 8 X s 509 554 m 1 X -1 Y 8 X s 518 553 m 5 X -1 Y 4 X s 527 552 m 5 X -1 Y 3 X s 535 551 m 6 X 1 -1 d 2 X s 544 550 m 5 X -1 Y 4 X s 553 549 m 6 X -1 Y 3 X s 562 548 m 9 X s 571 548 m 8
 X s 579 548 m 7 X -1 Y 2 X s 588 547 m 9 X s 597 547 m 9 X s 606 547 m 2 X -1 Y 7 X s 615 546 m 6 X -4 Y 1 X -1 Y 1 X -3 Y s 623 538 m 1 -1 d -4 Y 1 X -2 Y 1 -1 d -3 Y 1 -1 d -3 Y 1 X -3 Y 1 -1 d -2 Y 1 X -2 Y 1 -1 d -3 Y 1 -1 d -2 Y s 632 508 m -1
 Y 1 -1 d -3 Y 1 -1 d -3 Y 1 -1 d -3 Y 1 -1 d -2 Y 1 -1 d -3 Y 1 -2 d -3 Y 1 X -3 Y 1 X -2 Y 1 -1 d -1 Y s 641 476 m -1 Y 1 X -6 Y 1 -1 d -3 Y 1 -1 d -4 Y 1 X -2 Y 1 X -4 Y 1 X -6 Y 1 -1 d -2 Y 1 -1 d -3 Y 1 -1 d -1 Y s 650 439 m -2 Y 1 -1 d -4 Y 1
 -1 d -2 Y 1 -2 d -4 Y 1 -2 d -3 Y 1 -1 d -4 Y 1 -1 d -4 Y 1 -2 d -3 Y 1 -1 d -4 Y 1 -1 d s 659 397 m -3 Y 1 -2 d -4 Y 1 -2 d -3 Y 1 -1 d -5 Y 1 -1 d -4 Y 1 X -3 Y 1 X -4 Y 1 X -3 Y 1 -1 d -4 Y s 667 357 m 1 -1 d -4 Y 1 X -3 Y 1 -1 d -4 Y 1 X -2 Y 1
 X -6 Y 1 X -3 Y 1 X -4 Y 1 -1 d -2 Y 1 -1 d -2 Y s 676 323 m 1 X -3 Y 1 -1 d -1 Y 1 X -4 Y 1 -1 d -2 Y 1 X -4 Y 1 X -4 Y 1 X -3 Y 1 X -1 Y 1 -2 d -1 Y s 685 296 m 1 X -4 Y 1 X -2 Y 1 -1 d -2 Y 1 -1 d -3 Y 1 X -2 Y 1 X -3 Y 1 -1 d -3 Y 1 X -2 Y 1 X
 -1 Y s 694 271 m -2 Y 1 X -3 Y 1 -1 d -2 Y 1 X -4 Y 1 X -4 Y 1 X -4 Y 1 X -2 Y 1 -1 d 1 -1 d -2 Y 1 X s 703 245 m -2 Y 1 -1 d -3 Y 1 X -1 Y 1 -1 d -2 Y 1 X -2 Y 1 -1 d -1 Y 1 X -1 Y 1 -1 d -1 Y 1 X -2 Y s 711 226 m 1 X -2 Y 1 X -2 Y 1 -1 d -2 Y 1 -1
 d -1 Y 1 X -1 Y 1 -1 d -2 Y 1 X -2 Y 1 X -2 Y 1 -1 d -2 Y s 720 206 m -1 Y 1 -1 d -3 Y s 0 0.666667 0 c 1 1 1 c black 0 0.666667 0 c 245 956 m 3 Y 3 X 3 Y 1 1 d 8 Y 1 1 d 8 Y 1 2 d 10 Y 1 2 d 8 Y 1 2 d 12 Y 1 2 d 1 Y s 254 1019 m 5 Y 1 2 d 6 Y 1 1 d
 7 Y 1 1 d 4 Y 1 1 d 6 Y 1 1 d 2 Y 1 1 d 4 Y 1 X 3 Y 1 1 d 3 Y 1 X s 263 1067 m 2 Y 1 1 d 1 Y 1 1 d 2 Y 1 X 2 Y 1 X 2 Y 1 X 2 Y 1 X 2 Y 1 X 1 Y 1 X 2 Y s 271 1085 m 1 X 1 Y 1 X 1 Y 1 X 2 Y 2 X 1 1 d 1 X 1 Y 1 X 1 Y 1 X s 280 1092 m 1 X 1 Y 1 X 1 1 d
 3 X 1 Y 1 X 1 Y 2 X s 289 1096 m 1 1 d 3 X 1 Y 2 X 1 Y 3 X s 298 1099 m 1 X 1 1 d 4 X 1 Y 3 X s 307 1101 m 1 X 1 Y 5 X 1 Y 2 X s 315 1103 m 6 X 1 Y 3 X s 324 1104 m 1 X 1 Y 5 X 1 Y -1 Y 1 X 1 Y 2 X s 333 1106 m 9 X s 342 1106 m 5 X 1 Y 4 X s 351
 1107 m 8 X s 359 1107 m 5 X 1 Y 4 X s 368 1108 m 2 X 1 Y 7 X s 377 1109 m 9 X s 386 1109 m 5 X 1 Y 4 X s 395 1110 m 8 X s 403 1110 m 9 X 1 Y s 412 1111 m 9 X s 421 1111 m 9 X s 430 1111 m 9 X s 439 1111 m 8 X s 447 1111 m 5 X 1 Y 4 X s 456 1112 m 6
 X -1 Y 2 X 1 1 d s 465 1112 m 9 X s 474 1112 m 9 X s 483 1112 m 8 X s 491 1112 m 1 X 1 Y 8 X s 500 1113 m 4 X -1 Y 5 X s 509 1112 m 9 X s 518 1112 m 9 X s 527 1112 m 7 X 1 Y 1 X s 535 1113 m 1 -1 d 8 X s 544 1112 m 9 X s 553 1112 m 9 X s 562 1112 m
 9 X s 571 1112 m 8 X s 579 1112 m 6 X 1 -1 d 1 Y -1 Y 2 X s 588 1111 m 9 X s 597 1111 m 1 X 1 1 d 7 X s 606 1112 m 9 X s 615 1112 m 8 X s 623 1112 m 1 1 d 1 Y 2 X 1 Y 1 X 1 1 d -1 Y 1 Y 1 X 1 Y 2 X 1 Y -1 Y 1 Y 1 X s 632 1118 m 1 Y 1 X 1 Y 1 X 1 1 d
 1 Y 1 X -1 Y 1 Y 1 X 1 1 d 1 1 d 1 1 d 1 X s 641 1125 m 1 Y 1 -1 d 2 Y 1 X 1 Y 1 X 1 Y -1 Y 2 X -1 Y 1 Y 1 X 2 Y 3 X s 650 1130 m 1 X 1 Y 1 X 1 1 d 1 Y 1 X 1 Y -1 Y 1 Y 1 X 1 1 d 1 Y 1 1 d -1 Y 2 Y 1 -1 d 1 Y 1 X s 659 1138 m 1 Y 1 1 d 1 1 d 1 Y 1 X
 1 Y 1 X 1 Y 1 X 1 Y 1 X 1 Y 2 X 1 Y s 667 1147 m 1 X 2 Y 2 X 1 Y 2 X 1 Y 1 1 d -1 Y 1 Y 1 -1 d 1 Y 1 X 1 Y 1 X s 676 1153 m 1 X 1 Y 2 X 1 1 d 1 X 1 Y 1 1 d 1 Y 1 X 1 Y 2 X s 685 1159 m 1 X 1 Y 1 X 1 1 d 1 Y 2 X 1 Y 1 X 1 Y 1 X 1 Y 1 X 1 Y 1 X s 694
 1166 m 1 1 d 1 X 1 Y 1 X 1 1 d 1 1 d 1 Y 3 X 1 Y 1 X s 703 1172 m 1 X 1 Y 2 X 1 Y 1 X 1 Y 3 X 1 Y -1 Y 1 Y 1 X s 711 1176 m 1 X 1 1 d -1 Y 1 Y 1 X 1 Y 1 X 1 1 d -1 Y 1 X 1 1 d 1 X 1 1 d s 720 1180 m 1 Y 1 X 1 Y 1 X 1 Y 2 X 1 Y 2 X 1 Y 2 X 1 Y 1 -1 d
 1 Y s 729 1186 m 2 X 1 Y 2 X 1 Y 1 X -1 Y 2 X 1 Y 2 X s 738 1188 m 1 X 1 Y 8 X s 747 1189 m 2 X 1 Y -1 Y 1 1 d 1 X -1 Y 1 1 d 3 X s 755 1190 m 3 X 1 Y 4 X 1 Y 2 X 1 Y s 764 1193 m 2 X -1 Y 1 Y 1 X -1 Y 1 Y 2 X 1 Y 3 X 1 Y 1 X s 773 1195 m 1 X 1 Y 2
 X -1 Y 1 X 1 Y 3 X 1 Y -1 Y 1 1 d 1 X s 782 1197 m 2 X -1 Y 1 X 1 Y 1 -1 d 1 Y 2 X 1 Y -1 Y 2 X -1 Y 1 X s 791 1196 m 4 X 1 Y 2 X 1 Y 2 X -1 Y s 799 1197 m 1 X 1 Y 1 X -1 Y 2 X 1 Y 2 X 1 Y 3 X s 808 1199 m 1 X -1 Y 2 X 1 Y 2 X 1 Y -1 Y 1 Y 2 X -1 Y
 2 X s 817 1199 m 6 X -1 Y 1 X 1 Y -1 Y 1 X 1 Y 1 X s 826 1199 m 4 X 1 Y 1 X -1 Y 1 Y 1 -1 d 1 Y 3 X s 835 1200 m 1 X 1 -1 d 6 X s 843 1199 m 1 X 1 1 d 2 X -1 Y 1 1 d 4 X s 852 1200 m 7 X -1 Y 1 Y 1 X -1 Y 1 X s 861 1199 m 1 Y 1 X -1 Y 7 X -1 Y 1 Y 1
 X -1 Y s 870 1198 m 1 X 1 Y -1 Y 1 X 1 1 d -1 Y 1 Y 4 X -1 Y 1 Y -1 Y 2 X s 879 1198 m 3 X -1 Y 1 1 d 2 X -1 Y 2 X 1 Y s 887 1198 m 1 X -1 Y 1 X 1 Y 5 X 1 Y -1 Y 2 X s 896 1198 m 8 X 1 1 d -1 Y s 905 1198 m 1 Y -1 Y 1 X 1 Y 1 X -1 Y 1 X 1 Y -1 Y 1 Y
 -1 Y 1 1 d 5 X s 914 1199 m 1 X -1 Y 1 X 1 Y -1 Y 2 X -1 Y 1 Y 1 X -1 Y 1 X 1 Y 1 X 1 -1 d 1 X s 923 1197 m 3 X -1 Y 5 X s 931 1196 m 3 X 1 -1 d 5 X -1 Y s 940 1194 m 1 X 1 Y -1 Y 1 X -1 Y 6 X 1 -1 d s 949 1192 m 5 X -1 Y 1 Y 1 X -1 Y 1 X 1 Y 2 X s
 958 1192 m 5 X -1 Y 3 X 1 Y 1 X s 967 1192 m 7 X -1 Y 1 X s 975 1191 m 1 X 1 Y 1 X -1 Y 7 X -1 Y s 984 1190 m 3 X 1 Y 6 X s 993 1191 m 1 X -1 Y 5 X -1 Y 1 X 1 Y 2 X s 1002 1190 m 2 X -1 Y 6 X 1 Y -1 Y 1 X s 1011 1189 m 1 X 1 Y 3 X -1 Y 3 X 1 -1 d 1
 Y s 1019 1189 m 4 X -1 Y 1 1 d -1 Y 1 Y 1 X -1 Y 3 X -1 Y s 1028 1187 m 1 X 1 Y 1 X -1 Y 4 X -1 Y 2 X -1 Y 1 X s 1037 1185 m 1 X 1 Y 8 X s 1046 1186 m 1 X -1 Y 8 X s 1055 1185 m -1 Y 1 Y 3 X -1 Y 1 X 1 1 d -1 Y 2 X -1 Y 1 X s 1063 1183 m 6 X -1 Y 3
 X s 1072 1182 m 4 X -1 Y 1 X 1 -1 d 3 X s 1081 1180 m 6 X 1 Y 1 X -1 Y 2 X s 1090 1180 m 4 X -1 Y 1 Y -1 Y 1 1 d -1 Y 2 X 1 1 d -1 Y 1 X s 1099 1179 m 2 X 1 Y 1 -1 d 3 X 1 1 d -1 Y 1 X s 1107 1179 m 9 X s 1116 1179 m 1 X -1 Y 3 X -1 Y 3 X -1 Y 2 X s
 1125 1176 m 1 X 1 Y 1 -1 d 7 X s 1134 1176 m 1 X -1 Y 2 X -1 Y 4 X -1 Y 1 Y 1 X -1 Y 1 X s 1143 1173 m 1 Y 1 -1 d 2 X 1 Y -1 Y 5 X -1 Y s 1151 1172 m 1 1 d 2 X -1 Y 1 X 1 Y 3 X -1 Y 1 X 1 Y -1 Y 1 Y -1 Y 1 X 1 Y s 1160 1173 m 4 X -1 Y 1 1 d -1 Y 4 X
 s 1169 1172 m 9 X s 1178 1172 m 2 X 1 Y 2 X -1 Y 2 X 1 Y 1 -1 d 2 X s 1187 1172 m 4 X 1 -1 d 3 X s 1195 1171 m 6 X -1 Y 2 X -1 Y 1 X s 1204 1169 m 4 X -1 Y 1 X 1 Y 1 X -1 Y 3 X s 1213 1168 m 5 X -1 Y 1 X 1 Y 1 -1 d 1 Y 1 -1 d 1 1 d s 1222 1168 m -1
 Y 1 X 1 Y -1 Y 4 X -1 Y 1 X 1 1 d 2 X s 1231 1167 m 3 X -1 Y 2 X 1 Y 1 X -1 Y 2 X s 1239 1166 m 9 X s 1248 1166 m 1 -1 d 1 X 1 Y 1 X -1 Y 1 X 1 1 d -1 Y 4 X s 1257 1165 m 2 X -1 Y 5 X -1 Y 1 X 1 -1 d s 1266 1162 m 1 Y 7 X -1 Y 1 Y 1 X -1 Y 1 X s
 1275 1162 m 8 X s 1283 1162 m 5 X -1 Y 2 X 1 Y 1 X -1 Y 1 X s 1292 1161 m 1 X 1 Y 2 X -1 Y 2 X 1 Y 1 X 1 -1 d 1 Y 1 X -1 Y 1 X s 1301 1161 m 4 X -1 Y 5 X s 1310 1160 m -1 Y 2 X -1 Y 1 X 1 1 d 2 X -1 Y 3 X s 1319 1158 m 3 X -1 Y 3 X -1 Y 2 X s 1327
 1156 m 3 X -1 Y 6 X -1 Y s 1336 1154 m 3 X -1 Y 3 X -1 Y 3 X s 1345 1152 m 1 X 1 Y 3 X -1 Y 5 X -1 Y s 1354 1151 m 3 X -1 Y 1 X 1 Y 1 X -1 Y 4 X s 1363 1150 m 1 X -1 Y 1 X 1 -1 d 2 X -1 Y 1 X 1 Y -1 Y 2 X s 1371 1147 m 1 X 1 -1 d 7 X 1 Y -1 Y s 1380
 1146 m 7 X -1 Y 2 X s 1389 1145 m 2 X -1 Y 4 X -1 Y 2 X -1 Y 1 X 1 Y s 1398 1143 m 1 -1 d 2 X -1 Y 6 X s 1407 1141 m 4 X 1 -1 d -1 Y 3 X -1 Y s 1415 1138 m 1 X 1 Y 1 -1 d 2 X -1 Y 5 X s 1424 1137 m 1 X -1 Y 2 X -1 Y 2 X -1 Y 2 X -1 Y 2 X s 1433 1133
 m 2 X 1 -1 d 3 X -1 Y 3 X s 1442 1131 m 1 X -1 Y 3 X -1 Y 3 X -1 Y 2 X s 1451 1128 m 1 Y -1 Y 4 X -1 Y 4 X -1 Y s 1459 1126 m 2 X -1 Y 2 X 1 Y -1 Y 5 X -1 Y s 1468 1124 m 2 X -1 Y 2 X -1 Y 2 X 1 -1 d 1 Y 1 X -1 Y 1 X s 1477 1121 m 1 X -1 Y 4 X -1 Y
 2 X -1 Y 2 X s 1486 1118 m 1 X -1 Y 1 X 1 Y -1 Y 3 X -1 Y 2 X -1 Y 2 X s 1495 1115 m -1 Y 1 X 1 Y 1 -1 d 3 X -1 Y 3 X -1 Y 1 Y s 1503 1113 m 1 X -1 Y 4 X -1 Y 4 X s 1512 1111 m 1 X -1 Y 3 X -1 Y 2 X -1 Y 1 Y -1 Y 2 X -1 Y 1 1 d s 1521 1108 m 1 X -1
 Y 2 X -1 Y 1 1 d -1 Y 4 X -1 Y 1 Y -1 Y 1 1 d -1 Y s 1530 1105 m 4 X -1 Y 3 X -1 Y 1 X 1 Y -1 Y 1 X s 1539 1103 m 1 X -1 Y 1 X -1 Y 1 X 1 Y -1 Y 2 X -1 Y 3 X -1 Y s 1547 1099 m 2 X -1 Y 3 X -1 Y 2 X -1 Y 2 X -1 Y s 1556 1095 m 1 X 1 Y 4 X -1 Y 1 X 1
 Y -1 Y 1 X 1 Y 2 X s 1565 1096 m 1 X -1 Y 2 X 1 -1 d -1 Y 1 X 1 Y 1 X -1 Y 2 X -1 Y 1 X s 1574 1092 m 1 X -1 Y 3 X -1 Y 2 X -1 Y 2 X -1 Y 1 X s 1583 1088 m 1 X -1 Y 4 X -1 Y 1 X -1 Y 1 X 1 1 d -1 Y s 1591 1085 m 2 X -1 Y 1 X 1 -1 d 1 X -1 Y 2 X -1 Y
 1 X -1 Y 1 X s 1600 1080 m 1 X 1 -1 d -1 Y 2 X 1 Y -1 Y 3 X -1 Y 2 X s 1609 1077 m 3 X 1 -1 d 1 X -1 Y 2 X -1 Y 1 X 1 Y 1 X s 1618 1075 m 1 -1 d 1 Y -1 Y 1 X -1 Y 1 X -1 Y 2 X -1 Y 1 X -1 Y 3 X s 1627 1070 m 1 -1 d -1 Y 7 X 1 Y -1 Y s 1635 1068 m 1
 X -1 Y 2 X -1 Y 1 X -1 Y 2 X -1 Y 2 X -1 Y 1 X s 1644 1063 m 1 X -1 Y 3 X -1 Y 1 1 d -1 Y 1 X 1 -1 d 2 X s 1653 1060 m -1 Y 2 X -1 Y 1 X -1 Y 2 X -1 Y 4 X -1 Y s 1662 1055 m 1 Y 2 X -1 Y 1 -1 d 2 X -1 Y 2 X 1 -1 d -1 Y 1 X s 1671 1051 m 2 X -1 Y 3 X
 -1 Y 1 -1 d 1 X -1 Y 1 X -1 Y s 1679 1046 m 4 X -1 Y 2 X -1 Y 1 X 1 -1 d 1 Y 1 X -1 Y s 1688 1043 m 1 X -1 Y 1 -1 d 1 X -1 Y 2 X 1 -1 d 3 X s 1697 1039 m 1 X -1 Y 2 X -1 Y 2 X -1 Y 2 X -1 Y 1 X -1 Y 1 X s 1706 1034 m 2 X -1 Y 3 X 1 -1 d 1 X -1 Y 2 X
 s 1715 1031 m -1 Y 1 X -1 Y 4 X -1 Y 2 X -1 Y 1 X -1 Y s 1723 1026 m 4 X -1 Y 2 X -1 Y 2 X -1 Y 1 X s 1732 1023 m 4 X -1 Y 1 Y 1 X -1 Y 3 X -1 Y 1 X s 1741 1021 m -1 Y 3 X -1 Y 2 X -1 Y 1 X -1 Y 3 X s 1750 1017 m 1 X -1 Y 2 X -1 Y 1 X 1 -1 d -1 Y 2
 X -2 Y 2 X s 1759 1011 m -1 Y 3 X -1 Y 1 X -1 Y 1 X 1 -1 d 1 X -1 Y 1 1 d -1 Y s 1767 1006 m 1 X 1 -1 d 1 Y -1 Y 4 X -2 Y 2 X 1 -1 d s 1776 1002 m 3 X -1 Y 1 X 1 Y -1 Y 1 X -1 Y 2 X -2 Y 1 X -1 Y 1 X s 1785 997 m -1 Y 2 X 1 -1 d 1 X 1 Y -1 Y 1 X -1
 Y 1 X 1 -1 d 2 X s 1794 993 m -1 Y 1 X 1 -1 d 1 X -1 Y 1 -1 d 2 X -1 Y 1 X -1 Y 2 X s 1803 987 m -1 Y 3 X -1 Y 1 X -1 Y 1 X -1 Y 1 X -1 Y 1 -1 d 2 X s 1812 981 m 1 Y 2 X -1 Y 2 X -1 Y 3 X 1 -1 d s 1820 979 m 2 X -1 Y 1 X -1 Y 1 1 d -1 Y 1 X -1 Y 1 X
 -1 Y 1 Y -1 Y 1 X -2 Y 2 X s 1829 973 m 1 X -1 Y 1 X -1 Y 1 Y 1 -1 d -1 Y 1 X -1 Y 1 X -1 Y 1 X -1 Y 1 X -2 Y 2 X s 1838 965 m 1 -1 d -1 Y 1 X -1 Y 2 X -1 Y 1 X -1 Y 1 X -1 Y 1 -1 d 1 X -1 Y 1 X s 1847 957 m -1 Y 1 X 1 -1 d 1 X -1 Y 1 -1 d 1 X -1 Y
 1 Y -1 Y 2 X -1 Y 1 X -1 Y 1 Y -1 Y 1 X s 1856 950 m 1 X -1 Y 1 X -1 Y 1 -1 d -1 Y 1 X -2 Y 1 -1 d -2 Y 1 X 1 -1 d -1 Y 1 X -1 Y s 1864 938 m 1 X -1 Y 1 X -1 Y 1 X -1 Y 1 X -2 Y 1 X -2 Y 1 X -2 Y 2 X -2 Y 1 X s 1873 927 m -1 Y 1 X -1 Y 1 X -1 Y 1 X
 -1 Y 2 X -1 Y 1 -1 d 1 Y -1 Y 1 1 d -1 Y 1 X -2 Y 1 X s 1882 919 m 1 -1 d 1 X -1 Y 2 X -1 Y 1 X -3 Y 1 X 1 -1 d 1 -1 d 1 X s 1891 911 m -1 Y 2 X -1 Y 1 X -1 Y 1 X -1 Y 1 X -1 Y 1 Y -1 Y 2 X 1 -1 d 1 X s 1900 905 m 2 X -1 Y 1 X -1 Y 2 X -2 Y 1 Y 1 X
 -1 Y 1 X -1 Y 1 X s 1908 900 m -1 Y 2 X -1 Y 1 X -1 Y 1 X -1 Y 4 X -1 Y 1 X s 1917 895 m 1 X -1 Y 1 X -1 Y 1 X -1 Y 1 X -1 Y 1 X -1 Y 1 X -1 Y 1 X 1 -1 d 1 X -1 Y s 1926 887 m 1 X -1 Y 1 X -1 Y 1 X -1 Y 1 X -1 Y 1 X -1 Y 2 X -1 Y 1 X -1 Y 1 X s 1935
 880 m -1 Y 1 X -1 Y 1 X 1 Y 1 -1 d 3 X -1 Y 1 Y 1 -1 d 1 -1 d 1 -1 d s 1944 875 m -1 Y 1 X 1 Y 1 -1 d -1 Y 1 X -1 Y 1 X -1 Y 1 X -2 Y 1 X -1 Y 1 X -1 Y 1 X -1 Y s 1952 866 m 1 -1 d 1 -1 d -1 Y 1 X 1 -1 d -1 Y 1 X 1 -1 d -1 Y 1 X -1 Y 2 X -1 Y s 1961
 857 m 2 X -1 Y 2 X -1 Y 1 X -1 Y 1 X -1 Y 1 X 1 -1 d 1 X -1 Y s 1970 851 m 1 X -1 Y 1 -1 d 2 X -2 Y 1 X -1 Y 1 -1 d 1 Y 1 X -1 Y 1 X -1 Y 1 -1 d s 1979 843 m -1 Y 1 1 d -2 Y 2 X -1 Y 4 X -1 Y 1 X -1 Y 1 X s 1988 838 m -1 Y 1 -1 d -1 Y 1 X -1 Y 1 X
 -2 Y 2 X -1 Y 1 X -1 Y 1 X -2 Y 1 X 1 Y s 1996 829 m 1 X -1 Y 1 X -1 Y 1 X -1 Y 1 X -2 Y 2 X -1 Y 1 -1 d 1 X -2 Y 1 -1 d s 2005 819 m 1 X -2 Y 1 X -1 Y 1 X -1 Y 1 X -1 Y 1 X -1 Y 1 X -2 Y 1 X -1 Y 1 X -2 Y 1 X s 2014 808 m -2 Y 1 X -1 Y 1 X -1 Y 1 X
 -2 Y 1 X 1 -1 d -1 Y 1 X -1 Y 1 X -2 Y 1 Y 1 X -1 Y 1 X s 2023 797 m -2 Y 1 -1 d -1 Y 1 X -2 Y 1 X -1 Y 1 -1 d -1 Y 1 X -4 Y 1 X -1 Y 1 X -3 Y 1 -1 d -2 Y 1 X s 2032 777 m -2 Y 1 X -1 Y 1 -1 d -1 Y 1 -1 d -4 Y 1 -1 d -4 Y 1 X -3 Y 1 -1 d -3 Y 1 -1 d
 -6 Y 1 -2 d -6 Y s 2040 740 m -1 Y 1 -1 d -2 Y s black 3 lw 245 201 m 1796 X s 245 241 m -40 Y s 335 221 m -20 Y s 425 221 m -20 Y s 514 221 m -20 Y s 604 241 m -40 Y s 694 221 m -20 Y s 784 221 m -20 Y s 874 221 m -20 Y s 963 241 m -40 Y s 1053 221
 m -20 Y s 1143 221 m -20 Y s 1233 221 m -20 Y s 1323 241 m -40 Y s 1412 221 m -20 Y s 1502 221 m -20 Y s 1592 221 m -20 Y s 1682 241 m -40 Y s 1772 221 m -20 Y s 1861 221 m -20 Y s 1951 221 m -20 Y s 2041 241 m -40 Y s 245 241 m -40 Y s 2041 241 m
 -40 Y s 245 201 m 1140 Y s 291 215 m -46 X s 268 243 m -23 X s 268 271 m -23 X s 268 300 m -23 X s 268 328 m -23 X s 291 356 m -46 X s 268 384 m -23 X s 268 412 m -23 X s 268 440 m -23 X s 268 468 m -23 X s 291 497 m -46 X s 268 525 m -23 X s 268
 553 m -23 X s 268 581 m -23 X s 268 609 m -23 X s 291 637 m -46 X s 268 665 m -23 X s 268 694 m -23 X s 268 722 m -23 X s 268 750 m -23 X s 291 778 m -46 X s 268 806 m -23 X s 268 834 m -23 X s 268 862 m -23 X s 268 891 m -23 X s 291 919 m -46 X s
 268 947 m -23 X s 268 975 m -23 X s 268 1003 m -23 X s 268 1031 m -23 X s 291 1059 m -46 X s 268 1088 m -23 X s 268 1116 m -23 X s 268 1144 m -23 X s 268 1172 m -23 X s 291 1200 m -46 X s 268 1228 m -23 X s 268 1256 m -23 X s 268 1285 m -23 X s 268
 1313 m -23 X s 291 1341 m -46 X s 291 215 m -46 X s 0.490196 0.545098 0.615686 c 1 1 1 c 0.490196 0.545098 0.615686 c 907 201 245 1341 bl 245 1341 m 907 X s 1152 1341 m 201 Y s 1152 1542 m -907 X s 245 1542 m -201 Y s black
 gsave  2268 1676 0 0 C 515.735 1471.36 t 0 r /Helvetica-Bold findfont 56.8825 sf 0 0 m (Signal efficiency) show NC gr  0 0 0.933333 c 9 lw 286 1492 m 190 X s black
 gsave  2268 1676 0 0 C 515.735 1368.97 t 0 r /Helvetica-Bold findfont 56.8825 sf 0 0 m (Background efficiency) show NC gr  1 0 0 c 286 1391 m 190 X s 0.490196 0.545098 0.615686 c 3 lw 1 1 1 c 0.490196 0.545098 0.615686 c 889 201 1152 1341 bl 1152
 1341 m 889 X s 2041 1341 m 201 Y s 2041 1542 m -889 X s 1152 1542 m -201 Y s black
 gsave  2268 1676 0 0 C 1418.27 1494.11 t 0 r /Helvetica-Bold findfont 56.8825 sf 0 0 m (Signal purity) show NC gr  0 0 0.933333 c[  52 12 ] 0 sd 6 lw 1192 1509 m 187 X s black
 gsave  2268 1676 0 0 C 1418.27 1429.65 t 0 r /Helvetica-Bold findfont 56.8825 sf 0 0 m (Signal efficiency*purity) show NC gr  0 0 0.933333 c[  22 12 ] 0 sd 1192 1441 m 187 X s black
 gsave  2268 1676 0 0 C 1501.7 1361.39 t 0 r /Helvetica-Bold findfont 56.8825 sf 0 0 m (S+B) show NC gr [  ] 0 sd 1483 1407 m 7 -49 d s 3 lw 1490 1358 m 8 64 d s 1498 1422 m 114 X s
 gsave  2268 1676 0 0 C 1418.27 1361.39 t 0 r /Helvetica-Bold findfont 56.8825 sf 0 0 m (S/) show NC gr  0 0.666667 0 c 9 lw 1192 1374 m 187 X s black 3 lw 245 1200 m 1796 X s
 gsave  2268 1676 0 0 C 337.503 386.801 t 0 r /Helvetica-Bold findfont 53.0904 sf 0 0 m (For 1000 signal and 1000 background) show NC gr 
 gsave  2268 1676 0 0 C 1058.01 318.542 t 0 r /Helvetica-Bold findfont 53.0904 sf 0 0 m ( is) show NC gr 
 gsave  2268 1676 0 0 C 955.626 318.542 t 0 r /Helvetica-Bold findfont 53.0904 sf 0 0 m (S+B) show NC gr  6 lw 933 360 m 7 -45 d s 3 lw 940 315 m 8 60 d s 948 375 m 110 X s
 gsave  2268 1676 0 0 C 337.503 318.542 t 0 r /Helvetica-Bold findfont 53.0904 sf 0 0 m (events the maximum S/) show NC gr 
 gsave  2268 1676 0 0 C 337.503 254.075 t 0 r /Helvetica-Bold findfont 53.0904 sf 0 0 m (27.05 when cutting at  0.34) show NC gr  0.490196 0.545098 0.615686 c 0.364706 0.419608 0.490196 c 1471 96 23 1572 bf 0.490196 0.545098 0.615686 c 23 1572 m 1471
 X s 1494 1572 m 96 Y s 1494 1668 m -1471 X s 23 1668 m -96 Y s 1 1 1 c black 1 1 1 c
 gsave  2268 1676 0 0 C 75.8434 1600.29 t 0 r /Helvetica-Bold findfont 75.8434 sf 0 0 m (Cut efficiencies and optimal cut value) show NC gr  0 0.666667 0 c 2041 201 m 1140 Y s 1995 201 m 46 X s 2018 239 m 23 X s 2018 278 m 23 X s 2018 316 m 23 X s
 2018 354 m 23 X s 1995 393 m 46 X s 2018 431 m 23 X s 2018 469 m 23 X s 2018 508 m 23 X s 2018 546 m 23 X s 1995 584 m 46 X s 2018 623 m 23 X s 2018 661 m 23 X s 2018 699 m 23 X s 2018 737 m 23 X s 1995 776 m 46 X s 2018 814 m 23 X s 2018 852 m 23 X
 s 2018 891 m 23 X s 2018 929 m 23 X s 1995 967 m 46 X s 2018 1006 m 23 X s 2018 1044 m 23 X s 2018 1082 m 23 X s 2018 1121 m 23 X s 1995 1159 m 46 X s 1995 1159 m 46 X s 2018 1197 m 23 X s 2018 1236 m 23 X s 2018 1274 m 23 X s 2018 1312 m 23 X s
 black 0 0.666667 0 c
 gsave  2268 1676 0 0 C 2051.56 178.232 t 0 r /Helvetica-Bold findfont 64.4669 sf 0 0 m (0) show NC gr  black 0 0.666667 0 c
 gsave  2268 1676 0 0 C 2051.56 367.84 t 0 r /Helvetica-Bold findfont 64.4669 sf 0 0 m (5) show NC gr  black 0 0.666667 0 c
 gsave  2268 1676 0 0 C 2051.56 561.241 t 0 r /Helvetica-Bold findfont 64.4669 sf 0 0 m (10) show NC gr  black 0 0.666667 0 c
 gsave  2268 1676 0 0 C 2051.56 750.849 t 0 r /Helvetica-Bold findfont 64.4669 sf 0 0 m (15) show NC gr  black 0 0.666667 0 c
 gsave  2268 1676 0 0 C 2051.56 944.25 t 0 r /Helvetica-Bold findfont 64.4669 sf 0 0 m (20) show NC gr  black 0 0.666667 0 c
 gsave  2268 1676 0 0 C 2051.56 1133.86 t 0 r /Helvetica-Bold findfont 64.4669 sf 0 0 m (25) show NC gr  black 0 0.666667 0 c
 gsave  2268 1676 0 0 C 2203.25 963.211 t 90 r /Helvetica-Bold findfont 64.4669 sf 0 0 m (Significance) show NC gr 
 gr  gr showpage
end
%%EOF
