%!PS-Adobe-2.0 EPSF-2.0
%%BoundingBox:  0 0 567 419
%%Title: dataset/plots/mvaeffs_BDT.eps: Cut efficiencies for BDT classifier
%%Creator: ROOT Version 6.12/06
%%CreationDate: Mon May 21 12:04:08 2018
%%DocumentNeededResources: ProcSet (FontSetInit)
%%EndComments
%%BeginProlog
80 dict begin
/s {stroke} def /l {lineto} def /m {moveto} def /t {translate} def
/r {rotate} def /rl {roll}  def /R {repeat} def
/d {rlineto} def /rm {rmoveto} def /gr {grestore} def /f {eofill} def
/c {setrgbcolor} def /black {0 setgray} def /sd {setdash} def
/cl {closepath} def /sf {scalefont setfont} def /lw {setlinewidth} def
/box {m dup 0 exch d exch 0 d 0 exch neg d cl} def
/NC{systemdict begin initclip end}def/C{NC box clip newpath}def
/bl {box s} def /bf {gsave box gsave f grestore 1 lw [] 0 sd s grestore} def /Y { 0 exch d} def /X { 0 d} def 
/K {{pop pop 0 moveto} exch kshow} bind def
/ita {/ang 15 def gsave [1 0 ang dup sin exch cos div 1 0 0] concat} def 
/mp {newpath /y exch def /x exch def} def
/side {[w .77 mul w .23 mul] .385 w mul sd w 0 l currentpoint t -144 r} def
/mr {mp x y w2 0 360 arc} def /m24 {mr s} def /m20 {mr f} def
/mb {mp x y w2 add m w2 neg 0 d 0 w neg d w 0 d 0 w d cl} def
/mt {mp x y w2 add m w2 neg w neg d w 0 d cl} def
/w4 {w 4 div} def
/w6 {w 6 div} def
/w8 {w 8 div} def
/m21 {mb f} def /m25 {mb s} def /m22 {mt f} def /m26{mt s} def
/m23 {mp x y w2 sub m w2 w d w neg 0 d cl f} def
/m27 {mp x y w2 add m w3 neg w2 neg d w3 w2 neg d w3 w2 d cl s} def
/m28 {mp x w2 sub y w2 sub w3 add m w3 0 d  0 w3 neg d w3 0 d 0 w3 d w3 0 d  0 w3 d w3 neg 0 d 0 w3 d w3 neg 0 d 0 w3 neg d w3 neg 0 d cl s } def
/m29 {mp gsave x w2 sub y w2 add w3 sub m currentpoint t 4 {side} repeat cl fill gr} def
/m30 {mp gsave x w2 sub y w2 add w3 sub m currentpoint t 4 {side} repeat cl s gr} def
/m31 {mp x y w2 sub m 0 w d x w2 sub y m w 0 d x w2 sub y w2 add m w w neg d x w2 sub y w2 sub m w w d s} def
/m32 {mp x y w2 sub m w2 w d w neg 0 d cl s} def
/m33 {mp x y w2 add m w3 neg w2 neg d w3 w2 neg d w3 w2 d cl f} def
/m34 {mp x w2 sub y w2 sub w3 add m w3 0 d  0 w3 neg d w3 0 d 0 w3 d w3 0 d  0 w3 d w3 neg 0 d 0 w3 d w3 neg 0 d 0 w3 neg d w3 neg 0 d cl f } def
/m35 {mp x y w2 add m w2 neg w2 neg d w2 w2 neg d w2 w2 d w2 neg w2 d x y w2 sub m 0 w d x w2 sub y m w 0 d s} def
/m36 {mb x w2 sub y w2 add m w w neg d x w2 sub y w2 sub m w w d s} def
/m37 {mp x y m w4 neg w2 d w4 neg w2 neg d w2 0 d  w4 neg w2 neg d w2 0 d w4 neg w2 d w2 0 d w4 neg w2 d w4 neg w2 neg d cl s} def
/m38 {mp x w4 sub y w2 add m w4 neg w4 neg d 0 w2 neg d w4 w4 neg d w2 0 d w4 w4 d 0 w2 d w4 neg w4 d w2 neg 0 d x y w2 sub m 0 w d x w2 sub y m w 0 d cl s} def
/m39 {mp x y m w4 neg w2 d w4 neg w2 neg d w2 0 d  w4 neg w2 neg d w2 0 d w4 neg w2 d w2 0 d w4 neg w2 d w4 neg w2 neg d cl f} def
/m40 {mp x y m w4 w2 d w4 w4 neg d w2 neg w4 neg d w2 w4 neg d w4 neg w4 neg d w4 neg w2 d w4 neg w2 neg d w4 neg w4 d w2 w4 d w2 neg w4 d w4 w4 d w4 w2 neg d cl s} def
/m41 {mp x y m w4 w2 d w4 w4 neg d w2 neg w4 neg d w2 w4 neg d w4 neg w4 neg d w4 neg w2 d w4 neg w2 neg d w4 neg w4 d w2 w4 d w2 neg w4 d w4 w4 d w4 w2 neg d cl f} def
/m42 {mp x y w2 add m w8 neg w2 -3 4 div mul d w2 -3 4 div mul w8 neg d w2 3 4 div mul w8 neg d w8 w2 -3 4 div mul d w8 w2 3 4 div mul d w2 3 4 div mul w8 d w2 -3 4 div mul w8 d w8 neg w2 3 4 div mul d cl s} def
/m43 {mp x y w2 add m w8 neg w2 -3 4 div mul d w2 -3 4 div mul w8 neg d w2 3 4 div mul w8 neg d w8 w2 -3 4 div mul d w8 w2 3 4 div mul d w2 3 4 div mul w8 d w2 -3 4 div mul w8 d w8 neg w2 3 4 div mul d cl f} def
/m44 {mp x y m w6 neg w2 d w2 2 3 div mul 0 d w6 neg w2 neg d w2 w6 d 0 w2 -2 3 div mul d w2 neg w6 d w6 w2 neg d w2 -2 3 div mul 0 d w6 w2 d w2 neg w6 neg d 0 w2 2 3 div mul d w2 w6 neg d cl s} def
/m45 {mp x y m w6 neg w2 d w2 2 3 div mul 0 d w6 neg w2 neg d w2 w6 d 0 w2 -2 3 div mul d w2 neg w6 d w6 w2 neg d w2 -2 3 div mul 0 d w6 w2 d w2 neg w6 neg d 0 w2 2 3 div mul d w2 w6 neg d cl f} def
/m46 {mp x y w4 add m w4 neg w4 d w4 neg w4 neg d  w4 w4 neg d w4 neg w4 neg d w4 w4 neg d w4 w4 d w4 w4 neg d w4 w4 d w4 neg w4 d w4 w4 d w4 neg w4 d w4 neg w4 neg d cl s} def
/m47 {mp x y w4 add m w4 neg w4 d w4 neg w4 neg d w4 w4 neg d w4 neg w4 neg d  w4 w4 neg d w4 w4 d w4 w4 neg d w4 w4 d w4 neg w4 d w4 w4 d w4 neg w4 d w4 neg w4 neg d cl f} def
/m48 {mp x y w4 add m w4 neg w4 d w4 neg w4 neg d w4 w4 neg d  w4 neg w4 neg d w4 w4 neg d w4 w4 d w4 w4 neg d w4 w4 d w4 neg w4 d w4 w4 d w4 neg w4 d w4 neg w4 neg d  w4 w4 neg d w4 neg w4 neg d w4 neg w4 d w4 w4 d cl f} def
/m49 {mp x w2 sub w3 add y w2 sub w3 add m  0 w3 neg d w3 0 d 0 w3 d w3 0 d 0 w3 d w3 neg 0 d 0 w3 d w3 neg 0 d 0 w3 neg d w3 neg 0 d 0 w3 neg d w3 0 d 0 w3 d w3 0 d 0 w3 neg d w3 neg 0 d cl f } def
/m2 {mp x y w2 sub m 0 w d x w2 sub y m w 0 d s} def
/m5 {mp x w2 sub y w2 sub m w w d x w2 sub y w2 add m w w neg d s} def
%%IncludeResource: ProcSet (FontSetInit)
%%IncludeResource: font Times-Roman
%%IncludeResource: font Times-Italic
%%IncludeResource: font Times-Bold
%%IncludeResource: font Times-BoldItalic
%%IncludeResource: font Helvetica
%%IncludeResource: font Helvetica-Oblique
%%IncludeResource: font Helvetica-Bold
%%IncludeResource: font Helvetica-BoldOblique
%%IncludeResource: font Courier
%%IncludeResource: font Courier-Oblique
%%IncludeResource: font Courier-Bold
%%IncludeResource: font Courier-BoldOblique
%%IncludeResource: font Symbol
%%IncludeResource: font ZapfDingbats
/reEncode {exch findfont dup length dict begin {1 index /FID eq  {pop pop} {def} ifelse } forall /Encoding exch def currentdict end dup /FontName get exch definefont pop } def [/Times-Bold /Times-Italic /Times-BoldItalic /Helvetica /Helvetica-Oblique
 /Helvetica-Bold /Helvetica-BoldOblique /Courier /Courier-Oblique /Courier-Bold /Courier-BoldOblique /Times-Roman /AvantGarde-Book /AvantGarde-BookOblique /AvantGarde-Demi /AvantGarde-DemiOblique /Bookman-Demi /Bookman-DemiItalic /Bookman-Light
 /Bookman-LightItalic /Helvetica-Narrow /Helvetica-Narrow-Bold /Helvetica-Narrow-BoldOblique /Helvetica-Narrow-Oblique /NewCenturySchlbk-Roman /NewCenturySchlbk-Bold /NewCenturySchlbk-BoldItalic /NewCenturySchlbk-Italic /Palatino-Bold
 /Palatino-BoldItalic /Palatino-Italic /Palatino-Roman ] {ISOLatin1Encoding reEncode } forall
%%EndProlog
%%BeginSetup
%%EndSetup
newpath  gsave  .25 .25 scale  gsave  0 0 t 0.490196 0.545098 0.615686 c[  ] 0 sd 3 lw 0.941176 0.941176 0.941176 c 2268 1676 0 0 bf black 1 1 0.992157 c 1796 1140 245 201 bf black 1796 1140 245 201 bl 1 1 0.992157 c 1796 1140 245 201 bf black 1796
 1140 245 201 bl 245 201 m 1796 X s[ 4 8] 0 sd 423 1341 m -1140 Y s 613 1341 m -1140 Y s 803 1341 m -1140 Y s 993 1341 m -1140 Y s 1183 1341 m -1140 Y s 1373 1341 m -1140 Y s 1563 1341 m -1140 Y s 1753 1341 m -1140 Y s 1942 1341 m -1140 Y s 423 1341
 m -1140 Y s 1942 1341 m -1140 Y s[  ] 0 sd 245 201 m 1140 Y s[ 4 8] 0 sd 2041 350 m -1796 X s 2041 571 m -1796 X s 2041 791 m -1796 X s 2041 1011 m -1796 X s 2041 1231 m -1796 X s 2041 350 m -1796 X s 2041 1231 m -1796 X s 0 0 0.933333 c[  22 12 ] 0
 sd 6 lw 0.49 0.6 0.82 c black 0 0 0.933333 c 245 681 m 7 X 2 Y 2 X s 254 683 m 3 X 1 Y 6 X s 263 684 m 8 X s 271 684 m 9 X s 280 684 m 9 X s 289 684 m 9 X 1 Y s 298 685 m 4 X 1 2 d 2 X 1 Y 2 X s 307 688 m 8 X s 315 688 m 9 X s 324 688 m 9 X s 333
 688 m 3 X 2 Y 4 X 1 Y 2 X s 342 691 m 9 X s 351 691 m 7 X 9 Y 1 X s 359 700 m 9 X s 368 700 m 5 X 1 1 d 3 X s 377 701 m 9 X s 386 701 m 9 X s 395 701 m 8 X s 403 701 m 3 X 3 Y 5 X 1 Y 1 X 1 Y s 412 706 m 9 X s 421 706 m 6 X 3 Y 3 X s 430 709 m 3 X 7
 Y 6 X s 439 716 m 1 2 d 8 Y 7 X 2 Y s 447 728 m 1 X 2 Y 5 X 11 Y 3 X s 456 741 m 6 X 1 Y 1 X 1 Y 1 1 d 3 Y 1 X s 465 747 m 1 X 2 Y 1 X 4 Y 1 X 1 Y 2 X 1 Y 3 X 1 1 d 6 Y s 474 762 m 1 1 d 1 1 d 7 X s 483 764 m 6 X 1 Y 2 X s 491 765 m 9 X 5 Y s 500
 770 m 9 X s 509 770 m 3 X 2 Y 6 X s 518 772 m 1 X 1 Y 2 X 1 Y 6 X s 527 774 m 2 X 6 Y 2 X 2 Y 3 X 1 Y 1 X s 535 783 m 6 X 1 Y 3 X s 544 784 m 1 X 1 3 d 1 X 1 Y 6 X s 553 788 m 9 X s 562 788 m 4 X 1 Y 5 X s 571 789 m 8 X s 579 789 m 2 X 1 1 d 6 X s
 588 790 m 2 X 2 Y 1 X 1 Y 2 X 1 Y 4 X s 597 794 m 7 X 1 1 d 1 X s 606 795 m 9 X s 615 795 m 3 X 1 1 d 2 X 1 Y 2 X s 623 797 m 5 X 2 Y 4 X s 632 799 m 9 X s 641 799 m 2 X 1 1 d 1 X 1 1 d 2 X 4 Y 2 X s 650 805 m 2 Y 2 X 2 Y 1 X 3 Y 1 X 2 Y 1 X 2 Y 2 X
 1 Y 2 X s 659 817 m 5 X 1 Y 3 X s 667 818 m 9 X s 676 818 m 5 X 1 Y 2 X 1 4 d 1 X s 685 823 m 3 X -1 Y 2 X 1 Y 1 X 4 Y 2 X 1 Y 1 X s 694 828 m 4 X 1 3 d 1 X 1 Y 3 X s 703 832 m 8 X s 711 832 m 9 X s 720 832 m 9 X s 729 832 m 1 X 1 1 d 6 X 1 1 d s
 738 834 m -1 Y 1 1 d 4 X 1 1 d 3 X s 747 835 m 1 Y 1 -1 d 1 Y 7 X s 755 836 m 2 X 1 Y 4 X 1 Y 3 X s 764 838 m 4 X 1 Y 5 X s 773 839 m 1 X 1 Y 3 X 2 Y 2 X 1 Y 3 X s 782 843 m 2 X 1 Y -1 Y 1 X 1 Y 5 X 1 Y 1 1 d s 791 846 m 2 X 1 Y 1 X -1 Y 1 Y 2 X 1 Y
 2 X 1 Y 1 X s 799 849 m 1 X 1 Y 1 1 d 2 X 1 Y 1 X -1 Y 1 Y 3 X 1 Y 1 X -1 Y s 808 852 m 1 Y 1 -1 d 1 Y 2 X 1 Y 2 X 1 Y 1 X 1 Y 2 X 1 Y 1 X s 817 857 m 1 1 d 4 Y 2 X -1 Y 1 Y 1 X -1 Y 1 Y 1 X 1 Y 1 X 1 Y 1 X 1 1 d 1 1 d s 826 866 m 1 Y 1 X -1 Y 1 Y 2
 X 1 Y 1 X 1 Y 1 X 3 Y 1 X -1 Y 1 Y 1 X 1 Y -1 Y 1 Y 1 X -1 Y 1 X s 835 872 m 3 X 1 Y 1 -1 d 1 Y 1 1 d 1 Y 1 X 1 Y 1 X 1 Y 1 1 d 1 Y s 843 879 m 1 X -1 Y 1 X 1 Y 1 X 1 Y 1 X 1 Y 1 X 1 Y 1 X 2 Y 1 X -1 Y 2 Y 2 X 1 Y -1 Y s 852 885 m 1 Y 1 X 1 Y 2 X 1
 Y 1 X 1 Y 1 X 1 Y 2 X 1 Y 1 X 1 Y -1 Y 1 1 d 2 Y s 861 894 m 2 X 1 Y 1 -1 d 2 Y -1 Y 1 Y 1 X 1 Y 1 X 1 Y 2 X 1 Y 1 -1 d 1 Y 1 X s 870 899 m 1 Y 1 X 2 Y 2 X 2 Y 1 1 d 1 Y 1 X 1 Y -1 Y 1 Y 2 X 2 Y 1 X -1 Y 1 Y -1 Y 1 1 d s 879 909 m 1 Y 1 -1 d 2 Y -1
 Y 1 X 1 Y 1 X 1 Y 1 X 1 Y 2 X 1 Y -1 Y 1 Y -1 Y 1 1 d 1 1 d -1 Y 1 Y s 887 915 m 1 X 1 Y 1 X -1 Y 1 X 1 Y -1 Y 2 X 1 Y 2 X 2 Y 1 1 d 1 X 1 Y s 896 920 m 1 X 1 1 d 1 Y 1 -1 d 1 Y 1 X 1 Y 2 X 1 1 d -1 Y 1 X 1 Y 1 X s 905 924 m -1 Y 1 X 1 Y -1 Y 1 Y -2
 Y 1 X 1 Y 2 X 1 Y -1 Y 1 1 d 1 1 d 1 Y 2 X 1 Y 1 X s 914 927 m -1 Y 8 X -1 Y 1 Y -1 Y 1 1 d s 923 926 m -1 Y 1 1 d 1 1 d -1 Y 1 Y -1 Y 2 X 1 Y 2 X -1 Y 2 X -1 Y s 931 925 m 2 X -1 Y 1 X 1 Y 1 X 1 Y -1 Y 1 X 1 Y 4 X -1 Y s 940 925 m 1 X 1 Y 3 X 1 1 d
 -1 Y 1 Y 2 X -1 Y 1 1 d -1 Y 1 X -1 Y s 949 925 m 8 X 1 Y 1 -1 d s 958 925 m 1 X -1 Y 1 X 1 Y 1 X -1 Y 2 X -1 Y 1 X -1 Y 1 X -1 Y 1 X 1 Y 1 X s 967 922 m -1 Y 1 1 d 2 X -1 Y 1 Y -1 Y 3 X -1 Y 1 Y 1 -1 d 1 Y -3 Y 1 X s 975 918 m 2 X -1 Y 1 Y 2 X -1 Y
 1 X 1 Y -1 Y 2 X 1 Y 1 X -1 Y 1 Y 1 X -1 Y s 984 917 m 1 X 1 Y 1 X -3 Y 4 X -1 Y 1 X -1 Y 1 X -1 Y 1 Y 1 X -1 Y s 993 912 m 1 X 1 1 d -1 Y 4 X 1 1 d 1 -1 d -1 Y 1 X s 1002 911 m 1 X -1 Y 2 X 1 Y 2 X -2 Y 1 -1 d 1 Y 1 X -1 Y 1 X -1 Y 1 Y 1 X s 1011
 908 m -1 Y 1 Y -1 Y 1 X 1 Y 1 X 1 -1 d -1 Y 2 X -2 Y 1 X -2 Y 1 X -1 Y 1 X 1 Y -1 Y s 1019 901 m 2 X -2 Y 1 X -1 Y 2 X -1 Y 1 X 1 -1 d 1 X -1 Y 1 X s 1028 895 m 1 X -1 Y 4 X -1 Y 1 X -1 Y 1 X -1 Y 1 X -1 Y 1 X -1 Y s 1037 889 m -1 Y 1 X -1 Y 1 X -1
 Y 1 1 d -1 Y 1 Y 1 X -1 Y 1 X -1 Y 1 X 1 -1 d 1 X -2 Y 1 X s 1046 882 m -1 Y 1 X -1 Y 1 X -2 Y 1 X -1 Y 5 X -1 Y 1 X s 1055 876 m -1 Y 1 X -2 Y 1 Y 1 -1 d 1 X -2 Y 1 -1 d -1 Y 1 X 1 -1 d -1 Y 1 Y 1 X -1 Y 1 X -1 Y s 1063 866 m 1 X -2 Y 3 X -1 Y 1 Y
 -1 Y 1 X -1 Y 1 Y -1 Y 1 X -2 Y 1 Y 1 -1 d -1 Y 1 X -1 Y 1 X -1 Y s 1072 857 m 1 Y 1 -1 d -1 Y 1 X -1 Y 1 -1 d -1 Y 1 X -1 Y 1 X -2 Y 1 X -1 Y 1 X -1 Y 1 X -1 Y 1 X -1 Y 1 Y s 1081 847 m 3 X -2 Y 1 X -2 Y 2 X 1 -1 d -2 Y 1 1 d -1 Y 1 X s 1090 840 m
 -1 Y 1 X -1 Y 1 -1 d -1 Y 1 -1 d -1 Y 1 X -1 Y 1 -1 d -1 Y 1 X -1 Y 1 X -3 Y 1 -1 d -1 Y 1 X s 1099 825 m -1 Y 1 X -2 Y 1 X -1 Y 1 -1 d -1 Y 1 -1 d -1 Y 1 -1 d -1 Y 1 Y -1 Y 1 X -2 Y 1 -1 d -2 Y 1 X -3 Y s 1107 807 m 1 -1 d -1 Y 1 -1 d -1 Y 1 -1 d
 -1 Y 1 X -2 Y 1 -1 d -2 Y 1 X -2 Y 1 -1 d -1 Y 1 -1 d -1 Y 1 X -2 Y s 1116 788 m -2 Y 1 X -1 Y 1 X -1 Y 1 X -2 Y 1 -1 d -1 Y 1 X -2 Y 1 X -2 Y 1 X -2 Y 1 -1 d 1 Y -1 Y 1 Y -1 Y 1 X -3 Y s 1125 770 m -2 Y 1 X -2 Y 1 X -1 Y 1 X -4 Y 1 X -2 Y 1 -1 d -1
 Y 1 X -2 Y 1 -1 d -2 Y 1 X -1 Y 1 -1 d -1 Y s 1134 749 m -1 Y 1 X -1 Y 1 X -4 Y 1 X -2 Y 1 X -2 Y 1 X -2 Y 1 -1 d -1 Y 1 Y 1 -1 d -1 Y 1 X 1 -1 d s 1143 733 m -1 Y 1 -1 d -5 Y 1 1 d 2 X -1 Y 1 1 d -2 Y 1 X -1 Y 1 X -2 Y 1 X s 1151 722 m 1 -1 d -1 Y
 3 X -3 Y 1 1 d -1 Y 1 Y 1 X -1 Y 1 -1 d 1 X 1 -1 d 1 Y -1 Y s 1160 715 m 1 X 1 -1 d 1 X -1 Y 1 X -1 Y 1 X -1 Y 1 X -2 Y 1 X -1 Y 1 Y 1 -1 d -1 Y 1 X s 1169 707 m -1 Y 1 X -1 Y 1 -1 d 1 -1 d -1 Y 1 -1 d -1 Y 1 X -2 Y 1 Y 2 X -4 Y 1 -1 d -1 Y 1 X s
 1178 693 m -2 Y 1 1 d -3 Y 1 X 1 -1 d -2 Y 1 X -1 Y 1 -1 d -1 Y 1 1 d -1 Y 1 X -1 Y 1 X -4 Y 1 X s 1187 678 m -1 Y 1 X -1 Y 1 X -2 Y 1 X -1 Y 1 X -1 Y 1 X -1 Y 1 X 1 Y -1 Y 1 X -1 Y 1 X -1 Y s 1195 669 m 1 X -2 Y 1 X 1 -1 d 1 Y -1 Y 1 X 1 -1 d -1 Y
 1 Y 1 X -1 Y 1 X 1 Y -1 Y 1 -1 d 1 X s 1204 663 m -1 Y 2 X -2 Y 2 X -1 Y 1 X -1 Y 1 X -1 Y 1 X -1 Y 1 -1 d -1 Y 1 X s 1213 654 m 1 Y 1 X -1 Y 1 X -1 Y 1 X -1 Y 2 X -1 Y 1 X -1 Y 1 X -1 Y 2 X s 1222 649 m -2 Y 1 -1 d -1 Y 1 1 d -1 Y 1 X -2 Y 1 X -1 Y
 1 Y -1 Y 1 X -1 Y 2 X 1 -1 d -1 Y 1 X s 1231 639 m -1 Y 1 X -1 Y 2 X -1 Y 2 X -1 Y 2 X -1 Y 1 X -1 Y s 1239 633 m 3 X 1 -1 d 1 X 1 Y -1 Y 1 X -1 Y 2 X -1 Y 1 X s 1248 630 m 2 X -1 Y 3 X 1 -1 d 1 X -1 Y 2 X s 1257 627 m 5 X -2 Y 2 X -1 Y 1 -1 d 1 X s
 1266 623 m -1 Y 1 X -1 Y 2 X 1 -1 d 1 X -1 Y 2 X -1 Y 1 X -1 Y 1 X s 1275 617 m 1 X -1 Y 2 X -2 Y 2 X -3 Y 2 X 1 -1 d -1 Y s 1283 609 m 2 X -1 Y 7 X s 1292 608 m 1 -1 d -2 Y 4 X -1 Y 1 X 1 -1 d 1 X -2 Y 1 X s 1301 601 m 1 X -1 Y 2 X -1 Y 2 X 1 -1 d
 -1 Y 1 X -1 Y 2 X -2 Y s 1310 594 m 2 X -2 Y 1 X -1 Y 1 X -2 Y 5 X s 1319 589 m -1 Y 1 X 1 Y 1 X -1 Y 3 X 1 -1 d 2 X s 1327 587 m 1 X -1 Y 3 X -2 Y 5 X -1 Y s 1336 583 m 4 X -1 Y 2 X -1 Y 1 -1 d -1 Y 2 X s 1345 579 m -1 Y 1 X -1 Y 2 X -1 Y 1 X 1 -1
 d 2 X -1 Y 1 -1 d 1 X s 1354 573 m 1 -1 d 1 1 d 1 X -1 Y 2 X -1 Y 2 X -1 Y 2 X s 1363 570 m 3 X -1 Y 2 X -1 Y 3 X s 1371 568 m 3 X -1 Y 6 X -4 Y s 1380 563 m 2 X -4 Y 1 X -1 Y 6 X s 1389 558 m 1 X -2 Y 3 X -1 Y 2 X -1 Y 2 X -1 Y 1 X s 1398 553 m 2 X
 1 -1 d 1 -1 d 1 X -2 Y 4 X s 1407 549 m 1 X 1 -1 d -2 Y 2 X -1 Y 4 X -1 Y s 1415 544 m 1 X -1 Y 8 X s 1424 543 m 1 X -1 Y 2 X -1 Y 1 X -1 Y 1 X -1 Y 1 X -1 Y 1 X -1 Y 2 X -1 Y s 1433 536 m 3 X -1 Y 1 X 1 -2 d 1 X -1 Y 2 X -1 Y 1 X s 1442 531 m 4 X
 -1 Y 2 X -1 Y 1 X 1 Y -1 Y 1 X -3 Y 1 X s 1451 526 m 1 X -2 Y 1 X 1 -1 d 4 X 1 -2 d s 1459 521 m 5 X -3 Y 1 X -1 Y 3 X s 1468 517 m 2 X -1 Y 1 X -1 Y 1 -1 d -4 Y 2 X -1 Y 1 X -2 Y 2 X -4 Y s 1477 503 m 1 X -1 Y 1 X -4 Y 2 X -1 Y 5 X s 1486 497 m 1
 -1 d 4 X -2 Y 4 X s 1495 494 m 3 X -1 Y 5 X -1 Y s 1503 492 m 5 X -1 Y 3 X -1 Y 1 X s 1512 490 m 7 X 1 -1 d 1 X s 1521 489 m 2 X 1 -1 d 1 X -1 Y 3 X -1 Y 2 X s 1530 486 m 4 X -1 Y 5 X -1 Y s 1539 484 m 7 X -1 Y 1 X -1 Y s 1547 482 m 7 X -1 Y 1 X 1
 -2 d s 1556 479 m 7 X 1 -1 d 1 X s 1565 478 m 2 X -1 Y 7 X -1 Y s 1574 476 m 5 X 1 -1 d 3 X s 1583 475 m -1 Y 4 X -1 Y 1 X -3 Y 3 X s 1591 470 m 2 X -1 Y 2 X -2 Y 1 X -1 Y 4 X -1 Y s 1600 465 m 4 X -1 Y 2 X -1 Y 3 X -1 Y s 1609 462 m 4 X -1 Y 1 X -2
 Y 2 X -1 Y 2 X s 1618 458 m 3 X -1 Y 1 X -4 Y 1 X -1 Y 2 X -2 Y 2 X s 1627 450 m -1 Y 1 X -1 Y 2 X -1 Y 2 X -1 Y 1 X -1 Y 1 -1 d 1 X -1 Y s 1635 443 m 3 X -1 Y 6 X s 1644 442 m 1 X -1 Y 4 X -1 Y 3 X -1 Y 1 X s 1653 439 m 2 X -4 Y 4 X 1 -1 d 2 X s
 1662 434 m 9 X s 1671 434 m 3 X -1 Y 5 X s 1679 433 m 2 X -1 Y 5 X -1 Y 2 X s 1688 431 m 3 X -2 Y 1 X -1 Y 3 X -5 Y 2 X -1 Y s 1697 422 m 3 X -1 Y 4 X -1 Y 2 X s 1706 420 m 3 X -1 Y 6 X s 1715 419 m 7 X -4 Y 1 X s 1723 415 m 1 X -1 Y 6 X -1 Y 2 X s
 1732 413 m 1 X -2 Y 3 X -3 Y 2 X -1 Y 2 X -1 Y 1 X s 1741 406 m 1 X 1 -1 d 3 X -1 Y 1 X -1 Y 1 X 1 -1 d -1 Y 1 X s 1750 401 m -1 Y 1 -5 d 2 X -1 Y 6 X s 1759 394 m 1 X -4 Y 3 X 1 -1 d 2 X -2 Y 1 X -1 Y s 1767 386 m 6 X -1 Y 3 X s 1776 385 m 2 X -4 Y
 3 X 1 -30 d 1 -1 d 2 X s 1785 350 m 3 X 1 -1 d 2 X -3 Y 2 X -1 Y 1 X s 1794 345 m 9 X s 1803 345 m 1 X -1 Y 1 X -2 Y 3 X -1 Y 1 X -12 Y 2 X -2 Y 1 X s 1812 327 m 8 X s 1820 327 m 1 -1 d -2 Y 3 X -1 Y 5 X s 1829 323 m 1 -1 d 4 X -1 Y 4 X s 1838 321 m
 2 X -1 Y 6 X -1 Y 1 X s 1847 319 m 4 X -1 Y 1 X -2 Y 3 X -1 Y 1 X s 1856 315 m -1 Y 7 X -3 Y 1 X -1 Y s 1864 310 m 1 X -2 Y 5 X -1 Y 3 X s 1873 307 m 4 X 1 -1 d 4 X s 1882 306 m 3 X -1 Y 6 X s 1891 305 m 9 X s 1900 305 m 7 X -1 Y 1 X s 1908 304 m 8
 X 1 -3 d s 1917 301 m 9 X s 1926 301 m 6 X -4 Y 3 X s 1935 297 m 7 X 1 -5 d 1 X s 1944 292 m -1 Y 8 X -5 Y s 1952 286 m 1 X -4 Y 8 X s 1961 282 m 9 X s 1970 282 m 4 X -27 Y 5 X s 1979 255 m 9 X s 1988 255 m 8 X s 1996 255 m 9 X s 2005 255 m 9 X s
 2014 255 m 9 X s 2023 255 m 9 X s 2032 255 m 8 X s 2040 255 m 1 X s black[  ] 0 sd 3 lw 245 201 m 1796 X s 423 241 m -40 Y s 461 221 m -20 Y s 499 221 m -20 Y s 537 221 m -20 Y s 575 221 m -20 Y s 613 241 m -40 Y s 651 221 m -20 Y s 689 221 m -20 Y
 s 727 221 m -20 Y s 765 221 m -20 Y s 803 241 m -40 Y s 841 221 m -20 Y s 879 221 m -20 Y s 917 221 m -20 Y s 955 221 m -20 Y s 993 241 m -40 Y s 1031 221 m -20 Y s 1069 221 m -20 Y s 1107 221 m -20 Y s 1145 221 m -20 Y s 1183 241 m -40 Y s 1221 221
 m -20 Y s 1259 221 m -20 Y s 1297 221 m -20 Y s 1335 221 m -20 Y s 1373 241 m -40 Y s 1411 221 m -20 Y s 1449 221 m -20 Y s 1487 221 m -20 Y s 1525 221 m -20 Y s 1563 241 m -40 Y s 1601 221 m -20 Y s 1639 221 m -20 Y s 1677 221 m -20 Y s 1715 221 m
 -20 Y s 1753 241 m -40 Y s 1791 221 m -20 Y s 1829 221 m -20 Y s 1866 221 m -20 Y s 1904 221 m -20 Y s 1942 241 m -40 Y s 423 241 m -40 Y s 385 221 m -20 Y s 347 221 m -20 Y s 309 221 m -20 Y s 271 221 m -20 Y s 1942 241 m -40 Y s 1980 221 m -20 Y s
 2018 221 m -20 Y s
 gsave  2268 1676 0 0 C 390.593 128.934 t 0 r /Helvetica-Bold findfont 64.4669 sf 0 0 m (0.3) show NC gr 
 gsave  2268 1676 0 0 C 360.256 128.934 t 0 r /Symbol findfont 64.4669 sf 0 0 m (-) show NC gr 
 gsave  2268 1676 0 0 C 580.202 128.934 t 0 r /Helvetica-Bold findfont 64.4669 sf 0 0 m (0.2) show NC gr 
 gsave  2268 1676 0 0 C 549.864 128.934 t 0 r /Symbol findfont 64.4669 sf 0 0 m (-) show NC gr 
 gsave  2268 1676 0 0 C 773.602 128.934 t 0 r /Helvetica-Bold findfont 64.4669 sf 0 0 m (0.1) show NC gr 
 gsave  2268 1676 0 0 C 743.265 128.934 t 0 r /Symbol findfont 64.4669 sf 0 0 m (-) show NC gr 
 gsave  2268 1676 0 0 C 970.795 128.934 t 0 r /Helvetica-Bold findfont 64.4669 sf 0 0 m (0) show NC gr 
 gsave  2268 1676 0 0 C 1137.65 128.934 t 0 r /Helvetica-Bold findfont 64.4669 sf 0 0 m (0.1) show NC gr 
 gsave  2268 1676 0 0 C 1323.47 128.934 t 0 r /Helvetica-Bold findfont 64.4669 sf 0 0 m (0.2) show NC gr 
 gsave  2268 1676 0 0 C 1516.87 128.934 t 0 r /Helvetica-Bold findfont 64.4669 sf 0 0 m (0.3) show NC gr 
 gsave  2268 1676 0 0 C 1706.48 128.934 t 0 r /Helvetica-Bold findfont 64.4669 sf 0 0 m (0.4) show NC gr 
 gsave  2268 1676 0 0 C 1896.08 128.934 t 0 r /Helvetica-Bold findfont 64.4669 sf 0 0 m (0.5) show NC gr 
 gsave  2268 1676 0 0 C 925.289 30.3373 t 0 r /Helvetica-Bold findfont 72.0512 sf 0 0 m (Cut value applied on BDT output) show NC gr  245 201 m 1140 Y s 291 350 m -46 X s 268 406 m -23 X s 268 461 m -23 X s 268 516 m -23 X s 291 571 m -46 X s 268 626
 m -23 X s 268 681 m -23 X s 268 736 m -23 X s 291 791 m -46 X s 268 846 m -23 X s 268 901 m -23 X s 268 956 m -23 X s 291 1011 m -46 X s 268 1066 m -23 X s 268 1121 m -23 X s 268 1176 m -23 X s 291 1231 m -46 X s 291 350 m -46 X s 268 295 m -23 X s
 268 240 m -23 X s 291 1231 m -46 X s 268 1286 m -23 X s
 gsave  2268 1676 0 0 C 128.934 326.126 t 0 r /Helvetica-Bold findfont 64.4669 sf 0 0 m (0.2) show NC gr 
 gsave  2268 1676 0 0 C 125.142 546.072 t 0 r /Helvetica-Bold findfont 64.4669 sf 0 0 m (0.4) show NC gr 
 gsave  2268 1676 0 0 C 128.934 766.018 t 0 r /Helvetica-Bold findfont 64.4669 sf 0 0 m (0.6) show NC gr 
 gsave  2268 1676 0 0 C 125.142 985.964 t 0 r /Helvetica-Bold findfont 64.4669 sf 0 0 m (0.8) show NC gr 
 gsave  2268 1676 0 0 C 189.608 1205.91 t 0 r /Helvetica-Bold findfont 64.4669 sf 0 0 m (1) show NC gr 
 gsave  2268 1676 0 0 C 64.4669 731.888 t 90 r /Helvetica-Bold findfont 72.0512 sf 0 0 m (Efficiency \(Purity\)) show NC gr  0 0 0.933333 c[  52 12 ] 0 sd 6 lw 0.49 0.6 0.82 c black 0 0 0.933333 c 245 681 m 7 X 2 Y 2 X s 254 683 m 3 X 1 Y 6 X s 263
 684 m 8 X s 271 684 m 9 X s 280 684 m 9 X s 289 684 m 9 X 1 Y s 298 685 m 4 X 1 2 d 2 X 1 Y 2 X s 307 688 m 8 X s 315 688 m 9 X s 324 688 m 9 X s 333 688 m 3 X 2 Y 4 X 1 Y 2 X s 342 691 m 9 X s 351 691 m 7 X 9 Y 1 X s 359 700 m 9 X s 368 700 m 5 X 1
 1 d 3 X s 377 701 m 9 X s 386 701 m 9 X s 395 701 m 8 X s 403 701 m 3 X 3 Y 5 X 1 Y 1 X 1 Y s 412 706 m 9 X s 421 706 m 6 X 3 Y 3 X s 430 709 m 3 X 7 Y 6 X s 439 716 m 1 2 d 8 Y 7 X 3 Y s 447 729 m 1 X 1 Y 4 X 1 1 d 10 Y 3 X s 456 741 m 1 X 1 1 d 5
 X 2 Y 1 X 3 Y 1 X 1 Y s 465 748 m 1 X 1 Y 1 X 5 Y 1 X 1 Y 5 X 1 1 d 7 Y s 474 763 m 1 1 d 5 X 1 Y 3 X s 483 765 m 8 X s 491 765 m 3 X 1 Y 6 X 4 Y s 500 770 m 3 X 1 Y 6 X s 509 771 m 3 X 2 Y 6 X s 518 773 m 3 X 1 Y 6 X s 527 774 m 2 X 7 Y 2 X 2 Y 3 X
 1 Y 1 X s 535 784 m 5 X 1 Y 4 X s 544 785 m 1 X 1 3 d 1 X 1 Y 6 X s 553 789 m 4 X 1 Y 5 X s 562 790 m 9 X s 571 790 m 7 X 1 Y 1 X s 579 791 m 9 X s 588 791 m 2 X 3 Y 3 X 1 Y 4 X s 597 795 m 1 X 1 1 d 7 X s 606 796 m 2 X 1 Y 7 X s 615 797 m 3 X 1 1 d
 4 X s 623 798 m 5 X 3 Y 4 X s 632 801 m 9 X s 641 801 m 4 X 1 2 d 2 X 4 Y 2 X s 650 807 m 2 Y 2 X 2 Y 1 X 4 Y 1 X 1 Y 1 X 2 Y 2 X 2 Y 2 X s 659 820 m 8 X s 667 820 m 1 1 d 8 X s 676 821 m 7 X 1 4 d 1 Y 1 X s 685 826 m 6 X 5 Y 3 X s 694 831 m 4 X 1 4
 d 4 X s 703 835 m 8 X 1 Y s 711 836 m 9 X s 720 836 m 9 X s 729 836 m 1 X 1 1 d 7 X s 738 837 m 1 Y 5 X 1 1 d 1 X 1 1 d 1 X s 747 840 m 3 X 1 Y 5 X s 755 841 m 2 X 1 Y 3 X 1 Y 2 X 1 1 d 1 X s 764 844 m 3 X 1 Y 4 X 1 Y 2 X s 773 846 m 2 X 1 Y 2 X 2 Y
 2 X 1 Y 3 X 1 Y s 782 851 m -1 Y 1 X 1 Y 2 X 1 Y 2 X 1 Y -1 Y 1 Y 3 X 1 Y 1 1 d s 791 855 m 2 X 1 Y 2 X 1 Y 1 X 1 Y 1 X 1 Y 1 X 1 1 d 1 Y s 799 861 m 1 X 1 Y 1 X 1 Y 2 X 1 Y 2 X 1 Y 1 X 1 Y 2 X s 808 866 m 1 X 2 Y 2 X 2 Y 2 X 1 Y 2 X 1 Y 1 1 d 1 X s
 817 873 m 1 Y 1 1 d 5 Y 2 X 1 Y 2 X 1 Y 1 1 d 1 Y 1 X 1 Y 1 X 1 Y 1 X s 826 886 m 1 Y 1 X 1 Y 1 X 1 Y 1 X 2 Y 1 1 d 1 1 d 3 Y 1 X 1 1 d 1 1 d 1 X s 835 898 m 1 Y 2 X 1 Y 1 X 1 Y 1 X 2 Y 1 1 d 1 Y 1 X 1 Y 1 X 3 Y 1 X 2 Y s 843 911 m 1 X 1 1 d 1 Y 1 X
 1 Y 1 X 2 Y 1 X 1 Y 1 1 d 1 Y 1 X 2 Y 1 X 1 Y 1 X 1 Y s 852 923 m 1 X 1 Y 1 X 1 Y 1 X 1 Y 1 1 d 2 Y 1 -1 d 1 Y 1 X 1 Y 1 X 1 Y 1 1 d 1 Y 1 X 2 Y s 861 935 m 1 X 1 Y 1 X 1 Y 1 X 2 Y 1 X 2 Y 1 1 d 2 Y 1 X 1 1 d 1 Y 1 X 1 Y 1 X 1 Y s 870 948 m 1 1 d 2
 Y 1 X 1 Y 1 X 3 Y 1 X 2 Y 1 X 1 Y 1 X 1 Y 1 1 d 2 Y 1 1 d 1 X s 879 963 m 2 Y 1 X 1 Y 1 X 2 Y 1 X 1 Y 1 X 1 Y 2 X 1 Y 1 X 1 Y 1 X 1 Y s 887 973 m 1 1 d 1 Y 1 X 1 Y 1 X 1 Y 1 X 1 Y 1 X 1 Y 1 X 1 Y 1 X 2 Y 1 1 d 1 Y 1 X 1 Y s 896 985 m 1 1 d 1 X 2 Y 2
 X 2 Y 1 X 1 Y 1 X 1 Y 1 X 1 Y 1 X 1 Y 1 X s 905 994 m 1 Y 1 X 1 Y -1 Y 1 Y 1 1 d 1 Y 1 X 1 Y 1 X 1 Y 1 X 1 Y 1 1 d 1 Y 1 X 1 Y 1 X 2 Y 1 X s 914 1006 m 1 X 1 Y 1 1 d 1 Y 2 X 1 Y 2 X 1 Y 1 X 1 Y 1 X 1 Y 1 X s 923 1013 m 1 Y 1 X 1 Y 1 1 d 1 X 1 1 d 1
 X 1 Y 2 X 1 Y 1 X 1 Y s 931 1020 m 2 X 1 Y 1 X 1 Y 1 X 1 Y 1 X 2 Y 1 X 1 Y 1 X 1 Y 1 X 1 Y 1 X 1 Y s 940 1029 m 1 X 1 Y 1 X 1 Y 1 X 1 Y 1 X 1 Y 1 X 1 Y 1 X 1 Y 1 X 1 Y 1 X 1 Y 1 X s 949 1037 m 1 X 1 Y 1 1 d 1 X 1 Y 3 X 1 Y 1 X 1 Y 1 X 2 Y 1 X s 958
 1044 m 1 Y 2 X 1 Y 1 X 1 Y -1 Y 2 X 1 Y 1 X 1 Y 2 X 1 Y 1 X s 967 1049 m 1 1 d 1 Y 2 X 1 1 d 1 X 1 Y 1 X 1 Y 1 X 1 Y 1 X s 975 1055 m 2 X 2 Y 3 X 2 Y 2 X 1 Y 1 X 1 Y -1 Y 1 Y 1 X s 984 1061 m 3 X 1 Y 1 X 1 1 d 2 X 1 1 d -1 Y 1 Y 1 X s 993 1064 m 1 X
 1 Y 1 1 d 1 X 1 Y 1 X 1 1 d 1 Y 1 X 1 Y 1 X 1 Y 2 X s 1002 1071 m 1 Y 2 X 1 Y 1 X 3 Y 1 -1 d 1 Y 4 X 1 Y 1 X s 1011 1077 m 1 Y 1 X 1 Y 2 X 1 Y 3 X 2 Y 2 X 1 Y s 1019 1083 m 1 X 1 Y 2 X 1 Y 1 X 1 Y 2 X 1 Y 1 -1 d 1 1 d 1 Y 1 X 1 Y s 1028 1089 m 2 X 1
 Y 1 X 1 Y 1 X 1 Y 1 X 1 1 d 1 X 1 Y 2 X s 1037 1094 m 1 X 1 1 d 1 X 2 Y 3 X 2 Y 3 X s 1046 1099 m 1 1 d -1 Y 2 X 1 Y 2 X 1 Y 1 -1 d 2 Y 1 X 1 Y 2 X s 1055 1103 m 1 X 3 Y 4 X 1 Y 2 X 1 Y 1 -1 d 1 Y s 1063 1108 m 2 X 1 Y 1 X 2 Y 1 X 2 Y 2 X 1 Y 2 X 1
 Y 1 1 d s 1072 1116 m 1 X 1 Y 5 X 1 Y 3 X s 1081 1118 m 1 Y 1 X 1 Y 1 1 d 1 X -1 Y 1 Y 1 X 1 Y 1 X 1 Y 2 X 1 Y 2 X 1 Y s 1090 1125 m 1 X 1 Y 2 X 2 Y 1 X 1 Y -1 Y 1 X 1 Y 1 X 1 Y 1 X -1 Y 1 X 2 Y 1 X s 1099 1131 m 1 X 1 Y 1 X 1 1 d 1 -1 d 1 Y 1 -1 d
 2 Y 1 X 2 Y 1 X -1 Y 1 Y 1 X 1 Y s 1107 1137 m 2 X 1 Y 1 X -1 Y 1 Y 1 X 1 Y 1 X 1 Y 2 X 1 Y 2 X s 1116 1141 m 1 X -1 Y 1 Y 1 X 1 Y 1 1 d 1 Y 3 X 1 Y 1 X 1 Y 1 X 1 Y 1 X s 1125 1147 m 1 X 1 1 d 1 Y 1 X 1 1 d 1 Y 1 X 1 Y 1 X 1 Y 1 X 1 Y 1 X 2 Y 1 X s
 1134 1156 m 1 Y 1 X 2 Y 1 X 1 1 d 3 X 1 Y 1 X 1 Y 2 X s 1143 1162 m 1 X 1 1 d 1 X 1 1 d 1 1 d 1 Y 2 X 1 Y 1 X s 1151 1167 m 1 X 1 Y 1 X 1 Y 2 X 1 Y 1 X 1 Y 2 X 2 Y 1 X 1 1 d s 1160 1174 m 1 X 1 Y 1 -1 d 1 Y 1 X 2 Y 2 X 1 Y 1 X -1 Y 1 X 2 Y 1 X 1 Y 1
 X s 1169 1180 m 1 1 d 1 X -1 Y 1 Y 2 X 1 Y 2 X 1 Y 1 X 1 Y -1 Y 1 1 d 1 X s 1178 1184 m 1 1 d 1 X 1 Y 1 1 d 2 X 1 Y 1 1 d 3 X s 1187 1189 m 1 Y 1 1 d 1 Y 2 X 1 Y 2 X 1 Y 1 X 1 Y 2 X s 1195 1195 m 3 X 1 Y 4 X 2 Y 2 X s 1204 1198 m 1 X 1 Y 3 X 1 Y 3 X
 1 Y 2 X 1 Y s 1213 1202 m 1 X 1 Y 1 X 1 Y 3 X 1 Y 2 X 1 Y 2 X s 1222 1206 m 2 Y 1 -1 d 1 Y 2 X 1 Y 3 X 1 Y 3 X s 1231 1210 m 2 X 1 Y 5 X 1 Y 1 X s 1239 1212 m 2 X 1 Y 3 X 1 Y 4 X -1 Y s 1248 1213 m 1 Y 8 X 1 1 d s 1257 1215 m 1 X 1 Y 2 X 1 Y 1 1 d 1
 X -1 Y 1 X 1 Y 3 X s 1266 1218 m 9 X s 1275 1218 m 1 X 1 Y 4 X 1 Y 2 X 1 -1 d s 1283 1219 m 2 X 1 Y 6 X 1 Y 1 X s 1292 1221 m 9 X s 1301 1221 m 9 X s 1310 1221 m 1 X 1 1 d 4 X 1 Y 3 X s 1319 1223 m 5 X 1 Y 3 X s 1327 1224 m 4 X -1 Y 5 X s 1336 1223
 m 2 X 1 Y 7 X s 1345 1224 m 9 X s 1354 1224 m 1 X 1 1 d 7 X s 1363 1225 m 8 X s 1371 1225 m 7 X 1 Y 2 X s 1380 1226 m 6 X 1 Y 3 X s 1389 1227 m 9 X s 1398 1227 m 9 X s 1407 1227 m 8 X s 1415 1227 m 9 X s 1424 1227 m 9 X s 1433 1227 m 4 X 1 Y 4 X 1 Y
 1 X s 1442 1229 m 7 X 1 Y 2 X s 1451 1230 m 8 X s 1459 1230 m 9 X s 1468 1230 m 9 X s 1477 1230 m 7 X 1 Y 2 X s 1486 1231 m 9 X s 1495 1231 m 8 X s 1503 1231 m 9 X s 1512 1231 m 9 X s 1521 1231 m 9 X s 1530 1231 m 9 X s 1539 1231 m 8 X s 1547 1231 m
 9 X s 1556 1231 m 9 X s 1565 1231 m 9 X s 1574 1231 m 9 X s 1583 1231 m 8 X s 1591 1231 m 9 X s 1600 1231 m 9 X s 1609 1231 m 9 X s 1618 1231 m 9 X s 1627 1231 m 8 X s 1635 1231 m 9 X s 1644 1231 m 9 X s 1653 1231 m 9 X s 1662 1231 m 9 X s 1671 1231
 m 8 X s 1679 1231 m 9 X s 1688 1231 m 9 X s 1697 1231 m 9 X s 1706 1231 m 9 X s 1715 1231 m 8 X s 1723 1231 m 9 X s 1732 1231 m 9 X s 1741 1231 m 9 X s 1750 1231 m 9 X s 1759 1231 m 8 X s 1767 1231 m 9 X s 1776 1231 m 9 X s 1785 1231 m 9 X s 1794
 1231 m 9 X s 1803 1231 m 9 X s 1812 1231 m 8 X s 1820 1231 m 9 X s 1829 1231 m 9 X s 1838 1231 m 9 X s 1847 1231 m 9 X s 1856 1231 m 8 X s 1864 1231 m 9 X s 1873 1231 m 9 X s 1882 1231 m 9 X s 1891 1231 m 9 X s 1900 1231 m 8 X s 1908 1231 m 9 X s
 1917 1231 m 9 X s 1926 1231 m 9 X s 1935 1231 m 9 X s 1944 1231 m 8 X s 1952 1231 m 9 X s 1961 1231 m 9 X s 1970 1231 m 9 X s 1979 1231 m 9 X s 1988 1231 m 8 X s 1996 1231 m 9 X s 2005 1231 m 9 X s 2014 1231 m 9 X s 2023 1231 m 9 X s 2032 1231 m 8 X
 s 2040 1231 m 1 X s[  ] 0 sd 9 lw 0.49 0.6 0.82 c black 0 0 0.933333 c 245 1231 m 9 X s 254 1231 m 9 X s 263 1231 m 8 X s 271 1231 m 9 X s 280 1231 m 9 X s 289 1231 m 9 X s 298 1231 m 9 X s 307 1231 m 8 X s 315 1231 m 9 X s 324 1231 m 9 X s 333 1231
 m 9 X s 342 1231 m 9 X s 351 1231 m 8 X s 359 1231 m 9 X s 368 1231 m 9 X s 377 1231 m 9 X s 386 1231 m 9 X s 395 1231 m 8 X s 403 1231 m 9 X s 412 1231 m 9 X s 421 1231 m 9 X s 430 1231 m 9 X s 439 1231 m 8 X s 447 1231 m 1 X -1 Y 8 X s 456 1230 m
 9 X s 465 1230 m 9 X s 474 1230 m 9 X s 483 1230 m 8 X s 491 1230 m 9 X s 500 1230 m 9 X s 509 1230 m 9 X s 518 1230 m 9 X s 527 1230 m 2 X -1 Y 6 X s 535 1229 m 9 X s 544 1229 m 9 X s 553 1229 m 1 X -1 Y 8 X s 562 1228 m 9 X s 571 1228 m 8 X s 579
 1228 m 9 X s 588 1228 m 9 X s 597 1228 m 9 X s 606 1228 m 9 X s 615 1228 m 8 X s 623 1228 m 9 X s 632 1228 m 9 X s 641 1228 m 9 X s 650 1228 m 3 X -1 Y 6 X s 659 1227 m 8 X s 667 1227 m 9 X s 676 1227 m 7 X 1 -1 d 1 X s 685 1226 m 9 X s 694 1226 m 6
 X -1 Y 3 X s 703 1225 m 8 X s 711 1225 m 9 X s 720 1225 m 9 X s 729 1225 m 9 X s 738 1225 m -1 Y 9 X s 747 1224 m 4 X -1 Y 4 X s 755 1223 m 3 X 1 -1 d 5 X -1 Y s 764 1221 m 9 X s 773 1221 m 2 X 1 -1 d 6 X s 782 1220 m 1 X 1 -1 d 3 X -1 Y 3 X -1 Y 1
 X s 791 1217 m 2 X -1 Y 3 X -1 Y 2 X 1 -1 d s 799 1214 m 1 -1 d 1 X 1 -1 d 4 X -1 Y 2 X -1 Y s 808 1210 m 1 X -1 Y 1 X -1 Y 3 X -1 Y 4 X s 817 1207 m -1 Y 1 X -2 Y 1 X 1 -1 d 1 X -1 Y 3 X -1 Y 2 X s 826 1201 m 1 X -1 Y 1 -1 d -1 Y 1 X -1 Y 2 X -1 Y
 2 X -1 Y 1 X -1 Y 1 X s 835 1194 m -2 Y 1 X 1 -1 d 1 X -1 Y 1 X -1 Y 1 -1 d 1 X 1 -1 d 1 X -1 Y s 843 1186 m 1 -1 d -1 Y 1 X -1 Y 1 X -1 Y 2 X -1 Y 3 X -1 Y 1 X -1 Y s 852 1179 m 2 X -1 Y 1 X -1 Y 2 X -1 Y 2 X -1 Y 1 X -1 Y 1 X s 861 1174 m 2 X -1 Y
 1 -1 d 1 X -1 Y 1 X -2 Y 1 X -1 Y 1 X -1 Y 1 -1 d 1 X s 870 1166 m 1 X -1 Y 1 -1 d 2 X 1 -1 d -1 Y 1 X -1 Y 1 X -1 Y 1 -1 d 1 X s 879 1159 m -1 Y 1 X -1 Y 1 X -1 Y 4 X 1 -1 d 1 X s 887 1155 m 1 X -1 Y 1 X -2 Y 1 X -1 Y 1 X -1 Y 1 X -1 Y 2 X 1 -1 d 1
 X s 896 1148 m -1 Y 2 X -1 Y 1 X -1 Y 2 X -1 Y 1 -1 d 1 X -1 Y 1 X -1 Y 1 X s 905 1141 m -1 Y 1 X -4 Y 2 X -1 Y 1 X -1 Y 2 X -1 Y 2 X -1 Y 1 X s 914 1132 m -2 Y 1 X -1 Y 1 -1 d -1 Y 2 X -1 Y 1 X 1 -1 d -1 Y 1 X 1 -1 d -1 Y 1 X s 923 1122 m -1 Y 1 X
 -1 Y 1 X -1 Y 2 X -1 Y 2 X -1 Y 1 X -1 Y 1 -1 d -1 Y s 931 1114 m 1 X -1 Y 1 X -1 Y 1 -1 d 1 X -1 Y 1 X -1 Y 1 X -1 Y 1 X -1 Y 1 X 1 -1 d -2 Y s 940 1104 m 1 X -1 Y 2 X -1 Y 1 X -1 Y 1 X -1 Y 1 X -1 Y 1 X -1 Y 1 X -2 Y 1 X -1 Y s 949 1095 m 1 X -1 Y
 1 X -1 Y 1 -1 d 2 X 1 -1 d 1 X -1 Y 1 X -1 Y 1 -1 d -1 Y s 958 1087 m 1 X -1 Y 2 X -3 Y 2 X -1 Y 1 X -2 Y 1 -1 d 1 X -1 Y 1 X s 967 1078 m -1 Y 3 X -2 Y 1 X -1 Y 1 X -1 Y 1 X -1 Y 1 X -4 Y 1 X s 975 1068 m 2 X -2 Y 1 X -1 Y 1 X -1 Y 2 X -1 Y 1 X -1
 Y 1 X 1 -1 d s 984 1061 m 2 X -3 Y 1 X 1 -1 d 1 X -1 Y 1 X -1 Y 1 X -2 Y 2 X -1 Y s 993 1052 m 1 X -1 Y 1 X -1 Y 1 X -1 Y 1 X -1 Y 1 X -1 Y 1 -1 d 1 X 1 -1 d -1 Y 1 X -1 Y s 1002 1043 m 1 X -1 Y 1 X -1 Y 1 X -1 Y 1 -1 d 1 X -2 Y 1 -1 d 1 X 1 -1 d -1
 Y 1 X s 1011 1034 m -2 Y 2 X 1 -1 d -1 Y 1 X -1 Y 1 X -2 Y 1 X -4 Y 1 X -1 Y 1 X -1 Y s 1019 1021 m 1 -1 d 1 -1 d -2 Y 1 X -2 Y 2 X -2 Y 1 X -1 Y 1 X -1 Y 1 X -2 Y 1 X -1 Y s 1028 1008 m 1 X -1 Y 1 X -1 Y 1 X -1 Y 1 X -1 Y 1 X -2 Y 2 X -3 Y 1 X -1 Y
 1 X -2 Y s 1037 996 m 1 X -2 Y 1 X -1 Y 1 X -1 Y 1 X -2 Y 1 X 1 -1 d -1 Y 1 -1 d -1 Y 1 X -2 Y 1 X s 1046 984 m -1 Y 1 X -1 Y 1 X -2 Y 1 X -2 Y 2 X -1 Y 1 X -1 Y 1 X -1 Y 1 X -1 Y 1 X s 1055 974 m -1 Y 1 -1 d -3 Y 1 X -1 Y 1 X -2 Y 1 -2 d -1 Y 1 X 1
 -1 d -1 Y 1 X -1 Y 1 X -2 Y s 1063 958 m 1 X -2 Y 1 X -1 Y 1 X -2 Y 1 X -2 Y 1 X -1 Y 1 -1 d -1 Y 1 -1 d -1 Y 1 -1 d -1 Y 1 -1 d s 1072 943 m 1 -1 d -2 Y 1 X -1 Y 1 -1 d -2 Y 1 X -1 Y 1 X -2 Y 1 X -1 Y 1 X -2 Y 1 X -1 Y 1 X -1 Y s 1081 928 m 1 X -1
 Y 1 X -1 Y 1 X -2 Y 1 -1 d -1 Y 1 X -1 Y 1 X -1 Y 1 -1 d -2 Y 1 X 1 -1 d -1 Y s 1090 915 m 1 X -2 Y 1 -2 d -1 Y 1 -1 d -2 Y 1 -1 d -1 Y 1 -1 d -1 Y 1 -1 d -1 Y 1 X -3 Y 1 -1 d -2 Y 1 -1 d s 1099 894 m -1 Y 1 X -2 Y 1 -1 d -1 Y 1 -1 d -2 Y 1 X -1 Y 1
 -1 d -3 Y 1 X -4 Y 1 -1 d -1 Y 1 -1 d -4 Y s 1107 870 m 1 X -2 Y 1 -1 d -2 Y 1 X -2 Y 1 X -3 Y 1 -1 d -3 Y 1 X -2 Y 1 -1 d -2 Y 1 -1 d -1 Y 1 X -3 Y s 1116 846 m -2 Y 1 X -1 Y 1 X -2 Y 1 X -3 Y 1 -1 d -1 Y 1 X -2 Y 1 -1 d -2 Y 1 X -3 Y 1 -1 d -1 Y 1
 X -3 Y s 1125 823 m -2 Y 1 X -3 Y 1 X -2 Y 1 X -4 Y 1 -1 d -3 Y 1 -1 d -2 Y 1 X -2 Y 1 -2 d -2 Y 1 X -2 Y 1 -2 d -1 Y s 1134 794 m -2 Y 1 X -1 Y 1 -1 d -4 Y 1 -1 d -2 Y 1 X -2 Y 1 X -2 Y 1 -1 d -1 Y 1 -1 d -1 Y 1 X -1 Y 1 -1 d s 1143 773 m -1 Y 1 -1
 d -5 Y 2 X 1 -1 d 1 X -2 Y 1 X -2 Y 1 X -2 Y 1 X -1 Y s 1151 758 m 1 -1 d -1 Y 1 X -1 Y 2 X -3 Y 1 X -1 Y 1 X -1 Y 1 X -1 Y 1 X -1 Y 1 X -1 Y s 1160 747 m 1 X -1 Y 1 X -1 Y 1 X -1 Y 1 -1 d -1 Y 1 X -2 Y 1 X -1 Y 1 X -2 Y 1 X -2 Y 1 X s 1169 735 m -2
 Y 1 X -1 Y 1 X -1 Y 1 -1 d -1 Y 1 -1 d -1 Y 1 X -2 Y 1 X 1 -1 d -4 Y 1 X -2 Y 1 X s 1178 718 m -1 Y 1 -1 d -3 Y 1 X 1 -2 d -2 Y 1 X -2 Y 1 X -1 Y 1 X -1 Y 1 X -1 Y 1 -1 d -3 Y 1 -1 d s 1187 699 m -1 Y 1 -1 d -1 Y 1 X -2 Y 1 X -1 Y 1 X -2 Y 1 X -1 Y
 2 X -2 Y 1 X -1 Y s 1195 687 m 1 X -2 Y 1 X 1 -1 d 1 X -1 Y 1 X -1 Y 2 X -1 Y 1 -1 d 1 X -1 Y s 1204 679 m 1 X -1 Y 1 X -2 Y 1 X 1 -1 d -1 Y 1 X -1 Y 1 X -1 Y 1 X -2 Y 1 X -1 Y 1 X s 1213 669 m 1 X -1 Y 1 X -1 Y 1 X -2 Y 2 X -1 Y 1 -1 d -1 Y 1 X -1
 Y 2 X s 1222 661 m -2 Y 1 -1 d -2 Y 2 X -2 Y 1 -1 d -1 Y 1 X 1 -1 d 1 X -1 Y 1 X -1 Y 1 X s 1231 649 m -1 Y 1 X -1 Y 1 X -1 Y 1 X 1 -1 d 1 X -1 Y 2 X -2 Y 1 X s 1239 642 m 2 X -1 Y 3 X -1 Y 1 X -1 Y 2 X -1 Y 1 X s 1248 638 m 2 X -1 Y 2 X -1 Y 3 X -1
 Y 1 X 1 -1 d s 1257 634 m 4 X -1 Y 1 X -1 Y 1 -1 d 1 -1 d 1 -1 d 1 X s 1266 629 m -1 Y 1 X -1 Y 1 -1 d 2 X -1 Y 3 X -2 Y 2 X s 1275 623 m 1 X -1 Y 1 X -1 Y 1 X -1 Y 2 X -4 Y 2 X 1 -1 d -1 Y s 1283 614 m 2 X -1 Y 5 X -1 Y 2 X s 1292 612 m 1 X -2 Y 2
 X -1 Y 2 X -1 Y 2 X -1 Y 1 X -1 Y 1 -1 d s 1301 605 m 1 X -1 Y 2 X 1 -1 d 1 X 1 -1 d -1 Y 2 X 1 -1 d -2 Y s 1310 598 m 2 X -2 Y 1 X -1 Y 1 X -2 Y 4 X -1 Y 1 X s 1319 592 m 4 X -1 Y 1 X 1 -1 d 2 X s 1327 590 m 1 X -1 Y 3 X -1 Y 1 X -1 Y 4 X -1 Y s
 1336 586 m 4 X -1 Y 1 X -1 Y 1 X 1 -1 d -1 Y 2 X s 1345 582 m -1 Y 1 X -1 Y 2 X -1 Y 1 X -1 Y 2 X -1 Y 1 X -1 Y 2 X s 1354 576 m -1 Y 4 X -1 Y 3 X -1 Y 2 X s 1363 573 m -1 Y 3 X -1 Y 3 X -1 Y 2 X s 1371 570 m 3 X -1 Y 6 X -4 Y s 1380 565 m 2 X -4 Y
 1 X -1 Y 5 X -1 Y 1 X s 1389 559 m 1 X -2 Y 4 X -1 Y 3 X -1 Y 1 X s 1398 555 m 2 X 1 -2 d 1 X -1 Y 1 X -2 Y 4 X s 1407 550 m 1 X 1 -1 d -2 Y 2 X -1 Y 4 X -1 Y s 1415 545 m 5 X -1 Y 4 X s 1424 544 m 1 X -1 Y 2 X -1 Y 1 X 1 -1 d -1 Y 1 X -1 Y 1 X -1 Y
 2 X s 1433 538 m -1 Y 3 X -1 Y 1 X 1 -2 d 1 X -1 Y 2 X -1 Y 1 X s 1442 532 m -1 Y 5 X 1 -1 d 2 X -3 Y 1 X s 1451 527 m 1 X -2 Y 1 X -1 Y 3 X -1 Y 2 X 1 -1 d s 1459 522 m 2 X -1 Y 3 X -3 Y 4 X s 1468 518 m -1 Y 2 X -1 Y 1 X 1 -2 d -4 Y 2 X 1 -1 d -2
 Y 2 X -4 Y s 1477 503 m 1 X -1 Y 1 X -4 Y 2 X -1 Y 5 X s 1486 497 m 1 -1 d 4 X -2 Y 4 X s 1495 494 m 3 X -1 Y 5 X -1 Y s 1503 492 m 5 X -1 Y 3 X -1 Y 1 X s 1512 490 m 7 X 1 -1 d 1 X s 1521 489 m 2 X 1 -1 d 1 X -1 Y 3 X -1 Y 2 X s 1530 486 m 4 X -1 Y
 5 X -1 Y s 1539 484 m 7 X -1 Y 1 X -1 Y s 1547 482 m 7 X -1 Y 1 X 1 -2 d s 1556 479 m 7 X 1 -1 d 1 X s 1565 478 m 2 X -1 Y 7 X -1 Y s 1574 476 m 5 X 1 -1 d 3 X s 1583 475 m -1 Y 4 X -1 Y 1 X -3 Y 3 X s 1591 470 m 2 X -1 Y 2 X -2 Y 1 X -1 Y 4 X -1 Y
 s 1600 465 m 4 X -1 Y 2 X -1 Y 3 X -1 Y s 1609 462 m 4 X -1 Y 1 X -2 Y 2 X -1 Y 2 X s 1618 458 m 3 X -1 Y 1 X -4 Y 1 X -1 Y 2 X -2 Y 2 X s 1627 450 m -1 Y 1 X -1 Y 2 X -1 Y 2 X -1 Y 1 X -1 Y 1 -1 d 1 X -1 Y s 1635 443 m 3 X -1 Y 6 X s 1644 442 m 1 X
 -1 Y 4 X -1 Y 3 X -1 Y 1 X s 1653 439 m 2 X -4 Y 4 X 1 -1 d 2 X s 1662 434 m 9 X s 1671 434 m 3 X -1 Y 5 X s 1679 433 m 2 X -1 Y 5 X -1 Y 2 X s 1688 431 m 3 X -2 Y 1 X -1 Y 3 X -5 Y 2 X -1 Y s 1697 422 m 3 X -1 Y 4 X -1 Y 2 X s 1706 420 m 3 X -1 Y 6
 X s 1715 419 m 7 X -4 Y 1 X s 1723 415 m 1 X -1 Y 6 X -1 Y 2 X s 1732 413 m 1 X -2 Y 3 X -3 Y 2 X -1 Y 2 X -1 Y 1 X s 1741 406 m 1 X 1 -1 d 3 X -1 Y 1 X -1 Y 1 X 1 -1 d -1 Y 1 X s 1750 401 m -1 Y 1 -5 d 2 X -1 Y 6 X s 1759 394 m 1 X -4 Y 3 X 1 -1 d
 2 X -2 Y 1 X -1 Y s 1767 386 m 6 X -1 Y 3 X s 1776 385 m 2 X -4 Y 3 X 1 -30 d 1 -1 d 2 X s 1785 350 m 3 X 1 -1 d 2 X -3 Y 2 X -1 Y 1 X s 1794 345 m 9 X s 1803 345 m 1 X -1 Y 1 X -2 Y 3 X -1 Y 1 X -12 Y 2 X -2 Y 1 X s 1812 327 m 8 X s 1820 327 m 1 -1
 d -2 Y 3 X -1 Y 5 X s 1829 323 m 1 -1 d 4 X -1 Y 4 X s 1838 321 m 2 X -1 Y 6 X -1 Y 1 X s 1847 319 m 4 X -1 Y 1 X -2 Y 3 X -1 Y 1 X s 1856 315 m -1 Y 7 X -3 Y 1 X -1 Y s 1864 310 m 1 X -2 Y 5 X -1 Y 3 X s 1873 307 m 4 X 1 -1 d 4 X s 1882 306 m 3 X
 -1 Y 6 X s 1891 305 m 9 X s 1900 305 m 7 X -1 Y 1 X s 1908 304 m 8 X 1 -3 d s 1917 301 m 9 X s 1926 301 m 6 X -4 Y 3 X s 1935 297 m 7 X 1 -5 d 1 X s 1944 292 m -1 Y 8 X -5 Y s 1952 286 m 1 X -4 Y 8 X s 1961 282 m 9 X s 1970 282 m 4 X -27 Y 5 X s
 1979 255 m 9 X s 1988 255 m 8 X s 1996 255 m 9 X s 2005 255 m 9 X s 2014 255 m 9 X s 2023 255 m 9 X s 2032 255 m 8 X s 2040 255 m 1 X s 1 0 0 c black 1 0 0 c 245 1231 m -3 Y 7 X -7 Y 2 X s 254 1221 m 3 X -4 Y 6 X s 263 1217 m 8 X s 271 1217 m 9 X s
 280 1217 m 9 X s 289 1217 m 9 X -2 Y s 298 1215 m 4 X 1 -10 d 2 X -2 Y 2 X s 307 1203 m 8 X s 315 1203 m 8 X -2 Y 1 X s 324 1201 m 9 X s 333 1201 m 3 X -8 Y 4 X -2 Y 2 X s 342 1191 m 8 X -1 Y 1 X s 351 1190 m 4 X -1 Y 3 X -32 Y 1 X s 359 1157 m 2 X
 -1 Y 1 X 1 -1 d 5 X s 368 1155 m 1 X -1 Y 4 X 1 -1 d 2 X -1 Y 1 X s 377 1152 m 3 X -1 Y 6 X s 386 1151 m 9 X s 395 1151 m 8 X s 403 1151 m 3 X -10 Y 5 X -5 Y 1 X -1 Y s 412 1135 m 1 X -1 Y 3 X 1 -1 d 4 X s 421 1133 m 3 X -1 Y 3 X -8 Y 3 X s 430 1124
 m 3 X -27 Y 6 X s 439 1097 m 1 -6 d -29 Y 7 X -8 Y s 447 1054 m 1 X -5 Y 2 X -1 Y 3 X -36 Y 2 X -1 Y 1 X s 456 1011 m 2 X -1 Y 2 X -1 Y 2 X -1 Y 1 X -5 Y 1 X -11 Y 1 X -1 Y s 465 991 m 1 X -5 Y 1 X -14 Y 1 X -3 Y 2 X -1 Y 3 X 1 -4 d -20 Y s 474 944
 m 1 -3 d 1 -2 d 4 X -1 Y 3 X s 483 938 m 5 X -1 Y 1 X -1 Y 2 X s 491 936 m 3 X -2 Y 6 X -13 Y s 500 921 m 8 X 1 -1 d s 509 920 m 3 X -5 Y 2 X -1 Y 1 X -1 Y 3 X s 518 913 m 1 X -1 Y 2 X -3 Y 6 X s 527 909 m 2 X -20 Y 2 X -5 Y 3 X -4 Y 1 X s 535 880 m
 6 X -1 Y 3 X s 544 879 m 1 X 1 -9 d 1 X -3 Y 6 X s 553 867 m 1 X -1 Y 3 X -1 Y 5 X s 562 865 m 4 X -1 Y 2 X -1 Y 3 X s 571 863 m 8 X -1 Y s 579 862 m 9 X -1 Y s 588 861 m 2 X -7 Y 1 X -1 Y 1 X -1 Y 1 X -1 Y 2 X -1 Y 2 X s 597 850 m 1 X 1 -1 d 1 X -1
 Y 4 X 1 -1 d 1 X s 606 847 m 2 X -1 Y 3 X 1 -1 d 3 X s 615 845 m 3 X 1 -3 d 2 X -1 Y 2 X s 623 841 m 5 X -7 Y 4 X s 632 834 m 9 X s 641 834 m 2 X 1 -1 d 1 X 1 -5 d 2 X -11 Y 2 X s 650 817 m -3 Y 2 X -7 Y 1 X -10 Y 1 X -4 Y 1 X -5 Y 2 X -3 Y 1 X -2 Y
 1 X s 659 783 m 8 X s 667 783 m 1 -1 d 3 X -1 Y 5 X s 676 781 m 5 X -1 Y 2 X 1 -10 d -1 Y 1 X s 685 769 m 6 X -13 Y 3 X s 694 756 m -1 Y 4 X 1 -8 d 1 X -2 Y 3 X s 703 745 m 5 X 1 -1 d 2 X s 711 744 m 5 X -1 Y 4 X s 720 743 m 7 X -1 Y 2 X s 729 742 m
 1 X 1 -1 d 3 X -1 Y 3 X 1 -1 d s 738 739 m 2 X -1 Y 1 X -1 Y 2 X 1 -1 d -1 Y 1 X -1 Y 1 -1 d 1 X s 747 733 m 1 X -1 Y 1 X -1 Y 2 X -1 Y 2 X -1 Y 2 X s 755 729 m 2 X -1 Y 1 X -1 Y 1 -1 d 1 X 1 -2 d 1 X -1 Y 2 X -1 Y s 764 722 m 2 X -1 Y 1 X -1 Y 2 X
 -1 Y 2 X -1 Y 1 X -1 Y 1 X s 773 717 m 1 X -1 Y 1 X -2 Y 2 X -4 Y 1 X -1 Y 1 X -1 Y 1 X -1 Y 2 X -1 Y s 782 706 m 1 X -1 Y 1 X -1 Y 1 X -1 Y 1 -1 d 1 X -2 Y 1 X -1 Y 2 X -2 Y 1 -3 d s 791 694 m 1 X -1 Y 1 X -2 Y 1 X -1 Y 1 X -1 Y 1 -1 d -2 Y 1 X -2
 Y 1 X -1 Y 1 -1 d -2 Y s 799 680 m 1 -1 d -3 Y 1 X -2 Y 1 -1 d 1 X -2 Y 2 X -1 Y 1 -1 d -2 Y 1 X -1 Y 1 X -1 Y s 808 665 m 1 X -4 Y 2 X -4 Y 1 X -1 Y 1 X -3 Y 2 X -1 Y 1 -2 d -2 Y 1 X s 817 648 m -1 Y 1 -2 d -12 Y 1 X -1 Y 1 X -1 Y 1 X -1 Y 1 X -3 Y
 1 -1 d -2 Y 1 X -2 Y 1 -1 d -1 Y 1 -2 d s 826 618 m -2 Y 1 X -3 Y 1 X -2 Y 1 X -4 Y 1 -2 d -1 Y 1 -1 d -6 Y 1 X 1 -2 d -2 Y 1 X -1 Y 1 X s 835 592 m -2 Y 1 -1 d -1 Y 1 X -1 Y 1 X -3 Y 1 X -4 Y 1 -2 d -3 Y 1 X -2 Y 1 -1 d -4 Y 1 -1 d -4 Y s 843 563 m
 1 -1 d -1 Y 1 X -2 Y 1 -2 d -2 Y 1 X -3 Y 1 -1 d -2 Y 1 X -3 Y 1 X -3 Y 1 -1 d -1 Y 1 -1 d -2 Y s 852 538 m 1 -1 d -2 Y 1 X -1 Y 1 -1 d -2 Y 1 -2 d -2 Y 1 X -2 Y 1 X -1 Y 1 X -3 Y 1 -1 d -2 Y 1 X -4 Y s 861 514 m -1 Y 2 X -3 Y 1 X -4 Y 1 -1 d -3 Y 1
 -1 d -4 Y 1 -1 d 1 -1 d -3 Y 1 X -2 Y 1 X -1 Y s 870 489 m -1 Y 1 X -5 Y 1 X -2 Y 1 X -5 Y 1 X -3 Y 1 -1 d -2 Y 1 X -2 Y 1 -1 d -4 Y 1 -1 d -1 Y 1 X s 879 461 m -2 Y 1 X -3 Y 1 -1 d -2 Y 1 X -1 Y 1 -1 d -1 Y 1 X -1 Y 1 X -2 Y 1 X -1 Y 1 -1 d -1 Y s
 887 444 m 1 -1 d -2 Y 1 X -3 Y 1 X -1 Y 1 X -2 Y 1 X -2 Y 1 X -2 Y 1 X -3 Y 1 -1 d -2 Y 1 X -1 Y s 896 424 m -1 Y 1 -1 d -1 Y 1 X -2 Y 1 X -2 Y 1 X -2 Y 1 X -2 Y 1 -1 d -1 Y 1 X -2 Y 1 X -2 Y 1 X s 905 407 m -1 Y 1 X -3 Y 1 -1 d -1 Y 1 -1 d -1 Y 1 X
 -1 Y 1 -2 d -1 Y 1 -1 d -2 Y 1 X -1 Y 1 -1 d -2 Y 1 X s 914 388 m -1 Y 1 X -2 Y 1 -1 d -1 Y 1 -1 d 1 X -1 Y 1 X -1 Y 1 X -1 Y 1 X -1 Y 1 -1 d -1 Y 1 -1 d s 923 375 m -1 Y 1 X -3 Y 1 X -1 Y 1 X 1 -1 d -1 Y 1 X -1 Y 2 X -2 Y 1 X -1 Y s 931 364 m 1 X
 -1 Y 1 X -1 Y 1 X -2 Y 1 X -2 Y 1 X -2 Y 1 -1 d -1 Y 1 X -1 Y 1 X -1 Y 1 -1 d -1 Y s 940 350 m 1 X -2 Y 1 X -1 Y 1 X -2 Y 1 X -1 Y 1 X -3 Y 1 X -1 Y 1 X -1 Y 1 -1 d -1 Y 1 X s 949 337 m 1 X -2 Y 1 -1 d 1 X -2 Y 3 X -1 Y 1 X -2 Y 1 X -3 Y 1 X s 958
 326 m -1 Y 2 X -2 Y 1 X -1 Y 2 X -1 Y 1 X -1 Y 1 X -1 Y 1 X -1 Y 1 X s 967 318 m 1 -1 d -1 Y 2 X -1 Y 1 -1 d -1 Y 1 X -1 Y 1 X -2 Y 1 X -1 Y 1 X s 975 309 m 2 X -3 Y 1 X -1 Y 2 X -1 Y 1 X -1 Y 1 X -2 Y 2 X -1 Y s 984 300 m 3 X -2 Y 2 X -1 Y 2 X -1 Y
 2 X -1 Y s 993 295 m 1 X -1 Y 1 -1 d -1 Y 1 X -1 Y 1 X 1 -1 d -2 Y 1 X -1 Y 1 X -1 Y 2 X -1 Y s 1002 285 m 1 X -1 Y 1 X -2 Y 1 X -2 Y 1 X 1 -1 d 3 X -2 Y 1 X s 1011 277 m -1 Y 1 X -1 Y 2 X -1 Y 1 X -1 Y 1 X 1 -1 d -1 Y 1 -1 d 1 -1 d -1 Y s 1019 268
 m 2 X -1 Y 1 X -2 Y 1 X -1 Y 3 X 1 -1 d -2 Y 1 X -1 Y s 1028 260 m 2 X -1 Y 1 X -1 Y 1 X -1 Y 1 X -1 Y 1 -1 d 1 X -1 Y 1 X -1 Y 1 X s 1037 253 m 1 X 1 -1 d 1 X -2 Y 1 X -1 Y 2 X -2 Y 2 X -1 Y 1 X s 1046 246 m 3 X -1 Y 2 X -1 Y 1 X -1 Y 1 X -1 Y 1 -1
 d 1 X s 1055 241 m 1 X -3 Y 2 X -1 Y 2 X -1 Y 1 X -1 Y 2 X s 1063 235 m 1 X -1 Y 1 X -1 Y 1 X -2 Y 1 X -2 Y 1 X 1 -1 d -1 Y 2 X -1 Y 1 -1 d s 1072 225 m 1 X -1 Y 2 X -1 Y 3 X -1 Y 3 X -1 Y s 1081 221 m 1 X -2 Y 2 X -1 Y 1 X 1 -1 d -1 Y 2 X -1 Y 2 X
 -1 Y s 1090 214 m 1 X -1 Y 1 -1 d 1 X -1 Y 1 X -1 Y 1 X -1 Y 2 X -1 Y 1 X -1 Y 1 X s 1099 207 m 1 -1 d 1 X -1 Y 2 X -1 Y 1 X -1 Y 1 X -2 Y s 0 0.666667 0 c 1 1 1 c black 0 0.666667 0 c 245 1045 m 1 Y 7 X 1 Y 2 X s 254 1047 m 3 X 1 Y 6 X s 263 1048 m
 8 X s 271 1048 m 9 X s 280 1048 m 9 X s 289 1048 m 9 X s 298 1048 m 4 X 1 2 d 2 X 1 Y 2 X s 307 1051 m 8 X s 315 1051 m 9 X s 324 1051 m 9 X s 333 1051 m 3 X 2 Y 6 X s 342 1053 m 9 X s 351 1053 m 4 X 1 Y 3 X 7 Y 1 X s 359 1061 m 9 X s 368 1061 m 5 X
 1 1 d 3 X s 377 1062 m 9 X s 386 1062 m 9 X s 395 1062 m 8 X s 403 1062 m 3 X 2 Y 5 X 1 Y 1 X s 412 1065 m 1 X 1 Y 8 X s 421 1066 m 6 X 2 Y 3 X s 430 1068 m 3 X 6 Y 6 X s 439 1074 m 1 1 d 7 Y 7 X 2 Y s 447 1084 m 1 X 1 Y 5 X 9 Y 3 X s 456 1094 m 7 X
 2 Y 1 X 2 Y 1 X 1 Y s 465 1099 m 1 X 1 Y 1 X 3 Y 1 X 1 Y 5 X 1 1 d 5 Y s 474 1110 m 1 1 d 5 X 1 Y 3 X s 483 1112 m 8 X s 491 1112 m 3 X 1 Y 6 X 3 Y s 500 1116 m 9 X s 509 1116 m 3 X 2 Y 6 X s 518 1118 m 3 X 1 Y 6 X s 527 1119 m 2 X 5 Y 2 X 1 Y 3 X 1
 Y 1 X s 535 1126 m 4 X 1 Y 5 X s 544 1127 m 1 X 1 2 d 1 X 1 Y 6 X s 553 1130 m 9 X s 562 1130 m 4 X 1 Y 5 X s 571 1131 m 8 X s 579 1131 m 9 X s 588 1131 m 2 X 2 Y 1 X 1 Y 6 X s 597 1134 m 1 X 1 Y 8 X s 606 1135 m 5 X 1 1 d 3 X s 615 1136 m 4 X 1 Y 4
 X s 623 1137 m 5 X 1 Y 4 X s 632 1138 m 5 X 1 Y 4 X s 641 1139 m 4 X 1 1 d 2 X 3 Y 2 X s 650 1143 m 1 Y 2 X 2 Y 1 X 3 Y 1 X 1 Y 1 X 1 Y 2 X 1 Y 2 X s 659 1152 m 8 X s 667 1152 m 1 1 d 8 X s 676 1153 m 7 X 1 3 d 1 X s 685 1156 m 6 X 4 Y 3 X s 694
 1160 m 4 X 1 2 d 1 X 1 Y 3 X s 703 1163 m 8 X s 711 1163 m 9 X s 720 1163 m 9 X s 729 1163 m 1 X 1 1 d 7 X s 738 1164 m 3 X 1 Y 5 X 1 Y 1 X s 747 1166 m 1 -1 d 1 Y 7 X s 755 1166 m 3 X 1 Y 1 -1 d 1 X 1 Y 4 X s 764 1167 m 2 X 1 Y 7 X s 773 1168 m 1 X
 1 Y 3 X 1 Y 1 X 1 Y 4 X s 782 1171 m 3 X 1 Y 5 X 1 1 d s 791 1173 m 2 X 1 Y 3 X 1 Y -1 Y 1 X 1 Y 2 X 1 Y s 799 1176 m 1 X 1 Y 5 X 1 Y 3 X s 808 1178 m 1 X 1 Y -1 Y 2 X 1 Y 2 X 1 Y 2 X 1 1 d 1 X s 817 1181 m 1 1 d 3 Y 2 X -1 Y 1 Y 1 X -1 Y 1 Y 1 X 1
 1 d 1 X 1 Y 1 X 1 1 d s 826 1188 m 3 X 1 Y 1 X 1 Y 1 X 2 Y 2 X 1 Y -1 Y 1 Y 1 X -1 Y 1 X s 835 1192 m 4 X 1 Y 1 X 1 Y 1 X 1 Y 1 X 1 Y 1 X 1 Y s 843 1197 m 1 X -1 Y 1 X 1 Y 1 X 1 Y -1 Y 1 X 1 Y 1 1 d 1 X 1 Y 1 X 1 Y 2 X 1 Y s 852 1202 m 1 X 1 Y 2 X 1
 1 d 1 X 1 Y 2 X 1 Y 2 X 1 Y s 861 1207 m 1 Y 3 X 1 Y 1 X 1 Y 1 X 1 Y 1 X -1 Y 1 X 1 Y 2 X s 870 1211 m 1 Y 1 X 1 Y 1 X 1 Y 1 X 1 Y 1 X 1 Y 1 X 1 Y -1 Y 1 Y 2 X 1 Y 2 X s 879 1218 m 1 Y 2 X 1 Y 2 X 1 Y 3 X 1 Y 1 X s 887 1222 m 1 1 d 3 X -1 Y 1 Y -1 Y
 1 Y 3 X 2 Y 2 X 1 Y s 896 1226 m 2 X 1 Y 2 X 1 Y 4 X 1 Y 1 -1 d 1 Y s 905 1229 m -1 Y 1 X -1 Y 1 X 1 Y 2 X 1 Y -1 Y 1 1 d 1 X 1 Y 2 X 1 Y 1 X s 914 1231 m -1 Y 9 X s 923 1230 m 5 X 1 Y 1 X -1 Y 1 Y -1 Y 2 X -1 Y s 931 1229 m 1 X 1 Y -1 Y 3 X 1 Y 1 X
 -1 Y 1 Y 4 X s 940 1230 m 1 -1 d 1 Y 5 X 1 Y 1 X -1 Y 1 1 d -1 Y 1 X -1 Y s 949 1229 m 1 X 1 Y 1 X -1 Y 1 X 1 Y 1 X -1 Y 4 X 1 Y 1 X -1 Y s 958 1229 m 3 X -1 Y 2 X 1 Y -1 Y 1 X -1 Y 3 X s 967 1227 m 4 X -1 Y 1 Y -1 Y 3 X -1 Y 1 X s 975 1225 m 1 -1 d
 1 X 1 Y 1 -1 d 6 X s 984 1224 m 2 X -2 Y 1 X 1 Y 2 X -1 Y 1 X 1 -1 d 2 X s 993 1221 m -1 Y 1 1 d -1 Y 1 1 d -1 Y 2 X 1 1 d -1 Y 1 X 1 Y 1 X 1 -1 d 1 X s 1002 1220 m -1 Y 3 X 1 Y 1 X -1 Y 1 X -1 Y 3 X -1 Y 1 X s 1011 1217 m 3 X -1 Y 2 X -1 Y 1 X -2 Y
 2 X s 1019 1213 m 1 X 1 -1 d -1 Y 3 X -2 Y 1 1 d 1 -1 d 1 X -1 Y 1 Y 1 X -1 Y s 1028 1208 m 3 X -1 Y 1 X 1 Y -1 Y 1 Y 1 X -1 Y 2 X -2 Y 2 X -1 Y s 1037 1204 m 1 X -2 Y 1 1 d -1 Y 1 X 1 Y 1 X -1 Y 1 X 1 -1 d 1 Y -1 Y 1 X -1 Y 1 X -1 Y 1 X s 1046 1199
 m 1 X -1 Y 1 X -2 Y 3 X 1 -1 d 1 Y 1 X -1 Y 1 1 d -1 Y 1 X s 1055 1195 m -1 Y 1 X -1 Y 2 X -2 Y 1 -1 d 1 X 1 -1 d 2 X -1 Y s 1063 1188 m 1 X -1 Y 1 X -1 Y 1 Y -1 Y 3 X -1 Y 1 X -1 Y 1 X -1 Y 1 X -1 Y 1 X s 1072 1182 m 1 -1 d -1 Y 1 X 1 -1 d -1 Y 2 X
 -2 Y 2 X -1 Y 1 X -1 Y 1 X s 1081 1174 m 3 X -2 Y 1 Y 1 -1 d -1 Y 2 X 1 -1 d -1 Y 2 X s 1090 1169 m 1 -1 d 1 -1 d -1 Y 1 -1 d -1 Y 1 X 1 -1 d -1 Y 2 X -2 Y 1 -1 d -1 Y 1 X s 1099 1158 m -1 Y 1 X -1 Y 1 X -1 Y 1 -1 d -1 Y 1 X -1 Y 1 X -2 Y 1 X -1 Y 1
 -1 d -1 Y 1 X -3 Y s 1107 1144 m 1 X -1 Y 1 -1 d -1 Y 1 X -1 Y 1 X -2 Y 1 X -2 Y 1 X -1 Y 1 -1 d -1 Y 1 X -1 Y 1 X -2 Y s 1116 1130 m -2 Y 2 X -1 Y 1 X -2 Y 1 X -1 Y 1 X -1 Y 1 X -2 Y 1 X -2 Y 2 X -2 Y s 1125 1117 m -2 Y 1 X -2 Y 1 X -1 Y 1 X -3 Y 1
 1 d -2 Y 1 -1 d -1 Y 1 X -1 Y 1 -1 d -2 Y 1 X 1 -2 d s 1134 1100 m -1 Y 1 X 1 -1 d -3 Y 1 X -1 Y 1 -1 d -1 Y 1 X -1 Y 1 -1 d -1 Y 2 X -1 Y 1 -1 d s 1143 1087 m 1 -1 d -4 Y 4 X -1 Y 1 X -1 Y 1 X -1 Y 1 X -1 Y s 1151 1078 m 1 X -1 Y 3 X -2 Y 2 X -1 Y
 2 X 1 -1 d s 1160 1073 m 2 X -1 Y 1 X 1 -1 d -1 Y 2 X -1 Y 1 -1 d -1 Y 1 Y 1 X -1 Y 1 X -1 Y s 1169 1066 m 1 X -1 Y 1 -1 d 1 -1 d -1 Y 1 X -1 Y 1 X -1 Y 2 X -4 Y 1 X -1 Y 1 X s 1178 1055 m -1 Y 1 X -2 Y 1 -1 d 1 Y 1 -1 d -2 Y 1 X -1 Y 1 X -1 Y 2 X
 -1 Y 1 X -3 Y 1 -1 d s 1187 1042 m 1 X -1 Y 1 X -2 Y 2 X -1 Y 1 X -1 Y 2 X -1 Y 1 X -1 Y s 1195 1035 m 1 X -1 Y 1 X -1 Y 2 X -1 Y 1 X -1 Y 1 Y 1 X -1 Y 1 X 1 Y -1 Y 1 -1 d 1 X s 1204 1030 m 1 X -1 Y 1 X -1 Y 1 X -1 Y 1 X -1 Y 2 X -1 Y 1 X -1 Y 1 X
 -1 Y 1 -1 d 1 Y s 1213 1023 m 2 X -1 Y 1 X -1 Y 1 X 1 -1 d 1 X -1 Y 1 X -1 Y 1 Y 1 X -1 Y 1 X s 1222 1018 m -1 Y 1 -1 d -1 Y 2 X -2 Y 1 X -1 Y 1 Y -1 Y 3 X -1 Y 1 -1 d 1 X s 1231 1010 m -1 Y 1 X -1 Y 2 X -1 Y 2 X -1 Y 2 X -1 Y 1 X s 1239 1005 m 2 X
 -1 Y 3 X 1 -1 d 1 X -1 Y 2 X s 1248 1002 m 2 X -1 Y 3 X 1 -1 d 2 X 1 -1 d s 1257 999 m 1 X 1 Y 1 X -1 Y 1 X 1 1 d -1 Y 1 X -1 Y 1 X 1 -1 d -1 Y 2 X s 1266 996 m -1 Y 1 X -1 Y 2 X 1 -1 d 1 X -1 Y 2 X -1 Y 2 X s 1275 991 m -1 Y 2 X -1 Y 1 X -1 Y 2 X
 -3 Y 2 X 1 -1 d -1 Y s 1283 983 m 2 X -1 Y 7 X s 1292 982 m 1 X -2 Y 2 X -1 Y 3 X -1 Y 2 X -1 Y 1 -1 d s 1301 976 m 2 X -1 Y 3 X -1 Y 1 X -1 Y 1 -1 d 2 X -2 Y s 1310 970 m 2 X -2 Y 1 X -1 Y 1 X -1 Y 1 X -1 Y 4 X s 1319 965 m 4 X -1 Y 4 X -1 Y s 1327
 963 m 3 X -1 Y 1 X -1 Y 4 X -1 Y 1 X s 1336 960 m 4 X -1 Y 2 X -1 Y 1 -1 d -1 Y 2 X s 1345 956 m -1 Y 1 X -1 Y 2 X -1 Y 2 X -1 Y 2 X -1 Y 2 X s 1354 951 m -1 Y 5 X -1 Y 2 X -1 Y 2 X s 1363 948 m 3 X -1 Y 2 X -1 Y 3 X s 1371 946 m 1 X 1 -1 d 7 X -3 Y
 s 1380 942 m -1 Y 2 X -3 Y 1 X -1 Y 5 X -1 Y 1 X s 1389 936 m 1 X -1 Y 1 X -1 Y 3 X -1 Y 3 X -1 Y 1 X s 1398 932 m 2 X 1 -1 d 1 -1 d 1 X -2 Y 4 X s 1407 928 m 1 X 1 -1 d -2 Y 2 X -1 Y 4 X -1 Y s 1415 923 m 5 X -1 Y 4 X s 1424 922 m 1 X -1 Y 2 X -1 Y
 1 X 1 -1 d -1 Y 1 X -1 Y 1 X -1 Y 2 X s 1433 916 m 1 X 1 -1 d 2 X 1 -3 d 3 X -1 Y 1 X s 1442 911 m -1 Y 5 X 1 -1 d 2 X -3 Y 1 X s 1451 906 m 1 X -2 Y 1 X 1 -1 d 4 X 1 -2 d s 1459 901 m 5 X -3 Y 1 X -1 Y 3 X s 1468 897 m 2 X -1 Y 1 X -1 Y 1 -1 d -4 Y
 2 X -1 Y 1 X -2 Y 2 X -4 Y s 1477 883 m 1 X -1 Y 1 X -4 Y 2 X -1 Y 1 X -1 Y 4 X s 1486 876 m 2 X -1 Y 3 X -1 Y 4 X s 1495 874 m 3 X -1 Y 4 X -1 Y 1 X s 1503 872 m 5 X -2 Y 4 X s 1512 870 m 7 X 1 -1 d 1 X s 1521 869 m 2 X 1 -1 d -1 Y 4 X -1 Y 2 X s
 1530 866 m 1 X -1 Y 3 X -1 Y 5 X s 1539 864 m 1 X -1 Y 7 X -1 Y s 1547 862 m 3 X -1 Y 5 X 1 -2 d -1 Y s 1556 858 m 7 X 1 -1 d 1 X s 1565 857 m 5 X -1 Y 4 X s 1574 856 m 2 X -1 Y 3 X 1 -1 d 3 X s 1583 854 m -1 Y 4 X -1 Y 1 X -3 Y 3 X s 1591 849 m 2 X
 -1 Y 2 X -2 Y 1 X -1 Y 1 X 1 -1 d 2 X s 1600 844 m 1 X 1 -1 d 3 X -1 Y 3 X -1 Y 1 X s 1609 841 m 3 X -1 Y 1 X -1 Y 1 X -2 Y 2 X -1 Y 2 X s 1618 836 m 3 X -1 Y 1 X -5 Y 1 X -1 Y 2 X -2 Y 2 X s 1627 827 m -1 Y 2 X -1 Y 1 X -1 Y 2 X -1 Y 1 X -1 Y 1 -1
 d 1 X -1 Y s 1635 820 m 2 X -1 Y 6 X -1 Y 1 X s 1644 818 m 4 X -1 Y 1 X -1 Y 3 X 1 -1 d s 1653 815 m 2 X -4 Y 3 X -1 Y 4 X s 1662 810 m 3 X -1 Y 6 X s 1671 809 m 6 X -1 Y 2 X s 1679 808 m 2 X -1 Y 7 X s 1688 807 m 3 X -3 Y 1 X -1 Y 2 X -1 Y 1 X -5 Y
 2 X s 1697 797 m 1 X -1 Y 2 X -1 Y 4 X -1 Y 2 X -1 Y s 1706 793 m 9 X s 1715 793 m 1 X -1 Y 6 X -4 Y 1 X s 1723 788 m 1 X -1 Y 6 X -1 Y 2 X s 1732 786 m 1 X -3 Y 3 X -3 Y 2 X -1 Y 1 X -1 Y 2 X s 1741 778 m 1 X 1 -1 d 3 X -2 Y 1 X -1 Y 1 X 1 -1 d -1
 Y 1 X s 1750 772 m -1 Y 1 -7 d 2 X -1 Y 6 X s 1759 763 m 1 X -4 Y 3 X 1 -2 d 2 X -2 Y 1 X -2 Y s 1767 753 m 9 X -1 Y s 1776 752 m 2 X -5 Y 3 X 1 -37 d 1 -2 d 2 X s 1785 708 m 3 X 1 -1 d 2 X -5 Y 3 X s 1794 702 m -1 Y 9 X s 1803 701 m 2 X -3 Y 3 X -1
 Y 1 X -17 Y 2 X -2 Y 1 X s 1812 678 m 7 X -1 Y 1 X s 1820 677 m 1 -1 d -3 Y 3 X -1 Y 3 X -1 Y 2 X s 1829 671 m 1 -1 d 4 X -1 Y 4 X s 1838 669 m 2 X -2 Y 6 X -1 Y 1 X s 1847 666 m 4 X -2 Y 1 X -2 Y 3 X -2 Y 1 X s 1856 660 m -1 Y 7 X -5 Y 1 X -1 Y s
 1864 653 m 1 X -3 Y 5 X -2 Y 3 X s 1873 648 m 9 X s 1882 648 m 3 X -2 Y 6 X s 1891 646 m 9 X s 1900 646 m 7 X -2 Y 1 X s 1908 644 m 8 X 1 -4 d s 1917 640 m 9 X s 1926 640 m 6 X -6 Y 3 X s 1935 634 m 7 X 1 -8 d 1 X s 1944 626 m -2 Y 8 X -7 Y s 1952
 617 m 1 X -7 Y 8 X s 1961 610 m 9 X s 1970 610 m 4 X -44 Y 5 X s 1979 566 m 9 X s 1988 566 m 8 X s 1996 566 m 9 X s 2005 566 m 9 X s 2014 566 m 9 X s 2023 566 m 9 X s 2032 566 m 8 X s 2040 566 m 1 X s black 3 lw 245 201 m 1796 X s 423 241 m -40 Y s
 461 221 m -20 Y s 499 221 m -20 Y s 537 221 m -20 Y s 575 221 m -20 Y s 613 241 m -40 Y s 651 221 m -20 Y s 689 221 m -20 Y s 727 221 m -20 Y s 765 221 m -20 Y s 803 241 m -40 Y s 841 221 m -20 Y s 879 221 m -20 Y s 917 221 m -20 Y s 955 221 m -20 Y
 s 993 241 m -40 Y s 1031 221 m -20 Y s 1069 221 m -20 Y s 1107 221 m -20 Y s 1145 221 m -20 Y s 1183 241 m -40 Y s 1221 221 m -20 Y s 1259 221 m -20 Y s 1297 221 m -20 Y s 1335 221 m -20 Y s 1373 241 m -40 Y s 1411 221 m -20 Y s 1449 221 m -20 Y s
 1487 221 m -20 Y s 1525 221 m -20 Y s 1563 241 m -40 Y s 1601 221 m -20 Y s 1639 221 m -20 Y s 1677 221 m -20 Y s 1715 221 m -20 Y s 1753 241 m -40 Y s 1791 221 m -20 Y s 1829 221 m -20 Y s 1866 221 m -20 Y s 1904 221 m -20 Y s 1942 241 m -40 Y s
 423 241 m -40 Y s 385 221 m -20 Y s 347 221 m -20 Y s 309 221 m -20 Y s 271 221 m -20 Y s 1942 241 m -40 Y s 1980 221 m -20 Y s 2018 221 m -20 Y s 245 201 m 1140 Y s 291 350 m -46 X s 268 406 m -23 X s 268 461 m -23 X s 268 516 m -23 X s 291 571 m
 -46 X s 268 626 m -23 X s 268 681 m -23 X s 268 736 m -23 X s 291 791 m -46 X s 268 846 m -23 X s 268 901 m -23 X s 268 956 m -23 X s 291 1011 m -46 X s 268 1066 m -23 X s 268 1121 m -23 X s 268 1176 m -23 X s 291 1231 m -46 X s 291 350 m -46 X s
 268 295 m -23 X s 268 240 m -23 X s 291 1231 m -46 X s 268 1286 m -23 X s 0.490196 0.545098 0.615686 c 1 1 1 c 0.490196 0.545098 0.615686 c 907 201 245 1341 bl 245 1341 m 907 X s 1152 1341 m 201 Y s 1152 1542 m -907 X s 245 1542 m -201 Y s black
 gsave  2268 1676 0 0 C 515.735 1471.36 t 0 r /Helvetica-Bold findfont 56.8825 sf 0 0 m (Signal efficiency) show NC gr  0 0 0.933333 c 9 lw 286 1492 m 190 X s black
 gsave  2268 1676 0 0 C 515.735 1368.97 t 0 r /Helvetica-Bold findfont 56.8825 sf 0 0 m (Background efficiency) show NC gr  1 0 0 c 286 1391 m 190 X s 0.490196 0.545098 0.615686 c 3 lw 1 1 1 c 0.490196 0.545098 0.615686 c 889 201 1152 1341 bl 1152
 1341 m 889 X s 2041 1341 m 201 Y s 2041 1542 m -889 X s 1152 1542 m -201 Y s black
 gsave  2268 1676 0 0 C 1418.27 1494.11 t 0 r /Helvetica-Bold findfont 56.8825 sf 0 0 m (Signal purity) show NC gr  0 0 0.933333 c[  52 12 ] 0 sd 6 lw 1192 1509 m 187 X s black
 gsave  2268 1676 0 0 C 1418.27 1429.65 t 0 r /Helvetica-Bold findfont 56.8825 sf 0 0 m (Signal efficiency*purity) show NC gr  0 0 0.933333 c[  22 12 ] 0 sd 1192 1441 m 187 X s black
 gsave  2268 1676 0 0 C 1501.7 1361.39 t 0 r /Helvetica-Bold findfont 56.8825 sf 0 0 m (S+B) show NC gr [  ] 0 sd 1483 1407 m 7 -49 d s 3 lw 1490 1358 m 8 64 d s 1498 1422 m 114 X s
 gsave  2268 1676 0 0 C 1418.27 1361.39 t 0 r /Helvetica-Bold findfont 56.8825 sf 0 0 m (S/) show NC gr  0 0.666667 0 c 9 lw 1192 1374 m 187 X s black 3 lw 245 1231 m 1796 X s
 gsave  2268 1676 0 0 C 337.503 386.801 t 0 r /Helvetica-Bold findfont 53.0904 sf 0 0 m (For 1000 signal and 1000 background) show NC gr 
 gsave  2268 1676 0 0 C 1058.01 318.542 t 0 r /Helvetica-Bold findfont 53.0904 sf 0 0 m ( is) show NC gr 
 gsave  2268 1676 0 0 C 955.626 318.542 t 0 r /Helvetica-Bold findfont 53.0904 sf 0 0 m (S+B) show NC gr  6 lw 933 360 m 7 -45 d s 3 lw 940 315 m 8 60 d s 948 375 m 110 X s
 gsave  2268 1676 0 0 C 337.503 318.542 t 0 r /Helvetica-Bold findfont 53.0904 sf 0 0 m (events the maximum S/) show NC gr 
 gsave  2268 1676 0 0 C 337.503 254.075 t 0 r /Helvetica-Bold findfont 53.0904 sf 0 0 m (26.91 when cutting at \2550.04) show NC gr  0.490196 0.545098 0.615686 c 0.364706 0.419608 0.490196 c 1471 96 23 1572 bf 0.490196 0.545098 0.615686 c 23 1572 m
 1471 X s 1494 1572 m 96 Y s 1494 1668 m -1471 X s 23 1668 m -96 Y s 1 1 1 c black 1 1 1 c
 gsave  2268 1676 0 0 C 75.8434 1600.29 t 0 r /Helvetica-Bold findfont 75.8434 sf 0 0 m (Cut efficiencies and optimal cut value) show NC gr  0 0.666667 0 c 2041 201 m 1140 Y s 1995 201 m 46 X s 2018 240 m 23 X s 2018 278 m 23 X s 2018 317 m 23 X s
 2018 355 m 23 X s 1995 394 m 46 X s 2018 432 m 23 X s 2018 471 m 23 X s 2018 509 m 23 X s 2018 548 m 23 X s 1995 586 m 46 X s 2018 625 m 23 X s 2018 663 m 23 X s 2018 702 m 23 X s 2018 740 m 23 X s 1995 779 m 46 X s 2018 817 m 23 X s 2018 856 m 23 X
 s 2018 894 m 23 X s 2018 933 m 23 X s 1995 971 m 46 X s 2018 1010 m 23 X s 2018 1048 m 23 X s 2018 1087 m 23 X s 2018 1125 m 23 X s 1995 1164 m 46 X s 1995 1164 m 46 X s 2018 1202 m 23 X s 2018 1241 m 23 X s 2018 1279 m 23 X s 2018 1318 m 23 X s
 black 0 0.666667 0 c
 gsave  2268 1676 0 0 C 2051.56 178.232 t 0 r /Helvetica-Bold findfont 64.4669 sf 0 0 m (0) show NC gr  black 0 0.666667 0 c
 gsave  2268 1676 0 0 C 2051.56 367.84 t 0 r /Helvetica-Bold findfont 64.4669 sf 0 0 m (5) show NC gr  black 0 0.666667 0 c
 gsave  2268 1676 0 0 C 2051.56 561.241 t 0 r /Helvetica-Bold findfont 64.4669 sf 0 0 m (10) show NC gr  black 0 0.666667 0 c
 gsave  2268 1676 0 0 C 2051.56 754.641 t 0 r /Helvetica-Bold findfont 64.4669 sf 0 0 m (15) show NC gr  black 0 0.666667 0 c
 gsave  2268 1676 0 0 C 2051.56 948.042 t 0 r /Helvetica-Bold findfont 64.4669 sf 0 0 m (20) show NC gr  black 0 0.666667 0 c
 gsave  2268 1676 0 0 C 2051.56 1137.65 t 0 r /Helvetica-Bold findfont 64.4669 sf 0 0 m (25) show NC gr  black 0 0.666667 0 c
 gsave  2268 1676 0 0 C 2203.25 963.211 t 90 r /Helvetica-Bold findfont 64.4669 sf 0 0 m (Significance) show NC gr 
 gr  gr showpage
end
%%EOF
