%!PS-Adobe-2.0 EPSF-2.0
%%BoundingBox:  0 0 567 419
%%Title: dataset/plots/mvaeffs_MLPBNN.eps: Cut efficiencies for MLPBNN classifier
%%Creator: ROOT Version 6.12/06
%%CreationDate: Mon May 21 12:04:07 2018
%%DocumentNeededResources: ProcSet (FontSetInit)
%%EndComments
%%BeginProlog
80 dict begin
/s {stroke} def /l {lineto} def /m {moveto} def /t {translate} def
/r {rotate} def /rl {roll}  def /R {repeat} def
/d {rlineto} def /rm {rmoveto} def /gr {grestore} def /f {eofill} def
/c {setrgbcolor} def /black {0 setgray} def /sd {setdash} def
/cl {closepath} def /sf {scalefont setfont} def /lw {setlinewidth} def
/box {m dup 0 exch d exch 0 d 0 exch neg d cl} def
/NC{systemdict begin initclip end}def/C{NC box clip newpath}def
/bl {box s} def /bf {gsave box gsave f grestore 1 lw [] 0 sd s grestore} def /Y { 0 exch d} def /X { 0 d} def 
/K {{pop pop 0 moveto} exch kshow} bind def
/ita {/ang 15 def gsave [1 0 ang dup sin exch cos div 1 0 0] concat} def 
/mp {newpath /y exch def /x exch def} def
/side {[w .77 mul w .23 mul] .385 w mul sd w 0 l currentpoint t -144 r} def
/mr {mp x y w2 0 360 arc} def /m24 {mr s} def /m20 {mr f} def
/mb {mp x y w2 add m w2 neg 0 d 0 w neg d w 0 d 0 w d cl} def
/mt {mp x y w2 add m w2 neg w neg d w 0 d cl} def
/w4 {w 4 div} def
/w6 {w 6 div} def
/w8 {w 8 div} def
/m21 {mb f} def /m25 {mb s} def /m22 {mt f} def /m26{mt s} def
/m23 {mp x y w2 sub m w2 w d w neg 0 d cl f} def
/m27 {mp x y w2 add m w3 neg w2 neg d w3 w2 neg d w3 w2 d cl s} def
/m28 {mp x w2 sub y w2 sub w3 add m w3 0 d  0 w3 neg d w3 0 d 0 w3 d w3 0 d  0 w3 d w3 neg 0 d 0 w3 d w3 neg 0 d 0 w3 neg d w3 neg 0 d cl s } def
/m29 {mp gsave x w2 sub y w2 add w3 sub m currentpoint t 4 {side} repeat cl fill gr} def
/m30 {mp gsave x w2 sub y w2 add w3 sub m currentpoint t 4 {side} repeat cl s gr} def
/m31 {mp x y w2 sub m 0 w d x w2 sub y m w 0 d x w2 sub y w2 add m w w neg d x w2 sub y w2 sub m w w d s} def
/m32 {mp x y w2 sub m w2 w d w neg 0 d cl s} def
/m33 {mp x y w2 add m w3 neg w2 neg d w3 w2 neg d w3 w2 d cl f} def
/m34 {mp x w2 sub y w2 sub w3 add m w3 0 d  0 w3 neg d w3 0 d 0 w3 d w3 0 d  0 w3 d w3 neg 0 d 0 w3 d w3 neg 0 d 0 w3 neg d w3 neg 0 d cl f } def
/m35 {mp x y w2 add m w2 neg w2 neg d w2 w2 neg d w2 w2 d w2 neg w2 d x y w2 sub m 0 w d x w2 sub y m w 0 d s} def
/m36 {mb x w2 sub y w2 add m w w neg d x w2 sub y w2 sub m w w d s} def
/m37 {mp x y m w4 neg w2 d w4 neg w2 neg d w2 0 d  w4 neg w2 neg d w2 0 d w4 neg w2 d w2 0 d w4 neg w2 d w4 neg w2 neg d cl s} def
/m38 {mp x w4 sub y w2 add m w4 neg w4 neg d 0 w2 neg d w4 w4 neg d w2 0 d w4 w4 d 0 w2 d w4 neg w4 d w2 neg 0 d x y w2 sub m 0 w d x w2 sub y m w 0 d cl s} def
/m39 {mp x y m w4 neg w2 d w4 neg w2 neg d w2 0 d  w4 neg w2 neg d w2 0 d w4 neg w2 d w2 0 d w4 neg w2 d w4 neg w2 neg d cl f} def
/m40 {mp x y m w4 w2 d w4 w4 neg d w2 neg w4 neg d w2 w4 neg d w4 neg w4 neg d w4 neg w2 d w4 neg w2 neg d w4 neg w4 d w2 w4 d w2 neg w4 d w4 w4 d w4 w2 neg d cl s} def
/m41 {mp x y m w4 w2 d w4 w4 neg d w2 neg w4 neg d w2 w4 neg d w4 neg w4 neg d w4 neg w2 d w4 neg w2 neg d w4 neg w4 d w2 w4 d w2 neg w4 d w4 w4 d w4 w2 neg d cl f} def
/m42 {mp x y w2 add m w8 neg w2 -3 4 div mul d w2 -3 4 div mul w8 neg d w2 3 4 div mul w8 neg d w8 w2 -3 4 div mul d w8 w2 3 4 div mul d w2 3 4 div mul w8 d w2 -3 4 div mul w8 d w8 neg w2 3 4 div mul d cl s} def
/m43 {mp x y w2 add m w8 neg w2 -3 4 div mul d w2 -3 4 div mul w8 neg d w2 3 4 div mul w8 neg d w8 w2 -3 4 div mul d w8 w2 3 4 div mul d w2 3 4 div mul w8 d w2 -3 4 div mul w8 d w8 neg w2 3 4 div mul d cl f} def
/m44 {mp x y m w6 neg w2 d w2 2 3 div mul 0 d w6 neg w2 neg d w2 w6 d 0 w2 -2 3 div mul d w2 neg w6 d w6 w2 neg d w2 -2 3 div mul 0 d w6 w2 d w2 neg w6 neg d 0 w2 2 3 div mul d w2 w6 neg d cl s} def
/m45 {mp x y m w6 neg w2 d w2 2 3 div mul 0 d w6 neg w2 neg d w2 w6 d 0 w2 -2 3 div mul d w2 neg w6 d w6 w2 neg d w2 -2 3 div mul 0 d w6 w2 d w2 neg w6 neg d 0 w2 2 3 div mul d w2 w6 neg d cl f} def
/m46 {mp x y w4 add m w4 neg w4 d w4 neg w4 neg d  w4 w4 neg d w4 neg w4 neg d w4 w4 neg d w4 w4 d w4 w4 neg d w4 w4 d w4 neg w4 d w4 w4 d w4 neg w4 d w4 neg w4 neg d cl s} def
/m47 {mp x y w4 add m w4 neg w4 d w4 neg w4 neg d w4 w4 neg d w4 neg w4 neg d  w4 w4 neg d w4 w4 d w4 w4 neg d w4 w4 d w4 neg w4 d w4 w4 d w4 neg w4 d w4 neg w4 neg d cl f} def
/m48 {mp x y w4 add m w4 neg w4 d w4 neg w4 neg d w4 w4 neg d  w4 neg w4 neg d w4 w4 neg d w4 w4 d w4 w4 neg d w4 w4 d w4 neg w4 d w4 w4 d w4 neg w4 d w4 neg w4 neg d  w4 w4 neg d w4 neg w4 neg d w4 neg w4 d w4 w4 d cl f} def
/m49 {mp x w2 sub w3 add y w2 sub w3 add m  0 w3 neg d w3 0 d 0 w3 d w3 0 d 0 w3 d w3 neg 0 d 0 w3 d w3 neg 0 d 0 w3 neg d w3 neg 0 d 0 w3 neg d w3 0 d 0 w3 d w3 0 d 0 w3 neg d w3 neg 0 d cl f } def
/m2 {mp x y w2 sub m 0 w d x w2 sub y m w 0 d s} def
/m5 {mp x w2 sub y w2 sub m w w d x w2 sub y w2 add m w w neg d s} def
%%IncludeResource: ProcSet (FontSetInit)
%%IncludeResource: font Times-Roman
%%IncludeResource: font Times-Italic
%%IncludeResource: font Times-Bold
%%IncludeResource: font Times-BoldItalic
%%IncludeResource: font Helvetica
%%IncludeResource: font Helvetica-Oblique
%%IncludeResource: font Helvetica-Bold
%%IncludeResource: font Helvetica-BoldOblique
%%IncludeResource: font Courier
%%IncludeResource: font Courier-Oblique
%%IncludeResource: font Courier-Bold
%%IncludeResource: font Courier-BoldOblique
%%IncludeResource: font Symbol
%%IncludeResource: font ZapfDingbats
/reEncode {exch findfont dup length dict begin {1 index /FID eq  {pop pop} {def} ifelse } forall /Encoding exch def currentdict end dup /FontName get exch definefont pop } def [/Times-Bold /Times-Italic /Times-BoldItalic /Helvetica /Helvetica-Oblique
 /Helvetica-Bold /Helvetica-BoldOblique /Courier /Courier-Oblique /Courier-Bold /Courier-BoldOblique /Times-Roman /AvantGarde-Book /AvantGarde-BookOblique /AvantGarde-Demi /AvantGarde-DemiOblique /Bookman-Demi /Bookman-DemiItalic /Bookman-Light
 /Bookman-LightItalic /Helvetica-Narrow /Helvetica-Narrow-Bold /Helvetica-Narrow-BoldOblique /Helvetica-Narrow-Oblique /NewCenturySchlbk-Roman /NewCenturySchlbk-Bold /NewCenturySchlbk-BoldItalic /NewCenturySchlbk-Italic /Palatino-Bold
 /Palatino-BoldItalic /Palatino-Italic /Palatino-Roman ] {ISOLatin1Encoding reEncode } forall
%%EndProlog
%%BeginSetup
%%EndSetup
newpath  gsave  .25 .25 scale  gsave  0 0 t 0.490196 0.545098 0.615686 c[  ] 0 sd 3 lw 0.941176 0.941176 0.941176 c 2268 1676 0 0 bf black 1 1 0.992157 c 1796 1140 245 201 bf black 1796 1140 245 201 bl 1 1 0.992157 c 1796 1140 245 201 bf black 1796
 1140 245 201 bl 245 201 m 1796 X s[ 4 8] 0 sd 422 1341 m -1140 Y s 602 1341 m -1140 Y s 782 1341 m -1140 Y s 962 1341 m -1140 Y s 1141 1341 m -1140 Y s 1321 1341 m -1140 Y s 1501 1341 m -1140 Y s 1681 1341 m -1140 Y s 1861 1341 m -1140 Y s 2041 1341
 m -1140 Y s 422 1341 m -1140 Y s 2041 1341 m -1140 Y s[  ] 0 sd 245 201 m 1140 Y s[ 4 8] 0 sd 2041 305 m -1796 X s 2041 420 m -1796 X s 2041 535 m -1796 X s 2041 650 m -1796 X s 2041 765 m -1796 X s 2041 881 m -1796 X s 2041 996 m -1796 X s 2041
 1111 m -1796 X s 2041 1226 m -1796 X s 2041 1341 m -1796 X s 2041 305 m -1796 X s 0 0 0.933333 c[  22 12 ] 0 sd 6 lw 0.49 0.6 0.82 c black 0 0 0.933333 c 245 650 m 2 Y 1 2 d 8 Y 1 3 d 9 Y 1 2 d 16 Y 1 3 d 14 Y 1 3 d 8 Y 1 2 d 9 Y 1 2 d 7 Y 1 1 d 6 Y
 1 1 d 1 Y s 254 749 m 3 Y 1 1 d 4 Y 1 1 d 3 Y 1 2 d 2 Y 1 1 d 3 Y 1 X 2 Y 1 X 2 Y 1 1 d 1 Y 1 1 d 1 Y 1 1 d s 263 778 m 2 Y 1 X 1 Y 1 X 2 Y 1 X 1 Y 1 X 1 Y 1 1 d 1 Y 1 X 1 Y -1 Y 1 Y 1 X 1 Y 1 X 1 Y s 271 790 m 1 X 1 Y 1 X 1 Y 1 X 1 Y 1 X 1 1 d 1 X
 1 Y 1 X 1 1 d 1 X s 280 796 m 2 X 1 Y 3 X 1 Y 3 X 1 Y 1 X s 289 799 m 3 X 1 Y 3 X 1 Y 3 X s 298 801 m 1 X 1 Y 4 X 1 Y 4 X s 307 803 m 1 1 d 7 X s 315 804 m 3 X 1 Y 5 X 1 Y 1 X s 324 806 m 6 X 1 Y -1 Y 1 X 1 Y 1 X 1 -1 d s 333 806 m 1 X 1 Y 5 X 1 1 d
 2 X s 342 808 m 9 X s 351 808 m 8 X s 359 808 m 3 X 1 Y 6 X s 368 809 m 6 X 1 Y 1 X -1 Y 2 X 1 Y s 377 810 m 9 X s 386 810 m 8 X 1 Y 1 X s 395 811 m 8 X s 403 811 m 9 X s 412 811 m 9 X s 421 811 m 2 X 1 Y 7 X s 430 812 m 9 X s 439 812 m 8 X s 447
 812 m 7 X 1 Y 2 X s 456 813 m 9 X s 465 813 m 1 X -1 Y 1 1 d 1 X -1 Y 6 X s 474 812 m 6 X 1 Y 2 X -1 Y 1 X s 483 812 m 8 X 1 Y s 491 813 m 5 X -1 Y 1 Y 4 X s 500 813 m 9 X s 509 813 m 9 X s 518 813 m 9 X s 527 813 m 8 X -1 Y s 535 812 m 1 X 1 Y 8 X
 s 544 813 m 7 X -1 Y 2 X s 553 812 m 9 X s 562 812 m 9 X s 571 812 m 2 X -1 Y 1 X 1 Y 1 -1 d 1 Y 2 X -1 Y 2 X s 579 811 m 7 X -1 Y 1 X 1 Y 1 X s 588 811 m -1 Y 1 X 1 Y 7 X 1 -1 d s 597 810 m 4 X -1 Y 5 X s 606 809 m -1 Y 1 X 1 Y 8 X s 615 809 m 6 X
 -1 Y 2 X s 623 808 m 1 X -1 Y 2 X 1 1 d -1 Y 1 X 1 Y -1 Y 2 X -1 Y 1 Y 2 X -1 Y s 632 806 m 1 X 1 Y 6 X -1 Y 1 X 1 1 d s 641 807 m -1 Y 4 X -1 Y 1 X 1 Y 1 X -1 Y 2 X 1 Y 1 X s 650 806 m -1 Y 2 X 1 1 d -1 Y 4 X -1 Y 1 Y 2 X s 659 805 m 1 X 1 -1 d 1 1
 d 2 X 1 -1 d 2 X s 667 804 m 3 X -1 Y 6 X s 676 803 m 2 X -1 Y 1 1 d -1 Y 1 Y -1 Y 4 X 1 Y -1 Y 1 X 1 -1 d s 685 801 m 6 X -1 Y 2 X -1 Y 1 X s 694 799 m 2 X -1 Y 1 Y 7 X s 703 799 m 1 1 d 5 X 1 Y 2 X s 711 801 m 1 X -1 Y 1 1 d -1 Y 1 1 d 3 X 1 Y 1 X
 -1 Y 1 1 d 1 X -1 Y 1 Y -1 Y s 720 801 m 1 X 1 Y 3 X 1 Y 3 X 1 1 d 1 X s 729 804 m 3 X 1 Y -1 Y 1 X 1 Y 1 X 1 Y 2 X 1 Y 2 X s 738 807 m 1 X 1 Y 1 X 1 Y 1 X 1 Y 3 X 1 Y 1 X 1 Y 1 -1 d 1 Y 1 X s 747 812 m 1 Y 2 X -1 Y 1 X 1 Y -1 Y 3 X 1 Y 1 X 1 Y 1 X
 -1 Y 1 Y s 755 814 m 1 X -1 Y 1 X 2 Y 3 X 1 Y 1 X -1 Y 1 X 2 Y 1 -1 d 1 Y 1 X s 764 817 m 1 X 1 Y 2 X 1 1 d -1 Y 1 Y -1 Y 1 1 d 1 Y 2 X 1 1 d 1 X s 773 821 m 1 1 d -1 Y 1 Y 1 X 1 Y 1 X 1 Y 3 X 1 1 d 1 X 1 1 d s 782 826 m 1 X 1 1 d 1 1 d 1 1 d -1 Y 1
 Y 1 -1 d 1 Y 1 X 1 Y -1 Y 1 Y 1 X 1 Y 2 X s 791 831 m 1 Y 2 X 1 1 d 2 X 1 Y 2 X 1 Y 1 X s 799 835 m 1 X 1 Y -1 Y 1 Y 1 X 1 Y 1 X -1 Y 1 Y 1 X 1 -1 d 1 Y 1 X 1 1 d -1 Y 1 Y 1 X 1 Y 1 X s 808 839 m 1 X 1 Y -1 Y 1 X 1 Y -1 Y 1 1 d 4 X 1 Y 2 X s 817 841
 m -1 Y 1 Y 1 X -1 Y 1 Y 4 X 1 Y 2 X 1 Y 1 X -1 Y 1 1 d s 826 843 m 3 X 1 Y 3 X -1 Y 2 X 1 Y 1 X s 835 844 m 1 X 1 Y 2 X 1 Y 2 X 1 Y -1 Y 1 X 1 Y 1 X 1 Y 1 X s 843 848 m 1 X 1 Y 2 X 1 Y 2 X 1 Y 2 X 1 Y 1 X 1 Y 1 X -1 Y 1 Y s 852 853 m 1 X 1 1 d 1 X 1
 Y 3 X 1 Y -1 Y 1 Y 3 X 1 Y s 861 857 m 1 X 1 Y 1 X 1 1 d -1 Y 1 Y 4 X 1 Y 1 X 1 Y 1 X s 870 861 m 1 X -1 Y 1 1 d 1 X -1 Y 1 Y 1 X 1 Y 2 X 1 Y -1 Y 2 X 1 Y 1 X s 879 863 m 1 X 1 Y 1 X -1 Y 1 Y 2 X 1 Y 2 X -1 Y 2 X s 887 864 m 1 X 1 Y 1 X -1 Y 1 1 d
 -1 Y 1 Y -1 Y 2 X 1 Y 2 X 1 Y -1 Y 1 Y 1 X -1 Y 1 X s 896 865 m 1 X 1 Y 1 X 1 Y 4 X 1 Y 3 X s 905 868 m 1 Y 3 X 1 Y 4 X 1 Y 2 X s 914 871 m 1 1 d -1 Y 1 Y 2 X -1 Y 1 Y 1 X -1 Y 1 X 1 Y 1 X -1 Y 2 X 1 Y 1 X s 923 872 m 2 X 1 Y 6 X s 931 873 m 3 X -1
 Y 1 X 1 Y -1 Y 1 X 1 Y -1 Y 1 Y 1 X -1 Y 1 X 1 Y -1 Y 1 1 d -1 Y 1 Y 1 -1 d 1 Y s 940 873 m 3 X 1 -1 d 1 Y 1 X 1 Y 3 X 1 1 d s 949 875 m 1 X 1 Y 4 X 1 Y 3 X 1 Y 1 X s 958 878 m 1 -1 d 2 X -1 Y 4 X 1 Y 1 X -1 Y 1 Y 1 X s 967 877 m 1 X -1 Y 1 1 d 1 X
 -1 Y 1 1 d 1 X 1 Y -1 Y 1 X 1 Y -1 Y 1 X 1 Y 1 X -1 Y s 975 877 m 2 X 1 Y -1 Y 1 X 1 Y 1 -1 d 1 X 1 1 d -1 Y 1 X 1 Y 1 -1 d 1 X s 984 877 m 1 1 d -1 Y 3 X -1 Y 1 1 d -1 Y 2 X 1 Y 2 X s 993 877 m -1 Y 1 X 1 Y 1 X -1 Y 1 Y 1 -1 d 1 Y 1 -1 d 1 X 1 Y -1
 Y 1 Y 3 X -1 Y 1 1 d s 1002 877 m 4 X -1 Y 1 Y 2 X -1 Y 1 Y 2 X -1 Y 1 X s 1011 876 m 1 X 1 Y 1 X -1 Y 1 X 1 Y 1 X 1 Y 2 X -1 Y 1 X -1 Y 1 X 1 Y -1 Y s 1019 876 m 2 X 1 Y 2 X -1 Y 2 X -1 Y 1 X 1 Y 1 -1 d 1 X s 1028 875 m 1 -1 d 2 X -1 Y 1 Y 1 X -1 Y
 1 Y 2 X 1 Y -1 Y 1 X 1 Y 1 X -1 Y 1 X s 1037 874 m 5 X 1 1 d -1 Y 3 X s 1046 874 m 3 X -1 Y 1 1 d 3 X -1 Y 1 Y 2 X s 1055 874 m 5 X -1 Y 3 X s 1063 873 m 6 X -1 Y 1 X 1 Y -1 Y 1 X 1 Y -1 Y 1 X s 1072 872 m 1 X 1 -1 d 1 Y 2 X 1 Y 1 -1 d 1 Y 1 X -1 Y
 2 X 1 Y 1 X s 1081 873 m 5 X 1 -1 d 1 -1 d 1 Y 2 X s 1090 872 m 2 X 1 Y 1 X -1 Y 2 X -1 Y 1 1 d -1 Y 3 X s 1099 871 m 7 X -1 Y 1 X 1 Y -1 Y s 1107 870 m 1 X 1 Y -1 Y 1 Y 1 X -1 Y 1 Y 3 X -1 Y 2 X 1 Y 2 X -1 Y s 1116 870 m 1 X 1 Y 4 X 1 -1 d 1 Y -1 Y
 1 1 d 1 X 1 Y 1 -1 d s 1125 871 m 1 X -1 Y 1 X -1 Y 5 X -1 Y 1 1 d 1 -1 d 1 Y s 1134 869 m 1 X -1 Y 1 Y 6 X -1 Y 1 1 d 1 X s 1143 869 m -1 Y 1 X 1 Y 7 X s 1151 869 m 3 X -1 Y 4 X 1 -1 d 1 X 1 Y s 1160 868 m 1 -1 d 1 Y 1 X 1 -1 d 2 X -1 Y 1 1 d -1 Y
 1 Y 1 X -1 Y 1 X -1 Y 1 X s 1169 865 m 4 X -1 Y 4 X -1 Y 1 X s 1178 863 m 1 Y 3 X -1 Y 3 X -1 Y 2 X -1 Y 1 X s 1187 861 m 5 X -1 Y 3 X -1 Y s 1195 859 m 1 X 1 Y 1 X -1 Y 2 X 1 -1 d 4 X s 1204 858 m 5 X -1 Y 2 X -1 Y 1 X 1 Y 1 X s 1213 857 m 2 X -1 Y
 1 1 d -1 Y 1 Y 1 -1 d 1 Y 2 X 1 -1 d 1 Y -1 Y 2 X s 1222 856 m 1 X 1 -1 d 5 X -1 Y 2 X s 1231 854 m 1 Y -1 Y 4 X -1 Y 4 X s 1239 853 m 1 X -1 Y 6 X -1 Y 2 X -1 Y s 1248 850 m 1 Y 1 X 1 -1 d 5 X -1 Y 2 X 1 Y -1 Y s 1257 849 m 1 X -1 Y 1 Y 1 X -1 Y 1
 Y -1 Y 5 X -1 Y 1 X 1 1 d s 1266 848 m -1 Y 2 X -1 Y 1 Y 2 X -1 Y 3 X -1 Y 2 X s 1275 845 m -1 Y 2 X -1 Y 1 X 1 -1 d 3 X -1 Y 1 X -1 Y s 1283 840 m 6 X -1 Y 1 Y 1 X -1 Y 1 Y 2 X -1 Y s 1292 839 m 1 X 1 -1 d 1 X -1 Y 6 X s 1301 837 m 2 X -1 Y 1 X 1 Y
 1 X -1 Y 4 X -1 Y 1 X s 1310 835 m -1 Y 6 X -1 Y 1 X -1 Y 2 X s 1319 832 m 1 X -1 Y 1 X -1 Y 6 X s 1327 830 m 2 X -1 Y 1 X 1 -1 d -1 Y 1 Y 1 -1 d 1 X -1 Y 3 X s 1336 826 m 2 X -1 Y 1 Y 1 X -1 Y 1 X 1 -1 d 1 X -1 Y 1 -1 d 1 X -1 Y 1 X s 1345 821 m 1
 X -1 Y 1 X -1 Y 3 X -1 Y 2 X -1 Y 2 X s 1354 817 m 1 X -1 Y 8 X s 1363 816 m -1 Y 1 X -1 Y 1 X 1 Y 2 X -1 Y 1 X -1 Y 1 X 1 Y -1 Y 2 X s 1371 813 m 2 X 1 -1 d 4 X -1 Y 1 X -1 Y 1 X s 1380 810 m 6 X -1 Y 3 X s 1389 809 m -1 Y 1 X 1 -1 d 2 X -1 Y 5 X s
 1398 806 m -1 Y 4 X -1 Y 1 X -1 Y 2 X -1 Y 1 Y 1 X -1 Y 1 X s 1407 802 m 2 X -1 Y 4 X -1 Y 2 X -1 Y s 1415 799 m 2 X 1 Y -1 Y 2 X -1 Y 1 X 1 Y 1 X -1 Y 1 X -1 Y 1 1 d 1 X -1 Y s 1424 797 m 4 X 1 Y 1 X -1 Y 1 X -1 Y 3 X -1 Y s 1433 795 m 1 -1 d 1 Y 2
 X -1 Y 1 X -1 Y 2 X -1 Y 1 Y 1 -1 d 1 Y 1 X -1 Y 1 X s 1442 792 m -1 Y 5 X -1 Y 1 X -1 Y 1 X 1 Y 1 X -1 Y 1 -1 d s 1451 788 m 1 X -1 Y 3 X -1 Y 1 X -1 Y 1 X -1 Y 2 X -1 Y s 1459 783 m 2 X -1 Y 1 1 d -1 Y 4 X -1 Y 2 X -1 Y s 1468 780 m 2 X -1 Y 2 X
 -1 Y 1 X 1 Y 1 X 1 -1 d 1 -1 d 1 X s 1477 777 m 1 X -1 Y 1 X -1 Y 1 X 1 Y -1 Y 2 X 1 Y 1 X -1 Y 3 X s 1486 775 m 1 X -1 Y 2 X -1 Y 2 X -1 Y 2 X -1 Y 1 X 1 -1 d s 1495 770 m 1 Y 1 X -1 Y 1 Y 1 X -1 Y 1 X -1 Y 2 X -1 Y 2 X -1 Y 1 X s 1503 767 m 1 X -1
 Y 3 X -1 Y 1 -1 d 1 X 1 1 d -1 Y 1 Y -1 Y 2 X s 1512 764 m 1 X -1 Y 2 X -1 Y 1 -1 d -1 Y 1 1 d -1 Y 1 X -1 Y 3 X -1 Y s 1521 758 m 4 X -1 Y 2 X -1 Y 1 Y -1 Y 1 Y 1 X -2 Y 2 X -1 Y s 1530 754 m 2 X -1 Y 1 X -1 Y 3 X -1 Y 1 X -1 Y 2 X -1 Y s 1539 749
 m 1 X -1 Y 4 X -1 Y 1 X -1 Y 2 X s 1547 746 m 3 X -1 Y 1 X -1 Y 2 X -1 Y 1 Y 1 -1 d 1 X -1 Y 1 X s 1556 742 m 1 X -1 Y 1 X -1 Y 3 X -1 Y 2 X -1 Y 1 X -1 Y 1 X s 1565 737 m 1 X -1 Y 2 X -1 Y 1 X -1 Y 4 X -1 Y 1 X s 1574 733 m 1 Y 1 -1 d 1 X -1 Y 1 X
 -1 Y 1 Y 1 -1 d 2 X 1 Y -1 Y 1 X 1 -1 d 1 X -1 Y s 1583 729 m 1 X -1 Y 1 X -1 Y 2 X 1 -1 d 1 X -1 Y 1 Y 2 X s 1591 726 m 1 -1 d 1 X -1 Y 2 X -1 Y 1 X -1 Y 1 X 1 Y -1 Y 3 X -1 Y s 1600 721 m 1 X -1 Y 1 X -1 Y 2 X -1 Y 1 X -1 Y 2 X -2 Y 1 X -1 Y 1 X
 -1 Y s 1609 713 m 1 X -1 Y 1 X -1 Y 3 X -1 Y 4 X -1 Y s 1618 709 m 1 -1 d 1 X -1 Y 2 X 1 -1 d -1 Y 1 X -1 Y 2 X -1 Y 1 X s 1627 703 m 1 Y 2 X -1 Y 1 X -1 Y 1 X 1 Y 1 -1 d -1 Y 2 X -1 Y 1 X -1 Y s 1635 699 m 1 X -1 Y 1 X -1 Y 2 X -1 Y 3 X -1 Y 2 X s
 1644 695 m 2 X -1 Y 2 X -1 Y 1 X -1 Y 2 X -1 Y 1 X -1 Y 1 X s 1653 690 m 1 X -1 Y 3 X 1 -1 d 1 X -1 Y 1 X -1 Y 1 X -1 Y 1 Y 1 -1 d s 1662 685 m 1 X -1 Y 2 X -1 Y 1 X -1 Y 1 X 1 -1 d 1 X 1 -1 d 1 Y -1 Y 1 -1 d s 1671 679 m -1 Y 1 X -2 Y 2 X -1 Y 1 -1
 d 3 X -1 Y 1 X -1 Y s 1679 672 m 2 X -1 Y 2 X -1 Y 1 X -1 Y 1 Y 1 X -1 Y 2 X -1 Y 1 X -1 Y s 1688 667 m 1 Y 1 X -1 Y 2 X -1 Y 1 X -1 Y 1 X 1 Y 1 X -1 Y 1 X -1 Y 2 X s 1697 664 m 1 X -1 Y 1 Y -1 Y 1 X -1 Y 1 X -1 Y 1 X -1 Y 1 X -1 Y 2 X 1 Y -1 Y 2 X
 s 1706 659 m -1 Y 2 X -1 Y 1 X -1 Y 2 X -1 Y 1 X 1 -1 d -1 Y 1 1 d -1 Y 1 X -1 Y s 1715 652 m 1 X -1 Y 2 X -1 Y 3 X -1 Y 1 X -1 Y 1 X -1 Y s 1723 647 m 2 X 1 -1 d 1 X -1 Y 1 X 1 -1 d 1 X 1 -1 d 1 X s 1732 643 m 2 X -1 Y 1 X -1 Y 2 X -1 Y 1 X -1 Y 2
 X -1 Y 1 X s 1741 638 m 1 X -1 Y 1 X -1 Y 2 X -1 Y 2 X -1 Y 1 X -1 Y 1 X -1 Y 1 X s 1750 632 m 1 X 1 -1 d -1 Y 2 X -1 Y 1 X -2 Y 1 Y 1 X -1 Y 1 X 1 -1 d 1 X s 1759 626 m 1 X -1 Y 1 X -1 Y 2 X -1 Y 1 X -1 Y 1 X -1 Y 1 X 1 Y 1 X -1 Y 1 Y s 1767 622 m
 1 X -1 Y 2 X -1 Y 1 X 1 -1 d 1 X -1 Y 1 X -1 Y 1 -1 d 1 X -1 Y s 1776 615 m 2 X -1 Y 1 Y 1 -1 d 1 X -1 Y 1 1 d -1 Y 2 X -1 Y 2 X -1 Y s 1785 611 m -1 Y 3 X -1 Y 1 -1 d -1 Y 2 X -2 Y 1 X -1 Y 2 X s 1794 604 m -1 Y 1 X 1 -1 d 1 X -1 Y 1 X -1 Y 2 X -1
 Y 1 X -1 Y 2 X s 1803 598 m -1 Y 2 X -1 Y 2 X -1 Y 2 X -1 Y 3 X s 1812 594 m -1 Y 1 X -1 Y 1 X -2 Y 2 X 1 -1 d 2 X -1 Y 1 X s 1820 588 m 1 X -1 Y 1 -1 d 1 X -1 Y 1 X -1 Y 1 -1 d 1 -1 d 1 X -1 Y 1 X -1 Y 1 X s 1829 580 m 1 X -1 Y 1 X 1 -1 d 1 -1 d 1
 X -1 Y 1 1 d -1 Y 1 -1 d 1 X -1 Y 1 Y 1 X s 1838 575 m -1 Y 1 X -1 Y 1 X -1 Y 2 X -1 Y 2 X -1 Y 1 X -1 Y 1 X 1 -1 d s 1847 568 m 1 -1 d 1 X 1 -1 d 1 X 1 -1 d 1 X -1 Y 1 X -1 Y 2 X s 1856 563 m -1 Y 1 X -1 Y 1 X -1 Y 2 X -1 Y 2 X -1 Y 1 X -1 Y 1 X -1
 Y s 1864 556 m 2 X -1 Y 2 X -2 Y 3 X -1 Y 1 X -1 Y 1 X s 1873 551 m 1 X -1 Y 2 X -1 Y 1 X 1 -1 d 1 -1 d 1 -1 d -1 Y 2 X -1 Y s 1882 544 m 1 X -1 Y 2 X -1 Y 2 X -1 Y 2 X -1 Y 2 X s 1891 540 m 1 X -1 Y 2 X -1 Y 1 X -1 Y 1 X -2 Y 1 X -2 Y 2 X -1 Y 1 X
 s 1900 532 m -2 Y 1 X 1 -1 d 1 X -1 Y 1 X -1 Y 2 X -1 Y 2 X s 1908 526 m -1 Y 2 X -1 Y 1 -1 d -1 Y 2 X -1 Y 1 X -1 Y 2 X -1 Y 1 X -1 Y s 1917 518 m 1 X -1 Y 1 X -1 Y 1 X -1 Y 1 -1 d -1 Y 1 X -1 Y 1 -1 d 1 X -1 Y 2 X s 1926 510 m 1 -1 d 1 X -1 Y 1 -1
 d 1 -1 d 1 X -2 Y 1 X 1 -1 d -1 Y 1 -1 d 1 X -1 Y s 1935 500 m 1 X -1 Y 1 X -1 Y 1 X 1 -1 d 1 X -1 Y 1 X 1 -1 d 1 X 1 -1 d s 1944 494 m 1 X -1 Y 2 X -1 Y 2 X -2 Y 1 X 1 -1 d -1 Y 1 X -1 Y s 1952 487 m 1 X -1 Y 1 X -1 Y 1 X -1 Y 1 X -1 Y 1 X -1 Y 1 X
 1 -1 d -1 Y 1 X -1 Y 1 X s 1961 479 m -1 Y 1 X -1 Y 1 X -2 Y 1 X -1 Y 1 X -1 Y 1 -1 d -2 Y 1 X -2 Y 1 X -1 Y 1 X -1 Y 1 X s 1970 466 m -1 Y 1 X -1 Y 1 X -1 Y 1 -1 d -1 Y 1 X -1 Y 1 X -2 Y 2 X -3 Y 1 X -2 Y 1 -1 d s 1979 452 m 1 X -1 Y 1 -1 d 1 X -1
 Y 1 X -1 Y 1 -1 d 1 -1 d 1 -1 d -2 Y 1 X -1 Y 1 X s 1988 442 m -1 Y 1 X -1 Y 1 X -1 Y 1 X -1 Y 1 X 1 -1 d 1 -1 d -1 Y 1 X -2 Y 1 X -2 Y s 1996 431 m 1 X -2 Y 1 X -1 Y 1 X -2 Y 2 X -2 Y 1 X -1 Y 1 X -1 Y 1 -1 d -1 Y 1 X s 2005 420 m -1 Y 1 X -2 Y 1 X
 -2 Y 1 X -2 Y 1 X -1 Y 1 -1 d 1 X -2 Y 1 X -1 Y 1 X -3 Y 1 X s 2014 405 m -1 Y 1 -1 d 1 X -2 Y 1 X -2 Y 1 -1 d -3 Y 1 X -1 Y 1 -1 d -2 Y 1 X -3 Y 1 X -2 Y 1 X -1 Y s 2023 385 m -3 Y 1 X -2 Y 1 -1 d -2 Y 1 -1 d -3 Y 1 X -1 Y 1 -1 d -3 Y 1 X -2 Y 1 -1
 d -2 Y 1 -1 d -2 Y 1 -1 d s 2032 359 m -3 Y 1 X -3 Y 1 -1 d -4 Y 1 X -5 Y 1 -2 d -2 Y 1 X -9 Y 1 -1 d -5 Y 1 -1 d -11 Y 1 -3 d -15 Y s 2040 294 m -8 Y 1 -12 d -19 Y s black[  ] 0 sd 3 lw 245 201 m 1796 X s 422 241 m -40 Y s 458 221 m -20 Y s 494 221
 m -20 Y s 530 221 m -20 Y s 566 221 m -20 Y s 602 241 m -40 Y s 638 221 m -20 Y s 674 221 m -20 Y s 710 221 m -20 Y s 746 221 m -20 Y s 782 241 m -40 Y s 818 221 m -20 Y s 854 221 m -20 Y s 890 221 m -20 Y s 926 221 m -20 Y s 962 241 m -40 Y s 997
 221 m -20 Y s 1033 221 m -20 Y s 1069 221 m -20 Y s 1105 221 m -20 Y s 1141 241 m -40 Y s 1177 221 m -20 Y s 1213 221 m -20 Y s 1249 221 m -20 Y s 1285 221 m -20 Y s 1321 241 m -40 Y s 1357 221 m -20 Y s 1393 221 m -20 Y s 1429 221 m -20 Y s 1465
 221 m -20 Y s 1501 241 m -40 Y s 1537 221 m -20 Y s 1573 221 m -20 Y s 1609 221 m -20 Y s 1645 221 m -20 Y s 1681 241 m -40 Y s 1717 221 m -20 Y s 1753 221 m -20 Y s 1789 221 m -20 Y s 1825 221 m -20 Y s 1861 241 m -40 Y s 1897 221 m -20 Y s 1933
 221 m -20 Y s 1969 221 m -20 Y s 2005 221 m -20 Y s 2041 241 m -40 Y s 422 241 m -40 Y s 386 221 m -20 Y s 350 221 m -20 Y s 314 221 m -20 Y s 278 221 m -20 Y s 2041 241 m -40 Y s
 gsave  2268 1676 0 0 C 379.217 128.934 t 0 r /Helvetica-Bold findfont 64.4669 sf 0 0 m (0.1) show NC gr 
 gsave  2268 1676 0 0 C 553.657 128.934 t 0 r /Helvetica-Bold findfont 64.4669 sf 0 0 m (0.2) show NC gr 
 gsave  2268 1676 0 0 C 735.681 128.934 t 0 r /Helvetica-Bold findfont 64.4669 sf 0 0 m (0.3) show NC gr 
 gsave  2268 1676 0 0 C 913.913 128.934 t 0 r /Helvetica-Bold findfont 64.4669 sf 0 0 m (0.4) show NC gr 
 gsave  2268 1676 0 0 C 1092.14 128.934 t 0 r /Helvetica-Bold findfont 64.4669 sf 0 0 m (0.5) show NC gr 
 gsave  2268 1676 0 0 C 1274.17 128.934 t 0 r /Helvetica-Bold findfont 64.4669 sf 0 0 m (0.6) show NC gr 
 gsave  2268 1676 0 0 C 1452.4 128.934 t 0 r /Helvetica-Bold findfont 64.4669 sf 0 0 m (0.7) show NC gr 
 gsave  2268 1676 0 0 C 1634.42 128.934 t 0 r /Helvetica-Bold findfont 64.4669 sf 0 0 m (0.8) show NC gr 
 gsave  2268 1676 0 0 C 1812.66 128.934 t 0 r /Helvetica-Bold findfont 64.4669 sf 0 0 m (0.9) show NC gr 
 gsave  2268 1676 0 0 C 2025.02 128.934 t 0 r /Helvetica-Bold findfont 64.4669 sf 0 0 m (1) show NC gr 
 gsave  2268 1676 0 0 C 762.226 30.3373 t 0 r /Helvetica-Bold findfont 72.0512 sf 0 0 m (Cut value applied on MLPBNN output) show NC gr  245 201 m 1140 Y s 291 305 m -46 X s 268 328 m -23 X s 268 351 m -23 X s 268 374 m -23 X s 268 397 m -23 X s 291
 420 m -46 X s 268 443 m -23 X s 268 466 m -23 X s 268 489 m -23 X s 268 512 m -23 X s 291 535 m -46 X s 268 558 m -23 X s 268 581 m -23 X s 268 604 m -23 X s 268 627 m -23 X s 291 650 m -46 X s 268 673 m -23 X s 268 696 m -23 X s 268 719 m -23 X s
 268 742 m -23 X s 291 765 m -46 X s 268 788 m -23 X s 268 812 m -23 X s 268 835 m -23 X s 268 858 m -23 X s 291 881 m -46 X s 268 904 m -23 X s 268 927 m -23 X s 268 950 m -23 X s 268 973 m -23 X s 291 996 m -46 X s 268 1019 m -23 X s 268 1042 m -23
 X s 268 1065 m -23 X s 268 1088 m -23 X s 291 1111 m -46 X s 268 1134 m -23 X s 268 1157 m -23 X s 268 1180 m -23 X s 268 1203 m -23 X s 291 1226 m -46 X s 268 1249 m -23 X s 268 1272 m -23 X s 268 1295 m -23 X s 268 1318 m -23 X s 291 1341 m -46 X
 s 291 305 m -46 X s 268 282 m -23 X s 268 259 m -23 X s 268 236 m -23 X s 268 213 m -23 X s
 gsave  2268 1676 0 0 C 128.934 280.62 t 0 r /Helvetica-Bold findfont 64.4669 sf 0 0 m (0.2) show NC gr 
 gsave  2268 1676 0 0 C 128.934 394.385 t 0 r /Helvetica-Bold findfont 64.4669 sf 0 0 m (0.3) show NC gr 
 gsave  2268 1676 0 0 C 125.142 511.943 t 0 r /Helvetica-Bold findfont 64.4669 sf 0 0 m (0.4) show NC gr 
 gsave  2268 1676 0 0 C 128.934 625.708 t 0 r /Helvetica-Bold findfont 64.4669 sf 0 0 m (0.5) show NC gr 
 gsave  2268 1676 0 0 C 128.934 739.473 t 0 r /Helvetica-Bold findfont 64.4669 sf 0 0 m (0.6) show NC gr 
 gsave  2268 1676 0 0 C 125.142 857.03 t 0 r /Helvetica-Bold findfont 64.4669 sf 0 0 m (0.7) show NC gr 
 gsave  2268 1676 0 0 C 125.142 970.795 t 0 r /Helvetica-Bold findfont 64.4669 sf 0 0 m (0.8) show NC gr 
 gsave  2268 1676 0 0 C 128.934 1084.56 t 0 r /Helvetica-Bold findfont 64.4669 sf 0 0 m (0.9) show NC gr 
 gsave  2268 1676 0 0 C 189.608 1202.12 t 0 r /Helvetica-Bold findfont 64.4669 sf 0 0 m (1) show NC gr 
 gsave  2268 1676 0 0 C 136.518 1315.88 t 0 r /Helvetica-Bold findfont 64.4669 sf 0 0 m (1.1) show NC gr 
 gsave  2268 1676 0 0 C 64.4669 731.888 t 90 r /Helvetica-Bold findfont 72.0512 sf 0 0 m (Efficiency \(Purity\)) show NC gr  0 0 0.933333 c[  52 12 ] 0 sd 6 lw 0.49 0.6 0.82 c black 0 0 0.933333 c 245 650 m 2 Y 1 2 d 8 Y 1 3 d 9 Y 1 2 d 16 Y 1 3 d 14
 Y 1 3 d 8 Y 1 3 d 9 Y 1 1 d 7 Y 1 1 d 6 Y 1 2 d 1 Y s 254 750 m 2 Y 1 1 d 5 Y 1 1 d 4 Y 1 1 d 3 Y 1 X 3 Y 1 1 d 1 Y 1 1 d 2 Y 1 X 2 Y 1 1 d 1 Y 1 1 d s 263 780 m 2 Y 1 X 1 Y 1 X 2 Y 1 X 1 Y 1 X 2 Y 1 X 1 Y 1 1 d 1 Y 1 X 1 Y 1 X 1 Y s 271 793 m 1 X 1
 1 d 1 Y 2 X 1 Y 1 X 1 1 d 1 X 1 Y 2 X 1 Y s 280 799 m 3 X 1 Y 2 X 1 1 d 2 X 1 Y 1 X s 289 802 m 3 X 1 Y 3 X 1 Y 3 X s 298 804 m 1 Y -1 Y 1 1 d 1 X 1 Y 6 X 1 Y 1 X s 307 807 m 4 X 1 Y 4 X s 315 808 m 4 X 1 1 d 4 X s 324 809 m 1 X 1 Y 7 X 1 Y 1 X s
 333 811 m 6 X 1 Y 3 X s 342 812 m 5 X 1 1 d 3 X s 351 813 m 1 -1 d 1 Y 7 X s 359 813 m 6 X 1 Y 3 X s 368 814 m 9 X s 377 814 m 4 X 1 Y 5 X s 386 815 m 9 X s 395 815 m 1 Y 8 X s 403 816 m 9 X s 412 816 m 5 X 1 Y 4 X s 421 817 m 9 X s 430 817 m 9 X s
 439 817 m 4 X 1 Y 4 X s 447 818 m 9 X s 456 818 m 9 X s 465 818 m 9 X s 474 818 m 5 X 1 Y 4 X s 483 819 m 8 X s 491 819 m 9 X s 500 819 m 4 X 1 Y 5 X s 509 820 m 9 X s 518 820 m 9 X s 527 820 m 8 X s 535 820 m 5 X 1 Y 4 X s 544 821 m 1 X -1 Y 2 X 1
 1 d 3 X -1 Y 2 X s 553 820 m 1 Y 9 X s 562 821 m 9 X s 571 821 m 5 X 1 Y 1 X -1 Y 2 X s 579 821 m 9 X s 588 821 m 1 X 1 Y 8 X s 597 822 m 9 X s 606 822 m 6 X 1 Y 3 X s 615 823 m 8 X s 623 823 m 9 X s 632 823 m 2 X 1 1 d 6 X s 641 824 m 8 X 1 1 d s
 650 825 m 9 X s 659 825 m 1 Y 5 X 1 Y 3 X s 667 827 m 9 X 1 Y s 676 828 m 7 X 1 Y 2 X -1 Y s 685 828 m 3 X 1 Y 6 X s 694 829 m 3 X 1 1 d 2 X 1 Y 3 X s 703 831 m 1 X 1 Y 3 X 1 Y 2 X 1 Y 2 X s 711 834 m 1 X 1 1 d -1 Y 1 1 d 2 X 1 Y 2 X 1 Y -1 Y 1 1 d
 1 X s 720 837 m 1 X 1 Y 2 X 1 Y 2 X 1 Y 2 X 1 Y 1 X 1 1 d s 729 842 m 1 X 1 1 d 2 X 1 Y 1 X 1 Y 2 X 1 Y 2 X s 738 846 m 1 Y 1 X 1 Y 1 X 1 Y 1 X 1 Y 1 X 1 Y 2 X 1 Y 1 X 1 Y 1 X 1 1 d s 747 854 m 1 1 d 2 X 1 Y 1 X 1 Y 2 X 1 Y 1 X 1 Y 1 X s 755 859 m 2
 X 2 Y 2 X 1 1 d 1 1 d -1 Y 1 1 d 1 Y 1 X 1 Y 1 X s 764 865 m 1 X 1 Y 1 1 d 1 X 1 Y 1 X 1 Y 1 X 1 Y 1 X 1 1 d 1 1 d 1 X s 773 872 m 1 1 d 1 Y 2 X 2 Y 2 X 1 Y 1 X 1 1 d 1 X 1 Y 1 X s 782 879 m 1 Y 1 X 1 Y 1 X 1 Y 1 X 1 Y 2 X 2 Y 1 X 1 Y 1 X 1 Y 1 X 1
 Y 1 X s 791 888 m 1 Y 1 X 1 Y 1 X 1 1 d 1 Y -1 Y 1 1 d 1 X 1 Y 1 X 1 Y 1 X 1 Y 1 X s 799 895 m 1 1 d 1 X 1 Y 1 X 2 Y 1 X -1 Y 1 Y 2 X 1 Y 1 X 1 Y -1 Y 1 Y 1 X 1 Y 1 1 d s 808 903 m 1 Y 2 X 1 1 d 1 1 d 2 X 1 Y 1 X 1 Y 1 X 1 1 d -1 Y 1 Y s 817 909 m 1
 X 1 Y 2 X 1 Y 2 X 1 Y 1 X 1 Y 1 X 1 Y 2 X s 826 914 m 1 Y 2 X 1 Y 2 X 1 Y 1 X 1 Y -1 Y 1 1 d 1 X 1 1 d 1 Y 1 X s 835 920 m 1 X 1 Y 1 X 1 Y 1 X 1 Y 2 X 1 Y 1 X 1 Y 1 X 1 Y 1 X s 843 926 m 1 1 d 1 X 1 Y 1 X 1 Y 2 X 1 Y 1 X 1 Y 1 X 1 1 d 1 Y 1 X s 852
 933 m 1 1 d 1 1 d 1 Y 1 X 1 Y 2 X 1 Y 1 X 1 Y 2 X 1 Y 1 X s 861 940 m 1 Y 1 X 1 Y 1 X 1 Y 2 X 1 Y 1 X 1 1 d 1 X 1 Y 1 X 1 Y 1 X s 870 947 m 1 X 1 1 d 1 X 1 Y 1 X 1 Y 1 X 1 1 d 1 X 1 1 d 1 X s 879 952 m 1 Y 1 X 1 Y 1 X 1 Y 2 X 1 Y 1 X 1 Y 3 X 1 Y s
 887 958 m 2 X 1 1 d 2 X 1 Y 1 X 1 1 d 1 X 1 Y 1 X s 896 962 m 1 X 1 Y 1 X 1 Y 1 X 1 Y 2 X 1 Y 1 X 1 Y 1 X 1 1 d 1 X s 905 968 m 1 Y 2 X 1 Y 1 X 1 Y 1 X 1 1 d 1 X 1 Y 1 X 1 Y 2 X s 914 974 m 1 Y 1 X 1 Y 2 X 1 Y 2 X 1 Y 2 X 1 1 d 1 1 d s 923 980 m 1 X
 1 1 d 1 X 1 Y 1 X 1 Y 2 X 1 Y 2 X s 931 984 m 1 1 d 3 X 1 Y 3 X 1 Y 1 1 d 1 X s 940 988 m 1 X 1 Y 1 X 1 Y 2 X 1 Y 1 X 1 Y 2 X 1 Y 1 X 1 1 d s 949 994 m 1 1 d 1 1 d 2 X 1 Y 2 X 1 1 d 1 X 1 Y 1 X s 958 999 m 1 X 1 Y 1 -1 d 1 Y 1 X -1 Y 1 1 d 2 X 1 Y 2
 X 1 Y 1 X s 967 1002 m 1 X 1 Y 2 X 1 1 d 1 X 1 Y 2 X 1 Y 1 X s 975 1006 m 1 X 1 1 d 1 X 1 Y 1 -1 d 1 Y 1 X 1 1 d 1 X 1 1 d 1 X s 984 1010 m 1 Y 3 X 1 Y 4 X 1 Y 2 X s 993 1013 m 1 X 1 Y 3 X 1 Y 1 X 1 Y 3 X 1 1 d s 1002 1017 m 2 X 1 Y 2 X 1 Y 2 X 1 Y
 3 X s 1011 1020 m 1 X 1 Y 2 X 2 Y 1 X 1 Y 4 X s 1019 1024 m 1 X 1 Y 2 X 1 Y 2 X 1 Y 4 X s 1028 1027 m 1 X 1 1 d 3 X 1 Y 1 X 1 Y 2 X 1 1 d s 1037 1031 m 5 X 1 Y 2 X 1 Y 1 X 1 Y 1 X s 1046 1034 m 1 X 1 Y 5 X 1 Y 1 X 1 1 d 1 X s 1055 1037 m 1 X 1 Y 2 X
 1 1 d 4 X 1 Y s 1063 1040 m 2 X 1 Y 2 X 1 Y 4 X 1 Y 1 X s 1072 1043 m 2 X 1 Y 1 X 1 Y 5 X 1 Y 1 X s 1081 1046 m 2 X 1 Y 1 X 1 Y 4 X 1 Y 2 X s 1090 1049 m 1 X 1 Y 2 X 1 Y 5 X 1 Y 1 X s 1099 1052 m 1 X 1 Y 4 X 1 Y 3 X 1 Y s 1107 1055 m 1 X 1 1 d 1 X 1
 Y 4 X 1 Y 2 X s 1116 1058 m 1 X 1 Y 2 X 1 Y -1 Y 1 X 1 Y 3 X 1 Y 1 X 1 Y 1 X -1 Y s 1125 1061 m 1 X 1 Y 4 X -1 Y 1 Y 2 X 1 Y -1 Y 1 Y 2 X s 1134 1063 m 1 Y 2 X 1 Y 5 X 1 Y 2 X s 1143 1066 m 1 X 1 Y 3 X 1 Y 3 X 1 Y 1 X s 1151 1069 m 5 X 1 Y 4 X 1 Y s
 1160 1071 m 2 X 1 Y -1 Y 3 X 1 1 d -1 Y 1 Y 3 X s 1169 1072 m 3 X 1 Y 3 X 1 Y 3 X s 1178 1074 m 1 1 d 3 X 1 Y 3 X 1 1 d 1 X s 1187 1077 m 4 X 1 Y -1 Y 3 X 1 Y -1 Y 1 X 1 Y s 1195 1078 m 5 X 1 Y 1 X 1 Y 3 X s 1204 1080 m 2 X 1 Y 3 X 1 Y 4 X 1 Y s
 1213 1083 m 1 X 1 Y 2 X 1 1 d 1 X 1 Y 4 X s 1222 1086 m 1 X 1 Y 1 X -1 Y 1 Y 5 X 1 Y 2 X s 1231 1088 m 1 Y 7 X 1 Y 1 X s 1239 1090 m 4 X 1 Y 1 X 1 Y 1 X 1 -1 d 1 Y 2 X -1 Y s 1248 1091 m 1 Y 5 X 1 Y 4 X 1 Y -1 Y s 1257 1093 m 1 X 1 Y 2 X 1 Y 3 X 1 Y
 3 X s 1266 1096 m 2 X 1 Y 3 X 1 Y 1 X -1 Y 2 X 1 Y 1 X s 1275 1098 m 1 X 1 Y 1 X -1 Y 1 1 d 3 X 1 Y 2 X s 1283 1100 m 3 X 1 1 d 3 X 1 Y 2 X -1 Y s 1292 1101 m 2 X 1 1 d -1 Y 1 X 1 Y 4 X 1 1 d s 1301 1103 m 3 X 1 Y 3 X 1 Y 3 X s 1310 1105 m 2 X 1 Y 7
 X s 1319 1106 m 5 X 1 Y 3 X s 1327 1107 m 5 X 1 Y 1 X -1 Y 1 X 1 Y 2 X s 1336 1108 m 1 1 d 8 X s 1345 1109 m 9 X s 1354 1109 m 4 X 1 Y 4 X 1 Y 1 X s 1363 1111 m 3 X 1 Y 5 X 1 Y s 1371 1113 m 6 X 1 Y 2 X -1 Y 1 X s 1380 1113 m 1 1 d 4 X 1 Y 2 X -1 Y
 1 Y 2 X s 1389 1115 m 2 X 1 1 d 4 X 1 Y 2 X s 1398 1117 m 7 X 1 1 d 1 X s 1407 1118 m 4 X 1 Y 4 X s 1415 1119 m 2 X 1 Y 3 X 1 Y 4 X s 1424 1121 m 2 X 1 Y -1 Y 1 X 1 Y 2 X 1 1 d -1 Y 3 X s 1433 1122 m 1 X 1 Y 4 X -1 Y 1 X 1 Y 3 X s 1442 1123 m 1 Y 5
 X 1 Y 1 -1 d 1 X 1 Y 2 X s 1451 1125 m 8 X s 1459 1125 m 2 X 1 Y 4 X 1 Y 2 X -1 Y 1 X s 1468 1126 m 1 Y 5 X 1 Y 4 X s 1477 1128 m 3 X 1 Y 2 X 1 Y 4 X s 1486 1130 m 1 X 1 Y 1 X -1 Y 1 X 1 Y 5 X 1 Y 1 -1 d s 1495 1131 m 1 Y 1 X 1 Y 1 X -1 Y 4 X 1 Y 1
 X -1 Y 1 X s 1503 1132 m 1 X 1 Y 3 X -1 Y 2 X 1 Y 1 1 d 2 X 1 Y s 1512 1135 m 4 X -1 Y 1 1 d 4 X s 1521 1135 m 1 X 1 Y 2 X 1 Y 3 X 1 Y 1 X -1 Y 1 1 d 1 X s 1530 1138 m 3 X 1 Y 6 X s 1539 1139 m 3 X 1 Y 5 X 1 Y s 1547 1141 m 4 X 1 Y 1 X -1 Y 1 X 1 Y
 3 X s 1556 1142 m 9 X s 1565 1142 m 3 X 1 Y 2 X -1 Y 1 X 1 Y 1 1 d 2 X 1 Y s 1574 1145 m 5 X 1 Y 1 X 1 Y 3 X s 1583 1147 m 5 X 1 Y 1 X 1 Y 2 X s 1591 1149 m 9 X 1 Y s 1600 1150 m 2 X -1 Y 1 Y 2 X 1 Y 5 X s 1609 1151 m 6 X 1 Y 3 X s 1618 1152 m 4 X 1
 Y 1 X -1 Y 1 X 1 Y 3 X s 1627 1153 m 1 Y 4 X 1 Y 3 X 1 Y 1 X s 1635 1156 m 5 X 1 Y 2 X 1 Y 2 X s 1644 1158 m 1 X 1 Y 3 X 1 Y 1 X 1 -1 d 1 Y 3 X s 1653 1160 m 4 X 1 Y 1 -1 d 1 Y 3 X 1 Y 1 X s 1662 1162 m 4 X 1 Y 2 X 1 Y 2 X 1 Y 1 X s 1671 1165 m 1 X
 1 Y 1 X 1 Y 4 X 1 1 d 1 X 1 Y s 1679 1169 m 6 X 1 Y 3 X s 1688 1170 m 1 Y 2 X 1 Y 4 X 1 Y 3 X s 1697 1173 m 1 X 1 Y 6 X 1 Y -1 Y 2 Y 2 X s 1706 1176 m 2 X -1 Y 1 X 1 1 d 4 X 1 Y 1 X s 1715 1177 m 1 X 1 1 d 2 X 1 Y 1 X 1 Y 3 X 1 Y s 1723 1181 m 1 X 1
 -1 d 1 X 1 Y 3 X 1 Y -1 Y 1 1 d 2 X 1 Y s 1732 1183 m 2 X 1 1 d 2 X 1 Y 1 X 1 1 d 2 X 1 Y s 1741 1187 m 3 X 1 Y 1 X 1 1 d 4 X 1 Y s 1750 1190 m 1 X 1 Y 1 -1 d 3 X 1 Y 4 X s 1759 1191 m 2 X 1 1 d 5 X 1 Y s 1767 1193 m 5 X 1 Y 4 X s 1776 1194 m 2 X 1
 Y 1 X 1 Y 1 X 1 1 d 4 X s 1785 1197 m 9 X s 1794 1197 m 1 X 1 Y 7 X 1 Y 1 X s 1803 1199 m 2 X 1 Y 5 X -1 Y 1 1 d 1 X s 1812 1200 m 2 X 1 Y 2 X 1 Y 2 X 1 Y 2 X s 1820 1203 m 2 X 1 Y 7 X s 1829 1204 m 2 X 1 Y 3 X 1 1 d 1 X 1 Y 1 X 1 Y 1 X s 1838 1208
 m 2 X 1 Y 7 X s 1847 1209 m 1 X 1 Y 2 X 1 Y 6 X s 1856 1211 m -1 Y 1 X 1 Y 5 X 1 Y 2 X s 1864 1212 m 3 X 1 1 d 1 X 1 Y 4 X 1 Y s 1873 1215 m 9 X s 1882 1215 m 1 Y 9 X s 1891 1216 m 2 X 1 1 d 3 X 1 Y 3 X s 1900 1218 m 8 X s 1908 1218 m 1 X 1 Y 8 X s
 1917 1219 m 7 X 1 Y 2 X s 1926 1220 m 7 X 1 Y 2 X s 1935 1221 m 9 X s 1944 1221 m 1 X 1 Y 1 X 1 Y 6 X s 1952 1223 m 7 X 1 Y 2 X s 1961 1224 m 9 X s 1970 1224 m 1 X 1 Y 8 X s 1979 1225 m 9 X s 1988 1225 m 8 X s 1996 1225 m 9 X s 2005 1225 m 9 X s
 2014 1225 m 4 X 1 Y 5 X s 2023 1226 m 9 X s 2032 1226 m 8 X s 2040 1226 m 1 X s[  ] 0 sd 9 lw 0.49 0.6 0.82 c black 0 0 0.933333 c 245 1226 m 4 X 1 -1 d 4 X s 254 1225 m -1 Y 5 X -1 Y 4 X s 263 1223 m 1 X -1 Y 7 X s 271 1222 m 9 X s 280 1222 m 1 X
 -1 Y 8 X s 289 1221 m 9 X s 298 1221 m 5 X -1 Y 4 X s 307 1220 m 8 X s 315 1220 m 9 X s 324 1220 m 8 X 1 -1 d s 333 1219 m 9 X s 342 1219 m 9 X s 351 1219 m 8 X s 359 1219 m 9 X s 368 1219 m 7 X -1 Y 2 X s 377 1218 m 9 X s 386 1218 m 9 X s 395 1218
 m 8 X s 403 1218 m 9 X s 412 1218 m 9 X s 421 1218 m 9 X s 430 1218 m 9 X s 439 1218 m 8 X s 447 1218 m 9 X s 456 1218 m 4 X -1 Y 5 X s 465 1217 m 6 X -1 Y 3 X s 474 1216 m 9 X s 483 1216 m 8 X s 491 1216 m 5 X -1 Y 4 X s 500 1215 m 9 X s 509 1215 m
 9 X s 518 1215 m 9 X s 527 1215 m 1 X -1 Y 7 X s 535 1214 m 9 X s 544 1214 m 7 X -1 Y 2 X s 553 1213 m 5 X 1 -1 d 3 X s 562 1212 m 9 X s 571 1212 m 1 X -1 Y 5 X -1 Y 2 X s 579 1210 m 3 X -1 Y 6 X s 588 1209 m 7 X -1 Y 2 X s 597 1208 m 1 X -1 Y 4 X
 -1 Y 4 X s 606 1206 m -1 Y 9 X s 615 1205 m -1 Y 5 X -1 Y 3 X -1 Y s 623 1202 m 5 X -1 Y 2 X -1 Y 2 X s 632 1200 m 6 X -1 Y 3 X s 641 1199 m 3 X -1 Y 1 X -1 Y 5 X s 650 1197 m -1 Y 3 X -1 Y 4 X -1 Y 2 X s 659 1194 m 1 X -1 Y 4 X -1 Y 1 X 1 -1 d 1 X
 s 667 1191 m 1 -1 d 2 X -1 Y 5 X -1 Y 1 X s 676 1188 m 2 X -1 Y 2 X -1 Y 3 X 1 -1 d 1 -1 d s 685 1184 m 3 X -1 Y 2 X -1 Y 2 X -1 Y 1 X -1 Y 1 X s 694 1180 m 1 X 1 -1 d 3 X -1 Y 3 X -1 Y 1 X s 703 1177 m 4 X -1 Y 3 X 1 -1 d s 711 1175 m 1 X -1 Y 6 X
 -1 Y 1 X -1 Y 1 X s 720 1172 m 3 X -1 Y 2 X -1 Y 3 X -1 Y 1 X s 729 1169 m 2 X -1 Y 6 X -1 Y 1 X s 738 1167 m 2 X -1 Y 3 X -1 Y 4 X s 747 1165 m -1 Y 1 X 1 -1 d 1 X -2 Y 2 X -1 Y 3 X s 755 1160 m 1 X -1 Y 1 X -1 Y 4 X -1 Y 2 X -1 Y 1 X s 764 1156 m
 1 -1 d 1 X -1 Y 2 X -1 Y 2 X -1 Y 3 X s 773 1152 m 1 X -1 Y 4 X -1 Y 3 X -1 Y 1 X s 782 1149 m 1 X -1 Y 3 X 1 -1 d -1 Y 3 X -1 Y 1 X s 791 1145 m 1 X -1 Y 2 X -1 Y 3 X 1 -1 d 1 X s 799 1142 m 1 X -1 Y 2 X -1 Y 1 X -1 Y 1 X -1 Y 3 X -1 Y 1 X s 808
 1137 m 1 X -1 Y 2 X -1 Y 2 X -1 Y 2 X -1 Y 2 X -1 Y s 817 1132 m 1 X -1 Y 2 X -1 Y 1 X -1 Y 3 X -1 Y 1 X -1 Y 1 X s 826 1127 m 4 X -1 Y 1 X -1 Y 1 X -1 Y 1 X -1 Y 1 X -1 Y 1 X s 835 1122 m 4 X 1 -1 d 1 X 1 -1 d 1 X s 843 1120 m 4 X -1 Y 4 X -1 Y 1 X
 s 852 1118 m 1 X -1 Y 3 X -1 Y 2 X -1 Y 3 X s 861 1115 m 1 X -1 Y 2 X -1 Y 2 X -1 Y 4 X s 870 1112 m 1 X -1 Y 2 X -1 Y 3 X -1 Y 2 X -1 Y 1 X s 879 1108 m 2 X -1 Y 2 X -1 Y 2 X -1 Y 1 X 1 -1 d s 887 1104 m 2 X -1 Y 2 X -1 Y 4 X -1 Y 1 X s 896 1101 m
 -1 Y 3 X 1 -1 d 2 X -1 Y 1 X 1 -1 d 1 X s 905 1097 m 2 X -1 Y 3 X -1 Y 1 X -1 Y 3 X -1 Y s 914 1093 m 2 X -1 Y 1 X -1 Y 2 X -1 Y 1 X 1 -1 d 2 X s 923 1089 m 1 X -1 Y 2 X -1 Y 2 X 1 -1 d 1 X -1 Y 1 X s 931 1085 m 1 X -1 Y 2 X -1 Y 2 X -1 Y 1 X 1 -1 d
 1 X -1 Y 1 X s 940 1080 m 1 X 1 -1 d 1 X -1 Y 3 X -1 Y 3 X s 949 1077 m 1 -1 d 5 X -1 Y 3 X s 958 1075 m 1 -1 d 1 -1 d 1 X -1 Y 3 X -1 Y 3 X s 967 1071 m -1 Y 1 X -1 Y 3 X -1 Y 3 X -1 Y 1 X s 975 1067 m 1 X -1 Y 1 X -1 Y 3 X -1 Y 1 X -1 Y 2 X -1 Y 1
 X s 984 1062 m 1 X -1 Y 2 X -1 Y 2 X -1 Y 2 X 1 -1 d 1 X s 993 1058 m 2 X -1 Y 1 X 1 -1 d 3 X -1 Y 2 X s 1002 1055 m 1 X -1 Y 2 X -1 Y 2 X -1 Y 2 X -1 Y 2 X s 1011 1051 m 1 X 1 -1 d -1 Y 4 X -1 Y 1 -1 d 1 X -1 Y s 1019 1046 m 3 X -1 Y 1 X 1 -1 d 1
 -1 d 1 X -1 Y 1 X 1 -1 d s 1028 1041 m 2 X -1 Y 2 X -1 Y 3 X -1 Y 2 X -1 Y s 1037 1037 m 6 X -2 Y 2 X -1 Y 1 X s 1046 1034 m 2 X -1 Y 1 X -1 Y 4 X -1 Y 2 X s 1055 1031 m 1 X -1 Y 2 X -1 Y 2 X -1 Y 2 X -1 Y 1 X s 1063 1027 m 1 X -1 Y 3 X -1 Y 1 X -1
 Y 3 X -1 Y 1 X s 1072 1023 m -1 Y 3 X -1 Y 6 X s 1081 1021 m 1 X 1 -1 d 1 X -1 Y 2 X 1 -1 d -1 Y 3 X s 1090 1017 m -1 Y 3 X -1 Y 2 X -1 Y 2 X 1 -1 d 1 X s 1099 1013 m 1 X -1 Y 3 X 1 -1 d 2 X -1 Y 1 X -1 Y s 1107 1009 m 3 X 1 -1 d -1 Y 5 X -1 Y s
 1116 1006 m 3 X -1 Y 3 X -1 Y 3 X -1 Y s 1125 1003 m 2 X -2 Y 4 X -1 Y 2 X -1 Y 1 X s 1134 999 m 1 X -1 Y 4 X -1 Y 4 X s 1143 997 m -1 Y 3 X -1 Y 4 X -1 Y 1 X s 1151 994 m 3 X -1 Y 1 X -1 Y 3 X 1 -1 d 1 X s 1160 991 m 2 X -1 Y 3 X -1 Y 2 X -1 Y 1 X
 -1 Y 1 X s 1169 987 m 1 X 1 -1 d 2 X -1 Y 3 X -1 Y 1 X -1 Y 1 X s 1178 983 m 3 X -1 Y 2 X -1 Y 1 -1 d 1 X -1 Y 1 X -1 Y 1 X s 1187 978 m 4 X -1 Y 1 X -1 Y 3 X -1 Y s 1195 975 m 2 X -1 Y 3 X -2 Y 4 X -1 Y s 1204 971 m 4 X 1 -1 d -1 Y 2 X -1 Y 2 X s
 1213 968 m 1 X -1 Y 1 X -1 Y 2 X -1 Y 3 X -1 Y 1 X 1 -1 d s 1222 963 m 2 X -1 Y 5 X -2 Y 2 X s 1231 960 m 2 X -1 Y 2 X -1 Y 4 X -1 Y s 1239 957 m 2 X -1 Y 1 X 1 -1 d 2 X 1 -1 d 1 -1 d 1 X s 1248 953 m 1 X 1 -1 d 1 X -1 Y 4 X -1 Y 2 X s 1257 950 m 1
 -1 d 1 X -1 Y 3 X -1 Y 1 X 1 -1 d 2 X s 1266 946 m 1 -1 d 1 X -1 Y 2 X -1 Y 2 X -1 Y 2 X -1 Y 1 X s 1275 941 m -1 Y 1 X -1 Y 2 X -1 Y 1 X -1 Y 1 X -1 Y 2 X 1 -1 d s 1283 935 m 1 X -1 Y 4 X -1 Y 2 X 1 -1 d 1 X s 1292 932 m 1 X -1 Y 1 X -1 Y 2 X -1 Y
 5 X -1 Y s 1301 928 m 2 X -1 Y 2 X -1 Y 2 X -1 Y 2 X -1 Y 1 X s 1310 924 m -1 Y 3 X -1 Y 3 X -1 Y 1 X -1 Y 2 X s 1319 920 m 1 X -1 Y 1 X -1 Y 3 X -1 Y 3 X s 1327 917 m 1 X -1 Y 2 X -1 Y 1 X -1 Y 1 -1 d 1 X -1 Y 2 X -1 Y 1 X s 1336 911 m 1 X -1 Y 3 X
 -1 Y 1 X -1 Y 1 X -1 Y 2 X -1 Y 1 X s 1345 906 m -1 Y 1 X -1 Y 2 X -1 Y 2 X -1 Y 2 X -1 Y 2 X s 1354 901 m 1 -1 d 2 X -1 Y 5 X -1 Y 1 X s 1363 898 m 1 -1 d 2 X -1 Y 1 X 1 -1 d 1 X -1 Y 2 X s 1371 894 m 1 X -1 Y 3 X 1 -1 d 1 X 1 -1 d -1 Y 2 X s 1380
 890 m 1 X -1 Y 4 X -1 Y 2 X -1 Y 2 X s 1389 887 m -1 Y 1 X 1 -1 d -1 Y 3 X -1 Y 4 X -1 Y s 1398 882 m 1 X -1 Y 3 X -1 Y 1 X -1 Y 2 X -1 Y 2 X s 1407 878 m -1 Y 1 X 1 -1 d 2 X -1 Y 2 X -1 Y 2 X -1 Y s 1415 873 m 3 X -1 Y 1 X 1 -1 d 2 X -1 Y 2 X s
 1424 870 m 1 X 1 -1 d 4 X -1 Y 1 X -1 Y 2 X -1 Y s 1433 866 m 1 -1 d 3 X -1 Y 2 X -1 Y 2 X -1 Y 1 X s 1442 862 m -1 Y 3 X -1 Y 2 X -1 Y 1 X -1 Y 2 X 1 -1 d s 1451 857 m 1 X -1 Y 1 X 1 -1 d 1 X -1 Y 1 X -1 Y 1 X -1 Y 2 X -1 Y s 1459 851 m 1 X -1 Y 2
 X -1 Y 4 X -1 Y 1 X -1 Y 1 X s 1468 847 m -1 Y 2 X 1 -1 d 1 X 1 -1 d 2 X -1 Y 1 X -1 Y 1 X s 1477 842 m 1 X -1 Y 2 X -1 Y 2 X -1 Y 2 X -1 Y 2 X s 1486 838 m 1 X -1 Y 2 X -1 Y 1 X -1 Y 1 X 1 -1 d 1 X -1 Y 1 X 1 -1 d s 1495 832 m 2 X -1 Y 1 X -1 Y 2 X
 1 -1 d 1 X 1 -1 d s 1503 828 m 1 X -1 Y 3 X -1 Y 1 -1 d 2 X -1 Y 2 X -1 Y s 1512 823 m 1 X 1 -1 d 1 X -1 Y 1 -1 d 1 X -1 Y 1 X -1 Y 2 X -1 Y 1 X s 1521 817 m -1 Y 3 X -1 Y 1 X -1 Y 2 X -1 Y 1 X -1 Y 1 X -1 Y 1 X s 1530 811 m -1 Y 1 X 1 -1 d 1 -1 d
 -1 Y 3 X -1 Y 1 X -1 Y 2 X s 1539 805 m 1 X -2 Y 2 X -1 Y 2 X -1 Y 2 X -1 Y 1 X s 1547 800 m 2 X -1 Y 1 X -1 Y 1 X -1 Y 2 X -1 Y 2 X -1 Y 1 -1 d s 1556 794 m 1 X 1 -1 d -1 Y 3 X -1 Y 2 X -1 Y 1 X -1 Y 1 X s 1565 789 m 1 -1 d 1 X 1 -1 d 1 -1 d 1 X -1
 Y 2 X -1 Y 1 X 1 -1 d s 1574 783 m 2 X -1 Y 1 X -1 Y 1 X -1 Y 2 X 1 -1 d 1 -1 d 1 -1 d s 1583 777 m 1 X -1 Y 1 X -1 Y 1 X -1 Y 2 X -1 Y 1 X 1 -1 d 1 X s 1591 772 m 1 -1 d 2 X -1 Y 2 X -1 Y 1 X -1 Y 3 X -1 Y s 1600 767 m 1 -1 d 1 -1 d 1 -1 d 1 X -1 Y
 1 X -1 Y 2 X -2 Y 1 X -2 Y 1 X s 1609 758 m -1 Y 2 X -1 Y 1 X -1 Y 2 X -1 Y 4 X -1 Y s 1618 753 m -1 Y 1 X -1 Y 1 X -1 Y 2 X 1 -1 d -1 Y 1 X -1 Y 1 X -1 Y 2 X s 1627 746 m 1 X -1 Y 2 X -1 Y 2 X -2 Y 2 X -1 Y 1 X -2 Y s 1635 739 m 2 X -1 Y 1 -1 d 1 X
 -1 Y 2 X -1 Y 1 X -1 Y 2 X -1 Y s 1644 733 m 2 X 1 -1 d 1 X -1 Y 1 X -1 Y 1 X -1 Y 1 X 1 -1 d 1 X s 1653 728 m -1 Y 2 X -1 Y 2 X -1 Y 1 X 1 -1 d 1 X -1 Y 1 X -1 Y 1 X -1 Y s 1662 721 m 1 X -1 Y 2 X -2 Y 1 X -1 Y 1 X -1 Y 1 X -1 Y 2 X -1 Y 1 -1 d s
 1671 713 m -2 Y 1 X -2 Y 1 X -1 Y 1 X -1 Y 2 X -1 Y 2 X -1 Y 1 X -2 Y s 1679 703 m 2 X -1 Y 2 X -1 Y 1 X -1 Y 2 X -1 Y 1 X -1 Y 1 X -1 Y s 1688 697 m 2 X -1 Y 1 X -1 Y 3 X -1 Y 1 X -1 Y 2 X s 1697 693 m -1 Y 1 X -1 Y 1 X -1 Y 1 X -2 Y 2 X -1 Y 2 X
 -1 Y 2 X -1 Y s 1706 685 m 1 -1 d 2 X -1 Y 2 X -1 Y 1 -1 d 1 X -1 Y 1 X -2 Y 1 X s 1715 678 m 1 X -2 Y 2 X -1 Y 2 X -1 Y 1 X -1 Y 1 X -1 Y 1 X -1 Y s 1723 671 m 1 -1 d 1 X 1 -1 d 1 X -1 Y 1 X 1 -1 d 1 X 1 -1 d -1 Y 1 X s 1732 665 m 2 X -1 Y 1 X -1 Y
 1 X -1 Y 1 X -1 Y 1 X -1 Y 1 X -1 Y 1 X -1 Y 1 X s 1741 658 m 1 -1 d -1 Y 1 X -1 Y 2 X -1 Y 2 X -1 Y 1 X -1 Y 1 X -1 Y 1 X -1 Y s 1750 650 m 1 X -1 Y 1 X -1 Y 1 X 1 -1 d -1 Y 1 X -1 Y 1 X -1 Y 1 X -1 Y 2 X s 1759 643 m 1 X -1 Y 1 X -1 Y 1 X -1 Y 1 X
 1 -1 d 1 X -1 Y 2 X s 1767 638 m 1 X -1 Y 2 X -1 Y 1 X -1 Y 2 X -2 Y 1 X -1 Y 1 X -1 Y 1 X s 1776 631 m 1 X -1 Y 1 X -1 Y 2 X -1 Y 1 X -1 Y 2 X -1 Y 2 X -2 Y s 1785 624 m 2 X -1 Y 1 X -1 Y 1 X -1 Y 1 X -1 Y 1 X -1 Y 1 X -1 Y 1 -1 d 1 X s 1794 617 m
 -1 Y 2 X -1 Y 1 X -1 Y 1 X -1 Y 2 X -1 Y 1 X -1 Y 1 X -1 Y 1 X s 1803 610 m -1 Y 2 X -1 Y 2 X -1 Y 2 X -1 Y 2 X 1 -1 d s 1812 605 m 1 X -2 Y 1 X -1 Y 1 X -1 Y 1 X 1 -1 d 1 X -1 Y 2 X -1 Y s 1820 598 m 1 X -1 Y 1 X -1 Y 1 X -1 Y 1 -1 d 1 -1 d -1 Y 2
 X -2 Y 2 X s 1829 590 m 1 X -2 Y 2 X -1 Y 1 X -1 Y 1 X -1 Y 1 X 1 -1 d -1 Y 1 X -1 Y 1 X s 1838 582 m 1 X -1 Y 1 X -1 Y 1 X -1 Y 2 X -1 Y 1 X -1 Y 1 X -1 Y 2 X -1 Y s 1847 575 m 1 X -1 Y 1 X 1 -1 d 1 X -1 Y 1 X -1 Y 2 X -1 Y 2 X s 1856 570 m -2 Y 2
 X -1 Y 1 X -1 Y 1 X -1 Y 2 X -1 Y 1 X -1 Y 1 -1 d s 1864 562 m 1 X 1 -1 d 1 X -1 Y 1 X -1 Y 1 X -1 Y 2 X -1 Y 1 -1 d 1 X s 1873 556 m -1 Y 1 X 1 -1 d 2 X -1 Y 1 X -1 Y 1 X -1 Y 1 X -1 Y 1 -1 d 1 X s 1882 549 m -1 Y 2 X -1 Y 1 X 1 -1 d 1 X -1 Y 3 X 1
 -1 d s 1891 544 m 1 X -1 Y 1 X -1 Y 2 X -2 Y 1 X -1 Y 1 X -2 Y 1 X -1 Y 1 X 1 -1 d s 1900 535 m -2 Y 1 X 1 -1 d 1 X -1 Y 1 X -1 Y 2 X -1 Y 2 X s 1908 529 m -1 Y 1 X -1 Y 1 X -1 Y 1 X -1 Y 2 X -1 Y 1 -1 d -1 Y 2 X -1 Y 1 X -1 Y s 1917 520 m 1 X -1 Y
 1 X -1 Y 1 X -1 Y 1 X -1 Y 1 -1 d -1 Y 1 X 1 -1 d 1 X -1 Y 1 X s 1926 512 m 1 X -1 Y 1 X -1 Y 1 X -1 Y 1 -1 d 1 X -1 Y 1 X -1 Y 1 -1 d -1 Y 1 -1 d -1 Y 1 X s 1935 502 m -1 Y 2 X -1 Y 1 X -1 Y 1 X 1 -1 d 1 X 1 -1 d -1 Y 2 X s 1944 496 m -1 Y 1 X -1 Y
 2 X 1 -1 d 1 X -1 Y 1 X -1 Y 1 -1 d -1 Y 1 X -1 Y s 1952 488 m 1 X -1 Y 1 X -1 Y 1 X -1 Y 1 X -1 Y 1 X -1 Y 1 X 1 -1 d -1 Y 1 X -1 Y 1 X -1 Y s 1961 479 m 1 -1 d -1 Y 1 X -1 Y 1 X -1 Y 1 X -1 Y 1 -1 d -2 Y 1 -1 d -1 Y 1 -1 d 1 X -1 Y 1 X -1 Y s 1970
 466 m 1 -1 d 1 -1 d -1 Y 1 -1 d 1 -1 d -1 Y 1 X -2 Y 2 X -3 Y 1 X -2 Y 1 X s 1979 453 m -1 Y 1 X -1 Y 1 X -1 Y 1 X -1 Y 1 X -1 Y 1 -1 d 1 -1 d 1 -1 d -2 Y 1 X -1 Y 1 X s 1988 442 m -1 Y 1 X -1 Y 1 X -1 Y 1 X 1 -1 d 1 X -1 Y 1 -1 d -1 Y 1 X -2 Y 1 X
 -1 Y s 1996 432 m -1 Y 1 X -1 Y 1 -1 d -1 Y 1 X -2 Y 2 X -1 Y 1 -1 d 1 -1 d -1 Y 1 X -2 Y 1 X s 2005 420 m 1 -1 d -2 Y 1 X -2 Y 1 X -2 Y 1 X -1 Y 1 X -1 Y 1 X -2 Y 1 X -1 Y 1 X -3 Y 1 X s 2014 405 m -1 Y 1 X -1 Y 1 X -2 Y 1 X -2 Y 1 -1 d -3 Y 1 X -1
 Y 1 -1 d -2 Y 1 X -3 Y 1 X -2 Y 1 X -1 Y s 2023 385 m -3 Y 1 X -2 Y 1 -1 d -2 Y 1 -1 d -3 Y 1 X -1 Y 1 -1 d -3 Y 1 X -2 Y 1 -1 d -2 Y 1 -1 d -2 Y 1 -1 d s 2032 359 m -3 Y 1 X -3 Y 1 -1 d -4 Y 1 X -5 Y 1 -2 d -2 Y 1 X -9 Y 1 -1 d -5 Y 1 -1 d -11 Y 1
 -3 d -15 Y s 2040 294 m -8 Y 1 -12 d -19 Y s 1 0 0 c black 1 0 0 c 245 1226 m -8 Y 1 -6 d -33 Y 1 -10 d -32 Y 1 -11 d -55 Y 1 -10 d -49 Y 1 -9 d -27 Y 1 -7 d -29 Y 1 -4 d -22 Y 1 -3 d -18 Y 1 -3 d -3 Y s 254 887 m -9 Y 1 -3 d -12 Y 1 -4 d -10 Y 1 -4
 d -7 Y 1 -2 d -8 Y 1 -1 d -5 Y 1 -2 d -6 Y 1 -1 d -5 Y 1 -1 d -5 Y 1 -1 d s 263 801 m -4 Y 1 -1 d -3 Y 1 -1 d -5 Y 1 -1 d -2 Y 1 -1 d -3 Y 1 -1 d -2 Y 1 -2 d -3 Y 1 X -2 Y 1 X -2 Y s 271 768 m 1 -1 d -2 Y 1 X -3 Y 1 X -2 Y 1 X -2 Y 1 X -1 Y 1 X -1 Y
 1 -1 d -1 Y 1 -1 d -1 Y 1 X s 280 752 m 1 X -1 Y 1 X -1 Y 1 X -1 Y 1 X -1 Y 1 X -1 Y 1 X -2 Y 1 X -1 Y 2 X s 289 744 m 1 X -1 Y 1 X -1 Y 1 X -1 Y 1 X -1 Y 1 X 1 -1 d 1 X -1 Y 1 X -1 Y 1 X s 298 737 m 1 -1 d -1 Y 1 X -1 Y 2 X -1 Y 2 X -1 Y 2 X -1 Y 1
 X s 307 731 m -1 Y 1 X -1 Y 5 X -1 Y 2 X s 315 728 m 1 X -1 Y 2 X -1 Y 3 X -1 Y 2 X -1 Y 1 X s 324 724 m 3 X -1 Y 1 X -1 Y 3 X -1 Y 2 X s 333 721 m 2 X -1 Y 2 X -1 Y 2 X 1 -1 d 1 X -1 Y 1 X s 342 717 m 3 X -1 Y 6 X s 351 716 m 2 X 1 -1 d 5 X s 359
 715 m 3 X -1 Y 3 X -1 Y 3 X s 368 713 m 5 X -1 Y 4 X -1 Y s 377 711 m 7 X -1 Y 2 X s 386 710 m 6 X -1 Y 3 X s 395 709 m -1 Y 6 X -1 Y 2 X s 403 707 m 9 X -1 Y s 412 706 m 9 X -1 Y s 421 705 m 6 X -1 Y 3 X s 430 704 m 9 X s 439 704 m -1 Y 8 X s 447
 703 m 7 X -1 Y 2 X s 456 702 m 5 X -1 Y 4 X s 465 701 m 9 X s 474 701 m 1 X -1 Y 8 X s 483 700 m 1 X -1 Y 7 X -1 Y s 491 698 m 9 X s 500 698 m 4 X -1 Y 5 X s 509 697 m 3 X -1 Y 6 X s 518 696 m 7 X -1 Y 2 X s 527 695 m 8 X s 535 695 m 3 X -1 Y 6 X s
 544 694 m 9 X s 553 694 m -1 Y 9 X s 562 693 m 5 X 1 -1 d 2 X -1 Y 1 X s 571 691 m 3 X -1 Y 5 X s 579 690 m 8 X -1 Y 1 X s 588 689 m 2 X -1 Y 7 X s 597 688 m 1 X -1 Y 8 X s 606 687 m 1 X -1 Y 3 X -1 Y 2 X -1 Y 2 X -1 Y 1 X s 615 683 m 3 X -1 Y 5 X s
 623 682 m 3 X 1 -1 d 4 X -1 Y 1 X s 632 680 m 3 X -1 Y 4 X -1 Y 2 X s 641 678 m 4 X -1 Y 2 X -1 Y 2 X 1 -1 d s 650 675 m 2 X -1 Y 1 X -1 Y 4 X -1 Y 2 X s 659 672 m -1 Y 1 X -1 Y 2 X -1 Y 2 X -1 Y 2 X 1 -1 d s 667 667 m 2 X -1 Y 2 X -1 Y 3 X -1 Y 2 X
 s 676 664 m 1 X -1 Y 2 X -1 Y 2 X -1 Y 2 X 1 -1 d 1 X s 685 660 m 3 X -1 Y 1 X -1 Y 1 X -1 Y 4 X s 694 657 m 1 X -1 Y 1 X -1 Y 2 X -1 Y 1 X -1 Y 1 X -1 Y 1 X -1 Y 2 X s 703 651 m -1 Y 1 X -1 Y 1 X -1 Y 1 X -1 Y 1 X -1 Y 1 X -1 Y 1 X -1 Y 1 X -1 Y 1
 X s 711 643 m 1 X -1 Y 1 -1 d 2 X -2 Y 1 X 1 -1 d -1 Y 1 X -1 Y 1 X -1 Y 1 X s 720 635 m 1 -1 d -1 Y 1 X -1 Y 1 X -1 Y 1 -1 d -1 Y 1 X -1 Y 1 X -1 Y 1 X -1 Y 1 -1 d -1 Y 1 X -1 Y s 729 623 m 1 X -1 Y 1 -1 d 1 X -1 Y 1 X -2 Y 1 -1 d -1 Y 1 X -1 Y 1 X
 -1 Y 1 X -1 Y 1 -1 d s 738 612 m -1 Y 1 X -2 Y 1 -1 d -2 Y 1 X -2 Y 1 -1 d 1 -1 d -1 Y 1 X -1 Y 1 X -2 Y 1 X -2 Y 1 X s 747 596 m -2 Y 1 X -2 Y 1 X -1 Y 1 X -1 Y 1 X -2 Y 2 X -3 Y 1 X -2 Y 1 X -1 Y s 755 582 m 2 X -4 Y 1 X -1 Y 1 X 1 -1 d -1 Y 1 -1
 d 1 X -3 Y 1 X -2 Y 1 X -1 Y s 764 568 m 1 X -2 Y 1 -1 d -1 Y 1 -1 d -1 Y 1 -1 d -1 Y 1 -1 d -2 Y 1 X -1 Y 1 X -2 Y 1 X -1 Y 1 X s 773 553 m -1 Y 1 -1 d -1 Y 1 X -2 Y 1 X -2 Y 1 -1 d 1 X -1 Y 1 -1 d -1 Y 1 -1 d -1 Y 1 X -1 Y 1 -1 d -1 Y s 782 537 m
 -1 Y 1 X -1 Y 1 -1 d -1 Y 1 -1 d -2 Y 1 X -1 Y 1 X -3 Y 1 X -2 Y 1 X -3 Y 1 X -1 Y 1 X s 791 520 m -1 Y 1 -1 d -2 Y 1 X -1 Y 1 -1 d -1 Y 1 -1 d 1 X -2 Y 1 X -2 Y 1 X -2 Y 1 X -2 Y s 799 504 m 1 X -1 Y 1 X -2 Y 1 X -3 Y 2 X -2 Y 1 X -1 Y 1 -1 d -1 Y
 1 -1 d -1 Y 1 -1 d -1 Y s 808 489 m -1 Y 1 X -1 Y 1 X -1 Y 1 -1 d -1 Y 1 X -1 Y 1 X -1 Y 1 X -1 Y 1 X -2 Y 1 X -1 Y 1 X -1 Y s 817 477 m 1 X -2 Y 1 X -1 Y 1 X -1 Y 1 -1 d 1 X -2 Y 1 X -1 Y 1 X -2 Y 1 X -1 Y 1 -1 d s 826 465 m -1 Y 1 X -1 Y 2 X -1 Y
 1 X -1 Y 1 -1 d -1 Y 1 X -1 Y 1 X -1 Y 1 X -2 Y 1 X s 835 455 m -1 Y 1 X -2 Y 1 X -1 Y 1 X -1 Y 1 -1 d 1 -1 d -1 Y 1 X -2 Y 1 X -2 Y 1 X -1 Y s 843 442 m 1 X 1 -1 d -1 Y 1 X -2 Y 1 X 1 -1 d -1 Y 1 X -1 Y 1 X -1 Y 1 -1 d -2 Y 1 X -1 Y s 852 430 m 1 X
 -1 Y 1 -1 d -2 Y 1 X -1 Y 1 X -1 Y 1 -1 d -1 Y 1 X -1 Y 1 X -1 Y 1 X -1 Y 1 X -1 Y s 861 418 m -1 Y 1 X -2 Y 1 X -1 Y 1 -1 d 1 X -2 Y 1 X 1 -1 d 1 X -2 Y 1 X -1 Y 1 X s 870 407 m -1 Y 1 X 1 -1 d -1 Y 1 X -1 Y 1 X -1 Y 1 X -1 Y 1 -1 d 1 X -1 Y 1 -1 d
 -1 Y 1 X s 879 397 m -1 Y 1 X -2 Y 1 X -1 Y 1 X -1 Y 1 X -2 Y 2 X -1 Y 1 X 1 -1 d s 887 388 m 1 X -1 Y 1 X -1 Y 1 X -1 Y 2 X -1 Y 1 -1 d 1 X -1 Y 1 X -1 Y 1 X -1 Y s 896 380 m 1 X -1 Y 1 X -3 Y 1 X -1 Y 1 X 1 -1 d -1 Y 1 X 1 -1 d -1 Y 1 X -1 Y 1 X s
 905 370 m -1 Y 1 X -1 Y 1 X -1 Y 1 X -2 Y 1 X 1 -1 d -1 Y 1 X -1 Y 1 X -2 Y 2 X s 914 360 m -1 Y 1 -1 d -1 Y 2 X -1 Y 1 -1 d 1 X -1 Y 1 X -1 Y 1 X 1 -1 d -1 Y 1 X s 923 351 m -1 Y 1 X 1 -1 d 1 -1 d -1 Y 1 X -1 Y 2 X -2 Y 2 X -1 Y s 931 343 m 1 X -1
 Y 2 X -1 Y 2 X -1 Y 1 X -1 Y 1 X -1 Y 1 X -1 Y 1 X -1 Y s 940 336 m 1 X -1 Y 1 X -1 Y 1 X -1 Y 1 X -1 Y 1 X -1 Y 1 X -1 Y 2 X -1 Y 1 -1 d s 949 328 m -1 Y 1 X -1 Y 1 -1 d 1 X -1 Y 2 X -1 Y 1 X 1 -1 d 1 X -1 Y 1 X s 958 321 m -1 Y 1 X -1 Y 4 X -1 Y 1
 X -1 Y 2 X -1 Y 1 X s 967 316 m -1 Y 1 X -1 Y 1 X -1 Y 2 X -1 Y 1 X -1 Y 2 X -1 Y 1 X -1 Y s 975 309 m 1 X -1 Y 1 X -1 Y 3 X -1 Y 1 -1 d 1 X -1 Y 1 X -1 Y 1 X -1 Y s 984 302 m 1 -1 d 2 X -1 Y 2 X -1 Y 2 X -1 Y 2 X s 993 298 m -1 Y 2 X -1 Y 2 X -1 Y
 1 X -1 Y 2 X -1 Y 1 X 1 -1 d s 1002 292 m 2 X -1 Y 1 -1 d 1 X 1 -1 d 1 X -1 Y 3 X s 1011 288 m -1 Y 1 X -1 Y 1 X -1 Y 1 X -1 Y 1 -1 d -1 Y 3 X 1 -1 d s 1019 281 m 2 X -1 Y 1 X -1 Y 2 X -1 Y 1 X -1 Y 3 X s 1028 277 m 1 X -1 Y 2 X -1 Y 2 X -1 Y 1 X -1
 Y 1 X -1 Y 2 X -1 Y s 1037 271 m 3 X -1 Y 3 X -1 Y 1 X -1 Y 1 X -1 Y 1 X s 1046 267 m 1 X -1 Y 2 X -1 Y 3 X -1 Y 1 X -1 Y 2 X s 1055 263 m -1 Y 2 X -1 Y 1 X -1 Y 4 X -1 Y 1 X s 1063 259 m 1 X -1 Y 1 X -1 Y 1 X -1 Y 2 X -1 Y 3 X -1 Y 1 X s 1072 254 m
 2 X -1 Y 1 X -1 Y 1 X -1 Y 4 X -1 Y 1 X s 1081 250 m 2 X -1 Y 1 X -1 Y 2 X 1 -1 d 1 X -1 Y 2 X s 1090 246 m 1 X -1 Y 1 X -1 Y 1 X 1 -1 d 4 X -1 Y 1 X s 1099 242 m 1 -1 d 3 X 1 -1 d 1 X 1 -1 d 1 X -1 Y s 1107 238 m 1 X -1 Y 2 X -1 Y 1 -1 d 3 X -1 Y 2
 X s 1116 234 m 1 X -1 Y 2 X -1 Y 3 X -1 Y 1 X -1 Y 2 X s 1125 230 m 1 X -1 Y 4 X -1 Y 2 X 1 -1 d 1 X s 1134 227 m -1 Y 2 X -1 Y 4 X -1 Y 2 X -1 Y 1 X s 1143 223 m 2 X -1 Y 2 X -1 Y 3 X -1 Y 1 X s 1151 220 m 4 X 1 -1 d 1 X -1 Y 3 X s 1160 218 m 1 X
 -1 Y 5 X -1 Y 1 X -1 Y 2 X s 1169 215 m 4 X -1 Y 3 X -1 Y 2 X s 1178 213 m 1 -1 d 2 X -1 Y 2 X -1 Y 4 X s 1187 210 m 1 X -1 Y 3 X -1 Y 4 X s 1195 208 m 2 X -1 Y 3 X -1 Y 1 X -1 Y 3 X s 1204 205 m 2 X -1 Y 3 X -1 Y 2 X -1 Y 2 X s 1213 202 m -1 Y 1 X
 s 0 0.666667 0 c 1 1 1 c black 0 0.666667 0 c 245 1049 m 2 Y 1 1 d 7 Y 1 2 d 7 Y 1 3 d 12 Y 1 3 d 11 Y 1 2 d 7 Y 1 2 d 7 Y 1 1 d 6 Y 1 1 d 4 Y 1 1 d 1 Y s 254 1129 m 2 Y 1 1 d 3 Y 1 1 d 3 Y 1 1 d 2 Y 1 X 2 Y 1 1 d 1 Y 1 X 2 Y 1 X 1 Y 1 1 d 1 Y 1 X s
 263 1151 m 2 Y 1 X 1 Y 1 X 1 Y 1 1 d 1 X 1 Y 1 1 d 1 1 d 1 X 1 Y 1 X 1 Y s 271 1161 m 1 X 1 1 d 1 X 1 Y 1 X 1 1 d 2 X 1 Y 2 X s 280 1165 m 1 X 1 Y 1 -1 d 1 Y 3 X 1 1 d -1 Y 1 Y 3 X s 289 1167 m 1 X 1 Y 4 X 1 Y 4 X s 298 1169 m 1 X 1 Y 7 X 1 Y 1 X s
 307 1171 m 8 X s 315 1171 m 2 X 1 Y 7 X s 324 1172 m 1 1 d 8 X s 333 1173 m 4 X 1 Y 5 X s 342 1174 m 9 X s 351 1174 m 3 X 1 1 d 4 X s 359 1175 m 9 X s 368 1175 m 9 X s 377 1175 m 1 X 1 Y 8 X s 386 1176 m 9 X s 395 1176 m 6 X 1 Y 2 X s 403 1177 m 9 X
 s 412 1177 m 9 X s 421 1177 m 9 X s 430 1177 m 9 X s 439 1177 m 8 X 1 Y s 447 1178 m 9 X s 456 1178 m 9 X s 465 1178 m 6 X -1 Y 1 1 d 2 X s 474 1178 m 8 X -1 Y 1 X s 483 1177 m 1 X 1 Y 1 -1 d 1 Y 6 X s 491 1178 m 9 X s 500 1178 m 9 X s 509 1178 m 9
 X s 518 1178 m 9 X s 527 1178 m 8 X s 535 1178 m 9 X s 544 1178 m 7 X -1 Y 2 X s 553 1177 m 9 X s 562 1177 m 9 X s 571 1177 m 8 X s 579 1177 m 1 X -1 Y 8 X s 588 1176 m 9 X s 597 1176 m 4 X -1 Y 5 X s 606 1175 m 9 X s 615 1175 m 7 X -1 Y 1 X s 623
 1174 m 7 X -1 Y 2 X s 632 1173 m 3 X 1 1 d 2 X -1 Y 3 X s 641 1173 m 4 X -1 Y 4 X 1 1 d s 650 1173 m -1 Y 9 X s 659 1172 m 6 X -1 Y 2 X s 667 1171 m 8 X -1 Y 1 X 1 Y s 676 1171 m 1 X -1 Y 7 X 1 -1 d s 685 1169 m 6 X -1 Y 2 X -1 Y 1 X s 694 1167 m 4
 X 1 Y 1 X -1 Y 1 Y 4 X s 703 1168 m 2 X 1 Y 1 -1 d 1 X 1 Y -1 Y 1 X 1 Y 3 X s 711 1169 m 1 X -1 Y 1 Y 5 X 1 Y 1 X -1 Y 1 X 1 Y 1 X -1 Y s 720 1169 m 1 X 1 Y 5 X 1 Y 3 X s 729 1171 m 1 Y -1 Y 1 X 1 Y -1 Y 1 1 d -1 Y 1 X 1 Y 2 X 1 Y 3 X 1 1 d -1 Y s
 738 1173 m 1 Y 1 X 1 1 d 1 X 1 Y 3 X 1 Y 1 X -1 Y 1 Y 1 X 1 1 d s 747 1178 m 3 X -1 Y 1 X 1 Y -1 Y 1 Y 1 X -1 Y 1 Y 2 X 1 Y 1 X -1 Y 1 Y s 755 1179 m 1 X -1 Y 1 X 1 Y 2 X 1 1 d 2 X 1 Y 2 X s 764 1181 m 1 X 1 1 d 3 X 1 Y 2 X 1 Y -1 Y 1 1 d 1 X s 773
 1184 m 1 X 1 Y 2 X 1 Y 3 X 1 1 d 2 X 1 Y s 782 1188 m 2 X 1 Y 1 X 1 Y 1 X 1 -1 d 1 Y 2 X 1 Y 2 X s 791 1191 m 1 Y 2 X 1 1 d 2 X 1 1 d 2 X 1 Y s 799 1195 m 3 X 1 Y -1 Y 1 Y 1 X 1 -1 d 1 Y 2 X 1 Y -1 Y 1 1 d 1 X 1 Y -1 Y s 808 1197 m 1 Y 1 -1 d 1 Y 6
 X 1 Y 2 X s 817 1199 m -1 Y 1 Y 1 -1 d 1 Y 5 X 1 Y 3 X s 826 1200 m 2 X 1 Y -1 Y 1 1 d 3 X -1 Y 1 Y -1 Y 2 X 1 Y 1 X s 835 1201 m 1 X 1 Y 2 X 1 1 d -1 Y 1 Y 3 X 1 Y 1 X s 843 1204 m 2 X 1 Y 2 X 1 Y -1 Y 1 Y 3 X 1 Y 2 X s 852 1207 m 1 Y 1 -1 d 1 Y 2
 X 1 Y 4 X 1 Y 2 X s 861 1210 m 1 X 1 Y 1 X 1 1 d -1 Y 1 Y 4 X 1 Y 2 X s 870 1213 m 3 X 1 1 d 4 X 1 Y -1 Y 1 1 d s 879 1215 m 2 X 1 Y 1 -1 d 1 Y 5 X s 887 1216 m 6 X 1 1 d 1 X 1 -1 d 1 Y s 896 1217 m -1 Y 1 X 1 Y 1 X 1 Y 4 X 1 1 d -1 Y 1 Y -1 Y 2 X s
 905 1218 m 1 Y 3 X 1 Y 4 X 1 Y 1 X -1 Y 1 Y 1 X -1 Y s 914 1220 m 1 Y 9 X s 923 1221 m 2 X 1 Y 6 X s 931 1222 m 6 X -1 Y 1 X 1 Y 2 X s 940 1222 m 5 X 1 Y 1 X -1 Y 1 Y 3 X s 949 1223 m 1 Y 4 X 1 Y 5 X s 958 1225 m 3 X -1 Y 4 X 1 Y 1 X -1 Y 1 Y 1 X s
 967 1225 m 1 X -1 Y 1 1 d 1 X -1 Y 1 1 d 4 X s 975 1225 m 9 X s 984 1225 m 5 X -1 Y 2 X 1 Y 2 X s 993 1225 m 2 X -1 Y 1 Y 1 -1 d 1 Y 1 -1 d 1 X 1 Y -1 Y 1 Y 3 X -1 Y 1 Y 1 X s 1002 1225 m 6 X -1 Y 1 Y 2 X -1 Y 1 Y -1 Y 1 X s 1011 1224 m 1 X 1 Y 1 X
 -1 Y 1 X 1 Y 2 X 1 Y 1 X -1 Y 1 X -1 Y 1 X 1 Y -1 Y s 1019 1224 m 2 X 1 Y 2 X -1 Y 4 X 1 -1 d s 1028 1223 m 3 X -1 Y 1 X 1 Y 1 X -1 Y 1 Y 4 X s 1037 1223 m 7 X -1 Y 1 Y 2 X s 1046 1223 m 3 X -1 Y 2 X 1 Y -1 Y 1 Y 1 X -1 Y 1 1 d -1 Y 1 1 d 1 X s 1055
 1223 m 3 X -1 Y 1 Y 2 X -1 Y 3 X s 1063 1222 m 7 X 1 -1 d 1 Y 1 -1 d s 1072 1221 m 3 X 1 Y 6 X s 1081 1222 m 6 X -1 Y 3 X s 1090 1221 m 1 X 1 Y 2 X -1 Y 1 Y 1 -1 d 3 X 1 -1 d 1 Y 1 X s 1099 1221 m 4 X -1 Y 1 X 1 Y 2 X -1 Y 1 X s 1107 1220 m 3 X 1 Y
 1 X -1 Y 5 X s 1116 1220 m 2 X 1 Y 1 X -1 Y 1 X 1 Y -1 Y 1 X 1 Y -1 Y 2 X 1 Y 2 X -1 Y s 1125 1220 m 2 X -1 Y 7 X s 1134 1219 m 9 X s 1143 1219 m 8 X s 1151 1219 m 3 X -1 Y 3 X 1 Y 1 -1 d 2 X s 1160 1218 m 5 X -1 Y 1 X 1 Y 1 X -1 Y 1 X 1 -1 d s 1169
 1216 m 4 X -1 Y 1 X 1 Y 3 X -1 Y 1 X s 1178 1215 m 1 X 1 Y 1 X -1 Y 4 X -1 Y 3 X s 1187 1214 m 1 X -1 Y 2 X 1 Y 1 X -1 Y 2 X -1 Y 1 X 1 Y -1 Y 1 X s 1195 1212 m 4 X 1 -1 d 4 X s 1204 1211 m 5 X -1 Y 1 Y 1 X -1 Y 3 X s 1213 1210 m 1 Y -1 Y 8 X 1 -1 d
 1 Y s 1222 1210 m 1 X -1 Y 6 X -1 Y 1 X 1 Y 1 X s 1231 1209 m 1 X 1 -1 d 4 X 1 -1 d 1 Y 1 X s 1239 1208 m 1 X -1 Y 6 X -1 Y 1 Y -1 Y 2 X s 1248 1206 m 2 X 1 -1 d 2 X 1 Y 2 X -1 Y 2 X s 1257 1205 m 1 -1 d 6 X -1 Y 1 X 1 1 d s 1266 1204 m 1 -1 d 5 X
 -1 Y 2 X -1 Y 1 1 d s 1275 1202 m -1 Y 3 X -1 Y 1 X -1 Y 1 X 1 Y -1 Y 3 X -1 Y s 1283 1198 m 9 X -1 Y s 1292 1197 m 2 X -1 Y 7 X s 1301 1196 m 2 X -1 Y 1 X 1 Y 1 X -1 Y 5 X -1 Y s 1310 1194 m 4 X -1 Y 3 X -1 Y 2 X s 1319 1192 m 1 X 1 -1 d 6 X s 1327
 1191 m 1 X -1 Y 1 1 d -1 Y 1 X 1 -1 d 2 X -1 Y 2 X -1 Y 1 X s 1336 1187 m 1 1 d -1 Y 3 X 1 -1 d 1 X -1 Y 2 X -1 Y 1 X s 1345 1184 m 1 X -1 Y 2 X 1 -1 d 3 X -1 Y 2 X s 1354 1181 m 1 X -1 Y 7 X 1 Y -1 Y 1 X s 1363 1180 m 1 -1 d 1 X 1 1 d -1 Y 2 X -1 Y
 1 X 1 Y -1 Y 2 X s 1371 1178 m 3 X 1 -1 d 3 X -1 Y 2 X s 1380 1176 m 5 X -1 Y 4 X s 1389 1175 m 1 X -1 Y 1 X -1 Y 1 1 d -1 Y 6 X -1 Y s 1398 1172 m 4 X -1 Y 2 X -1 Y 3 X s 1407 1170 m 1 -1 d 5 X -1 Y 2 X s 1415 1168 m 3 X -1 Y 4 X -1 Y 2 X s 1424
 1166 m 7 X -1 Y 2 X -1 Y s 1433 1164 m 4 X -1 Y 3 X -1 Y 1 Y 1 X -1 Y 1 X s 1442 1162 m 2 X -1 Y 1 X 1 Y -1 Y 3 X -1 Y 3 X s 1451 1160 m 1 X -1 Y 1 X 1 -1 d 2 X -1 Y 1 X -1 Y 2 X -1 Y s 1459 1155 m 4 X -1 Y 1 X 1 Y 2 X -1 Y 2 X -1 Y s 1468 1153 m 2
 X 1 -1 d 4 X -1 Y 2 X s 1477 1151 m 1 X -1 Y 1 X -1 Y 1 Y 1 X -1 Y 1 X 1 Y 1 X -1 Y 1 Y 1 X -1 Y 3 X s 1486 1149 m 1 X -1 Y 4 X -1 Y 2 X -1 Y 2 X s 1495 1146 m 2 X -1 Y 1 X 1 -1 d 3 X -1 Y 1 X s 1503 1143 m 3 X -1 Y 1 X -1 Y 5 X s 1512 1141 m 1 X -1
 Y 2 X -1 Y 1 X -1 Y 2 X -1 Y 3 X -1 Y 1 Y -1 Y s 1521 1136 m 4 X -1 Y 3 X -1 Y 2 X -1 Y s 1530 1133 m 2 X -1 Y 1 X -1 Y 2 X 1 Y -1 Y 2 X -1 Y 2 X s 1539 1130 m 1 X -1 Y 1 -1 d 3 X 1 -1 d 2 X s 1547 1127 m 2 X -1 Y 2 X -1 Y 4 X -1 Y 1 X -1 Y s 1556
 1123 m 2 X -1 Y 3 X 1 -1 d 2 X -1 Y 1 X s 1565 1120 m -1 Y 3 X -1 Y 2 X -1 Y 4 X s 1574 1117 m 1 X 1 -1 d 1 X -1 Y 1 Y 1 -1 d 3 X 1 -1 d 1 X s 1583 1114 m 1 -1 d 1 X -1 Y 2 X -1 Y 4 X s 1591 1111 m 1 -1 d 2 X -1 Y 2 X -1 Y 3 X 1 -1 d s 1600 1107 m 1
 X -1 Y 1 X -1 Y 1 Y 1 -1 d 2 X -1 Y 2 X -2 Y 1 X -1 Y 1 X s 1609 1101 m 1 -1 d 1 X -1 Y 3 X -1 Y 1 X 1 Y -1 Y 3 X s 1618 1098 m -1 Y 1 X -1 Y 3 X 1 -1 d -1 Y 1 X -1 Y 3 X s 1627 1093 m 2 X -1 Y 3 X -1 Y 2 X -1 Y 1 X -1 Y s 1635 1089 m 2 X -1 Y 1 X
 -1 Y 4 X -1 Y 2 X s 1644 1086 m 2 X 1 -1 d 1 X -1 Y 2 X -1 Y 2 X -1 Y 1 X s 1653 1082 m 1 X -1 Y 4 X -1 Y 2 X -1 Y 1 X -1 Y 1 X s 1662 1078 m 1 X -1 Y 2 X -1 Y 1 X -1 Y 2 X -1 Y 2 X 1 -1 d s 1671 1073 m -1 Y 1 X -2 Y 1 X 1 Y -1 Y 1 X 1 -1 d 3 X -1 Y
 1 X -1 Y s 1679 1067 m 3 X -1 Y 1 X -1 Y 4 X -1 Y 1 -1 d s 1688 1063 m 3 X -1 Y 3 X -1 Y 1 Y 1 X -1 Y 2 X s 1697 1061 m -1 Y 2 X -1 Y 1 X -1 Y 1 X -1 Y 1 X -1 Y 2 X 1 Y 1 -1 d 1 X s 1706 1056 m -1 Y 3 X -1 Y 2 X -1 Y 1 X 1 -1 d 1 X -1 Y 1 X s 1715
 1051 m -1 Y 1 X -1 Y 1 1 d 1 -1 d 2 X 1 -1 d 1 X -1 Y 1 X -1 Y s 1723 1046 m 2 X 1 -1 d 1 X -1 Y 3 X -1 Y 2 X s 1732 1043 m 1 X -1 Y 2 X -1 Y 2 X -1 Y 1 X -1 Y 2 X -1 Y 1 X s 1741 1038 m 1 X -1 Y 1 X 1 -1 d 1 Y 1 X -1 Y 1 Y -1 Y 2 X -1 Y 1 X -1 Y 1
 X -1 Y 1 1 d -1 Y 1 Y s 1750 1034 m 1 -1 d 1 -1 d 1 X 1 -1 d -1 Y 1 X -1 Y 1 Y 1 X -1 Y 1 X 1 -1 d 1 X s 1759 1028 m 1 X -1 Y 1 X 1 -1 d 1 X 1 -1 d 1 X -1 Y 2 X s 1767 1024 m 3 X -1 Y 1 X 1 -1 d 1 X -1 Y 1 X -1 Y 1 X -1 Y 1 X s 1776 1019 m 1 X -1 Y
 3 X -1 Y 3 X -1 Y 2 X -1 Y s 1785 1015 m 1 X -1 Y 2 X -1 Y 1 X -1 Y 1 X -1 Y 1 X -1 Y 1 X -1 Y 2 X -1 Y s 1794 1008 m 1 X 1 -1 d 1 X -1 Y 1 X -1 Y 2 X -1 Y 2 X -1 Y 1 X s 1803 1003 m 1 X 1 -1 d 1 Y -1 Y 2 X -1 Y 2 X -1 Y 3 X s 1812 1000 m -1 Y 1 X
 -1 Y 1 X -1 Y 1 X -1 Y 1 X 1 Y 1 -1 d -1 Y 3 X -1 Y s 1820 994 m 1 X -1 Y 2 X -1 Y 1 X -1 Y 1 -1 d 1 -1 d 1 X -1 Y 1 X 1 -1 d s 1829 987 m 1 X -1 Y 1 X 1 Y -1 Y 1 X -1 Y 2 X -1 Y 1 X 1 -1 d 1 X -1 Y 1 Y 1 X s 1838 983 m -1 Y 1 X -1 Y 1 X -1 Y 1 Y 1
 X -1 Y 2 X -1 Y 2 X -2 Y 2 X s 1847 977 m -1 Y 2 X -1 Y 2 X 1 -1 d 1 -1 d 1 X -1 Y 2 X s 1856 972 m -1 Y 1 X -1 Y 1 X -1 Y 1 Y 1 X -1 Y 1 X -1 Y 2 X 1 -1 d -1 Y 1 X s 1864 966 m 1 X -1 Y 2 X -1 Y 1 X -1 Y 2 X 1 -1 d 1 X -1 Y 1 X s 1873 961 m -1 Y 3
 X -1 Y 2 X -1 Y 1 -1 d 1 -1 d 1 -1 d 1 X -1 Y s 1882 954 m 1 Y -1 Y 2 X -1 Y 2 X -1 Y 2 X 1 -1 d 2 X s 1891 951 m 1 X -1 Y 1 X -1 Y 2 X -2 Y 1 X -1 Y 1 X -2 Y 2 X -1 Y 1 X s 1900 943 m -2 Y 1 X 1 -1 d 1 X 1 -1 d 1 -1 d 1 X -1 Y 2 X s 1908 937 m 1 -1
 d 1 Y -1 Y 1 X -1 Y 1 X -1 Y 2 X -1 Y 1 -1 d -1 Y 2 X -1 Y 1 X -1 Y s 1917 929 m 1 X -1 Y 1 X -1 Y 1 X -1 Y 1 X -1 Y 1 X -1 Y 1 -1 d 1 X -1 Y 2 X s 1926 922 m -1 Y 2 X -1 Y 1 -1 d -1 Y 2 X -2 Y 1 X 1 -1 d -1 Y 1 -1 d 1 X -1 Y s 1935 912 m 1 X -1 Y 1
 X 1 -1 d 1 -1 d 2 X -1 Y 1 X -1 Y 1 X 1 -1 d s 1944 906 m 1 X -1 Y 2 X 1 -1 d 1 X -1 Y 1 X -1 Y 1 -1 d -1 Y 1 X -1 Y s 1952 899 m 1 X -1 Y 1 X -1 Y 1 X 1 -1 d -1 Y 1 X 1 -1 d 1 -1 d -1 Y 1 X -1 Y 1 X s 1961 891 m -1 Y 1 X -1 Y 1 X -1 Y 1 X -2 Y 1 X
 -1 Y 1 -1 d 1 Y -3 Y 1 X -2 Y 1 X -1 Y 1 X -1 Y 1 X -1 Y s 1970 877 m 1 X -1 Y 1 X -2 Y 1 X -1 Y 1 X -1 Y 1 X -2 Y 1 X 1 -1 d -3 Y 1 X -2 Y 1 X s 1979 864 m 1 -1 d -1 Y 1 X -1 Y 1 X -1 Y 1 X -1 Y 1 -1 d 1 -1 d 1 -1 d -2 Y 1 X -2 Y 1 X s 1988 852 m 1
 X -1 Y 1 X -1 Y 1 X -1 Y 1 X -1 Y 1 X -1 Y 1 X -2 Y 1 X -2 Y 1 X -1 Y s 1996 842 m -1 Y 1 X -2 Y 1 X -1 Y 1 X -2 Y 1 -1 d 1 X -1 Y 1 X -1 Y 1 X -2 Y 1 X -2 Y 1 X s 2005 829 m -1 Y 1 X -2 Y 1 -1 d -2 Y 1 X -2 Y 1 X -1 Y 1 X -1 Y 1 X -2 Y 1 X -2 Y 1 X
 -2 Y 1 X -1 Y s 2014 812 m 1 -1 d -1 Y 1 X -2 Y 1 X -2 Y 1 -1 d -4 Y 1 X -1 Y 1 -1 d -2 Y 1 -1 d -2 Y 1 -1 d -1 Y 1 -1 d -2 Y s 2023 789 m -2 Y 1 X -3 Y 1 X -4 Y 1 -1 d -2 Y 1 -1 d -2 Y 1 X -3 Y 1 -1 d -2 Y 1 -2 d -2 Y 1 -1 d -3 Y 1 X s 2032 760 m
 -4 Y 1 -1 d -3 Y 1 -1 d -5 Y 1 X -6 Y 1 -2 d -3 Y 1 -1 d -10 Y 1 -2 d -7 Y 1 -1 d -13 Y 1 -5 d -21 Y s 2040 675 m -11 Y 1 -16 d -28 Y s black 3 lw 245 201 m 1796 X s 422 241 m -40 Y s 458 221 m -20 Y s 494 221 m -20 Y s 530 221 m -20 Y s 566 221 m
 -20 Y s 602 241 m -40 Y s 638 221 m -20 Y s 674 221 m -20 Y s 710 221 m -20 Y s 746 221 m -20 Y s 782 241 m -40 Y s 818 221 m -20 Y s 854 221 m -20 Y s 890 221 m -20 Y s 926 221 m -20 Y s 962 241 m -40 Y s 997 221 m -20 Y s 1033 221 m -20 Y s 1069
 221 m -20 Y s 1105 221 m -20 Y s 1141 241 m -40 Y s 1177 221 m -20 Y s 1213 221 m -20 Y s 1249 221 m -20 Y s 1285 221 m -20 Y s 1321 241 m -40 Y s 1357 221 m -20 Y s 1393 221 m -20 Y s 1429 221 m -20 Y s 1465 221 m -20 Y s 1501 241 m -40 Y s 1537
 221 m -20 Y s 1573 221 m -20 Y s 1609 221 m -20 Y s 1645 221 m -20 Y s 1681 241 m -40 Y s 1717 221 m -20 Y s 1753 221 m -20 Y s 1789 221 m -20 Y s 1825 221 m -20 Y s 1861 241 m -40 Y s 1897 221 m -20 Y s 1933 221 m -20 Y s 1969 221 m -20 Y s 2005
 221 m -20 Y s 2041 241 m -40 Y s 422 241 m -40 Y s 386 221 m -20 Y s 350 221 m -20 Y s 314 221 m -20 Y s 278 221 m -20 Y s 2041 241 m -40 Y s 245 201 m 1140 Y s 291 305 m -46 X s 268 328 m -23 X s 268 351 m -23 X s 268 374 m -23 X s 268 397 m -23 X
 s 291 420 m -46 X s 268 443 m -23 X s 268 466 m -23 X s 268 489 m -23 X s 268 512 m -23 X s 291 535 m -46 X s 268 558 m -23 X s 268 581 m -23 X s 268 604 m -23 X s 268 627 m -23 X s 291 650 m -46 X s 268 673 m -23 X s 268 696 m -23 X s 268 719 m -23
 X s 268 742 m -23 X s 291 765 m -46 X s 268 788 m -23 X s 268 812 m -23 X s 268 835 m -23 X s 268 858 m -23 X s 291 881 m -46 X s 268 904 m -23 X s 268 927 m -23 X s 268 950 m -23 X s 268 973 m -23 X s 291 996 m -46 X s 268 1019 m -23 X s 268 1042 m
 -23 X s 268 1065 m -23 X s 268 1088 m -23 X s 291 1111 m -46 X s 268 1134 m -23 X s 268 1157 m -23 X s 268 1180 m -23 X s 268 1203 m -23 X s 291 1226 m -46 X s 268 1249 m -23 X s 268 1272 m -23 X s 268 1295 m -23 X s 268 1318 m -23 X s 291 1341 m
 -46 X s 291 305 m -46 X s 268 282 m -23 X s 268 259 m -23 X s 268 236 m -23 X s 268 213 m -23 X s 0.490196 0.545098 0.615686 c 1 1 1 c 0.490196 0.545098 0.615686 c 907 201 245 1341 bl 245 1341 m 907 X s 1152 1341 m 201 Y s 1152 1542 m -907 X s 245
 1542 m -201 Y s black
 gsave  2268 1676 0 0 C 515.735 1471.36 t 0 r /Helvetica-Bold findfont 56.8825 sf 0 0 m (Signal efficiency) show NC gr  0 0 0.933333 c 9 lw 286 1492 m 190 X s black
 gsave  2268 1676 0 0 C 515.735 1368.97 t 0 r /Helvetica-Bold findfont 56.8825 sf 0 0 m (Background efficiency) show NC gr  1 0 0 c 286 1391 m 190 X s 0.490196 0.545098 0.615686 c 3 lw 1 1 1 c 0.490196 0.545098 0.615686 c 889 201 1152 1341 bl 1152
 1341 m 889 X s 2041 1341 m 201 Y s 2041 1542 m -889 X s 1152 1542 m -201 Y s black
 gsave  2268 1676 0 0 C 1418.27 1494.11 t 0 r /Helvetica-Bold findfont 56.8825 sf 0 0 m (Signal purity) show NC gr  0 0 0.933333 c[  52 12 ] 0 sd 6 lw 1192 1509 m 187 X s black
 gsave  2268 1676 0 0 C 1418.27 1429.65 t 0 r /Helvetica-Bold findfont 56.8825 sf 0 0 m (Signal efficiency*purity) show NC gr  0 0 0.933333 c[  22 12 ] 0 sd 1192 1441 m 187 X s black
 gsave  2268 1676 0 0 C 1501.7 1361.39 t 0 r /Helvetica-Bold findfont 56.8825 sf 0 0 m (S+B) show NC gr [  ] 0 sd 1483 1407 m 7 -49 d s 3 lw 1490 1358 m 8 64 d s 1498 1422 m 114 X s
 gsave  2268 1676 0 0 C 1418.27 1361.39 t 0 r /Helvetica-Bold findfont 56.8825 sf 0 0 m (S/) show NC gr  0 0.666667 0 c 9 lw 1192 1374 m 187 X s black 3 lw 245 1226 m 1796 X s
 gsave  2268 1676 0 0 C 337.503 386.801 t 0 r /Helvetica-Bold findfont 53.0904 sf 0 0 m (For 1000 signal and 1000 background) show NC gr 
 gsave  2268 1676 0 0 C 1058.01 318.542 t 0 r /Helvetica-Bold findfont 53.0904 sf 0 0 m ( is) show NC gr 
 gsave  2268 1676 0 0 C 955.626 318.542 t 0 r /Helvetica-Bold findfont 53.0904 sf 0 0 m (S+B) show NC gr  6 lw 933 360 m 7 -45 d s 3 lw 940 315 m 8 60 d s 948 375 m 110 X s
 gsave  2268 1676 0 0 C 337.503 318.542 t 0 r /Helvetica-Bold findfont 53.0904 sf 0 0 m (events the maximum S/) show NC gr 
 gsave  2268 1676 0 0 C 337.503 254.075 t 0 r /Helvetica-Bold findfont 53.0904 sf 0 0 m (26.42 when cutting at  0.43) show NC gr  0.490196 0.545098 0.615686 c 0.364706 0.419608 0.490196 c 1471 96 23 1572 bf 0.490196 0.545098 0.615686 c 23 1572 m 1471
 X s 1494 1572 m 96 Y s 1494 1668 m -1471 X s 23 1668 m -96 Y s 1 1 1 c black 1 1 1 c
 gsave  2268 1676 0 0 C 75.8434 1600.29 t 0 r /Helvetica-Bold findfont 75.8434 sf 0 0 m (Cut efficiencies and optimal cut value) show NC gr  0 0.666667 0 c 2041 201 m 1140 Y s 1995 201 m 46 X s 2018 240 m 23 X s 2018 280 m 23 X s 2018 319 m 23 X s
 2018 358 m 23 X s 1995 397 m 46 X s 2018 436 m 23 X s 2018 476 m 23 X s 2018 515 m 23 X s 2018 554 m 23 X s 1995 593 m 46 X s 2018 633 m 23 X s 2018 672 m 23 X s 2018 711 m 23 X s 2018 750 m 23 X s 1995 789 m 46 X s 2018 829 m 23 X s 2018 868 m 23 X
 s 2018 907 m 23 X s 2018 946 m 23 X s 1995 985 m 46 X s 2018 1025 m 23 X s 2018 1064 m 23 X s 2018 1103 m 23 X s 2018 1142 m 23 X s 1995 1182 m 46 X s 1995 1182 m 46 X s 2018 1221 m 23 X s 2018 1260 m 23 X s 2018 1299 m 23 X s 2018 1338 m 23 X s
 black 0 0.666667 0 c
 gsave  2268 1676 0 0 C 2051.56 178.232 t 0 r /Helvetica-Bold findfont 64.4669 sf 0 0 m (0) show NC gr  black 0 0.666667 0 c
 gsave  2268 1676 0 0 C 2051.56 371.632 t 0 r /Helvetica-Bold findfont 64.4669 sf 0 0 m (5) show NC gr  black 0 0.666667 0 c
 gsave  2268 1676 0 0 C 2051.56 568.825 t 0 r /Helvetica-Bold findfont 64.4669 sf 0 0 m (10) show NC gr  black 0 0.666667 0 c
 gsave  2268 1676 0 0 C 2051.56 766.018 t 0 r /Helvetica-Bold findfont 64.4669 sf 0 0 m (15) show NC gr  black 0 0.666667 0 c
 gsave  2268 1676 0 0 C 2051.56 959.419 t 0 r /Helvetica-Bold findfont 64.4669 sf 0 0 m (20) show NC gr  black 0 0.666667 0 c
 gsave  2268 1676 0 0 C 2051.56 1156.61 t 0 r /Helvetica-Bold findfont 64.4669 sf 0 0 m (25) show NC gr  black 0 0.666667 0 c
 gsave  2268 1676 0 0 C 2203.25 963.211 t 90 r /Helvetica-Bold findfont 64.4669 sf 0 0 m (Significance) show NC gr 
 gr  gr showpage
end
%%EOF
