%!PS-Adobe-2.0 EPSF-2.0
%%BoundingBox:  0 0 567 419
%%Title: dataset/plots/mvaeffs_SVM.eps: Cut efficiencies for SVM classifier
%%Creator: ROOT Version 6.12/06
%%CreationDate: Mon May 21 12:04:08 2018
%%DocumentNeededResources: ProcSet (FontSetInit)
%%EndComments
%%BeginProlog
80 dict begin
/s {stroke} def /l {lineto} def /m {moveto} def /t {translate} def
/r {rotate} def /rl {roll}  def /R {repeat} def
/d {rlineto} def /rm {rmoveto} def /gr {grestore} def /f {eofill} def
/c {setrgbcolor} def /black {0 setgray} def /sd {setdash} def
/cl {closepath} def /sf {scalefont setfont} def /lw {setlinewidth} def
/box {m dup 0 exch d exch 0 d 0 exch neg d cl} def
/NC{systemdict begin initclip end}def/C{NC box clip newpath}def
/bl {box s} def /bf {gsave box gsave f grestore 1 lw [] 0 sd s grestore} def /Y { 0 exch d} def /X { 0 d} def 
/K {{pop pop 0 moveto} exch kshow} bind def
/ita {/ang 15 def gsave [1 0 ang dup sin exch cos div 1 0 0] concat} def 
/mp {newpath /y exch def /x exch def} def
/side {[w .77 mul w .23 mul] .385 w mul sd w 0 l currentpoint t -144 r} def
/mr {mp x y w2 0 360 arc} def /m24 {mr s} def /m20 {mr f} def
/mb {mp x y w2 add m w2 neg 0 d 0 w neg d w 0 d 0 w d cl} def
/mt {mp x y w2 add m w2 neg w neg d w 0 d cl} def
/w4 {w 4 div} def
/w6 {w 6 div} def
/w8 {w 8 div} def
/m21 {mb f} def /m25 {mb s} def /m22 {mt f} def /m26{mt s} def
/m23 {mp x y w2 sub m w2 w d w neg 0 d cl f} def
/m27 {mp x y w2 add m w3 neg w2 neg d w3 w2 neg d w3 w2 d cl s} def
/m28 {mp x w2 sub y w2 sub w3 add m w3 0 d  0 w3 neg d w3 0 d 0 w3 d w3 0 d  0 w3 d w3 neg 0 d 0 w3 d w3 neg 0 d 0 w3 neg d w3 neg 0 d cl s } def
/m29 {mp gsave x w2 sub y w2 add w3 sub m currentpoint t 4 {side} repeat cl fill gr} def
/m30 {mp gsave x w2 sub y w2 add w3 sub m currentpoint t 4 {side} repeat cl s gr} def
/m31 {mp x y w2 sub m 0 w d x w2 sub y m w 0 d x w2 sub y w2 add m w w neg d x w2 sub y w2 sub m w w d s} def
/m32 {mp x y w2 sub m w2 w d w neg 0 d cl s} def
/m33 {mp x y w2 add m w3 neg w2 neg d w3 w2 neg d w3 w2 d cl f} def
/m34 {mp x w2 sub y w2 sub w3 add m w3 0 d  0 w3 neg d w3 0 d 0 w3 d w3 0 d  0 w3 d w3 neg 0 d 0 w3 d w3 neg 0 d 0 w3 neg d w3 neg 0 d cl f } def
/m35 {mp x y w2 add m w2 neg w2 neg d w2 w2 neg d w2 w2 d w2 neg w2 d x y w2 sub m 0 w d x w2 sub y m w 0 d s} def
/m36 {mb x w2 sub y w2 add m w w neg d x w2 sub y w2 sub m w w d s} def
/m37 {mp x y m w4 neg w2 d w4 neg w2 neg d w2 0 d  w4 neg w2 neg d w2 0 d w4 neg w2 d w2 0 d w4 neg w2 d w4 neg w2 neg d cl s} def
/m38 {mp x w4 sub y w2 add m w4 neg w4 neg d 0 w2 neg d w4 w4 neg d w2 0 d w4 w4 d 0 w2 d w4 neg w4 d w2 neg 0 d x y w2 sub m 0 w d x w2 sub y m w 0 d cl s} def
/m39 {mp x y m w4 neg w2 d w4 neg w2 neg d w2 0 d  w4 neg w2 neg d w2 0 d w4 neg w2 d w2 0 d w4 neg w2 d w4 neg w2 neg d cl f} def
/m40 {mp x y m w4 w2 d w4 w4 neg d w2 neg w4 neg d w2 w4 neg d w4 neg w4 neg d w4 neg w2 d w4 neg w2 neg d w4 neg w4 d w2 w4 d w2 neg w4 d w4 w4 d w4 w2 neg d cl s} def
/m41 {mp x y m w4 w2 d w4 w4 neg d w2 neg w4 neg d w2 w4 neg d w4 neg w4 neg d w4 neg w2 d w4 neg w2 neg d w4 neg w4 d w2 w4 d w2 neg w4 d w4 w4 d w4 w2 neg d cl f} def
/m42 {mp x y w2 add m w8 neg w2 -3 4 div mul d w2 -3 4 div mul w8 neg d w2 3 4 div mul w8 neg d w8 w2 -3 4 div mul d w8 w2 3 4 div mul d w2 3 4 div mul w8 d w2 -3 4 div mul w8 d w8 neg w2 3 4 div mul d cl s} def
/m43 {mp x y w2 add m w8 neg w2 -3 4 div mul d w2 -3 4 div mul w8 neg d w2 3 4 div mul w8 neg d w8 w2 -3 4 div mul d w8 w2 3 4 div mul d w2 3 4 div mul w8 d w2 -3 4 div mul w8 d w8 neg w2 3 4 div mul d cl f} def
/m44 {mp x y m w6 neg w2 d w2 2 3 div mul 0 d w6 neg w2 neg d w2 w6 d 0 w2 -2 3 div mul d w2 neg w6 d w6 w2 neg d w2 -2 3 div mul 0 d w6 w2 d w2 neg w6 neg d 0 w2 2 3 div mul d w2 w6 neg d cl s} def
/m45 {mp x y m w6 neg w2 d w2 2 3 div mul 0 d w6 neg w2 neg d w2 w6 d 0 w2 -2 3 div mul d w2 neg w6 d w6 w2 neg d w2 -2 3 div mul 0 d w6 w2 d w2 neg w6 neg d 0 w2 2 3 div mul d w2 w6 neg d cl f} def
/m46 {mp x y w4 add m w4 neg w4 d w4 neg w4 neg d  w4 w4 neg d w4 neg w4 neg d w4 w4 neg d w4 w4 d w4 w4 neg d w4 w4 d w4 neg w4 d w4 w4 d w4 neg w4 d w4 neg w4 neg d cl s} def
/m47 {mp x y w4 add m w4 neg w4 d w4 neg w4 neg d w4 w4 neg d w4 neg w4 neg d  w4 w4 neg d w4 w4 d w4 w4 neg d w4 w4 d w4 neg w4 d w4 w4 d w4 neg w4 d w4 neg w4 neg d cl f} def
/m48 {mp x y w4 add m w4 neg w4 d w4 neg w4 neg d w4 w4 neg d  w4 neg w4 neg d w4 w4 neg d w4 w4 d w4 w4 neg d w4 w4 d w4 neg w4 d w4 w4 d w4 neg w4 d w4 neg w4 neg d  w4 w4 neg d w4 neg w4 neg d w4 neg w4 d w4 w4 d cl f} def
/m49 {mp x w2 sub w3 add y w2 sub w3 add m  0 w3 neg d w3 0 d 0 w3 d w3 0 d 0 w3 d w3 neg 0 d 0 w3 d w3 neg 0 d 0 w3 neg d w3 neg 0 d 0 w3 neg d w3 0 d 0 w3 d w3 0 d 0 w3 neg d w3 neg 0 d cl f } def
/m2 {mp x y w2 sub m 0 w d x w2 sub y m w 0 d s} def
/m5 {mp x w2 sub y w2 sub m w w d x w2 sub y w2 add m w w neg d s} def
%%IncludeResource: ProcSet (FontSetInit)
%%IncludeResource: font Times-Roman
%%IncludeResource: font Times-Italic
%%IncludeResource: font Times-Bold
%%IncludeResource: font Times-BoldItalic
%%IncludeResource: font Helvetica
%%IncludeResource: font Helvetica-Oblique
%%IncludeResource: font Helvetica-Bold
%%IncludeResource: font Helvetica-BoldOblique
%%IncludeResource: font Courier
%%IncludeResource: font Courier-Oblique
%%IncludeResource: font Courier-Bold
%%IncludeResource: font Courier-BoldOblique
%%IncludeResource: font Symbol
%%IncludeResource: font ZapfDingbats
/reEncode {exch findfont dup length dict begin {1 index /FID eq  {pop pop} {def} ifelse } forall /Encoding exch def currentdict end dup /FontName get exch definefont pop } def [/Times-Bold /Times-Italic /Times-BoldItalic /Helvetica /Helvetica-Oblique
 /Helvetica-Bold /Helvetica-BoldOblique /Courier /Courier-Oblique /Courier-Bold /Courier-BoldOblique /Times-Roman /AvantGarde-Book /AvantGarde-BookOblique /AvantGarde-Demi /AvantGarde-DemiOblique /Bookman-Demi /Bookman-DemiItalic /Bookman-Light
 /Bookman-LightItalic /Helvetica-Narrow /Helvetica-Narrow-Bold /Helvetica-Narrow-BoldOblique /Helvetica-Narrow-Oblique /NewCenturySchlbk-Roman /NewCenturySchlbk-Bold /NewCenturySchlbk-BoldItalic /NewCenturySchlbk-Italic /Palatino-Bold
 /Palatino-BoldItalic /Palatino-Italic /Palatino-Roman ] {ISOLatin1Encoding reEncode } forall
%%EndProlog
%%BeginSetup
%%EndSetup
newpath  gsave  .25 .25 scale  gsave  0 0 t 0.490196 0.545098 0.615686 c[  ] 0 sd 3 lw 0.941176 0.941176 0.941176 c 2268 1676 0 0 bf black 1 1 0.992157 c 1796 1140 245 201 bf black 1796 1140 245 201 bl 1 1 0.992157 c 1796 1140 245 201 bf black 1796
 1140 245 201 bl 245 201 m 1796 X s[ 4 8] 0 sd 425 1341 m -1140 Y s 604 1341 m -1140 Y s 784 1341 m -1140 Y s 964 1341 m -1140 Y s 1144 1341 m -1140 Y s 1323 1341 m -1140 Y s 1503 1341 m -1140 Y s 1683 1341 m -1140 Y s 1863 1341 m -1140 Y s 425 1341
 m -1140 Y s 1863 1341 m -1140 Y s[  ] 0 sd 245 201 m 1140 Y s[ 4 8] 0 sd 2041 201 m -1796 X s 2041 408 m -1796 X s 2041 616 m -1796 X s 2041 823 m -1796 X s 2041 1030 m -1796 X s 2041 1237 m -1796 X s 2041 1237 m -1796 X s 0 0 0.933333 c[  22 12 ] 0
 sd 6 lw 0.49 0.6 0.82 c black 0 0 0.933333 c 245 719 m 9 X s 254 719 m 9 X s 263 719 m 3 X 1 Y 5 X s 271 720 m 9 X s 280 720 m 9 X s 289 720 m 9 X s 298 720 m 9 X s 307 720 m 8 X s 315 720 m 9 X s 324 720 m 9 X s 333 720 m 8 X 1 Y 1 X s 342 721 m 9
 X s 351 721 m 8 X s 359 721 m 9 X s 368 721 m 9 X s 377 721 m 9 X s 386 721 m 9 X s 395 721 m 8 X s 403 721 m 4 X 1 Y 5 X s 412 722 m 9 X s 421 722 m 9 X s 430 722 m 9 X s 439 722 m 7 X 1 Y 1 X s 447 723 m 9 X s 456 723 m 9 X s 465 723 m 9 X s 474
 723 m 9 X s 483 723 m 3 X 1 Y 5 X s 491 724 m 9 X s 500 724 m 2 X 1 Y 7 X s 509 725 m 8 X 1 Y 1 X s 518 726 m 9 X s 527 726 m 3 X 1 1 d 4 X s 535 727 m 3 X 1 Y 6 X s 544 728 m 6 X 1 Y 3 X s 553 729 m 5 X 1 1 d 3 X s 562 730 m 4 X 1 Y 5 X s 571 731 m
 2 X 1 Y 6 X s 579 732 m 2 X 1 Y 4 X 1 Y 3 X s 588 734 m 1 X 1 Y 3 X 1 1 d 2 X 1 1 d 1 X s 597 737 m 1 X 1 Y 4 X 1 Y 3 X 1 1 d s 606 740 m 3 X 1 Y 3 X 1 Y 2 X 1 Y 1 X s 615 743 m 1 X 1 Y 2 X 1 Y 1 X 1 Y 2 X 1 1 d 1 X 1 Y s 623 748 m 3 X 1 1 d 2 X 1 Y
 2 X 1 Y 1 X s 632 751 m 1 Y 2 X 1 Y 2 X 1 Y 2 X 1 Y 1 X 1 Y 1 -1 d 1 Y 1 X s 641 756 m 1 Y 1 X 1 1 d 1 X 1 Y 2 X 1 Y 1 1 d 1 1 d 1 X 1 Y 1 X s 650 763 m 1 Y 1 X 1 1 d 1 X 1 Y 1 X 1 Y 2 X 1 Y 1 1 d 1 X 1 Y 1 X s 659 770 m 1 X 1 Y 1 X 1 Y 2 X 1 Y 1 X
 1 Y 1 X 1 1 d 1 X 1 Y s 667 776 m 1 X 1 Y 1 X 1 1 d 1 X 1 Y 1 X 1 Y 1 X 1 Y 2 X 1 Y 1 1 d s 676 783 m 1 1 d 1 X 1 Y 1 X 1 Y 2 X 1 Y 1 X 1 1 d 1 X 1 Y 1 X s 685 789 m 1 Y 2 X 1 Y 1 X 1 Y 2 X 1 1 d 1 1 d 1 X 1 Y 1 X s 694 795 m 1 Y 1 X 1 Y 2 X 1 Y 2 X
 1 Y 1 X 1 Y 2 X 1 Y 1 X s 703 801 m 1 Y 1 X 1 Y 1 X 1 1 d 1 X 1 Y 1 X 1 Y 1 X 1 Y 1 X 1 1 d s 711 808 m 1 X 1 Y 2 X 1 Y 2 X 1 Y 1 X 1 Y 2 X 1 1 d s 720 813 m 1 X 1 Y 1 X 1 1 d 1 X 1 1 d 1 1 d 2 X 1 Y 1 X s 729 818 m 1 X 1 Y 1 X 1 Y 2 X 1 Y 1 X 1 1 d
 1 X 1 Y 2 X s 738 823 m 1 X 1 Y 2 X 1 Y 1 X 1 Y 2 X 1 Y 2 X 1 Y 1 X s 747 828 m 1 X 1 Y 2 X 1 Y 2 X 1 Y 1 X 1 1 d 1 X 1 Y s 755 833 m 2 X 1 Y 3 X 1 Y 2 X 1 Y 2 X 1 Y s 764 837 m 2 X 1 1 d 2 X 1 Y 3 X 1 Y 1 X s 773 840 m 2 X 1 Y 5 X 1 Y 2 X s 782 842
 m 1 Y 2 X 1 Y 2 X 1 Y 4 X 1 Y 1 X s 791 846 m 4 X 1 Y 2 X 1 1 d 1 X s 799 848 m 1 X 1 Y 2 X 1 Y 6 X s 808 850 m 3 X 1 Y 3 X 1 Y 3 X 1 Y s 817 853 m -1 Y 1 Y 4 X 1 Y 5 X s 826 854 m 3 X 1 Y 3 X 1 Y 3 X s 835 856 m 3 X 1 Y 4 X 1 Y 1 X s 843 858 m 8 X
 1 Y 1 X -1 Y s 852 858 m 1 Y 6 X 1 Y 3 X s 861 860 m 2 X 1 Y 5 X 1 1 d 1 X s 870 862 m 5 X 1 1 d 1 X -1 Y 1 X 1 Y 1 X s 879 863 m 8 X s 887 863 m 5 X 1 Y 4 X s 896 864 m 3 X 1 1 d 5 X s 905 865 m 9 X s 914 865 m 1 Y 1 X -1 Y 1 1 d -1 Y 3 X 1 Y 4 X s
 923 866 m 4 X 1 Y 3 X -1 Y 1 Y 1 X s 931 867 m 5 X 1 Y 4 X s 940 868 m 5 X 1 Y 1 X -1 Y 1 1 d 2 X s 949 869 m 4 X -1 Y 3 X 1 Y 2 X s 958 869 m 4 X -1 Y 1 X 1 Y 2 X 1 -1 d 1 X s 967 868 m 8 X s 975 868 m 2 X -1 Y 2 X 1 Y 5 X s 984 868 m 5 X -1 Y 1 X
 1 Y 3 X s 993 868 m -1 Y 4 X -1 Y 2 X 1 Y 1 X -1 Y 1 Y 1 X 1 -1 d s 1002 866 m 1 Y 2 X -1 Y 1 X 1 Y -1 Y 1 Y -1 Y 5 X -1 Y 1 X s 1011 865 m 3 X -1 Y 5 X s 1019 864 m 4 X -1 Y 5 X s 1028 863 m 3 X 1 -1 d 5 X s 1037 862 m 3 X -1 Y 1 1 d 2 X -1 Y 3 X s
 1046 861 m 2 X 1 Y -1 Y 7 X s 1055 861 m 1 X -1 Y 7 X -1 Y 1 Y s 1063 860 m 3 X -1 Y 6 X s 1072 859 m -1 Y 2 X 1 Y -1 Y 4 X -1 Y 3 X s 1081 857 m 2 X -1 Y 1 X 1 Y -1 Y 1 1 d 3 X -1 Y 2 X s 1090 856 m 4 X -1 Y 1 X 1 -1 d 3 X s 1099 854 m 1 -1 d 4 X
 -1 Y 3 X -1 Y s 1107 851 m 4 X -1 Y 2 X 1 -1 d 2 X s 1116 849 m 1 Y 1 -1 d 2 X -1 Y 4 X -1 Y 1 X 1 -1 d s 1125 846 m 1 X -1 Y 8 X s 1134 845 m 1 X -1 Y 4 X -1 Y 3 X 1 -1 d s 1143 842 m 1 X -1 Y 4 X -1 Y 1 X 1 -1 d 1 X -1 Y s 1151 838 m 2 X 1 -1 d 1
 Y 1 -1 d 1 X 1 -1 d 1 X -1 Y 2 X s 1160 835 m 1 X -1 Y 2 X -1 Y 4 X -1 Y 2 X -1 Y s 1169 831 m 2 X 1 1 d -1 Y 1 X 1 -1 d 1 1 d -1 Y 1 X -1 Y 2 X s 1178 829 m -1 Y 3 X -1 Y 2 X -1 Y 2 X -1 Y 2 X s 1187 825 m 1 -1 d 1 X -1 Y 1 X 1 -1 d -1 Y 2 X -1 Y 1
 -1 d 1 X -1 Y s 1195 818 m 3 X -1 Y 1 X -1 Y 1 -1 d -1 Y 1 X -1 Y 1 X 1 -1 d 1 X s 1204 812 m 1 -1 d 2 X -1 Y 1 Y -1 Y 1 X -1 Y 3 X -1 Y 1 X -2 Y 1 X s 1213 806 m 1 X -1 Y 1 X -1 Y 1 Y -1 Y 2 X -1 Y 1 Y 1 X -1 Y 1 X -1 Y 1 X -1 Y 1 Y -1 Y 2 X s 1222
 801 m 1 X -1 Y 1 X -1 Y 2 X -1 Y 2 X -1 Y 3 X s 1231 797 m -1 Y 1 X -1 Y 2 X -1 Y 2 X -2 Y 2 X -1 Y 1 -1 d s 1239 790 m 1 X -1 Y 2 X -1 Y 1 Y 1 X -1 Y 1 -1 d 1 X -1 Y 1 Y 1 X -2 Y 1 -1 d 1 -1 d s 1248 783 m 1 X -1 Y 1 X -1 Y 1 Y 1 X -2 Y 1 Y 1 -1 d
 -1 Y 1 X -1 Y 1 -1 d 1 X -1 Y 1 X 1 -1 d 1 Y s 1257 776 m -1 Y 1 1 d -1 Y 1 -1 d -1 Y 1 X -1 Y 1 -1 d -1 Y 1 X -1 Y 2 X -2 Y 1 X -1 Y 1 X -1 Y s 1266 765 m -1 Y 1 X 1 Y -1 Y 1 -1 d -2 Y 1 X -1 Y 1 -1 d 3 X -2 Y 1 X -1 Y 1 X s 1275 756 m -1 Y 1 X -1
 Y 1 X -1 Y 1 X 1 Y 1 X -2 Y 1 X 1 Y 1 X -1 Y 1 X 1 Y 1 X -1 Y s 1283 752 m 1 1 d -1 Y 1 X -1 Y 1 -1 d 1 Y -1 Y 1 X -1 Y 1 Y 1 1 d 1 -1 d -1 Y 1 1 d -1 Y 1 Y -1 Y 1 X -1 Y 1 1 d s 1292 749 m 1 X 2 Y 1 X -1 Y 1 Y 1 X 1 Y -1 Y 1 -1 d 1 Y 1 X 1 Y 1 X 1
 Y 1 -1 d 1 Y 1 X 1 -1 d 1 Y s 1301 753 m -1 Y 1 X -1 Y 1 Y -1 Y 1 -1 d -3 Y 1 -1 d 1 Y -2 Y 1 Y 1 -1 d 1 Y -2 Y 1 Y 1 X -1 Y 1 Y 1 X -1 Y 1 1 d -4 Y 1 X 1 -1 d 1 Y s 1310 741 m -1 Y 1 -1 d -1 Y 1 Y -1 Y 1 X -1 Y 1 X -1 Y 1 X -1 Y 1 Y 1 X 1 Y -1 Y 2
 X -1 Y 1 -1 d -2 Y 1 X s 1319 732 m -1 Y 1 Y 1 X -1 Y 1 Y 1 X -1 Y 1 X -1 Y 1 Y -1 Y 1 X 1 Y -1 Y 1 Y 2 X -2 Y 1 X 1 Y 1 -1 d 1 Y s 1327 730 m 1 -1 d 1 Y -1 Y 1 X 1 Y -1 Y 1 Y -1 Y 1 Y 1 X -1 Y 1 X -2 Y 1 X -2 Y 1 X -1 Y 1 X 1 Y -1 Y 1 X 1 Y -1 Y 1
 X -2 Y s 1336 722 m 1 -1 d -1 Y 1 X 1 Y -1 Y 1 Y -1 Y 1 X 1 -1 d -1 Y 1 -1 d -1 Y 1 X 1 -1 d -1 Y 1 X 1 Y -1 Y 1 X -1 Y s 1345 713 m 2 X -1 Y 1 X -1 Y 2 X -2 Y 1 X -1 Y 1 -1 d -2 Y 1 X -2 Y 1 X -1 Y s 1354 702 m 1 Y 1 -1 d -1 Y 1 X -1 Y 1 X 1 Y 1 X
 -1 Y 1 X -1 Y 2 X -1 Y 2 X s 1363 698 m -1 Y 1 -1 d 1 Y -1 Y 1 Y 2 X -1 Y 1 Y -1 Y 1 X -1 Y 1 X -1 Y 1 -1 d 1 X 1 -1 d 1 Y -1 Y 1 Y s 1371 693 m 1 -1 d 1 Y 1 X -2 Y 1 Y -1 Y 1 X -1 Y 1 X 1 Y -1 Y 1 Y -1 Y 1 X -1 Y 1 Y 1 X -1 Y 1 Y 1 -1 d -1 Y 2 X -2
 Y s 1380 686 m 1 X -1 Y 1 -1 d -1 Y 1 X -2 Y 1 -1 d 1 X -2 Y 1 1 d -1 Y 1 Y -1 Y 1 X -2 Y 1 Y 1 -1 d -1 Y 1 X -1 Y s 1389 674 m 1 X -1 Y 1 X -2 Y 1 -1 d -1 Y 1 -1 d 1 1 d -2 Y 1 -1 d 1 Y 1 -1 d -1 Y 2 X s 1398 665 m 2 X -1 Y 1 X -1 Y 1 Y 1 -1 d -2 Y
 1 X 1 Y 1 -1 d 1 X 1 -1 d -1 Y 1 X s 1407 659 m 1 X -2 Y 1 -1 d 1 Y -1 Y 1 X -1 Y 1 Y -1 Y 1 X -1 Y 1 -1 d 1 -1 d -1 Y 1 X -1 Y 1 X -1 Y s 1415 649 m 1 -1 d 2 X -1 Y 1 X -1 Y 1 -1 d -1 Y 1 X -1 Y 1 X -1 Y 1 Y 1 X 1 -1 d 1 Y -1 Y s 1424 642 m 1 X -1
 Y 1 X 1 Y 3 X -1 Y 2 X -1 Y 1 X -1 Y 1 X -1 Y s 1433 638 m 1 Y 1 X -1 Y 1 X -1 Y 1 X -1 Y 1 Y -1 Y 1 X -1 Y 1 X -2 Y 2 X -1 Y 1 X 1 1 d -1 Y s 1442 632 m -1 Y 2 X -2 Y 1 -1 d -1 Y 1 Y -1 Y 1 X -2 Y 2 X -1 Y 1 X -1 Y 1 X -1 Y 1 X s 1451 622 m -1 Y 1
 X -1 Y 1 X -1 Y 1 Y 1 -1 d -1 Y 1 1 d -1 Y 1 -1 d 1 Y 1 -1 d 1 Y -1 Y 1 X -1 Y 1 -1 d -1 Y s 1459 614 m 1 X -1 Y 1 X 1 Y -1 Y 1 X -2 Y 1 X -1 Y 1 Y -1 Y 1 1 d -1 Y 1 X -2 Y 1 1 d -1 Y 1 Y -1 Y 1 X -1 Y 1 X -1 Y s 1468 606 m 1 X -1 Y 3 X -2 Y 2 X -1
 Y 1 Y -1 Y 2 X -1 Y 1 X s 1477 601 m -1 Y 2 X 1 Y -1 Y 1 X -1 Y 1 -1 d 1 X -1 Y 1 -1 d 1 X -1 Y 1 X -1 Y 1 -1 d s 1486 593 m -1 Y 1 X -1 Y 1 X -1 Y 1 X 1 Y -1 Y 1 X -1 Y 1 X -1 Y 1 -1 d 1 X -2 Y 1 -1 d 1 X s 1495 584 m -1 Y 1 Y 1 X -2 Y 1 X 1 -1 d 1
 Y -1 Y 1 X -1 Y 2 X -1 Y 2 X -1 Y s 1503 578 m 1 X -2 Y 1 X 1 -1 d -1 Y 2 X -1 Y 1 X -1 Y 1 -1 d -1 Y 1 X -1 Y 1 X -2 Y s 1512 567 m 2 X -1 Y 2 X -2 Y 1 X -1 Y 1 X -1 Y 1 X -1 Y 1 X -1 Y 1 X -1 Y s 1521 559 m 2 X -1 Y 1 X -1 Y 1 -1 d -1 Y 1 X -2 Y 1
 X -1 Y 1 X -1 Y 1 X -1 Y 1 X s 1530 550 m -1 Y 1 -1 d 2 X -1 Y 1 -1 d -1 Y 2 X -1 Y 1 X -1 Y 1 X -1 Y 1 X s 1539 542 m 1 -1 d -1 Y 1 X -1 Y 1 X -1 Y 1 1 d -2 Y 1 1 d -1 Y 1 X -1 Y 1 X -1 Y 1 X -2 Y s 1547 533 m 2 X -1 Y 1 X -1 Y 2 X -1 Y 1 -1 d 1 X
 -1 Y 1 X -1 Y 1 X -1 Y s 1556 526 m 1 X 1 -1 d -1 Y 1 X -1 Y 1 X -1 Y 2 X 1 -1 d -1 Y 1 X -1 Y 1 X -1 Y s 1565 518 m -1 Y 2 X -1 Y 1 X -1 Y 1 -1 d 1 X -1 Y 1 X 1 -1 d -1 Y 1 -1 d 1 X s 1574 510 m -1 Y 2 X -1 Y 1 X -1 Y 1 -1 d -1 Y 1 X -1 Y 1 X 1 -1
 d 1 X -1 Y 1 X s 1583 502 m -1 Y 1 X -1 Y 2 X -1 Y 2 X -1 Y 1 X 1 -1 d -1 Y 1 X -1 Y s 1591 495 m 2 X 1 -1 d 1 X -1 Y 2 X -2 Y 1 X 1 -1 d 1 X -1 Y s 1600 489 m 1 X -1 Y 1 X -1 Y 2 X -2 Y 2 X -1 Y 1 X -1 Y 2 X -1 Y s 1609 482 m 1 -1 d 1 X -1 Y 4 X -2
 Y 2 X -1 Y 1 X s 1618 477 m 1 X -1 Y 1 X 1 -1 d -1 Y 2 X -1 Y 1 X -2 Y 1 X -1 Y 1 X -1 Y 1 -1 d s 1627 468 m 1 X -1 Y 1 X 1 -1 d 2 X -1 Y 1 X -1 Y 1 X -2 Y 1 X -1 Y s 1635 461 m 1 X -1 Y 1 X -1 Y 1 X 1 -1 d -1 Y 1 X -1 Y 1 X -1 Y 1 X -1 Y 1 X -1 Y 1
 X s 1644 453 m 1 X -2 Y 1 X -1 Y 1 X -1 Y 1 X -1 Y 1 X -1 Y 2 X -1 Y 2 X s 1653 446 m -1 Y 1 X -1 Y 1 X 1 -1 d 1 X -1 Y 1 X -1 Y 1 X -1 Y 2 X -1 Y 1 X s 1662 439 m -1 Y 1 X -1 Y 1 X -1 Y 2 X -1 Y 1 X -1 Y 1 X -1 Y 2 X -1 Y 1 X s 1671 432 m -1 Y 2 X
 -1 Y 1 X -1 Y 1 -1 d 1 X -1 Y 1 X 1 -1 d 1 -1 d s 1679 425 m 1 -1 d 1 X -1 Y 3 X -1 Y 1 X -1 Y 1 X -1 Y 1 X -1 Y 1 X s 1688 419 m 1 X -1 Y 1 X -1 Y 2 X -1 Y 1 X -1 Y 2 X 1 -1 d 1 X -1 Y s 1697 413 m 1 X -1 Y 1 X 1 -1 d 1 X -1 Y 1 X -1 Y 2 X -1 Y 2 X
 -1 Y s 1706 407 m 1 X -1 Y 1 X -1 Y 1 X -1 Y 1 X -1 Y 2 X 1 -1 d 1 -1 d -1 Y 1 X s 1715 400 m 2 X -1 Y 1 X -1 Y 2 X -1 Y 1 X -1 Y 1 X -1 Y 1 X -1 Y s 1723 394 m 2 X -1 Y 1 X -1 Y 3 X -1 Y 1 -1 d 1 X 1 -1 d s 1732 389 m 1 X -1 Y 2 X -1 Y 2 X -1 Y 1
 -1 d 2 X -1 Y 1 X s 1741 384 m -1 Y 1 X 1 -1 d 1 X -1 Y 1 X -1 Y 1 X -1 Y 1 X -1 Y 1 -1 d 1 X -1 Y 1 X s 1750 376 m 1 -1 d 2 X -1 Y 1 X -1 Y 1 X -1 Y 1 -1 d 1 X -1 Y 2 X s 1759 370 m -1 Y 1 X -1 Y 2 X 1 -1 d 1 X -1 Y 1 X -1 Y 1 X -1 Y 1 X -1 Y s
 1767 363 m 2 X -1 Y 2 X 1 -1 d -1 Y 1 X -1 Y 1 X -1 Y 2 X s 1776 358 m 1 -1 d 1 X -1 Y 1 X 1 -1 d 1 X -1 Y 1 X -1 Y 1 X -1 Y 2 X s 1785 352 m 1 X -1 Y 1 X -1 Y 1 X -1 Y 1 X -1 Y 3 X -1 Y 2 X s 1794 347 m 1 X -2 Y 1 X -1 Y 2 X -1 Y 1 X 1 -1 d 2 X -1
 Y 1 X s 1803 341 m -1 Y 1 X -1 Y 2 X -1 Y 2 X -1 Y 1 X -1 Y 1 X -1 Y 2 X s 1812 335 m -1 Y 3 X -1 Y 2 X -1 Y 2 X -1 Y 1 X s 1820 331 m 1 -1 d -1 Y 1 X 1 -1 d 1 X -1 Y 1 X -1 Y 2 X -1 Y 1 X -1 Y 1 X -1 Y s 1829 323 m 3 X -1 Y 1 X -1 Y 1 -1 d 1 X -1 Y
 1 X -1 Y 1 X -1 Y 1 X s 1838 317 m 1 X -1 Y 1 X -1 Y 1 X -1 Y 1 X -1 Y 2 X -1 Y 1 X 1 -1 d 1 X s 1847 311 m -1 Y 2 X -1 Y 1 X -1 Y 1 X -1 Y 2 X -1 Y 2 X -1 Y 1 X s 1856 305 m 1 X 1 -1 d 1 X -1 Y 1 X -1 Y 1 X -1 Y 1 X -1 Y 1 X -1 Y 1 X s 1864 299 m 1
 X -1 Y 1 X -1 Y 1 X 1 -1 d 1 -1 d 2 X -1 Y 1 X -1 Y 1 X -1 Y s 1873 292 m 2 X -1 Y 2 X -1 Y 1 X -1 Y 1 X -1 Y 2 X 1 -1 d s 1882 287 m 1 -1 d 3 X -1 Y 1 X -1 Y 3 X -1 Y 1 X s 1891 283 m 1 -1 d 2 X -1 Y 1 X -1 Y 1 X -1 Y 2 X -1 Y 2 X s 1900 278 m -1 Y
 3 X -1 Y 2 X -1 Y 1 X -1 Y 1 X -1 Y 1 X s 1908 273 m 1 X -1 Y 1 X -1 Y 4 X -1 Y 1 X -1 Y 1 X 1 -1 d s 1917 268 m 1 -1 d 2 X -1 Y 2 X -1 Y 3 X -1 Y 1 X -1 Y s 1926 263 m 1 X -1 Y 4 X -1 Y 1 X -1 Y 1 X -1 Y 1 X -1 Y 1 X s 1935 258 m 1 X -1 Y 2 X -1 Y
 1 X -1 Y 2 X -1 Y 2 X 1 -1 d s 1944 253 m 1 X -1 Y 2 X -1 Y 1 X 1 -1 d 3 X -1 Y s 1952 249 m 2 X -1 Y 1 X -1 Y 3 X -1 Y 1 X -1 Y 2 X s 1961 245 m -1 Y 2 X -1 Y 2 X -1 Y 1 X 1 -1 d 1 X -1 Y 1 X -1 Y 1 X s 1970 239 m 1 -1 d 1 -1 d -1 Y 3 X 1 -1 d 1 X
 -1 Y 1 X -1 Y 1 X s 1979 233 m 2 X -1 Y 1 X -1 Y 2 X -1 Y 2 X -1 Y 1 X 1 -1 d s 1988 228 m 1 -1 d 1 X -1 Y 1 X -1 Y 1 X -1 Y 2 X -1 Y 1 X -1 Y 1 X -1 Y s 1996 221 m 2 X -1 Y 4 X -1 Y 3 X s 2005 219 m 1 X -1 Y 2 X -1 Y 1 X -1 Y 2 X -1 Y 2 X -1 Y 1 X
 s 2014 214 m 1 X -1 Y 2 X 1 -1 d 1 X -1 Y 3 X 1 -1 d s 2023 210 m 1 X -1 Y 1 X -1 Y 1 X -1 Y 4 X -1 Y 1 X -1 Y 1 X s 2032 205 m 1 X 1 -1 d 1 X -1 Y 3 X -1 Y 2 X -1 Y s 2040 201 m 1 X s black[  ] 0 sd 3 lw 245 201 m 1796 X s 425 241 m -40 Y s 461 221
 m -20 Y s 497 221 m -20 Y s 532 221 m -20 Y s 568 221 m -20 Y s 604 241 m -40 Y s 640 221 m -20 Y s 676 221 m -20 Y s 712 221 m -20 Y s 748 221 m -20 Y s 784 241 m -40 Y s 820 221 m -20 Y s 856 221 m -20 Y s 892 221 m -20 Y s 928 221 m -20 Y s 964
 241 m -40 Y s 1000 221 m -20 Y s 1036 221 m -20 Y s 1072 221 m -20 Y s 1108 221 m -20 Y s 1144 241 m -40 Y s 1180 221 m -20 Y s 1216 221 m -20 Y s 1251 221 m -20 Y s 1287 221 m -20 Y s 1323 241 m -40 Y s 1359 221 m -20 Y s 1395 221 m -20 Y s 1431
 221 m -20 Y s 1467 221 m -20 Y s 1503 241 m -40 Y s 1539 221 m -20 Y s 1575 221 m -20 Y s 1611 221 m -20 Y s 1647 221 m -20 Y s 1683 241 m -40 Y s 1719 221 m -20 Y s 1755 221 m -20 Y s 1791 221 m -20 Y s 1827 221 m -20 Y s 1863 241 m -40 Y s 425 241
 m -40 Y s 389 221 m -20 Y s 353 221 m -20 Y s 317 221 m -20 Y s 281 221 m -20 Y s 1863 241 m -40 Y s 1899 221 m -20 Y s 1935 221 m -20 Y s 1970 221 m -20 Y s 2006 221 m -20 Y s
 gsave  2268 1676 0 0 C 379.217 128.934 t 0 r /Helvetica-Bold findfont 64.4669 sf 0 0 m (0.1) show NC gr 
 gsave  2268 1676 0 0 C 557.449 128.934 t 0 r /Helvetica-Bold findfont 64.4669 sf 0 0 m (0.2) show NC gr 
 gsave  2268 1676 0 0 C 735.681 128.934 t 0 r /Helvetica-Bold findfont 64.4669 sf 0 0 m (0.3) show NC gr 
 gsave  2268 1676 0 0 C 917.705 128.934 t 0 r /Helvetica-Bold findfont 64.4669 sf 0 0 m (0.4) show NC gr 
 gsave  2268 1676 0 0 C 1095.94 128.934 t 0 r /Helvetica-Bold findfont 64.4669 sf 0 0 m (0.5) show NC gr 
 gsave  2268 1676 0 0 C 1274.17 128.934 t 0 r /Helvetica-Bold findfont 64.4669 sf 0 0 m (0.6) show NC gr 
 gsave  2268 1676 0 0 C 1456.19 128.934 t 0 r /Helvetica-Bold findfont 64.4669 sf 0 0 m (0.7) show NC gr 
 gsave  2268 1676 0 0 C 1634.42 128.934 t 0 r /Helvetica-Bold findfont 64.4669 sf 0 0 m (0.8) show NC gr 
 gsave  2268 1676 0 0 C 1816.45 128.934 t 0 r /Helvetica-Bold findfont 64.4669 sf 0 0 m (0.9) show NC gr 
 gsave  2268 1676 0 0 C 913.913 30.3373 t 0 r /Helvetica-Bold findfont 72.0512 sf 0 0 m (Cut value applied on SVM output) show NC gr  245 201 m 1140 Y s 291 201 m -46 X s 268 253 m -23 X s 268 305 m -23 X s 268 357 m -23 X s 291 408 m -46 X s 268 460
 m -23 X s 268 512 m -23 X s 268 564 m -23 X s 291 616 m -46 X s 268 667 m -23 X s 268 719 m -23 X s 268 771 m -23 X s 291 823 m -46 X s 268 875 m -23 X s 268 926 m -23 X s 268 978 m -23 X s 291 1030 m -46 X s 268 1082 m -23 X s 268 1134 m -23 X s
 268 1185 m -23 X s 291 1237 m -46 X s 291 1237 m -46 X s 268 1289 m -23 X s 268 1341 m -23 X s
 gsave  2268 1676 0 0 C 182.024 178.232 t 0 r /Helvetica-Bold findfont 64.4669 sf 0 0 m (0) show NC gr 
 gsave  2268 1676 0 0 C 128.934 383.009 t 0 r /Helvetica-Bold findfont 64.4669 sf 0 0 m (0.2) show NC gr 
 gsave  2268 1676 0 0 C 125.142 591.578 t 0 r /Helvetica-Bold findfont 64.4669 sf 0 0 m (0.4) show NC gr 
 gsave  2268 1676 0 0 C 128.934 796.355 t 0 r /Helvetica-Bold findfont 64.4669 sf 0 0 m (0.6) show NC gr 
 gsave  2268 1676 0 0 C 125.142 1004.92 t 0 r /Helvetica-Bold findfont 64.4669 sf 0 0 m (0.8) show NC gr 
 gsave  2268 1676 0 0 C 189.608 1213.49 t 0 r /Helvetica-Bold findfont 64.4669 sf 0 0 m (1) show NC gr 
 gsave  2268 1676 0 0 C 64.4669 731.888 t 90 r /Helvetica-Bold findfont 72.0512 sf 0 0 m (Efficiency \(Purity\)) show NC gr  0 0 0.933333 c[  52 12 ] 0 sd 6 lw 0.49 0.6 0.82 c black 0 0 0.933333 c 245 719 m 9 X s 254 719 m 9 X s 263 719 m 3 X 1 Y 5 X
 s 271 720 m 9 X s 280 720 m 9 X s 289 720 m 9 X s 298 720 m 9 X s 307 720 m 8 X s 315 720 m 9 X s 324 720 m 9 X s 333 720 m 8 X 1 Y 1 X s 342 721 m 9 X s 351 721 m 8 X s 359 721 m 9 X s 368 721 m 9 X s 377 721 m 9 X s 386 721 m 9 X s 395 721 m 8 X s
 403 721 m 4 X 1 Y 5 X s 412 722 m 9 X s 421 722 m 9 X s 430 722 m 9 X s 439 722 m 7 X 1 Y 1 X s 447 723 m 9 X s 456 723 m 9 X s 465 723 m 9 X s 474 723 m 9 X s 483 723 m 3 X 1 Y 5 X s 491 724 m 9 X s 500 724 m 2 X 1 Y 7 X s 509 725 m 8 X 1 Y 1 X s
 518 726 m 9 X s 527 726 m 3 X 1 1 d 4 X s 535 727 m 3 X 1 Y 6 X s 544 728 m 6 X 1 Y 3 X s 553 729 m 5 X 1 1 d 3 X s 562 730 m 3 X 1 Y 6 X s 571 731 m 2 X 1 Y 6 X 1 Y s 579 733 m 5 X 1 Y 4 X 1 Y s 588 735 m 4 X 1 Y 3 X 1 Y 2 X s 597 737 m 1 1 d 2 X 1
 Y 5 X 1 Y 1 X s 606 740 m 2 X 1 Y 3 X 1 1 d 1 X 1 Y 2 X s 615 743 m 1 Y 3 X 1 Y 1 X 1 Y 2 X 1 Y 1 X 1 1 d s 623 748 m 2 X 1 1 d 2 X 1 Y 2 X 1 1 d 1 X 1 Y s 632 752 m 2 X 1 Y 2 X 1 Y 1 X 1 Y 2 X 1 Y 2 X 1 Y s 641 757 m 1 X 1 Y 1 X 1 Y 2 X 1 Y 1 X 1 Y
 1 X 1 Y 2 X 1 Y 1 X s 650 763 m 1 Y 1 X 1 Y 1 X 1 Y 2 X 1 Y 1 X 1 Y 1 X 1 Y 1 X 1 1 d 1 X s 659 770 m 1 Y 1 X 1 Y 2 X 1 Y 1 X 1 1 d 1 X 1 Y 1 X 1 Y 1 X 1 Y s 667 777 m 2 X 1 Y 1 X 1 Y 2 X 2 Y 2 X 1 Y 1 X 1 Y 1 X 1 Y s 676 784 m 1 X 1 Y 1 X 1 1 d 1 X
 1 Y 1 X 1 Y 2 X 1 Y 1 X 1 1 d s 685 790 m 1 X 1 Y 1 X 1 Y 2 X 1 Y 2 X 1 Y 1 X 1 Y 1 X 1 Y 1 X s 694 796 m 1 Y 1 X 1 1 d 1 X 1 Y 2 X 1 Y 2 X 1 Y 1 X 1 Y 1 X s 703 802 m 1 1 d 1 Y 2 X 1 Y 1 X 1 Y 1 X 1 Y 1 X 1 Y 2 X 1 Y s 711 809 m 1 X 1 1 d 1 X 1 Y 2
 X 1 Y 1 X 1 Y 3 X 1 Y s 720 814 m 1 X 1 Y 1 X 1 1 d 1 X 1 Y 1 X 1 1 d 1 1 d 2 X 1 Y s 729 820 m 1 X 1 Y 2 X 1 Y 2 X 1 Y 1 X 1 Y 3 X s 738 824 m 1 Y 2 X 1 Y 2 X 1 Y 1 X 1 Y 1 X 1 1 d 2 X s 747 829 m 1 Y 2 X 1 Y 1 X 1 1 d 1 X 1 1 d 1 X 1 Y 1 X s 755
 834 m 1 X 1 Y 2 X 1 Y 3 X 1 Y 1 X 1 1 d 1 X s 764 838 m 1 X 1 Y 3 X 1 Y 3 X 1 Y 2 X s 773 841 m 1 Y 4 X 1 Y 3 X 1 Y 2 X s 782 844 m 1 X 1 Y 2 X 1 Y 2 X 1 Y 4 X s 791 847 m 1 X 1 Y 3 X 1 1 d 2 X 1 Y 1 X s 799 850 m 1 X 1 Y 3 X 1 Y 5 X s 808 852 m 1 X
 1 1 d 3 X 1 Y 2 X 1 Y 2 X s 817 855 m 2 X 1 1 d 4 X 1 Y 1 X -1 Y 1 Y 1 X s 826 857 m 4 X 1 Y 4 X 1 Y 1 X s 835 859 m 4 X 1 Y 4 X s 843 860 m 2 X 1 Y 7 X s 852 861 m 1 1 d 6 X 1 Y 2 X s 861 863 m 3 X 1 Y 4 X 1 1 d 1 X s 870 865 m 5 X 1 Y 4 X s 879
 866 m 6 X 1 Y 2 X s 887 867 m 8 X 1 Y 1 X s 896 868 m 4 X 1 Y 5 X s 905 869 m 3 X 1 1 d -1 Y 1 X 1 Y 4 X s 914 870 m 6 X 1 Y 3 X s 923 871 m 3 X 1 1 d 4 X s 931 872 m 3 X 1 Y 6 X 1 Y s 940 874 m 6 X 1 1 d 2 X s 949 875 m 9 X s 958 875 m 1 X 1 Y 8 X
 s 967 876 m 8 X s 975 876 m 5 X 1 1 d 3 X s 984 877 m 9 X s 993 877 m 9 X s 1002 877 m 9 X s 1011 877 m 8 X s 1019 877 m 9 X s 1028 877 m 1 Y 3 X 1 -1 d 1 Y -1 Y 2 X 1 Y 3 X s 1037 878 m 5 X 1 Y -1 Y 4 X s 1046 878 m 1 Y 9 X s 1055 879 m 8 X s 1063
 879 m 9 X s 1072 879 m 2 X 1 Y 5 X -1 Y 1 Y -1 Y 1 X 1 Y -1 Y 1 1 d s 1081 880 m 9 X s 1090 880 m 9 X s 1099 880 m 8 X s 1107 880 m 9 X s 1116 880 m 7 X -1 Y 1 X 1 Y 1 -1 d s 1125 879 m 7 X 1 Y 2 X s 1134 880 m 9 X s 1143 880 m -1 Y 3 X 1 Y 1 X 1 -1
 d 3 X s 1151 879 m 9 X s 1160 879 m 1 X -1 Y 8 X s 1169 878 m 9 X s 1178 878 m 9 X s 1187 878 m 2 X -1 Y 5 X 1 -1 d s 1195 876 m 2 X 1 Y 1 X -1 Y 3 X 1 -1 d 1 Y 1 X -1 Y 1 X s 1204 875 m 9 X s 1213 875 m 9 X s 1222 875 m 1 X -1 Y 1 1 d 4 X -1 Y 1 X
 1 Y 2 X s 1231 875 m 1 X -1 Y 1 X 1 Y 1 X -1 Y 1 1 d 1 X -1 Y 3 X s 1239 874 m 4 X 1 Y -1 Y 1 X 1 Y 2 X 1 -1 d 1 X 1 Y s 1248 875 m 1 X -1 Y 1 Y 1 X -1 Y 1 Y 7 X s 1257 875 m 3 X 1 -1 d 1 Y -1 Y 2 X 1 Y 1 X -1 Y 1 Y 1 -1 d 1 Y 1 X s 1266 875 m -1 Y
 1 Y 4 X 1 1 d 1 X 1 Y 2 X 1 Y 1 X s 1275 878 m 1 1 d 1 X 1 1 d 1 Y 1 1 d 1 X 2 Y 1 X 1 Y 1 X 1 Y 1 X 1 Y s 1283 887 m 1 1 d 1 Y 1 X 2 Y -1 Y 1 X 2 Y 1 X 2 Y 1 1 d 2 Y 1 X 1 Y 1 1 d 2 Y 1 1 d 1 Y 1 X 2 Y s 1292 905 m 1 Y 1 1 d 3 Y 1 1 d 3 Y 1 1 d 2 Y
 1 1 d 3 Y 1 X 4 Y 1 1 d 2 Y 1 1 d 3 Y 1 1 d 2 Y 1 1 d 3 Y s 1301 939 m 1 Y 1 X 3 Y 1 X 3 Y 1 1 d 4 Y 1 1 d 2 Y 1 X 5 Y 1 1 d 2 Y 1 X 1 Y 1 1 d 3 Y 1 1 d 1 Y s 1310 969 m 1 Y 1 X 2 Y 1 1 d -1 Y 3 Y 1 X 2 Y 1 X 4 Y 1 1 d 2 Y 1 X 2 Y -1 Y 2 Y 1 X 2 Y 1
 1 d 1 Y 1 X s 1319 991 m 3 Y 1 X 3 Y 1 1 d 2 Y 1 1 d 2 Y 1 X 3 Y 1 X 3 Y 1 X 2 Y 1 X 2 Y 1 X 2 Y s 1327 1015 m 1 X 2 Y 1 1 d 3 Y 1 1 d 1 Y 1 X 1 Y 1 1 d 1 X 2 Y 1 X 3 Y 1 X 2 Y 1 X 1 Y s 1336 1033 m 1 1 d 1 Y 1 1 d 2 Y 1 1 d 1 Y 1 X 1 Y 1 X 2 Y 1 X
 2 Y 1 X 1 Y 1 1 d 2 Y 1 1 d s 1345 1050 m 1 Y 1 X 2 Y 1 X 1 Y 1 X 1 Y -1 Y 2 Y 1 X 2 Y 1 1 d 1 X 1 Y 1 X 1 Y 1 X 1 Y 1 X s 1354 1062 m 2 Y 1 X 2 Y 1 X 1 Y 1 1 d 3 Y 1 X 1 Y 1 X 3 Y 1 1 d 1 1 d 2 Y 1 X 3 Y 1 X s 1363 1082 m 1 Y 1 X 3 Y 1 1 d 2 Y 1 X
 2 Y 1 X 1 Y 1 X 2 Y -1 Y 1 Y 1 1 d 1 Y 1 1 d 1 X 2 Y s 1371 1099 m 1 X 2 Y 1 X 1 Y 1 X 1 Y 1 X 3 Y 1 X 1 Y 1 X 2 Y 1 1 d 1 X 1 Y -1 Y 1 Y 1 X s 1380 1111 m 1 Y 1 -1 d 2 Y 1 X 2 Y -1 Y 1 1 d 1 X 1 Y 1 X 1 Y 1 1 d 1 Y 1 1 d 1 Y 1 X 1 Y 1 X s 1389 1122
 m 1 Y 2 X 1 Y 1 X 1 Y 1 X 1 Y 1 X 2 Y 1 -1 d 2 Y 1 X 1 Y 1 1 d 2 Y 1 1 d s 1398 1134 m 1 Y 1 X 2 Y 1 X -1 Y 1 Y 1 X 2 Y 2 X 2 Y 1 X 1 Y -1 Y 1 Y 1 X 1 Y 1 X 1 Y 1 1 d s 1407 1145 m 1 Y 1 1 d 1 X 2 Y 1 X 1 Y 1 X 1 Y 1 X 1 Y 1 X 1 1 d 2 Y 1 X s 1415
 1155 m 1 X 1 Y 1 X 1 Y 1 X 1 Y 1 X 2 Y 1 X -1 Y 1 Y 1 1 d 1 1 d 3 Y 1 X 1 Y 1 X 1 Y s 1424 1167 m 2 Y 1 X -1 Y 1 1 d 1 Y 1 1 d 1 X 2 Y 1 X 2 Y 2 X 1 Y 2 X s 1433 1176 m 2 Y 2 X 1 Y 1 X -1 Y 1 Y 2 X 2 Y 1 X 1 Y 1 1 d 1 1 d 1 Y 1 1 d s 1442 1186 m 1 1
 d 1 Y 1 X -1 Y 1 Y 1 X 1 Y 2 X 1 Y 2 X 2 Y 1 X 1 Y 1 X s 1451 1193 m 1 Y 1 X 1 Y 1 X 1 Y 1 X 2 Y 1 X 2 Y 1 -1 d 2 Y 1 X 1 Y 1 X 1 Y -1 Y 1 1 d 1 Y s 1459 1204 m 1 X 1 Y 1 X 1 Y 1 X 1 Y 1 X 1 Y 1 X 1 Y 1 X 1 Y 1 X 1 Y 1 X 1 Y 1 X s 1468 1212 m 1 X 1
 Y -1 Y 1 1 d 1 1 d 1 X 1 Y 1 X 1 Y 1 X 1 Y 2 X 1 Y 1 X s 1477 1218 m 1 X 1 Y 1 X 1 Y 1 X 1 Y 2 X -1 Y 2 X 1 Y 1 X 1 Y 1 X s 1486 1222 m 3 X 1 Y 1 X 1 Y 5 X s 1495 1224 m 1 Y 4 X 1 1 d 1 Y 1 1 d 1 Y 1 X 1 Y 1 X 1 Y s 1503 1231 m 3 X -1 Y 6 X 1 Y s
 1512 1231 m 3 X 1 1 d 1 X 1 Y 3 X 1 Y 1 X s 1521 1234 m 9 X s 1530 1234 m 9 X s 1539 1234 m 3 X 1 1 d 4 X s 1547 1235 m 9 X s 1556 1235 m 6 X 1 Y 3 X s 1565 1236 m 9 X 1 Y s 1574 1237 m 9 X s 1583 1237 m 8 X s 1591 1237 m 9 X s 1600 1237 m 9 X s
 1609 1237 m 9 X s 1618 1237 m 9 X s 1627 1237 m 8 X s 1635 1237 m 9 X s 1644 1237 m 9 X s 1653 1237 m 9 X s 1662 1237 m 9 X s 1671 1237 m 8 X s 1679 1237 m 9 X s 1688 1237 m 9 X s 1697 1237 m 9 X s 1706 1237 m 9 X s 1715 1237 m 8 X s 1723 1237 m 9 X
 s 1732 1237 m 9 X s 1741 1237 m 9 X s 1750 1237 m 9 X s 1759 1237 m 8 X s 1767 1237 m 9 X s 1776 1237 m 9 X s 1785 1237 m 9 X s 1794 1237 m 9 X s 1803 1237 m 9 X s 1812 1237 m 8 X s 1820 1237 m 9 X s 1829 1237 m 9 X s 1838 1237 m 9 X s 1847 1237 m 9
 X s 1856 1237 m 8 X s 1864 1237 m 9 X s 1873 1237 m 9 X s 1882 1237 m 9 X s 1891 1237 m 9 X s 1900 1237 m 8 X s 1908 1237 m 9 X s 1917 1237 m 9 X s 1926 1237 m 9 X s 1935 1237 m 9 X s 1944 1237 m 8 X s 1952 1237 m 9 X s 1961 1237 m 9 X s 1970 1237 m
 9 X s 1979 1237 m 9 X s 1988 1237 m 8 X s 1996 1237 m 9 X s 2005 1237 m 9 X s 2014 1237 m 9 X s 2023 1237 m 9 X s 2032 1237 m 8 X s 2040 1237 m 1 X s[  ] 0 sd 9 lw 0.49 0.6 0.82 c black 0 0 0.933333 c 245 1237 m 9 X s 254 1237 m 9 X s 263 1237 m 8 X
 s 271 1237 m 9 X s 280 1237 m 9 X s 289 1237 m 9 X s 298 1237 m 9 X s 307 1237 m 8 X s 315 1237 m 9 X s 324 1237 m 9 X s 333 1237 m 9 X s 342 1237 m 9 X s 351 1237 m 8 X s 359 1237 m 9 X s 368 1237 m 9 X s 377 1237 m 9 X s 386 1237 m 9 X s 395 1237
 m 8 X s 403 1237 m 9 X s 412 1237 m 9 X s 421 1237 m 9 X s 430 1237 m 9 X s 439 1237 m 8 X s 447 1237 m 9 X s 456 1237 m 9 X s 465 1237 m 9 X s 474 1237 m 9 X s 483 1237 m 8 X s 491 1237 m 9 X s 500 1237 m 9 X s 509 1237 m 9 X s 518 1237 m 9 X s 527
 1237 m 8 X s 535 1237 m 9 X s 544 1237 m 9 X s 553 1237 m 9 X s 562 1237 m 9 X s 571 1237 m 8 X s 579 1237 m 9 X s 588 1237 m 9 X s 597 1237 m 9 X s 606 1237 m 9 X s 615 1237 m 8 X s 623 1237 m 9 X s 632 1237 m 7 X 1 -1 d 1 X s 641 1236 m 9 X s 650
 1236 m 9 X s 659 1236 m 8 X s 667 1236 m 9 X s 676 1236 m 9 X s 685 1236 m 9 X s 694 1236 m 9 X s 703 1236 m 8 X s 711 1236 m 9 X s 720 1236 m 1 X -1 Y 8 X s 729 1235 m 9 X s 738 1235 m 9 X s 747 1235 m 8 X s 755 1235 m 9 X s 764 1235 m 9 X s 773
 1235 m 2 X -1 Y 7 X s 782 1234 m 9 X s 791 1234 m 8 X s 799 1234 m 9 X s 808 1234 m 9 X s 817 1234 m -1 Y 9 X s 826 1233 m 9 X s 835 1233 m 8 X s 843 1233 m 9 X s 852 1233 m 9 X s 861 1233 m 9 X s 870 1233 m 7 X -1 Y 2 X s 879 1232 m 8 X s 887 1232
 m 9 X s 896 1232 m 1 X -1 Y 8 X s 905 1231 m 4 X -1 Y 5 X s 914 1230 m 9 X s 923 1230 m 3 X 1 -1 d 4 X s 931 1229 m 9 X s 940 1229 m 1 -1 d 8 X s 949 1228 m 3 X -1 Y 6 X s 958 1227 m 4 X -1 Y 5 X s 967 1226 m 1 X -1 Y 7 X s 975 1225 m 1 X -1 Y 8 X s
 984 1224 m 5 X -1 Y 4 X s 993 1223 m 2 X -1 Y 5 X -1 Y 2 X s 1002 1221 m 4 X -1 Y 3 X -1 Y 2 X s 1011 1219 m 1 X -1 Y 2 X -1 Y 5 X s 1019 1217 m 3 X -1 Y 3 X -1 Y 3 X s 1028 1215 m 2 X 1 -1 d 2 X -1 Y 4 X s 1037 1213 m 1 X 1 -1 d 4 X -1 Y 3 X s 1046
 1211 m 3 X -1 Y 4 X -1 Y 2 X s 1055 1209 m 5 X -1 Y 3 X -1 Y s 1063 1207 m 4 X 1 -1 d 3 X -1 Y 1 X s 1072 1205 m 3 X -1 Y 4 X -1 Y 1 X -1 Y 1 X s 1081 1202 m 3 X -1 Y 6 X s 1090 1201 m -1 Y 4 X -1 Y 2 X -1 Y 2 X -1 Y 1 X s 1099 1197 m 1 X -1 Y 4 X
 -1 Y 1 X 1 -1 d 1 X s 1107 1194 m 3 X -1 Y 1 X 1 -1 d 1 X -1 Y 3 X s 1116 1191 m 1 X 1 -1 d 1 X -1 Y 3 X 1 -1 d 1 X -1 Y 1 X -1 Y s 1125 1186 m 2 X -1 Y 5 X -1 Y 2 X s 1134 1184 m 1 X -1 Y 4 X -1 Y 3 X -1 Y 1 X s 1143 1181 m -1 Y 1 X -1 Y 3 X -1 Y 1
 X -1 Y 1 X 1 -1 d 1 X -1 Y s 1151 1175 m 2 X 1 -1 d 1 X -1 Y 1 X 1 -1 d 1 -1 d 2 X -1 Y s 1160 1170 m 2 X -1 Y 1 X -1 Y 3 X -1 Y 2 X 1 -1 d s 1169 1166 m 3 X -1 Y 1 X -1 Y 2 X 1 -1 d -1 Y 2 X s 1178 1162 m -1 Y 1 X -1 Y 2 X -1 Y 2 X -1 Y 2 X -1 Y 1
 X -1 Y 1 X s 1187 1156 m 1 -1 d 1 X -1 Y 1 X -1 Y 1 X -1 Y 1 X -1 Y 1 X -1 Y 1 -1 d 1 X -1 Y s 1195 1148 m 2 X -1 Y 1 X -1 Y 1 -1 d -1 Y 1 X -1 Y 1 X -1 Y 1 -1 d 1 -1 d 1 X s 1204 1140 m 1 -1 d -1 Y 2 X -1 Y 1 X -1 Y 2 X 1 -1 d -1 Y 1 X -2 Y 1 X s
 1213 1132 m 1 -1 d -1 Y 1 X -1 Y 1 -1 d 2 X -1 Y 1 X -2 Y 2 X -1 Y 1 X s 1222 1124 m 1 X -2 Y 2 X -1 Y 1 X -1 Y 1 X -1 Y 2 X -1 Y 1 X 1 -1 d s 1231 1117 m -1 Y 1 X -1 Y 2 X -1 Y 1 X -1 Y 1 X -2 Y 2 X -2 Y 1 -1 d -1 Y s 1239 1107 m 2 X -1 Y 1 -1 d 1
 X -1 Y 1 -1 d -1 Y 2 X -3 Y 1 X -1 Y 1 -1 d s 1248 1097 m 1 -1 d -1 Y 1 X -1 Y 1 X -2 Y 1 X -2 Y 1 X -1 Y 1 -1 d -1 Y 1 X -1 Y 1 X -1 Y 1 X s 1257 1085 m -1 Y 1 X 1 -1 d -2 Y 1 X -1 Y 1 -2 d -1 Y 1 X -2 Y 1 X -1 Y 1 X -2 Y 1 X -2 Y 1 X -1 Y s 1266
 1069 m -1 Y 1 X -2 Y 1 -1 d -3 Y 1 X -2 Y 1 -1 d 1 -1 d -1 Y 1 X -1 Y 1 X -3 Y 1 X -2 Y 1 -1 d s 1275 1050 m -1 Y 1 X -2 Y 1 -1 d -1 Y 1 -1 d -1 Y 1 -1 d -2 Y 1 X -2 Y 1 X -2 Y 1 X -1 Y 1 X -2 Y s 1283 1033 m 1 X -2 Y 1 X -4 Y 1 X -2 Y 1 -1 d -2 Y 1
 X -3 Y 1 X -3 Y 1 X -4 Y 1 -1 d -2 Y 1 X -2 Y s 1292 1007 m -1 Y 1 X -2 Y 1 X -3 Y 1 -2 d -3 Y 1 -1 d -2 Y 1 -1 d -3 Y 1 X -2 Y 1 X -4 Y 1 X -4 Y 1 -1 d -2 Y s 1301 976 m -2 Y 1 -1 d -4 Y 1 -1 d -8 Y 1 -2 d -4 Y 1 -1 d -3 Y 1 -1 d -4 Y 1 -1 d -3 Y 1
 X -5 Y 1 -2 d -3 Y 1 -1 d -1 Y s 1310 929 m -2 Y 1 -1 d -3 Y 1 -1 d -3 Y 1 X -3 Y 1 -1 d -3 Y 1 -1 d -1 Y 1 -2 d -1 Y 1 -1 d -4 Y 1 -1 d -4 Y 1 X s 1319 897 m -2 Y 1 -1 d -2 Y 1 -1 d -2 Y 1 -1 d -3 Y 1 X -2 Y 1 X -2 Y 1 -1 d -3 Y 1 X -2 Y 1 X -1 Y s
 1327 874 m 1 -1 d -2 Y 1 X -2 Y 1 X -2 Y 1 X -4 Y 1 X -3 Y 1 X -3 Y 1 X -1 Y 1 -1 d -1 Y 1 -1 d -3 Y s 1336 850 m -1 Y 1 X -3 Y 1 X -2 Y 1 X -3 Y 1 X -3 Y 1 X -3 Y 1 X -2 Y 1 X -3 Y 1 X -2 Y 1 X -2 Y s 1345 826 m 1 -1 d -1 Y 1 X -2 Y 1 X -2 Y 1 -1 d
 -1 Y 1 -1 d -2 Y 1 -1 d -2 Y 1 -1 d -3 Y 1 X -2 Y 1 X -1 Y s 1354 805 m -1 Y 1 -1 d -3 Y 1 X -2 Y 1 X -1 Y 1 X -2 Y 1 X -3 Y 1 -1 d 1 X -3 Y 1 -1 d -1 Y 1 X s 1363 786 m -2 Y 1 -1 d -1 Y 1 -1 d -1 Y 1 -1 d -1 Y 1 -1 d -1 Y 1 X -3 Y 1 -1 d -2 Y 1 X 1
 -1 d s 1371 769 m 1 -1 d -1 Y 1 X -2 Y 1 X -2 Y 1 X -1 Y 1 -1 d -1 Y 1 X -1 Y 1 -1 d -1 Y 1 -1 d -1 Y 1 X -2 Y s 1380 753 m 1 X -2 Y 1 -1 d -2 Y 1 X -2 Y 1 -2 d -1 Y 1 X -2 Y 1 X -2 Y 1 X -2 Y 1 -1 d -1 Y 1 X -1 Y s 1389 734 m -1 Y 1 X -2 Y 1 X -3 Y
 1 X -2 Y 1 -1 d 1 X -3 Y 1 X -1 Y 1 -1 d -2 Y 1 X -1 Y 1 X s 1398 717 m -1 Y 1 X -1 Y 1 X -1 Y 1 X -2 Y 1 X -2 Y 1 X -1 Y 1 -1 d -1 Y 1 X -1 Y 1 X -1 Y 1 -1 d s 1407 704 m -1 Y 1 -1 d -2 Y 1 X -2 Y 1 X -1 Y 1 X -2 Y 1 -1 d -1 Y 1 -1 d -1 Y 1 X -2 Y
 1 X -2 Y s 1415 687 m 1 X -1 Y 1 X -1 Y 1 X -1 Y 1 X -2 Y 1 -1 d -2 Y 1 X -1 Y 1 -1 d -1 Y 1 X -1 Y 1 X -1 Y s 1424 674 m 1 X -1 Y 2 X -1 Y 1 X -1 Y 1 X -2 Y 2 X -2 Y 1 X -1 Y 1 X s 1433 666 m 1 -1 d -1 Y 1 X -1 Y 1 X -1 Y 1 X -1 Y 1 X -3 Y 1 X -1 Y
 1 X -1 Y 1 X -1 Y 1 X s 1442 655 m -1 Y 1 X -1 Y 1 X -3 Y 1 X -2 Y 1 X -2 Y 1 X -1 Y 1 X -1 Y 1 X -2 Y 1 X -1 Y 1 -1 d s 1451 640 m 1 -1 d -1 Y 1 -1 d 1 X -2 Y 1 X -1 Y 1 -1 d 1 -1 d 1 -1 d -1 Y 1 X -2 Y s 1459 628 m 1 X -1 Y 1 X -2 Y 1 X -1 Y 1 -1
 d -1 Y 1 X 1 -1 d -1 Y 1 X -1 Y 1 X -2 Y 1 X -1 Y s 1468 616 m 1 X -1 Y 1 X -1 Y 2 X -2 Y 1 X -1 Y 1 X -1 Y 2 X -1 Y 1 X -1 Y s 1477 608 m 2 X -1 Y 1 X -2 Y 1 X -1 Y 1 X -1 Y 1 X 1 -1 d -1 Y 1 X -1 Y 1 -1 d s 1486 599 m -1 Y 1 X -1 Y 1 X -1 Y 1 X 1
 -1 d -1 Y 1 X -1 Y 1 -1 d 1 X -2 Y 1 -1 d 1 X s 1495 589 m -1 Y 1 X -1 Y 1 X 1 -1 d 1 X -1 Y 1 X -2 Y 1 X -1 Y 1 X -1 Y 1 X -1 Y s 1503 580 m 1 X -1 Y 1 X -1 Y 1 X -1 Y 1 X -1 Y 1 X -1 Y 1 X -1 Y 1 X -1 Y 1 -1 d -1 Y 1 X -1 Y s 1512 570 m 1 -1 d 2 X
 -1 Y 1 X -2 Y 1 X -1 Y 1 X -2 Y 1 X 1 -1 d 1 -1 d s 1521 561 m -1 Y 2 X 1 -1 d -1 Y 1 -1 d -1 Y 1 X -2 Y 1 X -1 Y 1 X -1 Y 1 X -1 Y 1 X s 1530 551 m -1 Y 1 -1 d 2 X -1 Y 1 -1 d -1 Y 2 X -1 Y 1 X -1 Y 1 X -1 Y 1 X s 1539 543 m 1 -1 d -1 Y 1 X -1 Y 1
 X -1 Y 1 X -1 Y 1 X -1 Y 1 X -1 Y 1 X 1 -1 d -1 Y s 1547 534 m 1 X -1 Y 1 X 1 -1 d 1 X -1 Y 1 X -1 Y 2 X -2 Y 1 X 1 -1 d s 1556 527 m 1 X 1 -1 d -1 Y 1 X -1 Y 1 X -1 Y 1 X -1 Y 2 X -1 Y 1 -1 d -1 Y 1 X s 1565 519 m -1 Y 1 -1 d 2 X -1 Y 1 -1 d 1 -1 d
 -1 Y 2 X -2 Y 1 X 1 -1 d s 1574 510 m -1 Y 2 X -1 Y 1 X -1 Y 1 -1 d -1 Y 1 X -1 Y 1 X 1 -1 d 1 X -1 Y 1 X s 1583 502 m -1 Y 1 X -1 Y 2 X -1 Y 2 X -1 Y 1 X 1 -1 d -1 Y 1 X -1 Y s 1591 495 m 2 X 1 -1 d 1 X -1 Y 2 X -2 Y 1 X 1 -1 d 1 X -1 Y s 1600 489
 m 1 X -1 Y 1 X -1 Y 2 X -2 Y 2 X -1 Y 1 X -1 Y 2 X -1 Y s 1609 482 m 1 -1 d 1 X -1 Y 4 X -2 Y 2 X -1 Y 1 X s 1618 477 m 1 X -1 Y 1 X 1 -1 d -1 Y 2 X -1 Y 1 X -2 Y 1 X -1 Y 1 X -1 Y 1 -1 d s 1627 468 m 1 X -1 Y 1 X 1 -1 d 2 X -1 Y 1 X -1 Y 1 X -2 Y 1
 X -1 Y s 1635 461 m 1 X -1 Y 1 X -1 Y 1 X 1 -1 d -1 Y 1 X -1 Y 1 X -1 Y 1 X -1 Y 1 X -1 Y 1 X s 1644 453 m 1 X -2 Y 1 X -1 Y 1 X -1 Y 1 X -1 Y 1 X -1 Y 2 X -1 Y 2 X s 1653 446 m -1 Y 1 X -1 Y 1 X 1 -1 d 1 X -1 Y 1 X -1 Y 1 X -1 Y 2 X -1 Y 1 X s 1662
 439 m -1 Y 1 X -1 Y 1 X -1 Y 2 X -1 Y 1 X -1 Y 1 X -1 Y 2 X -1 Y 1 X s 1671 432 m -1 Y 2 X -1 Y 1 X -1 Y 1 -1 d 1 X -1 Y 1 X 1 -1 d 1 -1 d s 1679 425 m 1 -1 d 1 X -1 Y 3 X -1 Y 1 X -1 Y 1 X -1 Y 1 X -1 Y 1 X s 1688 419 m 1 X -1 Y 1 X -1 Y 2 X -1 Y 1
 X -1 Y 2 X 1 -1 d 1 X -1 Y s 1697 413 m 1 X -1 Y 1 X 1 -1 d 1 X -1 Y 1 X -1 Y 2 X -1 Y 2 X -1 Y s 1706 407 m 1 X -1 Y 1 X -1 Y 1 X -1 Y 1 X -1 Y 2 X 1 -1 d 1 -1 d -1 Y 1 X s 1715 400 m 2 X -1 Y 1 X -1 Y 2 X -1 Y 1 X -1 Y 1 X -1 Y 1 X -1 Y s 1723 394
 m 2 X -1 Y 1 X -1 Y 3 X -1 Y 1 -1 d 1 X 1 -1 d s 1732 389 m 1 X -1 Y 2 X -1 Y 2 X -1 Y 1 -1 d 2 X -1 Y 1 X s 1741 384 m -1 Y 1 X 1 -1 d 1 X -1 Y 1 X -1 Y 1 X -1 Y 1 X -1 Y 1 -1 d 1 X -1 Y 1 X s 1750 376 m 1 -1 d 2 X -1 Y 1 X -1 Y 1 X -1 Y 1 -1 d 1 X
 -1 Y 2 X s 1759 370 m -1 Y 1 X -1 Y 2 X 1 -1 d 1 X -1 Y 1 X -1 Y 1 X -1 Y 1 X -1 Y s 1767 363 m 2 X -1 Y 2 X 1 -1 d -1 Y 1 X -1 Y 1 X -1 Y 2 X s 1776 358 m 1 -1 d 1 X -1 Y 1 X 1 -1 d 1 X -1 Y 1 X -1 Y 1 X -1 Y 2 X s 1785 352 m 1 X -1 Y 1 X -1 Y 1 X
 -1 Y 1 X -1 Y 3 X -1 Y 2 X s 1794 347 m 1 X -2 Y 1 X -1 Y 2 X -1 Y 1 X 1 -1 d 2 X -1 Y 1 X s 1803 341 m -1 Y 1 X -1 Y 2 X -1 Y 2 X -1 Y 1 X -1 Y 1 X -1 Y 2 X s 1812 335 m -1 Y 3 X -1 Y 2 X -1 Y 2 X -1 Y 1 X s 1820 331 m 1 -1 d -1 Y 1 X 1 -1 d 1 X -1
 Y 1 X -1 Y 2 X -1 Y 1 X -1 Y 1 X -1 Y s 1829 323 m 3 X -1 Y 1 X -1 Y 1 -1 d 1 X -1 Y 1 X -1 Y 1 X -1 Y 1 X s 1838 317 m 1 X -1 Y 1 X -1 Y 1 X -1 Y 1 X -1 Y 2 X -1 Y 1 X 1 -1 d 1 X s 1847 311 m -1 Y 2 X -1 Y 1 X -1 Y 1 X -1 Y 2 X -1 Y 2 X -1 Y 1 X s
 1856 305 m 1 X 1 -1 d 1 X -1 Y 1 X -1 Y 1 X -1 Y 1 X -1 Y 1 X -1 Y 1 X s 1864 299 m 1 X -1 Y 1 X -1 Y 1 X 1 -1 d 1 -1 d 2 X -1 Y 1 X -1 Y 1 X -1 Y s 1873 292 m 2 X -1 Y 2 X -1 Y 1 X -1 Y 1 X -1 Y 2 X 1 -1 d s 1882 287 m 1 -1 d 3 X -1 Y 1 X -1 Y 3 X
 -1 Y 1 X s 1891 283 m 1 -1 d 2 X -1 Y 1 X -1 Y 1 X -1 Y 2 X -1 Y 2 X s 1900 278 m -1 Y 3 X -1 Y 2 X -1 Y 1 X -1 Y 1 X -1 Y 1 X s 1908 273 m 1 X -1 Y 1 X -1 Y 4 X -1 Y 1 X -1 Y 1 X 1 -1 d s 1917 268 m 1 -1 d 2 X -1 Y 2 X -1 Y 3 X -1 Y 1 X -1 Y s 1926
 263 m 1 X -1 Y 4 X -1 Y 1 X -1 Y 1 X -1 Y 1 X -1 Y 1 X s 1935 258 m 1 X -1 Y 2 X -1 Y 1 X -1 Y 2 X -1 Y 2 X 1 -1 d s 1944 253 m 1 X -1 Y 2 X -1 Y 1 X 1 -1 d 3 X -1 Y s 1952 249 m 2 X -1 Y 1 X -1 Y 3 X -1 Y 1 X -1 Y 2 X s 1961 245 m -1 Y 2 X -1 Y 2 X
 -1 Y 1 X 1 -1 d 1 X -1 Y 1 X -1 Y 1 X s 1970 239 m 1 -1 d 1 -1 d -1 Y 3 X 1 -1 d 1 X -1 Y 1 X -1 Y 1 X s 1979 233 m 2 X -1 Y 1 X -1 Y 2 X -1 Y 2 X -1 Y 1 X 1 -1 d s 1988 228 m 1 -1 d 1 X -1 Y 1 X -1 Y 1 X -1 Y 2 X -1 Y 1 X -1 Y 1 X -1 Y s 1996 221 m
 2 X -1 Y 4 X -1 Y 3 X s 2005 219 m 1 X -1 Y 2 X -1 Y 1 X -1 Y 2 X -1 Y 2 X -1 Y 1 X s 2014 214 m 1 X -1 Y 2 X 1 -1 d 1 X -1 Y 3 X 1 -1 d s 2023 210 m 1 X -1 Y 1 X -1 Y 1 X -1 Y 4 X -1 Y 1 X -1 Y 1 X s 2032 205 m 1 X 1 -1 d 1 X -1 Y 3 X -1 Y 2 X -1 Y
 s 2040 201 m 1 X s 1 0 0 c black 1 0 0 c 245 1237 m 9 X s 254 1237 m 9 X s 263 1237 m 1 X -1 Y 7 X s 271 1236 m 7 X -1 Y 2 X s 280 1235 m 9 X s 289 1235 m 7 X -1 Y 2 X s 298 1234 m 9 X s 307 1234 m 8 X s 315 1234 m 9 X s 324 1234 m 1 -1 d 8 X s 333
 1233 m 4 X -1 Y 5 X s 342 1232 m 9 X s 351 1232 m 7 X 1 -1 d s 359 1231 m 9 X s 368 1231 m 7 X 1 -1 d 1 X s 377 1230 m 9 X s 386 1230 m 8 X -1 Y 1 X s 395 1229 m 7 X -1 Y 1 X s 403 1228 m 9 X s 412 1228 m 9 X s 421 1228 m 9 X s 430 1228 m 1 -1 d 5 X
 -1 Y 3 X s 439 1226 m -1 Y 6 X -1 Y 2 X s 447 1224 m 2 X -1 Y 7 X s 456 1223 m 7 X 1 -1 d 1 X s 465 1222 m 9 X s 474 1222 m 3 X -1 Y 6 X s 483 1221 m 1 X 1 -1 d 4 X -1 Y 2 X s 491 1219 m 1 X -1 Y 5 X -1 Y 3 X s 500 1217 m 2 X -1 Y 6 X -1 Y 1 X s 509
 1215 m 1 X -1 Y 4 X -1 Y 3 X -1 Y 1 X s 518 1212 m 3 X -1 Y 4 X 1 -1 d 1 X s 527 1210 m 1 X 1 -1 d 1 X 1 -1 d 2 X -1 Y 2 X s 535 1207 m 1 X -1 Y 1 -1 d 1 X -1 Y 2 X -1 Y 3 X -1 Y 1 X s 544 1202 m 2 X 1 -1 d 3 X -1 Y 3 X -1 Y s 553 1199 m 2 X 1 -1 d
 2 X -1 Y 1 X -1 Y 3 X -1 Y s 562 1195 m 1 X -1 Y 1 X 1 -1 d 1 X -1 Y 1 X -1 Y 2 X -1 Y 2 X s 571 1190 m 1 X -1 Y 1 X -1 Y 2 X -1 Y 2 X 1 -1 d 1 X -1 Y s 579 1185 m 1 X 1 -1 d 1 X -1 Y 1 X -1 Y 1 X -1 Y 1 X -1 Y 1 X -1 Y 1 -1 d 1 X -1 Y s 588 1177 m
 1 X -1 Y 1 X -1 Y 1 X -1 Y 1 X -1 Y 1 X -1 Y 1 X 1 -1 d -2 Y 1 X -1 Y 1 X -1 Y s 597 1167 m 1 -1 d -1 Y 1 X -2 Y 1 X -1 Y 2 X -1 Y 1 X -1 Y 1 X -1 Y 1 X -1 Y 1 -1 d s 606 1157 m -1 Y 1 X -1 Y 1 X -1 Y 1 X -1 Y 1 X -1 Y 1 X -1 Y 1 X -3 Y 1 X -1 Y 1 X
 -2 Y 1 -1 d s 615 1144 m 1 -1 d -1 Y 1 X -1 Y 1 X -3 Y 1 X -3 Y 1 X -1 Y 1 -1 d -1 Y 1 X -2 Y 1 -1 d -1 Y s 623 1128 m 1 -1 d 1 X -1 Y 1 X -1 Y 1 X -1 Y 1 X -2 Y 1 X -2 Y 1 X -1 Y 1 -1 d -1 Y 1 -1 d -2 Y s 632 1114 m 1 X -2 Y 1 X -2 Y 1 X -1 Y 1 X
 -2 Y 1 -1 d -2 Y 1 X -2 Y 1 -1 d -2 Y 1 X -1 Y 1 X -1 Y s 641 1097 m -1 Y 1 -1 d -2 Y 1 -1 d -2 Y 1 X -2 Y 1 X -2 Y 1 X -4 Y 1 -1 d -2 Y 1 -1 d -1 Y 1 X -3 Y 1 X s 650 1074 m -2 Y 1 -1 d -2 Y 1 -1 d -2 Y 1 -1 d -1 Y 1 -1 d -1 Y 1 -1 d -2 Y 1 -1 d -2
 Y 1 -1 d -2 Y 1 X -2 Y 1 X s 659 1051 m -2 Y 1 X -3 Y 1 X -2 Y 1 X -2 Y 1 X -2 Y 1 -1 d -2 Y 1 X -2 Y 1 -1 d -1 Y 1 -1 d -3 Y s 667 1029 m 1 X -1 Y 1 -1 d -2 Y 1 X -2 Y 1 -1 d -1 Y 1 -1 d -3 Y 1 X -2 Y 1 X -2 Y 1 -1 d -3 Y 1 -1 d -2 Y s 676 1006 m 1
 -1 d -1 Y 1 -1 d -1 Y 1 -1 d -2 Y 1 X -2 Y 1 -1 d -1 Y 1 X -2 Y 1 -1 d -1 Y 1 -1 d -1 Y 1 -1 d -1 Y s 685 987 m -1 Y 1 X -1 Y 1 X -3 Y 1 X -2 Y 1 X -2 Y 1 X -1 Y 1 X -2 Y 1 -1 d -1 Y 1 -1 d -2 Y 1 -1 d s 694 969 m -2 Y 1 X -3 Y 1 X -1 Y 1 X -2 Y 1 X
 -1 Y 1 -1 d -1 Y 1 -1 d -1 Y 1 X -2 Y 1 X -2 Y 1 X s 703 952 m -2 Y 1 -1 d -3 Y 1 X -2 Y 1 X -2 Y 1 X -3 Y 1 -1 d -2 Y 1 X -2 Y 1 -1 d 1 -1 d -1 Y s 711 931 m 1 X -2 Y 1 -1 d -1 Y 1 X -2 Y 1 X -1 Y 1 -1 d -2 Y 1 X -2 Y 1 X -1 Y 1 X -1 Y 1 X -2 Y s
 720 915 m 1 X -3 Y 1 -1 d 1 X -1 Y 1 X -2 Y 1 X -2 Y 1 -1 d -2 Y 1 X -1 Y 1 X -2 Y 1 X s 729 900 m -1 Y 1 X -3 Y 1 X -1 Y 1 X -2 Y 1 X -1 Y 1 X -1 Y 1 -1 d -2 Y 1 X -1 Y 1 X -1 Y 1 X s 738 886 m 1 -1 d -1 Y 1 X -2 Y 1 X -1 Y 1 -1 d -1 Y 1 -1 d -2 Y
 1 X -1 Y 1 X -1 Y 1 -1 d -1 Y 1 X s 747 872 m -1 Y 1 X -1 Y 1 X -1 Y 1 X -2 Y 1 -1 d 1 -1 d -1 Y 1 X -1 Y 1 -1 d -2 Y 1 X s 755 860 m 1 X -2 Y 1 X -2 Y 1 X 1 -1 d 1 X -1 Y 1 X -2 Y 1 X -1 Y 1 -1 d -1 Y 1 X s 764 849 m 1 X -2 Y 1 X 1 -1 d 1 X -1 Y 1
 X -2 Y 2 X -1 Y 1 -1 d 1 -1 d s 773 840 m 1 X -1 Y 1 X -1 Y 2 X -1 Y 2 X -1 Y 1 -1 d -1 Y 1 X -1 Y 1 X s 782 833 m -1 Y 1 X -1 Y 1 -1 d 1 -1 d -1 Y 1 X -1 Y 2 X -1 Y 1 X 1 -1 d 1 X s 791 825 m -1 Y 2 X -1 Y 1 X -1 Y 2 X -1 Y 1 X -1 Y 1 X -1 Y 1 X -2
 Y s 799 817 m 1 X -1 Y 2 X -2 Y 2 X -1 Y 3 X -1 Y 1 X s 808 812 m 1 X -1 Y 2 X -1 Y 1 X -1 Y 1 X -1 Y 1 X -2 Y 2 X 1 -1 d s 817 805 m 1 X -1 Y 1 X 1 -1 d 1 -1 d 2 X -1 Y 3 X s 826 801 m -1 Y 2 X -1 Y 2 X -1 Y 2 X -1 Y 1 -1 d 2 X s 835 796 m 1 X -1 Y
 2 X -1 Y 1 X -2 Y 4 X s 843 792 m 1 X -1 Y 2 X -1 Y 4 X -1 Y 2 X -1 Y s 852 788 m 2 X -1 Y 3 X -1 Y 2 X -1 Y 2 X s 861 785 m 1 X -1 Y 1 X -1 Y 2 X -1 Y 2 X -1 Y 2 X -1 Y 1 X s 870 780 m 2 X 1 -1 d 1 X -1 Y 5 X s 879 778 m -1 Y 4 X -1 Y 2 X -1 Y 2 X
 s 887 775 m 4 X -1 Y 4 X -1 Y 1 X -1 Y s 896 772 m 2 X -1 Y 2 X -1 Y 3 X -1 Y 2 X s 905 769 m 2 X 1 -1 d 4 X -1 Y 2 X s 914 767 m -1 Y 5 X -1 Y 3 X -1 Y 1 X s 923 764 m 1 X -1 Y 2 X 1 -1 d 1 X -1 Y 2 X -1 Y 1 X s 931 760 m 3 X -1 Y 2 X -1 Y 2 X -1 Y
 2 X s 940 757 m 2 X -1 Y 2 X 1 -1 d 1 X 1 -1 d 2 X s 949 754 m -1 Y 5 X -1 Y 4 X s 958 752 m 1 X -1 Y 5 X -1 Y 3 X s 967 750 m 4 X -1 Y 4 X s 975 749 m 4 X -1 Y 1 X 1 -1 d 3 X s 984 747 m 6 X -1 Y 3 X s 993 746 m 7 X -1 Y 2 X s 1002 745 m 1 -1 d 5 X
 -1 Y 3 X s 1011 743 m 4 X -1 Y 4 X s 1019 742 m 4 X -1 Y 5 X s 1028 741 m -1 Y 6 X -1 Y 3 X s 1037 739 m -1 Y 4 X -1 Y 1 X -1 Y 4 X s 1046 736 m 2 X -1 Y 4 X -1 Y 3 X s 1055 734 m 5 X -1 Y 3 X s 1063 733 m 3 X -1 Y 2 X -1 Y 4 X s 1072 731 m 2 X -1 Y
 6 X -1 Y 1 X s 1081 729 m 1 X -1 Y 3 X 1 -1 d 4 X s 1090 727 m 2 X -1 Y 7 X s 1099 726 m 2 X 1 -1 d 4 X -1 Y 1 X s 1107 724 m 5 X -1 Y 4 X -1 Y s 1116 722 m 8 X -1 Y 1 X s 1125 721 m 4 X -1 Y 4 X -1 Y 1 X s 1134 719 m 3 X -1 Y 6 X s 1143 718 m 1 X
 -1 Y 5 X -1 Y 2 X s 1151 716 m 3 X -1 Y 4 X 1 -1 d 1 X s 1160 714 m 6 X 1 -1 d 2 X s 1169 713 m 2 X -1 Y 4 X 1 -1 d 2 X -1 Y s 1178 710 m 3 X 1 -1 d 5 X s 1187 709 m 1 -1 d 3 X 1 -1 d 3 X s 1195 707 m 2 X -1 Y 5 X -1 Y 2 X s 1204 705 m 2 X -1 Y 3 X
 1 -1 d 2 X -1 Y 1 X s 1213 702 m 1 X -1 Y 2 X -1 Y 2 X -1 Y 1 X 1 -1 d 2 X s 1222 698 m 1 X -1 Y 2 X -1 Y 4 X -1 Y 1 X 1 -1 d s 1231 694 m 2 X -1 Y 1 X 1 -1 d 2 X 1 -1 d 1 X -1 Y s 1239 690 m 1 X -1 Y 2 X -1 Y 2 X -2 Y 2 X -1 Y 1 X 1 -1 d -1 Y s
 1248 683 m 2 X -2 Y 2 X -1 Y 1 X -1 Y 1 X -1 Y 2 X -1 Y 1 X -1 Y s 1257 676 m 1 -1 d 2 X -1 Y 1 X -1 Y 2 X -2 Y 2 X -2 Y 1 X s 1266 669 m -1 Y 1 X -1 Y 1 X -2 Y 1 X -2 Y 1 X -1 Y 1 -1 d -2 Y 1 -1 d -1 Y 1 -1 d 1 -1 d -2 Y 1 -1 d s 1275 652 m -2 Y 1
 X -2 Y 1 -1 d -1 Y 1 -1 d -3 Y 1 -1 d -2 Y 1 -1 d -3 Y 1 -1 d -2 Y 1 X -3 Y 1 -1 d -3 Y s 1283 625 m 1 -1 d -3 Y 1 X -4 Y 1 -1 d -2 Y 1 -1 d -5 Y 1 -2 d -5 Y 1 -1 d -2 Y 1 -2 d -6 Y 1 -1 d -3 Y 1 -1 d -4 Y s 1292 581 m -2 Y 1 -2 d -5 Y 1 -2 d -6 Y 1
 -2 d -5 Y 1 -1 d -8 Y 1 X -7 Y 1 -2 d -3 Y 1 -1 d -7 Y 1 -2 d -5 Y 1 -1 d -5 Y s 1301 515 m -3 Y 1 -1 d -5 Y 1 -1 d -8 Y 1 -1 d -8 Y 1 -1 d -4 Y 1 -1 d -8 Y 1 -1 d -4 Y 1 -1 d -2 Y 1 -2 d -5 Y 1 -1 d -3 Y s 1310 455 m -2 Y 1 X -4 Y 1 -1 d -4 Y 1 X
 -3 Y 1 -1 d -5 Y 1 -1 d -4 Y 1 X -4 Y 1 X -4 Y 1 -1 d -3 Y 1 -1 d s 1319 417 m -3 Y 1 -1 d -4 Y 1 -1 d -3 Y 1 -1 d -2 Y 1 -1 d -4 Y 1 X -4 Y 1 X -3 Y 1 X -3 Y 1 X -2 Y s 1327 385 m 1 X -3 Y 1 -1 d -4 Y 1 X -2 Y 1 X -3 Y 1 X -1 Y 1 X -3 Y 1 X -3 Y 1
 X -3 Y 1 X -1 Y s 1336 361 m -1 Y 1 -1 d -2 Y 1 X -3 Y 1 -1 d -2 Y 1 X -1 Y 1 X -2 Y 1 -1 d -2 Y 1 X -2 Y 1 X -2 Y 1 -1 d -1 Y s 1345 339 m -1 Y 1 -1 d -1 Y 1 X -1 Y 1 X -2 Y 1 -1 d -2 Y 1 -1 d 1 -1 d -1 Y 1 X -1 Y 1 X -1 Y 1 -1 d s 1354 324 m -2 Y
 1 X -2 Y 1 X -2 Y 1 X -3 Y 1 X -2 Y 1 X -2 Y 1 -1 d 1 -1 d -2 Y 1 X -2 Y 1 -1 d s 1363 304 m 1 -1 d -3 Y 1 X -2 Y 1 -1 d -1 Y 1 X -1 Y 1 X -2 Y 1 -1 d -1 Y 1 -1 d 1 X -1 Y s 1371 289 m 1 X -2 Y 1 X -1 Y 1 X -1 Y 1 X -2 Y 1 -1 d 1 -1 d -1 Y 1 -1 d 1
 X -1 Y 1 X s 1380 278 m -1 Y 1 X -1 Y 1 X -1 Y 1 -1 d 1 X -1 Y 1 X -1 Y 1 -1 d -1 Y 1 X -1 Y 1 X -1 Y 1 X s 1389 268 m -1 Y 2 X -1 Y 1 X -1 Y 1 X -1 Y 1 X -1 Y 1 X -1 Y 1 X -1 Y 1 -1 d -1 Y 1 X -1 Y s 1398 258 m 1 X -2 Y 2 X -1 Y 1 X -1 Y 1 X -1 Y 1
 X -1 Y 1 X -1 Y 1 X 1 -1 d s 1407 250 m -1 Y 2 X -2 Y 2 X -1 Y 1 X -1 Y 2 X -2 Y 1 X s 1415 243 m 1 X -1 Y 2 X -1 Y 1 X -1 Y 1 X -1 Y 1 X 1 -1 d -1 Y 1 X -1 Y 1 X s 1424 236 m -1 Y 2 X -1 Y 1 -1 d 1 X -1 Y 1 X -1 Y 3 X -1 Y 1 X s 1433 230 m 1 -1 d 3
 X -1 Y 1 X -1 Y 1 X 1 -1 d 1 X -1 Y 1 X s 1442 225 m 1 -1 d 2 X -1 Y 2 X -1 Y 2 X -1 Y 2 X s 1451 221 m -1 Y 2 X -1 Y 1 X -1 Y 2 X -1 Y 1 X -1 Y 2 X -1 Y s 1459 215 m 2 X -1 Y 2 X 1 -1 d 1 X 1 -1 d 2 X -1 Y s 1468 211 m 2 X 1 -1 d 3 X -1 Y 3 X s
 1477 209 m 1 X -1 Y 7 X -1 Y 1 X s 1486 207 m 4 X -1 Y 5 X s 1495 206 m 4 X 1 -1 d 1 X -1 Y 2 X s 1503 204 m 9 X -1 Y s 1512 203 m 8 X -1 Y 1 X s 1521 202 m 9 X s 1530 202 m 9 X s 1539 202 m 8 X s 1547 202 m 9 X s 1556 202 m 9 X s 1565 202 m 9 X -1
 Y s 1574 201 m 9 X s 1583 201 m 8 X s 1591 201 m 9 X s 1600 201 m 9 X s 1609 201 m 9 X s 1618 201 m 9 X s 1627 201 m 8 X s 1635 201 m 9 X s 1644 201 m 9 X s 1653 201 m 9 X s 1662 201 m 9 X s 1671 201 m 8 X s 1679 201 m 9 X s 1688 201 m 9 X s 1697
 201 m 9 X s 1706 201 m 9 X s 1715 201 m 8 X s 1723 201 m 9 X s 1732 201 m 9 X s 1741 201 m 9 X s 1750 201 m 9 X s 1759 201 m 8 X s 1767 201 m 9 X s 1776 201 m 9 X s 1785 201 m 9 X s 1794 201 m 9 X s 1803 201 m 9 X s 1812 201 m 8 X s 1820 201 m 9 X s
 1829 201 m 9 X s 1838 201 m 9 X s 1847 201 m 9 X s 1856 201 m 8 X s 1864 201 m 9 X s 1873 201 m 9 X s 1882 201 m 9 X s 1891 201 m 9 X s 1900 201 m 8 X s 1908 201 m 9 X s 1917 201 m 9 X s 1926 201 m 9 X s 1935 201 m 9 X s 1944 201 m 8 X s 1952 201 m
 9 X s 1961 201 m 9 X s 1970 201 m 9 X s 1979 201 m 9 X s 1988 201 m 8 X s 1996 201 m 9 X s 2005 201 m 9 X s 2014 201 m 9 X s 2023 201 m 9 X s 2032 201 m 8 X s 2040 201 m 1 X s 0 0.666667 0 c 1 1 1 c black 0 0.666667 0 c 245 1114 m 9 X s 254 1114 m 9
 X s 263 1114 m 8 X s 271 1114 m 9 X s 280 1114 m 9 X s 289 1114 m 9 X s 298 1114 m 9 X s 307 1114 m 7 X 1 1 d s 315 1115 m 9 X s 324 1115 m 9 X s 333 1115 m 9 X s 342 1115 m 9 X s 351 1115 m 8 X s 359 1115 m 9 X s 368 1115 m 9 X s 377 1115 m 9 X s
 386 1115 m 8 X 1 Y 1 X s 395 1116 m 8 X s 403 1116 m 9 X s 412 1116 m 9 X s 421 1116 m 9 X s 430 1116 m 9 X s 439 1116 m 3 X 1 Y 5 X s 447 1117 m 9 X s 456 1117 m 9 X s 465 1117 m 9 X s 474 1117 m 9 X s 483 1117 m 1 X 1 Y 7 X s 491 1118 m 9 X s 500
 1118 m 5 X 1 Y 4 X s 509 1119 m 9 X s 518 1119 m 2 X 1 1 d 6 X s 527 1120 m 7 X 1 Y 1 X s 535 1121 m 7 X 1 1 d 1 X s 544 1122 m 9 X s 553 1122 m 2 X 1 1 d 6 X s 562 1123 m 3 X 1 Y 6 X s 571 1124 m 2 X 1 Y 6 X s 579 1125 m 2 X 1 Y 5 X 1 Y 2 X s 588
 1127 m 2 X 1 Y 5 X 1 Y 2 X s 597 1129 m 1 1 d 2 X 1 Y 5 X 1 1 d s 606 1132 m 3 X 1 Y 3 X 1 Y 2 X 1 1 d s 615 1135 m 3 X 1 Y 1 X 1 Y 2 X 1 1 d 1 X 1 Y s 623 1139 m 4 X 1 1 d 2 X 1 Y 2 X 1 Y s 632 1142 m 2 X 1 Y 2 X 1 Y 2 X 1 Y 2 X 1 Y 1 X s 641 1146
 m 1 X 1 Y 1 X 1 Y 2 X 1 1 d 1 1 d 1 X 1 Y 2 X 1 Y s 650 1152 m 1 X 1 Y 1 X 1 1 d 1 X 1 Y 2 X 1 Y 1 X 1 Y 2 X s 659 1157 m 1 Y 2 X 1 Y 2 X 1 Y 1 X 1 Y 1 X 1 1 d 1 X 1 Y s 667 1163 m 2 X 1 Y 2 X 1 Y 1 X 1 Y 2 X 1 Y 1 X 1 Y 1 X 1 Y s 676 1169 m 2 X 1 Y
 1 X 1 Y 2 X 1 Y 2 X 1 Y 2 X 1 Y s 685 1174 m 2 X 1 Y 1 X 1 Y 3 X 1 Y 1 X 1 1 d 1 X 1 Y s 694 1179 m 1 X 1 Y 2 X 1 Y 2 X 1 Y 2 X 1 1 d 1 X s 703 1183 m 1 Y 1 X 1 Y 2 X 1 Y 1 X 1 Y 1 X 1 Y 2 X 1 1 d s 711 1189 m 1 X 1 Y 3 X 1 Y 1 X 1 Y 3 X 1 Y 1 X s
 720 1193 m 1 X 1 Y 3 X 1 Y 1 X 1 Y 2 X 1 Y 1 -1 d 1 Y 1 X s 729 1197 m 1 X 1 Y 1 X 1 1 d 2 X 1 Y 1 X 1 1 d 2 X s 738 1201 m 1 X 1 Y 2 X 1 Y -1 Y 1 1 d 1 X 1 Y 2 X 1 Y 2 X s 747 1205 m 1 X 1 Y 2 X 1 Y 2 X 1 1 d 1 X 1 Y 1 X s 755 1209 m 2 X 1 Y 4 X 1
 Y 1 X 1 1 d 1 X s 764 1212 m 2 X 1 Y 3 X 1 Y 4 X 1 Y s 773 1215 m -1 Y 1 Y 6 X 1 Y 2 X 1 1 d s 782 1217 m 2 X 1 1 d 3 X 1 Y 3 X s 791 1219 m 2 X 1 Y 4 X 1 Y 2 X s 799 1221 m 1 X 1 Y 8 X 1 Y s 808 1223 m 5 X 1 Y 4 X 1 Y s 817 1225 m -1 Y 1 Y 6 X 1 Y
 3 X s 826 1226 m 5 X 1 Y 4 X s 835 1227 m 3 X 1 Y 5 X s 843 1228 m 1 X 1 Y 8 X s 852 1229 m 2 X 1 Y 7 X s 861 1230 m 1 X 1 Y 5 X 1 1 d 2 X s 870 1232 m 9 X s 879 1232 m 4 X 1 Y 4 X s 887 1233 m 9 X 1 Y s 896 1234 m 9 X s 905 1234 m 3 X 1 1 d -1 Y 4
 X 1 Y 1 X s 914 1235 m 3 X -1 Y 1 X 1 Y 5 X s 923 1235 m 4 X 1 Y 3 X -1 Y 1 Y 1 X s 931 1236 m 9 X 1 Y s 940 1237 m 1 -1 d 1 Y 8 X s 949 1237 m 9 X s 958 1237 m 9 X s 967 1237 m 8 X -1 Y s 975 1236 m 1 X 1 Y -1 Y 4 X 1 1 d 3 X -1 Y s 984 1236 m 1 1
 d -1 Y 8 X s 993 1236 m 4 X -1 Y 3 X 1 1 d 1 -1 d s 1002 1235 m 1 1 d 1 X -1 Y 6 X -1 Y 1 X s 1011 1234 m 1 Y -1 Y 7 X -1 Y 1 Y 1 X -1 Y s 1019 1233 m 9 X s 1028 1233 m 2 X 1 -1 d 6 X s 1037 1232 m 3 X -1 Y 1 1 d 2 X 1 -1 d 2 X s 1046 1231 m 1 X 1 Y
 1 X -1 Y 7 X s 1055 1231 m 5 X 1 -1 d 2 X s 1063 1230 m 6 X 1 -1 d 2 X s 1072 1229 m 5 X -1 Y 4 X s 1081 1228 m 7 X 1 -1 d 1 X s 1090 1227 m 4 X -1 Y 3 X -1 Y 1 X 1 Y -1 Y 1 X s 1099 1225 m 4 X -1 Y 4 X s 1107 1224 m 1 X -1 Y 2 X 1 Y -1 Y 2 X 1 -1 d
 3 X s 1116 1222 m 3 X -1 Y 4 X -1 Y 2 X -1 Y s 1125 1219 m 7 X -1 Y 1 X 1 Y 1 X s 1134 1219 m 1 X -1 Y 4 X -1 Y 4 X s 1143 1217 m -1 Y 4 X -1 Y 2 X -1 Y 1 X 1 -1 d s 1151 1213 m 3 X -1 Y 1 Y 1 X -1 Y 2 X -1 Y 3 X s 1160 1211 m 1 X -1 Y 2 X -1 Y 4 X
 -1 Y 2 X s 1169 1208 m 3 X -1 Y 1 Y 1 X -1 Y 2 X 1 -1 d 2 X s 1178 1206 m -1 Y 3 X -1 Y 2 X 1 -1 d 1 Y -1 Y 3 X s 1187 1203 m -1 Y 2 X -1 Y 1 X 1 -1 d 1 X -1 Y 1 X 1 -1 d 1 X -1 Y s 1195 1197 m 3 X -1 Y 1 X -1 Y 1 X -1 Y 1 X -1 Y 2 X -1 Y 1 X s 1204
 1192 m 1 X -1 Y 3 X -1 Y 3 X -1 Y 1 X -1 Y 1 -1 d s 1213 1187 m 2 X -1 Y 1 -1 d 1 Y -1 Y 1 Y -1 Y 3 X -1 Y 2 X -1 Y 1 X s 1222 1183 m 1 X -1 Y 3 X -1 Y 2 X -1 Y 3 X s 1231 1180 m -1 Y 1 X -1 Y 3 X -1 Y 1 X -1 Y 2 X -1 Y 1 X -1 Y s 1239 1174 m 2 X -1
 Y 2 X -1 Y 1 X -1 Y 2 X -1 Y 1 X -1 Y 1 X s 1248 1169 m 1 -1 d 1 X -1 Y 1 X -1 Y 1 X -1 Y 1 X -1 Y 1 X -1 Y 2 X -1 Y 1 X s 1257 1162 m 1 X 1 -1 d -1 Y 1 X -1 Y 1 -1 d 1 Y -1 Y 1 X -2 Y 1 Y 1 -1 d 1 X -1 Y 1 X -1 Y 1 X s 1266 1154 m -1 Y 1 X -1 Y 1 X
 -2 Y 1 X -1 Y 1 -1 d 3 X -1 Y 1 -1 d 1 X s 1275 1146 m -1 Y 1 X -1 Y 1 X -1 Y 1 X 1 Y 1 X -1 Y 1 -1 d 1 Y 1 X -1 Y 1 X 1 Y 1 X -1 Y s 1283 1142 m 1 1 d -1 Y 1 Y 1 -1 d 1 Y -2 Y 2 X -1 Y 1 1 d 1 X -1 Y 2 X -1 Y 1 X 1 Y -1 Y s 1292 1139 m 1 Y 1 X 1 Y
 1 1 d -1 Y 1 Y 1 -1 d 1 Y -1 Y 1 X 1 Y 1 -1 d 1 Y -1 Y 1 Y 1 X 1 Y 1 X -1 Y 1 Y 1 X 1 -1 d 1 Y s 1301 1143 m -1 Y 1 X -1 Y 1 X -3 Y 1 -1 d 1 Y -1 Y 1 X -1 Y 1 X 1 Y 1 -1 d 1 X -3 Y 1 -1 d 1 Y 1 -1 d s 1310 1132 m 1 -1 d -1 Y 1 Y -1 Y 1 X -1 Y 1 Y 1
 X -1 Y 1 -1 d 1 X 1 Y 1 -1 d 1 Y 1 -1 d -1 Y 1 X -2 Y 1 X s 1319 1125 m -1 Y 1 Y 1 X -1 Y 1 Y 1 X -1 Y 1 X 1 -1 d 1 Y 2 X -1 Y 2 X s 1327 1123 m 1 -1 d 1 Y -1 Y 1 X 1 Y 1 X -1 Y 1 Y 1 -1 d 1 Y -2 Y 1 X -2 Y 1 X -1 Y 1 X 1 Y -1 Y 1 X 1 Y -1 Y 1 X -2
 Y s 1336 1116 m 1 X -1 Y 2 X -1 Y 1 X -2 Y 1 X -1 Y 1 X 1 -1 d -1 Y 1 X 1 Y -1 Y 1 X s 1345 1109 m 1 -1 d 1 Y -1 Y 1 1 d -2 Y 1 1 d -1 Y 1 X -1 Y 1 Y 1 -1 d -1 Y 1 X -1 Y 1 -1 d -2 Y 1 X -1 Y 1 X -1 Y s 1354 1099 m 1 X -1 Y 1 -1 d -1 Y 1 1 d -1 Y 1
 Y 1 1 d -1 Y 1 X -1 Y 2 X -1 Y 2 X s 1363 1095 m -1 Y 1 Y -1 Y 1 -1 d 1 Y -1 Y 1 Y 2 X -1 Y 1 X -1 Y 1 X -1 Y 1 X -1 Y 1 1 d -1 Y 1 X s 1371 1090 m 1 X -1 Y 1 Y 1 X -1 Y 1 X -1 Y 2 X -1 Y 1 1 d -1 Y 1 Y 1 -1 d -1 Y 1 X 1 -1 d -1 Y s 1380 1084 m 1 X
 -1 Y 1 -1 d -1 Y 1 X -1 Y 1 -1 d -1 Y 1 Y -1 Y 1 X -1 Y 2 X -2 Y 1 X -1 Y 1 X -1 Y s 1389 1073 m 1 X -1 Y 1 X -2 Y 1 -1 d 1 -1 d 1 X -1 Y 1 -1 d 1 -1 d 1 X -1 Y 1 Y 1 X s 1398 1065 m 2 X -1 Y 1 X -1 Y 1 X -2 Y 1 X 1 Y -1 Y 1 Y 1 -1 d 1 X 1 -1 d -1 Y
 1 X s 1407 1059 m 1 X -2 Y 1 X -1 Y 1 Y 1 -1 d 1 X -1 Y 1 -1 d -1 Y 1 -1 d 1 X -2 Y 1 Y 1 X -2 Y s 1415 1049 m 2 X -1 Y 2 X -1 Y 1 -1 d -1 Y 1 X -1 Y 1 X -1 Y 1 Y 1 X 1 -1 d 1 Y -1 Y s 1424 1043 m 1 Y 1 -1 d -1 Y 1 1 d 3 X -1 Y 2 X -1 Y 1 X -1 Y 1 X
 s 1433 1040 m 1 X -1 Y 1 X -1 Y 1 X -1 Y 1 X -1 Y 1 X -2 Y 1 X 1 Y 1 -1 d -1 Y 1 1 d 1 X s 1442 1034 m -1 Y 1 X -1 Y 1 X -1 Y 1 -1 d -1 Y 1 -1 d -1 Y 1 X -1 Y 1 Y 1 X -2 Y 1 X 1 -1 d 1 -1 d s 1451 1023 m 1 X -2 Y 2 X -1 Y 1 Y -1 Y 1 X 1 -1 d 1 Y -1
 Y 1 X 1 Y -1 Y 1 -1 d 1 -1 d -1 Y s 1459 1016 m 1 X -1 Y 2 X -2 Y 1 X -1 Y 2 X -2 Y 1 1 d -1 Y 1 Y -1 Y 1 X -1 Y 1 X -1 Y s 1468 1008 m 1 X -1 Y 3 X -2 Y 1 X -1 Y 3 X -1 Y 1 X s 1477 1003 m -1 Y 2 X 1 Y -1 Y 1 X -1 Y 1 -1 d 1 X -1 Y 1 -1 d 1 X -1 Y
 1 X -1 Y 1 -1 d s 1486 995 m -1 Y 1 X -1 Y 1 X -1 Y 2 X -1 Y 1 X -2 Y 1 X 1 -1 d -1 Y 1 -1 d 1 X -1 Y s 1495 985 m 1 X -1 Y 1 X 1 -1 d 1 X -1 Y 1 X -1 Y 2 X -1 Y 1 X -1 Y s 1503 979 m 1 X -1 Y 1 X -1 Y 1 X -1 Y 1 X -1 Y 1 X -1 Y 1 X -1 Y 1 X -1 Y 1
 -1 d -1 Y 1 X -2 Y s 1512 968 m 3 X -1 Y 1 X -2 Y 1 X -1 Y 1 X -1 Y 1 -1 d 1 X -1 Y 1 X -1 Y s 1521 960 m 1 X -1 Y 2 X -2 Y 1 X -1 Y 1 -1 d -1 Y 1 X -2 Y 2 X -2 Y 1 X s 1530 950 m -1 Y 1 -1 d 2 X -1 Y 1 -1 d -1 Y 1 X -1 Y 2 X -1 Y 1 X -1 Y 1 X -1 Y
 s 1539 941 m 1 X -1 Y 1 -1 d -1 Y 1 X -1 Y 1 1 d -1 Y 1 X -1 Y 1 X -2 Y 2 X -2 Y s 1547 932 m 1 X -1 Y 1 X -1 Y 2 X -1 Y 1 X -1 Y 1 X -1 Y 1 X -1 Y 1 X -1 Y 1 X -1 Y s 1556 924 m 1 X 1 -1 d -1 Y 1 X -1 Y 1 X -1 Y 1 X -1 Y 1 X 1 -1 d 1 -1 d -1 Y 1 X
 -1 Y s 1565 915 m -1 Y 1 X -1 Y 2 X -1 Y 1 -1 d 1 -1 d -1 Y 2 X -3 Y 2 X -1 Y s 1574 905 m 2 X -1 Y 1 -1 d -1 Y 1 -1 d -1 Y 1 X -1 Y 1 X 1 -1 d 1 X -1 Y 1 X s 1583 897 m -1 Y 1 X -1 Y 1 X -1 Y 2 X -1 Y 1 X -1 Y 1 X 1 -1 d -2 Y 1 X s 1591 889 m 1 X
 -1 Y 3 X -2 Y 2 X -2 Y 1 X -1 Y 1 X -1 Y 1 X -1 Y s 1600 881 m 1 X -1 Y 1 X -1 Y 2 X -2 Y 2 X -1 Y 1 X -1 Y 1 X -1 Y 1 X -1 Y s 1609 873 m 1 -1 d 1 X -1 Y 3 X -1 Y 1 X -1 Y 1 X -1 Y 2 X s 1618 868 m -1 Y 1 X -1 Y 1 X -1 Y 1 X -1 Y 1 X 1 -1 d -1 Y 1
 X -2 Y 1 X -1 Y 1 -1 d -1 Y 1 X s 1627 857 m -1 Y 1 X -1 Y 1 X -1 Y 1 X 1 -1 d 1 X -1 Y 1 X -1 Y 1 X -2 Y 1 X -1 Y s 1635 848 m 1 X -2 Y 1 X -1 Y 1 X -1 Y 1 X -1 Y 1 X -2 Y 1 X -2 Y 1 X -1 Y 2 X -1 Y s 1644 837 m 1 X -1 Y 1 -1 d -2 Y 1 X -1 Y 2 X -2
 Y 1 X 1 -1 d 1 X -1 Y 1 X s 1653 828 m -1 Y 1 X 1 -1 d -1 Y 1 X -1 Y 1 X -1 Y 1 X -1 Y 1 X -1 Y 2 X -1 Y 1 -1 d s 1662 819 m 1 X -2 Y 1 -1 d 1 X -1 Y 2 X -2 Y 1 X -1 Y 1 X -1 Y 1 X 1 -1 d s 1671 810 m 1 X -1 Y 1 -1 d 1 -1 d -1 Y 1 X -1 Y 1 X -1 Y 1
 -1 d 1 X -1 Y 1 X -2 Y s 1679 800 m 2 X -1 Y 1 X -1 Y 2 X -1 Y 1 X -2 Y 1 X -1 Y 1 X -1 Y 1 X s 1688 793 m 1 -1 d -1 Y 2 X -1 Y 1 X -1 Y 1 X -1 Y 2 X -1 Y 1 X -1 Y 1 X -1 Y s 1697 785 m -1 Y 2 X -1 Y 1 X -1 Y 1 X -1 Y 1 X -1 Y 1 -1 d 1 X -1 Y 1 X 1
 -1 d s 1706 777 m -1 Y 1 X -1 Y 1 X -1 Y 1 X -2 Y 1 X -1 Y 1 X -1 Y 2 X -1 Y 1 -1 d -1 Y 1 X s 1715 767 m 1 X -1 Y 1 X 1 -1 d -1 Y 1 X 1 -1 d -1 Y 1 X -1 Y 1 X -1 Y 1 X -1 Y s 1723 759 m 1 X -1 Y 1 X -1 Y 1 X -1 Y 1 X -1 Y 1 X -1 Y 1 X -1 Y 1 X -1 Y
 1 X 1 -1 d s 1732 751 m -1 Y 2 X -1 Y 1 X -1 Y 2 X -2 Y 1 -1 d 1 X -1 Y 1 X -1 Y 1 X s 1741 743 m -1 Y 1 X -1 Y 1 X -1 Y 1 X -1 Y 1 X -2 Y 1 X -1 Y 1 -1 d -1 Y 1 X -1 Y 1 X -1 Y 1 X -1 Y s 1750 731 m 1 -1 d 1 X 1 -1 d 1 -1 d -1 Y 1 X -2 Y 1 -1 d 1 X
 -1 Y 1 -1 d 1 X s 1759 722 m -2 Y 1 X 1 -1 d 1 X -1 Y 1 X -1 Y 1 X -2 Y 2 X -2 Y 1 X -1 Y s 1767 712 m 1 X -1 Y 1 X -1 Y 1 X 1 -1 d 1 -1 d -1 Y 1 X -2 Y 1 -1 d 1 X -1 Y 1 X s 1776 703 m 1 -1 d -1 Y 1 X 1 -1 d -1 Y 2 X -1 Y 1 X -2 Y 1 X -2 Y 2 X -1 Y
 s 1785 693 m 2 X -2 Y 1 X -2 Y 1 X -1 Y 2 X -1 Y 1 X -1 Y 1 X -1 Y 1 X s 1794 685 m 1 X -2 Y 1 -1 d -1 Y 1 X -1 Y 1 X -1 Y 1 X -1 Y 1 X -1 Y 1 X -1 Y 1 X -1 Y 1 X s 1803 675 m -1 Y 1 -1 d 1 X -1 Y 1 -1 d -1 Y 2 X -2 Y 1 X 1 -1 d -1 Y 1 X -1 Y 1 X s
 1812 665 m -1 Y 1 X -1 Y 2 X -1 Y 2 X -2 Y 1 X -1 Y 2 X -1 Y s 1820 658 m 1 -1 d -2 Y 1 X -1 Y 1 -1 d -1 Y 2 X -2 Y 1 X -1 Y 1 X -2 Y 1 X -1 Y 1 -1 d -1 Y s 1829 644 m 2 X -1 Y 1 X -2 Y 1 X -2 Y 1 -1 d 1 X -2 Y 1 X -2 Y 1 X -1 Y 1 X s 1838 633 m 1 X
 -2 Y 1 -1 d -1 Y 1 X -1 Y 1 -1 d -1 Y 1 X -1 Y 1 X -1 Y 1 X -1 Y 1 -1 d -1 Y 1 X s 1847 621 m -2 Y 2 X -1 Y 1 X -2 Y 1 -1 d -1 Y 1 X -1 Y 2 X -1 Y 1 X -1 Y 1 X s 1856 611 m -1 Y 1 X -1 Y 1 -1 d -1 Y 1 X -1 Y 1 X -2 Y 1 X -3 Y 1 X -1 Y 1 -1 d 1 X -1
 Y s 1864 598 m -1 Y 1 X -2 Y 1 X -1 Y 1 X -1 Y 1 -2 d 1 -1 d 1 X -1 Y 1 X -2 Y 1 X -2 Y 1 X -2 Y s 1873 583 m 2 X -1 Y 1 X -1 Y 1 X -1 Y 1 X -3 Y 1 X -1 Y 1 -1 d 1 -1 d 1 -1 d s 1882 573 m -1 Y 1 -1 d 1 X -1 Y 2 X -2 Y 1 X -1 Y 1 X -1 Y 1 X -1 Y 1 X
 1 -1 d s 1891 564 m -1 Y 1 X -1 Y 1 X -1 Y 1 X -3 Y 2 X -2 Y 1 X -1 Y 1 X -1 Y 1 -1 d -1 Y 1 X s 1900 552 m -1 Y 1 X 1 -1 d 1 X -1 Y 1 X -1 Y 1 -1 d 1 X -3 Y 1 X -2 Y 1 X -1 Y s 1908 541 m 1 X -2 Y 1 X -3 Y 3 X -1 Y 1 X -1 Y 1 X -2 Y 1 X -1 Y 1 -1 d
 -1 Y s 1917 529 m -1 Y 1 X -1 Y 1 X -1 Y 1 X -1 Y 1 X -1 Y 1 X -3 Y 2 X -1 Y 1 X -2 Y 1 X -1 Y s 1926 517 m -1 Y 1 X -1 Y 2 X 1 -1 d 1 X -3 Y 1 X -1 Y 1 X -3 Y 1 X -3 Y 1 -1 d s 1935 503 m -1 Y 1 X -1 Y 1 X 1 -1 d -1 Y 1 X -3 Y 1 X -2 Y 1 X -1 Y 1 X
 -1 Y 1 X -1 Y 1 X s 1944 491 m -2 Y 1 X -1 Y 1 X -1 Y 1 X -1 Y 1 -1 d -1 Y 1 -1 d 2 X -1 Y 1 X -2 Y s 1952 480 m -1 Y 2 X -2 Y 1 X -3 Y 1 -1 d -2 Y 2 X -1 Y 1 -1 d -1 Y 1 X -1 Y 1 -1 d s 1961 466 m -1 Y 1 X -1 Y 1 -1 d -2 Y 1 X -1 Y 1 X -3 Y 1 X -1
 Y 1 -1 d -1 Y 1 -1 d -2 Y 1 X -2 Y 1 X -1 Y s 1970 448 m -1 Y 1 -2 d -1 Y 1 -1 d -4 Y 1 X -1 Y 1 X -2 Y 1 X 1 -2 d -1 Y 1 X -2 Y 1 X -2 Y 1 X s 1979 429 m -1 Y 1 X -1 Y 1 X -4 Y 1 -1 d 1 X -2 Y 1 -1 d -1 Y 1 -1 d -1 Y 1 -1 d -3 Y 1 X 1 -3 d s 1988
 409 m -1 Y 1 -1 d -3 Y 1 X -2 Y 1 -1 d -4 Y 1 -1 d -3 Y 1 X -2 Y 1 X -2 Y 1 X -4 Y 1 X -3 Y s 1996 382 m 1 X -2 Y 1 X -3 Y 2 X -1 Y 1 X -2 Y 1 X -2 Y 1 X -1 Y 1 -1 d -2 Y 1 X s 2005 368 m 1 X -3 Y 1 X -2 Y 1 X -2 Y 1 X -5 Y 1 -1 d 1 -1 d -5 Y 1 X -1
 Y 1 X -2 Y 1 -1 d s 2014 345 m -1 Y 1 X -3 Y 1 X -2 Y 1 X -1 Y 1 -3 d -1 Y 1 X -4 Y 1 X -2 Y 1 X -2 Y 1 X -1 Y 1 -1 d s 2023 324 m -2 Y 1 -3 d -4 Y 1 -1 d -5 Y 1 -1 d -7 Y 1 X -3 Y 1 -2 d -2 Y 2 X -5 Y 1 X -4 Y 1 -2 d s 2032 283 m 1 -2 d -5 Y 1 -4 d
 -5 Y 1 X -8 Y 1 X -3 Y 1 X -7 Y 1 X -16 Y 1 -6 d 1 X -8 Y s 2040 219 m 1 X s black 3 lw 245 201 m 1796 X s 425 241 m -40 Y s 461 221 m -20 Y s 497 221 m -20 Y s 532 221 m -20 Y s 568 221 m -20 Y s 604 241 m -40 Y s 640 221 m -20 Y s 676 221 m -20 Y
 s 712 221 m -20 Y s 748 221 m -20 Y s 784 241 m -40 Y s 820 221 m -20 Y s 856 221 m -20 Y s 892 221 m -20 Y s 928 221 m -20 Y s 964 241 m -40 Y s 1000 221 m -20 Y s 1036 221 m -20 Y s 1072 221 m -20 Y s 1108 221 m -20 Y s 1144 241 m -40 Y s 1180 221
 m -20 Y s 1216 221 m -20 Y s 1251 221 m -20 Y s 1287 221 m -20 Y s 1323 241 m -40 Y s 1359 221 m -20 Y s 1395 221 m -20 Y s 1431 221 m -20 Y s 1467 221 m -20 Y s 1503 241 m -40 Y s 1539 221 m -20 Y s 1575 221 m -20 Y s 1611 221 m -20 Y s 1647 221 m
 -20 Y s 1683 241 m -40 Y s 1719 221 m -20 Y s 1755 221 m -20 Y s 1791 221 m -20 Y s 1827 221 m -20 Y s 1863 241 m -40 Y s 425 241 m -40 Y s 389 221 m -20 Y s 353 221 m -20 Y s 317 221 m -20 Y s 281 221 m -20 Y s 1863 241 m -40 Y s 1899 221 m -20 Y s
 1935 221 m -20 Y s 1970 221 m -20 Y s 2006 221 m -20 Y s 245 201 m 1140 Y s 291 201 m -46 X s 268 253 m -23 X s 268 305 m -23 X s 268 357 m -23 X s 291 408 m -46 X s 268 460 m -23 X s 268 512 m -23 X s 268 564 m -23 X s 291 616 m -46 X s 268 667 m
 -23 X s 268 719 m -23 X s 268 771 m -23 X s 291 823 m -46 X s 268 875 m -23 X s 268 926 m -23 X s 268 978 m -23 X s 291 1030 m -46 X s 268 1082 m -23 X s 268 1134 m -23 X s 268 1185 m -23 X s 291 1237 m -46 X s 291 1237 m -46 X s 268 1289 m -23 X s
 268 1341 m -23 X s 0.490196 0.545098 0.615686 c 1 1 1 c 0.490196 0.545098 0.615686 c 907 201 245 1341 bl 245 1341 m 907 X s 1152 1341 m 201 Y s 1152 1542 m -907 X s 245 1542 m -201 Y s black
 gsave  2268 1676 0 0 C 515.735 1471.36 t 0 r /Helvetica-Bold findfont 56.8825 sf 0 0 m (Signal efficiency) show NC gr  0 0 0.933333 c 9 lw 286 1492 m 190 X s black
 gsave  2268 1676 0 0 C 515.735 1368.97 t 0 r /Helvetica-Bold findfont 56.8825 sf 0 0 m (Background efficiency) show NC gr  1 0 0 c 286 1391 m 190 X s 0.490196 0.545098 0.615686 c 3 lw 1 1 1 c 0.490196 0.545098 0.615686 c 889 201 1152 1341 bl 1152
 1341 m 889 X s 2041 1341 m 201 Y s 2041 1542 m -889 X s 1152 1542 m -201 Y s black
 gsave  2268 1676 0 0 C 1418.27 1494.11 t 0 r /Helvetica-Bold findfont 56.8825 sf 0 0 m (Signal purity) show NC gr  0 0 0.933333 c[  52 12 ] 0 sd 6 lw 1192 1509 m 187 X s black
 gsave  2268 1676 0 0 C 1418.27 1429.65 t 0 r /Helvetica-Bold findfont 56.8825 sf 0 0 m (Signal efficiency*purity) show NC gr  0 0 0.933333 c[  22 12 ] 0 sd 1192 1441 m 187 X s black
 gsave  2268 1676 0 0 C 1501.7 1361.39 t 0 r /Helvetica-Bold findfont 56.8825 sf 0 0 m (S+B) show NC gr [  ] 0 sd 1483 1407 m 7 -49 d s 3 lw 1490 1358 m 8 64 d s 1498 1422 m 114 X s
 gsave  2268 1676 0 0 C 1418.27 1361.39 t 0 r /Helvetica-Bold findfont 56.8825 sf 0 0 m (S/) show NC gr  0 0.666667 0 c 9 lw 1192 1374 m 187 X s black 3 lw 245 1237 m 1796 X s
 gsave  2268 1676 0 0 C 337.503 386.801 t 0 r /Helvetica-Bold findfont 53.0904 sf 0 0 m (For 1000 signal and 1000 background) show NC gr 
 gsave  2268 1676 0 0 C 1058.01 318.542 t 0 r /Helvetica-Bold findfont 53.0904 sf 0 0 m ( is) show NC gr 
 gsave  2268 1676 0 0 C 955.626 318.542 t 0 r /Helvetica-Bold findfont 53.0904 sf 0 0 m (S+B) show NC gr  6 lw 933 360 m 7 -45 d s 3 lw 940 315 m 8 60 d s 948 375 m 110 X s
 gsave  2268 1676 0 0 C 337.503 318.542 t 0 r /Helvetica-Bold findfont 53.0904 sf 0 0 m (events the maximum S/) show NC gr 
 gsave  2268 1676 0 0 C 337.503 254.075 t 0 r /Helvetica-Bold findfont 53.0904 sf 0 0 m (25.39 when cutting at  0.40) show NC gr  0.490196 0.545098 0.615686 c 0.364706 0.419608 0.490196 c 1471 96 23 1572 bf 0.490196 0.545098 0.615686 c 23 1572 m 1471
 X s 1494 1572 m 96 Y s 1494 1668 m -1471 X s 23 1668 m -96 Y s 1 1 1 c black 1 1 1 c
 gsave  2268 1676 0 0 C 75.8434 1600.29 t 0 r /Helvetica-Bold findfont 75.8434 sf 0 0 m (Cut efficiencies and optimal cut value) show NC gr  0 0.666667 0 c 2041 201 m 1140 Y s 1995 201 m 46 X s 2018 242 m 23 X s 2018 283 m 23 X s 2018 324 m 23 X s
 2018 364 m 23 X s 1995 405 m 46 X s 2018 446 m 23 X s 2018 487 m 23 X s 2018 528 m 23 X s 2018 568 m 23 X s 1995 609 m 46 X s 2018 650 m 23 X s 2018 691 m 23 X s 2018 732 m 23 X s 2018 773 m 23 X s 1995 813 m 46 X s 2018 854 m 23 X s 2018 895 m 23 X
 s 2018 936 m 23 X s 2018 977 m 23 X s 1995 1017 m 46 X s 2018 1058 m 23 X s 2018 1099 m 23 X s 2018 1140 m 23 X s 2018 1181 m 23 X s 1995 1222 m 46 X s 1995 1222 m 46 X s 2018 1262 m 23 X s 2018 1303 m 23 X s black 0 0.666667 0 c
 gsave  2268 1676 0 0 C 2051.56 178.232 t 0 r /Helvetica-Bold findfont 64.4669 sf 0 0 m (0) show NC gr  black 0 0.666667 0 c
 gsave  2268 1676 0 0 C 2051.56 379.217 t 0 r /Helvetica-Bold findfont 64.4669 sf 0 0 m (5) show NC gr  black 0 0.666667 0 c
 gsave  2268 1676 0 0 C 2051.56 583.994 t 0 r /Helvetica-Bold findfont 64.4669 sf 0 0 m (10) show NC gr  black 0 0.666667 0 c
 gsave  2268 1676 0 0 C 2051.56 788.771 t 0 r /Helvetica-Bold findfont 64.4669 sf 0 0 m (15) show NC gr  black 0 0.666667 0 c
 gsave  2268 1676 0 0 C 2051.56 993.548 t 0 r /Helvetica-Bold findfont 64.4669 sf 0 0 m (20) show NC gr  black 0 0.666667 0 c
 gsave  2268 1676 0 0 C 2051.56 1198.33 t 0 r /Helvetica-Bold findfont 64.4669 sf 0 0 m (25) show NC gr  black 0 0.666667 0 c
 gsave  2268 1676 0 0 C 2203.25 963.211 t 90 r /Helvetica-Bold findfont 64.4669 sf 0 0 m (Significance) show NC gr 
 gr  gr showpage
end
%%EOF
