%!PS-Adobe-2.0 EPSF-2.0
%%BoundingBox:  0 0 567 419
%%Title: dataset/plots/mvaeffs_Fisher.eps: Cut efficiencies for Fisher classifier
%%Creator: ROOT Version 6.12/06
%%CreationDate: Mon May 21 12:04:06 2018
%%DocumentNeededResources: ProcSet (FontSetInit)
%%EndComments
%%BeginProlog
80 dict begin
/s {stroke} def /l {lineto} def /m {moveto} def /t {translate} def
/r {rotate} def /rl {roll}  def /R {repeat} def
/d {rlineto} def /rm {rmoveto} def /gr {grestore} def /f {eofill} def
/c {setrgbcolor} def /black {0 setgray} def /sd {setdash} def
/cl {closepath} def /sf {scalefont setfont} def /lw {setlinewidth} def
/box {m dup 0 exch d exch 0 d 0 exch neg d cl} def
/NC{systemdict begin initclip end}def/C{NC box clip newpath}def
/bl {box s} def /bf {gsave box gsave f grestore 1 lw [] 0 sd s grestore} def /Y { 0 exch d} def /X { 0 d} def 
/K {{pop pop 0 moveto} exch kshow} bind def
/ita {/ang 15 def gsave [1 0 ang dup sin exch cos div 1 0 0] concat} def 
/mp {newpath /y exch def /x exch def} def
/side {[w .77 mul w .23 mul] .385 w mul sd w 0 l currentpoint t -144 r} def
/mr {mp x y w2 0 360 arc} def /m24 {mr s} def /m20 {mr f} def
/mb {mp x y w2 add m w2 neg 0 d 0 w neg d w 0 d 0 w d cl} def
/mt {mp x y w2 add m w2 neg w neg d w 0 d cl} def
/w4 {w 4 div} def
/w6 {w 6 div} def
/w8 {w 8 div} def
/m21 {mb f} def /m25 {mb s} def /m22 {mt f} def /m26{mt s} def
/m23 {mp x y w2 sub m w2 w d w neg 0 d cl f} def
/m27 {mp x y w2 add m w3 neg w2 neg d w3 w2 neg d w3 w2 d cl s} def
/m28 {mp x w2 sub y w2 sub w3 add m w3 0 d  0 w3 neg d w3 0 d 0 w3 d w3 0 d  0 w3 d w3 neg 0 d 0 w3 d w3 neg 0 d 0 w3 neg d w3 neg 0 d cl s } def
/m29 {mp gsave x w2 sub y w2 add w3 sub m currentpoint t 4 {side} repeat cl fill gr} def
/m30 {mp gsave x w2 sub y w2 add w3 sub m currentpoint t 4 {side} repeat cl s gr} def
/m31 {mp x y w2 sub m 0 w d x w2 sub y m w 0 d x w2 sub y w2 add m w w neg d x w2 sub y w2 sub m w w d s} def
/m32 {mp x y w2 sub m w2 w d w neg 0 d cl s} def
/m33 {mp x y w2 add m w3 neg w2 neg d w3 w2 neg d w3 w2 d cl f} def
/m34 {mp x w2 sub y w2 sub w3 add m w3 0 d  0 w3 neg d w3 0 d 0 w3 d w3 0 d  0 w3 d w3 neg 0 d 0 w3 d w3 neg 0 d 0 w3 neg d w3 neg 0 d cl f } def
/m35 {mp x y w2 add m w2 neg w2 neg d w2 w2 neg d w2 w2 d w2 neg w2 d x y w2 sub m 0 w d x w2 sub y m w 0 d s} def
/m36 {mb x w2 sub y w2 add m w w neg d x w2 sub y w2 sub m w w d s} def
/m37 {mp x y m w4 neg w2 d w4 neg w2 neg d w2 0 d  w4 neg w2 neg d w2 0 d w4 neg w2 d w2 0 d w4 neg w2 d w4 neg w2 neg d cl s} def
/m38 {mp x w4 sub y w2 add m w4 neg w4 neg d 0 w2 neg d w4 w4 neg d w2 0 d w4 w4 d 0 w2 d w4 neg w4 d w2 neg 0 d x y w2 sub m 0 w d x w2 sub y m w 0 d cl s} def
/m39 {mp x y m w4 neg w2 d w4 neg w2 neg d w2 0 d  w4 neg w2 neg d w2 0 d w4 neg w2 d w2 0 d w4 neg w2 d w4 neg w2 neg d cl f} def
/m40 {mp x y m w4 w2 d w4 w4 neg d w2 neg w4 neg d w2 w4 neg d w4 neg w4 neg d w4 neg w2 d w4 neg w2 neg d w4 neg w4 d w2 w4 d w2 neg w4 d w4 w4 d w4 w2 neg d cl s} def
/m41 {mp x y m w4 w2 d w4 w4 neg d w2 neg w4 neg d w2 w4 neg d w4 neg w4 neg d w4 neg w2 d w4 neg w2 neg d w4 neg w4 d w2 w4 d w2 neg w4 d w4 w4 d w4 w2 neg d cl f} def
/m42 {mp x y w2 add m w8 neg w2 -3 4 div mul d w2 -3 4 div mul w8 neg d w2 3 4 div mul w8 neg d w8 w2 -3 4 div mul d w8 w2 3 4 div mul d w2 3 4 div mul w8 d w2 -3 4 div mul w8 d w8 neg w2 3 4 div mul d cl s} def
/m43 {mp x y w2 add m w8 neg w2 -3 4 div mul d w2 -3 4 div mul w8 neg d w2 3 4 div mul w8 neg d w8 w2 -3 4 div mul d w8 w2 3 4 div mul d w2 3 4 div mul w8 d w2 -3 4 div mul w8 d w8 neg w2 3 4 div mul d cl f} def
/m44 {mp x y m w6 neg w2 d w2 2 3 div mul 0 d w6 neg w2 neg d w2 w6 d 0 w2 -2 3 div mul d w2 neg w6 d w6 w2 neg d w2 -2 3 div mul 0 d w6 w2 d w2 neg w6 neg d 0 w2 2 3 div mul d w2 w6 neg d cl s} def
/m45 {mp x y m w6 neg w2 d w2 2 3 div mul 0 d w6 neg w2 neg d w2 w6 d 0 w2 -2 3 div mul d w2 neg w6 d w6 w2 neg d w2 -2 3 div mul 0 d w6 w2 d w2 neg w6 neg d 0 w2 2 3 div mul d w2 w6 neg d cl f} def
/m46 {mp x y w4 add m w4 neg w4 d w4 neg w4 neg d  w4 w4 neg d w4 neg w4 neg d w4 w4 neg d w4 w4 d w4 w4 neg d w4 w4 d w4 neg w4 d w4 w4 d w4 neg w4 d w4 neg w4 neg d cl s} def
/m47 {mp x y w4 add m w4 neg w4 d w4 neg w4 neg d w4 w4 neg d w4 neg w4 neg d  w4 w4 neg d w4 w4 d w4 w4 neg d w4 w4 d w4 neg w4 d w4 w4 d w4 neg w4 d w4 neg w4 neg d cl f} def
/m48 {mp x y w4 add m w4 neg w4 d w4 neg w4 neg d w4 w4 neg d  w4 neg w4 neg d w4 w4 neg d w4 w4 d w4 w4 neg d w4 w4 d w4 neg w4 d w4 w4 d w4 neg w4 d w4 neg w4 neg d  w4 w4 neg d w4 neg w4 neg d w4 neg w4 d w4 w4 d cl f} def
/m49 {mp x w2 sub w3 add y w2 sub w3 add m  0 w3 neg d w3 0 d 0 w3 d w3 0 d 0 w3 d w3 neg 0 d 0 w3 d w3 neg 0 d 0 w3 neg d w3 neg 0 d 0 w3 neg d w3 0 d 0 w3 d w3 0 d 0 w3 neg d w3 neg 0 d cl f } def
/m2 {mp x y w2 sub m 0 w d x w2 sub y m w 0 d s} def
/m5 {mp x w2 sub y w2 sub m w w d x w2 sub y w2 add m w w neg d s} def
%%IncludeResource: ProcSet (FontSetInit)
%%IncludeResource: font Times-Roman
%%IncludeResource: font Times-Italic
%%IncludeResource: font Times-Bold
%%IncludeResource: font Times-BoldItalic
%%IncludeResource: font Helvetica
%%IncludeResource: font Helvetica-Oblique
%%IncludeResource: font Helvetica-Bold
%%IncludeResource: font Helvetica-BoldOblique
%%IncludeResource: font Courier
%%IncludeResource: font Courier-Oblique
%%IncludeResource: font Courier-Bold
%%IncludeResource: font Courier-BoldOblique
%%IncludeResource: font Symbol
%%IncludeResource: font ZapfDingbats
/reEncode {exch findfont dup length dict begin {1 index /FID eq  {pop pop} {def} ifelse } forall /Encoding exch def currentdict end dup /FontName get exch definefont pop } def [/Times-Bold /Times-Italic /Times-BoldItalic /Helvetica /Helvetica-Oblique
 /Helvetica-Bold /Helvetica-BoldOblique /Courier /Courier-Oblique /Courier-Bold /Courier-BoldOblique /Times-Roman /AvantGarde-Book /AvantGarde-BookOblique /AvantGarde-Demi /AvantGarde-DemiOblique /Bookman-Demi /Bookman-DemiItalic /Bookman-Light
 /Bookman-LightItalic /Helvetica-Narrow /Helvetica-Narrow-Bold /Helvetica-Narrow-BoldOblique /Helvetica-Narrow-Oblique /NewCenturySchlbk-Roman /NewCenturySchlbk-Bold /NewCenturySchlbk-BoldItalic /NewCenturySchlbk-Italic /Palatino-Bold
 /Palatino-BoldItalic /Palatino-Italic /Palatino-Roman ] {ISOLatin1Encoding reEncode } forall
%%EndProlog
%%BeginSetup
%%EndSetup
newpath  gsave  .25 .25 scale  gsave  0 0 t 0.490196 0.545098 0.615686 c[  ] 0 sd 3 lw 0.941176 0.941176 0.941176 c 2268 1676 0 0 bf black 1 1 0.992157 c 1796 1140 245 201 bf black 1796 1140 245 201 bl 1 1 0.992157 c 1796 1140 245 201 bf black 1796
 1140 245 201 bl 245 201 m 1796 X s[ 4 8] 0 sd 258 1341 m -1140 Y s 465 1341 m -1140 Y s 672 1341 m -1140 Y s 880 1341 m -1140 Y s 1087 1341 m -1140 Y s 1295 1341 m -1140 Y s 1502 1341 m -1140 Y s 1709 1341 m -1140 Y s 1917 1341 m -1140 Y s 258 1341
 m -1140 Y s 1917 1341 m -1140 Y s[  ] 0 sd 245 201 m 1140 Y s[ 4 8] 0 sd 2041 201 m -1796 X s 2041 408 m -1796 X s 2041 616 m -1796 X s 2041 823 m -1796 X s 2041 1030 m -1796 X s 2041 1237 m -1796 X s 2041 1237 m -1796 X s 0 0 0.933333 c[  22 12 ] 0
 sd 6 lw 0.49 0.6 0.82 c black 0 0 0.933333 c 245 719 m 9 X s 254 719 m 9 X s 263 719 m 8 X s 271 719 m 9 X s 280 719 m 9 X s 289 719 m 9 X s 298 719 m 9 X s 307 719 m 8 X s 315 719 m 9 X s 324 719 m 9 X s 333 719 m 9 X s 342 719 m 9 X s 351 719 m 8
 X s 359 719 m 9 X s 368 719 m 9 X s 377 719 m 9 X s 386 719 m 9 X s 395 719 m 8 X s 403 719 m 9 X s 412 719 m 9 X s 421 719 m 9 X s 430 719 m 9 X s 439 719 m 8 X s 447 719 m 9 X s 456 719 m 9 X s 465 719 m 9 X s 474 719 m 9 X s 483 719 m 8 X s 491
 719 m 9 X s 500 719 m 9 X s 509 719 m 9 X s 518 719 m 9 X s 527 719 m 8 X s 535 719 m 9 X s 544 719 m 9 X s 553 719 m 9 X s 562 719 m 9 X s 571 719 m 8 X s 579 719 m 9 X s 588 719 m 9 X s 597 719 m 9 X s 606 719 m 9 X s 615 719 m 8 X s 623 719 m 9 X
 s 632 719 m 9 X s 641 719 m 9 X s 650 719 m 9 X s 659 719 m 8 X s 667 719 m 9 X s 676 719 m 9 X s 685 719 m 9 X s 694 719 m 8 X 1 1 d s 703 720 m 8 X s 711 720 m 3 X -1 Y 2 X 1 Y 4 X -1 Y s 720 719 m 9 X s 729 719 m 9 X s 738 719 m 9 X s 747 719 m 8
 X s 755 719 m 9 X s 764 719 m 9 X s 773 719 m 9 X s 782 719 m 9 X s 791 719 m 8 X s 799 719 m 9 X s 808 719 m 9 X s 817 719 m 9 X s 826 719 m 9 X s 835 719 m 8 X s 843 719 m 8 X 1 Y 1 X s 852 720 m 9 X 1 Y s 861 721 m 1 -1 d 2 X 1 Y 6 X s 870 721 m
 1 X 1 Y 8 X s 879 722 m 1 Y 7 X 1 Y 1 X s 887 724 m 4 X 1 Y 5 X s 896 725 m 1 Y 4 X 1 Y 3 X 1 1 d 1 X s 905 728 m 5 X 1 Y -1 Y 1 X 1 Y -1 Y 1 Y 3 X s 914 729 m 1 X 1 Y 2 X 1 1 d -1 Y 1 Y 4 X 1 Y -1 Y 1 1 d s 923 732 m -1 Y 1 Y 2 X 1 Y 2 X 1 Y 3 X 1
 Y 1 X s 931 735 m 1 X 1 1 d 1 X 1 Y 3 X 1 Y 1 X 1 Y 2 X s 940 739 m 1 1 d 1 X 1 Y 3 X 1 Y 1 -1 d 1 Y 2 X 1 Y 1 X s 949 743 m 1 X 1 Y 1 X 1 Y 3 X 1 Y 2 X 1 Y 2 X s 958 747 m 1 Y 2 X 1 Y 2 X 1 1 d 1 X 1 1 d 1 X 1 Y 1 X s 967 752 m 1 X 1 Y 1 X 1 Y 2 X
 1 Y 1 X 1 1 d 2 X 1 Y s 975 757 m 2 X 1 Y 3 X 1 Y 2 X 1 Y 2 X 1 Y s 984 761 m 2 X 1 Y 1 X 1 Y -1 Y 1 1 d 1 X 1 Y 2 X 1 Y -1 Y 1 Y 1 X 1 Y -1 Y 1 1 d s 993 766 m 1 X 1 Y 1 X 1 Y 2 X 1 Y 1 X -1 Y 2 X 1 Y 2 X s 1002 769 m 1 1 d 1 Y 1 X 1 Y 1 X 1 Y 1 X
 1 Y 2 X 1 1 d 1 X 1 Y -1 Y 1 Y 1 X s 1011 776 m 2 X 1 Y 3 X 1 1 d 1 X 1 1 d s 1019 779 m 1 X 1 Y 3 X 1 Y 1 X 1 1 d 1 Y 2 X 1 Y 1 X s 1028 784 m 1 Y 2 X 1 Y 3 X 1 Y 2 X 1 Y 1 X -1 Y 1 Y -1 Y 1 1 d s 1037 788 m 3 X 1 Y 1 X 1 Y 1 X 1 Y -1 Y 1 X 1 Y 2 X
 1 Y 1 X 1 Y s 1046 793 m 2 X 1 Y 2 X 1 Y 1 X 1 -1 d 1 X 1 Y 2 X s 1055 795 m 1 X 1 Y 1 X -1 Y 1 1 d 1 X 1 Y 1 X 1 Y 3 X 1 Y s 1063 799 m 5 X 1 Y 4 X s 1072 800 m 2 X 1 Y 1 X -1 Y 1 Y 1 X 1 1 d 1 X 1 Y -1 Y 1 Y 1 X -1 Y 1 Y 1 -1 d 1 Y 1 X 1 Y s 1081
 804 m -1 Y 3 X 1 -1 d 5 X s 1090 802 m 1 X 1 Y -1 Y 1 X 1 Y -1 Y 3 X -1 Y 1 Y 2 X -1 Y 1 X -1 Y 1 X s 1099 800 m 1 Y 5 X -1 Y 1 X 1 -1 d 1 Y -1 Y 1 X 1 Y -1 Y s 1107 799 m 1 X 1 Y -1 Y 1 Y -1 Y 1 X -1 Y 1 X -1 Y 1 X -1 Y 1 X -1 Y 2 X -1 Y 1 X -2 Y 1
 X 1 Y -1 Y s 1116 792 m 1 X 1 -1 d 1 X 1 Y 1 X -1 Y 2 X -1 Y 1 Y 1 X -1 Y 1 X -1 Y 1 X 1 Y s 1125 790 m -1 Y 1 X -1 Y 1 Y 1 X -1 Y 1 1 d -1 Y 3 X -1 Y 1 Y 1 -1 d 1 X -1 Y 1 X 1 Y s 1134 787 m -1 Y 1 -1 d 1 X -1 Y 1 X -2 Y 2 X -1 Y 1 X -1 Y 1 X -1 Y
 1 X -1 Y 1 X s 1143 778 m -1 Y 1 1 d -1 Y 2 X -1 Y 1 X -1 Y 1 X -1 Y 2 X -1 Y 1 X s 1151 773 m 1 X -1 Y 2 X -1 Y 2 X -1 Y 1 X -1 Y 1 X -1 Y 2 X -1 Y s 1160 767 m 1 -1 d 1 -1 d 1 -1 d 1 X -1 Y 1 X -1 Y 1 X -1 Y 2 X -1 Y 1 X s 1169 760 m 1 X -2 Y 1 X
 1 Y -1 Y 1 X -1 Y 1 X -1 Y 1 Y 1 -1 d -1 Y 1 X -1 Y 1 Y 1 -1 d -1 Y 1 X -1 Y 1 X s 1178 752 m -1 Y 1 X -3 Y 1 X -1 Y 1 X -1 Y 1 Y -1 Y 1 X -2 Y 1 X -1 Y 1 X -1 Y 1 -1 d 1 -1 d 1 X s 1187 740 m -1 Y 1 X -2 Y 1 X 1 -1 d 1 X 1 -1 d 1 X -1 Y 1 X -2 Y 1
 X -1 Y s 1195 731 m 1 1 d -1 Y 1 X 1 -1 d 1 X -1 Y 1 X -2 Y 1 X -1 Y 1 X -1 Y 2 X s 1204 725 m 1 X -1 Y 1 X -2 Y 1 X -1 Y 1 X 1 -1 d -1 Y 1 X -1 Y 1 X -2 Y 1 X -1 Y 1 X -1 Y s 1213 714 m 1 X 1 -1 d -1 Y 1 -1 d 1 X -1 Y 1 X -1 Y 2 X -1 Y 1 X -1 Y 1
 -1 d s 1222 706 m 1 X -2 Y 1 1 d -2 Y 1 X -1 Y 1 X -1 Y 1 X -2 Y 1 X -1 Y 2 X -2 Y 1 X s 1231 696 m 1 X -2 Y 2 X -1 Y 1 X -2 Y 1 X -1 Y 1 X -1 Y 1 X -1 Y 1 -1 d -1 Y s 1239 686 m 1 X -1 Y 1 X -2 Y 1 X 1 -1 d 1 X -1 Y 1 X -1 Y 1 X -2 Y 1 X 1 -1 d -1
 Y s 1248 676 m 1 X -1 Y 1 X -1 Y 1 X -2 Y 1 X -1 Y 1 -1 d -1 Y 1 X -1 Y 1 X -2 Y 1 X -2 Y 1 X -1 Y s 1257 663 m 1 X -1 Y 1 -1 d -1 Y 1 X -1 Y 1 X -1 Y 1 X -1 Y 1 -1 d 1 X -2 Y 1 -1 d 1 -1 d s 1266 652 m 1 X -1 Y 1 X -1 Y 1 X -1 Y 1 X -1 Y 1 X -1 Y 1
 Y -1 Y 1 X -1 Y 1 Y -1 Y 1 X -1 Y 1 Y -1 Y 1 X 1 -1 d s 1275 644 m 1 -1 d -1 Y 1 -1 d -1 Y 1 X -1 Y 1 Y 1 X -2 Y 1 X -2 Y 1 X -3 Y 1 -1 d 1 -1 d -1 Y s 1283 630 m 1 X -1 Y 1 X -1 Y 1 X -1 Y 1 X -1 Y 1 X -2 Y 1 -1 d -1 Y 1 X -1 Y 1 X -1 Y 1 X -1 Y s
 1292 619 m 1 X -1 Y 1 X -2 Y 1 X -2 Y 1 X -1 Y 1 X -2 Y 1 X -2 Y 1 X -1 Y 1 X -1 Y 1 -1 d -1 Y 1 Y s 1301 606 m -1 Y 1 X -1 Y 1 -1 d 1 X -2 Y 1 X 1 -1 d 1 -1 d 2 X -1 Y 1 X -1 Y s 1310 597 m 1 -1 d -1 Y 1 X -1 Y 1 X -1 Y 1 Y -1 Y 1 1 d -2 Y 1 X -1 Y
 1 X -1 Y 1 X -2 Y 1 X -2 Y 1 X s 1319 586 m -1 Y 1 X -1 Y 1 -1 d 1 -1 d -1 Y 1 X -1 Y 1 X -1 Y 1 Y 1 X -1 Y 1 X -1 Y 1 Y 1 -1 d s 1327 578 m 1 X -2 Y 1 X -1 Y 1 -1 d 1 X -1 Y 1 X -2 Y 1 X 1 Y -1 Y 1 -1 d 1 X -1 Y 1 -1 d -1 Y s 1336 567 m -1 Y 1 X -1
 Y 1 X -1 Y 1 Y -2 Y 1 X -1 Y 1 X -1 Y 1 Y 1 X -2 Y 1 X -1 Y 1 X -1 Y 1 X -1 Y 1 X -1 Y s 1345 556 m -1 Y 1 X -1 Y 1 -1 d 1 -1 d -2 Y 1 X -1 Y 1 X -2 Y 2 X -1 Y 1 -1 d -1 Y 1 X s 1354 544 m 2 X -1 Y 1 -1 d -1 Y 1 X -1 Y 1 X -2 Y 1 X -1 Y 1 X -1 Y 1 X
 -2 Y 1 X s 1363 534 m -1 Y 1 1 d -2 Y 1 X -1 Y 1 Y -1 Y 3 X -1 Y 1 X -2 Y 1 Y 1 -1 d 1 X -2 Y s 1371 526 m 1 X -1 Y 1 X -1 Y 1 X -2 Y 2 X -1 Y 1 1 d -1 Y 1 Y -1 Y 1 X -1 Y 1 X 1 Y -1 Y 1 X 1 Y s 1380 521 m -1 Y 2 X -1 Y 1 -1 d 1 -1 d -1 Y 1 X -1 Y 1
 Y -2 Y 1 X -1 Y 1 1 d -1 Y 2 X -1 Y s 1389 512 m 1 X -1 Y 1 X -1 Y 1 Y 1 -1 d -1 Y 1 1 d -2 Y 1 X -1 Y 1 -1 d 1 -1 d -1 Y 1 X -1 Y 1 X s 1398 503 m -1 Y 1 X -1 Y 1 X -2 Y 1 1 d -2 Y 1 X -1 Y 1 X -1 Y 1 Y 1 -1 d 1 -1 d -1 Y 1 X -1 Y 1 -1 d s 1407 492
 m 1 -1 d -1 Y 1 X 1 Y -1 Y 1 X -1 Y 1 X 1 -1 d 1 -1 d 1 Y -1 Y 1 X 1 Y -2 Y 1 X -1 Y s 1415 485 m 1 X 1 -1 d -1 Y 1 Y -1 Y 1 1 d -1 Y 1 X 1 -1 d -1 Y 1 Y -1 Y 1 X 1 Y -1 Y 1 Y 2 X -1 Y 1 X s 1424 481 m -1 Y 2 X -1 Y 1 Y -1 Y 1 X -1 Y 1 X -1 Y 1 X -1
 Y 1 -1 d 1 X 1 -1 d 1 Y -1 Y 1 1 d -1 Y s 1433 474 m 1 X -1 Y 1 Y 1 -1 d 1 Y -1 Y 1 X 1 Y -1 Y 1 -1 d -1 Y 1 X -1 Y 1 X -1 Y 1 X -1 Y 1 X -1 Y 1 X s 1442 467 m -1 Y 1 X -1 Y 2 X -1 Y 1 -1 d 1 Y -2 Y 1 X 1 -1 d 1 -1 d -1 Y 1 Y 2 X s 1451 460 m 1 X -1
 Y 1 X -2 Y 1 X -1 Y 1 Y 1 -1 d 1 Y 1 -1 d 1 Y -1 Y 1 X 1 -1 d 1 -1 d s 1459 454 m 1 -1 d 1 Y 1 1 d -1 Y 1 X 1 Y -1 Y 1 X 1 Y -1 Y 1 1 d -1 Y 1 -1 d 1 Y 1 -1 d -1 Y 1 X -1 Y 1 Y 1 X -1 Y s 1468 451 m 1 -1 d -1 Y 1 X 1 Y -1 Y 1 X -1 Y 1 -1 d -2 Y 1 X
 -1 Y 1 X -1 Y 1 1 d -1 Y 1 -1 d -1 Y 1 X s 1477 441 m 1 X 1 Y -1 Y 1 1 d -1 Y 1 X 1 Y -1 Y 1 Y 1 -1 d 1 Y 1 X -1 Y 1 X -1 Y 1 Y -1 Y 1 -1 d 1 Y -1 Y 1 X -1 Y 1 Y 1 X s 1486 439 m -1 Y 1 Y 1 -1 d 1 Y -1 Y 1 X -2 Y 1 X 1 Y -1 Y 2 X -1 Y 1 Y 1 1 d -1 Y
 2 X -1 Y 1 X s 1495 435 m -1 Y 1 X -1 Y 1 Y 1 -1 d 1 X 1 -1 d -1 Y 1 Y 1 X -1 Y 1 Y 1 -1 d -2 Y 1 X 1 Y -1 Y 1 X s 1503 429 m 1 1 d -1 Y 1 X -1 Y 1 Y 1 X -1 Y 1 X -3 Y 1 X -1 Y 1 X -2 Y 3 X -1 Y 1 Y -1 Y s 1512 421 m -1 Y 1 X 1 Y 1 X -1 Y 1 Y -1 Y 2
 X -1 Y 1 X 1 -1 d -1 Y 1 -1 d -2 Y 1 Y 1 -1 d -1 Y 1 -1 d s 1521 412 m -1 Y 1 X 1 -1 d 1 X -1 Y 1 X -1 Y 1 X -1 Y 1 X -1 Y 1 X 1 -1 d 1 X -1 Y s 1530 404 m -1 Y 1 X -1 Y 1 X -1 Y 1 X -2 Y 1 X -1 Y 1 X -1 Y 1 X -1 Y 1 X -1 Y 1 X -1 Y 1 X -1 Y s 1539
 393 m -1 Y 1 X 1 -1 d -1 Y 1 X -2 Y 2 X -1 Y 1 X -1 Y 1 X -1 Y 1 X -1 Y s 1547 384 m 1 X -2 Y 2 X -2 Y 1 X -1 Y 1 -1 d -1 Y 1 -1 d 1 -1 d 1 -1 d 1 X -1 Y s 1556 373 m 1 X -1 Y 1 X -2 Y 1 X 1 -1 d 1 Y -1 Y 1 X -1 Y 1 X -1 Y 1 X -1 Y 2 X -1 Y s 1565
 365 m 1 Y -1 Y 2 X -1 Y 1 -1 d -1 Y 1 X 1 -1 d -1 Y 1 X -1 Y 1 X -1 Y 1 X -1 Y 1 X s 1574 357 m -1 Y 1 X -1 Y 1 X -1 Y 1 X -2 Y 1 X 1 -1 d -1 Y 2 X -1 Y 1 X -1 Y 1 -1 d s 1583 347 m -1 Y 1 X -1 Y 1 -1 d 2 X -1 Y 1 X -1 Y 1 -1 d -1 Y 1 X -1 Y 1 Y -1
 Y 1 X s 1591 339 m 1 X -1 Y 2 X -1 Y 1 X -2 Y 1 X -1 Y 1 X -1 Y 1 X -1 Y 1 -1 d 1 X s 1600 331 m -1 Y 1 X 1 Y 1 X -1 Y 1 X -1 Y 1 X -2 Y 1 X 1 -1 d -1 Y 1 X -1 Y 2 X -1 Y s 1609 323 m 1 X -1 Y 1 X -1 Y 1 X -1 Y 1 -1 d -1 Y 1 X -1 Y 2 X -1 Y 1 X -1 Y
 1 X -1 Y s 1618 314 m 1 X -1 Y 2 X -1 Y 1 X -1 Y 1 -1 d 1 X -2 Y 1 X 1 -1 d -1 Y 1 X s 1627 306 m 1 X -1 Y 1 X -1 Y 1 X -1 Y 1 X -1 Y 1 X -1 Y 1 -1 d -1 Y 1 X -2 Y 1 X -1 Y s 1635 296 m 1 X -1 Y 1 X -1 Y 1 -1 d -1 Y 1 X -2 Y 2 X -1 Y 1 X -1 Y 2 X -1
 Y s 1644 287 m 1 X -1 Y 1 X -1 Y 2 X -1 Y 1 -1 d 1 -1 d -1 Y 2 X -1 Y 1 X s 1653 280 m 1 -1 d 1 -1 d 2 X -1 Y 1 X -1 Y 1 X -1 Y 1 X -1 Y 2 X s 1662 274 m 1 X -1 Y 1 X 1 -1 d 1 X -1 Y 3 X -1 Y 1 X 1 -1 d s 1671 269 m 1 -1 d 1 X -1 Y 1 X -1 Y 1 X -1 Y
 2 X -1 Y 1 X -1 Y 1 X -1 Y s 1679 262 m 1 X -1 Y 2 X 1 -1 d 3 X -1 Y 1 X 1 -1 d s 1688 258 m 1 X -1 Y 2 X -1 Y 1 X -1 Y 2 X 1 -1 d -1 Y 2 X -1 Y s 1697 252 m 2 X -1 Y 2 X 1 -1 d 1 X -1 Y 2 X -1 Y 1 X s 1706 248 m 1 X -1 Y 2 X -1 Y 4 X 1 -1 d 1 X s
 1715 245 m -1 Y 4 X -1 Y 2 X -1 Y 1 X 1 -1 d s 1723 241 m 1 X -1 Y 4 X -1 Y 2 X -1 Y 1 X -1 Y 1 X -1 Y s 1732 236 m 6 X -1 Y 1 X -1 Y 2 X s 1741 234 m 1 X -1 Y 3 X -1 Y 1 Y 1 X -1 Y 2 X -1 Y 2 X s 1750 231 m 5 X -1 Y 1 X -1 Y 2 X -1 Y 1 X s 1759 228
 m 1 X -1 Y 3 X -1 Y 2 X -1 Y 2 X -1 Y s 1767 224 m 4 X -1 Y 4 X -1 Y 1 X s 1776 222 m 3 X -1 Y 6 X -1 Y s 1785 220 m 3 X 1 -1 d 2 X 1 -1 d 2 X s 1794 218 m 1 X -1 Y 5 X -1 Y 3 X s 1803 216 m 2 X -1 Y 3 X -1 Y 4 X s 1812 214 m 2 X 1 -1 d 4 X -1 Y 1 X
 s 1820 212 m 9 X s 1829 212 m 1 X -1 Y 8 X s 1838 211 m 3 X -1 Y 5 X -1 Y 1 X s 1847 209 m 9 X s 1856 209 m -1 Y 7 X 1 -1 d s 1864 207 m 9 X s 1873 207 m 2 X -1 Y 7 X s 1882 206 m 7 X -1 Y 2 X s 1891 205 m 9 X s 1900 205 m 2 X -1 Y 6 X s 1908 204 m
 1 X -1 Y 8 X s 1917 203 m 9 X s 1926 203 m 5 X 1 -1 d 3 X s 1935 202 m 9 X s 1944 202 m 1 Y 8 X s 1952 203 m 9 X s 1961 203 m 1 X -1 Y 8 X s 1970 202 m 9 X s 1979 202 m 9 X s 1988 202 m 8 X s 1996 202 m 9 X s 2005 202 m 9 X s 2014 202 m 9 X s 2023
 202 m 9 X s 2032 202 m 7 X -1 Y 1 X s 2040 201 m 1 X s black[  ] 0 sd 3 lw 245 201 m 1796 X s 258 241 m -40 Y s 309 221 m -20 Y s 361 221 m -20 Y s 413 221 m -20 Y s 465 241 m -40 Y s 517 221 m -20 Y s 569 221 m -20 Y s 621 221 m -20 Y s 672 241 m
 -40 Y s 724 221 m -20 Y s 776 221 m -20 Y s 828 221 m -20 Y s 880 241 m -40 Y s 932 221 m -20 Y s 984 221 m -20 Y s 1035 221 m -20 Y s 1087 241 m -40 Y s 1139 221 m -20 Y s 1191 221 m -20 Y s 1243 221 m -20 Y s 1295 241 m -40 Y s 1346 221 m -20 Y s
 1398 221 m -20 Y s 1450 221 m -20 Y s 1502 241 m -40 Y s 1554 221 m -20 Y s 1606 221 m -20 Y s 1658 221 m -20 Y s 1709 241 m -40 Y s 1761 221 m -20 Y s 1813 221 m -20 Y s 1865 221 m -20 Y s 1917 241 m -40 Y s 258 241 m -40 Y s 1917 241 m -40 Y s
 1969 221 m -20 Y s 2021 221 m -20 Y s
 gsave  2268 1676 0 0 C 254.075 128.934 t 0 r /Helvetica-Bold findfont 64.4669 sf 0 0 m (1) show NC gr 
 gsave  2268 1676 0 0 C 223.738 128.934 t 0 r /Symbol findfont 64.4669 sf 0 0 m (-) show NC gr 
 gsave  2268 1676 0 0 C 432.307 128.934 t 0 r /Helvetica-Bold findfont 64.4669 sf 0 0 m (0.8) show NC gr 
 gsave  2268 1676 0 0 C 398.178 128.934 t 0 r /Symbol findfont 64.4669 sf 0 0 m (-) show NC gr 
 gsave  2268 1676 0 0 C 640.876 128.934 t 0 r /Helvetica-Bold findfont 64.4669 sf 0 0 m (0.6) show NC gr 
 gsave  2268 1676 0 0 C 610.539 128.934 t 0 r /Symbol findfont 64.4669 sf 0 0 m (-) show NC gr 
 gsave  2268 1676 0 0 C 849.446 128.934 t 0 r /Helvetica-Bold findfont 64.4669 sf 0 0 m (0.4) show NC gr 
 gsave  2268 1676 0 0 C 815.316 128.934 t 0 r /Symbol findfont 64.4669 sf 0 0 m (-) show NC gr 
 gsave  2268 1676 0 0 C 1054.22 128.934 t 0 r /Helvetica-Bold findfont 64.4669 sf 0 0 m (0.2) show NC gr 
 gsave  2268 1676 0 0 C 1023.89 128.934 t 0 r /Symbol findfont 64.4669 sf 0 0 m (-) show NC gr 
 gsave  2268 1676 0 0 C 1274.17 128.934 t 0 r /Helvetica-Bold findfont 64.4669 sf 0 0 m (0) show NC gr 
 gsave  2268 1676 0 0 C 1456.19 128.934 t 0 r /Helvetica-Bold findfont 64.4669 sf 0 0 m (0.2) show NC gr 
 gsave  2268 1676 0 0 C 1660.97 128.934 t 0 r /Helvetica-Bold findfont 64.4669 sf 0 0 m (0.4) show NC gr 
 gsave  2268 1676 0 0 C 1869.54 128.934 t 0 r /Helvetica-Bold findfont 64.4669 sf 0 0 m (0.6) show NC gr 
 gsave  2268 1676 0 0 C 857.03 30.3373 t 0 r /Helvetica-Bold findfont 72.0512 sf 0 0 m (Cut value applied on Fisher output) show NC gr  245 201 m 1140 Y s 291 201 m -46 X s 268 253 m -23 X s 268 305 m -23 X s 268 357 m -23 X s 291 408 m -46 X s 268
 460 m -23 X s 268 512 m -23 X s 268 564 m -23 X s 291 616 m -46 X s 268 667 m -23 X s 268 719 m -23 X s 268 771 m -23 X s 291 823 m -46 X s 268 875 m -23 X s 268 926 m -23 X s 268 978 m -23 X s 291 1030 m -46 X s 268 1082 m -23 X s 268 1134 m -23 X
 s 268 1185 m -23 X s 291 1237 m -46 X s 291 1237 m -46 X s 268 1289 m -23 X s 268 1341 m -23 X s
 gsave  2268 1676 0 0 C 182.024 178.232 t 0 r /Helvetica-Bold findfont 64.4669 sf 0 0 m (0) show NC gr 
 gsave  2268 1676 0 0 C 128.934 383.009 t 0 r /Helvetica-Bold findfont 64.4669 sf 0 0 m (0.2) show NC gr 
 gsave  2268 1676 0 0 C 125.142 591.578 t 0 r /Helvetica-Bold findfont 64.4669 sf 0 0 m (0.4) show NC gr 
 gsave  2268 1676 0 0 C 128.934 796.355 t 0 r /Helvetica-Bold findfont 64.4669 sf 0 0 m (0.6) show NC gr 
 gsave  2268 1676 0 0 C 125.142 1004.92 t 0 r /Helvetica-Bold findfont 64.4669 sf 0 0 m (0.8) show NC gr 
 gsave  2268 1676 0 0 C 189.608 1213.49 t 0 r /Helvetica-Bold findfont 64.4669 sf 0 0 m (1) show NC gr 
 gsave  2268 1676 0 0 C 64.4669 731.888 t 90 r /Helvetica-Bold findfont 72.0512 sf 0 0 m (Efficiency \(Purity\)) show NC gr  0 0 0.933333 c[  52 12 ] 0 sd 6 lw 0.49 0.6 0.82 c black 0 0 0.933333 c 245 719 m 9 X s 254 719 m 9 X s 263 719 m 8 X s 271
 719 m 9 X s 280 719 m 9 X s 289 719 m 9 X s 298 719 m 9 X s 307 719 m 8 X s 315 719 m 9 X s 324 719 m 9 X s 333 719 m 9 X s 342 719 m 9 X s 351 719 m 8 X s 359 719 m 9 X s 368 719 m 9 X s 377 719 m 9 X s 386 719 m 9 X s 395 719 m 8 X s 403 719 m 9 X
 s 412 719 m 9 X s 421 719 m 9 X s 430 719 m 9 X s 439 719 m 8 X s 447 719 m 9 X s 456 719 m 9 X s 465 719 m 9 X s 474 719 m 9 X s 483 719 m 8 X s 491 719 m 9 X s 500 719 m 9 X s 509 719 m 9 X s 518 719 m 9 X s 527 719 m 8 X s 535 719 m 9 X s 544 719
 m 9 X s 553 719 m 9 X s 562 719 m 9 X s 571 719 m 8 X s 579 719 m 9 X s 588 719 m 9 X s 597 719 m 9 X s 606 719 m 9 X s 615 719 m 8 X s 623 719 m 9 X s 632 719 m 9 X s 641 719 m 9 X s 650 719 m 9 X s 659 719 m 8 X s 667 719 m 9 X s 676 719 m 4 X 1 Y
 5 X s 685 720 m 9 X s 694 720 m 9 X s 703 720 m 8 X s 711 720 m 9 X s 720 720 m 9 X s 729 720 m 9 X s 738 720 m 9 X s 747 720 m 8 X s 755 720 m 9 X s 764 720 m 9 X s 773 720 m 9 X s 782 720 m 9 X s 791 720 m 8 X s 799 720 m 9 X s 808 720 m 9 X s 817
 720 m 9 X s 826 720 m 9 X s 835 720 m 4 X 1 Y 1 X -1 Y 1 X 1 Y 2 X s 843 721 m 9 X s 852 721 m 1 1 d 8 X s 861 722 m 3 X 1 Y 6 X s 870 723 m 1 X 1 Y 7 X 1 Y 1 X s 879 725 m 5 X 1 1 d 2 X s 887 726 m 2 X 1 Y 4 X 1 1 d 2 X s 896 728 m 3 X 1 Y 2 X 1 Y
 3 X 1 Y 1 X s 905 731 m 3 X 1 Y 3 X 1 Y 3 X s 914 733 m 1 X 1 Y 2 X 1 Y 3 X 1 Y 3 X s 923 736 m 1 Y 2 X 1 1 d 1 X 1 Y 3 X 1 Y 1 X s 931 740 m 1 X 1 Y 1 X 1 1 d 1 X 1 1 d 1 X 1 1 d 1 1 d 1 X s 940 745 m 1 1 d 1 X 1 Y 3 X 1 Y 2 X 1 Y 2 X 1 Y s 949 750
 m 2 X 1 Y 1 X 1 Y 2 X 1 Y 2 X 1 Y 1 X 1 Y 1 X s 958 755 m 1 X 1 Y 2 X 1 Y 1 X 1 1 d 1 X 1 Y 2 X 1 Y 1 X s 967 760 m 1 Y 1 X 1 Y 1 X 1 1 d 1 X 1 Y 1 X 1 Y 2 X 1 Y 1 X s 975 766 m 1 X 1 Y 1 X 1 Y 1 X 1 1 d 1 X 1 Y 2 X 1 Y 1 X 1 Y 1 X s 984 772 m 1 1 d
 1 X 1 Y -1 Y 1 1 d 1 Y 2 X 1 Y 1 X 1 Y 1 X 1 Y 2 X 1 Y s 993 779 m 1 X 1 Y 1 X 1 Y 1 X 1 1 d 2 X 1 Y 1 X 1 1 d 1 X s 1002 784 m 1 Y 1 X 1 Y 1 X 1 Y 1 X 1 Y 1 X 1 Y 1 X 1 Y 1 X 1 Y 1 X 1 Y 2 X s 1011 792 m 1 Y 2 X 1 Y 2 X 1 Y 1 X 1 1 d 1 Y 2 X 1 Y s
 1019 798 m 1 X 1 Y 1 X 1 Y 2 X 1 Y 1 1 d 1 X 1 Y 1 X 1 Y 1 X 1 Y 1 X s 1028 805 m 1 Y 2 X 1 Y 1 X 1 Y 2 X 1 Y 1 X 1 1 d 1 X 1 1 d s 1037 811 m 1 X 1 Y -1 Y 1 Y 1 X 1 Y 2 X 1 Y 1 1 d 1 X 1 1 d 1 Y 1 X 1 Y 1 X s 1046 818 m 1 1 d 1 X 1 Y 1 X 1 Y 2 X 1
 Y 2 X 1 Y 1 X 1 Y 1 X s 1055 824 m 1 Y 2 X 1 1 d 1 X 1 Y 1 X 1 Y 1 X 1 1 d 1 X 1 Y s 1063 830 m 1 X 1 Y 2 X 1 Y 1 X 1 Y 1 X 1 1 d 2 X 1 Y 1 X s 1072 835 m 1 X 1 Y 1 X 1 Y 2 X 1 Y 1 X 1 Y 1 X 1 1 d -1 Y 1 Y -1 Y 1 Y 1 X 1 Y 1 X s 1081 841 m 1 X 1 Y 4
 X 1 Y -1 Y 1 Y 2 X 1 Y -1 Y 1 Y 1 X 1 Y 1 X s 1090 845 m 1 X 1 Y 2 X 1 Y 2 X 1 1 d 2 X 1 1 d s 1099 849 m 1 X 1 Y 2 X 1 Y 5 X 1 Y s 1107 852 m 8 X -1 Y 1 X 1 Y s 1116 852 m 1 X -1 Y 1 Y 1 -1 d 1 Y 3 X 1 Y 4 X 1 Y s 1125 854 m 6 X 1 Y -1 Y 1 Y 1 -1 d
 1 X 1 Y -1 Y 1 Y 1 X s 1134 855 m 1 -1 d 1 Y 1 X -1 Y 7 X s 1143 854 m 8 X s 1151 854 m 9 X -1 Y s 1160 853 m 5 X 1 -1 d 3 X s 1169 852 m 4 X -1 Y 1 Y 1 X -1 Y 4 X s 1178 851 m 1 -1 d 1 X -1 Y 4 X -1 Y 3 X s 1187 848 m -1 Y 3 X -1 Y 1 1 d -1 Y 4 X s
 1195 846 m 3 X 1 -1 d 3 X -1 Y 1 1 d -1 Y 1 X 1 Y s 1204 845 m 1 X -1 Y 1 1 d -1 Y 3 X 1 -1 d 1 Y -1 Y 2 X -1 Y 1 X s 1213 842 m 5 X -1 Y 4 X s 1222 841 m 1 -1 d 3 X -1 Y 2 X -1 Y 1 1 d 1 X -1 Y 1 X s 1231 838 m 5 X -1 Y 2 X -1 Y 1 X s 1239 836 m 1
 X -1 Y 5 X -1 Y 3 X s 1248 834 m 1 X -1 Y 2 X -1 Y 3 X -1 Y 2 X -1 Y 1 X s 1257 830 m 2 X -1 Y 1 Y 1 X -1 Y 2 X -1 Y 1 Y 1 -1 d 1 Y -1 Y 1 X 1 -1 d 1 X s 1266 827 m 4 X -1 Y 5 X s 1275 826 m 1 Y -1 Y 2 X -1 Y 3 X -1 Y 1 Y -1 Y 1 X -1 Y 1 X -1 Y 1 X
 s 1283 822 m 3 X 1 -1 d 1 Y -1 Y 2 X -1 Y 1 1 d -1 Y 1 Y -1 Y 2 X s 1292 820 m 2 X -1 Y 2 X -1 Y 3 X -1 Y 2 X s 1301 817 m 3 X -1 Y 1 1 d -1 Y 1 Y 1 -1 d 1 Y 4 X s 1310 817 m 2 X 1 Y 1 -1 d 1 Y 4 X -1 Y 2 X s 1319 817 m 1 X -1 Y 4 X 1 1 d 2 X 1 Y s
 1327 818 m 2 X -1 Y 1 Y -1 Y 2 X 1 Y 1 X -1 Y 1 X 1 Y 3 X -1 Y s 1336 817 m 1 Y 1 -1 d 1 Y -1 Y 1 Y -1 Y 1 1 d -1 Y 1 X 1 Y 2 X 1 Y 1 -1 d 1 Y -1 Y 1 1 d 1 1 d 1 X -1 Y s 1345 819 m 7 X 1 Y 2 X 1 Y s 1354 821 m 1 X 1 1 d 7 X s 1363 822 m 1 Y 1 X -1
 Y 1 Y 1 X 1 Y 1 X 1 Y 1 X 1 Y 1 X 1 Y 1 X 1 Y 1 X 1 Y 1 X 1 Y -1 Y 1 Y s 1371 830 m 2 X 1 Y -1 Y 1 Y 1 X -1 Y 1 1 d 1 Y 1 X 1 1 d 1 X 2 Y 1 X 1 Y 1 X 2 Y s 1380 838 m 1 X 1 Y 1 X 1 Y 2 X 1 Y 1 -1 d 1 Y 1 -1 d 1 Y 1 1 d 1 Y 1 X 1 Y 1 X s 1389 844 m 1
 Y 1 X 1 Y 1 X 1 Y 1 -1 d 1 Y 1 X 1 1 d 1 X 1 Y 1 X 1 Y 1 X 1 Y 1 X s 1398 851 m 1 1 d -1 Y 2 Y 1 X 1 1 d -1 Y 1 Y -1 Y 1 Y 1 X 1 Y 1 X 1 Y 1 X 1 Y 2 X 2 Y 1 -1 d s 1407 858 m 1 Y 1 -1 d 1 Y 1 X 1 Y 1 1 d 1 Y 1 X 1 Y 1 X 1 Y 1 X 1 Y 1 X 1 Y 1 X 1 Y s
 1415 867 m 1 X 3 Y 1 X 1 Y 1 X 1 Y 1 X 2 Y 1 -1 d 1 Y 1 1 d 3 Y 1 1 d 2 Y 2 X 1 Y s 1424 882 m -1 Y 1 X 2 Y 1 X 1 Y 1 1 d 1 Y 1 X 1 Y 1 X 1 Y 1 X 2 Y 1 X 1 Y 1 X 1 Y 1 1 d 1 Y s 1433 894 m 1 Y 1 X 1 Y 1 X 2 Y 1 X 2 Y -1 Y 1 X 2 Y 1 1 d 1 Y -1 Y 1 Y
 -1 Y 1 2 d 1 Y 1 -1 d 2 Y 1 X -1 Y 1 Y 1 1 d s 1442 907 m 1 Y 1 -1 d 1 Y 1 X 3 Y 1 1 d -1 Y 2 Y 2 X 4 Y 1 -1 d 1 Y 1 X 2 Y 1 X 2 Y -1 Y 1 Y 1 1 d s 1451 922 m 2 Y 1 X 2 Y 1 1 d 1 X 1 Y 1 1 d 2 Y 1 X 3 Y 1 X 2 Y 1 X 2 Y 1 1 d 1 Y s 1459 940 m 1 X 4 Y
 1 X 2 Y -1 Y 2 Y 1 X 2 Y 1 1 d 4 Y 1 1 d 1 X 3 Y 1 -1 d 2 Y 1 X 2 Y 1 1 d 1 Y s 1468 963 m 1 X 1 1 d 1 Y 1 1 d 2 Y 1 -1 d -1 Y 1 X 2 Y 1 1 d 1 Y 1 1 d 2 Y 1 -1 d 1 Y -1 Y 1 1 d 2 Y s 1477 975 m 1 Y 1 1 d 3 Y 1 1 d 4 Y 1 X 3 Y 1 X 6 Y 1 X 1 Y -1 Y 1
 Y 1 1 d 1 1 d 2 Y -1 Y 1 Y 1 X 2 Y 1 X 2 Y s 1486 1003 m 1 Y -1 Y 1 Y 1 X 2 Y 1 X 1 Y 1 1 d 3 Y 1 X 3 Y 1 X 4 Y 1 2 d 2 Y 1 1 d 2 Y 1 X 1 Y 1 X 1 Y s 1495 1027 m 2 Y 1 -1 d 3 Y 1 X 3 Y 1 X 3 Y 1 X 1 Y -1 Y 1 Y 1 1 d 5 Y 1 X 1 1 d 3 Y 1 X 2 Y s 1503
 1050 m 1 1 d 1 Y 1 1 d 3 Y 1 X 2 Y 1 X 1 Y 1 1 d 1 Y -1 Y 2 Y 1 2 d -1 Y 1 X 5 Y 1 1 d 3 Y 1 X 2 Y s 1512 1074 m 1 X 4 Y 1 X 2 Y 1 X 2 Y 1 2 d 4 Y 1 X 2 Y 1 1 d -1 Y 1 1 d -1 Y 1 Y 1 X 2 Y -1 Y 1 X 3 Y s 1521 1095 m 1 2 d 2 Y 1 X 3 Y 1 1 d 2 Y 1 -1
 d 3 Y 1 1 d 1 X 3 Y 1 1 d 3 Y 1 X 3 Y 1 X 2 Y s 1530 1120 m 1 1 d 2 Y 1 X 2 Y 1 2 d 1 Y -1 Y 1 X 2 Y 1 1 d 2 Y 1 1 d 2 Y 1 X 4 Y 1 -1 d 2 Y 1 X s 1539 1140 m 1 -1 d 6 Y 1 -1 d 2 Y 1 1 d -1 Y 1 Y -1 Y 1 X 1 Y 1 2 d -1 Y 1 1 d 2 Y 1 -1 d 1 2 d 2 Y s
 1547 1154 m 1 X -1 Y 1 X 3 Y 1 -1 d 1 Y 1 X -1 Y 1 X -1 Y 1 X 2 Y 1 X 2 Y -1 Y 1 X 1 Y 1 X s 1556 1158 m 1 Y 1 1 d 2 Y 1 X 1 Y -1 Y 1 X 2 Y 1 X 1 Y -1 Y 1 Y 2 X 1 Y -1 Y 1 X 2 Y 1 1 d 4 Y 1 X 1 Y s 1565 1173 m 3 Y 1 X 1 1 d 1 Y -1 Y 2 X 1 Y 1 X 2 Y
 1 X -1 Y 1 X 1 Y 1 X 2 Y 1 X 1 Y s 1574 1183 m 1 X -1 Y 2 Y -1 Y 1 X 1 Y 1 X 1 1 d 1 -1 d 1 X 2 Y 2 X 1 Y 1 X s 1583 1187 m -1 Y 2 X 1 Y 1 1 d 2 Y 1 X -1 Y 2 X -1 Y 1 X 3 Y 1 -1 d 3 Y s 1591 1193 m 1 X 1 Y 1 X 1 Y 1 X 2 Y -1 Y 1 X 1 Y 2 X 3 Y -1 Y 3
 X s 1600 1199 m 1 X 6 Y 1 X -1 Y 1 2 d 1 X -1 Y 1 X 2 Y 1 X -1 Y 2 X 2 Y 1 X -1 Y s 1609 1207 m 3 X 1 -1 d 1 X 2 Y 1 1 d 3 X s 1618 1209 m 1 -1 d 1 X 2 Y 2 X -1 Y 1 X 1 2 d 1 X -1 Y 2 X s 1627 1210 m 3 X 1 Y 3 X -1 Y 2 X -1 Y s 1635 1209 m 3 X -1 Y
 3 X -1 Y 3 X s 1644 1207 m 2 Y 2 X -1 Y 3 X -1 Y 3 X -1 Y 1 X s 1653 1206 m 3 X 1 2 d 2 X -1 Y 3 X s 1662 1207 m 2 Y 4 X -1 Y 5 X -1 Y s 1671 1207 m 3 X -1 Y 3 X -1 Y 2 X -1 Y s 1679 1204 m 1 3 d 5 X -1 Y 2 X 1 -1 d s 1688 1205 m 3 X -1 Y 3 X 1 -1 d
 -1 Y 2 X s 1697 1202 m 2 X -1 Y 3 X -1 Y 3 X -1 Y 1 X s 1706 1199 m 2 X -1 Y 3 X -1 Y 3 X 1 -1 d s 1715 1196 m 2 X 4 Y 3 X -1 Y 2 X -1 Y 1 X -1 Y s 1723 1197 m 3 X -1 Y 2 X -1 Y 3 X -1 Y 1 -1 d -1 Y s 1732 1192 m 6 X -1 Y 1 X -1 Y 1 X -1 Y 1 X s
 1741 1189 m 1 X 1 -1 d 6 Y 2 X -1 Y 6 Y 2 X 6 Y 1 X -1 Y 2 X 6 Y s 1750 1210 m 5 X -1 Y 2 X -1 Y 1 X -1 Y 1 X s 1759 1207 m 1 X -1 Y 3 X -1 Y 1 X 1 -1 d 1 X 1 -1 d s 1767 1203 m 1 -1 d 3 X -1 Y 2 X -1 Y 3 X s 1776 1200 m 1 X -1 Y 2 X -1 Y 4 X 1 -1 d
 10 Y 1 X -1 Y s 1785 1206 m 2 X -1 Y 1 X 1 -1 d 1 X -1 Y 1 X 1 -1 d 1 X -1 Y 1 X s 1794 1201 m 1 X -1 Y 2 X 1 -1 d 2 X -1 Y 2 X 1 -1 d s 1803 1197 m 1 X -1 Y 1 X -2 Y 3 X -1 Y 2 X -1 Y 2 X s 1812 1192 m 1 X 1 -1 d 1 -2 d 1 X -1 Y 1 X -1 Y 1 X -1 Y 1
 17 d -2 Y 1 X s 1820 1201 m 3 X -1 Y 5 X -1 Y 1 X s 1829 1199 m 1 X -2 Y 3 X 20 Y 5 X -1 Y s 1838 1216 m 3 X -1 Y 2 X -1 Y 2 X -1 Y 2 X s 1847 1213 m 3 X -1 Y 1 X 1 -1 d 4 X s 1856 1211 m -2 Y 4 X -1 Y 2 X -2 Y 1 X 1 -1 d -1 Y s 1864 1204 m 1 -1 d 3
 X -1 Y 2 X -2 Y 3 X s 1873 1200 m 2 X -1 Y 1 X -2 Y 2 X 1 -1 d 3 X s 1882 1196 m 5 X -2 Y 2 X -2 Y 1 X -2 Y 1 -2 d s 1891 1188 m 1 X -3 Y 8 X s 1900 1185 m -2 Y 2 X -3 Y 2 X -4 Y 3 X -3 Y 1 X -5 Y s 1908 1168 m 1 X -10 Y 8 X s 1917 1158 m 3 X -7 Y 4
 X -8 Y 1 X -9 Y 1 X s 1926 1134 m 3 X 1 -12 d 1 X 1 -14 d 3 X s 1935 1108 m 9 X s 1944 1108 m 129 Y 8 X s 1952 1237 m 9 X s 1961 1237 m 9 X s 1970 1237 m 9 X s 1979 1237 m 9 X s 1988 1237 m 8 X s 1996 1237 m 9 X s 2005 1237 m 9 X s 2014 1237 m 9 X s
 2023 1237 m 9 X s 2032 1237 m 8 X s 2040 1237 m 1 X s[  ] 0 sd 9 lw 0.49 0.6 0.82 c black 0 0 0.933333 c 245 1237 m 9 X s 254 1237 m 9 X s 263 1237 m 8 X s 271 1237 m 9 X s 280 1237 m 9 X s 289 1237 m 9 X s 298 1237 m 9 X s 307 1237 m 8 X s 315 1237
 m 9 X s 324 1237 m 9 X s 333 1237 m 9 X s 342 1237 m 9 X s 351 1237 m 8 X s 359 1237 m 9 X s 368 1237 m 9 X s 377 1237 m 9 X s 386 1237 m 9 X s 395 1237 m 8 X s 403 1237 m 9 X s 412 1237 m 9 X s 421 1237 m 9 X s 430 1237 m 9 X s 439 1237 m 8 X s 447
 1237 m 9 X s 456 1237 m 9 X s 465 1237 m 9 X s 474 1237 m 9 X s 483 1237 m 8 X s 491 1237 m 9 X s 500 1237 m 9 X s 509 1237 m 9 X s 518 1237 m 9 X s 527 1237 m 8 X s 535 1237 m 9 X s 544 1237 m 9 X s 553 1237 m 9 X s 562 1237 m 9 X s 571 1237 m 8 X
 s 579 1237 m 9 X s 588 1237 m 9 X s 597 1237 m 9 X s 606 1237 m 9 X s 615 1237 m 8 X s 623 1237 m 9 X s 632 1237 m 9 X s 641 1237 m 9 X s 650 1237 m 9 X s 659 1237 m 8 X s 667 1237 m 9 X s 676 1237 m 9 X s 685 1237 m 9 X s 694 1237 m 9 X s 703 1237
 m 8 X s 711 1237 m 9 X s 720 1237 m 8 X -1 Y 1 X s 729 1236 m 9 X s 738 1236 m 9 X s 747 1236 m 8 X s 755 1236 m 9 X s 764 1236 m 9 X s 773 1236 m 9 X s 782 1236 m 9 X s 791 1236 m 1 X -1 Y 7 X s 799 1235 m 9 X s 808 1235 m 9 X s 817 1235 m 9 X s
 826 1235 m 9 X s 835 1235 m 2 X 1 -1 d 5 X s 843 1234 m 9 X s 852 1234 m 9 X s 861 1234 m 1 -1 d 8 X s 870 1233 m 9 X s 879 1233 m 8 X s 887 1233 m 3 X -1 Y 6 X s 896 1232 m 9 X -1 Y s 905 1231 m 2 X -1 Y 6 X -1 Y 1 X s 914 1229 m 7 X -1 Y 2 X s 923
 1228 m 7 X 1 -1 d s 931 1227 m 8 X 1 -1 d s 940 1226 m 4 X 1 -1 d 4 X s 949 1225 m 4 X 1 -1 d 2 X -1 Y 2 X s 958 1223 m 3 X -1 Y 6 X s 967 1222 m 1 X -1 Y 6 X -1 Y 1 X s 975 1220 m 1 X -1 Y 2 X -1 Y 3 X -1 Y 3 X -1 Y s 984 1216 m 4 X -1 Y 4 X -1 Y 1
 X s 993 1214 m 3 X -1 Y 2 X -1 Y 1 X -1 Y 3 X s 1002 1211 m 1 X -1 Y 5 X -1 Y 1 X 1 -1 d 1 X s 1011 1208 m 1 -1 d 2 X -1 Y 3 X -1 Y 2 X s 1019 1205 m 1 -1 d 1 X 1 -1 d 1 X -1 Y 2 X -1 Y 3 X s 1028 1201 m 2 X -1 Y 5 X -1 Y 1 X -1 Y 1 X s 1037 1198 m
 1 X -1 Y 1 X -1 Y 4 X -1 Y 1 X -1 Y 2 X s 1046 1194 m 3 X -1 Y 2 X -1 Y 1 -1 d 1 X -1 Y 1 X -1 Y 1 X s 1055 1189 m 2 X -1 Y 2 X 1 -1 d 2 X -1 Y 1 X s 1063 1186 m 1 X -1 Y 1 X -1 Y 2 X -1 Y 1 X -1 Y 2 X -1 Y 2 X -1 Y s 1072 1180 m -1 Y 3 X -1 Y 4 X
 -1 Y 1 X 1 -1 d s 1081 1176 m 1 X -1 Y 1 X -1 Y 1 X -1 Y 1 X 1 -1 d -1 Y 2 X -1 Y 1 -1 d 1 -1 d s 1090 1168 m 1 X -1 Y 2 X -1 Y 1 X -1 Y 1 -1 d 2 X -2 Y 1 X -2 Y 1 X s 1099 1160 m 1 X -1 Y 2 X 1 -1 d 1 -1 d -1 Y 1 X -1 Y 2 X -1 Y s 1107 1154 m 1 X
 -2 Y 1 X -1 Y 1 X -1 Y 1 X -1 Y 1 X -1 Y 1 X -1 Y 1 X -2 Y 1 X -2 Y 1 X s 1116 1143 m 1 X -1 Y 1 X -1 Y 2 X -1 Y 1 X -1 Y 1 X -1 Y 1 X -1 Y 1 X -1 Y 1 X s 1125 1136 m -1 Y 1 X -1 Y 1 X -1 Y 1 X -1 Y 2 X -1 Y 2 X -1 Y 1 X -1 Y 1 X s 1134 1129 m -1 Y
 1 X -1 Y 1 X -1 Y 1 -1 d -2 Y 1 X -1 Y 1 X -1 Y 1 X -1 Y 1 X -2 Y 1 X -1 Y 1 X s 1143 1117 m -2 Y 2 X -1 Y 1 X -1 Y 1 X -1 Y 1 X -1 Y 1 X -1 Y 1 X -1 Y 1 X s 1151 1109 m 1 X -1 Y 1 -1 d 1 X -1 Y 1 X -1 Y 1 X -1 Y 1 -1 d 1 X -1 Y 1 X -1 Y 1 X -1 Y s
 1160 1100 m -1 Y 1 X -1 Y 1 X -1 Y 1 -1 d 1 X -1 Y 1 X -1 Y 1 -1 d -1 Y 1 X 1 -1 d 1 X -1 Y s 1169 1090 m 1 X -1 Y 1 X -1 Y 1 X -1 Y 1 X -1 Y 1 X -2 Y 1 X -1 Y 1 X -1 Y 1 -1 d -1 Y 1 X -1 Y s 1178 1079 m -1 Y 1 X -3 Y 1 X -1 Y 1 X -2 Y 1 X -2 Y 1 X
 -1 Y 1 X -2 Y 1 X -2 Y 2 X s 1187 1065 m -1 Y 1 X -2 Y 1 -1 d 1 X -1 Y 1 X -1 Y 1 X -1 Y 1 X -1 Y 1 X -2 Y 1 X -1 Y s 1195 1054 m 1 X -1 Y 1 X -1 Y 1 X -1 Y 1 X -1 Y 1 X -2 Y 1 X -2 Y 1 X -1 Y 2 X -1 Y s 1204 1044 m 1 X -1 Y 1 X -2 Y 1 X -2 Y 2 X -2
 Y 1 X -2 Y 1 X -2 Y 1 X -2 Y 1 X -1 Y s 1213 1030 m 1 X -1 Y 1 X -2 Y 1 X -1 Y 1 X -1 Y 1 X -1 Y 1 -1 d 1 X -1 Y 1 X -2 Y 1 X s 1222 1020 m -1 Y 1 X -2 Y 1 X -1 Y 1 X -1 Y 1 -1 d -1 Y 1 X -2 Y 1 -1 d -1 Y 1 X -1 Y 1 X -2 Y 1 X s 1231 1006 m -1 Y 1 X
 -2 Y 2 X -2 Y 1 X -2 Y 1 X -1 Y 1 X -2 Y 1 X -1 Y 1 -1 d -1 Y s 1239 993 m 1 -1 d -1 Y 1 X -2 Y 1 X -1 Y 1 X -1 Y 1 X -1 Y 1 X -1 Y 1 -1 d -2 Y 1 X -1 Y 1 X -1 Y s 1248 980 m 1 X -2 Y 1 X -1 Y 1 X -2 Y 1 -1 d -2 Y 1 X -1 Y 1 -1 d -1 Y 1 X -2 Y 1 -1
 d -2 Y 1 X -1 Y s 1257 963 m -1 Y 1 -1 d -1 Y 1 X -1 Y 1 X -2 Y 1 X -2 Y 1 X -2 Y 2 X -3 Y 1 -1 d -1 Y 1 X -1 Y s 1266 947 m 1 X -1 Y 1 X -2 Y 1 X -1 Y 1 X -1 Y 1 X -1 Y 1 -1 d -1 Y 1 X -2 Y 1 X -1 Y 1 X s 1275 936 m -1 Y 1 -1 d -2 Y 1 X -2 Y 1 X -1
 Y 1 X -2 Y 1 X -2 Y 1 -1 d -3 Y 1 -1 d -1 Y 1 X -2 Y s 1283 917 m 1 X -2 Y 1 X -1 Y 1 X -1 Y 1 X -2 Y 1 -1 d -2 Y 1 -1 d -1 Y 1 X -3 Y 1 X -1 Y 1 X -1 Y s 1292 901 m 1 -1 d -1 Y 1 -1 d -2 Y 1 X -2 Y 1 X -2 Y 1 X -2 Y 1 X -3 Y 1 X -2 Y 1 X -2 Y 1 -1
 d s 1301 882 m -1 Y 1 X -2 Y 1 X -1 Y 1 -1 d -2 Y 1 X -1 Y 1 -1 d -1 Y 1 X -1 Y 1 X -1 Y 1 X -2 Y 1 X s 1310 868 m -1 Y 1 -1 d -2 Y 1 -1 d -1 Y 1 -1 d -1 Y 1 X -2 Y 1 X -2 Y 1 X -2 Y 1 X -2 Y 1 X -4 Y 1 X s 1319 848 m -1 Y 1 X -2 Y 1 X -1 Y 1 -1 d
 -2 Y 1 X -2 Y 2 X -2 Y 1 X -1 Y 1 -1 d -1 Y s 1327 834 m 1 X -2 Y 1 X -3 Y 1 X -1 Y 1 X -2 Y 1 X -2 Y 1 X -2 Y 1 X -1 Y 1 -1 d -2 Y 1 X -2 Y s 1336 816 m -1 Y 1 X -2 Y 1 -1 d -2 Y 1 X -2 Y 1 X -1 Y 1 -1 d -2 Y 1 -1 d -2 Y 1 X -1 Y 1 -1 d -1 Y 1 -1 d
 -2 Y s 1345 795 m -1 Y 1 X -1 Y 1 -1 d -1 Y 1 -1 d -3 Y 1 X -1 Y 1 -1 d -3 Y 1 X -1 Y 1 -1 d -2 Y 1 -1 d -1 Y 1 -1 d s 1354 775 m 1 X -2 Y 1 X -2 Y 1 X -3 Y 1 X -1 Y 1 -1 d -2 Y 1 -1 d -1 Y 1 X -2 Y 1 -1 d -2 Y 1 X s 1363 757 m -2 Y 1 X -3 Y 1 X -1
 Y 1 X -2 Y 1 X -1 Y 1 X -2 Y 1 -1 d -3 Y 1 X -2 Y 1 X -3 Y s 1371 737 m 1 X -2 Y 1 -1 d -2 Y 1 X -2 Y 1 X -1 Y 1 X -2 Y 1 X -2 Y 1 X -2 Y 1 X -1 Y 1 X -1 Y s 1380 721 m 1 X -2 Y 1 X -2 Y 1 -1 d -1 Y 1 -1 d -2 Y 1 -1 d -2 Y 1 -1 d -1 Y 1 X -2 Y 1 X
 -2 Y 1 X -1 Y s 1389 702 m -1 Y 1 X -1 Y 1 X -2 Y 1 -1 d -1 Y 1 X -2 Y 1 -1 d -3 Y 1 X -2 Y 1 X -3 Y 1 X -2 Y 1 -1 d s 1398 682 m -2 Y 1 X -2 Y 1 X -3 Y 1 X -2 Y 1 X -2 Y 1 -1 d -2 Y 1 X -1 Y 1 -1 d -2 Y 1 -1 d -2 Y 1 X s 1407 661 m -2 Y 1 -1 d -2 Y
 1 X -1 Y 1 X -2 Y 1 X -2 Y 1 X -2 Y 1 X -1 Y 1 X -2 Y 1 -1 d -2 Y s 1415 643 m 1 X -3 Y 1 X -2 Y 1 X -1 Y 1 X -2 Y 1 X -2 Y 1 -1 d -1 Y 1 X -1 Y 1 -1 d -1 Y 1 X -1 Y s 1424 627 m -2 Y 1 X 1 -1 d -2 Y 1 X -2 Y 1 X -3 Y 1 X -2 Y 1 X -2 Y 1 X -1 Y 1 -1
 d 1 X -2 Y s 1433 609 m 1 -1 d -1 Y 1 X -1 Y 1 -1 d -1 Y 1 -1 d -3 Y 1 X -2 Y 1 X -2 Y 1 -1 d -2 Y 1 X -1 Y 1 X -1 Y s 1442 591 m -1 Y 1 -1 d -1 Y 1 X -2 Y 1 X -2 Y 1 -1 d -2 Y 1 X -2 Y 1 -1 d -1 Y 1 -1 d -1 Y 1 -1 d -1 Y 1 X s 1451 573 m -1 Y 1 X
 -2 Y 1 X -3 Y 1 X -2 Y 1 X -1 Y 1 X -2 Y 1 -1 d -1 Y 1 X -2 Y 1 -1 d -2 Y s 1459 555 m 1 X 1 -1 d -1 Y 1 X -1 Y 1 X -2 Y 1 X -2 Y 1 X -1 Y 1 -1 d -1 Y 1 -2 d 1 -1 d -1 Y s 1468 541 m -1 Y 1 X -1 Y 1 -1 d -1 Y 1 X -2 Y 1 -1 d -3 Y 1 X -2 Y 1 X -1 Y 1
 X -2 Y 1 -1 d -1 Y 1 X -1 Y s 1477 523 m -1 Y 1 X -1 Y 1 X -2 Y 1 X -1 Y 1 -1 d 1 -1 d -2 Y 1 X -2 Y 1 X -2 Y 1 -1 d 1 -1 d s 1486 508 m -1 Y 1 X -1 Y 1 X -2 Y 1 -1 d -1 Y 1 -1 d 1 -1 d -1 Y 1 X -1 Y 1 X -2 Y 1 X -1 Y 1 X -1 Y s 1495 494 m -1 Y 1 X
 -2 Y 1 X -1 Y 1 X -1 Y 1 -1 d -2 Y 1 X -1 Y 1 -2 d -1 Y 1 X -2 Y 1 X s 1503 480 m 1 X -1 Y 1 -1 d 1 -1 d -1 Y 1 -1 d -4 Y 1 X -1 Y 1 -1 d -3 Y 1 X 1 -1 d -1 Y 1 X -2 Y s 1512 462 m -1 Y 2 X -2 Y 1 X -1 Y 1 X -2 Y 1 X -1 Y 1 -1 d -2 Y 1 -1 d -1 Y 1
 -1 d -2 Y 1 -1 d -1 Y s 1521 445 m 1 -1 d -1 Y 1 X -2 Y 1 X -2 Y 1 X -1 Y 1 X -2 Y 1 X -1 Y 1 -1 d -1 Y 1 X -1 Y 1 -1 d -1 Y s 1530 430 m -1 Y 1 -1 d -1 Y 1 X -2 Y 1 X -2 Y 1 X -2 Y 1 -1 d -1 Y 1 X -2 Y 1 X -1 Y 1 -1 d -1 Y 1 X -1 Y s 1539 413 m -1
 Y 1 -1 d 1 -1 d -1 Y 1 -1 d -2 Y 1 -1 d 1 X -1 Y 1 X -1 Y 1 X -1 Y 1 -1 d -1 Y s 1547 400 m 1 X -2 Y 1 X -1 Y 1 X -1 Y 1 X -2 Y 1 X -2 Y 1 X -1 Y 1 -1 d -1 Y 1 X -1 Y 1 X -1 Y s 1556 387 m 1 X -1 Y 1 X -2 Y 1 X -2 Y 2 X -1 Y 1 -1 d -1 Y 1 X -1 Y 1 X
 -1 Y 1 X -1 Y s 1565 376 m 1 -1 d 1 X -1 Y 1 -1 d -1 Y 1 X -1 Y 1 X -1 Y 1 X -1 Y 1 X -1 Y 1 X -2 Y 1 X s 1574 366 m -1 Y 1 X -1 Y 1 -1 d -1 Y 1 X -1 Y 1 -1 d 1 -1 d -1 Y 1 X -1 Y 1 X 1 -1 d -1 Y 1 -1 d s 1583 354 m -1 Y 1 X -1 Y 2 X -1 Y 1 X -1 Y 1
 X -2 Y 1 X -1 Y 1 X -1 Y 1 -1 d s 1591 345 m 1 X -1 Y 1 X -1 Y 1 X -1 Y 1 X -1 Y 1 -1 d -1 Y 1 X -1 Y 1 -1 d 1 -1 d 1 X s 1600 336 m -1 Y 2 X -1 Y 1 X -1 Y 1 X -2 Y 1 X -1 Y 1 X -1 Y 1 X -1 Y 1 X -1 Y 1 X s 1609 327 m 1 -1 d -1 Y 2 X -2 Y 1 X -1 Y 1
 X -1 Y 1 X -1 Y 1 X -1 Y 1 X -1 Y 1 X s 1618 318 m -1 Y 1 X 1 -1 d 1 X -1 Y 1 X -1 Y 1 -1 d 1 X -2 Y 1 X -1 Y 1 X -1 Y 1 X s 1627 309 m 1 X -1 Y 1 -1 d 1 X -2 Y 2 X -2 Y 1 X -1 Y 1 X -2 Y 1 X -2 Y s 1635 298 m 1 X -1 Y 1 X -1 Y 1 X -1 Y 1 X -2 Y 1 X
 1 -1 d 1 X -1 Y 1 X -1 Y 1 X -1 Y s 1644 289 m 1 X -1 Y 2 X -1 Y 1 X -1 Y 1 X -1 Y 1 X -1 Y 1 X -1 Y 1 X -1 Y 1 X s 1653 282 m 1 -1 d 2 X -1 Y 1 X -1 Y 1 X -1 Y 1 X 1 -1 d 1 X -1 Y 1 X s 1662 276 m 1 X -1 Y 1 X 1 -1 d 1 X -1 Y 3 X -1 Y 1 X 1 -1 d s
 1671 271 m 1 -1 d 1 X -1 Y 1 X -1 Y 1 X -1 Y 2 X -1 Y 1 X -1 Y 1 X -1 Y s 1679 264 m 1 X -1 Y 2 X -1 Y 4 X -1 Y 1 X 1 -1 d s 1688 260 m 1 X -1 Y 2 X -1 Y 1 X -1 Y 2 X -1 Y 1 X -1 Y 1 X -1 Y 1 X s 1697 254 m 2 X -1 Y 2 X -1 Y 1 X -1 Y 2 X -1 Y 2 X s
 1706 250 m -1 Y 3 X -1 Y 4 X -1 Y 2 X s 1715 247 m -1 Y 3 X -1 Y 2 X -1 Y 2 X -1 Y 1 X -1 Y s 1723 242 m 3 X 1 -1 d 2 X -1 Y 2 X -1 Y 1 -1 d s 1732 238 m 4 X -1 Y 2 X -1 Y 2 X -1 Y 1 X s 1741 235 m 2 X -1 Y 3 X -1 Y 2 X -1 Y 2 X s 1750 232 m 2 X 1
 -1 d 3 X -1 Y 2 X -1 Y 1 X s 1759 229 m -1 Y 4 X -1 Y 1 X 1 -1 d 2 X -1 Y s 1767 225 m 2 X -1 Y 5 X -1 Y 2 X s 1776 223 m 3 X -1 Y 5 X -1 Y 1 X s 1785 221 m 2 X 1 -1 d 2 X -1 Y 3 X -1 Y 1 X s 1794 218 m 3 X 1 -1 d 5 X s 1803 217 m -1 Y 2 X -1 Y 7 X
 s 1812 215 m 1 X 1 -1 d 3 X -1 Y 3 X s 1820 213 m 3 X -1 Y 6 X s 1829 212 m 1 X -1 Y 8 X s 1838 211 m 3 X -1 Y 6 X s 1847 210 m 3 X -1 Y 6 X s 1856 209 m 1 X -1 Y 7 X -1 Y s 1864 207 m 9 X s 1873 207 m 3 X -1 Y 6 X s 1882 206 m 8 X -1 Y 1 X s 1891
 205 m 9 X s 1900 205 m 4 X -1 Y 4 X s 1908 204 m 9 X s 1917 204 m 3 X -1 Y 6 X s 1926 203 m 9 X s 1935 203 m 9 X s 1944 203 m 8 X s 1952 203 m 9 X s 1961 203 m 1 X -1 Y 8 X s 1970 202 m 9 X s 1979 202 m 9 X s 1988 202 m 8 X s 1996 202 m 9 X s 2005
 202 m 9 X s 2014 202 m 9 X s 2023 202 m 9 X s 2032 202 m 7 X -1 Y 1 X s 2040 201 m 1 X s 1 0 0 c black 1 0 0 c 245 1237 m 9 X s 254 1237 m 9 X s 263 1237 m 8 X s 271 1237 m 9 X s 280 1237 m 9 X s 289 1237 m 9 X s 298 1237 m 9 X s 307 1237 m 8 X s
 315 1237 m 9 X s 324 1237 m 9 X s 333 1237 m 9 X s 342 1237 m 9 X s 351 1237 m 8 X s 359 1237 m 9 X s 368 1237 m 9 X s 377 1237 m 9 X s 386 1237 m 9 X s 395 1237 m 8 X s 403 1237 m 9 X s 412 1237 m 9 X s 421 1237 m 9 X s 430 1237 m 9 X s 439 1237 m
 8 X s 447 1237 m 9 X s 456 1237 m 9 X s 465 1237 m 9 X s 474 1237 m 9 X s 483 1237 m 8 X s 491 1237 m 9 X s 500 1237 m 9 X s 509 1237 m 9 X s 518 1237 m 9 X s 527 1237 m 8 X s 535 1237 m 9 X s 544 1237 m 9 X s 553 1237 m 9 X s 562 1237 m 9 X s 571
 1237 m 8 X s 579 1237 m 9 X s 588 1237 m 9 X s 597 1237 m 9 X s 606 1237 m 9 X s 615 1237 m 8 X s 623 1237 m 9 X s 632 1237 m 9 X s 641 1237 m 1 X -1 Y 8 X s 650 1236 m 9 X s 659 1236 m 8 X s 667 1236 m 9 X s 676 1236 m 9 X s 685 1236 m 9 X s 694
 1236 m 8 X 1 -1 d s 703 1235 m 8 X s 711 1235 m 9 X s 720 1235 m 9 X s 729 1235 m 9 X s 738 1235 m 9 X s 747 1235 m 8 X s 755 1235 m 8 X 1 -1 d s 764 1234 m 9 X s 773 1234 m 9 X s 782 1234 m 4 X -1 Y 5 X s 791 1233 m 8 X s 799 1233 m 9 X s 808 1233
 m 1 X 1 -1 d 4 X -1 Y 3 X s 817 1231 m 9 X s 826 1231 m 1 X 1 -1 d 7 X s 835 1230 m 4 X -1 Y 4 X s 843 1229 m 2 X 1 -1 d 2 X -1 Y 2 X -1 Y 1 X -1 Y 1 X s 852 1225 m 1 X 1 -1 d 2 X 1 -1 d 2 X -1 Y 1 X 1 -1 d s 861 1221 m 3 X -1 Y 2 X -1 Y 1 X 1 -1 d
 2 X s 870 1218 m 1 -1 d -1 Y 2 X -1 Y 2 X -1 Y 1 X -1 Y 1 X -1 Y 2 X s 879 1212 m -1 Y 1 X -1 Y 2 X -1 Y 1 X -1 Y 2 X -1 Y 1 -1 d 1 X -1 Y s 887 1205 m 1 X -1 Y 2 X -1 Y 1 X -1 Y 1 -1 d 1 X -1 Y 1 X -1 Y 2 X -1 Y s 896 1198 m 1 X -1 Y 1 -1 d 1 X -2
 Y 1 X -2 Y 1 X -1 Y 1 X -1 Y 1 X -1 Y 1 -1 d -1 Y 1 X -1 Y s 905 1186 m 1 X -1 Y 1 X -1 Y 1 X -2 Y 1 X -1 Y 1 X -1 Y 1 X -2 Y 1 X -1 Y 1 X -1 Y 1 -1 d s 914 1175 m -1 Y 1 X -1 Y 1 X -1 Y 1 X -2 Y 1 X -1 Y 1 -1 d -1 Y 1 X -1 Y 1 -1 d -1 Y 1 X 1 -1 d
 s 923 1163 m -2 Y 1 X -1 Y 1 X -2 Y 1 X -2 Y 1 X -2 Y 1 X -1 Y 1 X -3 Y 1 X -1 Y 1 X -2 Y s 931 1147 m 1 X -2 Y 1 -1 d -1 Y 1 -1 d -1 Y 1 -1 d -1 Y 1 X -2 Y 1 X -2 Y 1 X -4 Y 1 X -1 Y 1 X -2 Y s 940 1128 m 1 -1 d -1 Y 1 X -2 Y 1 X -3 Y 1 X -1 Y 1 X
 -1 Y 1 -1 d -1 Y 1 -1 d -1 Y 1 X -1 Y 1 -1 d -1 Y s 949 1112 m 1 -1 d -1 Y 1 -1 d -2 Y 1 X -4 Y 2 X -3 Y 1 X -2 Y 1 -1 d -2 Y 1 X -2 Y 1 -1 d s 958 1092 m -2 Y 1 X -3 Y 1 X -1 Y 1 X -2 Y 1 -1 d -1 Y 1 -1 d -2 Y 1 X -2 Y 1 X -2 Y 1 X -3 Y 1 X s 967
 1072 m -2 Y 1 X -3 Y 1 -1 d -2 Y 1 X -2 Y 1 X -3 Y 1 X -2 Y 1 X -2 Y 1 -1 d -1 Y 1 -1 d -2 Y s 975 1050 m 1 X -3 Y 1 X -3 Y 1 X -2 Y 1 -1 d -1 Y 1 X -2 Y 1 -1 d -1 Y 1 -1 d -2 Y 1 X -3 Y 1 X -3 Y s 984 1027 m 1 X -2 Y 1 X -2 Y 1 -1 d -2 Y 1 -1 d -1
 Y 1 -1 d -2 Y 1 -1 d -2 Y 1 X -2 Y 1 -1 d -2 Y 1 X -1 Y s 993 1006 m -2 Y 1 X -3 Y 1 -1 d -1 Y 1 X -3 Y 1 X -2 Y 1 X -1 Y 1 X -3 Y 1 X -2 Y 1 X -2 Y 1 X s 1002 986 m -2 Y 1 X -3 Y 1 X -4 Y 1 -1 d -3 Y 1 -1 d -1 Y 1 -1 d -2 Y 1 -1 d -2 Y 1 -1 d -2 Y
 1 X -3 Y 1 X s 1011 959 m -2 Y 1 X -2 Y 1 X -2 Y 1 X -1 Y 1 X -2 Y 1 X -2 Y 1 -1 d -3 Y 1 X -2 Y 1 X -3 Y s 1019 939 m 1 -1 d -2 Y 1 X -2 Y 1 -1 d -1 Y 1 X -3 Y 1 -1 d -2 Y 1 -1 d -3 Y 1 X -2 Y 1 -1 d -2 Y 1 X -1 Y s 1028 916 m -1 Y 1 -1 d -1 Y 1 X
 -3 Y 1 X -1 Y 1 -1 d -1 Y 1 -1 d -2 Y 1 X -1 Y 1 X -2 Y 1 X -1 Y 1 -1 d -1 Y s 1037 898 m 1 -1 d -1 Y 1 -1 d -2 Y 1 X -2 Y 1 -1 d -3 Y 1 X -2 Y 1 X -1 Y 1 X -4 Y 1 X -3 Y 1 X -1 Y s 1046 876 m -1 Y 1 X -2 Y 1 X -2 Y 1 X -2 Y 1 -1 d -2 Y 1 X -2 Y 1 X
 -1 Y 1 -1 d -3 Y 1 X -2 Y 1 X s 1055 857 m -2 Y 1 X -1 Y 1 X -1 Y 1 -1 d -2 Y 1 X -2 Y 1 -1 d -1 Y 1 -1 d -1 Y 1 -1 d -2 Y 1 X -3 Y s 1063 838 m 1 X -1 Y 1 X -3 Y 1 X -1 Y 1 X -3 Y 1 X -2 Y 1 -1 d -1 Y 1 X 1 -1 d -1 Y 1 -1 d -1 Y s 1072 822 m 1 -1 d
 -1 Y 1 X -3 Y 1 X -1 Y 1 X -1 Y 1 -1 d -3 Y 1 X -1 Y 1 X -1 Y 1 X -3 Y 1 -1 d s 1081 805 m -1 Y 1 X -1 Y 1 -1 d -1 Y 1 X -1 Y 1 X -1 Y 1 X -1 Y 1 -1 d -1 Y 1 X -2 Y 1 -1 d -2 Y 1 X s 1090 791 m -1 Y 1 -1 d -2 Y 2 X -3 Y 1 X -1 Y 1 X -1 Y 1 -1 d -1 Y
 1 X -1 Y 1 X -2 Y 1 X s 1099 777 m -2 Y 1 X -1 Y 1 -1 d -1 Y 1 X -1 Y 1 -1 d -1 Y 2 X -1 Y 1 X -1 Y 1 X -1 Y s 1107 766 m 1 X -2 Y 1 X -1 Y 3 X -1 Y 2 X -1 Y 1 X -1 Y 1 X s 1116 760 m 1 X -1 Y 1 X -1 Y 1 X -1 Y 1 X 1 -1 d -1 Y 1 X -1 Y 1 X -1 Y 1 X
 -1 Y 1 X -1 Y s 1125 751 m -1 Y 1 X -1 Y 1 X -1 Y 1 X -1 Y 2 X -1 Y 2 X 1 -1 d -1 Y 1 X s 1134 744 m 1 X -1 Y 2 X -1 Y 1 X -1 Y 2 X 1 -1 d -1 Y 1 -1 d 1 X s 1143 738 m -1 Y 2 X -1 Y 3 X -1 Y 1 X -1 Y 2 X s 1151 734 m 2 X -1 Y 1 X 1 -1 d 1 X -1 Y 2 X
 -1 Y 2 X s 1160 730 m 1 X -1 Y 4 X -1 Y 4 X s 1169 728 m 1 X -1 Y 2 X -1 Y 2 X -1 Y 3 X -1 Y 1 X s 1178 724 m 2 X -1 Y 3 X -1 Y 4 X s 1187 722 m 1 X -1 Y 5 X -1 Y 2 X s 1195 720 m 1 -1 d 1 -1 d 2 X -1 Y 3 X 1 -1 d 1 X s 1204 716 m 1 X -1 Y 2 X -1 Y
 2 X -1 Y 3 X -1 Y 1 X s 1213 712 m 2 X -1 Y 2 X -1 Y 3 X -1 Y 2 X s 1222 709 m 1 X 1 -1 d 2 X -1 Y 2 X 1 -1 d 1 X -1 Y 1 X s 1231 705 m 1 X -1 Y 1 X -1 Y 2 X -1 Y 4 X s 1239 702 m 1 X -1 Y 3 X -1 Y 3 X -1 Y 1 X -1 Y 1 X s 1248 698 m 3 X -1 Y 2 X -1
 Y 2 X -1 Y 2 X s 1257 695 m -1 Y 1 X -1 Y 2 X -1 Y 2 X -1 Y 3 X -1 Y 1 X s 1266 690 m 1 X -1 Y 2 X -1 Y 3 X -1 Y 1 X -1 Y 1 X -2 Y 1 X s 1275 684 m 1 -1 d 1 X -1 Y 1 X -1 Y 3 X 1 -1 d 1 X s 1283 680 m 1 X -1 Y 2 X -1 Y 1 X -1 Y 1 X -1 Y 1 X -1 Y 1 X
 -1 Y 1 X -1 Y 1 X -1 Y s 1292 672 m 2 X -1 Y 2 X -1 Y 1 X -1 Y 1 X -1 Y 2 X -1 Y 1 -1 d s 1301 666 m -1 Y 1 X -1 Y 1 X -2 Y 2 X -1 Y 1 X -1 Y 1 X -2 Y 1 X -1 Y 1 X 1 -1 d s 1310 656 m -1 Y 1 X -2 Y 1 X -2 Y 1 X -2 Y 1 -1 d 1 X -1 Y 1 -1 d -1 Y 2 X
 -2 Y 1 X s 1319 643 m 1 X -1 Y 1 X -1 Y 1 -1 d -1 Y 2 X -2 Y 1 X -2 Y 1 X -2 Y 1 X -2 Y s 1327 631 m 1 X 1 -1 d -1 Y 1 X -1 Y 1 X -1 Y 1 -1 d 1 -1 d -1 Y 1 X -2 Y 1 X -1 Y 1 X -1 Y s 1336 620 m -1 Y 1 X -1 Y 1 -1 d 1 -1 d -2 Y 1 X -1 Y 1 -1 d -2 Y 1
 -1 d -1 Y 1 X -2 Y 1 -1 d -1 Y 1 X -1 Y s 1345 603 m 1 X -1 Y 1 -1 d -1 Y 1 -1 d -1 Y 1 X -1 Y 1 -1 d -2 Y 1 X -1 Y 1 X -3 Y 1 -1 d -1 Y 1 X -1 Y s 1354 587 m -1 Y 1 X -1 Y 1 -1 d -1 Y 1 X -2 Y 1 -1 d -1 Y 1 X -2 Y 1 X -1 Y 1 X -1 Y 1 X -3 Y 1 X s
 1363 572 m -2 Y 1 X -1 Y 1 X -3 Y 1 X -2 Y 1 X -2 Y 1 -2 d -2 Y 1 -1 d -2 Y 1 -1 d -3 Y 1 X -3 Y s 1371 548 m 1 X -2 Y 1 X -1 Y 1 -1 d -1 Y 1 X -2 Y 1 -1 d -1 Y 1 -2 d -1 Y 1 X -3 Y 1 X -2 Y 1 -1 d -3 Y s 1380 527 m 1 X -3 Y 1 X -2 Y 1 X -1 Y 1 -1 d
 -2 Y 1 X -2 Y 1 X -2 Y 1 X -3 Y 1 -1 d -2 Y 1 X s 1389 508 m -2 Y 1 X -2 Y 1 X -2 Y 1 X -2 Y 1 -1 d 1 -1 d -3 Y 1 X -2 Y 1 -1 d -2 Y 1 X -2 Y 1 X -1 Y s 1398 487 m -2 Y 1 X -2 Y 1 -1 d -2 Y 1 X -2 Y 1 X -2 Y 1 -1 d -2 Y 1 -1 d -1 Y 1 X -2 Y 1 X -3 Y
 1 X s 1407 466 m -1 Y 1 X -2 Y 1 -1 d -1 Y 1 -1 d -2 Y 1 -1 d -1 Y 1 X -2 Y 1 X -2 Y 1 X -2 Y 1 -1 d -2 Y s 1415 447 m 1 -1 d -3 Y 1 -1 d -2 Y 1 X -1 Y 1 X -3 Y 1 X -2 Y 1 -1 d -3 Y 1 -1 d -3 Y 1 X -1 Y 1 X -2 Y s 1424 423 m 1 X -2 Y 1 -1 d -1 Y 1
 -1 d -2 Y 1 X -2 Y 1 X -3 Y 1 X -2 Y 1 X -2 Y 1 X -1 Y 1 -1 d -2 Y s 1433 403 m -1 Y 1 X -2 Y 1 X -2 Y 1 X -2 Y 1 X -3 Y 1 -1 d -1 Y 1 -2 d -1 Y 1 X -2 Y 1 X -1 Y 1 -1 d s 1442 384 m -2 Y 1 X -1 Y 1 X -3 Y 1 -1 d -1 Y 1 -1 d 1 -1 d -4 Y 1 X -1 Y 1 X
 -2 Y 1 X -3 Y 1 X s 1451 364 m -2 Y 1 X -2 Y 1 -1 d -1 Y 1 -1 d -1 Y 1 X -3 Y 1 X -2 Y 1 -1 d -2 Y 1 X -2 Y 1 -1 d -1 Y s 1459 344 m 1 -1 d -2 Y 1 -1 d -2 Y 1 X -2 Y 1 -1 d -3 Y 1 X -1 Y 1 X -2 Y 1 X -2 Y 1 X -2 Y 1 X -1 Y s 1468 324 m -1 Y 1 X -1 Y
 1 X -1 Y 1 X -3 Y 2 X -2 Y 1 X -1 Y 1 -1 d -2 Y 2 X -2 Y s 1477 310 m 1 -1 d -2 Y 1 -1 d -2 Y 1 X -2 Y 1 -1 d -3 Y 1 X -2 Y 1 X -1 Y 1 X -1 Y 1 -1 d -1 Y 1 X -1 Y s 1486 291 m -1 Y 1 X -1 Y 1 X -1 Y 1 -1 d -2 Y 1 X -1 Y 1 -1 d -2 Y 1 -1 d -1 Y 1 X
 -2 Y 1 X 1 -1 d s 1495 276 m -1 Y 1 X -2 Y 1 X -1 Y 1 X -2 Y 1 X -1 Y 1 -1 d -2 Y 1 X 1 -1 d -1 Y 1 X -1 Y s 1503 263 m 1 -1 d -1 Y 1 X -1 Y 1 X -1 Y 1 X -2 Y 1 X -1 Y 1 -1 d 1 X -2 Y 1 -1 d -1 Y 1 X -1 Y s 1512 250 m 1 X -2 Y 1 X -1 Y 1 X -1 Y 1 X
 -2 Y 1 X -1 Y 1 X 1 -1 d 1 X -1 Y 1 X -1 Y s 1521 240 m 1 -1 d -1 Y 1 X -1 Y 1 X -1 Y 1 X -1 Y 2 X -1 Y 1 -1 d -1 Y 1 X -1 Y 1 X -1 Y s 1530 230 m 1 X -1 Y 1 X -1 Y 1 X -1 Y 1 X 1 -1 d 1 X -1 Y 1 X -1 Y 1 X -1 Y 1 X s 1539 223 m 1 X -1 Y 1 X -1 Y 2
 X 1 -1 d 2 X 1 -1 d s 1547 219 m 2 X -1 Y 4 X -1 Y 3 X -1 Y s 1556 216 m 2 X -1 Y 4 X -1 Y 2 X -1 Y 1 X s 1565 213 m -1 Y 4 X -1 Y 4 X -1 Y 1 X s 1574 210 m 6 X -1 Y 3 X s 1583 209 m 3 X -1 Y 5 X s 1591 208 m 1 X -1 Y 5 X -1 Y 3 X s 1600 206 m 1 X
 -1 Y 8 X s 1609 205 m 5 X 1 -1 d 3 X s 1618 204 m 9 X s 1627 204 m 8 X s 1635 204 m 9 X s 1644 204 m 9 X s 1653 204 m 3 X 1 -1 d 5 X s 1662 203 m 9 X s 1671 203 m 8 X s 1679 203 m 9 X s 1688 203 m 9 X s 1697 203 m 9 X s 1706 203 m 9 X s 1715 203 m 8
 X s 1723 203 m 9 X s 1732 203 m 9 X s 1741 203 m 4 X -1 Y 5 X s 1750 202 m 9 X s 1759 202 m 8 X s 1767 202 m 9 X s 1776 202 m 9 X s 1785 202 m 9 X s 1794 202 m 9 X s 1803 202 m 9 X s 1812 202 m 8 X s 1820 202 m 9 X s 1829 202 m 4 X -1 Y 5 X s 1838
 201 m 9 X s 1847 201 m 9 X s 1856 201 m 8 X s 1864 201 m 9 X s 1873 201 m 9 X s 1882 201 m 9 X s 1891 201 m 9 X s 1900 201 m 8 X s 1908 201 m 9 X s 1917 201 m 9 X s 1926 201 m 9 X s 1935 201 m 9 X s 1944 201 m 8 X s 1952 201 m 9 X s 1961 201 m 9 X s
 1970 201 m 9 X s 1979 201 m 9 X s 1988 201 m 8 X s 1996 201 m 9 X s 2005 201 m 9 X s 2014 201 m 9 X s 2023 201 m 9 X s 2032 201 m 8 X s 2040 201 m 1 X s 0 0.666667 0 c 1 1 1 c black 0 0.666667 0 c 245 1162 m 9 X s 254 1162 m 9 X s 263 1162 m 8 X s
 271 1162 m 9 X s 280 1162 m 9 X s 289 1162 m 9 X s 298 1162 m 9 X s 307 1162 m 8 X s 315 1162 m 9 X s 324 1162 m 9 X s 333 1162 m 9 X s 342 1162 m 9 X s 351 1162 m 8 X s 359 1162 m 9 X s 368 1162 m 9 X s 377 1162 m 9 X s 386 1162 m 9 X s 395 1162 m
 8 X s 403 1162 m 9 X s 412 1162 m 9 X s 421 1162 m 9 X s 430 1162 m 9 X s 439 1162 m 8 X s 447 1162 m 9 X s 456 1162 m 9 X s 465 1162 m 9 X s 474 1162 m 9 X s 483 1162 m 8 X s 491 1162 m 9 X s 500 1162 m 9 X s 509 1162 m 9 X s 518 1162 m 9 X s 527
 1162 m 8 X s 535 1162 m 9 X s 544 1162 m 9 X s 553 1162 m 9 X s 562 1162 m 9 X s 571 1162 m 8 X s 579 1162 m 9 X s 588 1162 m 9 X s 597 1162 m 9 X s 606 1162 m 9 X s 615 1162 m 8 X s 623 1162 m 9 X s 632 1162 m 9 X s 641 1162 m 9 X s 650 1162 m 9 X
 s 659 1162 m 8 X s 667 1162 m 9 X s 676 1162 m 9 X s 685 1162 m 9 X s 694 1162 m 9 X s 703 1162 m 8 X s 711 1162 m 9 X s 720 1162 m 9 X s 729 1162 m 9 X s 738 1162 m 9 X s 747 1162 m 8 X s 755 1162 m 9 X s 764 1162 m 9 X s 773 1162 m 9 X s 782 1162
 m 9 X s 791 1162 m 1 X -1 Y 7 X s 799 1161 m 9 X s 808 1161 m 1 X 1 1 d 7 X s 817 1162 m 9 X s 826 1162 m 9 X s 835 1162 m 8 X -1 Y s 843 1161 m 2 X 1 Y 7 X s 852 1162 m 3 X 1 1 d -1 Y 1 X 1 Y 4 X s 861 1163 m 7 X 1 Y 2 X s 870 1164 m 7 X 1 Y 2 X s
 879 1165 m 6 X 1 Y 2 X s 887 1166 m 4 X 1 Y 5 X 1 Y s 896 1168 m 4 X 1 Y 4 X 1 Y 1 X s 905 1170 m 2 X -1 Y 1 Y 4 X 1 Y 3 X s 914 1171 m 1 X 1 1 d 3 X 1 Y 4 X s 923 1173 m 1 X 1 Y 2 X 1 Y 3 X 1 Y 2 X s 931 1176 m 1 X 1 Y 2 X 1 Y 2 X 1 1 d 1 X 1 Y 2 X
 s 940 1180 m 1 1 d 2 X 1 Y -1 Y 1 Y 3 X 1 Y 2 X 1 1 d s 949 1184 m 1 X 1 1 d 1 X 1 Y 4 X 1 Y 2 X s 958 1187 m 1 Y 2 X 1 Y 2 X 1 1 d 1 X 1 1 d 1 X 1 Y 1 X s 967 1192 m 1 X 1 Y 2 X 1 1 d 1 X 1 Y 2 X 1 Y 1 X s 975 1196 m 2 X 1 Y 3 X 1 Y 2 X 1 Y 2 X 1 Y
 s 984 1200 m 2 X 1 Y -1 Y 1 1 d 1 X 1 1 d 1 X 1 Y 2 X 1 Y 1 X s 993 1204 m 1 X 1 Y 1 X 1 Y 2 X 1 Y 1 X -1 Y 2 X 1 Y 2 X s 1002 1207 m 1 X 1 Y 1 X 1 Y 1 1 d 1 X 1 Y 1 X 1 1 d -1 Y 1 Y 2 X 1 Y 1 X s 1011 1213 m 2 X 1 Y 4 X 1 Y 2 X 1 Y s 1019 1216 m 1
 X 1 Y 1 X -1 Y 1 Y 2 X 1 Y 2 X 1 Y 2 X 1 Y 1 X s 1028 1220 m 1 Y 2 X 1 1 d 2 X 1 Y 2 X 1 Y 1 -1 d 1 X s 1037 1223 m 1 X 1 Y -1 Y 1 1 d 1 X 1 Y 1 X 1 Y 4 X 1 Y 1 X 1 Y s 1046 1228 m 2 X 1 Y 5 X 1 Y 1 X -1 Y 1 Y 1 X s 1055 1230 m 3 X 1 Y 2 X 1 Y 2 X 1
 1 d s 1063 1233 m 4 X 1 Y -1 Y 1 Y 1 X -1 Y 1 Y 4 X s 1072 1234 m 2 X 1 Y 1 X -1 Y 1 Y 2 X 1 Y 1 X 1 1 d -1 Y 1 X 1 Y 1 X s 1081 1237 m 2 X -1 Y 1 Y 1 X -1 Y 5 X -1 Y 1 Y 1 X s 1090 1236 m 4 X -1 Y 1 X 1 Y 2 X -1 Y 1 X -1 Y 1 X s 1099 1234 m 1 Y 5 X
 -1 Y 3 X s 1107 1234 m 1 X -1 Y 1 Y -1 Y 1 X -1 Y 1 X 1 -1 d 1 X -1 Y 1 Y -1 Y 2 X -1 Y 1 X -2 Y 1 X 1 Y -1 Y s 1116 1227 m 2 X -1 Y 1 Y -1 Y 1 X 1 Y 1 X -1 Y 3 X -1 Y 2 X s 1125 1225 m 1 X -1 Y 3 X 1 -1 d 2 X -1 Y 2 X s 1134 1222 m 1 -1 d 1 X -1 Y
 1 X -2 Y 3 X -2 Y 2 X -1 Y 1 X s 1143 1215 m -1 Y 1 1 d -1 Y 2 X -1 Y 1 X -1 Y 2 X -1 Y 2 X -1 Y s 1151 1210 m 2 X -1 Y 2 X -1 Y 1 X 1 -1 d 1 X -1 Y 2 X -1 Y s 1160 1205 m 1 X -1 Y 1 X -1 Y 1 X -1 Y 1 Y 1 -1 d 1 X -1 Y 1 X -1 Y 1 X -1 Y 1 Y 1 -1 d 1
 X s 1169 1199 m 1 X -1 Y 1 X -1 Y 1 X -1 Y 2 X -1 Y 1 -1 d 1 X -1 Y 1 X -1 Y 1 X -1 Y s 1178 1191 m 1 X -3 Y 1 X -1 Y 1 X -1 Y 1 X -1 Y 1 X -1 Y 1 X -1 Y 1 -1 d -1 Y 2 X s 1187 1181 m -1 Y 1 X -1 Y 1 -1 d 1 X -1 Y 1 X 1 -1 d 1 Y -1 Y 1 X -1 Y 1 X -1
 Y 1 X -1 Y s 1195 1173 m 2 X -1 Y 1 X -1 Y 1 X -1 Y 1 1 d -2 Y 1 X -1 Y 1 X -1 Y 2 X s 1204 1167 m 1 X -1 Y 1 X -1 Y 1 -1 d -1 Y 1 X 1 Y -1 Y 1 X -1 Y 1 X -1 Y 1 X -2 Y 1 X -1 Y 1 X -1 Y s 1213 1157 m 1 X 1 -1 d -1 Y 1 -1 d 1 Y -1 Y 2 X -1 Y 1 -1 d
 1 X -1 Y 1 X -1 Y 1 X s 1222 1150 m -1 Y 1 X -1 Y 1 X -1 Y 1 X -1 Y 1 X -1 Y 1 X -2 Y 1 X -1 Y 2 X -2 Y 1 X s 1231 1140 m 1 X -2 Y 1 X 1 Y -1 Y 1 X -1 Y 1 X -1 Y 1 X -2 Y 1 X -1 Y 1 X -1 Y 1 X -1 Y s 1239 1131 m 1 -1 d -1 Y 1 X -1 Y 1 X -1 Y 2 X -1
 Y 1 X -1 Y 1 -1 d -1 Y 1 X -1 Y 1 Y -1 Y 1 X -1 Y s 1248 1121 m 1 X -1 Y 1 X -1 Y 1 X -2 Y 1 X -1 Y 1 -1 d -1 Y 1 X -1 Y 1 X -2 Y 1 Y 1 -1 d -2 Y 1 X s 1257 1109 m -1 Y 1 X -1 Y 1 X -1 Y 1 X -2 Y 1 X -1 Y 1 X -1 Y 1 X -1 Y 1 X -2 Y 1 -1 d 1 X -1 Y s
 1266 1097 m 1 X -1 Y 1 Y -1 Y 1 X -1 Y 1 X 1 -1 d -1 Y 1 X 1 -1 d -1 Y 1 X 1 -1 d 1 X s 1275 1090 m -1 Y 1 -1 d -1 Y 1 X -1 Y 1 -1 d 1 X -2 Y 1 X -1 Y 1 -1 d -3 Y 1 X -1 Y 1 X -2 Y s 1283 1075 m 1 X -1 Y 1 X -1 Y 1 Y 1 -1 d -1 Y 1 X -1 Y 1 X -2 Y 1
 -1 d -1 Y 1 X -1 Y 1 X -1 Y 1 X -1 Y s 1292 1064 m 1 X -1 Y 1 -1 d -1 Y 1 X -2 Y 1 X -1 Y 1 -1 d -1 Y 1 X -2 Y 1 X -2 Y 1 X -1 Y 1 -1 d s 1301 1050 m 1 X -2 Y 1 X 1 -1 d -1 Y 1 X -1 Y 1 -1 d 1 -1 d 1 Y -1 Y 2 X -2 Y 1 1 d -1 Y s 1310 1041 m 1 -1 d
 -1 Y 1 X -1 Y 1 -1 d 1 X -1 Y 1 X -2 Y 1 X -1 Y 1 X -1 Y 1 -1 d -2 Y 1 X s 1319 1029 m -1 Y 1 X -1 Y 1 -1 d -1 Y 1 X -1 Y 1 -1 d -1 Y 2 X -1 Y 2 X -1 Y s 1327 1020 m 1 X -1 Y 1 X -2 Y 1 -1 d 1 X -1 Y 1 X -2 Y 1 X 1 -1 d 1 -1 d 1 Y -2 Y 1 X -2 Y s
 1336 1008 m 1 -1 d -1 Y 1 X -2 Y 1 X -1 Y 1 X -1 Y 1 Y 1 X -2 Y 1 -1 d -1 Y 1 X -1 Y 1 Y 1 X -2 Y 1 X -1 Y s 1345 996 m -1 Y 1 X -1 Y 1 -1 d 1 -1 d -2 Y 1 X -1 Y 1 X -2 Y 1 X -1 Y 1 Y -1 Y 1 X -1 Y 1 -1 d -1 Y 1 X s 1354 983 m 1 X -1 Y 1 Y -1 Y 1 X
 -1 Y 1 X -2 Y 1 X -1 Y 1 X -2 Y 1 X -1 Y 1 X -2 Y 1 X -1 Y 1 -1 d s 1363 971 m 1 Y -1 Y 1 X -2 Y 1 X -1 Y 3 X -1 Y 1 -1 d -2 Y 1 Y 1 -1 d 1 X -2 Y s 1371 962 m 1 X -1 Y 1 X -2 Y 1 X -2 Y 1 1 d -1 Y 1 X -1 Y 1 1 d -1 Y 1 Y -1 Y 1 X -1 Y 1 X 1 Y -1 Y
 1 X 1 Y -1 Y 1 Y s 1380 956 m -1 Y 2 X -2 Y 1 X -1 Y 1 X -2 Y 1 -1 d 1 Y -2 Y 1 X -1 Y 2 X -1 Y 1 Y -1 Y 1 X -1 Y s 1389 945 m 1 Y -1 Y 2 X -2 Y 1 Y 1 -1 d -1 Y 1 X -1 Y 1 X -2 Y 1 -1 d 1 -1 d -1 Y 1 X -2 Y 1 X s 1398 934 m -1 Y 1 X -2 Y 1 Y 1 X -2
 Y 1 X -2 Y 1 Y 1 X -2 Y 1 X -1 Y 1 Y 1 -1 d 1 -1 d -2 Y 1 X -1 Y 1 X s 1407 922 m -2 Y 1 Y 1 -1 d -1 Y 1 Y -1 Y 1 X 1 -1 d 1 Y -2 Y 1 1 d -1 Y 1 -1 d -1 Y 1 X 1 Y -1 Y 1 X 1 Y -2 Y 1 X -1 Y 1 Y -2 Y s 1415 912 m 2 X -2 Y 1 Y -1 Y 1 X -1 Y 1 Y 1 X -1
 Y 1 Y 1 -1 d -1 Y 1 X -1 Y 2 Y 1 X -1 Y 1 Y 1 X -1 Y 1 -1 d s 1424 907 m -2 Y 1 X 1 Y 1 -1 d 1 -1 d -1 Y 1 X -1 Y 1 X -2 Y 1 Y 1 -1 d -1 Y 1 1 d -1 Y 1 Y -1 Y 1 X -1 Y 1 1 d -1 Y s 1433 898 m 1 Y 1 -1 d 1 X -1 Y 1 X 1 Y -1 Y 1 -1 d -1 Y 1 -1 d 1 Y
 -2 Y 1 X -1 Y 1 X -2 Y 1 X 1 -1 d s 1442 889 m -1 Y 1 Y 1 -1 d -1 Y 1 X -1 Y 1 Y 1 -1 d -1 Y 1 X -2 Y 1 X -1 Y 1 Y 1 -1 d -1 Y 1 X -2 Y 1 Y 1 X 1 Y -1 Y 1 X s 1451 880 m 1 X -1 Y 1 Y -1 Y 1 X -2 Y 1 X -2 Y 1 Y 1 X -1 Y 1 Y 1 -1 d 1 Y -1 Y 1 X 1 -1 d
 -1 Y 1 X -1 Y s 1459 872 m 1 X 1 Y 1 X 1 Y -2 Y 1 1 d -1 Y 1 Y 2 X -1 Y 1 X 1 -1 d -1 Y 1 -1 d 1 X -1 Y s 1468 868 m 1 -1 d -1 Y 1 X 1 -1 d 1 -2 d -3 Y 1 X -1 Y 1 -1 d 1 Y -1 Y 1 X -1 Y 1 X -2 Y 1 X s 1477 855 m 1 X 1 Y -1 Y 1 1 d -1 Y 1 X 1 Y -1 Y
 1 Y 1 -1 d 2 Y 1 -1 d -2 Y 1 1 d -2 Y 1 X -1 Y 1 -1 d 1 Y -1 Y 1 Y 1 -1 d 1 Y s 1486 852 m -1 Y 1 X -1 Y 1 X -1 Y 1 X -1 Y 2 X -1 Y 1 Y 1 1 d -1 Y 1 1 d -2 Y 1 1 d -1 Y 1 -1 d s 1495 846 m -1 Y 1 X -1 Y 1 Y 1 -1 d 1 X 1 -1 d -1 Y 1 X -1 Y 1 Y 1 -1 d
 -2 Y 1 X 1 -1 d 1 Y s 1503 839 m 1 X -1 Y 1 X 1 Y 1 -1 d -1 Y 1 -1 d -4 Y 1 X -1 Y 1 X -3 Y 1 X 1 Y 1 -1 d 1 Y -1 Y 1 1 d -2 Y 1 Y -1 Y s 1512 827 m -1 Y 1 X -1 Y 2 Y 1 X -1 Y 1 -1 d 1 X -1 Y 1 Y 1 X -2 Y 1 -1 d -1 Y 1 -1 d -3 Y 1 Y 1 -1 d -2 Y 1 -1
 d s 1521 814 m -1 Y 1 X -1 Y 1 X -1 Y 1 X -1 Y 1 -1 d -1 Y 1 1 d -3 Y 1 Y 1 -1 d -1 Y 1 Y 1 X -1 Y 1 -1 d -1 Y 1 Y 1 -1 d -1 Y s 1530 802 m -1 Y 1 -1 d 1 -1 d -1 Y 1 X -3 Y 1 X -2 Y 1 X -2 Y 1 X -1 Y 1 X -1 Y 1 -1 d 1 Y -1 Y 1 -1 d -1 Y s 1539 786 m
 -1 Y 1 -1 d 1 -1 d -1 Y 1 X -4 Y 1 -1 d 1 Y 1 X -2 Y 1 X -1 Y 1 -1 d -1 Y 1 X -1 Y s 1547 772 m 1 X -3 Y 1 X 1 -1 d -2 Y 1 X -2 Y 1 -1 d -3 Y 1 X -1 Y 1 -1 d -1 Y 1 X -1 Y 1 X -2 Y s 1556 754 m 1 X -1 Y 1 X -3 Y 1 X -1 Y 1 X -1 Y 1 X -1 Y 1 -1 d -2
 Y 1 X -1 Y 1 Y -1 Y 1 X 1 Y -1 Y 1 X -1 Y s 1565 742 m 1 X -1 Y 1 X -2 Y 1 X -2 Y 1 X -1 Y 1 -1 d -1 Y 1 -1 d -1 Y 1 X -2 Y 1 X -1 Y 1 X -1 Y s 1574 728 m -1 Y 1 X -2 Y 1 X -3 Y 1 X -2 Y 1 X -1 Y 1 -1 d -2 Y 2 X -2 Y 1 X -2 Y 1 -1 d s 1583 711 m -2
 Y 1 X -2 Y 1 -1 d 2 X -2 Y 1 X -3 Y 1 X -2 Y 1 X -2 Y 1 Y 1 -2 d s 1591 696 m 1 X -1 Y 1 Y -2 Y 2 X -1 Y 1 X -3 Y 1 -1 d -2 Y 1 X -2 Y 1 X -1 Y 1 -1 d 1 X s 1600 683 m -2 Y 1 X 1 Y 1 X -3 Y 1 1 d -3 Y 1 X -3 Y 1 X 1 -1 d -2 Y 1 X -2 Y 1 -1 d 1 X -1
 Y s 1609 667 m 1 -1 d -1 Y 1 X -2 Y 1 X -2 Y 1 -1 d -2 Y 1 -1 d -1 Y 1 X -1 Y 1 X -2 Y 1 X -2 Y 1 X -1 Y s 1618 650 m 1 -1 d -1 Y 1 -1 d 1 Y -1 Y 1 X -2 Y 1 X -2 Y 1 -1 d 1 X -4 Y 1 X -2 Y 1 X -2 Y 1 X s 1627 634 m -1 Y 1 X -2 Y 1 -1 d 1 -1 d -2 Y 1
 X -1 Y 1 -1 d -3 Y 1 X -2 Y 1 -1 d -4 Y 1 -1 d -2 Y s 1635 612 m 1 X -2 Y 1 -1 d -2 Y 1 -1 d -2 Y 1 X -4 Y 1 X -1 Y 1 -1 d -1 Y 1 X -1 Y 1 -1 d -1 Y 1 X -3 Y s 1644 591 m 1 X -1 Y 1 -1 d -1 Y 1 X -1 Y 1 X -2 Y 1 -1 d -2 Y 1 -1 d -2 Y 1 X -1 Y 1 X -3
 Y 1 X s 1653 575 m 1 -2 d -1 Y 1 X -1 Y 1 X -1 Y 1 1 d -2 Y 1 X -2 Y 1 -1 d -1 Y 1 -1 d -2 Y 1 X 1 -1 d s 1662 561 m 1 -1 d 1 -1 d -1 Y 1 X -2 Y 1 X -1 Y 1 X -1 Y 1 X -1 Y 1 X -2 Y 1 X -1 Y 1 X -1 Y s 1671 549 m -1 Y 1 -1 d -2 Y 1 X -2 Y 1 X -2 Y 1
 X -3 Y 1 X -1 Y 1 X -1 Y 1 -1 d -2 Y 1 -1 d -2 Y s 1679 530 m 1 X -2 Y 2 X -1 Y 1 -1 d 2 X -1 Y 1 X -2 Y 1 X -1 Y 1 -2 d -1 Y s 1688 519 m 1 X -1 Y 1 -1 d -1 Y 1 X -2 Y 1 X -2 Y 2 X -2 Y 1 -1 d -4 Y 1 X -1 Y 1 X -1 Y s 1697 503 m 1 X -2 Y 1 X -1 Y 1
 X -1 Y 1 -1 d 1 -1 d -2 Y 1 X -1 Y 1 -1 d -1 Y 1 X -1 Y 1 X -1 Y s 1706 490 m -1 Y 1 X -1 Y 1 X -1 Y 1 X -2 Y 2 X -1 Y 1 X -1 Y 1 X -1 Y 1 X -2 Y 1 X s 1715 480 m -2 Y 3 X -2 Y 2 X -3 Y 1 X -1 Y 1 X -2 Y 1 -1 d -2 Y s 1723 467 m 1 X -2 Y 2 X -1 Y 1
 -1 d 1 X -2 Y 1 X -2 Y 1 X -1 Y 1 X -2 Y 1 -3 d -2 Y s 1732 451 m 3 X 1 -1 d 1 -1 d 1 X -3 Y 1 X -2 Y 1 X -3 Y 1 X s 1741 441 m 1 X -1 Y 1 -1 d 1 Y -1 Y 1 X 1 -1 d -1 Y 1 Y 1 X -1 Y 1 -1 d -1 Y 1 X -2 Y 1 X -1 Y 1 X 1 Y -1 Y s 1750 432 m 2 X -1 Y 1
 -1 d 2 X -3 Y 1 X -2 Y 1 X -1 Y 1 X -3 Y 1 X s 1759 421 m -2 Y 1 X -2 Y 2 X -2 Y 1 X -3 Y 1 X 1 -2 d -1 Y 1 -1 d -1 Y 1 -1 d -1 Y s 1767 405 m 1 -1 d -2 Y 1 X -1 Y 2 X -1 Y 1 -1 d -1 Y 1 X -1 Y 1 X -1 Y 1 X -1 Y 1 X s 1776 395 m 1 X -2 Y 2 X -2 Y 4
 X 1 -2 d -1 Y 1 X -1 Y s 1785 387 m -1 Y 2 X -1 Y 1 -1 d -2 Y 1 -1 d -2 Y 1 X -2 Y 1 X 1 -1 d 1 X -3 Y 1 -1 d s 1794 372 m 1 X -1 Y 1 X -1 Y 1 X 1 -2 d 2 X -1 Y 1 X -2 Y 1 X 1 -1 d s 1803 364 m -1 Y 1 X -1 Y 1 X -5 Y 2 X -1 Y 1 X -1 Y 2 X -1 Y 2 X s
 1812 354 m -1 Y 1 X 1 -2 d 1 -2 d 1 X -3 Y 1 X -1 Y 1 X -1 Y 1 1 d -4 Y 1 X s 1820 341 m 3 X -1 Y 1 X -2 Y 4 X -1 Y 1 X s 1829 337 m 1 X -3 Y 3 X -1 Y 1 Y 5 X -1 Y s 1838 333 m 2 X -2 Y 1 X -2 Y 2 X -2 Y 1 X 1 -1 d -2 Y 1 X -1 Y 1 X s 1847 323 m 3 X
 -2 Y 1 X 1 -1 d -2 Y 4 X s 1856 318 m -3 Y 1 X -2 Y 3 X -1 Y 2 X -4 Y 1 X 1 -2 d -1 Y s 1864 305 m 1 -2 d 3 X -2 Y 2 X -2 Y 3 X s 1873 299 m 2 X -2 Y 1 X -2 Y 2 X 1 -2 d 3 X s 1882 293 m 5 X -2 Y 2 X -2 Y 1 X -2 Y 1 -2 d s 1891 285 m 1 X -2 Y 8 X s
 1900 283 m -3 Y 2 X -2 Y 2 X -2 Y 3 X -3 Y 1 X -2 Y s 1908 271 m 1 X -6 Y 8 X s 1917 265 m 3 X -3 Y 4 X -3 Y 1 X -3 Y 1 X s 1926 256 m 3 X 1 -4 d 1 X 1 -3 d 3 X s 1935 249 m 9 X s 1944 249 m 3 Y 8 X s 1952 252 m 9 X s 1961 252 m 1 X -4 Y 6 X -4 Y 2
 X s 1970 244 m 2 X -4 Y 7 X s 1979 240 m 8 X -6 Y 1 X s 1988 234 m 5 X -6 Y 3 X s 1996 228 m 9 X s 2005 228 m 9 X s 2014 228 m 9 X s 2023 228 m 9 X s 2032 228 m 7 X -8 Y 1 X s 2040 220 m 1 X s black 3 lw 245 201 m 1796 X s 258 241 m -40 Y s 309 221
 m -20 Y s 361 221 m -20 Y s 413 221 m -20 Y s 465 241 m -40 Y s 517 221 m -20 Y s 569 221 m -20 Y s 621 221 m -20 Y s 672 241 m -40 Y s 724 221 m -20 Y s 776 221 m -20 Y s 828 221 m -20 Y s 880 241 m -40 Y s 932 221 m -20 Y s 984 221 m -20 Y s 1035
 221 m -20 Y s 1087 241 m -40 Y s 1139 221 m -20 Y s 1191 221 m -20 Y s 1243 221 m -20 Y s 1295 241 m -40 Y s 1346 221 m -20 Y s 1398 221 m -20 Y s 1450 221 m -20 Y s 1502 241 m -40 Y s 1554 221 m -20 Y s 1606 221 m -20 Y s 1658 221 m -20 Y s 1709
 241 m -40 Y s 1761 221 m -20 Y s 1813 221 m -20 Y s 1865 221 m -20 Y s 1917 241 m -40 Y s 258 241 m -40 Y s 1917 241 m -40 Y s 1969 221 m -20 Y s 2021 221 m -20 Y s 245 201 m 1140 Y s 291 201 m -46 X s 268 253 m -23 X s 268 305 m -23 X s 268 357 m
 -23 X s 291 408 m -46 X s 268 460 m -23 X s 268 512 m -23 X s 268 564 m -23 X s 291 616 m -46 X s 268 667 m -23 X s 268 719 m -23 X s 268 771 m -23 X s 291 823 m -46 X s 268 875 m -23 X s 268 926 m -23 X s 268 978 m -23 X s 291 1030 m -46 X s 268
 1082 m -23 X s 268 1134 m -23 X s 268 1185 m -23 X s 291 1237 m -46 X s 291 1237 m -46 X s 268 1289 m -23 X s 268 1341 m -23 X s 0.490196 0.545098 0.615686 c 1 1 1 c 0.490196 0.545098 0.615686 c 907 201 245 1341 bl 245 1341 m 907 X s 1152 1341 m 201
 Y s 1152 1542 m -907 X s 245 1542 m -201 Y s black
 gsave  2268 1676 0 0 C 515.735 1471.36 t 0 r /Helvetica-Bold findfont 56.8825 sf 0 0 m (Signal efficiency) show NC gr  0 0 0.933333 c 9 lw 286 1492 m 190 X s black
 gsave  2268 1676 0 0 C 515.735 1368.97 t 0 r /Helvetica-Bold findfont 56.8825 sf 0 0 m (Background efficiency) show NC gr  1 0 0 c 286 1391 m 190 X s 0.490196 0.545098 0.615686 c 3 lw 1 1 1 c 0.490196 0.545098 0.615686 c 889 201 1152 1341 bl 1152
 1341 m 889 X s 2041 1341 m 201 Y s 2041 1542 m -889 X s 1152 1542 m -201 Y s black
 gsave  2268 1676 0 0 C 1418.27 1494.11 t 0 r /Helvetica-Bold findfont 56.8825 sf 0 0 m (Signal purity) show NC gr  0 0 0.933333 c[  52 12 ] 0 sd 6 lw 1192 1509 m 187 X s black
 gsave  2268 1676 0 0 C 1418.27 1429.65 t 0 r /Helvetica-Bold findfont 56.8825 sf 0 0 m (Signal efficiency*purity) show NC gr  0 0 0.933333 c[  22 12 ] 0 sd 1192 1441 m 187 X s black
 gsave  2268 1676 0 0 C 1501.7 1361.39 t 0 r /Helvetica-Bold findfont 56.8825 sf 0 0 m (S+B) show NC gr [  ] 0 sd 1483 1407 m 7 -49 d s 3 lw 1490 1358 m 8 64 d s 1498 1422 m 114 X s
 gsave  2268 1676 0 0 C 1418.27 1361.39 t 0 r /Helvetica-Bold findfont 56.8825 sf 0 0 m (S/) show NC gr  0 0.666667 0 c 9 lw 1192 1374 m 187 X s black 3 lw 245 1237 m 1796 X s
 gsave  2268 1676 0 0 C 337.503 386.801 t 0 r /Helvetica-Bold findfont 53.0904 sf 0 0 m (For 1000 signal and 1000 background) show NC gr 
 gsave  2268 1676 0 0 C 1058.01 318.542 t 0 r /Helvetica-Bold findfont 53.0904 sf 0 0 m ( is) show NC gr 
 gsave  2268 1676 0 0 C 955.626 318.542 t 0 r /Helvetica-Bold findfont 53.0904 sf 0 0 m (S+B) show NC gr  6 lw 933 360 m 7 -45 d s 3 lw 940 315 m 8 60 d s 948 375 m 110 X s
 gsave  2268 1676 0 0 C 337.503 318.542 t 0 r /Helvetica-Bold findfont 53.0904 sf 0 0 m (events the maximum S/) show NC gr 
 gsave  2268 1676 0 0 C 337.503 254.075 t 0 r /Helvetica-Bold findfont 53.0904 sf 0 0 m (24.12 when cutting at \2550.21) show NC gr  0.490196 0.545098 0.615686 c 0.364706 0.419608 0.490196 c 1471 96 23 1572 bf 0.490196 0.545098 0.615686 c 23 1572 m
 1471 X s 1494 1572 m 96 Y s 1494 1668 m -1471 X s 23 1668 m -96 Y s 1 1 1 c black 1 1 1 c
 gsave  2268 1676 0 0 C 75.8434 1600.29 t 0 r /Helvetica-Bold findfont 75.8434 sf 0 0 m (Cut efficiencies and optimal cut value) show NC gr  0 0.666667 0 c 2041 201 m 1140 Y s 1995 201 m 46 X s 2018 244 m 23 X s 2018 287 m 23 X s 2018 330 m 23 X s
 2018 373 m 23 X s 1995 416 m 46 X s 2018 459 m 23 X s 2018 502 m 23 X s 2018 545 m 23 X s 2018 588 m 23 X s 1995 631 m 46 X s 2018 674 m 23 X s 2018 717 m 23 X s 2018 760 m 23 X s 2018 803 m 23 X s 1995 846 m 46 X s 2018 889 m 23 X s 2018 932 m 23 X
 s 2018 974 m 23 X s 2018 1017 m 23 X s 1995 1060 m 46 X s 2018 1103 m 23 X s 2018 1146 m 23 X s 2018 1189 m 23 X s 2018 1232 m 23 X s 1995 1275 m 46 X s 1995 1275 m 46 X s 2018 1318 m 23 X s black 0 0.666667 0 c
 gsave  2268 1676 0 0 C 2051.56 178.232 t 0 r /Helvetica-Bold findfont 64.4669 sf 0 0 m (0) show NC gr  black 0 0.666667 0 c
 gsave  2268 1676 0 0 C 2051.56 390.593 t 0 r /Helvetica-Bold findfont 64.4669 sf 0 0 m (5) show NC gr  black 0 0.666667 0 c
 gsave  2268 1676 0 0 C 2051.56 606.747 t 0 r /Helvetica-Bold findfont 64.4669 sf 0 0 m (10) show NC gr  black 0 0.666667 0 c
 gsave  2268 1676 0 0 C 2051.56 819.108 t 0 r /Helvetica-Bold findfont 64.4669 sf 0 0 m (15) show NC gr  black 0 0.666667 0 c
 gsave  2268 1676 0 0 C 2051.56 1035.26 t 0 r /Helvetica-Bold findfont 64.4669 sf 0 0 m (20) show NC gr  black 0 0.666667 0 c
 gsave  2268 1676 0 0 C 2051.56 1251.42 t 0 r /Helvetica-Bold findfont 64.4669 sf 0 0 m (25) show NC gr  black 0 0.666667 0 c
 gsave  2268 1676 0 0 C 2203.25 963.211 t 90 r /Helvetica-Bold findfont 64.4669 sf 0 0 m (Significance) show NC gr 
 gr  gr showpage
end
%%EOF
