%!PS-Adobe-2.0 EPSF-2.0
%%BoundingBox:  0 0 567 419
%%Title: dataset/plots/mvaeffs_MLP.eps: Cut efficiencies for MLP classifier
%%Creator: ROOT Version 6.12/06
%%CreationDate: Mon May 21 12:04:06 2018
%%DocumentNeededResources: ProcSet (FontSetInit)
%%EndComments
%%BeginProlog
80 dict begin
/s {stroke} def /l {lineto} def /m {moveto} def /t {translate} def
/r {rotate} def /rl {roll}  def /R {repeat} def
/d {rlineto} def /rm {rmoveto} def /gr {grestore} def /f {eofill} def
/c {setrgbcolor} def /black {0 setgray} def /sd {setdash} def
/cl {closepath} def /sf {scalefont setfont} def /lw {setlinewidth} def
/box {m dup 0 exch d exch 0 d 0 exch neg d cl} def
/NC{systemdict begin initclip end}def/C{NC box clip newpath}def
/bl {box s} def /bf {gsave box gsave f grestore 1 lw [] 0 sd s grestore} def /Y { 0 exch d} def /X { 0 d} def 
/K {{pop pop 0 moveto} exch kshow} bind def
/ita {/ang 15 def gsave [1 0 ang dup sin exch cos div 1 0 0] concat} def 
/mp {newpath /y exch def /x exch def} def
/side {[w .77 mul w .23 mul] .385 w mul sd w 0 l currentpoint t -144 r} def
/mr {mp x y w2 0 360 arc} def /m24 {mr s} def /m20 {mr f} def
/mb {mp x y w2 add m w2 neg 0 d 0 w neg d w 0 d 0 w d cl} def
/mt {mp x y w2 add m w2 neg w neg d w 0 d cl} def
/w4 {w 4 div} def
/w6 {w 6 div} def
/w8 {w 8 div} def
/m21 {mb f} def /m25 {mb s} def /m22 {mt f} def /m26{mt s} def
/m23 {mp x y w2 sub m w2 w d w neg 0 d cl f} def
/m27 {mp x y w2 add m w3 neg w2 neg d w3 w2 neg d w3 w2 d cl s} def
/m28 {mp x w2 sub y w2 sub w3 add m w3 0 d  0 w3 neg d w3 0 d 0 w3 d w3 0 d  0 w3 d w3 neg 0 d 0 w3 d w3 neg 0 d 0 w3 neg d w3 neg 0 d cl s } def
/m29 {mp gsave x w2 sub y w2 add w3 sub m currentpoint t 4 {side} repeat cl fill gr} def
/m30 {mp gsave x w2 sub y w2 add w3 sub m currentpoint t 4 {side} repeat cl s gr} def
/m31 {mp x y w2 sub m 0 w d x w2 sub y m w 0 d x w2 sub y w2 add m w w neg d x w2 sub y w2 sub m w w d s} def
/m32 {mp x y w2 sub m w2 w d w neg 0 d cl s} def
/m33 {mp x y w2 add m w3 neg w2 neg d w3 w2 neg d w3 w2 d cl f} def
/m34 {mp x w2 sub y w2 sub w3 add m w3 0 d  0 w3 neg d w3 0 d 0 w3 d w3 0 d  0 w3 d w3 neg 0 d 0 w3 d w3 neg 0 d 0 w3 neg d w3 neg 0 d cl f } def
/m35 {mp x y w2 add m w2 neg w2 neg d w2 w2 neg d w2 w2 d w2 neg w2 d x y w2 sub m 0 w d x w2 sub y m w 0 d s} def
/m36 {mb x w2 sub y w2 add m w w neg d x w2 sub y w2 sub m w w d s} def
/m37 {mp x y m w4 neg w2 d w4 neg w2 neg d w2 0 d  w4 neg w2 neg d w2 0 d w4 neg w2 d w2 0 d w4 neg w2 d w4 neg w2 neg d cl s} def
/m38 {mp x w4 sub y w2 add m w4 neg w4 neg d 0 w2 neg d w4 w4 neg d w2 0 d w4 w4 d 0 w2 d w4 neg w4 d w2 neg 0 d x y w2 sub m 0 w d x w2 sub y m w 0 d cl s} def
/m39 {mp x y m w4 neg w2 d w4 neg w2 neg d w2 0 d  w4 neg w2 neg d w2 0 d w4 neg w2 d w2 0 d w4 neg w2 d w4 neg w2 neg d cl f} def
/m40 {mp x y m w4 w2 d w4 w4 neg d w2 neg w4 neg d w2 w4 neg d w4 neg w4 neg d w4 neg w2 d w4 neg w2 neg d w4 neg w4 d w2 w4 d w2 neg w4 d w4 w4 d w4 w2 neg d cl s} def
/m41 {mp x y m w4 w2 d w4 w4 neg d w2 neg w4 neg d w2 w4 neg d w4 neg w4 neg d w4 neg w2 d w4 neg w2 neg d w4 neg w4 d w2 w4 d w2 neg w4 d w4 w4 d w4 w2 neg d cl f} def
/m42 {mp x y w2 add m w8 neg w2 -3 4 div mul d w2 -3 4 div mul w8 neg d w2 3 4 div mul w8 neg d w8 w2 -3 4 div mul d w8 w2 3 4 div mul d w2 3 4 div mul w8 d w2 -3 4 div mul w8 d w8 neg w2 3 4 div mul d cl s} def
/m43 {mp x y w2 add m w8 neg w2 -3 4 div mul d w2 -3 4 div mul w8 neg d w2 3 4 div mul w8 neg d w8 w2 -3 4 div mul d w8 w2 3 4 div mul d w2 3 4 div mul w8 d w2 -3 4 div mul w8 d w8 neg w2 3 4 div mul d cl f} def
/m44 {mp x y m w6 neg w2 d w2 2 3 div mul 0 d w6 neg w2 neg d w2 w6 d 0 w2 -2 3 div mul d w2 neg w6 d w6 w2 neg d w2 -2 3 div mul 0 d w6 w2 d w2 neg w6 neg d 0 w2 2 3 div mul d w2 w6 neg d cl s} def
/m45 {mp x y m w6 neg w2 d w2 2 3 div mul 0 d w6 neg w2 neg d w2 w6 d 0 w2 -2 3 div mul d w2 neg w6 d w6 w2 neg d w2 -2 3 div mul 0 d w6 w2 d w2 neg w6 neg d 0 w2 2 3 div mul d w2 w6 neg d cl f} def
/m46 {mp x y w4 add m w4 neg w4 d w4 neg w4 neg d  w4 w4 neg d w4 neg w4 neg d w4 w4 neg d w4 w4 d w4 w4 neg d w4 w4 d w4 neg w4 d w4 w4 d w4 neg w4 d w4 neg w4 neg d cl s} def
/m47 {mp x y w4 add m w4 neg w4 d w4 neg w4 neg d w4 w4 neg d w4 neg w4 neg d  w4 w4 neg d w4 w4 d w4 w4 neg d w4 w4 d w4 neg w4 d w4 w4 d w4 neg w4 d w4 neg w4 neg d cl f} def
/m48 {mp x y w4 add m w4 neg w4 d w4 neg w4 neg d w4 w4 neg d  w4 neg w4 neg d w4 w4 neg d w4 w4 d w4 w4 neg d w4 w4 d w4 neg w4 d w4 w4 d w4 neg w4 d w4 neg w4 neg d  w4 w4 neg d w4 neg w4 neg d w4 neg w4 d w4 w4 d cl f} def
/m49 {mp x w2 sub w3 add y w2 sub w3 add m  0 w3 neg d w3 0 d 0 w3 d w3 0 d 0 w3 d w3 neg 0 d 0 w3 d w3 neg 0 d 0 w3 neg d w3 neg 0 d 0 w3 neg d w3 0 d 0 w3 d w3 0 d 0 w3 neg d w3 neg 0 d cl f } def
/m2 {mp x y w2 sub m 0 w d x w2 sub y m w 0 d s} def
/m5 {mp x w2 sub y w2 sub m w w d x w2 sub y w2 add m w w neg d s} def
%%IncludeResource: ProcSet (FontSetInit)
%%IncludeResource: font Times-Roman
%%IncludeResource: font Times-Italic
%%IncludeResource: font Times-Bold
%%IncludeResource: font Times-BoldItalic
%%IncludeResource: font Helvetica
%%IncludeResource: font Helvetica-Oblique
%%IncludeResource: font Helvetica-Bold
%%IncludeResource: font Helvetica-BoldOblique
%%IncludeResource: font Courier
%%IncludeResource: font Courier-Oblique
%%IncludeResource: font Courier-Bold
%%IncludeResource: font Courier-BoldOblique
%%IncludeResource: font Symbol
%%IncludeResource: font ZapfDingbats
/reEncode {exch findfont dup length dict begin {1 index /FID eq  {pop pop} {def} ifelse } forall /Encoding exch def currentdict end dup /FontName get exch definefont pop } def [/Times-Bold /Times-Italic /Times-BoldItalic /Helvetica /Helvetica-Oblique
 /Helvetica-Bold /Helvetica-BoldOblique /Courier /Courier-Oblique /Courier-Bold /Courier-BoldOblique /Times-Roman /AvantGarde-Book /AvantGarde-BookOblique /AvantGarde-Demi /AvantGarde-DemiOblique /Bookman-Demi /Bookman-DemiItalic /Bookman-Light
 /Bookman-LightItalic /Helvetica-Narrow /Helvetica-Narrow-Bold /Helvetica-Narrow-BoldOblique /Helvetica-Narrow-Oblique /NewCenturySchlbk-Roman /NewCenturySchlbk-Bold /NewCenturySchlbk-BoldItalic /NewCenturySchlbk-Italic /Palatino-Bold
 /Palatino-BoldItalic /Palatino-Italic /Palatino-Roman ] {ISOLatin1Encoding reEncode } forall
%%EndProlog
%%BeginSetup
%%EndSetup
newpath  gsave  .25 .25 scale  gsave  0 0 t 0.490196 0.545098 0.615686 c[  ] 0 sd 3 lw 0.941176 0.941176 0.941176 c 2268 1676 0 0 bf black 1 1 0.992157 c 1796 1140 245 201 bf black 1796 1140 245 201 bl 1 1 0.992157 c 1796 1140 245 201 bf black 1796
 1140 245 201 bl 245 201 m 1796 X s[ 4 8] 0 sd 424 1341 m -1140 Y s 604 1341 m -1140 Y s 784 1341 m -1140 Y s 963 1341 m -1140 Y s 1143 1341 m -1140 Y s 1322 1341 m -1140 Y s 1502 1341 m -1140 Y s 1682 1341 m -1140 Y s 1861 1341 m -1140 Y s 2041 1341
 m -1140 Y s 424 1341 m -1140 Y s 2041 1341 m -1140 Y s[  ] 0 sd 245 201 m 1140 Y s[ 4 8] 0 sd 2041 372 m -1796 X s 2041 587 m -1796 X s 2041 803 m -1796 X s 2041 1018 m -1796 X s 2041 1233 m -1796 X s 2041 372 m -1796 X s 2041 1233 m -1796 X s 0 0
 0.933333 c[  22 12 ] 0 sd 6 lw 0.49 0.6 0.82 c black 0 0 0.933333 c 245 695 m 1 Y 1 1 d 2 Y 1 1 d 2 Y 1 1 d 3 Y 1 X 3 Y 1 1 d 4 Y 1 1 d 4 Y 1 X 3 Y 1 1 d 5 Y 1 1 d s 254 729 m 4 Y 1 1 d 5 Y 1 1 d 5 Y 1 X 3 Y 1 1 d 5 Y 1 X 3 Y 1 1 d 4 Y 1 1 d 3 Y 1 X
 3 Y 1 1 d s 263 770 m 2 Y 1 1 d 2 Y 1 1 d 3 Y 1 X 2 Y 1 1 d 1 Y 1 1 d 1 Y 1 1 d 1 Y 1 1 d 1 Y 1 X 2 Y s 271 791 m 1 X 1 Y 1 1 d 1 Y 1 1 d 1 Y 1 X 1 Y 1 1 d 1 Y 1 X 1 Y 1 X 1 Y 1 X 2 Y 1 X s 280 803 m 1 Y 1 X 1 Y 1 X 1 Y 1 X 1 Y 1 X 1 Y 1 X 1 Y 1 X 1
 Y 1 1 d 1 X 1 1 d s 289 812 m 1 Y 2 X 1 Y 1 X 1 Y 2 X 1 Y 1 X 1 Y 2 X 1 Y 1 X s 298 818 m 1 1 d 1 1 d 2 X 1 Y 1 X 1 1 d -1 Y 1 Y 1 X 1 Y 2 X s 307 823 m 1 Y 2 X 1 1 d 3 X 1 Y 2 X s 315 826 m 1 X 1 Y -1 Y 1 X 1 Y 3 X 1 Y 2 X 1 Y 2 X s 324 829 m 1 1 d
 4 X 1 Y 4 X s 333 831 m 4 X 1 Y 3 X 1 Y 2 X s 342 833 m 4 X 1 Y 5 X s 351 834 m 1 Y 5 X 1 Y 1 X -1 Y 2 X 1 Y s 359 836 m 7 X 1 1 d 1 X s 368 837 m 4 X 1 Y 5 X s 377 838 m 9 X s 386 838 m 1 X 1 Y 7 X 1 Y 1 X s 395 840 m 1 -1 d 6 X 1 Y 1 X s 403 840 m
 9 X s 412 840 m 4 X 1 Y 5 X s 421 841 m 6 X 1 Y 3 X s 430 842 m 9 X s 439 842 m 3 X 1 1 d 4 X s 447 843 m 9 X s 456 843 m 7 X 1 Y 2 X s 465 844 m 9 X s 474 844 m 5 X 1 Y 4 X s 483 845 m 3 X 1 1 d -1 Y 1 Y 4 X s 491 846 m 9 X s 500 846 m 7 X 1 1 d 1
 X s 509 847 m 9 X s 518 847 m 9 X s 527 847 m 3 X 1 Y 5 X s 535 848 m 5 X 1 Y 1 -1 d 1 Y 2 X 1 Y 1 -1 d 1 Y s 544 850 m 1 X 1 Y 1 X 1 Y 2 X 1 Y -1 Y 1 Y 2 X 1 Y 2 X 1 Y -1 Y 1 Y 1 X s 553 855 m -1 Y 1 X 1 Y 1 X 1 Y 2 X 1 Y 2 X 1 Y 1 X -1 Y 1 X 2 Y 1
 X s 562 859 m 2 X 1 Y 1 X 1 Y 4 X 1 Y 1 X 1 Y 1 X s 571 863 m 1 X 1 Y 1 X 1 Y -1 Y 1 Y 1 X -1 Y 1 Y 2 X 1 Y 1 1 d 2 X 1 Y s 579 868 m 1 X 1 Y -1 Y 1 Y 1 X 1 1 d 1 X 1 1 d -1 Y 1 1 d 2 X 1 Y 1 X s 588 872 m 1 X 1 Y 1 X 1 Y 4 X 1 Y 1 X -1 Y 1 Y -1 Y 1
 1 d 1 X 1 Y s 597 876 m 5 X 1 Y 3 X 1 Y 1 X s 606 878 m 1 X 1 Y -1 Y 1 Y 2 X 1 Y 3 X 1 Y 3 X s 615 881 m 1 1 d 3 X 1 Y 2 X 1 Y -1 Y 1 Y 2 X 1 Y s 623 885 m 6 X 1 Y 2 X 1 Y -1 Y 1 X 1 Y s 632 887 m 1 X 1 1 d -1 Y 3 X 1 Y 3 X -1 Y 1 Y 1 -1 d 1 Y s 641
 888 m 1 X 1 Y 2 X -1 Y 1 Y 3 X 1 Y -1 Y 2 X 1 1 d s 650 890 m 2 X 1 Y 2 X 1 Y -1 Y 1 Y 1 -1 d 1 Y 3 X 1 Y 1 X s 659 893 m 1 Y 1 X -1 Y 1 Y 1 X -1 Y 1 Y -1 Y 3 X 1 Y 3 X 1 Y s 667 895 m 2 X 1 Y 1 X -1 Y 1 Y 2 X 1 Y 3 X 1 Y 1 -1 d s 676 897 m 1 X 1 Y
 3 X 1 Y 1 X -1 Y 1 Y 2 X 1 Y 1 X 1 1 d s 685 901 m 1 X 1 Y -1 Y 1 Y 2 X 1 Y 1 X -1 Y 1 1 d 2 X 1 Y 1 X 1 1 d -1 Y s 694 904 m 7 X 1 Y 2 X s 703 905 m 1 X 1 Y -1 Y 1 X 1 Y 2 X 1 Y 1 X 1 Y 1 X 1 Y -1 Y 2 X 1 Y s 711 909 m 1 X 1 Y 1 X -1 Y 1 X 1 Y 2 X
 1 1 d 1 -1 d 2 X s 720 910 m 1 X 1 Y 1 X -1 Y 3 X 1 -1 d 3 X s 729 909 m 2 X 1 Y 1 X 1 Y 1 X -1 Y 1 1 d -1 Y 1 Y 4 X s 738 911 m 1 X 1 Y 5 X 1 Y 1 X 1 Y 2 X s 747 914 m -1 Y 1 Y 2 X 1 1 d 5 X s 755 915 m 5 X 1 Y 2 X 1 1 d 1 X s 764 917 m 2 X 1 Y 1 X
 -1 Y 1 Y 2 X 1 Y 1 X 1 -1 d 1 Y 2 X s 773 919 m 1 1 d -1 Y 1 X 1 Y -1 Y 1 X 1 Y 1 X 1 Y 1 X -1 Y 1 Y 3 X -1 Y 1 Y -1 Y 1 X s 782 920 m 2 X 1 1 d 3 X 1 Y 2 X -1 Y 1 1 d s 791 922 m -1 Y 1 X 1 Y -1 Y 1 Y 2 X 1 Y 2 X 1 Y -1 Y 1 Y 1 -1 d 1 Y 1 -1 d 1 Y
 1 X s 799 924 m 3 X -1 Y 1 Y 5 X 1 Y 1 -1 d s 808 924 m 1 1 d -1 Y 1 X 1 Y 1 -1 d 3 X 1 Y 3 X s 817 925 m 1 Y 1 X -1 Y 1 Y 8 X s 826 926 m 4 X 1 1 d -1 Y 1 Y 3 X 1 Y 1 X s 835 928 m 1 X 1 Y -1 Y 1 X 1 Y 1 -1 d 1 X 1 Y 1 X 1 -1 d 1 Y 2 X s 843 929 m
 2 X -1 Y 1 X 1 Y -1 Y 1 1 d -1 Y 1 Y 4 X 1 Y 1 X s 852 930 m 2 X 1 Y 1 X -1 Y 1 Y 1 X 1 Y 1 -1 d 1 X 1 Y 1 X -1 Y 2 X s 861 931 m 1 Y -1 Y 3 X 1 Y 2 X 1 Y 2 X -1 Y 1 X 1 Y -1 Y 1 X s 870 932 m 2 X 1 Y 3 X 1 Y 1 -1 d 1 Y 3 X s 879 934 m 1 X 1 Y 3 X
 -1 Y 2 X 1 Y 1 X 1 Y -1 Y 1 1 d s 887 936 m 2 X 1 Y 1 -1 d 2 X 1 Y 2 X -1 Y 1 1 d 1 X -1 Y s 896 936 m 5 X 1 Y -1 Y 2 X -1 Y 2 X 1 Y s 905 936 m 4 X 1 Y 1 X -1 Y 3 X -1 Y 1 Y 1 X s 914 936 m 3 X 1 Y 1 X -1 Y 5 X s 923 936 m 1 -1 d 1 1 d 4 X -1 Y 2 X
 1 Y s 931 936 m 3 X 1 Y 1 X -1 Y 1 Y 1 -1 d 1 X -1 Y 3 X -1 Y s 940 934 m 1 1 d 8 X s 949 935 m 3 X -1 Y 1 X 1 Y 5 X s 958 935 m 5 X 1 Y -1 Y 3 X 1 Y 1 X s 967 936 m 2 X -1 Y 1 X 1 Y 1 X -1 Y 4 X s 975 935 m 1 X -1 Y 1 1 d 4 X -1 Y 2 X 1 Y 1 X s 984
 935 m 9 X s 993 935 m 3 X -1 Y 1 Y -1 Y 1 Y 2 X -1 Y 2 X 1 Y 1 X -1 Y 1 X s 1002 934 m 1 Y 4 X 1 Y 3 X -1 Y 2 X s 1011 935 m 2 X -1 Y 1 X 1 -1 d 1 X 1 Y 1 X -1 Y 2 X -1 Y s 1019 932 m 6 X -1 Y 1 X -1 Y 1 X 1 Y 1 X s 1028 931 m 5 X 1 -1 d 2 X 1 Y 1 X
 s 1037 931 m 3 X -1 Y 4 X 1 Y 2 X s 1046 931 m 4 X 1 Y 5 X s 1055 932 m 7 X -1 Y 1 X 1 Y s 1063 932 m 1 X -1 Y 1 1 d -1 Y 7 X s 1072 931 m 1 -1 d 1 Y 1 -1 d 1 Y 1 X -1 Y 4 X -1 Y 2 X s 1081 929 m 1 -1 d 3 X 1 Y 5 X s 1090 929 m 7 X 1 Y 2 X s 1099
 930 m 3 X -1 Y 5 X -1 Y s 1107 928 m 5 X 1 Y -1 Y 1 X 1 Y -1 Y 1 X 1 Y 2 X -1 Y s 1116 928 m 8 X -1 Y 1 X s 1125 927 m 1 1 d 5 X 1 -1 d 2 X s 1134 927 m 3 X -1 Y 1 Y 1 -1 d 3 X 1 Y 2 X s 1143 927 m -1 Y 1 X 1 Y 1 X 1 -1 d 3 X -1 Y 1 Y 1 -1 d 1 X s
 1151 925 m 1 X 1 -1 d 1 Y 5 X -1 Y 1 1 d 1 -1 d s 1160 924 m 1 X 1 Y 2 X -1 Y 6 X s 1169 924 m -1 Y 1 Y 6 X -1 Y 2 X -1 Y 1 X s 1178 922 m 1 Y 1 X 1 -1 d 7 X s 1187 922 m 1 X -1 Y 3 X 1 Y 1 X -1 Y 1 X 1 Y 1 X -1 Y 1 X 1 Y s 1195 922 m 6 X -1 Y 1 X 1
 1 d 1 X s 1204 922 m 2 X -1 Y 1 X 1 Y 2 X -1 Y 2 X 1 Y 2 X s 1213 922 m 1 X -1 Y 8 X s 1222 921 m 1 X -1 Y 3 X -1 Y 3 X -1 Y 1 X 1 1 d s 1231 919 m 8 X s 1239 919 m 1 X -1 Y 5 X -1 Y 3 X -1 Y s 1248 916 m 1 X -1 Y 2 X 1 -1 d 4 X -1 Y 1 X s 1257 913
 m 1 X 1 -1 d 1 Y 1 X -1 Y 6 X s 1266 912 m 1 -1 d 5 X -1 Y 2 X -1 Y 1 X s 1275 909 m 8 X s 1283 909 m 1 X 1 -1 d 1 Y 1 -1 d 3 X 1 -1 d 1 Y -1 Y 2 X s 1292 907 m 1 1 d -1 Y 1 Y 2 X -1 Y 6 X s 1301 907 m -1 Y 1 X 1 Y 1 X -1 Y 1 X 1 Y -1 Y 2 X 1 Y 1 X
 -1 Y 3 X s 1310 906 m 5 X -1 Y 4 X s 1319 905 m 1 X -1 Y 2 X -1 Y 3 X 1 Y 1 X -1 Y 1 X s 1327 903 m 3 X 1 -1 d 1 Y 2 X -1 Y 2 X 1 -1 d 1 Y -1 Y s 1336 901 m 1 Y 3 X -1 Y 5 X -1 Y 1 X s 1345 900 m 6 X -1 Y 2 X -1 Y 1 X s 1354 898 m 1 Y 3 X -1 Y 1 X 1
 -1 d 2 X 1 -1 d 1 X s 1363 896 m 1 -1 d 1 Y -1 Y 1 X 1 Y 1 X -1 Y 1 X 1 Y 1 X -1 Y 3 X s 1371 895 m 2 X -1 Y 1 1 d 1 X 1 -1 d 2 X 1 Y 1 X -1 Y 1 X -1 Y s 1380 893 m 1 1 d -1 Y 3 X 1 Y 3 X -1 Y 2 X s 1389 893 m 4 X -1 Y 5 X s 1398 892 m -1 Y 5 X -1 Y
 4 X s 1407 890 m 1 X -1 Y 1 X 1 Y 2 X -1 Y 4 X s 1415 889 m 2 X 1 -1 d 4 X -1 Y 2 X s 1424 887 m -1 Y 2 X 1 Y -1 Y 2 X -1 Y 3 X -1 Y 1 Y 2 X s 1433 885 m 1 X -1 Y 1 X 1 Y -1 Y 6 X -1 Y 1 X s 1442 883 m 5 X -1 Y 4 X s 1451 882 m 5 X -1 Y 1 X -1 Y 2 X
 -1 Y s 1459 879 m 7 X -1 Y 2 X s 1468 878 m 2 X 1 -1 d 2 X -1 Y 3 X -1 Y 1 X s 1477 875 m 3 X -1 Y 5 X 1 -1 d s 1486 873 m 3 X -1 Y 2 X -1 Y 1 X -1 Y 2 X -1 Y 1 X s 1495 869 m 1 -1 d 1 X -1 Y 1 1 d 1 X -1 Y 1 X 1 Y -1 Y 1 X -1 Y 1 X 1 Y -1 Y 1 X s
 1503 866 m 4 X 1 -1 d 2 X 1 -1 d 1 X s 1512 864 m 2 X -1 Y 1 X 1 Y 1 -1 d 3 X -1 Y 2 X -1 Y s 1521 861 m 1 Y 1 -1 d 4 X -1 Y 1 -1 d 2 X 1 -1 d s 1530 858 m 5 X -1 Y 1 X 1 Y -1 Y 3 X s 1539 857 m -1 Y 4 X 1 1 d -1 Y 3 X s 1547 856 m 2 X -1 Y 1 X 1 Y
 -1 Y 3 X -1 Y 3 X -1 Y s 1556 853 m 1 Y 1 X -1 Y 1 Y -1 Y 1 X 1 Y 1 X -1 Y 3 X -1 Y 3 X -1 Y s 1565 851 m 2 X -1 Y 1 X -1 Y 1 X 1 -1 d 1 -1 d 1 Y 1 X -1 Y 2 X s 1574 847 m 1 X -1 Y 2 X 1 -1 d 2 X -1 Y 1 X -1 Y 1 X -1 Y 1 X s 1583 842 m 1 X -1 Y 2 X
 -1 Y 1 X -1 Y 1 -1 d 1 X 1 Y -1 Y 1 X -1 Y 1 X s 1591 837 m 2 X -1 Y 2 X -1 Y 3 X -1 Y 1 X 1 1 d -1 Y 1 Y s 1600 835 m 1 X -1 Y 1 -1 d 1 X 1 -1 d 1 Y 1 X 1 -1 d 3 X s 1609 832 m 2 X -1 Y 2 X 1 -1 d 2 X -1 Y 1 X 1 Y -1 Y 1 X -1 Y s 1618 828 m 1 X -1
 Y 1 X -1 Y 2 X -1 Y 1 X -1 Y 1 X 1 Y -1 Y 3 X s 1627 824 m -1 Y 4 X -1 Y 1 X -1 Y 1 X 1 -1 d -1 Y 1 X -1 Y s 1635 818 m 2 X -1 Y 2 X 1 -1 d 1 X -1 Y 1 X -1 Y 2 X s 1644 814 m 5 X -2 Y 2 X -1 Y 2 X s 1653 811 m 1 -1 d 1 Y 1 X 1 -1 d 1 X -1 Y 1 -1 d 1
 Y -1 Y 1 X -1 Y 3 X s 1662 807 m 1 X -1 Y 1 X 1 -1 d -1 Y 4 X -1 Y 2 X s 1671 803 m -1 Y 1 X -1 Y 2 X -1 Y 1 X -1 Y 1 X -1 Y 1 X -1 Y 2 X -1 Y s 1679 796 m 1 X 1 -1 d 1 X -1 Y 1 X -1 Y 2 X -1 Y 1 X 1 -1 d -2 Y 1 X s 1688 789 m 2 X -1 Y 2 X -1 Y 2 X
 -2 Y 1 X -1 Y 1 X -1 Y 1 X -1 Y s 1697 782 m 1 X -1 Y 1 1 d -1 Y 2 X -1 Y 2 X -1 Y 1 -1 d -1 Y 1 X 1 Y -1 Y 1 X s 1706 777 m -1 Y 1 Y 1 X -1 Y 1 X -1 Y 2 X -1 Y 1 X -1 Y 1 X 1 -1 d -1 Y 1 X -1 Y 1 Y -1 Y 1 X s 1715 770 m -1 Y 1 X -1 Y 1 X -1 Y 1 X
 -1 Y 2 X -2 Y 1 -1 d 1 Y 1 -1 d -1 Y 1 X -1 Y s 1723 761 m 1 X -2 Y 2 X -1 Y 1 Y -2 Y 1 X -3 Y 1 X -1 Y 1 -1 d 1 -1 d -1 Y 1 X -1 Y 1 X -2 Y s 1732 747 m 1 X -1 Y 1 X -1 Y 1 -1 d -1 Y 1 X -2 Y 2 X -1 Y 1 -1 d -1 Y 1 X -1 Y 1 X s 1741 737 m 1 X 1 -1
 d -1 Y 1 Y 1 X -1 Y 1 X -2 Y 1 X -1 Y 1 X -2 Y 1 X -1 Y 1 X -1 Y 1 X s 1750 728 m 1 -1 d -1 Y 1 -1 d 1 Y -1 Y 2 X -1 Y 1 X -1 Y 1 X -1 Y 1 X -2 Y 1 X -1 Y 1 X s 1759 719 m -1 Y 1 X 1 Y -1 Y 1 X -1 Y 2 X 1 -1 d 1 X -1 Y 1 X 1 Y -1 Y 1 X s 1767 715 m
 1 X -1 Y 1 X 1 -1 d 1 X -1 Y 1 X -1 Y 1 X -1 Y 1 X -1 Y 1 X -1 Y 1 X -1 Y s 1776 707 m 1 X -1 Y 2 X -1 Y 1 X -1 Y 1 X -1 Y 1 X 1 Y 1 X -1 Y 1 X -1 Y 1 X -1 Y s 1785 701 m 1 Y 1 X -1 Y 1 X -1 Y 2 X -1 Y 2 X -1 Y 1 X -1 Y 1 X -1 Y 1 X s 1794 696 m 2 X
 -1 Y 1 1 d -2 Y 2 X -1 Y 1 X -2 Y 2 X -1 Y 1 X s 1803 690 m 1 X -1 Y 1 X -1 Y 1 Y 1 X -1 Y 1 X -1 Y 2 X -1 Y 2 X -1 Y 1 Y 1 -1 d s 1812 685 m -1 Y 2 X -1 Y 3 X 1 -1 d 1 X -1 Y 1 X -1 Y 1 Y s 1820 681 m -1 Y 2 X -1 Y 1 X -1 Y 1 X -2 Y 2 X -1 Y 1 X -1
 Y 1 -1 d 1 -1 d 1 Y -1 Y s 1829 672 m 1 X -1 Y 1 -1 d -1 Y 2 X -2 Y 1 X -1 Y 2 X -1 Y 2 X s 1838 665 m -1 Y 2 X -1 Y 1 -1 d -1 Y 2 X -1 Y 2 X -1 Y 1 X -1 Y 1 X s 1847 658 m 1 X -2 Y 1 X -1 Y 2 X -1 Y 1 X -1 Y 1 X -1 Y 1 X -1 Y 2 X s 1856 651 m -1 Y
 1 X -1 Y 1 X -1 Y 1 X 1 -1 d 1 -1 d 1 X -1 Y 2 X -1 Y s 1864 644 m 1 X -1 Y 1 X -1 Y 2 X 1 -1 d 1 X -1 Y 1 X -1 Y 1 X -1 Y 1 X s 1873 638 m 1 X -1 Y 1 X 1 -1 d -1 Y 1 X -1 Y 1 X -1 Y 1 -1 d 1 X -1 Y 2 X -1 Y s 1882 630 m -1 Y 1 X -1 Y 1 X -1 Y 1 X
 -1 Y 1 -1 d -1 Y 1 X -1 Y 1 -1 d 1 X -1 Y 1 X 1 -1 d s 1891 620 m 1 -1 d 1 -1 d 1 X -2 Y 1 X -1 Y 1 -1 d 1 Y 1 X -1 Y 1 1 d -1 Y 1 X -1 Y 1 X s 1900 613 m -1 Y 1 X -1 Y 1 -1 d 1 Y -1 Y 3 X -2 Y 1 X -1 Y 1 X -1 Y 1 X -1 Y s 1908 605 m 1 1 d -1 Y 1 Y
 1 -1 d 2 X -1 Y 1 -1 d 1 X -1 Y 2 X -1 Y 1 X -1 Y s 1917 600 m 1 -1 d 1 -1 d -1 Y 1 X -1 Y 1 X 1 -1 d -1 Y 2 X -1 Y 1 X -1 Y 1 X s 1926 592 m 1 X -1 Y 1 X -2 Y 1 X 1 -1 d 1 X -1 Y 1 X -1 Y 1 -1 d -1 Y 1 X -1 Y 1 X s 1935 583 m 1 X -1 Y 1 -1 d 1 Y -1
 Y 1 X 1 -1 d -1 Y 2 X -1 Y 1 X -1 Y 1 X -1 Y 1 Y 1 -1 d s 1944 576 m -1 Y 1 X -1 Y 1 X -1 Y 1 X -1 Y 1 -1 d 1 X -1 Y 1 -1 d -1 Y 2 X -1 Y s 1952 567 m 1 -1 d -1 Y 1 X -1 Y 2 X -2 Y 1 X -1 Y 1 X -2 Y 1 X -1 Y 1 X -2 Y 1 X s 1961 556 m -1 Y 1 X -1 Y 1
 -1 d -2 Y 2 X -1 Y 1 X -1 Y 1 X -1 Y 1 X -2 Y 1 X 1 -1 d s 1970 545 m -1 Y 1 X -1 Y 1 -1 d 1 -1 d -1 Y 1 X -1 Y 1 X -1 Y 1 X -1 Y 1 X -2 Y 1 -1 d -1 Y 1 X s 1979 533 m -1 Y 1 -1 d -1 Y 1 X -1 Y 1 X -1 Y 1 X -1 Y 1 -2 d 1 Y 1 X -1 Y 1 X -1 Y 1 -1 d
 -1 Y 1 X s 1988 522 m -1 Y 1 X -3 Y 1 -1 d 1 X -1 Y 1 X -1 Y 1 X -1 Y 1 -1 d -1 Y 1 X -1 Y 1 X -1 Y s 1996 510 m 1 -1 d -1 Y 1 X -2 Y 1 -1 d 1 X -2 Y 1 -1 d -1 Y 1 X -1 Y 1 X -1 Y 1 -1 d -2 Y 1 X -1 Y s 2005 495 m 1 -1 d 1 -1 d -1 Y 1 X -2 Y 1 X -2
 Y 1 X -1 Y 1 X -2 Y 1 -1 d -2 Y 1 -1 d -1 Y 1 X -2 Y s 2014 478 m -1 Y 1 -1 d -2 Y 1 -2 d -1 Y 1 X -2 Y 1 X -1 Y 1 X -3 Y 1 X -2 Y 1 X -4 Y 1 -1 d -1 Y 1 X -1 Y s 2023 456 m -2 Y 1 -1 d -2 Y 1 -1 d -2 Y 1 -1 d -3 Y 1 X -1 Y 1 -2 d -1 Y 1 X -3 Y 1 -1
 d -4 Y 1 -1 d -3 Y 1 -1 d s 2032 427 m -3 Y 1 -2 d -6 Y 1 -1 d -5 Y 1 -2 d -5 Y 1 -2 d -7 Y 1 -1 d -9 Y 1 -1 d -8 Y 1 -3 d -17 Y 1 -5 d -27 Y s 2040 323 m -18 Y 1 -20 d -30 Y s black[  ] 0 sd 3 lw 245 201 m 1796 X s 424 241 m -40 Y s 460 221 m -20 Y
 s 496 221 m -20 Y s 532 221 m -20 Y s 568 221 m -20 Y s 604 241 m -40 Y s 640 221 m -20 Y s 676 221 m -20 Y s 712 221 m -20 Y s 748 221 m -20 Y s 784 241 m -40 Y s 820 221 m -20 Y s 856 221 m -20 Y s 891 221 m -20 Y s 927 221 m -20 Y s 963 241 m -40
 Y s 999 221 m -20 Y s 1035 221 m -20 Y s 1071 221 m -20 Y s 1107 221 m -20 Y s 1143 241 m -40 Y s 1179 221 m -20 Y s 1215 221 m -20 Y s 1251 221 m -20 Y s 1287 221 m -20 Y s 1322 241 m -40 Y s 1358 221 m -20 Y s 1394 221 m -20 Y s 1430 221 m -20 Y s
 1466 221 m -20 Y s 1502 241 m -40 Y s 1538 221 m -20 Y s 1574 221 m -20 Y s 1610 221 m -20 Y s 1646 221 m -20 Y s 1682 241 m -40 Y s 1718 221 m -20 Y s 1754 221 m -20 Y s 1789 221 m -20 Y s 1825 221 m -20 Y s 1861 241 m -40 Y s 1897 221 m -20 Y s
 1933 221 m -20 Y s 1969 221 m -20 Y s 2005 221 m -20 Y s 2041 241 m -40 Y s 424 241 m -40 Y s 389 221 m -20 Y s 353 221 m -20 Y s 317 221 m -20 Y s 281 221 m -20 Y s 2041 241 m -40 Y s
 gsave  2268 1676 0 0 C 379.217 128.934 t 0 r /Helvetica-Bold findfont 64.4669 sf 0 0 m (0.1) show NC gr 
 gsave  2268 1676 0 0 C 557.449 128.934 t 0 r /Helvetica-Bold findfont 64.4669 sf 0 0 m (0.2) show NC gr 
 gsave  2268 1676 0 0 C 735.681 128.934 t 0 r /Helvetica-Bold findfont 64.4669 sf 0 0 m (0.3) show NC gr 
 gsave  2268 1676 0 0 C 917.705 128.934 t 0 r /Helvetica-Bold findfont 64.4669 sf 0 0 m (0.4) show NC gr 
 gsave  2268 1676 0 0 C 1095.94 128.934 t 0 r /Helvetica-Bold findfont 64.4669 sf 0 0 m (0.5) show NC gr 
 gsave  2268 1676 0 0 C 1274.17 128.934 t 0 r /Helvetica-Bold findfont 64.4669 sf 0 0 m (0.6) show NC gr 
 gsave  2268 1676 0 0 C 1456.19 128.934 t 0 r /Helvetica-Bold findfont 64.4669 sf 0 0 m (0.7) show NC gr 
 gsave  2268 1676 0 0 C 1634.42 128.934 t 0 r /Helvetica-Bold findfont 64.4669 sf 0 0 m (0.8) show NC gr 
 gsave  2268 1676 0 0 C 1812.66 128.934 t 0 r /Helvetica-Bold findfont 64.4669 sf 0 0 m (0.9) show NC gr 
 gsave  2268 1676 0 0 C 2025.02 128.934 t 0 r /Helvetica-Bold findfont 64.4669 sf 0 0 m (1) show NC gr 
 gsave  2268 1676 0 0 C 917.705 30.3373 t 0 r /Helvetica-Bold findfont 72.0512 sf 0 0 m (Cut value applied on MLP output) show NC gr  245 201 m 1140 Y s 291 372 m -46 X s 268 426 m -23 X s 268 480 m -23 X s 268 533 m -23 X s 291 587 m -46 X s 268 641
 m -23 X s 268 695 m -23 X s 268 749 m -23 X s 291 803 m -46 X s 268 856 m -23 X s 268 910 m -23 X s 268 964 m -23 X s 291 1018 m -46 X s 268 1072 m -23 X s 268 1126 m -23 X s 268 1179 m -23 X s 291 1233 m -46 X s 291 372 m -46 X s 268 318 m -23 X s
 268 264 m -23 X s 268 210 m -23 X s 291 1233 m -46 X s 268 1287 m -23 X s
 gsave  2268 1676 0 0 C 128.934 348.879 t 0 r /Helvetica-Bold findfont 64.4669 sf 0 0 m (0.2) show NC gr 
 gsave  2268 1676 0 0 C 125.142 561.241 t 0 r /Helvetica-Bold findfont 64.4669 sf 0 0 m (0.4) show NC gr 
 gsave  2268 1676 0 0 C 128.934 777.394 t 0 r /Helvetica-Bold findfont 64.4669 sf 0 0 m (0.6) show NC gr 
 gsave  2268 1676 0 0 C 125.142 993.548 t 0 r /Helvetica-Bold findfont 64.4669 sf 0 0 m (0.8) show NC gr 
 gsave  2268 1676 0 0 C 189.608 1209.7 t 0 r /Helvetica-Bold findfont 64.4669 sf 0 0 m (1) show NC gr 
 gsave  2268 1676 0 0 C 64.4669 731.888 t 90 r /Helvetica-Bold findfont 72.0512 sf 0 0 m (Efficiency \(Purity\)) show NC gr  0 0 0.933333 c[  52 12 ] 0 sd 6 lw 0.49 0.6 0.82 c black 0 0 0.933333 c 245 695 m 1 Y 1 1 d 2 Y 1 1 d 2 Y 1 1 d 3 Y 1 X 3 Y 1
 1 d 4 Y 1 1 d 4 Y 1 X 3 Y 1 1 d 5 Y 1 1 d s 254 729 m 4 Y 1 1 d 5 Y 1 2 d 4 Y 1 1 d 3 Y 1 1 d 4 Y 1 1 d 3 Y 1 X 4 Y 1 1 d 3 Y 1 1 d 3 Y 1 X s 263 770 m 3 Y 1 X 3 Y 1 1 d 2 Y 1 1 d 2 Y 1 X 2 Y 1 X 2 Y 1 X 2 Y 1 X 2 Y 1 X 2 Y s 271 792 m 1 X 1 Y 1 1 d
 1 Y 1 1 d 1 Y 1 X 1 Y 1 1 d 1 Y 1 X 1 Y 1 X 1 Y 1 1 d 1 Y 1 X 1 Y s 280 805 m 1 X 1 Y 1 X 1 Y 1 X 1 Y 1 1 d 1 X 1 Y 1 X 1 Y 1 1 d 1 X 1 Y 1 1 d s 289 814 m 1 X 1 Y 1 X 1 Y 1 X 1 1 d 1 X 1 Y 1 X 1 Y 2 X 1 Y 1 X s 298 820 m 1 Y 1 X 1 Y 3 X 1 Y 1 X 1 1
 d 1 X 1 Y 1 X 1 Y 1 X s 307 826 m 2 X 1 Y 4 X 1 Y 2 X 1 Y s 315 829 m 4 X 1 Y 3 X 1 Y 1 X 1 Y 1 X s 324 832 m 3 X 1 Y 6 X s 333 833 m 1 X 1 Y 4 X 1 1 d 3 X s 342 835 m 2 X 1 Y 5 X 1 Y 2 X s 351 837 m 1 X 1 Y 7 X 1 Y s 359 839 m 7 X 1 1 d 1 X s 368
 840 m 4 X 1 Y 5 X s 377 841 m 5 X 1 Y 4 X s 386 842 m 4 X 1 1 d 4 X s 395 843 m 8 X s 403 843 m 1 X 1 Y 8 X s 412 844 m 9 X s 421 844 m 1 Y 7 X 1 1 d 1 X s 430 846 m 9 X s 439 846 m 6 X 1 Y 2 X s 447 847 m 9 X s 456 847 m 7 X 1 Y 2 X s 465 848 m 9 X
 s 474 848 m 4 X 1 Y 5 X s 483 849 m 3 X 1 1 d 4 X s 491 850 m 9 X s 500 850 m 4 X 1 Y 5 X s 509 851 m 9 X s 518 851 m 9 X s 527 851 m 1 X 1 Y 7 X s 535 852 m 5 X 1 Y 1 X 1 Y 2 X 1 Y 1 X 1 Y s 544 856 m 1 1 d 1 1 d 1 Y 1 X 1 1 d 1 1 d 1 X 1 Y 1 X 1 Y
 1 X 1 Y 1 X s 553 864 m 1 X 1 Y 1 X 1 Y 2 X 1 Y 1 X 1 Y 1 X 1 Y 2 X 2 Y 1 X s 562 871 m 1 X 1 Y 1 X 1 Y 1 X 1 Y 1 X 1 1 d 1 X 1 Y 1 X 1 1 d 1 1 d s 571 878 m 1 X 1 Y 1 X 1 Y 1 X 1 1 d 1 1 d 1 Y 1 X 1 1 d 1 X 1 Y s 579 885 m 1 X 1 Y 1 X 1 Y 2 X 1 Y 1
 X 1 1 d 1 X 1 Y 1 X 1 Y 1 X s 588 891 m 1 X 1 Y 1 X 1 Y 1 X 1 1 d 2 X 1 Y 2 X 1 Y 1 X 1 Y s 597 897 m 1 X 1 Y 2 X 1 Y 2 X 1 Y 3 X 1 Y 1 X s 606 901 m 1 Y 1 X 1 1 d 1 X 1 Y 2 X 1 Y 1 1 d 1 X 1 1 d 1 X s 615 907 m 1 X 1 Y 2 X 1 Y 1 X 1 Y 2 X 1 Y 1 X 1
 1 d s 623 912 m 1 1 d 2 X 1 Y 2 X 1 Y 1 X 1 1 d 1 X 1 1 d s 632 917 m 1 X 1 Y 1 X 1 1 d -1 Y 1 Y 1 X 1 1 d 1 X 1 Y 1 X 1 Y 2 X s 641 922 m 1 Y 2 X 1 Y 2 X 1 Y 1 X 1 1 d 2 X 1 1 d s 650 927 m 1 X 1 Y 2 X 1 Y 2 X 1 Y 1 X 1 1 d 1 X 1 Y 1 X s 659 932 m
 1 Y 4 X 1 Y 2 X 1 Y 2 X 1 Y s 667 936 m 1 X 1 Y 1 X 1 Y 2 X 1 Y 2 X 1 Y 1 X 1 1 d 1 X s 676 941 m 1 X 1 Y 2 X 1 Y 2 X 1 Y 2 X 1 Y 1 X 1 Y 1 X s 685 946 m 1 Y 1 X 1 Y 2 X 1 Y 2 X 1 Y 3 X 1 Y 1 X s 694 951 m 1 X 1 Y 3 X 1 Y 3 X 1 Y 2 X s 703 954 m 1 Y
 2 X 1 1 d -1 Y 1 Y 1 X 1 Y 1 X 1 Y 1 X 1 Y 2 X 1 Y s 711 960 m 1 X 1 Y 3 X 1 Y 1 X 1 1 d 3 X s 720 963 m 1 Y 5 X 1 Y 1 -1 d 1 Y 3 X s 729 965 m 1 X 1 Y 1 X 1 1 d 2 X 1 Y 1 X 1 Y 3 X 1 Y s 738 970 m 1 X 1 Y 2 X 1 1 d 2 X 1 Y 1 X 1 Y 2 X s 747 974 m 1
 Y 2 X 1 Y 2 X 1 Y 4 X 1 Y s 755 978 m 2 X 1 Y 3 X 1 Y 2 X 1 Y 2 X s 764 981 m 1 Y 3 X 1 Y 1 X 1 1 d 3 X 1 Y 1 X s 773 985 m 1 X 1 Y 2 X 1 Y 2 X 1 Y 4 X 1 Y s 782 989 m 3 X 1 Y 2 X 1 Y 2 X 1 Y 2 X s 791 992 m 1 X 1 Y 1 X 1 1 d 1 Y 2 X 1 Y 3 X 1 Y s
 799 997 m 3 X 1 1 d 2 X 1 1 d 1 X 1 Y 1 X s 808 1000 m 1 X 1 Y -1 Y 1 X 1 Y 5 X 1 Y 1 X 1 Y 1 X s 817 1003 m 1 X 1 Y 1 X 1 Y -1 Y 1 X 1 Y 3 X 1 1 d 2 X s 826 1006 m 1 1 d 2 X 1 1 d 1 X 1 Y 2 X 1 Y 1 X 1 Y 1 X s 835 1011 m 2 X 1 Y 2 X 1 Y 3 X 1 Y 1 X
 s 843 1014 m 3 X 1 1 d -1 Y 1 Y 2 X 1 Y 2 X 1 Y 1 X s 852 1017 m 2 X 1 Y 2 X 1 Y 2 X 1 Y 3 X 1 Y s 861 1021 m 3 X 1 Y 2 X 1 1 d 3 X 1 Y s 870 1024 m 4 X 1 Y 2 X 1 Y 3 X s 879 1026 m 1 X 1 Y 3 X 1 Y 2 X 1 Y 1 X 1 1 d s 887 1030 m 2 X 1 Y 3 X 1 Y 4 X
 s 896 1032 m 1 X 1 1 d 6 X 1 Y 1 X s 905 1034 m 1 X 1 Y 2 X 1 Y 4 X 1 1 d -1 Y 1 Y 1 X s 914 1037 m 1 X 1 Y 2 X 1 Y 4 X 1 Y 2 X s 923 1040 m 3 X 1 Y 5 X 1 Y s 931 1042 m 2 X 1 1 d 1 X 1 1 d 4 X s 940 1044 m 2 X 1 1 d 3 X 1 Y 3 X s 949 1046 m 4 X 1 Y
 3 X 1 Y 2 X s 958 1048 m 4 X 1 Y 1 X 1 Y 4 X s 967 1050 m 1 Y 4 X 1 Y 4 X s 975 1052 m 1 X 1 1 d 2 X 1 Y 5 X s 984 1054 m 1 X 1 Y 4 X 1 Y 1 X -1 Y 1 1 d 2 X s 993 1056 m 3 X 1 Y 5 X 1 1 d s 1002 1058 m 1 X 1 1 d 2 X 1 Y 5 X s 1011 1060 m 5 X 1 Y 3 X
 s 1019 1061 m 3 X 1 Y 6 X 1 Y s 1028 1063 m 5 X 1 Y -1 Y 2 X 1 1 d 1 X s 1037 1064 m 3 X 1 Y 4 X 1 Y 2 X s 1046 1066 m 4 X 1 Y 2 X 1 Y 3 X s 1055 1068 m 2 X 1 Y 6 X s 1063 1069 m 1 X 1 Y 2 X 1 1 d 5 X 1 Y s 1072 1072 m -1 Y 1 X 1 Y 2 X 1 Y 2 X -1 Y
 1 X 1 Y 3 X s 1081 1073 m 5 X 1 Y 1 X 1 Y 2 X 1 Y 1 X s 1090 1076 m 1 X 1 Y 3 X 1 1 d 2 X 1 Y 2 X s 1099 1079 m 3 X 1 Y 1 -1 d 1 Y 4 X s 1107 1080 m 2 X 1 Y 5 X 1 Y 2 X s 1116 1082 m 5 X 1 Y 4 X s 1125 1083 m 1 X 1 1 d -1 Y 1 X 1 Y 5 X 1 1 d s 1134
 1085 m 7 X 1 Y 2 X s 1143 1086 m 1 X 1 1 d 1 X -1 Y 2 X 1 Y 3 X s 1151 1087 m 2 X 1 1 d 2 X 1 Y 3 X 1 Y 1 X s 1160 1090 m 4 X 1 1 d -1 Y 2 X 1 Y 2 X s 1169 1091 m 1 X 1 Y -1 Y 1 X 1 Y 1 1 d 6 X s 1178 1093 m 6 X 1 Y 1 X -1 Y 1 Y 2 X s 1187 1094 m 1
 X 1 Y 7 X 1 Y s 1195 1096 m 2 X 1 Y 1 X 1 Y 5 X 1 Y 1 X s 1204 1099 m 4 X 1 Y 5 X s 1213 1100 m 4 X 1 Y 5 X s 1222 1101 m 7 X 1 Y 2 X s 1231 1102 m 1 X 1 1 d -1 Y 1 Y 6 X s 1239 1103 m 4 X 1 Y 5 X s 1248 1104 m 7 X 1 Y 2 X -1 Y s 1257 1104 m 2 X 1 Y
 4 X 1 Y 2 X -1 Y 1 X 1 Y s 1266 1106 m 9 X s 1275 1106 m 3 X 1 Y 5 X s 1283 1107 m 2 X 1 Y 6 X 1 Y 1 X s 1292 1109 m 1 X 1 1 d 5 X 1 Y 2 X s 1301 1111 m 1 X 1 Y 6 X 1 Y 2 X s 1310 1113 m 3 X 1 Y 6 X s 1319 1114 m 1 Y 1 -1 d 3 X 1 Y 4 X s 1327 1115 m
 1 X 1 1 d 3 X 1 Y 4 X s 1336 1117 m 4 X 1 Y 5 X s 1345 1118 m 9 X s 1354 1118 m 1 Y 6 X -1 Y 2 X 1 Y 1 X s 1363 1119 m 2 X 1 Y 6 X s 1371 1120 m 2 X 1 Y 4 X 1 Y 3 X s 1380 1122 m 1 1 d 3 X 1 Y 5 X s 1389 1124 m 1 X 1 Y 8 X s 1398 1125 m 2 X 1 Y 7 X
 s 1407 1126 m 2 X 1 Y 6 X s 1415 1127 m 3 X 1 1 d 5 X s 1424 1128 m 9 X s 1433 1128 m 1 Y 7 X 1 Y 2 X s 1442 1130 m 9 X s 1451 1130 m 2 X 1 1 d 5 X s 1459 1131 m 2 X 1 1 d 6 X s 1468 1132 m 1 X 1 Y 8 X s 1477 1133 m 6 X 1 Y 3 X s 1486 1134 m 4 X 1 Y
 5 X s 1495 1135 m 5 X 1 Y 3 X s 1503 1136 m 2 X 1 Y 3 X -1 Y 1 X 1 Y 3 X s 1512 1137 m 2 X 1 Y 4 X 1 Y 1 X -1 Y 2 X s 1521 1138 m 1 Y 5 X 1 Y 1 -1 d 1 X 1 Y 2 X s 1530 1140 m 1 X 1 Y 1 X 1 -1 d 1 Y 6 X s 1539 1141 m 2 X 1 Y 2 X 1 1 d 3 X s 1547 1143
 m 3 X 1 Y -1 Y 4 X 1 Y 2 X s 1556 1144 m 1 X 1 Y 7 X 1 Y -1 Y 1 X s 1565 1145 m 1 X 1 1 d 1 X -1 Y 3 X 1 Y 3 X s 1574 1146 m 9 X s 1583 1146 m 6 X 1 Y 2 X 1 Y s 1591 1148 m 2 X -1 Y 3 X 1 Y 3 X 1 1 d s 1600 1149 m 3 X 1 Y 6 X s 1609 1150 m 4 X 1 Y 4
 X 1 Y 1 X s 1618 1152 m 8 X 1 Y 1 X s 1627 1153 m 8 X s 1635 1153 m 9 X 1 Y s 1644 1154 m 2 X 1 1 d 6 X s 1653 1155 m 1 X 2 Y 7 X 1 Y 1 X s 1662 1158 m 1 Y 6 X 1 1 d 2 X s 1671 1160 m 6 X -1 Y 1 X 1 Y 1 X s 1679 1160 m 5 X 1 Y 4 X s 1688 1161 m 1 X
 1 Y 3 X 1 Y 5 X s 1697 1163 m 1 X 1 Y 2 X 1 Y 2 X 1 Y 1 X 1 -1 d 1 Y 2 X s 1706 1166 m 1 X 1 Y 1 X 1 Y 1 X -1 Y 1 X 1 1 d 2 X 1 Y 1 X 1 Y 1 X s 1715 1170 m 3 X 1 1 d 1 X 1 Y -1 Y 1 X 2 Y 2 X s 1723 1173 m 2 X 1 Y 5 X 1 1 d 1 X s 1732 1175 m 1 X 1 Y
 1 X -1 Y 5 X 1 1 d 1 X s 1741 1176 m 1 Y 2 X -1 Y 1 Y 2 X 1 Y 1 X -1 Y 1 X 1 1 d 1 -1 d 1 Y 1 X s 1750 1178 m 2 X 1 Y 5 X 1 Y -1 Y 1 Y 2 X s 1759 1180 m 1 X 1 Y 4 X 1 Y 2 X 1 Y 1 X s 1767 1183 m 1 1 d 1 X 1 Y 5 X 1 Y 2 X s 1776 1186 m 1 X 1 Y 4 X 1
 1 d 1 Y 2 X 1 1 d s 1785 1190 m 1 X 1 Y 7 X 1 Y 1 X s 1794 1192 m 1 X 1 1 d 1 X 1 Y 4 X 1 Y 2 X s 1803 1195 m 2 X 1 Y 3 X 1 Y 2 X 1 Y 2 X s 1812 1198 m 1 Y 1 X 1 1 d 3 X 1 Y 1 -1 d 2 X 1 Y s 1820 1201 m 1 X 1 Y 1 X -1 Y 2 X 1 Y 5 X 1 Y s 1829 1203 m
 5 X 1 1 d 2 X -1 Y 1 X s 1838 1203 m 1 Y 2 X 1 Y 2 X -1 Y 1 1 d 3 X 1 Y 1 X s 1847 1206 m 8 X 1 Y 1 X s 1856 1207 m 8 X s 1864 1207 m 1 X 1 1 d 7 X s 1873 1208 m 9 X s 1882 1208 m 7 X 1 Y 2 X 1 Y s 1891 1210 m 4 X 1 Y -1 Y 1 X 1 Y 1 X 1 Y 3 X s 1900
 1212 m 2 X 1 Y 1 X 1 Y 2 X -1 Y 1 X 1 Y 1 X 1 Y 1 X s 1908 1215 m 1 1 d 1 Y 6 X 1 1 d 1 X -1 Y s 1917 1217 m 1 X 1 Y 2 X 1 Y 6 X s 1926 1219 m 3 X 1 Y 6 X s 1935 1220 m 3 X 2 Y 4 X 1 1 d 1 X s 1944 1223 m 1 X 1 Y 7 X s 1952 1224 m 6 X 1 Y 3 X s 1961
 1225 m 9 X s 1970 1225 m 9 X s 1979 1225 m 1 Y 5 X 1 Y 4 X s 1988 1227 m 3 X 1 Y 1 -1 d 1 Y 4 X 1 Y s 1996 1229 m 3 X 1 Y 6 X 1 Y s 2005 1231 m 2 X -1 Y 1 Y 7 X s 2014 1231 m 5 X 1 Y 4 X s 2023 1232 m 2 X 1 Y 7 X s 2032 1233 m 8 X s 2040 1233 m 1 X
 s[  ] 0 sd 9 lw 0.49 0.6 0.82 c black 0 0 0.933333 c 245 1233 m 9 X s 254 1233 m 4 X 1 -1 d 4 X s 263 1232 m 8 X s 271 1232 m 3 X 1 -1 d 5 X s 280 1231 m 9 X s 289 1231 m 3 X -1 Y 6 X s 298 1230 m 9 X s 307 1230 m 8 X s 315 1230 m 1 X -1 Y 8 X s 324
 1229 m 9 X s 333 1229 m 9 X s 342 1229 m 9 X s 351 1229 m 8 X s 359 1229 m 9 X s 368 1229 m 9 X s 377 1229 m 2 X -1 Y 7 X s 386 1228 m 9 X s 395 1228 m 8 X s 403 1228 m 4 X -1 Y 5 X s 412 1227 m 9 X s 421 1227 m 9 X s 430 1227 m 9 X s 439 1227 m 8 X
 s 447 1227 m 9 X s 456 1227 m 9 X s 465 1227 m 9 X s 474 1227 m 9 X s 483 1227 m 8 X s 491 1227 m 9 X s 500 1227 m 9 X s 509 1227 m 9 X s 518 1227 m 9 X s 527 1227 m 8 X s 535 1227 m 5 X 1 -1 d -1 Y 2 X 1 -1 d s 544 1224 m 1 X -1 Y 1 X 1 -1 d 1 X -1
 Y 2 X 1 -1 d 1 X -1 Y 1 X s 553 1219 m 1 X -1 Y 4 X -1 Y 1 X -1 Y 1 X -1 Y 2 X s 562 1215 m -1 Y 1 X -1 Y 5 X -1 Y 1 X -1 Y 2 X s 571 1211 m 2 X -1 Y 2 X -1 Y 2 X -1 Y 2 X s 579 1208 m 4 X -1 Y 3 X -1 Y 1 X 1 -1 d s 588 1205 m 5 X -1 Y 2 X -1 Y 2 X
 -1 Y s 597 1202 m 2 X -1 Y 2 X -1 Y 5 X -1 Y s 606 1199 m 3 X 1 -1 d 1 X -1 Y 3 X -1 Y 1 X s 615 1196 m 3 X -1 Y 3 X -1 Y 2 X s 623 1194 m 1 X -1 Y 2 X -1 Y 1 X -1 Y 5 X -1 Y s 632 1190 m 2 X -1 Y 1 X 1 -1 d 2 X -2 Y 2 X -1 Y 1 X s 641 1185 m 2 X -1
 Y 1 X 1 -1 d 2 X -1 Y 3 X s 650 1182 m -1 Y 4 X 1 -1 d 2 X -1 Y 2 X s 659 1179 m 2 X -1 Y 1 X -1 Y 4 X -1 Y 1 X s 667 1176 m 2 X -1 Y 3 X 1 -1 d 2 X 1 -1 d s 676 1173 m 3 X -1 Y 3 X 1 -1 d 2 X s 685 1171 m 4 X -1 Y 5 X s 694 1170 m 1 -1 d 1 X 1 -1 d
 3 X -1 Y 3 X s 703 1167 m 1 X -1 Y 6 X -1 Y 1 X s 711 1165 m 2 X -1 Y 4 X -1 Y 2 X -1 Y 1 X s 720 1162 m 3 X -1 Y 1 X 1 -1 d 1 X -1 Y 3 X s 729 1159 m -1 Y 5 X -1 Y 1 X -1 Y 3 X s 738 1156 m 1 X 1 -1 d 2 X 1 -1 d 4 X s 747 1154 m -1 Y 3 X -1 Y 3 X
 -1 Y 2 X s 755 1151 m 1 X -1 Y 3 X -1 Y 5 X s 764 1149 m 3 X -1 Y 6 X s 773 1148 m 1 X -1 Y 4 X -1 Y 3 X -1 Y 1 X s 782 1145 m 2 X -1 Y 3 X 1 -1 d 3 X s 791 1143 m -1 Y 4 X -1 Y 2 X 1 -1 d 1 X s 799 1140 m 1 X -1 Y 4 X -1 Y 2 X -1 Y 2 X s 808 1137 m
 1 X -1 Y 2 X 1 -1 d 5 X s 817 1135 m -1 Y 3 X -1 Y 2 X -1 Y 3 X -1 Y 1 X s 826 1131 m 3 X -1 Y 3 X -1 Y 3 X s 835 1129 m 2 X 1 -1 d 2 X 1 -1 d 2 X s 843 1127 m 1 -1 d 2 X -1 Y 4 X -1 Y 2 X s 852 1124 m 5 X -1 Y 2 X -1 Y 2 X s 861 1122 m 6 X -1 Y 2 X
 -1 Y 1 X s 870 1120 m 9 X s 879 1120 m 1 X -1 Y 3 X -1 Y 3 X -1 Y 1 X s 887 1117 m 4 X -1 Y 5 X -1 Y s 896 1115 m 4 X -1 Y 3 X -1 Y 1 X -1 Y 1 X s 905 1112 m 3 X -1 Y 3 X 1 -1 d 2 X s 914 1110 m -1 Y 4 X -1 Y 2 X -1 Y 2 X -1 Y 1 X s 923 1106 m 4 X 1
 -1 d 2 X -1 Y 1 X s 931 1104 m 4 X 1 -1 d 1 -1 d 2 X -1 Y 1 X s 940 1101 m 2 X -1 Y 5 X -1 Y 2 X s 949 1099 m 2 X -1 Y 5 X -1 Y 2 X s 958 1097 m 1 X -1 Y 4 X 1 -1 d 3 X s 967 1095 m 1 X -1 Y 3 X -1 Y 3 X -1 Y 1 X s 975 1092 m 1 X -1 Y 4 X 1 -1 d 3 X
 s 984 1090 m 3 X -1 Y 4 X -1 Y 2 X s 993 1088 m 3 X -1 Y 5 X -1 Y 1 X s 1002 1086 m 2 X 1 -1 d 5 X -1 Y 1 X s 1011 1084 m 2 X -1 Y 1 X -1 Y 3 X -1 Y 1 X 1 -1 d s 1019 1080 m 1 X -1 Y 5 X -1 Y 1 X -1 Y 2 X s 1028 1077 m 2 X -1 Y 3 X 1 -1 d 3 X s 1037
 1075 m 3 X -1 Y 3 X -1 Y 3 X s 1046 1073 m 9 X s 1055 1073 m -1 Y 6 X -1 Y 2 X s 1063 1071 m 1 X -1 Y 1 X 1 -1 d 2 X -1 Y 4 X s 1072 1068 m -1 Y 3 X -1 Y 2 X -1 Y 2 X 1 -1 d 1 X s 1081 1064 m 2 X -1 Y 3 X 1 -1 d 2 X -1 Y 1 X s 1090 1061 m 1 X 1 -1 d
 2 X 1 -1 d 4 X s 1099 1059 m 1 X -1 Y 3 X 1 -1 d 3 X -1 Y s 1107 1056 m 5 X -1 Y 4 X s 1116 1055 m 3 X -1 Y 3 X -1 Y 3 X -1 Y s 1125 1052 m 6 X 1 -1 d 1 X 1 -1 d s 1134 1050 m 3 X 1 -1 d 5 X s 1143 1049 m -1 Y 3 X -1 Y 3 X -1 Y 2 X -1 Y s 1151 1045
 m 4 X -1 Y 3 X -1 Y 1 X 1 -1 d s 1160 1042 m 3 X -1 Y 6 X s 1169 1041 m -1 Y 2 X -1 Y 3 X 1 -1 d 2 X -1 Y 1 X s 1178 1037 m 3 X -1 Y 4 X -1 Y 2 X s 1187 1035 m 1 X -1 Y 7 X -1 Y s 1195 1033 m 4 X -1 Y 1 X -1 Y 4 X s 1204 1031 m 2 X -1 Y 7 X s 1213
 1030 m 1 X -1 Y 3 X 1 -1 d 4 X s 1222 1028 m 1 X -1 Y 1 X -1 Y 2 X 1 -1 d 2 X -1 Y 2 X s 1231 1024 m 6 X -1 Y 2 X s 1239 1023 m 1 X 1 -1 d 4 X -1 Y 2 X -1 Y 1 X -1 Y s 1248 1019 m 1 X 1 -1 d 1 X 1 -1 d 3 X -1 Y 2 X s 1257 1016 m 1 X -1 Y 2 X -1 Y 6
 X s 1266 1014 m -1 Y 3 X -1 Y 2 X -1 Y 3 X -1 Y 1 X s 1275 1010 m 3 X -1 Y 5 X s 1283 1009 m 1 X -1 Y 3 X -1 Y 2 X -1 Y 2 X -1 Y 1 X s 1292 1005 m 4 X -1 Y 3 X -1 Y 2 X -1 Y s 1301 1002 m 6 X -1 Y 2 X 1 -1 d s 1310 1000 m 4 X -1 Y 1 X -1 Y 3 X -1 Y
 1 X s 1319 997 m 2 X 1 -1 d 4 X -1 Y 1 X s 1327 995 m 1 X -1 Y 4 X -1 Y 3 X -1 Y 1 X s 1336 992 m 2 X -1 Y 4 X -1 Y 3 X s 1345 990 m -1 Y 5 X -1 Y 3 X -1 Y 1 X s 1354 987 m 3 X -1 Y 2 X -1 Y 3 X -1 Y 1 X s 1363 984 m 1 -1 d 4 X -1 Y 3 X s 1371 982 m
 1 X -1 Y 3 X -1 Y 2 X -1 Y 3 X -1 Y s 1380 978 m 1 X -1 Y 6 X -1 Y 2 X s 1389 976 m 2 X -1 Y 3 X 1 -1 d 3 X s 1398 974 m -1 Y 3 X -1 Y 3 X -1 Y 3 X s 1407 971 m 1 X -1 Y 4 X -1 Y 3 X s 1415 969 m 2 X -1 Y 3 X -1 Y 3 X -1 Y 1 X s 1424 966 m 2 X -1 Y
 3 X -1 Y 1 X -1 Y 3 X s 1433 963 m 2 X -1 Y 3 X -1 Y 4 X s 1442 961 m -1 Y 5 X -1 Y 4 X s 1451 959 m 2 X -1 Y 3 X -1 Y 1 X -1 Y 2 X -1 Y s 1459 955 m 3 X -1 Y 4 X -1 Y 2 X -1 Y s 1468 952 m 4 X -1 Y 1 X -1 Y 2 X -1 Y 2 X s 1477 949 m -1 Y 3 X -1 Y 5
 X -1 Y 1 X s 1486 946 m 2 X -1 Y 1 X -1 Y 2 X -1 Y 1 X -1 Y 1 X -1 Y 2 X -1 Y s 1495 940 m 1 X -1 Y 4 X -1 Y 1 X -1 Y 2 X s 1503 937 m 1 -1 d 3 X 1 -1 d 2 X -1 Y 2 X -1 Y s 1512 933 m 2 X -1 Y 3 X -1 Y 2 X -1 Y 2 X s 1521 930 m 1 -1 d 1 X -1 Y 3 X
 -1 Y 1 -1 d 2 X -1 Y 1 X s 1530 925 m -1 Y 5 X -1 Y 3 X 1 -1 d s 1539 922 m 1 X 1 -1 d 5 X -1 Y 1 X s 1547 920 m 2 X -1 Y 2 X -1 Y 3 X -1 Y 2 X -1 Y s 1556 916 m 3 X 1 -1 d 2 X -1 Y 2 X -1 Y 1 X s 1565 913 m 1 X 1 -1 d 1 X -2 Y 2 X -1 Y 2 X -1 Y 2 X
 s 1574 908 m 1 -1 d 2 X 1 -1 d 1 X 1 -1 d 1 X -1 Y 1 X -1 Y 1 X s 1583 903 m -1 Y 2 X -1 Y 1 X -1 Y 1 X -1 Y 1 -1 d 2 X -1 Y 1 X -1 Y s 1591 896 m 2 X -1 Y 2 X -1 Y 3 X -1 Y 1 X -1 Y 1 X s 1600 892 m 1 X -1 Y 1 X -1 Y 1 X 1 -1 d 2 X -1 Y 3 X s 1609
 888 m 3 X -1 Y 2 X -1 Y 1 X -1 Y 2 X -1 Y 1 X -1 Y s 1618 883 m -1 Y 2 X -1 Y 1 X 1 -1 d 1 X -1 Y 1 X 1 -1 d 2 X s 1627 878 m -1 Y 2 X -1 Y 3 X -1 Y 1 X -1 Y 1 X -1 Y 1 X -1 Y s 1635 872 m 1 X -1 Y 2 X -1 Y 1 X 1 -1 d 1 X -1 Y 1 X -1 Y 2 X s 1644
 867 m 1 X -1 Y 3 X -1 Y 1 X -1 Y 1 X 1 -1 d 1 -1 d 1 X s 1653 862 m 1 -1 d 1 X 1 -1 d 1 -1 d -1 Y 1 X -1 Y 2 X 1 -1 d 1 X -1 Y s 1662 855 m 2 X -1 Y 1 X -1 Y 1 -1 d 2 X 1 -1 d 1 -1 d 1 X s 1671 850 m 1 X -2 Y 2 X -1 Y 1 X -1 Y 1 X -1 Y 2 X -1 Y 1 X
 -1 Y s 1679 843 m 1 X 1 -1 d 1 X -2 Y 1 X 1 -1 d 1 X -1 Y 1 X -1 Y 1 X -2 Y 1 X s 1688 835 m 1 X -1 Y 1 X -1 Y 1 X 1 -1 d 1 X -1 Y 1 X -2 Y 1 X -1 Y 1 X -2 Y 1 X s 1697 826 m -1 Y 2 X -1 Y 1 X -1 Y 1 X -1 Y 1 X -1 Y 1 X -1 Y 1 X -1 Y 2 X -1 Y s 1706
 818 m 1 X -1 Y 1 -1 d -1 Y 2 X -1 Y 1 X -1 Y 1 X -1 Y 1 -1 d -1 Y 1 X -1 Y 1 X -1 Y s 1715 808 m -1 Y 1 X -1 Y 1 X -1 Y 1 X -2 Y 2 X -2 Y 1 -1 d 1 X -2 Y 1 X -2 Y s 1723 796 m 1 X -1 Y 1 -1 d 1 X -2 Y 1 X -3 Y 1 X -1 Y 1 -1 d -1 Y 1 X -2 Y 1 X -1 Y
 1 -1 d -1 Y s 1732 781 m 1 X -1 Y 1 X -1 Y 1 -2 d 1 -1 d -2 Y 2 X -1 Y 1 -1 d -1 Y 1 X -1 Y 1 X s 1741 770 m -1 Y 2 X -1 Y 1 X -2 Y 1 X -1 Y 1 -1 d -1 Y 1 X -2 Y 1 X -1 Y 1 X -1 Y 1 X s 1750 759 m 1 -1 d -1 Y 1 -1 d 1 X -1 Y 1 X -1 Y 1 X -1 Y 1 X -1
 Y 1 X -3 Y 1 X 1 -1 d s 1759 748 m -1 Y 2 X -1 Y 1 X -1 Y 2 X -1 Y 1 X -1 Y 1 X -1 Y 1 X s 1767 742 m 1 -1 d 1 X -1 Y 1 X -1 Y 2 X -2 Y 1 X -2 Y 1 X -1 Y 1 X -1 Y 1 X -1 Y s 1776 732 m 1 X -1 Y 1 X -1 Y 1 X 1 -1 d 1 X -1 Y 1 -1 d 1 X -1 Y 1 X -1 Y 1
 X -1 Y s 1785 724 m 1 X 1 -1 d 1 X -1 Y 1 X -1 Y 2 X -1 Y 1 X -1 Y 1 X -1 Y 1 X s 1794 718 m -1 Y 2 X -1 Y 1 X -1 Y 1 X -1 Y 1 X -1 Y 1 X -2 Y 2 X -1 Y 1 X s 1803 710 m 1 X -1 Y 1 X -1 Y 1 X -1 Y 1 X -1 Y 1 X -1 Y 1 X -1 Y 2 X 1 -1 d s 1812 703 m -1
 Y 1 X -1 Y 1 X -1 Y 2 X -1 Y 2 X -1 Y 1 X -1 Y 1 X s 1820 697 m -1 Y 2 X -1 Y 1 X -1 Y 1 X -2 Y 1 X -1 Y 1 X -1 Y 1 X -1 Y 1 X -1 Y 1 X -1 Y s 1829 687 m 1 X -1 Y 1 -1 d -1 Y 1 X -1 Y 1 X -1 Y 1 X -1 Y 1 X -1 Y 2 X -1 Y 1 X s 1838 679 m 1 -1 d 1 X
 -2 Y 1 X -1 Y 2 X -1 Y 1 X -1 Y 2 X -1 Y 1 X -1 Y s 1847 671 m 1 X -2 Y 1 X -1 Y 2 X -1 Y 1 X -1 Y 1 X -1 Y 1 X -1 Y 1 X -1 Y 1 X s 1856 663 m -1 Y 1 X -1 Y 2 X -1 Y 1 -1 d 1 X -1 Y 1 X -1 Y 2 X -1 Y s 1864 656 m 1 X -1 Y 1 X -1 Y 1 X -1 Y 2 X 1 -1
 d -1 Y 1 X -1 Y 1 X 1 -1 d s 1873 649 m 1 X 1 -1 d 1 X -2 Y 1 X -1 Y 1 X -1 Y 1 X -1 Y 1 X 1 -1 d 1 X -1 Y s 1882 641 m 1 X -1 Y 1 X -1 Y 1 -1 d -1 Y 1 -1 d -1 Y 1 X -1 Y 1 -1 d 1 X -1 Y 1 X -1 Y 1 X -1 Y s 1891 630 m 1 -1 d 1 X -1 Y 1 X -2 Y 1 X -1
 Y 1 -1 d 2 X -1 Y 1 X -1 Y 1 X s 1900 622 m -1 Y 1 X -1 Y 1 X -1 Y 1 X -1 Y 2 X -1 Y 1 X -2 Y 1 X -1 Y 1 X -1 Y s 1908 613 m 1 X 1 -1 d 2 X -1 Y 1 -1 d 1 X -1 Y 1 X -1 Y 1 X 1 -1 d -1 Y s 1917 606 m 1 -1 d 1 -1 d 1 -1 d -1 Y 1 X -1 Y 1 X -1 Y 1 X 1
 -1 d 1 -1 d 1 X s 1926 598 m 1 X -1 Y 1 X -2 Y 1 X 1 -1 d -1 Y 1 X -1 Y 1 X -1 Y 1 -1 d -1 Y 2 X s 1935 589 m -1 Y 1 X -1 Y 1 X -1 Y 1 X -1 Y 1 X -1 Y 1 X -1 Y 2 X -1 Y 1 -1 d -1 Y 1 X s 1944 580 m -1 Y 1 X -1 Y 1 X -2 Y 1 X -1 Y 1 X -1 Y 1 X -1 Y 1
 X -1 Y 1 X -1 Y 1 X -1 Y s 1952 570 m 1 X -1 Y 1 X -1 Y 1 X -1 Y 1 X -1 Y 1 -1 d 1 X -3 Y 1 X 1 -1 d -1 Y 1 -1 d s 1961 559 m -1 Y 1 X -1 Y 1 -1 d -2 Y 2 X -1 Y 1 X -1 Y 1 X -1 Y 1 X -2 Y 1 X 1 -1 d s 1970 548 m -1 Y 1 X -1 Y 1 -1 d 1 -1 d -1 Y 1 X
 -1 Y 1 X -1 Y 1 X -1 Y 1 -1 d -2 Y 1 X -1 Y 1 X s 1979 536 m -1 Y 1 -1 d -1 Y 1 -1 d -1 Y 1 X 1 -1 d -1 Y 1 -1 d 1 X -1 Y 1 X -1 Y 1 -1 d -1 Y 1 X s 1988 524 m -1 Y 1 X -3 Y 1 X -1 Y 1 X -1 Y 1 X -1 Y 1 X -1 Y 1 -1 d -1 Y 1 X -1 Y 1 X -2 Y s 1996
 511 m 1 X -1 Y 1 -1 d -2 Y 1 -1 d 1 X -2 Y 1 -1 d -1 Y 1 X -1 Y 1 X -1 Y 1 -1 d -2 Y 1 X -1 Y s 2005 496 m 1 -1 d -1 Y 1 X -2 Y 1 X -1 Y 1 X -3 Y 1 X 1 -1 d -2 Y 1 X -3 Y 1 X -1 Y 1 -1 d -1 Y s 2014 479 m -2 Y 1 X -3 Y 1 -1 d -2 Y 1 X -1 Y 1 X -1 Y
 1 -1 d -2 Y 1 -1 d -1 Y 1 -1 d -4 Y 1 X -2 Y 1 X -1 Y s 2023 456 m -2 Y 1 X -3 Y 1 -1 d -2 Y 1 -1 d -3 Y 1 X -1 Y 1 -2 d -1 Y 1 X -3 Y 1 -1 d -4 Y 1 -1 d -3 Y 1 -1 d s 2032 427 m -3 Y 1 -2 d -6 Y 1 -1 d -5 Y 1 -2 d -5 Y 1 -2 d -7 Y 1 -1 d -9 Y 1 -1
 d -8 Y 1 -3 d -17 Y 1 -5 d -27 Y s 2040 323 m -18 Y 1 -20 d -30 Y s 1 0 0 c black 1 0 0 c 245 1233 m -6 Y 1 -1 d -10 Y 1 -3 d -8 Y 1 -4 d -10 Y 1 -2 d -12 Y 1 -3 d -13 Y 1 -4 d -14 Y 1 -2 d -13 Y 1 -2 d -17 Y 1 -4 d -2 Y s 254 1103 m -12 Y 1 -3 d
 -19 Y 1 -5 d -16 Y 1 -1 d -9 Y 1 -4 d -15 Y 1 -2 d -11 Y 1 -1 d -12 Y 1 -4 d -9 Y 1 -1 d -10 Y 1 -2 d s 263 967 m -8 Y 1 -1 d -7 Y 1 -3 d -8 Y 1 -1 d -6 Y 1 -1 d -5 Y 1 -1 d -5 Y 1 -2 d -5 Y 1 -1 d -3 Y 1 -1 d -6 Y s 271 903 m 1 X -4 Y 1 -1 d -5 Y 1
 -1 d -3 Y 1 -1 d -3 Y 1 -2 d -3 Y 1 X -2 Y 1 -1 d -4 Y 1 X -3 Y 1 -1 d -1 Y s 280 868 m -1 Y 1 -1 d -3 Y 1 X -3 Y 1 X -3 Y 1 X -2 Y 1 X -3 Y 1 -1 d -2 Y 1 -1 d -2 Y 1 X -2 Y 1 -1 d -1 Y s 289 842 m -2 Y 1 X -1 Y 1 X -2 Y 1 X -2 Y 1 -1 d -1 Y 1 X -3
 Y 1 X -2 Y 1 X -1 Y 1 -1 d -1 Y 1 X s 298 825 m -2 Y 1 X -2 Y 1 X -1 Y 1 X -1 Y 1 X -1 Y 1 X -2 Y 1 -1 d -1 Y 1 X -2 Y 1 X -1 Y 1 -1 d s 307 810 m 1 X -1 Y 1 X -1 Y 1 -1 d 1 X -1 Y 2 X -1 Y 1 X -1 Y 1 X -1 Y s 315 803 m 1 X -1 Y 1 X -1 Y 1 X 1 -1 d
 1 X -1 Y 1 X -1 Y 1 X -2 Y 1 X -1 Y 1 X -1 Y s 324 794 m 1 X -1 Y 2 X -1 Y 2 X -1 Y 1 X -1 Y 3 X s 333 790 m 3 X -1 Y 1 X 1 -1 d 1 X -1 Y 1 X -1 Y 2 X s 342 786 m 1 X -1 Y 1 X -1 Y 2 X -1 Y 2 X -1 Y 2 X -1 Y 1 X s 351 781 m -1 Y 1 X -1 Y 3 X -1 Y 4
 X -1 Y s 359 777 m 3 X -1 Y 2 X -1 Y 3 X -1 Y 1 X s 368 774 m 2 X -1 Y 1 X -1 Y 3 X -1 Y 3 X s 377 771 m 1 X -1 Y 4 X -1 Y 4 X s 386 769 m 2 X -1 Y 2 X -1 Y 1 X 1 -1 d 3 X s 395 766 m 5 X -1 Y 3 X s 403 765 m 1 X -1 Y 4 X 1 -1 d 3 X s 412 763 m 4 X
 -1 Y 5 X s 421 762 m 3 X -1 Y 3 X -1 Y 1 X -1 Y 2 X s 430 759 m 3 X -1 Y 6 X s 439 758 m 3 X 1 -1 d 2 X 1 -1 d 1 X s 447 756 m 8 X -1 Y 1 X s 456 755 m 6 X -1 Y 3 X s 465 754 m 3 X -1 Y 6 X s 474 753 m 1 -1 d 4 X -1 Y 2 X -1 Y 2 X s 483 750 m 3 X 1
 -1 d 1 X 1 -1 d 2 X s 491 748 m 7 X 1 -1 d 1 X s 500 747 m 7 X 1 -1 d 1 X s 509 746 m 9 X s 518 746 m 5 X -1 Y 4 X s 527 745 m 1 X -1 Y 7 X s 535 744 m 2 X -1 Y 3 X -2 Y 1 X -3 Y 1 X -2 Y 1 X -1 Y 1 X -2 Y s 544 733 m -1 Y 1 -1 d -2 Y 1 -1 d -2 Y 1
 -1 d -2 Y 1 X -2 Y 1 -1 d -1 Y 1 -1 d -1 Y 1 -1 d -1 Y 1 -1 d -2 Y 1 X -1 Y s 553 711 m 1 X -2 Y 1 X -2 Y 1 X -2 Y 1 X -2 Y 1 X -2 Y 1 X -3 Y 1 X -1 Y 1 X -3 Y 1 -1 d s 562 693 m -1 Y 1 X -2 Y 1 X -2 Y 1 X -2 Y 1 -1 d 1 -1 d -1 Y 1 X -2 Y 1 X -2 Y 1
 X -2 Y 1 X s 571 677 m -2 Y 1 X -2 Y 1 X -2 Y 1 -1 d 1 -1 d -1 Y 1 -1 d -2 Y 1 -1 d -1 Y 1 -1 d -1 Y 1 X -1 Y s 579 660 m 1 -1 d -2 Y 1 X -1 Y 1 -1 d -1 Y 1 X -1 Y 1 -1 d 1 -1 d -1 Y 1 X -2 Y 1 X -2 Y 1 X -1 Y s 588 645 m 1 X -2 Y 1 X -2 Y 1 X -1 Y
 1 X -1 Y 1 X -2 Y 1 X -1 Y 1 X 1 -1 d -1 Y 1 -1 d -1 Y s 597 632 m -1 Y 1 X -1 Y 1 -1 d -1 Y 1 X 1 -1 d -1 Y 1 X -1 Y 1 -1 d 1 X -1 Y 1 X -1 Y 1 -1 d s 606 621 m 1 -1 d -1 Y 1 X -1 Y 1 -1 d -1 Y 1 -1 d 1 -1 d -1 Y 1 -1 d -2 Y 2 X -1 Y 1 X s 615 609
 m -1 Y 1 X -1 Y 1 X -1 Y 1 X -2 Y 1 X -1 Y 1 X -2 Y 1 X -1 Y 1 X -1 Y 1 -1 d -1 Y s 623 597 m 1 X -1 Y 1 X -2 Y 1 X -1 Y 1 X -1 Y 1 X -1 Y 1 -1 d 1 -1 d 1 -1 d 1 -1 d s 632 587 m -1 Y 1 X -2 Y 1 X -1 Y 1 X -1 Y 1 X -1 Y 1 X -2 Y 1 X -2 Y 1 X -1 Y 1
 X -1 Y 1 X -1 Y s 641 574 m -1 Y 1 X -1 Y 2 X -2 Y 1 X -1 Y 1 X -2 Y 2 X 1 -1 d -1 Y 1 X -1 Y s 650 564 m 1 -1 d -1 Y 2 X -1 Y 1 X -2 Y 1 X -1 Y 1 X -1 Y 1 -1 d 1 X -2 Y 1 -1 d s 659 553 m 1 X -1 Y 1 X -1 Y 2 X -1 Y 1 X -1 Y 1 X -1 Y 1 X -1 Y 1 X -2
 Y s 667 545 m 1 X -1 Y 1 X -2 Y 1 X -1 Y 1 X -1 Y 1 X -1 Y 1 X -2 Y 1 X 1 -1 d 1 X -1 Y s 676 535 m -1 Y 1 X -1 Y 2 X -1 Y 1 X -1 Y 1 X -1 Y 1 X -1 Y 1 X -2 Y 1 X -1 Y 1 -1 d s 685 525 m 1 -1 d -1 Y 1 X -1 Y 1 X -1 Y 1 X -1 Y 1 X -1 Y 1 X -1 Y 1 X
 -1 Y 1 X 1 -1 d s 694 516 m 1 X -1 Y 2 X -1 Y 1 X -1 Y 2 X -1 Y 1 X -1 Y 1 X -1 Y 1 X s 703 510 m -1 Y 2 X -1 Y 1 X -1 Y 1 -1 d -1 Y 1 X -2 Y 1 X -1 Y 1 X -1 Y 1 X -1 Y s 711 500 m 1 X -1 Y 1 -1 d 1 X -1 Y 1 X 1 -1 d -1 Y 1 -1 d 2 X -1 Y 1 X s 720
 493 m 1 -1 d 2 X -1 Y 2 X -1 Y 3 X -1 Y 1 X s 729 489 m -1 Y 1 X -1 Y 1 X -1 Y 1 X -1 Y 2 X -1 Y 1 -1 d -1 Y 2 X -1 Y 1 X s 738 481 m -1 Y 1 X -1 Y 1 X -1 Y 1 X -1 Y 2 X -1 Y 1 -1 d -1 Y 1 X -1 Y 1 -1 d 1 X s 747 472 m 1 X -1 Y 1 X -1 Y 1 X -1 Y 1 X
 -1 Y 2 X -1 Y 1 X -1 Y 1 X -1 Y s 755 465 m 2 X -1 Y 1 X 1 -1 d 1 X 1 -1 d 1 -1 d 1 X -1 Y 1 X s 764 460 m -1 Y 1 X 1 -1 d 1 X -1 Y 1 X -1 Y 1 X 1 -1 d 2 X -1 Y 1 X s 773 454 m 1 -1 d -1 Y 2 X -1 Y 1 X -1 Y 1 X -1 Y 2 X -1 Y 1 X -1 Y 1 X s 782 447 m
 1 X -1 Y 2 X -1 Y 1 X -1 Y 1 X 1 -1 d 1 -1 d 1 X 1 -1 d s 791 441 m 1 X -1 Y 1 X -1 Y 1 X -2 Y 2 X -2 Y 2 X -1 Y 1 X -1 Y s 799 433 m 2 X -1 Y 2 X 1 -1 d -1 Y 2 X -1 Y 1 X -1 Y 1 X s 808 428 m -1 Y 2 X -1 Y 4 X -1 Y 1 X -1 Y 1 X -1 Y 1 X s 817 423 m
 -1 Y 1 X -1 Y 1 X -1 Y 2 X -1 Y 2 X -1 Y 3 X s 826 418 m -1 Y 1 -1 d 2 X -1 Y 1 X -1 Y 1 -1 d 1 X -1 Y 1 X 1 -1 d -1 Y 1 X s 835 410 m 1 -1 d 1 X -1 Y 2 X -1 Y 2 X -1 Y 1 X -1 Y 1 X s 843 405 m 1 X -1 Y 3 X -1 Y 1 X -1 Y 1 X -1 Y 2 X -1 Y 1 X s 852
 400 m 1 X 1 -1 d 1 X -1 Y 1 X -1 Y 1 X 1 -1 d 2 X -1 Y 1 X -1 Y s 861 394 m 3 X -1 Y 1 X -1 Y 1 X 1 -1 d 1 X -1 Y 2 X s 870 390 m -1 Y 2 X 1 -1 d 2 X -1 Y 3 X -1 Y 1 X s 879 386 m 1 X -1 Y 1 X -1 Y 3 X -1 Y 1 X -1 Y 1 X -1 Y 1 X s 887 381 m 1 X -1 Y
 1 X -1 Y 2 X -1 Y 3 X 1 -1 d 1 X s 896 377 m 1 -1 d 4 X -1 Y 3 X -1 Y 1 X s 905 374 m -1 Y 1 X 1 -1 d 1 X -1 Y 1 X -1 Y 4 X 1 -1 d s 914 369 m 1 X -1 Y 1 X -1 Y 2 X -1 Y 2 X -1 Y 3 X s 923 365 m 1 -1 d 3 X -1 Y 3 X -1 Y 1 X s 931 362 m 1 X -1 Y 1 X
 1 -1 d 1 X -1 Y 3 X 1 -1 d 1 X s 940 358 m 1 X 1 -1 d 1 X 1 -1 d 4 X -1 Y 1 X s 949 355 m 3 X -1 Y 2 X -1 Y 2 X -1 Y 2 X s 958 352 m 3 X -1 Y 1 X -1 Y 3 X -1 Y 2 X s 967 349 m -1 Y 3 X -1 Y 2 X -1 Y 2 X -1 Y 1 X s 975 345 m 2 X -1 Y 2 X 1 -1 d 4 X s
 984 343 m 1 X -1 Y 2 X 1 -1 d 3 X -1 Y 2 X s 993 340 m 3 X -1 Y 4 X -1 Y 2 X s 1002 338 m 1 -1 d 1 X -1 Y 2 X -1 Y 2 X -1 Y 3 X s 1011 334 m 5 X -1 Y 3 X s 1019 333 m 1 X -1 Y 3 X -1 Y 4 X -1 Y 1 X s 1028 330 m 2 X -1 Y 5 X 1 -1 d 1 X s 1037 328 m 1
 X -1 Y 5 X -1 Y 2 X -1 Y 1 X s 1046 325 m 4 X -1 Y 1 X -1 Y 2 X 1 -1 d 1 X s 1055 322 m 5 X -1 Y 3 X s 1063 321 m 1 X -1 Y 2 X -1 Y 3 X -1 Y 3 X s 1072 318 m 1 X -1 Y 1 X -1 Y 5 X -1 Y 2 X s 1081 315 m 5 X -1 Y 1 X -1 Y 1 X -1 Y 2 X s 1090 312 m -1
 Y 1 X -1 Y 3 X -1 Y 2 X -1 Y 3 X s 1099 308 m -1 Y 4 X -1 Y 4 X s 1107 306 m 2 X -1 Y 4 X -1 Y 3 X s 1116 304 m 3 X -1 Y 2 X -1 Y 4 X s 1125 302 m 1 -1 d 4 X -1 Y 4 X s 1134 300 m 1 X 1 -1 d 5 X -1 Y 2 X s 1143 298 m 1 X -1 Y 5 X -1 Y 2 X s 1151 296
 m 2 X 1 -1 d 2 X -1 Y 2 X 1 -1 d 1 X s 1160 293 m 1 X -1 Y 6 X -1 Y 2 X s 1169 291 m 2 X -2 Y 6 X -1 Y 1 X s 1178 288 m 7 X -1 Y 2 X s 1187 287 m 1 X -1 Y 5 X -1 Y 2 X s 1195 285 m 1 -1 d 1 X 1 -1 d 2 X -1 Y 3 X -1 Y 1 X s 1204 281 m 4 X -1 Y 5 X s
 1213 280 m 3 X -1 Y 4 X -1 Y 2 X s 1222 278 m 7 X -1 Y 2 X s 1231 277 m 2 X -1 Y 4 X -1 Y 2 X s 1239 275 m 7 X -1 Y 2 X s 1248 274 m 6 X -1 Y 3 X s 1257 273 m 4 X -1 Y 5 X s 1266 272 m 4 X -1 Y 5 X s 1275 271 m 2 X -1 Y 6 X s 1283 270 m 2 X -1 Y 5 X
 -1 Y 1 X 1 -1 d s 1292 267 m 2 X 1 -1 d 4 X -1 Y 2 X s 1301 265 m 1 X -1 Y 4 X -1 Y 4 X s 1310 263 m 2 X -1 Y 3 X -1 Y 4 X s 1319 261 m 4 X -1 Y 4 X s 1327 260 m 1 X 1 -1 d 2 X 1 -1 d 4 X s 1336 258 m -1 Y 8 X -1 Y 1 X s 1345 256 m 9 X s 1354 256 m
 -1 Y 9 X s 1363 255 m 1 X 1 -1 d 6 X -1 Y s 1371 253 m 2 X 1 -1 d 4 X -1 Y 2 X s 1380 251 m 2 X -1 Y 3 X -1 Y 4 X s 1389 249 m 2 X 1 -1 d 6 X s 1398 248 m 1 X -1 Y 7 X -1 Y 1 X s 1407 246 m 8 X s 1415 246 m 1 X -1 Y 8 X s 1424 245 m 2 X -1 Y 7 X s
 1433 244 m -1 Y 6 X -1 Y 3 X s 1442 242 m 7 X -1 Y 2 X s 1451 241 m 3 X 1 -1 d 4 X s 1459 240 m 4 X -1 Y 5 X s 1468 239 m 4 X -1 Y 5 X s 1477 238 m 5 X -1 Y 4 X s 1486 237 m 2 X -1 Y 7 X s 1495 236 m -1 Y 5 X -1 Y 3 X s 1503 234 m 2 X -1 Y 7 X s
 1512 233 m 1 X -1 Y 5 X -1 Y 3 X s 1521 231 m 2 X -1 Y 6 X -1 Y 1 X s 1530 229 m 6 X -1 Y 3 X s 1539 228 m 3 X -1 Y 5 X s 1547 227 m 2 X -1 Y 5 X 1 -1 d 1 X s 1556 225 m 2 X -1 Y 7 X s 1565 224 m 6 X -1 Y 3 X s 1574 223 m 6 X 1 -1 d 2 X s 1583 222 m
 6 X -1 Y 2 X s 1591 221 m 5 X -1 Y 3 X -1 Y 1 X s 1600 219 m 3 X -1 Y 6 X s 1609 218 m 4 X -1 Y 3 X -1 Y 2 X s 1618 216 m 6 X -1 Y 3 X s 1627 215 m 1 X -1 Y 7 X s 1635 214 m 8 X 1 -1 d s 1644 213 m 2 X 1 -1 d 6 X s 1653 212 m -1 Y 2 X -1 Y 6 X -1 Y
 1 X s 1662 209 m 1 -1 d 6 X 1 -1 d 1 X s 1671 207 m 8 X s 1679 207 m 3 X 1 -1 d 3 X -1 Y 2 X s 1688 205 m 2 X -1 Y 5 X -1 Y 2 X s 1697 203 m 1 X 1 -1 d 2 X 1 -1 d 2 X s 0 0.666667 0 c 1 1 1 c black 0 0.666667 0 c 245 1051 m 1 Y 1 X 3 Y 1 X 2 Y 1 1 d
 2 Y 1 X 3 Y 1 X 3 Y 1 1 d 3 Y 1 1 d 2 Y 1 1 d 4 Y 1 1 d s 254 1079 m 3 Y 1 X 5 Y 1 1 d 4 Y 1 X 2 Y 1 1 d 4 Y 1 X 2 Y 1 1 d 3 Y 1 1 d 2 Y 1 X 3 Y 1 X s 263 1111 m 2 Y 1 X 2 Y 1 1 d 2 Y 1 X 2 Y 1 X 2 Y 1 X 1 Y 1 X 2 Y 1 X 1 Y 1 X 1 Y s 271 1127 m 1 X
 2 Y 1 X 1 Y 1 X 1 Y 1 X 1 Y 1 1 d 1 X 1 Y 1 X 1 Y 1 X 1 Y 1 X 1 Y s 280 1137 m 1 X 1 Y 1 X 1 Y 1 X 1 Y 2 X 1 Y 1 X 1 Y 1 X 1 Y 2 X 1 Y s 289 1144 m 2 X 1 Y 2 X 1 Y 1 X 1 Y 3 X 1 Y 1 X s 298 1148 m 1 X 1 Y 2 X 1 1 d 1 X 1 1 d -1 Y 1 Y 2 X 1 Y 1 X s
 307 1152 m 2 X 1 Y 4 X 1 Y 2 X s 315 1154 m 3 X 1 1 d 3 X 1 Y 2 X s 324 1156 m 1 1 d 5 X 1 Y 3 X s 333 1158 m 6 X 1 Y 3 X s 342 1159 m 4 X 1 1 d 1 -1 d 1 Y 3 X s 351 1160 m 1 X 1 Y 7 X s 359 1161 m 5 X 1 Y 1 X -1 Y 1 1 d 2 X s 368 1162 m 6 X 1 Y 3 X
 s 377 1163 m 9 X s 386 1163 m 4 X 1 Y -1 Y 1 1 d 4 X s 395 1164 m 8 X s 403 1164 m 9 X s 412 1164 m 3 X 1 1 d 5 X s 421 1165 m 7 X 1 Y 2 X s 430 1166 m 9 X s 439 1166 m 8 X s 447 1166 m 9 X s 456 1166 m 1 X 1 1 d 7 X s 465 1167 m 9 X s 474 1167 m 4
 X 1 Y 5 X s 483 1168 m 7 X 1 Y 1 X s 491 1169 m 9 X s 500 1169 m 9 X s 509 1169 m 9 X s 518 1169 m 9 X s 527 1169 m 1 Y 8 X s 535 1170 m 5 X 1 Y -1 Y 1 X 1 Y 3 X 1 Y s 544 1172 m 2 X 1 Y 2 X 1 Y 3 X 1 1 d 1 X s 553 1175 m 2 X 1 Y 2 X 1 Y 2 X 1 Y -1
 Y 2 X 1 Y 1 X s 562 1178 m 2 X 1 Y 1 X 1 1 d 4 X 1 Y 1 X s 571 1181 m 1 X 1 Y 3 X 1 Y -1 Y 1 Y 1 X 1 Y 3 X 1 Y s 579 1185 m 2 X 1 Y 2 X 1 1 d -1 Y 1 1 d 3 X 1 Y s 588 1188 m 2 X 1 Y 6 X 1 Y -1 Y 1 Y 1 X s 597 1190 m 1 X 1 Y 2 X -1 Y 1 1 d 4 X 1 Y 1
 X s 606 1192 m 2 X 1 Y 4 X 1 Y 3 X s 615 1194 m 1 X 1 Y -1 Y 1 Y 4 X 1 Y 3 X 1 Y s 623 1197 m 7 X 1 Y 2 X s 632 1198 m 1 X 1 Y 1 X -1 Y 1 Y 1 X -1 Y 1 Y 1 -1 d 1 1 d 4 X s 641 1199 m 1 X 1 1 d -1 Y 2 X 1 Y 5 X s 650 1200 m 1 Y -1 Y 1 X 1 Y 3 X 1 Y
 -1 Y 1 Y 1 -1 d 1 Y 3 X 1 Y 1 X s 659 1203 m 6 X 1 Y 1 -1 d 1 Y -1 Y 1 X 1 Y s 667 1204 m 3 X 1 Y 3 X 1 Y 1 X -1 Y 1 1 d 1 X s 676 1206 m 4 X 1 Y 1 X -1 Y 1 Y 2 X 1 Y 2 X s 685 1208 m 1 X 1 Y 2 X 1 Y -1 Y 2 X 1 Y 3 X 1 Y 1 X -1 Y s 694 1210 m 1 Y 1
 -1 d 3 X 1 Y 1 -1 d 1 Y -1 Y 1 X 1 Y -1 Y 1 Y 3 X s 703 1211 m 1 X 1 Y -1 Y 1 X 1 Y 1 X -1 Y 1 Y 2 X 1 Y 1 X 1 Y -1 Y 1 X 1 Y 1 X s 711 1214 m 5 X 1 Y 4 X s 720 1215 m 4 X 1 -1 d 4 X s 729 1214 m 2 X 1 Y 7 X s 738 1215 m 1 X 1 Y 5 X 1 Y 3 X s 747
 1217 m 2 X 1 Y 6 X s 755 1218 m 5 X 1 1 d 3 X s 764 1219 m 1 Y 5 X 1 Y 1 X 1 -1 d 1 Y 2 X s 773 1221 m 1 X 1 Y -1 Y 2 X 1 Y 6 X s 782 1222 m 5 X 1 Y -1 Y 1 1 d 3 X s 791 1223 m 3 X 1 Y 5 X s 799 1224 m 4 X 1 1 d -1 Y 3 X 1 Y 1 X -1 Y 1 Y s 808 1225
 m 3 X -1 Y 1 X 1 1 d 4 X s 817 1225 m 1 X 1 Y 7 X -1 Y 1 X s 826 1225 m 1 Y 7 X 1 Y 2 X s 835 1227 m 2 X 1 Y 1 -1 d 1 X 1 Y 1 X 1 -1 d 1 Y 2 X s 843 1228 m 2 X -1 Y 1 X 1 Y -1 Y 1 1 d -1 Y 1 Y 5 X s 852 1228 m 1 1 d 3 X 1 Y 1 -1 d 1 X 1 Y 1 X -1 Y 2
 X s 861 1229 m 1 Y -1 Y 3 X 1 Y 2 X 1 1 d -1 Y 1 1 d -1 Y 2 X s 870 1230 m 2 X 1 1 d 6 X s 879 1231 m 1 Y 4 X 1 -1 d 1 1 d 2 X 1 Y s 887 1233 m 9 X s 896 1233 m 7 X -1 Y 2 X s 905 1232 m 1 X 1 Y -1 Y 1 Y 1 X -1 Y 1 1 d 4 X -1 Y 1 1 d -1 Y 1 1 d s
 914 1233 m -1 Y 1 Y 8 X -1 Y 1 X s 923 1232 m 2 X 1 Y 2 X 1 -1 d 3 X s 931 1232 m 1 X 1 Y 1 X -1 Y 1 Y 3 X 1 -1 d 3 X s 940 1232 m 9 X s 949 1232 m 3 X 1 -1 d 1 Y 5 X s 958 1232 m 9 X s 967 1232 m 1 Y 1 -1 d 2 X 1 Y -1 Y 5 X s 975 1232 m 1 X -1 Y 1
 1 d 7 X s 984 1232 m 9 X s 993 1232 m 5 X -1 Y 1 Y 3 X -1 Y 1 Y 1 X s 1002 1232 m 5 X 1 Y 1 X -1 Y 1 Y 1 X -1 Y 2 X s 1011 1232 m 2 X 1 -1 d 4 X -1 Y 1 X s 1019 1230 m 6 X -1 Y 3 X s 1028 1229 m 9 X s 1037 1229 m 9 X s 1046 1229 m 4 X 1 Y 5 X s 1055
 1230 m 8 X s 1063 1230 m 2 X -1 Y 7 X s 1072 1229 m 5 X -1 Y 4 X s 1081 1228 m 1 -1 d 3 X 1 Y 5 X s 1090 1228 m 9 X s 1099 1228 m 1 X 1 Y -1 Y 7 X -1 Y s 1107 1227 m 5 X 1 Y -1 Y 2 X 1 Y 2 X -1 Y s 1116 1227 m 9 X s 1125 1227 m 8 X 1 -1 d s 1134
 1226 m 1 1 d -1 Y 8 X s 1143 1226 m 6 X -1 Y 2 X s 1151 1225 m 9 X s 1160 1225 m 3 X -1 Y 6 X s 1169 1224 m 3 X 1 Y -1 Y 4 X -1 Y 2 X s 1178 1223 m 9 X s 1187 1223 m 1 X -1 Y 1 Y -1 Y 2 X 1 Y 5 X s 1195 1223 m 6 X -1 Y 1 X 1 Y 2 X s 1204 1223 m 2 X
 -1 Y 1 Y 4 X -1 Y 1 Y 3 X s 1213 1223 m 1 X 1 -1 d 7 X s 1222 1222 m 2 X -1 Y 5 X -1 Y 1 X 1 Y 1 X s 1231 1221 m 8 X s 1239 1221 m 1 X -1 Y 7 X -1 Y 1 X -1 Y s 1248 1218 m 5 X -1 Y 4 X s 1257 1217 m 1 X -1 Y 8 X s 1266 1216 m 1 -1 d 7 X -1 Y 1 X s
 1275 1214 m 8 X s 1283 1214 m 1 X 1 -1 d 1 Y 1 X -1 Y 6 X s 1292 1213 m 5 X -1 Y 1 Y 1 -1 d 1 X 1 Y 1 X -1 Y 1 X s 1301 1212 m 9 X s 1310 1212 m 5 X -1 Y 4 X s 1319 1211 m 1 X -1 Y 7 X s 1327 1210 m 1 X -1 Y 1 1 d -1 Y 3 X 1 Y -1 Y 4 X s 1336 1209 m
 3 X -1 Y 6 X s 1345 1208 m 3 X -1 Y 5 X -1 Y 1 X s 1354 1206 m 1 Y 3 X -1 Y 2 X -1 Y 3 X -1 Y 1 Y -1 Y 1 X s 1363 1204 m 8 X s 1371 1204 m 5 X -1 Y 2 X 1 Y 1 X -1 Y 1 X s 1380 1203 m 9 X s 1389 1203 m 2 X -1 Y 7 X s 1398 1202 m -1 Y 6 X -1 Y 3 X s
 1407 1200 m 8 X s 1415 1200 m 2 X -1 Y 6 X -1 Y 1 X s 1424 1198 m 3 X -1 Y 4 X -1 Y 1 Y 2 X s 1433 1197 m 1 X -1 Y 1 X 1 Y -1 Y 7 X s 1442 1196 m 3 X -1 Y 6 X s 1451 1195 m 5 X -1 Y 1 X 1 -1 d 1 X -1 Y s 1459 1192 m 1 X 1 Y 6 X -1 Y 2 X s 1468 1192
 m 2 X 1 -1 d 3 X -1 Y 3 X s 1477 1190 m 1 X -1 Y 7 X 1 -1 d s 1486 1188 m 4 X -1 Y 1 Y -1 Y 2 X -1 Y 2 X -1 Y 1 X s 1495 1185 m 2 X -1 Y 3 X 1 Y -1 Y 3 X -1 Y s 1503 1183 m 6 X -1 Y 3 X s 1512 1182 m 1 X -1 Y 1 Y 1 -1 d 6 X -1 Y 1 X s 1521 1180 m 4
 X -1 Y 1 X 1 -1 d 3 X s 1530 1178 m -1 Y 1 1 d 1 X -1 Y 6 X 1 -1 d s 1539 1176 m 8 X s 1547 1176 m 2 X -1 Y 1 X 1 Y -1 Y 4 X -1 Y 1 1 d -1 Y 1 X s 1556 1174 m 6 X -1 Y 3 X s 1565 1173 m -1 Y 3 X -1 Y 1 X -1 Y 3 X 1 -1 d 1 X s 1574 1169 m 3 X 1 -1 d
 2 X -1 Y 2 X -1 Y 1 X s 1583 1166 m 1 X -1 Y 2 X -1 Y 1 X 1 -1 d 2 X -1 Y 1 X s 1591 1162 m 3 X -1 Y 4 X -1 Y 2 X s 1600 1160 m 1 X 1 -1 d 4 X -1 Y 3 X s 1609 1158 m 4 X -1 Y 3 X -1 Y 1 Y -1 Y 1 X 1 Y -1 Y 1 X -1 Y s 1618 1155 m 2 X -1 Y 2 X -1 Y 2
 X 1 -1 d 2 X s 1627 1152 m 2 X -1 Y 3 X -1 Y 2 X -1 Y 1 X -1 Y s 1635 1148 m 2 X -1 Y 2 X 1 -1 d 2 X -1 Y 2 X s 1644 1145 m 5 X -1 Y 1 X -1 Y 3 X -1 Y s 1653 1142 m 2 X 1 Y 1 -1 d 1 X -1 Y 1 X -1 Y 3 X -1 Y 1 X s 1662 1139 m 2 X 1 -1 d 1 -1 d 1 1 d
 -1 Y 3 X -1 Y 1 X s 1671 1136 m 1 X -1 Y 2 X -1 Y 1 X -1 Y 2 X -1 Y 2 X -1 Y s 1679 1131 m 2 X -1 Y 2 X -1 Y 2 X -1 Y 2 X -2 Y 1 X s 1688 1126 m 2 X -1 Y 3 X -1 Y 1 X -1 Y 1 X -1 Y 1 X -1 Y 1 X -1 Y s 1697 1120 m 4 X -1 Y 2 X -1 Y 1 X -1 Y 2 X s
 1706 1117 m -1 Y 2 X -1 Y 2 X -1 Y 2 X -1 Y 1 X -1 Y 1 X -1 Y 1 Y -1 Y 1 X s 1715 1111 m -1 Y 1 X -1 Y 1 Y 1 -1 d 1 X -1 Y 2 X -2 Y 2 X -1 Y 1 X -1 Y s 1723 1104 m 1 X -1 Y 1 -1 d 1 Y -1 Y 1 X -1 Y 1 X -2 Y 1 X -1 Y 1 X -1 Y 1 X -2 Y 1 1 d -1 Y 1 -1
 d s 1732 1094 m -1 Y 2 X -1 Y 1 -1 d -1 Y 1 X -1 Y 1 X -1 Y 1 X -1 Y 1 X -1 Y 1 X 1 -1 d s 1741 1085 m 2 X -1 Y 1 X -1 Y 1 X -1 Y 1 X -1 Y 1 X -2 Y 2 X -1 Y 1 X s 1750 1078 m 1 -1 d -1 Y 2 X 1 -1 d 1 X -1 Y 1 X -1 Y 1 X -2 Y 2 X -1 Y s 1759 1070 m 1
 Y -1 Y 2 X -1 Y 3 X -1 Y 2 X -1 Y 1 X s 1767 1067 m 2 X -1 Y 2 X -1 Y 1 X -1 Y 1 X -1 Y 1 X -1 Y 1 X -1 Y 1 X s 1776 1061 m 1 X -1 Y 2 X -1 Y 1 X -1 Y 1 X 1 Y -1 Y 2 X -1 Y 2 X -1 Y s 1785 1056 m 2 X -1 Y 2 X -1 Y 2 X -1 Y 2 X -1 Y 1 X s 1794 1052 m
 1 X -1 Y 1 X 1 1 d -2 Y 2 X -1 Y 1 X -1 Y 2 X -1 Y 1 X s 1803 1047 m 1 X -1 Y 1 X -1 Y 1 Y 1 X 1 -1 d 1 -1 d 1 X 1 -1 d 2 X s 1812 1043 m -1 Y 1 X 1 -1 d 3 X 1 -1 d 1 X -1 Y 1 X s 1820 1039 m 1 X -1 Y 1 X 1 -1 d 1 X -2 Y 2 X -1 Y 1 X -1 Y 1 X -1 Y 1
 X s 1829 1032 m -1 Y 1 X -1 Y 1 X -1 Y 2 X -1 Y 1 X -1 Y 1 X -1 Y 2 X 1 -1 d s 1838 1025 m 2 X -1 Y 1 -1 d -1 Y 3 X -1 Y 2 X -1 Y 1 X s 1847 1020 m 1 X -2 Y 1 X -1 Y 2 X 1 -1 d 1 X -1 Y 1 X -1 Y 1 X -1 Y 1 X s 1856 1013 m 1 -1 d 1 X -1 Y 1 X 1 -1 d
 1 X -1 Y 1 X -1 Y 2 X s 1864 1008 m -1 Y 2 X -1 Y 2 X -1 Y 2 X -1 Y 1 X -1 Y 1 X -1 Y 1 X s 1873 1002 m 1 X 1 -1 d 1 X -1 Y 1 X -1 Y 1 X -1 Y 1 -1 d 1 X -1 Y 2 X -1 Y s 1882 995 m 1 X -1 Y 1 X -1 Y 1 X -1 Y 1 -1 d -1 Y 1 X -1 Y 1 -1 d 1 X -1 Y 2 X
 -1 Y s 1891 986 m 1 X -1 Y 1 X -1 Y 1 X -1 Y 1 X -1 Y 1 -1 d 1 X 1 Y -1 Y 2 X -1 Y 1 X s 1900 980 m -1 Y 1 X -1 Y 2 X -1 Y 2 X -1 Y 1 X -1 Y 1 X -1 Y 1 X -1 Y s 1908 973 m 3 X -1 Y 1 X 1 -1 d 1 X -1 Y 2 X -1 Y 1 X -1 Y s 1917 968 m 1 -1 d 1 X -1 Y 1
 X -1 Y 1 X -1 Y 1 X -1 Y 1 X 1 -1 d 1 X -1 Y 1 X s 1926 961 m 1 X -1 Y 1 X -1 Y 1 -1 d 1 X -1 Y 1 X -1 Y 1 X -1 Y 1 X -2 Y 2 X s 1935 953 m 1 -1 d 1 -1 d 1 -1 d 1 Y -1 Y 1 X -1 Y 1 X 1 -1 d 1 X -1 Y 1 X -1 Y 1 X s 1944 946 m -1 Y 1 X -1 Y 1 X -1 Y 1
 X -1 Y 1 X -1 Y 1 X -1 Y 1 X -1 Y 1 X -1 Y 1 X -1 Y s 1952 937 m 1 X -1 Y 1 X -1 Y 1 X -1 Y 1 X -1 Y 1 X -1 Y 1 X -2 Y 1 X -1 Y 1 X -2 Y 1 X s 1961 927 m -1 Y 1 X -1 Y 1 -1 d -2 Y 2 X -1 Y 1 X -1 Y 1 X -1 Y 1 X -1 Y 1 -1 d 1 X -1 Y s 1970 916 m -1 Y
 1 X -1 Y 1 X -1 Y 1 X -1 Y 1 -1 d 1 -1 d -1 Y 1 X -1 Y 1 Y 1 -1 d -2 Y 1 X -1 Y 1 X -1 Y s 1979 904 m 1 -1 d -1 Y 1 -1 d 1 -1 d 1 -1 d -1 Y 1 -1 d 1 X 1 -1 d -1 Y 1 X -2 Y 1 X s 1988 893 m -1 Y 1 X -3 Y 1 X -1 Y 1 X 1 -1 d -1 Y 1 X -1 Y 1 X -1 Y 1 X
 -2 Y 1 X -1 Y s 1996 881 m 1 -1 d -1 Y 1 X -2 Y 1 -1 d 1 X -2 Y 1 -1 d -1 Y 1 X -1 Y 1 -1 d -1 Y 1 X -2 Y 1 -1 d s 2005 866 m 1 -1 d -1 Y 1 X -2 Y 1 X -2 Y 1 X -2 Y 1 X -1 Y 1 X -2 Y 1 -1 d -2 Y 1 -1 d -1 Y 1 -1 d -1 Y s 2014 848 m -2 Y 1 X -3 Y 1
 -1 d -2 Y 1 X -2 Y 1 X -1 Y 1 -1 d -2 Y 1 -1 d -1 Y 1 -1 d -4 Y 1 -1 d -2 Y 1 X -1 Y s 2023 823 m -2 Y 1 X -3 Y 1 -1 d -3 Y 1 X -3 Y 1 -1 d -2 Y 1 -1 d -2 Y 1 X -4 Y 1 -1 d -4 Y 1 -1 d -3 Y 1 -1 d s 2032 791 m -4 Y 1 -2 d -8 Y 1 X -7 Y 1 -2 d -7 Y 1
 -2 d -8 Y 1 -1 d -12 Y 1 -1 d -11 Y 1 -4 d -22 Y 1 -8 d -38 Y s 2040 654 m -28 Y 1 -33 d -53 Y s black 3 lw 245 201 m 1796 X s 424 241 m -40 Y s 460 221 m -20 Y s 496 221 m -20 Y s 532 221 m -20 Y s 568 221 m -20 Y s 604 241 m -40 Y s 640 221 m -20
 Y s 676 221 m -20 Y s 712 221 m -20 Y s 748 221 m -20 Y s 784 241 m -40 Y s 820 221 m -20 Y s 856 221 m -20 Y s 891 221 m -20 Y s 927 221 m -20 Y s 963 241 m -40 Y s 999 221 m -20 Y s 1035 221 m -20 Y s 1071 221 m -20 Y s 1107 221 m -20 Y s 1143 241
 m -40 Y s 1179 221 m -20 Y s 1215 221 m -20 Y s 1251 221 m -20 Y s 1287 221 m -20 Y s 1322 241 m -40 Y s 1358 221 m -20 Y s 1394 221 m -20 Y s 1430 221 m -20 Y s 1466 221 m -20 Y s 1502 241 m -40 Y s 1538 221 m -20 Y s 1574 221 m -20 Y s 1610 221 m
 -20 Y s 1646 221 m -20 Y s 1682 241 m -40 Y s 1718 221 m -20 Y s 1754 221 m -20 Y s 1789 221 m -20 Y s 1825 221 m -20 Y s 1861 241 m -40 Y s 1897 221 m -20 Y s 1933 221 m -20 Y s 1969 221 m -20 Y s 2005 221 m -20 Y s 2041 241 m -40 Y s 424 241 m -40
 Y s 389 221 m -20 Y s 353 221 m -20 Y s 317 221 m -20 Y s 281 221 m -20 Y s 2041 241 m -40 Y s 245 201 m 1140 Y s 291 372 m -46 X s 268 426 m -23 X s 268 480 m -23 X s 268 533 m -23 X s 291 587 m -46 X s 268 641 m -23 X s 268 695 m -23 X s 268 749 m
 -23 X s 291 803 m -46 X s 268 856 m -23 X s 268 910 m -23 X s 268 964 m -23 X s 291 1018 m -46 X s 268 1072 m -23 X s 268 1126 m -23 X s 268 1179 m -23 X s 291 1233 m -46 X s 291 372 m -46 X s 268 318 m -23 X s 268 264 m -23 X s 268 210 m -23 X s
 291 1233 m -46 X s 268 1287 m -23 X s 0.490196 0.545098 0.615686 c 1 1 1 c 0.490196 0.545098 0.615686 c 907 201 245 1341 bl 245 1341 m 907 X s 1152 1341 m 201 Y s 1152 1542 m -907 X s 245 1542 m -201 Y s black
 gsave  2268 1676 0 0 C 515.735 1471.36 t 0 r /Helvetica-Bold findfont 56.8825 sf 0 0 m (Signal efficiency) show NC gr  0 0 0.933333 c 9 lw 286 1492 m 190 X s black
 gsave  2268 1676 0 0 C 515.735 1368.97 t 0 r /Helvetica-Bold findfont 56.8825 sf 0 0 m (Background efficiency) show NC gr  1 0 0 c 286 1391 m 190 X s 0.490196 0.545098 0.615686 c 3 lw 1 1 1 c 0.490196 0.545098 0.615686 c 889 201 1152 1341 bl 1152
 1341 m 889 X s 2041 1341 m 201 Y s 2041 1542 m -889 X s 1152 1542 m -201 Y s black
 gsave  2268 1676 0 0 C 1418.27 1494.11 t 0 r /Helvetica-Bold findfont 56.8825 sf 0 0 m (Signal purity) show NC gr  0 0 0.933333 c[  52 12 ] 0 sd 6 lw 1192 1509 m 187 X s black
 gsave  2268 1676 0 0 C 1418.27 1429.65 t 0 r /Helvetica-Bold findfont 56.8825 sf 0 0 m (Signal efficiency*purity) show NC gr  0 0 0.933333 c[  22 12 ] 0 sd 1192 1441 m 187 X s black
 gsave  2268 1676 0 0 C 1501.7 1361.39 t 0 r /Helvetica-Bold findfont 56.8825 sf 0 0 m (S+B) show NC gr [  ] 0 sd 1483 1407 m 7 -49 d s 3 lw 1490 1358 m 8 64 d s 1498 1422 m 114 X s
 gsave  2268 1676 0 0 C 1418.27 1361.39 t 0 r /Helvetica-Bold findfont 56.8825 sf 0 0 m (S/) show NC gr  0 0.666667 0 c 9 lw 1192 1374 m 187 X s black 3 lw 245 1233 m 1796 X s
 gsave  2268 1676 0 0 C 337.503 386.801 t 0 r /Helvetica-Bold findfont 53.0904 sf 0 0 m (For 1000 signal and 1000 background) show NC gr 
 gsave  2268 1676 0 0 C 1058.01 318.542 t 0 r /Helvetica-Bold findfont 53.0904 sf 0 0 m ( is) show NC gr 
 gsave  2268 1676 0 0 C 955.626 318.542 t 0 r /Helvetica-Bold findfont 53.0904 sf 0 0 m (S+B) show NC gr  6 lw 933 360 m 7 -45 d s 3 lw 940 315 m 8 60 d s 948 375 m 110 X s
 gsave  2268 1676 0 0 C 337.503 318.542 t 0 r /Helvetica-Bold findfont 53.0904 sf 0 0 m (events the maximum S/) show NC gr 
 gsave  2268 1676 0 0 C 337.503 254.075 t 0 r /Helvetica-Bold findfont 53.0904 sf 0 0 m (26.92 when cutting at  0.37) show NC gr  0.490196 0.545098 0.615686 c 0.364706 0.419608 0.490196 c 1471 96 23 1572 bf 0.490196 0.545098 0.615686 c 23 1572 m 1471
 X s 1494 1572 m 96 Y s 1494 1668 m -1471 X s 23 1668 m -96 Y s 1 1 1 c black 1 1 1 c
 gsave  2268 1676 0 0 C 75.8434 1600.29 t 0 r /Helvetica-Bold findfont 75.8434 sf 0 0 m (Cut efficiencies and optimal cut value) show NC gr  0 0.666667 0 c 2041 201 m 1140 Y s 1995 201 m 46 X s 2018 240 m 23 X s 2018 278 m 23 X s 2018 317 m 23 X s
 2018 355 m 23 X s 1995 394 m 46 X s 2018 432 m 23 X s 2018 471 m 23 X s 2018 509 m 23 X s 2018 548 m 23 X s 1995 586 m 46 X s 2018 625 m 23 X s 2018 663 m 23 X s 2018 702 m 23 X s 2018 740 m 23 X s 1995 778 m 46 X s 2018 817 m 23 X s 2018 855 m 23 X
 s 2018 894 m 23 X s 2018 932 m 23 X s 1995 971 m 46 X s 2018 1009 m 23 X s 2018 1048 m 23 X s 2018 1086 m 23 X s 2018 1125 m 23 X s 1995 1163 m 46 X s 1995 1163 m 46 X s 2018 1202 m 23 X s 2018 1240 m 23 X s 2018 1279 m 23 X s 2018 1317 m 23 X s
 black 0 0.666667 0 c
 gsave  2268 1676 0 0 C 2051.56 178.232 t 0 r /Helvetica-Bold findfont 64.4669 sf 0 0 m (0) show NC gr  black 0 0.666667 0 c
 gsave  2268 1676 0 0 C 2051.56 367.84 t 0 r /Helvetica-Bold findfont 64.4669 sf 0 0 m (5) show NC gr  black 0 0.666667 0 c
 gsave  2268 1676 0 0 C 2051.56 561.241 t 0 r /Helvetica-Bold findfont 64.4669 sf 0 0 m (10) show NC gr  black 0 0.666667 0 c
 gsave  2268 1676 0 0 C 2051.56 754.641 t 0 r /Helvetica-Bold findfont 64.4669 sf 0 0 m (15) show NC gr  black 0 0.666667 0 c
 gsave  2268 1676 0 0 C 2051.56 948.042 t 0 r /Helvetica-Bold findfont 64.4669 sf 0 0 m (20) show NC gr  black 0 0.666667 0 c
 gsave  2268 1676 0 0 C 2051.56 1137.65 t 0 r /Helvetica-Bold findfont 64.4669 sf 0 0 m (25) show NC gr  black 0 0.666667 0 c
 gsave  2268 1676 0 0 C 2203.25 963.211 t 90 r /Helvetica-Bold findfont 64.4669 sf 0 0 m (Significance) show NC gr 
 gr  gr showpage
end
%%EOF
