%!PS-Adobe-2.0 EPSF-2.0
%%BoundingBox:  0 0 567 354
%%Title: dataset/plots/network.eps: Neural Network Layout for: MLPBNN
%%Creator: ROOT Version 6.12/06
%%CreationDate: Mon May 21 11:06:57 2018
%%DocumentNeededResources: ProcSet (FontSetInit)
%%EndComments
%%BeginProlog
80 dict begin
/s {stroke} def /l {lineto} def /m {moveto} def /t {translate} def
/r {rotate} def /rl {roll}  def /R {repeat} def
/d {rlineto} def /rm {rmoveto} def /gr {grestore} def /f {eofill} def
/c {setrgbcolor} def /black {0 setgray} def /sd {setdash} def
/cl {closepath} def /sf {scalefont setfont} def /lw {setlinewidth} def
/box {m dup 0 exch d exch 0 d 0 exch neg d cl} def
/NC{systemdict begin initclip end}def/C{NC box clip newpath}def
/bl {box s} def /bf {gsave box gsave f grestore 1 lw [] 0 sd s grestore} def /Y { 0 exch d} def /X { 0 d} def 
/K {{pop pop 0 moveto} exch kshow} bind def
/ita {/ang 15 def gsave [1 0 ang dup sin exch cos div 1 0 0] concat} def 
/mp {newpath /y exch def /x exch def} def
/side {[w .77 mul w .23 mul] .385 w mul sd w 0 l currentpoint t -144 r} def
/mr {mp x y w2 0 360 arc} def /m24 {mr s} def /m20 {mr f} def
/mb {mp x y w2 add m w2 neg 0 d 0 w neg d w 0 d 0 w d cl} def
/mt {mp x y w2 add m w2 neg w neg d w 0 d cl} def
/w4 {w 4 div} def
/w6 {w 6 div} def
/w8 {w 8 div} def
/m21 {mb f} def /m25 {mb s} def /m22 {mt f} def /m26{mt s} def
/m23 {mp x y w2 sub m w2 w d w neg 0 d cl f} def
/m27 {mp x y w2 add m w3 neg w2 neg d w3 w2 neg d w3 w2 d cl s} def
/m28 {mp x w2 sub y w2 sub w3 add m w3 0 d  0 w3 neg d w3 0 d 0 w3 d w3 0 d  0 w3 d w3 neg 0 d 0 w3 d w3 neg 0 d 0 w3 neg d w3 neg 0 d cl s } def
/m29 {mp gsave x w2 sub y w2 add w3 sub m currentpoint t 4 {side} repeat cl fill gr} def
/m30 {mp gsave x w2 sub y w2 add w3 sub m currentpoint t 4 {side} repeat cl s gr} def
/m31 {mp x y w2 sub m 0 w d x w2 sub y m w 0 d x w2 sub y w2 add m w w neg d x w2 sub y w2 sub m w w d s} def
/m32 {mp x y w2 sub m w2 w d w neg 0 d cl s} def
/m33 {mp x y w2 add m w3 neg w2 neg d w3 w2 neg d w3 w2 d cl f} def
/m34 {mp x w2 sub y w2 sub w3 add m w3 0 d  0 w3 neg d w3 0 d 0 w3 d w3 0 d  0 w3 d w3 neg 0 d 0 w3 d w3 neg 0 d 0 w3 neg d w3 neg 0 d cl f } def
/m35 {mp x y w2 add m w2 neg w2 neg d w2 w2 neg d w2 w2 d w2 neg w2 d x y w2 sub m 0 w d x w2 sub y m w 0 d s} def
/m36 {mb x w2 sub y w2 add m w w neg d x w2 sub y w2 sub m w w d s} def
/m37 {mp x y m w4 neg w2 d w4 neg w2 neg d w2 0 d  w4 neg w2 neg d w2 0 d w4 neg w2 d w2 0 d w4 neg w2 d w4 neg w2 neg d cl s} def
/m38 {mp x w4 sub y w2 add m w4 neg w4 neg d 0 w2 neg d w4 w4 neg d w2 0 d w4 w4 d 0 w2 d w4 neg w4 d w2 neg 0 d x y w2 sub m 0 w d x w2 sub y m w 0 d cl s} def
/m39 {mp x y m w4 neg w2 d w4 neg w2 neg d w2 0 d  w4 neg w2 neg d w2 0 d w4 neg w2 d w2 0 d w4 neg w2 d w4 neg w2 neg d cl f} def
/m40 {mp x y m w4 w2 d w4 w4 neg d w2 neg w4 neg d w2 w4 neg d w4 neg w4 neg d w4 neg w2 d w4 neg w2 neg d w4 neg w4 d w2 w4 d w2 neg w4 d w4 w4 d w4 w2 neg d cl s} def
/m41 {mp x y m w4 w2 d w4 w4 neg d w2 neg w4 neg d w2 w4 neg d w4 neg w4 neg d w4 neg w2 d w4 neg w2 neg d w4 neg w4 d w2 w4 d w2 neg w4 d w4 w4 d w4 w2 neg d cl f} def
/m42 {mp x y w2 add m w8 neg w2 -3 4 div mul d w2 -3 4 div mul w8 neg d w2 3 4 div mul w8 neg d w8 w2 -3 4 div mul d w8 w2 3 4 div mul d w2 3 4 div mul w8 d w2 -3 4 div mul w8 d w8 neg w2 3 4 div mul d cl s} def
/m43 {mp x y w2 add m w8 neg w2 -3 4 div mul d w2 -3 4 div mul w8 neg d w2 3 4 div mul w8 neg d w8 w2 -3 4 div mul d w8 w2 3 4 div mul d w2 3 4 div mul w8 d w2 -3 4 div mul w8 d w8 neg w2 3 4 div mul d cl f} def
/m44 {mp x y m w6 neg w2 d w2 2 3 div mul 0 d w6 neg w2 neg d w2 w6 d 0 w2 -2 3 div mul d w2 neg w6 d w6 w2 neg d w2 -2 3 div mul 0 d w6 w2 d w2 neg w6 neg d 0 w2 2 3 div mul d w2 w6 neg d cl s} def
/m45 {mp x y m w6 neg w2 d w2 2 3 div mul 0 d w6 neg w2 neg d w2 w6 d 0 w2 -2 3 div mul d w2 neg w6 d w6 w2 neg d w2 -2 3 div mul 0 d w6 w2 d w2 neg w6 neg d 0 w2 2 3 div mul d w2 w6 neg d cl f} def
/m46 {mp x y w4 add m w4 neg w4 d w4 neg w4 neg d  w4 w4 neg d w4 neg w4 neg d w4 w4 neg d w4 w4 d w4 w4 neg d w4 w4 d w4 neg w4 d w4 w4 d w4 neg w4 d w4 neg w4 neg d cl s} def
/m47 {mp x y w4 add m w4 neg w4 d w4 neg w4 neg d w4 w4 neg d w4 neg w4 neg d  w4 w4 neg d w4 w4 d w4 w4 neg d w4 w4 d w4 neg w4 d w4 w4 d w4 neg w4 d w4 neg w4 neg d cl f} def
/m48 {mp x y w4 add m w4 neg w4 d w4 neg w4 neg d w4 w4 neg d  w4 neg w4 neg d w4 w4 neg d w4 w4 d w4 w4 neg d w4 w4 d w4 neg w4 d w4 w4 d w4 neg w4 d w4 neg w4 neg d  w4 w4 neg d w4 neg w4 neg d w4 neg w4 d w4 w4 d cl f} def
/m49 {mp x w2 sub w3 add y w2 sub w3 add m  0 w3 neg d w3 0 d 0 w3 d w3 0 d 0 w3 d w3 neg 0 d 0 w3 d w3 neg 0 d 0 w3 neg d w3 neg 0 d 0 w3 neg d w3 0 d 0 w3 d w3 0 d 0 w3 neg d w3 neg 0 d cl f } def
/m2 {mp x y w2 sub m 0 w d x w2 sub y m w 0 d s} def
/m5 {mp x w2 sub y w2 sub m w w d x w2 sub y w2 add m w w neg d s} def
%%IncludeResource: ProcSet (FontSetInit)
%%IncludeResource: font Times-Roman
%%IncludeResource: font Times-Italic
%%IncludeResource: font Times-Bold
%%IncludeResource: font Times-BoldItalic
%%IncludeResource: font Helvetica
%%IncludeResource: font Helvetica-Oblique
%%IncludeResource: font Helvetica-Bold
%%IncludeResource: font Helvetica-BoldOblique
%%IncludeResource: font Courier
%%IncludeResource: font Courier-Oblique
%%IncludeResource: font Courier-Bold
%%IncludeResource: font Courier-BoldOblique
%%IncludeResource: font Symbol
%%IncludeResource: font ZapfDingbats
/reEncode {exch findfont dup length dict begin {1 index /FID eq  {pop pop} {def} ifelse } forall /Encoding exch def currentdict end dup /FontName get exch definefont pop } def [/Times-Bold /Times-Italic /Times-BoldItalic /Helvetica /Helvetica-Oblique
 /Helvetica-Bold /Helvetica-BoldOblique /Courier /Courier-Oblique /Courier-Bold /Courier-BoldOblique /Times-Roman /AvantGarde-Book /AvantGarde-BookOblique /AvantGarde-Demi /AvantGarde-DemiOblique /Bookman-Demi /Bookman-DemiItalic /Bookman-Light
 /Bookman-LightItalic /Helvetica-Narrow /Helvetica-Narrow-Bold /Helvetica-Narrow-BoldOblique /Helvetica-Narrow-Oblique /NewCenturySchlbk-Roman /NewCenturySchlbk-Bold /NewCenturySchlbk-BoldItalic /NewCenturySchlbk-Italic /Palatino-Bold
 /Palatino-BoldItalic /Palatino-Italic /Palatino-Roman ] {ISOLatin1Encoding reEncode } forall
%%EndProlog
%%BeginSetup
%%EndSetup
newpath  gsave  .25 .25 scale  gsave  0 0 t 0.490196 0.545098 0.615686 c[  ] 0 sd 3 lw 0.43 0.48 0.52 c 2268 1418 0 0 bf 0.35 0.33 0.85 c 1 1 0.992157 c 890 279 m -2 17 d -9 16 d -13 13 d -16 8 d -19 3 d -18 -3 d -16 -8 d -13 -13 d -9 -16 d -2 -17 d
 2 -18 d 9 -15 d 13 -13 d 16 -8 d 18 -3 d 19 3 d 16 8 d 13 13 d 9 15 d f 0.35 0.33 0.85 c 890 279 m -2 17 d -9 16 d -13 13 d -16 8 d -19 3 d -18 -3 d -16 -8 d -13 -13 d -9 -16 d -2 -17 d 2 -18 d 9 -15 d 13 -13 d 16 -8 d 18 -3 d 19 3 d 16 8 d 13 13 d
 9 15 d 2 18 d cl s 0.490196 0.545098 0.615686 c 1 1 1 c 83 80 790 239 bf 69 63 800 248 bf 69 63 800 248 bl 0 0 0.2 c
/WT 2.28374 def /HT 2.32324 def /XS 800 def /YY 311 def /NX 30 def /NY 444 def /DrawCell {WT HT XX YY bf /NBBD NBBD 1 add def NBBD NBB eq {exit} if /XX WT XX add def IX NX eq {/YY YY HT sub def /XX XS def /IX 0 def} if /IX IX 1 add def} def /DrawCT
 {/NBB NX NY mul def /XX XS def /IX 1 def /NBBD 0 def /RC 0 def /GC 1 def /BC 2 def 1 1 NBB {/NB CT RC get def NB 301 ge {/NBL NB 300 sub def 1 1 NBL {DrawCell} for /RC RC 1 add def /GC RC 1 add def /BC RC 2 add def}{CT RC get 255 div CT GC get 255
 div CT BC get 255 div setrgbcolor DrawCell /RC RC 3 add def /GC GC 3 add def /BC BC 3 add def} ifelse NBBD NBB eq {exit} if} for /YY YY HT sub def clear} def /CT [ 255 255 255 327 191 191 191 127 127 127 255 255 255 326 191 191 191 301 255 255 255
 326 127 127 127 191 191 191 255 255 255 326 127 127 127 255 255 255 327 127 127 127 255 255 255 326 191 191 191 127 127 127 255 255 255 327 127 127 127 255 255 255 327 127 127 127 255 255 255 326 191 191 191 127 127 127 255 255 255 326 191 191 191
 301 255 255 255 326 127 127 127 191 191 191 255 255 255 326 127 127 127 255 255 255 327 127 127 127 255 255 255 327 0 0 0 255 255 255 327 127 127 127 255 255 255 327 127 127 127 255 255 255 326 191 191 191 127 127 127 255 255 255 326 191 191 191 301
 255 255 255 326 127 127 127 191 191 191 255 255 255 326 127 127 127 255 255 255 327 127 127 127 255 255 255 327 127 127 127 191 191 191 255 255 255 326 127 127 127 255 255 255 327 127 127 127 255 255 255 326 191 191 191 127 127 127 255 255 255 326
 191 191 191 301 255 255 255 327 127 127 127 255 255 255 328] def /NY 27 def DrawCT  0.490196 0.545098 0.615686 c 1 1 0.992157 c 890 737 m -2 18 d -9 16 d -13 12 d -16 8 d -19 3 d -18 -3 d -16 -8 d -13 -12 d -9 -16 d -2 -18 d 2 -17 d 9 -16 d 13 -13 d
 16 -8 d 18 -2 d 19 2 d 16 8 d 13 13 d 9 16 d f 0.490196 0.545098 0.615686 c 890 737 m -2 18 d -9 16 d -13 12 d -16 8 d -19 3 d -18 -3 d -16 -8 d -13 -12 d -9 -16 d -2 -18 d 2 -17 d 9 -16 d 13 -13 d 16 -8 d 18 -2 d 19 2 d 16 8 d 13 13 d 9 16 d 2 17 d
 cl s 1 1 1 c 83 79 790 698 bf 69 63 800 706 bf 69 63 800 706 bl 0 0 0.2 c
/WT 2.28374 def /HT 2.32324 def /XS 800 def /YY 769 def /NX 30 def /NY 444 def /DrawCell {WT HT XX YY bf /NBBD NBBD 1 add def NBBD NBB eq {exit} if /XX WT XX add def IX NX eq {/YY YY HT sub def /XX XS def /IX 0 def} if /IX IX 1 add def} def /DrawCT
 {/NBB NX NY mul def /XX XS def /IX 1 def /NBBD 0 def /RC 0 def /GC 1 def /BC 2 def 1 1 NBB {/NB CT RC get def NB 301 ge {/NBL NB 300 sub def 1 1 NBL {DrawCell} for /RC RC 1 add def /GC RC 1 add def /BC RC 2 add def}{CT RC get 255 div CT GC get 255
 div CT BC get 255 div setrgbcolor DrawCell /RC RC 3 add def /GC GC 3 add def /BC BC 3 add def} ifelse NBBD NBB eq {exit} if} for /YY YY HT sub def clear} def /CT [ 255 255 255 327 191 191 191 127 127 127 255 255 255 326 191 191 191 301 255 255 255
 326 127 127 127 191 191 191 255 255 255 326 127 127 127 255 255 255 327 127 127 127 255 255 255 326 191 191 191 127 127 127 255 255 255 327 127 127 127 255 255 255 327 127 127 127 255 255 255 326 191 191 191 127 127 127 255 255 255 326 191 191 191
 301 255 255 255 326 127 127 127 191 191 191 255 255 255 326 127 127 127 255 255 255 327 127 127 127 255 255 255 327 0 0 0 255 255 255 327 127 127 127 255 255 255 327 127 127 127 255 255 255 326 191 191 191 127 127 127 255 255 255 326 191 191 191 301
 255 255 255 326 127 127 127 191 191 191 255 255 255 326 127 127 127 255 255 255 327 127 127 127 255 255 255 327 127 127 127 191 191 191 255 255 255 326 127 127 127 255 255 255 327 127 127 127 255 255 255 326 191 191 191 127 127 127 255 255 255 326
 191 191 191 301 255 255 255 327 127 127 127 255 255 255 328] def /NY 27 def DrawCT  0.490196 0.545098 0.615686 c 1 1 0.992157 c 890 1196 m -2 17 d -9 16 d -13 13 d -16 8 d -19 2 d -18 -2 d -16 -8 d -13 -13 d -9 -16 d -2 -17 d 2 -18 d 9 -16 d 13 -12
 d 16 -8 d 18 -3 d 19 3 d 16 8 d 13 12 d 9 16 d f 0.490196 0.545098 0.615686 c 890 1196 m -2 17 d -9 16 d -13 13 d -16 8 d -19 2 d -18 -2 d -16 -8 d -13 -13 d -9 -16 d -2 -17 d 2 -18 d 9 -16 d 13 -12 d 16 -8 d 18 -3 d 19 3 d 16 8 d 13 12 d 9 16 d 2
 18 d cl s 1 1 1 c 83 79 790 1156 bf 69 63 800 1165 bf 69 63 800 1165 bl 0 0 0.2 c
/WT 2.28374 def /HT 2.32324 def /XS 800 def /YY 1228 def /NX 30 def /NY 444 def /DrawCell {WT HT XX YY bf /NBBD NBBD 1 add def NBBD NBB eq {exit} if /XX WT XX add def IX NX eq {/YY YY HT sub def /XX XS def /IX 0 def} if /IX IX 1 add def} def /DrawCT
 {/NBB NX NY mul def /XX XS def /IX 1 def /NBBD 0 def /RC 0 def /GC 1 def /BC 2 def 1 1 NBB {/NB CT RC get def NB 301 ge {/NBL NB 300 sub def 1 1 NBL {DrawCell} for /RC RC 1 add def /GC RC 1 add def /BC RC 2 add def}{CT RC get 255 div CT GC get 255
 div CT BC get 255 div setrgbcolor DrawCell /RC RC 3 add def /GC GC 3 add def /BC BC 3 add def} ifelse NBBD NBB eq {exit} if} for /YY YY HT sub def clear} def /CT [ 255 255 255 327 191 191 191 127 127 127 255 255 255 326 191 191 191 301 255 255 255
 326 127 127 127 191 191 191 255 255 255 326 127 127 127 255 255 255 327 127 127 127 255 255 255 326 191 191 191 127 127 127 255 255 255 327 127 127 127 255 255 255 327 127 127 127 255 255 255 326 191 191 191 127 127 127 255 255 255 326 191 191 191
 301 255 255 255 326 127 127 127 191 191 191 255 255 255 326 127 127 127 255 255 255 327 127 127 127 255 255 255 327 0 0 0 255 255 255 327 127 127 127 255 255 255 327 127 127 127 255 255 255 326 191 191 191 127 127 127 255 255 255 326 191 191 191 301
 255 255 255 326 127 127 127 191 191 191 255 255 255 326 127 127 127 255 255 255 327 127 127 127 255 255 255 327 127 127 127 191 191 191 255 255 255 326 127 127 127 255 255 255 327 127 127 127 255 255 255 326 191 191 191 127 127 127 255 255 255 326
 191 191 191 301 255 255 255 327 127 127 127 255 255 255 328] def /NY 27 def DrawCT  1 1 1 c black 1 1 1 c
 gsave  2268 1418 0 0 C 718.11 1175.9 t 0 r  -282 0 t /Helvetica-Bold findfont 52.262 sf 0 0 m (Variable 1 :) show NC gr  black 1 1 1 c
 gsave  2268 1418 0 0 C 718.11 717.453 t 0 r  -282 0 t /Helvetica-Bold findfont 52.262 sf 0 0 m (Variable 2 :) show NC gr  0.686275 0.862745 0.92549 c black 0.686275 0.862745 0.92549 c
 gsave  2268 1418 0 0 C 718.11 259.001 t 0 r  -285 0 t /Helvetica-Bold findfont 52.262 sf 0 0 m (Bias node :) show NC gr  0.35 0.33 0.85 c 1 1 0.992157 c 1495 131 m -3 18 d -8 15 d -13 13 d -17 8 d -18 3 d -18 -3 d -16 -8 d -13 -13 d -9 -15 d -3 -18
 d 3 -17 d 9 -16 d 13 -13 d 16 -8 d 18 -3 d 18 3 d 17 8 d 13 13 d 8 16 d f 0.35 0.33 0.85 c 1495 131 m -3 18 d -8 15 d -13 13 d -17 8 d -18 3 d -18 -3 d -16 -8 d -13 -13 d -9 -15 d -3 -18 d 3 -17 d 9 -16 d 13 -13 d 16 -8 d 18 -3 d 18 3 d 17 8 d 13 13
 d 8 16 d 3 17 d s 0.490196 0.545098 0.615686 c 1 1 1 c 82 80 1395 91 bf 68 63 1405 100 bf 68 63 1405 100 bl 0 0 0.2 c
/WT 2.28374 def /HT 2.32324 def /XS 1405 def /YY 163 def /NX 30 def /NY 444 def /DrawCell {WT HT XX YY bf /NBBD NBBD 1 add def NBBD NBB eq {exit} if /XX WT XX add def IX NX eq {/YY YY HT sub def /XX XS def /IX 0 def} if /IX IX 1 add def} def /DrawCT
 {/NBB NX NY mul def /XX XS def /IX 1 def /NBBD 0 def /RC 0 def /GC 1 def /BC 2 def 1 1 NBB {/NB CT RC get def NB 301 ge {/NBL NB 300 sub def 1 1 NBL {DrawCell} for /RC RC 1 add def /GC RC 1 add def /BC RC 2 add def}{CT RC get 255 div CT GC get 255
 div CT BC get 255 div setrgbcolor DrawCell /RC RC 3 add def /GC GC 3 add def /BC BC 3 add def} ifelse NBBD NBB eq {exit} if} for /YY YY HT sub def clear} def /CT [ 255 255 255 327 191 191 191 127 127 127 255 255 255 326 191 191 191 301 255 255 255
 326 127 127 127 191 191 191 255 255 255 326 127 127 127 255 255 255 327 127 127 127 255 255 255 326 191 191 191 127 127 127 255 255 255 327 127 127 127 255 255 255 327 127 127 127 255 255 255 326 191 191 191 127 127 127 255 255 255 326 191 191 191
 301 255 255 255 326 127 127 127 191 191 191 255 255 255 326 127 127 127 255 255 255 327 127 127 127 255 255 255 327 0 0 0 255 255 255 327 127 127 127 255 255 255 327 127 127 127 255 255 255 326 191 191 191 127 127 127 255 255 255 326 191 191 191 301
 255 255 255 326 127 127 127 191 191 191 255 255 255 326 127 127 127 255 255 255 327 127 127 127 255 255 255 327 127 127 127 191 191 191 255 255 255 326 127 127 127 255 255 255 327 127 127 127 255 255 255 326 191 191 191 127 127 127 255 255 255 326
 191 191 191 301 255 255 255 327 127 127 127 255 255 255 328] def /NY 27 def DrawCT  0.490196 0.545098 0.615686 c 1 1 0.992157 c 1495 303 m -3 18 d -8 15 d -13 13 d -17 8 d -18 3 d -18 -3 d -16 -8 d -13 -13 d -9 -15 d -3 -18 d 3 -17 d 9 -16 d 13 -13
 d 16 -8 d 18 -3 d 18 3 d 17 8 d 13 13 d 8 16 d f 0.490196 0.545098 0.615686 c 1495 303 m -3 18 d -8 15 d -13 13 d -17 8 d -18 3 d -18 -3 d -16 -8 d -13 -13 d -9 -15 d -3 -18 d 3 -17 d 9 -16 d 13 -13 d 16 -8 d 18 -3 d 18 3 d 17 8 d 13 13 d 8 16 d 3
 17 d cl s 1 1 1 c 82 80 1395 263 bf 68 63 1405 272 bf 68 63 1405 272 bl 0 0 0.2 c
/WT 2.28374 def /HT 2.32324 def /XS 1405 def /YY 335 def /NX 30 def /NY 444 def /DrawCell {WT HT XX YY bf /NBBD NBBD 1 add def NBBD NBB eq {exit} if /XX WT XX add def IX NX eq {/YY YY HT sub def /XX XS def /IX 0 def} if /IX IX 1 add def} def /DrawCT
 {/NBB NX NY mul def /XX XS def /IX 1 def /NBBD 0 def /RC 0 def /GC 1 def /BC 2 def 1 1 NBB {/NB CT RC get def NB 301 ge {/NBL NB 300 sub def 1 1 NBL {DrawCell} for /RC RC 1 add def /GC RC 1 add def /BC RC 2 add def}{CT RC get 255 div CT GC get 255
 div CT BC get 255 div setrgbcolor DrawCell /RC RC 3 add def /GC GC 3 add def /BC BC 3 add def} ifelse NBBD NBB eq {exit} if} for /YY YY HT sub def clear} def /CT [ 255 255 255 323 191 191 191 127 127 127 303 255 255 255 322 127 127 127 301 191 191
 191 255 255 255 325 127 127 127 255 255 255 326 127 127 127 301 255 255 255 326 127 127 127 255 255 255 327 127 127 127 191 191 191 255 255 255 327 0 0 0 255 255 255 327 127 127 127 255 255 255 328 127 127 127 255 255 255 327 127 127 127 255 255 255
 328 127 127 127 255 255 255 328 127 127 127 255 255 255 327 0 0 0 255 255 255 327 127 127 127 255 255 255 328 127 127 127 255 255 255 328 127 127 127 255 255 255 327 191 191 191 301 255 255 255 327 127 127 127 255 255 255 328 127 127 127 255 255 255
 326 191 191 191 127 127 127 255 255 255 327 127 127 127 255 255 255 328 127 127 127 255 255 255 327 127 127 127 255 255 255 326 191 191 191 127 127 127 255 255 255 326 191 191 191 301 255 255 255 323 127 127 127 303 191 191 191 255 255 255 322 0 0 0
 301 255 255 255 327] def /NY 27 def DrawCT  0.490196 0.545098 0.615686 c 1 1 0.992157 c 1495 475 m -3 18 d -8 15 d -13 13 d -17 8 d -18 3 d -18 -3 d -16 -8 d -13 -13 d -9 -15 d -3 -18 d 3 -18 d 9 -15 d 13 -13 d 16 -8 d 18 -3 d 18 3 d 17 8 d 13 13 d
 8 15 d f 0.490196 0.545098 0.615686 c 1495 475 m -3 18 d -8 15 d -13 13 d -17 8 d -18 3 d -18 -3 d -16 -8 d -13 -13 d -9 -15 d -3 -18 d 3 -18 d 9 -15 d 13 -13 d 16 -8 d 18 -3 d 18 3 d 17 8 d 13 13 d 8 15 d 3 18 d cl s 1 1 1 c 82 80 1395 435 bf 68 63
 1405 444 bf 68 63 1405 444 bl 0 0 0.2 c
/WT 2.28374 def /HT 2.32324 def /XS 1405 def /YY 507 def /NX 30 def /NY 444 def /DrawCell {WT HT XX YY bf /NBBD NBBD 1 add def NBBD NBB eq {exit} if /XX WT XX add def IX NX eq {/YY YY HT sub def /XX XS def /IX 0 def} if /IX IX 1 add def} def /DrawCT
 {/NBB NX NY mul def /XX XS def /IX 1 def /NBBD 0 def /RC 0 def /GC 1 def /BC 2 def 1 1 NBB {/NB CT RC get def NB 301 ge {/NBL NB 300 sub def 1 1 NBL {DrawCell} for /RC RC 1 add def /GC RC 1 add def /BC RC 2 add def}{CT RC get 255 div CT GC get 255
 div CT BC get 255 div setrgbcolor DrawCell /RC RC 3 add def /GC GC 3 add def /BC BC 3 add def} ifelse NBBD NBB eq {exit} if} for /YY YY HT sub def clear} def /CT [ 255 255 255 323 191 191 191 127 127 127 303 255 255 255 322 127 127 127 301 191 191
 191 255 255 255 325 127 127 127 255 255 255 326 127 127 127 301 255 255 255 326 127 127 127 255 255 255 327 127 127 127 191 191 191 255 255 255 327 0 0 0 255 255 255 327 127 127 127 255 255 255 328 127 127 127 255 255 255 327 127 127 127 255 255 255
 328 127 127 127 255 255 255 328 127 127 127 255 255 255 327 0 0 0 255 255 255 327 127 127 127 255 255 255 328 127 127 127 255 255 255 328 127 127 127 255 255 255 327 191 191 191 301 255 255 255 327 127 127 127 255 255 255 328 127 127 127 255 255 255
 326 191 191 191 127 127 127 255 255 255 327 127 127 127 255 255 255 328 127 127 127 255 255 255 327 127 127 127 255 255 255 326 191 191 191 127 127 127 255 255 255 326 191 191 191 301 255 255 255 323 127 127 127 303 191 191 191 255 255 255 322 0 0 0
 301 255 255 255 327] def /NY 27 def DrawCT  0.490196 0.545098 0.615686 c 1 1 0.992157 c 1495 647 m -3 17 d -8 16 d -13 13 d -17 8 d -18 3 d -18 -3 d -16 -8 d -13 -13 d -9 -16 d -3 -17 d 3 -18 d 9 -15 d 13 -13 d 16 -8 d 18 -3 d 18 3 d 17 8 d 13 13 d
 8 15 d f 0.490196 0.545098 0.615686 c 1495 647 m -3 17 d -8 16 d -13 13 d -17 8 d -18 3 d -18 -3 d -16 -8 d -13 -13 d -9 -16 d -3 -17 d 3 -18 d 9 -15 d 13 -13 d 16 -8 d 18 -3 d 18 3 d 17 8 d 13 13 d 8 15 d 3 18 d cl s 1 1 1 c 82 80 1395 607 bf 68 63
 1405 616 bf 68 63 1405 616 bl 0 0 0.2 c
/WT 2.28374 def /HT 2.32324 def /XS 1405 def /YY 679 def /NX 30 def /NY 444 def /DrawCell {WT HT XX YY bf /NBBD NBBD 1 add def NBBD NBB eq {exit} if /XX WT XX add def IX NX eq {/YY YY HT sub def /XX XS def /IX 0 def} if /IX IX 1 add def} def /DrawCT
 {/NBB NX NY mul def /XX XS def /IX 1 def /NBBD 0 def /RC 0 def /GC 1 def /BC 2 def 1 1 NBB {/NB CT RC get def NB 301 ge {/NBL NB 300 sub def 1 1 NBL {DrawCell} for /RC RC 1 add def /GC RC 1 add def /BC RC 2 add def}{CT RC get 255 div CT GC get 255
 div CT BC get 255 div setrgbcolor DrawCell /RC RC 3 add def /GC GC 3 add def /BC BC 3 add def} ifelse NBBD NBB eq {exit} if} for /YY YY HT sub def clear} def /CT [ 255 255 255 323 191 191 191 127 127 127 303 255 255 255 322 127 127 127 301 191 191
 191 255 255 255 325 127 127 127 255 255 255 326 127 127 127 301 255 255 255 326 127 127 127 255 255 255 327 127 127 127 191 191 191 255 255 255 327 0 0 0 255 255 255 327 127 127 127 255 255 255 328 127 127 127 255 255 255 327 127 127 127 255 255 255
 328 127 127 127 255 255 255 328 127 127 127 255 255 255 327 0 0 0 255 255 255 327 127 127 127 255 255 255 328 127 127 127 255 255 255 328 127 127 127 255 255 255 327 191 191 191 301 255 255 255 327 127 127 127 255 255 255 328 127 127 127 255 255 255
 326 191 191 191 127 127 127 255 255 255 327 127 127 127 255 255 255 328 127 127 127 255 255 255 327 127 127 127 255 255 255 326 191 191 191 127 127 127 255 255 255 326 191 191 191 301 255 255 255 323 127 127 127 303 191 191 191 255 255 255 322 0 0 0
 301 255 255 255 327] def /NY 27 def DrawCT  0.490196 0.545098 0.615686 c 1 1 0.992157 c 1495 819 m -3 17 d -8 16 d -13 13 d -17 8 d -18 3 d -18 -3 d -16 -8 d -13 -13 d -9 -16 d -3 -17 d 3 -18 d 9 -16 d 13 -12 d 16 -8 d 18 -3 d 18 3 d 17 8 d 13 12 d
 8 16 d f 0.490196 0.545098 0.615686 c 1495 819 m -3 17 d -8 16 d -13 13 d -17 8 d -18 3 d -18 -3 d -16 -8 d -13 -13 d -9 -16 d -3 -17 d 3 -18 d 9 -16 d 13 -12 d 16 -8 d 18 -3 d 18 3 d 17 8 d 13 12 d 8 16 d 3 18 d cl s 1 1 1 c 82 80 1395 779 bf 68 63
 1405 788 bf 68 63 1405 788 bl 0 0 0.2 c
/WT 2.28374 def /HT 2.32324 def /XS 1405 def /YY 851 def /NX 30 def /NY 444 def /DrawCell {WT HT XX YY bf /NBBD NBBD 1 add def NBBD NBB eq {exit} if /XX WT XX add def IX NX eq {/YY YY HT sub def /XX XS def /IX 0 def} if /IX IX 1 add def} def /DrawCT
 {/NBB NX NY mul def /XX XS def /IX 1 def /NBBD 0 def /RC 0 def /GC 1 def /BC 2 def 1 1 NBB {/NB CT RC get def NB 301 ge {/NBL NB 300 sub def 1 1 NBL {DrawCell} for /RC RC 1 add def /GC RC 1 add def /BC RC 2 add def}{CT RC get 255 div CT GC get 255
 div CT BC get 255 div setrgbcolor DrawCell /RC RC 3 add def /GC GC 3 add def /BC BC 3 add def} ifelse NBBD NBB eq {exit} if} for /YY YY HT sub def clear} def /CT [ 255 255 255 323 191 191 191 127 127 127 303 255 255 255 322 127 127 127 301 191 191
 191 255 255 255 325 127 127 127 255 255 255 326 127 127 127 301 255 255 255 326 127 127 127 255 255 255 327 127 127 127 191 191 191 255 255 255 327 0 0 0 255 255 255 327 127 127 127 255 255 255 328 127 127 127 255 255 255 327 127 127 127 255 255 255
 328 127 127 127 255 255 255 328 127 127 127 255 255 255 327 0 0 0 255 255 255 327 127 127 127 255 255 255 328 127 127 127 255 255 255 328 127 127 127 255 255 255 327 191 191 191 301 255 255 255 327 127 127 127 255 255 255 328 127 127 127 255 255 255
 326 191 191 191 127 127 127 255 255 255 327 127 127 127 255 255 255 328 127 127 127 255 255 255 327 127 127 127 255 255 255 326 191 191 191 127 127 127 255 255 255 326 191 191 191 301 255 255 255 323 127 127 127 303 191 191 191 255 255 255 322 0 0 0
 301 255 255 255 327] def /NY 27 def DrawCT  0.490196 0.545098 0.615686 c 1 1 0.992157 c 1495 991 m -3 17 d -8 16 d -13 13 d -17 8 d -18 2 d -18 -2 d -16 -8 d -13 -13 d -9 -16 d -3 -17 d 3 -18 d 9 -16 d 13 -12 d 16 -8 d 18 -3 d 18 3 d 17 8 d 13 12 d
 8 16 d f 0.490196 0.545098 0.615686 c 1495 991 m -3 17 d -8 16 d -13 13 d -17 8 d -18 2 d -18 -2 d -16 -8 d -13 -13 d -9 -16 d -3 -17 d 3 -18 d 9 -16 d 13 -12 d 16 -8 d 18 -3 d 18 3 d 17 8 d 13 12 d 8 16 d 3 18 d cl s 1 1 1 c 82 79 1395 951 bf 68 63
 1405 960 bf 68 63 1405 960 bl 0 0 0.2 c
/WT 2.28374 def /HT 2.32324 def /XS 1405 def /YY 1023 def /NX 30 def /NY 444 def /DrawCell {WT HT XX YY bf /NBBD NBBD 1 add def NBBD NBB eq {exit} if /XX WT XX add def IX NX eq {/YY YY HT sub def /XX XS def /IX 0 def} if /IX IX 1 add def} def /DrawCT
 {/NBB NX NY mul def /XX XS def /IX 1 def /NBBD 0 def /RC 0 def /GC 1 def /BC 2 def 1 1 NBB {/NB CT RC get def NB 301 ge {/NBL NB 300 sub def 1 1 NBL {DrawCell} for /RC RC 1 add def /GC RC 1 add def /BC RC 2 add def}{CT RC get 255 div CT GC get 255
 div CT BC get 255 div setrgbcolor DrawCell /RC RC 3 add def /GC GC 3 add def /BC BC 3 add def} ifelse NBBD NBB eq {exit} if} for /YY YY HT sub def clear} def /CT [ 255 255 255 323 191 191 191 127 127 127 303 255 255 255 322 127 127 127 301 191 191
 191 255 255 255 325 127 127 127 255 255 255 326 127 127 127 301 255 255 255 326 127 127 127 255 255 255 327 127 127 127 191 191 191 255 255 255 327 0 0 0 255 255 255 327 127 127 127 255 255 255 328 127 127 127 255 255 255 327 127 127 127 255 255 255
 328 127 127 127 255 255 255 328 127 127 127 255 255 255 327 0 0 0 255 255 255 327 127 127 127 255 255 255 328 127 127 127 255 255 255 328 127 127 127 255 255 255 327 191 191 191 301 255 255 255 327 127 127 127 255 255 255 328 127 127 127 255 255 255
 326 191 191 191 127 127 127 255 255 255 327 127 127 127 255 255 255 328 127 127 127 255 255 255 327 127 127 127 255 255 255 326 191 191 191 127 127 127 255 255 255 326 191 191 191 301 255 255 255 323 127 127 127 303 191 191 191 255 255 255 322 0 0 0
 301 255 255 255 327] def /NY 27 def DrawCT  0.490196 0.545098 0.615686 c 1 1 0.992157 c 1495 1163 m -3 17 d -8 16 d -13 13 d -17 8 d -18 2 d -18 -2 d -16 -8 d -13 -13 d -9 -16 d -3 -17 d 3 -18 d 9 -16 d 13 -12 d 16 -8 d 18 -3 d 18 3 d 17 8 d 13 12 d
 8 16 d f 0.490196 0.545098 0.615686 c 1495 1163 m -3 17 d -8 16 d -13 13 d -17 8 d -18 2 d -18 -2 d -16 -8 d -13 -13 d -9 -16 d -3 -17 d 3 -18 d 9 -16 d 13 -12 d 16 -8 d 18 -3 d 18 3 d 17 8 d 13 12 d 8 16 d 3 18 d cl s 1 1 1 c 82 79 1395 1123 bf 68
 62 1405 1132 bf 68 62 1405 1132 bl 0 0 0.2 c
/WT 2.28374 def /HT 2.32324 def /XS 1405 def /YY 1194 def /NX 30 def /NY 444 def /DrawCell {WT HT XX YY bf /NBBD NBBD 1 add def NBBD NBB eq {exit} if /XX WT XX add def IX NX eq {/YY YY HT sub def /XX XS def /IX 0 def} if /IX IX 1 add def} def /DrawCT
 {/NBB NX NY mul def /XX XS def /IX 1 def /NBBD 0 def /RC 0 def /GC 1 def /BC 2 def 1 1 NBB {/NB CT RC get def NB 301 ge {/NBL NB 300 sub def 1 1 NBL {DrawCell} for /RC RC 1 add def /GC RC 1 add def /BC RC 2 add def}{CT RC get 255 div CT GC get 255
 div CT BC get 255 div setrgbcolor DrawCell /RC RC 3 add def /GC GC 3 add def /BC BC 3 add def} ifelse NBBD NBB eq {exit} if} for /YY YY HT sub def clear} def /CT [ 255 255 255 323 191 191 191 127 127 127 303 255 255 255 322 127 127 127 301 191 191
 191 255 255 255 325 127 127 127 255 255 255 326 127 127 127 301 255 255 255 326 127 127 127 255 255 255 327 127 127 127 191 191 191 255 255 255 327 0 0 0 255 255 255 327 127 127 127 255 255 255 328 127 127 127 255 255 255 327 127 127 127 255 255 255
 328 127 127 127 255 255 255 328 127 127 127 255 255 255 327 0 0 0 255 255 255 327 127 127 127 255 255 255 328 127 127 127 255 255 255 328 127 127 127 255 255 255 327 191 191 191 301 255 255 255 327 127 127 127 255 255 255 328 127 127 127 255 255 255
 326 191 191 191 127 127 127 255 255 255 327 127 127 127 255 255 255 328 127 127 127 255 255 255 327 127 127 127 255 255 255 326 191 191 191 127 127 127 255 255 255 326 191 191 191 301 255 255 255 323 127 127 127 303 191 191 191 255 255 255 322 0 0 0
 301 255 255 255 327] def /NY 27 def DrawCT  0.490196 0.545098 0.615686 c 1 1 0.992157 c 1495 1335 m -3 17 d -8 16 d -13 12 d -17 9 d -18 2 d -18 -2 d -16 -9 d -13 -12 d -9 -16 d -3 -17 d 3 -18 d 9 -16 d 13 -12 d 16 -8 d 18 -3 d 18 3 d 17 8 d 13 12 d
 8 16 d f 0.490196 0.545098 0.615686 c 1495 1335 m -3 17 d -8 16 d -13 12 d -17 9 d -18 2 d -18 -2 d -16 -9 d -13 -12 d -9 -16 d -3 -17 d 3 -18 d 9 -16 d 13 -12 d 16 -8 d 18 -3 d 18 3 d 17 8 d 13 12 d 8 16 d 3 18 d cl s 1 1 1 c 82 79 1395 1295 bf 68
 62 1405 1304 bf 68 62 1405 1304 bl 0 0 0.2 c
/WT 2.28374 def /HT 2.32324 def /XS 1405 def /YY 1366 def /NX 30 def /NY 444 def /DrawCell {WT HT XX YY bf /NBBD NBBD 1 add def NBBD NBB eq {exit} if /XX WT XX add def IX NX eq {/YY YY HT sub def /XX XS def /IX 0 def} if /IX IX 1 add def} def /DrawCT
 {/NBB NX NY mul def /XX XS def /IX 1 def /NBBD 0 def /RC 0 def /GC 1 def /BC 2 def 1 1 NBB {/NB CT RC get def NB 301 ge {/NBL NB 300 sub def 1 1 NBL {DrawCell} for /RC RC 1 add def /GC RC 1 add def /BC RC 2 add def}{CT RC get 255 div CT GC get 255
 div CT BC get 255 div setrgbcolor DrawCell /RC RC 3 add def /GC GC 3 add def /BC BC 3 add def} ifelse NBBD NBB eq {exit} if} for /YY YY HT sub def clear} def /CT [ 255 255 255 323 191 191 191 127 127 127 303 255 255 255 322 127 127 127 301 191 191
 191 255 255 255 325 127 127 127 255 255 255 326 127 127 127 301 255 255 255 326 127 127 127 255 255 255 327 127 127 127 191 191 191 255 255 255 327 0 0 0 255 255 255 327 127 127 127 255 255 255 328 127 127 127 255 255 255 327 127 127 127 255 255 255
 328 127 127 127 255 255 255 328 127 127 127 255 255 255 327 0 0 0 255 255 255 327 127 127 127 255 255 255 328 127 127 127 255 255 255 328 127 127 127 255 255 255 327 191 191 191 301 255 255 255 327 127 127 127 255 255 255 328 127 127 127 255 255 255
 326 191 191 191 127 127 127 255 255 255 327 127 127 127 255 255 255 328 127 127 127 255 255 255 327 127 127 127 255 255 255 326 191 191 191 127 127 127 255 255 255 326 191 191 191 301 255 255 255 323 127 127 127 303 191 191 191 255 255 255 322 0 0 0
 301 255 255 255 327] def /NY 27 def DrawCT  0.6 1 0 c 6 lw black 0.6 1 0 c 890 1196 m 487 139 d s 1359 1339 m 18 -4 d -12 -14 d s 0.0399999 1 0 c black 0 1 0.426667 c 6 lw black 0 1 0.426667 c 890 1196 m 487 -205 d s 1366 1005 m 11 -14 d -18 -3 d s
 1 0.84 0 c 15 lw black 1 0.84 0 c 890 1196 m 487 -377 d s 1370 836 m 7 -17 d -18 2 d s 0 1 0.613333 c 9 lw black 0 1 0.613333 c 890 1196 m 487 -549 d s 1374 665 m 3 -18 d -17 6 d s black 0 1 0.613333 c 890 1196 m 487 -721 d s 1376 493 m 1 -18 d -16
 8 d s 0.88 1 0 c black 0.88 1 0 c 890 1196 m 487 -893 d s 1378 321 m -1 -18 d -15 10 d s 0.413333 1 0 c 3 lw black 0.413333 1 0 c 890 737 m 487 598 d s 1360 1328 m 17 7 d -3 -19 d s 0.0399999 1 0 c black 0 1 0.8 c 12 lw black 0 1 0.8 c 890 737 m 487
 254 d s 1359 992 m 18 -1 d -10 -16 d s 0 0.733333 1 c 18 lw black 0 0.733333 1 c 890 737 m 487 82 d s 1360 825 m 17 -6 d -14 -12 d s 0 0.92 1 c 15 lw black 0 0.92 1 c 890 737 m 487 -90 d s 1363 659 m 14 -12 d -17 -6 d s 0 1 0.52 c 9 lw black 0 1
 0.52 c 890 737 m 487 -262 d s 1368 491 m 9 -16 d -18 -1 d s 0 0.826667 1 c 18 lw black 0 0.826667 1 c 890 737 m 487 -434 d s 1372 320 m 5 -17 d -18 4 d s 0 1 0.706667 c 12 lw black 0 1 0.706667 c 890 279 m 487 1056 d s 1362 1324 m 15 11 d 2 -19 d s
 0.973333 1 0 c 9 lw black 0.973333 1 0 c 890 279 m 487 884 d s 1362 1153 m 15 10 d 1 -19 d s 0 1 0.146667 c 3 lw black 0 1 0.146667 c 890 279 m 487 712 d s 1361 983 m 16 8 d -1 -19 d s 0.0399999 1 0 c black 0 1 0.0533333 c 3 lw black 0 1 0.0533333 c
 890 279 m 487 368 d s 1359 645 m 18 2 d -7 -17 d s 0.6 1 0 c 6 lw black 0.6 1 0 c 890 279 m 487 196 d s 1359 478 m 18 -3 d -11 -14 d s 0 1 0.52 c 9 lw black 0 1 0.52 c 890 279 m 487 24 d s 1361 311 m 16 -8 d -15 -10 d s 0.490196 0.545098 0.615686 c
 3 lw 1 1 0.992157 c 2100 751 m -3 18 d -8 16 d -13 12 d -17 8 d -18 3 d -18 -3 d -17 -8 d -13 -12 d -8 -16 d -3 -18 d 3 -17 d 8 -16 d 13 -12 d 17 -8 d 18 -3 d 18 3 d 17 8 d 13 12 d 8 16 d f 0.490196 0.545098 0.615686 c 2100 751 m -3 18 d -8 16 d -13
 12 d -17 8 d -18 3 d -18 -3 d -17 -8 d -13 -12 d -8 -16 d -3 -18 d 3 -17 d 8 -16 d 13 -12 d 17 -8 d 18 -3 d 18 3 d 17 8 d 13 12 d 8 16 d 3 17 d cl s 1 1 1 c 82 79 2000 712 bf 68 62 2010 721 bf 68 62 2010 721 bl 0 0 0.2 c
/WT 2.28374 def /HT 2.32324 def /XS 2010 def /YY 783 def /NX 30 def /NY 444 def /DrawCell {WT HT XX YY bf /NBBD NBBD 1 add def NBBD NBB eq {exit} if /XX WT XX add def IX NX eq {/YY YY HT sub def /XX XS def /IX 0 def} if /IX IX 1 add def} def /DrawCT
 {/NBB NX NY mul def /XX XS def /IX 1 def /NBBD 0 def /RC 0 def /GC 1 def /BC 2 def 1 1 NBB {/NB CT RC get def NB 301 ge {/NBL NB 300 sub def 1 1 NBL {DrawCell} for /RC RC 1 add def /GC RC 1 add def /BC RC 2 add def}{CT RC get 255 div CT GC get 255
 div CT BC get 255 div setrgbcolor DrawCell /RC RC 3 add def /GC GC 3 add def /BC BC 3 add def} ifelse NBBD NBB eq {exit} if} for /YY YY HT sub def clear} def /CT [ 255 255 255 327 191 191 191 127 127 127 255 255 255 326 191 191 191 301 255 255 255
 326 127 127 127 191 191 191 255 255 255 326 127 127 127 255 255 255 327 127 127 127 255 255 255 326 191 191 191 127 127 127 255 255 255 327 127 127 127 255 255 255 327 127 127 127 255 255 255 326 191 191 191 127 127 127 255 255 255 326 191 191 191
 301 255 255 255 326 127 127 127 191 191 191 255 255 255 326 127 127 127 255 255 255 327 127 127 127 255 255 255 327 0 0 0 255 255 255 327 127 127 127 255 255 255 327 127 127 127 255 255 255 326 191 191 191 127 127 127 255 255 255 326 191 191 191 301
 255 255 255 326 127 127 127 191 191 191 255 255 255 326 127 127 127 255 255 255 327 127 127 127 255 255 255 327 127 127 127 191 191 191 255 255 255 326 127 127 127 255 255 255 327 127 127 127 255 255 255 326 191 191 191 127 127 127 255 255 255 326
 191 191 191 301 255 255 255 327 127 127 127 255 255 255 328] def /NY 27 def DrawCT  0.693333 1 0 c 6 lw black 0.693333 1 0 c 1495 1335 m 487 -584 d s 1979 770 m 3 -19 d -17 7 d s 0 0.266667 1 c 24 lw black 0 0.266667 1 c 1495 1163 m 487 -412 d s
 1976 769 m 6 -18 d -18 4 d s 0 0.826667 1 c 18 lw black 0 0.826667 1 c 1495 991 m 487 -240 d s 1972 767 m 10 -16 d -18 -1 d s 0 0.266667 1 c 24 lw black 0 0.266667 1 c 1495 819 m 487 -68 d s 1968 763 m 14 -12 d -17 -6 d s 1 0.56 0 c 18 lw black 1
 0.56 0 c 1495 647 m 487 104 d s 1965 757 m 17 -6 d -14 -12 d s 0.32 1 0 c 3 lw black 0.32 1 0 c 1495 475 m 487 276 d s 1964 752 m 18 -1 d -9 -15 d s 0 1 0.426667 c 6 lw black 0 1 0.426667 c 1495 303 m 487 448 d s 1964 747 m 18 4 d -5 -17 d s 0 1
 0.24 c black 0 1 0.24 c 1495 131 m 487 620 d s 1965 745 m 17 6 d -3 -18 d s 0.490196 0.545098 0.615686 c 3 lw 0.43 0.48 0.52 c 387 36 638 9 bf 1 1 1 c black 1 1 1 c
 gsave  2268 1418 0 0 C 772.569 18.1781 t 0 r /Helvetica-Bold findfont 31.8117 sf 0 0 m (Layer 0) show NC gr  0.490196 0.545098 0.615686 c 0.43 0.48 0.52 c 387 36 1243 9 bf 1 1 1 c black 1 1 1 c
 gsave  2268 1418 0 0 C 1381.53 18.1781 t 0 r /Helvetica-Bold findfont 31.8117 sf 0 0 m (Layer 1) show NC gr  0.490196 0.545098 0.615686 c 0.43 0.48 0.52 c 387 36 1847 9 bf 1 1 1 c black 1 1 1 c
 gsave  2268 1418 0 0 C 1938.24 15.9058 t 0 r /Helvetica-Bold findfont 34.0839 sf 0 0 m (Output layer) show NC gr  0.490196 0.545098 0.615686 c 1 1 1 c 312 78 1842 1290 bf 312 78 1842 1290 bf 312 78 1842 1290 bl 0 0 0.2 c
/WT 2.27691 def /HT 2.29365 def /XS 1842 def /YY 1368 def /NX 137 def /NY 97 def /DrawCell {WT HT XX YY bf /NBBD NBBD 1 add def NBBD NBB eq {exit} if /XX WT XX add def IX NX eq {/YY YY HT sub def /XX XS def /IX 0 def} if /IX IX 1 add def} def /DrawCT
 {/NBB NX NY mul def /XX XS def /IX 1 def /NBBD 0 def /RC 0 def /GC 1 def /BC 2 def 1 1 NBB {/NB CT RC get def NB 301 ge {/NBL NB 300 sub def 1 1 NBL {DrawCell} for /RC RC 1 add def /GC RC 1 add def /BC RC 2 add def}{CT RC get 255 div CT GC get 255
 div CT BC get 255 div setrgbcolor DrawCell /RC RC 3 add def /GC GC 3 add def /BC BC 3 add def} ifelse NBBD NBB eq {exit} if} for /YY YY HT sub def clear} def /CT [ 255 255 255 323 255 243 227 255 202 125 255 180 70 255 165 33 302 255 187 88 255 210
 144 255 247 236 255 255 255 426 255 215 156 255 165 33 308 255 225 181 255 255 255 424 255 195 107 255 165 33 310 255 232 199 255 255 255 422 255 232 199 255 165 33 311 255 172 51 255 245 230 255 255 255 421 255 187 88 255 165 33 312 255 205 131 255
 255 255 420 255 245 230 255 165 33 314 255 255 255 420 255 210 144 255 165 33 314 255 225 181 255 255 255 419 255 195 107 255 165 33 314 255 195 107 255 255 255 317 255 226 226 255 170 170 314 221 199 216 187 187 221 304 255 255 255 306 238 238 246
 187 187 221 304 238 238 246 255 255 255 232 232 243 187 187 221 303 232 232 243 255 255 255 306 238 238 246 187 187 221 303 232 232 243 255 255 255 305 209 209 232 187 187 221 303 209 209 232 255 255 255 333 255 195 107 255 165 33 314 255 195 107
 255 255 255 317 255 170 170 255 0 0 314 153 131 182 51 51 153 304 221 221 238 255 255 255 305 170 170 212 51 51 153 304 204 204 229 255 255 255 301 51 51 153 303 141 141 198 255 255 255 306 170 170 212 51 51 153 303 255 255 255 306 73 73 164 51 51
 153 303 73 73 164 255 255 255 333 255 195 107 255 165 33 314 255 215 156 255 255 255 317 255 113 113 255 0 0 314 153 153 204 51 51 153 304 153 153 204 255 255 255 305 85 85 170 51 51 153 304 204 204 229 255 255 255 301 102 102 178 51 51 153 303 255
 255 255 306 119 119 187 51 51 153 302 119 119 187 255 255 255 305 209 209 232 51 51 153 305 209 209 232 255 255 255 332 255 225 181 255 165 33 314 255 225 181 255 255 255 317 255 56 56 255 0 0 313 255 85 85 153 153 204 51 51 153 304 85 85 170 255
 255 255 304 209 209 232 51 51 153 305 204 204 229 255 255 255 301 153 153 204 51 51 153 303 187 187 221 255 255 255 305 68 68 161 51 51 153 302 187 187 221 255 255 255 305 141 141 198 51 51 153 305 141 141 198 255 255 255 332 255 245 230 255 165 33
 314 255 255 255 318 255 170 170 304 255 113 113 255 0 0 303 255 106 106 255 170 170 303 255 198 198 153 153 204 51 51 153 305 209 209 232 255 255 255 303 141 141 198 51 51 153 305 204 204 229 255 255 255 301 221 221 238 51 51 153 303 119 119 187 255
 255 255 304 187 187 221 51 51 153 302 68 68 161 255 255 255 306 73 73 164 51 51 153 305 73 73 164 255 255 255 333 255 195 107 255 165 33 312 255 215 156 255 255 255 323 255 113 113 255 0 0 303 255 191 191 255 255 255 304 153 153 204 51 51 153 305 96
 96 175 255 255 255 302 232 232 243 51 51 153 306 204 204 229 255 255 255 302 73 73 164 51 51 153 303 255 255 255 304 119 119 187 51 51 153 302 119 119 187 255 255 255 305 204 204 229 51 51 153 307 204 204 229 255 255 255 332 255 238 213 255 172 51
 255 165 33 310 255 181 74 255 255 255 324 255 63 63 255 0 0 303 255 255 255 305 153 153 204 51 51 153 306 187 187 221 255 255 255 301 119 119 187 51 51 153 306 204 204 229 255 255 255 302 153 153 204 51 51 153 303 191 191 223 255 255 255 302 238 238
 246 51 51 153 303 178 178 216 255 255 255 305 140 140 197 51 51 153 302 153 153 204 85 85 170 51 51 153 302 140 140 197 255 255 255 333 255 245 230 255 165 33 310 255 247 236 255 255 255 324 255 0 0 303 255 85 85 255 255 255 305 153 153 204 51 51
 153 302 119 119 187 73 73 164 51 51 153 301 96 96 175 255 255 255 209 209 232 51 51 153 302 141 141 198 51 51 153 303 204 204 229 255 255 255 302 232 232 243 51 51 153 303 136 136 195 255 255 255 302 164 164 209 51 51 153 303 238 238 246 255 255 255
 305 68 68 161 51 51 153 302 232 232 243 164 164 209 51 51 153 302 68 68 161 255 255 255 333 255 195 107 301 255 187 88 255 165 33 306 255 205 131 255 215 156 255 210 144 255 255 255 323 255 191 191 255 0 0 303 255 141 141 255 255 255 305 153 153 204
 51 51 153 302 119 119 187 141 141 198 51 51 153 302 221 221 238 96 96 175 51 51 153 301 68 68 161 187 187 221 51 51 153 303 204 204 229 255 255 255 303 119 119 187 51 51 153 302 85 85 170 255 255 255 302 96 96 175 51 51 153 302 119 119 187 255 255
 255 305 209 209 232 51 51 153 302 85 85 170 255 255 255 232 232 243 51 51 153 303 209 209 232 255 255 255 323 255 225 181 302 255 245 230 255 255 255 303 255 210 144 255 195 107 255 255 255 301 255 225 181 255 195 107 301 255 165 33 255 195 107 255
 205 131 255 240 218 255 255 255 301 255 195 107 255 225 181 255 255 255 303 255 232 199 255 225 181 301 255 232 199 255 255 255 314 255 148 148 255 0 0 303 255 170 170 255 255 255 305 153 153 204 51 51 153 302 119 119 187 232 232 243 51 51 153 302
 119 119 187 51 51 153 302 136 136 195 187 187 221 51 51 153 303 204 204 229 255 255 255 303 187 187 221 51 51 153 303 232 232 243 255 255 255 238 238 246 51 51 153 303 187 187 221 255 255 255 305 141 141 198 51 51 153 302 136 136 195 255 255 255 301
 85 85 170 51 51 153 302 141 141 198 255 255 255 320 255 245 230 255 225 181 301 255 255 255 302 255 235 205 255 225 181 255 232 199 255 255 255 255 245 230 255 195 107 255 255 255 311 255 247 236 255 175 57 255 225 181 255 255 255 255 225 181 301
 255 247 236 255 255 255 301 255 247 236 255 225 181 301 255 255 255 312 255 106 106 255 0 0 303 255 255 255 306 153 153 204 51 51 153 302 119 119 187 255 255 255 119 119 187 51 51 153 305 221 221 238 187 187 221 51 51 153 303 204 204 229 255 255 255
 304 51 51 153 303 164 164 209 255 255 255 187 187 221 51 51 153 303 255 255 255 306 73 73 164 51 51 153 302 187 187 221 255 255 255 301 136 136 195 51 51 153 302 73 73 164 255 255 255 319 255 240 218 255 235 205 255 255 255 306 255 247 236 255 225
 181 255 185 82 255 247 236 255 255 255 312 255 245 230 255 175 57 255 217 162 255 255 255 307 255 225 181 255 255 255 311 255 63 63 255 0 0 302 255 56 56 255 255 255 306 153 153 204 51 51 153 302 119 119 187 255 255 255 170 170 212 51 51 153 304 73
 73 164 255 255 255 187 187 221 51 51 153 303 204 204 229 255 255 255 304 119 119 187 51 51 153 302 96 96 175 255 255 255 136 136 195 51 51 153 302 141 141 198 255 255 255 305 187 187 221 51 51 153 303 238 238 246 255 255 255 301 187 187 221 51 51
 153 303 187 187 221 255 255 255 317 255 245 230 255 240 218 255 255 255 309 255 215 156 255 255 255 314 255 215 156 255 255 255 309 255 215 156 255 255 255 310 255 0 0 303 255 113 113 255 255 255 306 153 153 204 51 51 153 302 119 119 187 255 255 255
 238 238 246 51 51 153 304 164 164 209 255 255 255 187 187 221 51 51 153 303 204 204 229 255 255 255 304 170 170 212 51 51 153 303 209 209 232 85 85 170 51 51 153 302 209 209 232 255 255 255 305 119 119 187 51 51 153 303 119 119 187 302 102 102 178
 51 51 153 303 119 119 187 255 255 255 316 255 247 236 255 232 199 255 255 255 311 255 232 199 255 255 255 312 255 225 181 255 255 255 311 255 225 181 255 255 255 308 255 191 191 255 0 0 303 255 191 191 255 255 255 306 153 153 204 51 51 153 302 119
 119 187 255 255 255 301 153 153 204 51 51 153 302 85 85 170 255 255 255 301 187 187 221 51 51 153 303 204 204 229 255 255 255 304 229 229 242 51 51 153 303 102 102 178 51 51 153 302 76 76 165 255 255 255 305 229 229 242 51 51 153 313 229 229 242 255
 255 255 308 255 210 144 255 195 107 305 255 205 131 255 255 255 312 255 232 199 255 195 107 312 255 255 255 313 255 195 107 308 255 93 64 255 0 0 303 255 195 107 307 153 123 130 51 51 153 302 119 99 137 255 195 107 301 232 172 95 119 89 113 302 187
 137 97 255 195 107 301 187 147 122 51 51 153 303 204 159 118 255 195 107 305 96 76 126 51 51 153 306 136 106 121 255 195 107 305 170 140 138 51 51 153 313 170 140 138 255 195 107 307 255 215 156 255 187 88 255 165 33 305 255 225 181 255 255 255 313
 255 165 33 311 255 202 125 255 255 255 313 255 202 125 255 165 33 307 255 55 11 255 0 0 302 255 41 8 255 165 33 307 153 108 93 51 51 153 302 119 89 113 255 165 33 308 187 127 73 51 51 153 303 204 136 63 255 165 33 305 187 127 73 51 51 153 306 204
 136 63 255 165 33 305 119 89 113 51 51 153 302 73 63 139 119 89 113 305 51 51 153 303 119 89 113 255 165 33 307 255 195 107 255 187 88 255 165 33 305 255 255 255 314 255 195 107 255 165 33 310 255 217 162 255 255 255 313 255 217 162 255 165 33 307
 255 0 0 303 255 68 13 255 165 33 307 153 108 93 51 51 153 302 119 89 113 255 165 33 308 187 127 73 51 51 153 303 204 136 63 255 165 33 306 51 51 153 306 255 165 33 306 68 60 143 51 51 153 302 187 127 73 255 165 33 305 119 89 113 51 51 153 302 68 60
 143 255 165 33 307 255 195 107 255 187 88 255 165 33 305 255 255 255 314 255 195 107 255 165 33 310 255 232 199 255 255 255 313 255 232 199 255 165 33 306 255 128 25 255 0 0 303 255 96 19 255 165 33 307 153 108 93 51 51 153 302 119 89 113 255 165 33
 308 187 127 73 51 51 153 303 204 136 63 255 165 33 306 119 89 113 51 51 153 304 119 89 113 255 165 33 305 187 127 73 51 51 153 302 68 60 143 255 165 33 306 187 127 73 51 51 153 303 187 127 73 255 165 33 306 255 195 107 255 187 88 255 165 33 305 255
 255 255 314 255 195 107 255 165 33 310 255 232 199 255 255 255 313 255 232 199 255 165 33 306 255 91 18 255 0 0 303 255 123 24 255 165 33 307 153 108 93 51 51 153 302 119 89 113 255 165 33 308 187 127 73 51 51 153 303 204 136 63 255 165 33 306 209
 139 59 51 51 153 304 209 139 59 255 165 33 305 119 89 113 51 51 153 302 119 89 113 255 165 33 307 51 51 153 303 119 89 113 255 165 33 306 255 195 107 255 187 88 255 165 33 305 255 255 255 314 255 195 107 255 165 33 310 255 225 181 255 255 255 313
 255 225 181 255 165 33 306 255 128 25 255 110 22 303 255 151 30 255 165 33 307 221 146 53 187 127 73 302 209 139 59 255 165 33 308 232 152 46 187 127 73 303 238 155 43 255 165 33 307 187 127 73 304 255 165 33 306 187 127 73 303 221 146 53 255 165 33
 307 204 136 63 187 127 73 303 255 165 33 306 255 195 107 255 187 88 255 165 33 305 255 240 218 255 255 255 313 255 180 70 255 165 33 310 255 204 130 255 255 255 313 255 204 130 255 165 33 385 255 195 107 255 187 88 255 165 33 305 255 205 131 255 255
 255 312 255 240 218 255 165 33 311 255 180 70 255 255 255 313 255 180 70 255 165 33 385 255 195 107 255 187 88 255 165 33 306 255 245 230 255 255 255 311 255 202 125 255 165 33 312 255 235 205 255 255 255 311 255 235 205 255 165 33 386 255 195 107
 255 187 88 255 165 33 306 255 175 57 255 255 255 310 255 235 205 255 165 33 313 255 175 57 255 245 230 255 255 255 309 255 245 230 255 175 57 255 165 33 386 255 195 107 255 187 88 255 165 33 307 255 195 107 255 255 255 308 255 225 181 255 175 57 255
 165 33 314 255 175 57 255 247 236 255 255 255 307 255 247 236 255 175 57 255 165 33 387 255 195 107 255 187 88 255 165 33 308 255 185 82 255 235 205 255 255 255 305 255 210 144 255 165 33 317 255 172 51 255 225 181 255 255 255 305 255 225 181 255
 172 51 255 165 33 388 255 195 107 233 188 122 255 195 107 310 255 210 144 255 225 181 303 255 195 107 322 255 225 181 303 255 195 107 391 255 215 156] def /NY 34 def DrawCT 
 gr  gr showpage
end
%%EOF
