%!PS-Adobe-2.0 EPSF-2.0
%%BoundingBox:  0 0 567 419
%%Title: dataset/plots/overtrain_Fisher.eps: TMVA comparison Fisher
%%Creator: ROOT Version 6.12/06
%%CreationDate: Mon May 21 16:44:58 2018
%%DocumentNeededResources: ProcSet (FontSetInit)
%%EndComments
%%BeginProlog
80 dict begin
/s {stroke} def /l {lineto} def /m {moveto} def /t {translate} def
/r {rotate} def /rl {roll}  def /R {repeat} def
/d {rlineto} def /rm {rmoveto} def /gr {grestore} def /f {eofill} def
/c {setrgbcolor} def /black {0 setgray} def /sd {setdash} def
/cl {closepath} def /sf {scalefont setfont} def /lw {setlinewidth} def
/box {m dup 0 exch d exch 0 d 0 exch neg d cl} def
/NC{systemdict begin initclip end}def/C{NC box clip newpath}def
/bl {box s} def /bf {gsave box gsave f grestore 1 lw [] 0 sd s grestore} def /Y { 0 exch d} def /X { 0 d} def 
/K {{pop pop 0 moveto} exch kshow} bind def
/ita {/ang 15 def gsave [1 0 ang dup sin exch cos div 1 0 0] concat} def 
/mp {newpath /y exch def /x exch def} def
/side {[w .77 mul w .23 mul] .385 w mul sd w 0 l currentpoint t -144 r} def
/mr {mp x y w2 0 360 arc} def /m24 {mr s} def /m20 {mr f} def
/mb {mp x y w2 add m w2 neg 0 d 0 w neg d w 0 d 0 w d cl} def
/mt {mp x y w2 add m w2 neg w neg d w 0 d cl} def
/w4 {w 4 div} def
/w6 {w 6 div} def
/w8 {w 8 div} def
/m21 {mb f} def /m25 {mb s} def /m22 {mt f} def /m26{mt s} def
/m23 {mp x y w2 sub m w2 w d w neg 0 d cl f} def
/m27 {mp x y w2 add m w3 neg w2 neg d w3 w2 neg d w3 w2 d cl s} def
/m28 {mp x w2 sub y w2 sub w3 add m w3 0 d  0 w3 neg d w3 0 d 0 w3 d w3 0 d  0 w3 d w3 neg 0 d 0 w3 d w3 neg 0 d 0 w3 neg d w3 neg 0 d cl s } def
/m29 {mp gsave x w2 sub y w2 add w3 sub m currentpoint t 4 {side} repeat cl fill gr} def
/m30 {mp gsave x w2 sub y w2 add w3 sub m currentpoint t 4 {side} repeat cl s gr} def
/m31 {mp x y w2 sub m 0 w d x w2 sub y m w 0 d x w2 sub y w2 add m w w neg d x w2 sub y w2 sub m w w d s} def
/m32 {mp x y w2 sub m w2 w d w neg 0 d cl s} def
/m33 {mp x y w2 add m w3 neg w2 neg d w3 w2 neg d w3 w2 d cl f} def
/m34 {mp x w2 sub y w2 sub w3 add m w3 0 d  0 w3 neg d w3 0 d 0 w3 d w3 0 d  0 w3 d w3 neg 0 d 0 w3 d w3 neg 0 d 0 w3 neg d w3 neg 0 d cl f } def
/m35 {mp x y w2 add m w2 neg w2 neg d w2 w2 neg d w2 w2 d w2 neg w2 d x y w2 sub m 0 w d x w2 sub y m w 0 d s} def
/m36 {mb x w2 sub y w2 add m w w neg d x w2 sub y w2 sub m w w d s} def
/m37 {mp x y m w4 neg w2 d w4 neg w2 neg d w2 0 d  w4 neg w2 neg d w2 0 d w4 neg w2 d w2 0 d w4 neg w2 d w4 neg w2 neg d cl s} def
/m38 {mp x w4 sub y w2 add m w4 neg w4 neg d 0 w2 neg d w4 w4 neg d w2 0 d w4 w4 d 0 w2 d w4 neg w4 d w2 neg 0 d x y w2 sub m 0 w d x w2 sub y m w 0 d cl s} def
/m39 {mp x y m w4 neg w2 d w4 neg w2 neg d w2 0 d  w4 neg w2 neg d w2 0 d w4 neg w2 d w2 0 d w4 neg w2 d w4 neg w2 neg d cl f} def
/m40 {mp x y m w4 w2 d w4 w4 neg d w2 neg w4 neg d w2 w4 neg d w4 neg w4 neg d w4 neg w2 d w4 neg w2 neg d w4 neg w4 d w2 w4 d w2 neg w4 d w4 w4 d w4 w2 neg d cl s} def
/m41 {mp x y m w4 w2 d w4 w4 neg d w2 neg w4 neg d w2 w4 neg d w4 neg w4 neg d w4 neg w2 d w4 neg w2 neg d w4 neg w4 d w2 w4 d w2 neg w4 d w4 w4 d w4 w2 neg d cl f} def
/m42 {mp x y w2 add m w8 neg w2 -3 4 div mul d w2 -3 4 div mul w8 neg d w2 3 4 div mul w8 neg d w8 w2 -3 4 div mul d w8 w2 3 4 div mul d w2 3 4 div mul w8 d w2 -3 4 div mul w8 d w8 neg w2 3 4 div mul d cl s} def
/m43 {mp x y w2 add m w8 neg w2 -3 4 div mul d w2 -3 4 div mul w8 neg d w2 3 4 div mul w8 neg d w8 w2 -3 4 div mul d w8 w2 3 4 div mul d w2 3 4 div mul w8 d w2 -3 4 div mul w8 d w8 neg w2 3 4 div mul d cl f} def
/m44 {mp x y m w6 neg w2 d w2 2 3 div mul 0 d w6 neg w2 neg d w2 w6 d 0 w2 -2 3 div mul d w2 neg w6 d w6 w2 neg d w2 -2 3 div mul 0 d w6 w2 d w2 neg w6 neg d 0 w2 2 3 div mul d w2 w6 neg d cl s} def
/m45 {mp x y m w6 neg w2 d w2 2 3 div mul 0 d w6 neg w2 neg d w2 w6 d 0 w2 -2 3 div mul d w2 neg w6 d w6 w2 neg d w2 -2 3 div mul 0 d w6 w2 d w2 neg w6 neg d 0 w2 2 3 div mul d w2 w6 neg d cl f} def
/m46 {mp x y w4 add m w4 neg w4 d w4 neg w4 neg d  w4 w4 neg d w4 neg w4 neg d w4 w4 neg d w4 w4 d w4 w4 neg d w4 w4 d w4 neg w4 d w4 w4 d w4 neg w4 d w4 neg w4 neg d cl s} def
/m47 {mp x y w4 add m w4 neg w4 d w4 neg w4 neg d w4 w4 neg d w4 neg w4 neg d  w4 w4 neg d w4 w4 d w4 w4 neg d w4 w4 d w4 neg w4 d w4 w4 d w4 neg w4 d w4 neg w4 neg d cl f} def
/m48 {mp x y w4 add m w4 neg w4 d w4 neg w4 neg d w4 w4 neg d  w4 neg w4 neg d w4 w4 neg d w4 w4 d w4 w4 neg d w4 w4 d w4 neg w4 d w4 w4 d w4 neg w4 d w4 neg w4 neg d  w4 w4 neg d w4 neg w4 neg d w4 neg w4 d w4 w4 d cl f} def
/m49 {mp x w2 sub w3 add y w2 sub w3 add m  0 w3 neg d w3 0 d 0 w3 d w3 0 d 0 w3 d w3 neg 0 d 0 w3 d w3 neg 0 d 0 w3 neg d w3 neg 0 d 0 w3 neg d w3 0 d 0 w3 d w3 0 d 0 w3 neg d w3 neg 0 d cl f } def
/m2 {mp x y w2 sub m 0 w d x w2 sub y m w 0 d s} def
/m5 {mp x w2 sub y w2 sub m w w d x w2 sub y w2 add m w w neg d s} def
%%IncludeResource: ProcSet (FontSetInit)
%%IncludeResource: font Times-Roman
%%IncludeResource: font Times-Italic
%%IncludeResource: font Times-Bold
%%IncludeResource: font Times-BoldItalic
%%IncludeResource: font Helvetica
%%IncludeResource: font Helvetica-Oblique
%%IncludeResource: font Helvetica-Bold
%%IncludeResource: font Helvetica-BoldOblique
%%IncludeResource: font Courier
%%IncludeResource: font Courier-Oblique
%%IncludeResource: font Courier-Bold
%%IncludeResource: font Courier-BoldOblique
%%IncludeResource: font Symbol
%%IncludeResource: font ZapfDingbats
/reEncode {exch findfont dup length dict begin {1 index /FID eq  {pop pop} {def} ifelse } forall /Encoding exch def currentdict end dup /FontName get exch definefont pop } def [/Times-Bold /Times-Italic /Times-BoldItalic /Helvetica /Helvetica-Oblique
 /Helvetica-Bold /Helvetica-BoldOblique /Courier /Courier-Oblique /Courier-Bold /Courier-BoldOblique /Times-Roman /AvantGarde-Book /AvantGarde-BookOblique /AvantGarde-Demi /AvantGarde-DemiOblique /Bookman-Demi /Bookman-DemiItalic /Bookman-Light
 /Bookman-LightItalic /Helvetica-Narrow /Helvetica-Narrow-Bold /Helvetica-Narrow-BoldOblique /Helvetica-Narrow-Oblique /NewCenturySchlbk-Roman /NewCenturySchlbk-Bold /NewCenturySchlbk-BoldItalic /NewCenturySchlbk-Italic /Palatino-Bold
 /Palatino-BoldItalic /Palatino-Italic /Palatino-Roman ] {ISOLatin1Encoding reEncode } forall
%%EndProlog
%%BeginSetup
%%EndSetup
newpath  gsave  .25 .25 scale  gsave  0 0 t 0.490196 0.545098 0.615686 c[  ] 0 sd 3 lw 0.941176 0.941176 0.941176 c 2268 1676 0 0 bf black 1 1 0.992157 c 1916 1308 238 201 bf black 1916 1308 238 201 bl 1 1 0.992157 c 1916 1308 238 201 bf black 1916
 1308 238 201 bl 238 201 m 1916 X s 252 244 m -43 Y s 307 222 m -21 Y s 362 222 m -21 Y s 418 222 m -21 Y s 473 244 m -43 Y s 528 222 m -21 Y s 584 222 m -21 Y s 639 222 m -21 Y s 694 244 m -43 Y s 750 222 m -21 Y s 805 222 m -21 Y s 860 222 m -21 Y
 s 916 244 m -43 Y s 971 222 m -21 Y s 1026 222 m -21 Y s 1081 222 m -21 Y s 1137 244 m -43 Y s 1192 222 m -21 Y s 1247 222 m -21 Y s 1303 222 m -21 Y s 1358 244 m -43 Y s 1413 222 m -21 Y s 1469 222 m -21 Y s 1524 222 m -21 Y s 1579 244 m -43 Y s
 1635 222 m -21 Y s 1690 222 m -21 Y s 1745 222 m -21 Y s 1801 244 m -43 Y s 1856 222 m -21 Y s 1911 222 m -21 Y s 1967 222 m -21 Y s 2022 244 m -43 Y s 252 244 m -43 Y s 2022 244 m -43 Y s 2077 222 m -21 Y s 2133 222 m -21 Y s
 gsave  2268 1676 0 0 C 250.283 128.934 t 0 r /Helvetica-Bold findfont 64.4669 sf 0 0 m (1) show NC gr 
 gsave  2268 1676 0 0 C 219.946 128.934 t 0 r /Symbol findfont 64.4669 sf 0 0 m (-) show NC gr 
 gsave  2268 1676 0 0 C 439.892 128.934 t 0 r /Helvetica-Bold findfont 64.4669 sf 0 0 m (0.8) show NC gr 
 gsave  2268 1676 0 0 C 405.762 128.934 t 0 r /Symbol findfont 64.4669 sf 0 0 m (-) show NC gr 
 gsave  2268 1676 0 0 C 663.629 128.934 t 0 r /Helvetica-Bold findfont 64.4669 sf 0 0 m (0.6) show NC gr 
 gsave  2268 1676 0 0 C 633.292 128.934 t 0 r /Symbol findfont 64.4669 sf 0 0 m (-) show NC gr 
 gsave  2268 1676 0 0 C 883.575 128.934 t 0 r /Helvetica-Bold findfont 64.4669 sf 0 0 m (0.4) show NC gr 
 gsave  2268 1676 0 0 C 849.446 128.934 t 0 r /Symbol findfont 64.4669 sf 0 0 m (-) show NC gr 
 gsave  2268 1676 0 0 C 1103.52 128.934 t 0 r /Helvetica-Bold findfont 64.4669 sf 0 0 m (0.2) show NC gr 
 gsave  2268 1676 0 0 C 1073.18 128.934 t 0 r /Symbol findfont 64.4669 sf 0 0 m (-) show NC gr 
 gsave  2268 1676 0 0 C 1338.64 128.934 t 0 r /Helvetica-Bold findfont 64.4669 sf 0 0 m (0) show NC gr 
 gsave  2268 1676 0 0 C 1532.04 128.934 t 0 r /Helvetica-Bold findfont 64.4669 sf 0 0 m (0.2) show NC gr 
 gsave  2268 1676 0 0 C 1751.98 128.934 t 0 r /Helvetica-Bold findfont 64.4669 sf 0 0 m (0.4) show NC gr 
 gsave  2268 1676 0 0 C 1975.72 128.934 t 0 r /Helvetica-Bold findfont 64.4669 sf 0 0 m (0.6) show NC gr 
 gsave  2268 1676 0 0 C 1596.5 34.1295 t 0 r /Helvetica-Bold findfont 72.0512 sf 0 0 m (Fisher response) show NC gr  238 1509 m 1916 X s 252 1466 m 43 Y s 307 1487 m 22 Y s 362 1487 m 22 Y s 418 1487 m 22 Y s 473 1466 m 43 Y s 528 1487 m 22 Y s 584
 1487 m 22 Y s 639 1487 m 22 Y s 694 1466 m 43 Y s 750 1487 m 22 Y s 805 1487 m 22 Y s 860 1487 m 22 Y s 916 1466 m 43 Y s 971 1487 m 22 Y s 1026 1487 m 22 Y s 1081 1487 m 22 Y s 1137 1466 m 43 Y s 1192 1487 m 22 Y s 1247 1487 m 22 Y s 1303 1487 m 22
 Y s 1358 1466 m 43 Y s 1413 1487 m 22 Y s 1469 1487 m 22 Y s 1524 1487 m 22 Y s 1579 1466 m 43 Y s 1635 1487 m 22 Y s 1690 1487 m 22 Y s 1745 1487 m 22 Y s 1801 1466 m 43 Y s 1856 1487 m 22 Y s 1911 1487 m 22 Y s 1967 1487 m 22 Y s 2022 1466 m 43 Y
 s 252 1466 m 43 Y s 2022 1466 m 43 Y s 2077 1487 m 22 Y s 2133 1487 m 22 Y s 238 201 m 1308 Y s 291 201 m -53 X s 265 241 m -27 X s 265 280 m -27 X s 265 320 m -27 X s 265 360 m -27 X s 291 399 m -53 X s 265 439 m -27 X s 265 479 m -27 X s 265 518 m
 -27 X s 265 558 m -27 X s 291 598 m -53 X s 265 637 m -27 X s 265 677 m -27 X s 265 717 m -27 X s 265 756 m -27 X s 291 796 m -53 X s 265 836 m -27 X s 265 875 m -27 X s 265 915 m -27 X s 265 955 m -27 X s 291 994 m -53 X s 265 1034 m -27 X s 265
 1074 m -27 X s 265 1113 m -27 X s 265 1153 m -27 X s 291 1193 m -53 X s 265 1232 m -27 X s 265 1272 m -27 X s 265 1312 m -27 X s 265 1351 m -27 X s 291 1391 m -53 X s 291 1391 m -53 X s 265 1431 m -27 X s 265 1470 m -27 X s
 gsave  2268 1676 0 0 C 174.44 178.232 t 0 r /Helvetica-Bold findfont 64.4669 sf 0 0 m (0) show NC gr 
 gsave  2268 1676 0 0 C 121.349 375.425 t 0 r /Helvetica-Bold findfont 64.4669 sf 0 0 m (0.5) show NC gr 
 gsave  2268 1676 0 0 C 182.024 572.617 t 0 r /Helvetica-Bold findfont 64.4669 sf 0 0 m (1) show NC gr 
 gsave  2268 1676 0 0 C 121.349 769.81 t 0 r /Helvetica-Bold findfont 64.4669 sf 0 0 m (1.5) show NC gr 
 gsave  2268 1676 0 0 C 174.44 970.795 t 0 r /Helvetica-Bold findfont 64.4669 sf 0 0 m (2) show NC gr 
 gsave  2268 1676 0 0 C 121.349 1167.99 t 0 r /Helvetica-Bold findfont 64.4669 sf 0 0 m (2.5) show NC gr 
 gsave  2268 1676 0 0 C 174.44 1365.18 t 0 r /Helvetica-Bold findfont 64.4669 sf 0 0 m (3) show NC gr 
 gsave  2268 1676 0 0 C 64.4669 1425.86 t 90 r /Helvetica-Bold findfont 72.0512 sf 0 0 m (dx) show NC gr 
 gsave  2268 1676 0 0 C 30.3373 1406.89 t 90 r /Helvetica-Bold findfont 45.506 sf 0 0 m ( ) show NC gr 
 gsave  2268 1676 0 0 C 64.4669 1384.14 t 90 r /Helvetica-Bold findfont 72.0512 sf 0 0 m (/) show NC gr 
 gsave  2268 1676 0 0 C 30.3373 1365.18 t 90 r /Helvetica-Bold findfont 45.506 sf 0 0 m ( ) show NC gr 
 gsave  2268 1676 0 0 C 60.6747 1092.14 t 90 r /Helvetica-Bold findfont 72.0512 sf 0 0 m (\(1/N\) dN) show NC gr  2154 201 m 1308 Y s 2101 201 m 53 X s 2128 241 m 26 X s 2128 280 m 26 X s 2128 320 m 26 X s 2128 360 m 26 X s 2101 399 m 53 X s 2128 439
 m 26 X s 2128 479 m 26 X s 2128 518 m 26 X s 2128 558 m 26 X s 2101 598 m 53 X s 2128 637 m 26 X s 2128 677 m 26 X s 2128 717 m 26 X s 2128 756 m 26 X s 2101 796 m 53 X s 2128 836 m 26 X s 2128 875 m 26 X s 2128 915 m 26 X s 2128 955 m 26 X s 2101
 994 m 53 X s 2128 1034 m 26 X s 2128 1074 m 26 X s 2128 1113 m 26 X s 2128 1153 m 26 X s 2101 1193 m 53 X s 2128 1232 m 26 X s 2128 1272 m 26 X s 2128 1312 m 26 X s 2128 1351 m 26 X s 2101 1391 m 53 X s 2101 1391 m 53 X s 2128 1431 m 26 X s 2128
 1470 m 26 X s 0.490196 0.545098 0.615686 c 1 1 1 c 0.490196 0.545098 0.615686 c 907 202 238 1307 bl 238 1307 m 907 X s 1145 1307 m 202 Y s 1145 1509 m -907 X s 238 1509 m -202 Y s black
 gsave  2268 1676 0 0 C 417.138 1437.23 t 0 r /Helvetica-Bold findfont 56.8825 sf 0 0 m (Signal \(test sample\)) show NC gr  0.49 0.6 0.82 c 265 1423 m 127 X 70 Y -127 X f 0 0 0.933333 c 265 1493 m 127 X s 265 1423 m 127 X s 392 1423 m 70 Y s 265
 1423 m 70 Y s black
 gsave  2268 1676 0 0 C 417.138 1338.64 t 0 r /Helvetica-Bold findfont 56.8825 sf 0 0 m (Background \(test sample\)) show NC gr  1 0 0 c 392 1354 m -32 -32 d s 383 1393 m -71 -71 d s 335 1393 m -70 -69 d s 286 1393 m -21 -21 d s 0 0 0.933333 c 1 0 0
 c 265 1393 m 127 X s 265 1322 m 127 X s 392 1322 m 71 Y s 265 1322 m 71 Y s 0 0 0.933333 c 0.49 0.6 0.82 c black 0.49 0.6 0.82 c 238 201 m 383 X 2 Y 48 X -2 Y 48 X 7 Y 48 X -3 Y 48 X 5 Y 48 X 4 Y 48 X 26 Y 48 X 22 Y 48 X 56 Y 48 X 48 Y 47 X 97 Y 48
 X 130 Y 48 X 81 Y 48 X 53 Y 48 X 128 Y 48 X 130 Y 48 X 35 Y 48 X 55 Y 48 X -90 Y 48 X -80 Y 47 X 9 Y 48 X -218 Y 48 X -77 Y 48 X -114 Y 48 X -113 Y 48 X -39 Y 48 X -60 Y 48 X -44 Y 48 X -15 Y 48 X -16 Y 48 X -8 Y 47 X -5 Y 48 X -4 Y f 0 0 0.933333 c
 0.49 0.6 0.82 c 0 0 0.933333 c 238 201 m 383 X 2 Y 48 X -2 Y 48 X 7 Y 48 X -3 Y 48 X 5 Y 48 X 4 Y 48 X 26 Y 48 X 22 Y 48 X 56 Y 48 X 48 Y 47 X 97 Y 48 X 130 Y 48 X 81 Y 48 X 53 Y 48 X 128 Y 48 X 130 Y 48 X 35 Y 48 X 55 Y 48 X -90 Y 48 X -80 Y 47 X 9
 Y 48 X -218 Y 48 X -77 Y 48 X -114 Y 48 X -113 Y 48 X -39 Y 48 X -60 Y 48 X -44 Y 48 X -15 Y 48 X -16 Y 48 X -8 Y 47 X -5 Y 48 X -4 Y s 1 0 0 c black 1 0 0 c 2125 201 m s 2077 201 m s 2031 203 m -2 -2 d s 1981 201 m s 1937 205 m -4 -4 d s 1887 203 m
 -2 -2 d s 1844 208 m -7 -7 d s 1790 203 m -1 -2 d s 1748 208 m -7 -7 d s 1723 232 m -31 -31 d s 1677 234 m -33 -33 d s 1675 280 m -79 -79 d s 1649 302 m -101 -101 d s 1627 329 m -127 -128 d s 1627 377 m -175 -176 d s 1627 425 m -223 -224 d s 1627
 473 m -271 -272 d s 1627 521 m -319 -320 d s 1627 569 m -368 -368 d s 1611 600 m -400 -399 d s 1579 617 m -416 -416 d s 1579 665 m -239 -239 d s 1302 388 m -10 -10 d s 1275 361 m -160 -160 d s 1579 714 m -239 -240 d s 1210 344 m -143 -143 d s 1579
 762 m -239 -240 d s 1196 378 m -177 -177 d s 1579 810 m -191 -192 d s 1352 582 m -12 -12 d s 1196 427 m -225 -226 d s 1579 858 m -191 -192 d s 1196 475 m -273 -274 d s 1579 906 m -191 -192 d s 1196 523 m -321 -322 d s 1572 947 m -184 -185 d s 1182
 557 m -321 -321 d s 854 229 m -27 -28 d s 1532 954 m -144 -143 d s 1148 571 m -287 -287 d s 789 212 m -11 -11 d s 1532 1002 m -96 -95 d s 1426 897 m -38 -38 d s 1148 619 m -239 -239 d s 866 337 m -5 -5 d s 739 210 m -9 -9 d s 1532 1051 m -96 -96 d s
 1148 667 m -239 -239 d s 688 207 m -6 -6 d s 1532 1099 m -96 -96 d s 1148 715 m -239 -239 d s 638 205 m -4 -4 d s 1518 1134 m -82 -83 d s 1148 763 m -239 -239 d s 586 201 m cl s 1479 1143 m -43 -44 d s 1148 812 m -191 -192 d s 950 613 m -41 -41 d s
 538 201 m s 1148 860 m -191 -192 d s 492 203 m -2 -2 d s 1148 908 m -191 -192 d s 442 201 m s 1119 927 m -162 -163 d s 394 201 m s 1100 956 m -143 -144 d s 345 201 m s 1100 1004 m -143 -144 d s 297 201 m cl s 1100 1052 m -143 -143 d s 251 203 m -2
 -2 d s 1100 1100 m -95 -95 d s 989 989 m -32 -32 d s 1087 1135 m -82 -82 d s 1053 1149 m -48 -48 d s 1053 1197 m -48 -48 d s 1014 1207 m -9 -10 d s 238 203 m 48 X -2 Y 192 X 2 Y 48 X -2 Y 95 X 4 Y 48 X 2 Y 48 X 3 Y 48 X 2 Y 48 X 17 Y 48 X 108 Y 48 X
 276 Y 48 X 376 Y 48 X 218 Y 48 X -72 Y 47 X -208 Y 48 X -370 Y 48 X -213 Y 48 X 17 Y 48 X 27 Y 48 X 194 Y 48 X 315 Y 48 X 246 Y 48 X -9 Y 48 X -187 Y 47 X -347 Y 48 X -298 Y 48 X -68 Y 48 X -26 Y 48 X -5 Y 48 X 5 Y 48 X -5 Y 48 X 2 Y 48 X -4 Y 48 X
 2 Y 48 X -2 Y 95 X s 0.490196 0.545098 0.615686 c 1 1 1 c 0.490196 0.545098 0.615686 c 952 202 1202 1307 bl 1202 1307 m 952 X s 2154 1307 m 202 Y s 2154 1509 m -952 X s 1202 1509 m -202 Y s black
 gsave  2268 1676 0 0 C 1296.92 1437.23 t 0 r /Helvetica-Bold findfont 56.8825 sf 0 0 m (Signal \(training sample\)) show NC gr  0 0 0.933333 c /w 21 def /w2 {w 2 div} def /w3 {w 3 div} def 1250 1458 m20 black
 gsave  2268 1676 0 0 C 1296.92 1338.64 t 0 r /Helvetica-Bold findfont 56.8825 sf 0 0 m (Background \(training sample\)) show NC gr  1 0 0 c 1250 1358 m20 0 0 0.933333 c 1 1 1 c 0 0 0.933333 c 669 205 m 17 X s 701 205 m 16 X s 669 197 m 15 Y s 717
 197 m 15 Y s 693 205 m20 765 210 m 16 X s 797 210 m 16 X s 765 203 m 15 Y s 813 203 m 15 Y s 789 210 m20 861 230 m 16 X s 892 230 m 17 X s 861 223 m 15 Y s 909 223 m 15 Y s 885 230 m20 933 230 m s 933 245 m 1 Y s 909 238 m 16 X s 940 238 m 17 X s
 925 230 m 15 X s 925 246 m 15 X s 909 230 m 15 Y s 957 230 m 15 Y s 933 238 m20 981 251 m 3 Y s 981 269 m 3 Y s 957 262 m 16 X s 988 262 m 17 X s 973 251 m 15 X s 973 272 m 15 X s 957 254 m 15 Y s 1005 254 m 15 Y s 981 262 m20 1029 290 m 6 Y s 1029
 311 m 6 Y s 1005 304 m 16 X s 1036 304 m 17 X s 1021 290 m 15 X s 1021 317 m 15 X s 1005 296 m 15 Y s 1053 296 m 15 Y s 1029 304 m20 1076 397 m 13 Y s 1076 425 m 12 Y s 1053 417 m 16 X s 1084 417 m 16 X s 1069 397 m 15 X s 1069 437 m 15 X s 1053 410
 m 15 Y s 1100 410 m 15 Y s 1076 417 m20 1124 417 m 13 Y s 1124 445 m 13 Y s 1100 438 m 17 X s 1132 438 m 16 X s 1117 417 m 15 X s 1117 458 m 15 X s 1100 430 m 15 Y s 1148 430 m 15 Y s 1124 438 m20 1172 547 m 19 Y s 1172 581 m 18 Y s 1148 573 m 17 X
 s 1180 573 m 16 X s 1165 547 m 15 X s 1165 599 m 15 X s 1148 566 m 15 Y s 1196 566 m 15 Y s 1172 573 m20 1220 653 m 23 Y s 1220 691 m 22 Y s 1196 683 m 17 X s 1228 683 m 16 X s 1213 653 m 15 X s 1213 713 m 15 X s 1196 676 m 15 Y s 1244 676 m 15 Y s
 1220 683 m20 1268 741 m 24 Y s 1268 780 m 25 Y s 1244 773 m 16 X s 1276 773 m 16 X s 1260 741 m 16 X s 1260 805 m 16 X s 1244 765 m 15 Y s 1292 765 m 15 Y s 1268 773 m20 1316 824 m 27 Y s 1316 867 m 27 Y s 1292 859 m 16 X s 1324 859 m 16 X s 1308
 824 m 16 X s 1308 894 m 16 X s 1292 851 m 16 Y s 1340 851 m 16 Y s 1316 859 m20 1364 905 m 29 Y s 1364 949 m 29 Y s 1340 941 m 16 X s 1371 941 m 17 X s 1356 905 m 15 X s 1356 978 m 15 X s 1340 934 m 15 Y s 1388 934 m 15 Y s 1364 941 m20 1412 989 m
 31 Y s 1412 1035 m 32 Y s 1388 1028 m 16 X s 1419 1028 m 17 X s 1404 989 m 15 X s 1404 1067 m 15 X s 1388 1020 m 15 Y s 1436 1020 m 15 Y s 1412 1028 m20 1460 1042 m 33 Y s 1460 1090 m 33 Y s 1436 1083 m 16 X s 1467 1083 m 17 X s 1452 1042 m 15 X s
 1452 1123 m 15 X s 1436 1075 m 15 Y s 1484 1075 m 15 Y s 1460 1083 m20 1508 951 m 31 Y s 1508 997 m 30 Y s 1484 989 m 16 X s 1515 989 m 17 X s 1500 951 m 15 X s 1500 1027 m 15 X s 1484 982 m 15 Y s 1532 982 m 15 Y s 1508 989 m20 1556 896 m 29 Y s
 1556 940 m 29 Y s 1532 932 m 16 X s 1563 932 m 16 X s 1548 896 m 15 X s 1548 969 m 15 X s 1532 925 m 15 Y s 1579 925 m 15 Y s 1556 932 m20 1603 803 m 26 Y s 1603 845 m 26 Y s 1579 837 m 17 X s 1611 837 m 16 X s 1596 803 m 15 X s 1596 871 m 15 X s
 1579 829 m 16 Y s 1627 829 m 16 Y s 1603 837 m20 1651 732 m 24 Y s 1651 771 m 25 Y s 1627 764 m 17 X s 1659 764 m 16 X s 1644 732 m 15 X s 1644 796 m 15 X s 1627 756 m 15 Y s 1675 756 m 15 Y s 1651 764 m20 1699 549 m 18 Y s 1699 583 m 18 Y s 1675
 575 m 17 X s 1707 575 m 16 X s 1692 549 m 15 X s 1692 601 m 15 X s 1675 567 m 16 Y s 1723 567 m 16 Y s 1699 575 m20 1747 501 m 17 Y s 1747 533 m 17 Y s 1723 526 m 17 X s 1755 526 m 16 X s 1740 501 m 15 X s 1740 550 m 15 X s 1723 518 m 15 Y s 1771
 518 m 15 Y s 1747 526 m20 1795 378 m 12 Y s 1795 405 m 11 Y s 1771 397 m 16 X s 1803 397 m 16 X s 1787 378 m 16 X s 1787 416 m 16 X s 1771 390 m 15 Y s 1819 390 m 15 Y s 1795 397 m20 1843 312 m 8 Y s 1843 335 m 8 Y s 1819 328 m 16 X s 1851 328 m 16
 X s 1835 312 m 16 X s 1835 343 m 16 X s 1819 320 m 15 Y s 1867 320 m 15 Y s 1843 328 m20 1891 275 m 5 Y s 1891 295 m 5 Y s 1867 287 m 16 X s 1898 287 m 17 X s 1883 275 m 15 X s 1883 300 m 15 X s 1867 280 m 15 Y s 1915 280 m 15 Y s 1891 287 m20 1939
 243 m 2 Y s 1939 260 m 2 Y s 1915 252 m 16 X s 1946 252 m 17 X s 1931 243 m 15 X s 1931 262 m 15 X s 1915 245 m 15 Y s 1963 245 m 15 Y s 1939 252 m20 1963 225 m 16 X s 1994 225 m 17 X s 1963 217 m 16 Y s 2011 217 m 16 Y s 1987 225 m20 2011 219 m 16
 X s 2042 219 m 17 X s 2011 212 m 15 Y s 2059 212 m 15 Y s 2035 219 m20 2059 208 m 16 X s 2090 208 m 16 X s 2059 201 m 15 Y s 2106 201 m 15 Y s 2082 208 m20 2106 208 m 17 X s 2138 208 m 16 X s 2106 201 m 15 Y s 2154 201 m 15 Y s 2130 208 m20 1 0 0 c
 1 1 1 c 1 0 0 c 430 203 m 16 X s 461 203 m 17 X s 430 195 m 16 Y s 478 195 m 16 Y s 454 203 m20 478 207 m 16 X s 509 207 m 17 X s 478 199 m 15 Y s 526 199 m 15 Y s 502 207 m20 573 207 m 17 X s 605 207 m 16 X s 573 199 m 15 Y s 621 199 m 15 Y s 597
 207 m20 621 203 m 17 X s 653 203 m 16 X s 621 195 m 16 Y s 669 195 m 16 Y s 645 203 m20 669 207 m 17 X s 701 207 m 16 X s 669 199 m 15 Y s 717 199 m 15 Y s 693 207 m20 717 207 m 17 X s 749 207 m 16 X s 717 199 m 15 Y s 765 199 m 15 Y s 741 207 m20
 765 212 m 16 X s 797 212 m 16 X s 765 205 m 15 Y s 813 205 m 15 Y s 789 212 m20 837 230 m s 837 245 m 1 Y s 813 238 m 16 X s 845 238 m 16 X s 829 230 m 16 X s 829 246 m 16 X s 813 230 m 15 Y s 861 230 m 15 Y s 837 238 m20 885 312 m 8 Y s 885 335 m 8
 Y s 861 328 m 16 X s 892 328 m 17 X s 877 312 m 15 X s 877 343 m 15 X s 861 320 m 15 Y s 909 320 m 15 Y s 885 328 m20 933 622 m 21 Y s 933 658 m 21 Y s 909 650 m 16 X s 940 650 m 17 X s 925 622 m 15 X s 925 679 m 15 X s 909 643 m 15 Y s 957 643 m 15
 Y s 933 650 m20 981 878 m 29 Y s 981 922 m 28 Y s 957 914 m 16 X s 988 914 m 17 X s 973 878 m 15 X s 973 950 m 15 X s 957 907 m 15 Y s 1005 907 m 15 Y s 981 914 m20 1029 1046 m 33 Y s 1029 1094 m 33 Y s 1005 1086 m 16 X s 1036 1086 m 17 X s 1021
 1046 m 15 X s 1021 1127 m 15 X s 1005 1079 m 15 Y s 1053 1079 m 15 Y s 1029 1086 m20 1076 1114 m 35 Y s 1076 1164 m 34 Y s 1053 1156 m 16 X s 1084 1156 m 16 X s 1069 1114 m 15 X s 1069 1198 m 15 X s 1053 1149 m 15 Y s 1100 1149 m 15 Y s 1076 1156
 m20 1124 910 m 30 Y s 1124 955 m 29 Y s 1100 947 m 17 X s 1132 947 m 16 X s 1117 910 m 15 X s 1117 984 m 15 X s 1100 940 m 15 Y s 1148 940 m 15 Y s 1124 947 m20 1172 547 m 19 Y s 1172 581 m 18 Y s 1148 573 m 17 X s 1180 573 m 16 X s 1165 547 m 15 X
 s 1165 599 m 15 X s 1148 566 m 15 Y s 1196 566 m 15 Y s 1172 573 m20 1220 377 m 11 Y s 1220 403 m 11 Y s 1196 395 m 17 X s 1228 395 m 16 X s 1213 377 m 15 X s 1213 414 m 15 X s 1196 388 m 15 Y s 1244 388 m 15 Y s 1220 395 m20 1268 316 m 8 Y s 1268
 339 m 8 Y s 1244 331 m 16 X s 1276 331 m 16 X s 1260 316 m 16 X s 1260 347 m 16 X s 1244 324 m 15 Y s 1292 324 m 15 Y s 1268 331 m20 1316 350 m 10 Y s 1316 376 m 9 Y s 1292 368 m 16 X s 1324 368 m 16 X s 1308 350 m 16 X s 1308 385 m 16 X s 1292 360
 m 16 Y s 1340 360 m 16 Y s 1316 368 m20 1364 600 m 21 Y s 1364 636 m 20 Y s 1340 628 m 16 X s 1371 628 m 17 X s 1356 600 m 15 X s 1356 656 m 15 X s 1340 621 m 15 Y s 1388 621 m 15 Y s 1364 628 m20 1412 867 m 29 Y s 1412 911 m 28 Y s 1388 903 m 16 X
 s 1419 903 m 17 X s 1404 867 m 15 X s 1404 939 m 15 X s 1388 896 m 15 Y s 1436 896 m 15 Y s 1412 903 m20 1460 1026 m 33 Y s 1460 1074 m 32 Y s 1436 1066 m 16 X s 1467 1066 m 17 X s 1452 1026 m 15 X s 1452 1106 m 15 X s 1436 1059 m 15 Y s 1484 1059 m
 15 Y s 1460 1066 m20 1508 1077 m 33 Y s 1508 1125 m 34 Y s 1484 1118 m 16 X s 1515 1118 m 17 X s 1500 1077 m 15 X s 1500 1159 m 15 X s 1484 1110 m 15 Y s 1532 1110 m 15 Y s 1508 1118 m20 1556 975 m 31 Y s 1556 1021 m 31 Y s 1532 1013 m 16 X s 1563
 1013 m 16 X s 1548 975 m 15 X s 1548 1052 m 15 X s 1532 1006 m 15 Y s 1579 1006 m 15 Y s 1556 1013 m20 1603 622 m 21 Y s 1603 658 m 21 Y s 1579 650 m 17 X s 1611 650 m 16 X s 1596 622 m 15 X s 1596 679 m 15 X s 1579 643 m 15 Y s 1627 643 m 15 Y s
 1603 650 m20 1651 292 m 6 Y s 1651 313 m 6 Y s 1627 306 m 17 X s 1659 306 m 16 X s 1644 292 m 15 X s 1644 319 m 15 X s 1627 298 m 15 Y s 1675 298 m 15 Y s 1651 306 m20 1699 228 m s 1699 244 m s 1675 236 m 17 X s 1707 236 m 16 X s 1692 228 m 15 X s
 1692 244 m 15 X s 1675 228 m 16 Y s 1723 228 m 16 Y s 1699 236 m20 1723 219 m 17 X s 1755 219 m 16 X s 1723 212 m 15 Y s 1771 212 m 15 Y s 1747 219 m20 1771 207 m 16 X s 1803 207 m 16 X s 1771 199 m 15 Y s 1819 199 m 15 Y s 1795 207 m20 1819 207 m
 16 X s 1851 207 m 16 X s 1819 199 m 15 Y s 1867 199 m 15 Y s 1843 207 m20 1867 205 m 16 X s 1898 205 m 17 X s 1867 197 m 15 Y s 1915 197 m 15 Y s 1891 205 m20 1915 203 m 16 X s 1946 203 m 17 X s 1915 195 m 16 Y s 1963 195 m 16 Y s 1939 203 m20 2011
 203 m 16 X s 2042 203 m 17 X s 2011 195 m 16 Y s 2059 195 m 16 Y s 2035 203 m20 black
 gsave  2268 1676 0 0 C 272.126 1240.34 t 0 r /Helvetica-Bold findfont 49.2982 sf 0 0 m (Kolmogorov\255Smirnov test: signal \(background\) probability = 0.866 \(0.057\)) show NC gr  238 201 m 1916 X s 252 244 m -43 Y s 307 222 m -21 Y s 362 222 m -21
 Y s 418 222 m -21 Y s 473 244 m -43 Y s 528 222 m -21 Y s 584 222 m -21 Y s 639 222 m -21 Y s 694 244 m -43 Y s 750 222 m -21 Y s 805 222 m -21 Y s 860 222 m -21 Y s 916 244 m -43 Y s 971 222 m -21 Y s 1026 222 m -21 Y s 1081 222 m -21 Y s 1137 244
 m -43 Y s 1192 222 m -21 Y s 1247 222 m -21 Y s 1303 222 m -21 Y s 1358 244 m -43 Y s 1413 222 m -21 Y s 1469 222 m -21 Y s 1524 222 m -21 Y s 1579 244 m -43 Y s 1635 222 m -21 Y s 1690 222 m -21 Y s 1745 222 m -21 Y s 1801 244 m -43 Y s 1856 222 m
 -21 Y s 1911 222 m -21 Y s 1967 222 m -21 Y s 2022 244 m -43 Y s 252 244 m -43 Y s 2022 244 m -43 Y s 2077 222 m -21 Y s 2133 222 m -21 Y s 238 1509 m 1916 X s 252 1466 m 43 Y s 307 1487 m 22 Y s 362 1487 m 22 Y s 418 1487 m 22 Y s 473 1466 m 43 Y s
 528 1487 m 22 Y s 584 1487 m 22 Y s 639 1487 m 22 Y s 694 1466 m 43 Y s 750 1487 m 22 Y s 805 1487 m 22 Y s 860 1487 m 22 Y s 916 1466 m 43 Y s 971 1487 m 22 Y s 1026 1487 m 22 Y s 1081 1487 m 22 Y s 1137 1466 m 43 Y s 1192 1487 m 22 Y s 1247 1487 m
 22 Y s 1303 1487 m 22 Y s 1358 1466 m 43 Y s 1413 1487 m 22 Y s 1469 1487 m 22 Y s 1524 1487 m 22 Y s 1579 1466 m 43 Y s 1635 1487 m 22 Y s 1690 1487 m 22 Y s 1745 1487 m 22 Y s 1801 1466 m 43 Y s 1856 1487 m 22 Y s 1911 1487 m 22 Y s 1967 1487 m 22
 Y s 2022 1466 m 43 Y s 252 1466 m 43 Y s 2022 1466 m 43 Y s 2077 1487 m 22 Y s 2133 1487 m 22 Y s 238 201 m 1308 Y s 291 201 m -53 X s 265 241 m -27 X s 265 280 m -27 X s 265 320 m -27 X s 265 360 m -27 X s 291 399 m -53 X s 265 439 m -27 X s 265
 479 m -27 X s 265 518 m -27 X s 265 558 m -27 X s 291 598 m -53 X s 265 637 m -27 X s 265 677 m -27 X s 265 717 m -27 X s 265 756 m -27 X s 291 796 m -53 X s 265 836 m -27 X s 265 875 m -27 X s 265 915 m -27 X s 265 955 m -27 X s 291 994 m -53 X s
 265 1034 m -27 X s 265 1074 m -27 X s 265 1113 m -27 X s 265 1153 m -27 X s 291 1193 m -53 X s 265 1232 m -27 X s 265 1272 m -27 X s 265 1312 m -27 X s 265 1351 m -27 X s 291 1391 m -53 X s 291 1391 m -53 X s 265 1431 m -27 X s 265 1470 m -27 X s
 2154 201 m 1308 Y s 2101 201 m 53 X s 2128 241 m 26 X s 2128 280 m 26 X s 2128 320 m 26 X s 2128 360 m 26 X s 2101 399 m 53 X s 2128 439 m 26 X s 2128 479 m 26 X s 2128 518 m 26 X s 2128 558 m 26 X s 2101 598 m 53 X s 2128 637 m 26 X s 2128 677 m 26
 X s 2128 717 m 26 X s 2128 756 m 26 X s 2101 796 m 53 X s 2128 836 m 26 X s 2128 875 m 26 X s 2128 915 m 26 X s 2128 955 m 26 X s 2101 994 m 53 X s 2128 1034 m 26 X s 2128 1074 m 26 X s 2128 1113 m 26 X s 2128 1153 m 26 X s 2101 1193 m 53 X s 2128
 1232 m 26 X s 2128 1272 m 26 X s 2128 1312 m 26 X s 2128 1351 m 26 X s 2101 1391 m 53 X s 2101 1391 m 53 X s 2128 1431 m 26 X s 2128 1470 m 26 X s
 gsave  2268 1676 0 0 C 2211.02 192.756 t 90 r /Helvetica-Bold findfont 45.506 sf 0 0 m (U/O\255flow \(S,B\): \(0.0, 0.0\)% / \(0.0, 0.0\)%) show NC gr  0.490196 0.545098 0.615686 c 0.364706 0.419608 0.490196 c 1587 96 23 1572 bf 0.490196 0.545098
 0.615686 c 23 1572 m 1587 X s 1610 1572 m 96 Y s 1610 1668 m -1587 X s 23 1668 m -96 Y s 1 1 1 c black 1 1 1 c
 gsave  2268 1676 0 0 C 68.259 1600.29 t 0 r /Helvetica-Bold findfont 68.259 sf 0 0 m (TMVA overtraining check for classifier: Fisher) show NC gr 
 gr  gr showpage
end
%%EOF
