%!PS-Adobe-2.0 EPSF-2.0
%%BoundingBox:  0 0 567 419
%%Title: dataset/plots/overtrain_BDT.eps: TMVA comparison BDT
%%Creator: ROOT Version 6.12/06
%%CreationDate: Mon May 21 16:45:00 2018
%%DocumentNeededResources: ProcSet (FontSetInit)
%%EndComments
%%BeginProlog
80 dict begin
/s {stroke} def /l {lineto} def /m {moveto} def /t {translate} def
/r {rotate} def /rl {roll}  def /R {repeat} def
/d {rlineto} def /rm {rmoveto} def /gr {grestore} def /f {eofill} def
/c {setrgbcolor} def /black {0 setgray} def /sd {setdash} def
/cl {closepath} def /sf {scalefont setfont} def /lw {setlinewidth} def
/box {m dup 0 exch d exch 0 d 0 exch neg d cl} def
/NC{systemdict begin initclip end}def/C{NC box clip newpath}def
/bl {box s} def /bf {gsave box gsave f grestore 1 lw [] 0 sd s grestore} def /Y { 0 exch d} def /X { 0 d} def 
/K {{pop pop 0 moveto} exch kshow} bind def
/ita {/ang 15 def gsave [1 0 ang dup sin exch cos div 1 0 0] concat} def 
/mp {newpath /y exch def /x exch def} def
/side {[w .77 mul w .23 mul] .385 w mul sd w 0 l currentpoint t -144 r} def
/mr {mp x y w2 0 360 arc} def /m24 {mr s} def /m20 {mr f} def
/mb {mp x y w2 add m w2 neg 0 d 0 w neg d w 0 d 0 w d cl} def
/mt {mp x y w2 add m w2 neg w neg d w 0 d cl} def
/w4 {w 4 div} def
/w6 {w 6 div} def
/w8 {w 8 div} def
/m21 {mb f} def /m25 {mb s} def /m22 {mt f} def /m26{mt s} def
/m23 {mp x y w2 sub m w2 w d w neg 0 d cl f} def
/m27 {mp x y w2 add m w3 neg w2 neg d w3 w2 neg d w3 w2 d cl s} def
/m28 {mp x w2 sub y w2 sub w3 add m w3 0 d  0 w3 neg d w3 0 d 0 w3 d w3 0 d  0 w3 d w3 neg 0 d 0 w3 d w3 neg 0 d 0 w3 neg d w3 neg 0 d cl s } def
/m29 {mp gsave x w2 sub y w2 add w3 sub m currentpoint t 4 {side} repeat cl fill gr} def
/m30 {mp gsave x w2 sub y w2 add w3 sub m currentpoint t 4 {side} repeat cl s gr} def
/m31 {mp x y w2 sub m 0 w d x w2 sub y m w 0 d x w2 sub y w2 add m w w neg d x w2 sub y w2 sub m w w d s} def
/m32 {mp x y w2 sub m w2 w d w neg 0 d cl s} def
/m33 {mp x y w2 add m w3 neg w2 neg d w3 w2 neg d w3 w2 d cl f} def
/m34 {mp x w2 sub y w2 sub w3 add m w3 0 d  0 w3 neg d w3 0 d 0 w3 d w3 0 d  0 w3 d w3 neg 0 d 0 w3 d w3 neg 0 d 0 w3 neg d w3 neg 0 d cl f } def
/m35 {mp x y w2 add m w2 neg w2 neg d w2 w2 neg d w2 w2 d w2 neg w2 d x y w2 sub m 0 w d x w2 sub y m w 0 d s} def
/m36 {mb x w2 sub y w2 add m w w neg d x w2 sub y w2 sub m w w d s} def
/m37 {mp x y m w4 neg w2 d w4 neg w2 neg d w2 0 d  w4 neg w2 neg d w2 0 d w4 neg w2 d w2 0 d w4 neg w2 d w4 neg w2 neg d cl s} def
/m38 {mp x w4 sub y w2 add m w4 neg w4 neg d 0 w2 neg d w4 w4 neg d w2 0 d w4 w4 d 0 w2 d w4 neg w4 d w2 neg 0 d x y w2 sub m 0 w d x w2 sub y m w 0 d cl s} def
/m39 {mp x y m w4 neg w2 d w4 neg w2 neg d w2 0 d  w4 neg w2 neg d w2 0 d w4 neg w2 d w2 0 d w4 neg w2 d w4 neg w2 neg d cl f} def
/m40 {mp x y m w4 w2 d w4 w4 neg d w2 neg w4 neg d w2 w4 neg d w4 neg w4 neg d w4 neg w2 d w4 neg w2 neg d w4 neg w4 d w2 w4 d w2 neg w4 d w4 w4 d w4 w2 neg d cl s} def
/m41 {mp x y m w4 w2 d w4 w4 neg d w2 neg w4 neg d w2 w4 neg d w4 neg w4 neg d w4 neg w2 d w4 neg w2 neg d w4 neg w4 d w2 w4 d w2 neg w4 d w4 w4 d w4 w2 neg d cl f} def
/m42 {mp x y w2 add m w8 neg w2 -3 4 div mul d w2 -3 4 div mul w8 neg d w2 3 4 div mul w8 neg d w8 w2 -3 4 div mul d w8 w2 3 4 div mul d w2 3 4 div mul w8 d w2 -3 4 div mul w8 d w8 neg w2 3 4 div mul d cl s} def
/m43 {mp x y w2 add m w8 neg w2 -3 4 div mul d w2 -3 4 div mul w8 neg d w2 3 4 div mul w8 neg d w8 w2 -3 4 div mul d w8 w2 3 4 div mul d w2 3 4 div mul w8 d w2 -3 4 div mul w8 d w8 neg w2 3 4 div mul d cl f} def
/m44 {mp x y m w6 neg w2 d w2 2 3 div mul 0 d w6 neg w2 neg d w2 w6 d 0 w2 -2 3 div mul d w2 neg w6 d w6 w2 neg d w2 -2 3 div mul 0 d w6 w2 d w2 neg w6 neg d 0 w2 2 3 div mul d w2 w6 neg d cl s} def
/m45 {mp x y m w6 neg w2 d w2 2 3 div mul 0 d w6 neg w2 neg d w2 w6 d 0 w2 -2 3 div mul d w2 neg w6 d w6 w2 neg d w2 -2 3 div mul 0 d w6 w2 d w2 neg w6 neg d 0 w2 2 3 div mul d w2 w6 neg d cl f} def
/m46 {mp x y w4 add m w4 neg w4 d w4 neg w4 neg d  w4 w4 neg d w4 neg w4 neg d w4 w4 neg d w4 w4 d w4 w4 neg d w4 w4 d w4 neg w4 d w4 w4 d w4 neg w4 d w4 neg w4 neg d cl s} def
/m47 {mp x y w4 add m w4 neg w4 d w4 neg w4 neg d w4 w4 neg d w4 neg w4 neg d  w4 w4 neg d w4 w4 d w4 w4 neg d w4 w4 d w4 neg w4 d w4 w4 d w4 neg w4 d w4 neg w4 neg d cl f} def
/m48 {mp x y w4 add m w4 neg w4 d w4 neg w4 neg d w4 w4 neg d  w4 neg w4 neg d w4 w4 neg d w4 w4 d w4 w4 neg d w4 w4 d w4 neg w4 d w4 w4 d w4 neg w4 d w4 neg w4 neg d  w4 w4 neg d w4 neg w4 neg d w4 neg w4 d w4 w4 d cl f} def
/m49 {mp x w2 sub w3 add y w2 sub w3 add m  0 w3 neg d w3 0 d 0 w3 d w3 0 d 0 w3 d w3 neg 0 d 0 w3 d w3 neg 0 d 0 w3 neg d w3 neg 0 d 0 w3 neg d w3 0 d 0 w3 d w3 0 d 0 w3 neg d w3 neg 0 d cl f } def
/m2 {mp x y w2 sub m 0 w d x w2 sub y m w 0 d s} def
/m5 {mp x w2 sub y w2 sub m w w d x w2 sub y w2 add m w w neg d s} def
%%IncludeResource: ProcSet (FontSetInit)
%%IncludeResource: font Times-Roman
%%IncludeResource: font Times-Italic
%%IncludeResource: font Times-Bold
%%IncludeResource: font Times-BoldItalic
%%IncludeResource: font Helvetica
%%IncludeResource: font Helvetica-Oblique
%%IncludeResource: font Helvetica-Bold
%%IncludeResource: font Helvetica-BoldOblique
%%IncludeResource: font Courier
%%IncludeResource: font Courier-Oblique
%%IncludeResource: font Courier-Bold
%%IncludeResource: font Courier-BoldOblique
%%IncludeResource: font Symbol
%%IncludeResource: font ZapfDingbats
/reEncode {exch findfont dup length dict begin {1 index /FID eq  {pop pop} {def} ifelse } forall /Encoding exch def currentdict end dup /FontName get exch definefont pop } def [/Times-Bold /Times-Italic /Times-BoldItalic /Helvetica /Helvetica-Oblique
 /Helvetica-Bold /Helvetica-BoldOblique /Courier /Courier-Oblique /Courier-Bold /Courier-BoldOblique /Times-Roman /AvantGarde-Book /AvantGarde-BookOblique /AvantGarde-Demi /AvantGarde-DemiOblique /Bookman-Demi /Bookman-DemiItalic /Bookman-Light
 /Bookman-LightItalic /Helvetica-Narrow /Helvetica-Narrow-Bold /Helvetica-Narrow-BoldOblique /Helvetica-Narrow-Oblique /NewCenturySchlbk-Roman /NewCenturySchlbk-Bold /NewCenturySchlbk-BoldItalic /NewCenturySchlbk-Italic /Palatino-Bold
 /Palatino-BoldItalic /Palatino-Italic /Palatino-Roman ] {ISOLatin1Encoding reEncode } forall
%%EndProlog
%%BeginSetup
%%EndSetup
newpath  gsave  .25 .25 scale  gsave  0 0 t 0.490196 0.545098 0.615686 c[  ] 0 sd 3 lw 0.941176 0.941176 0.941176 c 2268 1676 0 0 bf black 1 1 0.992157 c 1916 1308 238 201 bf black 1916 1308 238 201 bl 1 1 0.992157 c 1916 1308 238 201 bf black 1916
 1308 238 201 bl 238 201 m 1916 X s 428 244 m -43 Y s 469 222 m -21 Y s 509 222 m -21 Y s 550 222 m -21 Y s 590 222 m -21 Y s 631 244 m -43 Y s 672 222 m -21 Y s 712 222 m -21 Y s 753 222 m -21 Y s 793 222 m -21 Y s 834 244 m -43 Y s 874 222 m -21 Y
 s 915 222 m -21 Y s 955 222 m -21 Y s 996 222 m -21 Y s 1036 244 m -43 Y s 1077 222 m -21 Y s 1117 222 m -21 Y s 1158 222 m -21 Y s 1198 222 m -21 Y s 1239 244 m -43 Y s 1279 222 m -21 Y s 1320 222 m -21 Y s 1360 222 m -21 Y s 1401 222 m -21 Y s
 1441 244 m -43 Y s 1482 222 m -21 Y s 1522 222 m -21 Y s 1563 222 m -21 Y s 1604 222 m -21 Y s 1644 244 m -43 Y s 1685 222 m -21 Y s 1725 222 m -21 Y s 1766 222 m -21 Y s 1806 222 m -21 Y s 1847 244 m -43 Y s 1887 222 m -21 Y s 1928 222 m -21 Y s
 1968 222 m -21 Y s 2009 222 m -21 Y s 2049 244 m -43 Y s 428 244 m -43 Y s 388 222 m -21 Y s 347 222 m -21 Y s 307 222 m -21 Y s 266 222 m -21 Y s 2049 244 m -43 Y s 2090 222 m -21 Y s 2130 222 m -21 Y s
 gsave  2268 1676 0 0 C 394.385 128.934 t 0 r /Helvetica-Bold findfont 64.4669 sf 0 0 m (0.3) show NC gr 
 gsave  2268 1676 0 0 C 364.048 128.934 t 0 r /Symbol findfont 64.4669 sf 0 0 m (-) show NC gr 
 gsave  2268 1676 0 0 C 599.163 128.934 t 0 r /Helvetica-Bold findfont 64.4669 sf 0 0 m (0.2) show NC gr 
 gsave  2268 1676 0 0 C 568.825 128.934 t 0 r /Symbol findfont 64.4669 sf 0 0 m (-) show NC gr 
 gsave  2268 1676 0 0 C 803.94 128.934 t 0 r /Helvetica-Bold findfont 64.4669 sf 0 0 m (0.1) show NC gr 
 gsave  2268 1676 0 0 C 773.602 128.934 t 0 r /Symbol findfont 64.4669 sf 0 0 m (-) show NC gr 
 gsave  2268 1676 0 0 C 1016.3 128.934 t 0 r /Helvetica-Bold findfont 64.4669 sf 0 0 m (0) show NC gr 
 gsave  2268 1676 0 0 C 1194.53 128.934 t 0 r /Helvetica-Bold findfont 64.4669 sf 0 0 m (0.1) show NC gr 
 gsave  2268 1676 0 0 C 1395.52 128.934 t 0 r /Helvetica-Bold findfont 64.4669 sf 0 0 m (0.2) show NC gr 
 gsave  2268 1676 0 0 C 1596.5 128.934 t 0 r /Helvetica-Bold findfont 64.4669 sf 0 0 m (0.3) show NC gr 
 gsave  2268 1676 0 0 C 1797.49 128.934 t 0 r /Helvetica-Bold findfont 64.4669 sf 0 0 m (0.4) show NC gr 
 gsave  2268 1676 0 0 C 2002.26 128.934 t 0 r /Helvetica-Bold findfont 64.4669 sf 0 0 m (0.5) show NC gr 
 gsave  2268 1676 0 0 C 1664.76 34.1295 t 0 r /Helvetica-Bold findfont 72.0512 sf 0 0 m (BDT response) show NC gr  238 1509 m 1916 X s 428 1466 m 43 Y s 469 1487 m 22 Y s 509 1487 m 22 Y s 550 1487 m 22 Y s 590 1487 m 22 Y s 631 1466 m 43 Y s 672
 1487 m 22 Y s 712 1487 m 22 Y s 753 1487 m 22 Y s 793 1487 m 22 Y s 834 1466 m 43 Y s 874 1487 m 22 Y s 915 1487 m 22 Y s 955 1487 m 22 Y s 996 1487 m 22 Y s 1036 1466 m 43 Y s 1077 1487 m 22 Y s 1117 1487 m 22 Y s 1158 1487 m 22 Y s 1198 1487 m 22
 Y s 1239 1466 m 43 Y s 1279 1487 m 22 Y s 1320 1487 m 22 Y s 1360 1487 m 22 Y s 1401 1487 m 22 Y s 1441 1466 m 43 Y s 1482 1487 m 22 Y s 1522 1487 m 22 Y s 1563 1487 m 22 Y s 1604 1487 m 22 Y s 1644 1466 m 43 Y s 1685 1487 m 22 Y s 1725 1487 m 22 Y
 s 1766 1487 m 22 Y s 1806 1487 m 22 Y s 1847 1466 m 43 Y s 1887 1487 m 22 Y s 1928 1487 m 22 Y s 1968 1487 m 22 Y s 2009 1487 m 22 Y s 2049 1466 m 43 Y s 428 1466 m 43 Y s 388 1487 m 22 Y s 347 1487 m 22 Y s 307 1487 m 22 Y s 266 1487 m 22 Y s 2049
 1466 m 43 Y s 2090 1487 m 22 Y s 2130 1487 m 22 Y s 238 201 m 1308 Y s 291 201 m -53 X s 265 233 m -27 X s 265 265 m -27 X s 265 297 m -27 X s 265 329 m -27 X s 291 361 m -53 X s 265 393 m -27 X s 265 425 m -27 X s 265 457 m -27 X s 265 489 m -27 X
 s 291 521 m -53 X s 265 553 m -27 X s 265 585 m -27 X s 265 617 m -27 X s 265 649 m -27 X s 291 681 m -53 X s 265 713 m -27 X s 265 745 m -27 X s 265 777 m -27 X s 265 809 m -27 X s 291 841 m -53 X s 265 873 m -27 X s 265 905 m -27 X s 265 937 m -27
 X s 265 969 m -27 X s 291 1001 m -53 X s 265 1033 m -27 X s 265 1065 m -27 X s 265 1097 m -27 X s 265 1129 m -27 X s 291 1161 m -53 X s 265 1193 m -27 X s 265 1225 m -27 X s 265 1257 m -27 X s 265 1289 m -27 X s 291 1321 m -53 X s 265 1353 m -27 X s
 265 1385 m -27 X s 265 1417 m -27 X s 265 1449 m -27 X s 291 1481 m -53 X s 291 1481 m -53 X s
 gsave  2268 1676 0 0 C 174.44 178.232 t 0 r /Helvetica-Bold findfont 64.4669 sf 0 0 m (0) show NC gr 
 gsave  2268 1676 0 0 C 182.024 337.503 t 0 r /Helvetica-Bold findfont 64.4669 sf 0 0 m (1) show NC gr 
 gsave  2268 1676 0 0 C 174.44 496.774 t 0 r /Helvetica-Bold findfont 64.4669 sf 0 0 m (2) show NC gr 
 gsave  2268 1676 0 0 C 174.44 656.045 t 0 r /Helvetica-Bold findfont 64.4669 sf 0 0 m (3) show NC gr 
 gsave  2268 1676 0 0 C 174.44 815.316 t 0 r /Helvetica-Bold findfont 64.4669 sf 0 0 m (4) show NC gr 
 gsave  2268 1676 0 0 C 174.44 978.379 t 0 r /Helvetica-Bold findfont 64.4669 sf 0 0 m (5) show NC gr 
 gsave  2268 1676 0 0 C 174.44 1137.65 t 0 r /Helvetica-Bold findfont 64.4669 sf 0 0 m (6) show NC gr 
 gsave  2268 1676 0 0 C 174.44 1296.92 t 0 r /Helvetica-Bold findfont 64.4669 sf 0 0 m (7) show NC gr 
 gsave  2268 1676 0 0 C 174.44 1456.19 t 0 r /Helvetica-Bold findfont 64.4669 sf 0 0 m (8) show NC gr 
 gsave  2268 1676 0 0 C 64.4669 1425.86 t 90 r /Helvetica-Bold findfont 72.0512 sf 0 0 m (dx) show NC gr 
 gsave  2268 1676 0 0 C 30.3373 1406.89 t 90 r /Helvetica-Bold findfont 45.506 sf 0 0 m ( ) show NC gr 
 gsave  2268 1676 0 0 C 64.4669 1384.14 t 90 r /Helvetica-Bold findfont 72.0512 sf 0 0 m (/) show NC gr 
 gsave  2268 1676 0 0 C 30.3373 1365.18 t 90 r /Helvetica-Bold findfont 45.506 sf 0 0 m ( ) show NC gr 
 gsave  2268 1676 0 0 C 60.6747 1092.14 t 90 r /Helvetica-Bold findfont 72.0512 sf 0 0 m (\(1/N\) dN) show NC gr  2154 201 m 1308 Y s 2101 201 m 53 X s 2128 233 m 26 X s 2128 265 m 26 X s 2128 297 m 26 X s 2128 329 m 26 X s 2101 361 m 53 X s 2128 393
 m 26 X s 2128 425 m 26 X s 2128 457 m 26 X s 2128 489 m 26 X s 2101 521 m 53 X s 2128 553 m 26 X s 2128 585 m 26 X s 2128 617 m 26 X s 2128 649 m 26 X s 2101 681 m 53 X s 2128 713 m 26 X s 2128 745 m 26 X s 2128 777 m 26 X s 2128 809 m 26 X s 2101
 841 m 53 X s 2128 873 m 26 X s 2128 905 m 26 X s 2128 937 m 26 X s 2128 969 m 26 X s 2101 1001 m 53 X s 2128 1033 m 26 X s 2128 1065 m 26 X s 2128 1097 m 26 X s 2128 1129 m 26 X s 2101 1161 m 53 X s 2128 1193 m 26 X s 2128 1225 m 26 X s 2128 1257 m
 26 X s 2128 1289 m 26 X s 2101 1321 m 53 X s 2128 1353 m 26 X s 2128 1385 m 26 X s 2128 1417 m 26 X s 2128 1449 m 26 X s 2101 1481 m 53 X s 2101 1481 m 53 X s 0.490196 0.545098 0.615686 c 1 1 1 c 0.490196 0.545098 0.615686 c 907 202 238 1307 bl 238
 1307 m 907 X s 1145 1307 m 202 Y s 1145 1509 m -907 X s 238 1509 m -202 Y s black
 gsave  2268 1676 0 0 C 417.138 1437.23 t 0 r /Helvetica-Bold findfont 56.8825 sf 0 0 m (Signal \(test sample\)) show NC gr  0.49 0.6 0.82 c 265 1423 m 127 X 70 Y -127 X f 0 0 0.933333 c 265 1493 m 127 X s 265 1423 m 127 X s 392 1423 m 70 Y s 265
 1423 m 70 Y s black
 gsave  2268 1676 0 0 C 417.138 1338.64 t 0 r /Helvetica-Bold findfont 56.8825 sf 0 0 m (Background \(test sample\)) show NC gr  1 0 0 c 392 1354 m -32 -32 d s 383 1393 m -71 -71 d s 335 1393 m -70 -69 d s 286 1393 m -21 -21 d s 0 0 0.933333 c 1 0 0
 c 265 1393 m 127 X s 265 1322 m 127 X s 392 1322 m 71 Y s 265 1322 m 71 Y s 0 0 0.933333 c 0.49 0.6 0.82 c black 0.49 0.6 0.82 c 238 201 m 192 X 6 Y 48 X -3 Y 48 X 4 Y 47 X -7 Y 48 X 4 Y 48 X 8 Y 48 X -4 Y 48 X 23 Y 48 X 100 Y 48 X 82 Y 48 X 17 Y 48
 X 39 Y 48 X 17 Y 48 X 89 Y 47 X 110 Y 48 X 277 Y 48 X -295 Y 48 X -164 Y 48 X -143 Y 48 X 20 Y 48 X -51 Y 48 X 24 Y 48 X -13 Y 48 X 48 Y 47 X -131 Y 48 X 27 Y 48 X 81 Y 48 X -97 Y 48 X 40 Y 48 X 68 Y 48 X 183 Y 48 X -276 Y 48 X -29 Y 48 X 35 Y 48 X
 128 Y 47 X 552 Y 48 X -769 Y f 0 0 0.933333 c 0.49 0.6 0.82 c 0 0 0.933333 c 238 201 m 192 X 6 Y 48 X -3 Y 48 X 4 Y 47 X -7 Y 48 X 4 Y 48 X 8 Y 48 X -4 Y 48 X 23 Y 48 X 100 Y 48 X 82 Y 48 X 17 Y 48 X 39 Y 48 X 17 Y 48 X 89 Y 47 X 110 Y 48 X 277 Y 48
 X -295 Y 48 X -164 Y 48 X -143 Y 48 X 20 Y 48 X -51 Y 48 X 24 Y 48 X -13 Y 48 X 48 Y 47 X -131 Y 48 X 27 Y 48 X 81 Y 48 X -97 Y 48 X 40 Y 48 X 68 Y 48 X 183 Y 48 X -276 Y 48 X -29 Y 48 X 35 Y 48 X 128 Y 47 X 552 Y 48 X -769 Y s 1 0 0 c black 1 0 0 c
 2125 201 m s 2077 201 m cl s 2029 201 m s 1981 201 m s 1933 201 m s 1885 201 m s 1837 201 m s 1789 201 m s 1741 201 m cl s 1692 201 m s 1644 201 m s 1596 201 m s 1551 204 m -3 -3 d s 1505 207 m -5 -6 d s 1457 207 m -5 -6 d s 1411 208 m -7 -7 d s
 1369 215 m -13 -14 d s 1335 228 m -27 -27 d s 1292 234 m -33 -33 d s 1280 270 m -69 -69 d s 1244 282 m -81 -81 d s 1244 330 m -129 -129 d s 1200 334 m -133 -133 d s 1196 378 m -177 -177 d s 1185 415 m -214 -214 d s 1130 408 m -207 -207 d s 1100 427
 m -225 -226 d s 1054 429 m -227 -228 d s 1041 464 m -263 -263 d s 1005 475 m -275 -274 d s 1005 524 m -323 -323 d s 1000 567 m -235 -235 d s 740 307 m -106 -106 d s 957 572 m -144 -144 d s 792 407 m -27 -27 d s 717 332 m -131 -131 d s 957 620 m -144
 -144 d s 717 380 m -179 -179 d s 957 668 m -144 -144 d s 717 429 m -96 -96 d s 597 308 m -107 -107 d s 957 716 m -144 -144 d s 717 477 m -48 -48 d s 630 389 m -9 -8 d s 573 333 m -131 -132 d s 957 764 m -144 -143 d s 717 525 m -48 -48 d s 573 381 m
 -179 -180 d s 930 786 m -117 -117 d s 717 573 m -48 -48 d s 573 429 m -228 -228 d s 909 813 m -96 -96 d s 676 580 m -7 -7 d s 573 477 m -143 -143 d s 414 318 m -117 -117 d s 909 861 m -48 -48 d s 830 782 m -17 -17 d s 547 499 m -117 -117 d s 382 334
 m -133 -133 d s 909 909 m -48 -48 d s 526 526 m -96 -96 d s 382 382 m -48 -48 d s 297 297 m -59 -59 d s 909 957 m -48 -48 d s 491 540 m -61 -62 d s 382 430 m -48 -48 d s 238 286 m s 909 1005 m -48 -48 d s 478 574 m -48 -48 d s 382 478 m -48 -48 d s
 887 1031 m -26 -26 d s 478 622 m -48 -48 d s 365 510 m -31 -32 d s 478 670 m -48 -48 d s 478 718 m -48 -48 d s 478 766 m -48 -48 d s 478 814 m -48 -48 d s 478 862 m -48 -47 d s 478 911 m -48 -48 d s 478 959 m -48 -48 d s 478 1007 m -48 -48 d s 478
 1055 m -48 -48 d s 478 1103 m -48 -48 d s 478 1151 m -48 -48 d s 478 1199 m -48 -48 d s 437 1207 m -7 -8 d s 238 286 m 48 X 11 Y 48 X 213 Y 48 X -192 Y 48 X 889 Y 48 X -667 Y 48 X -41 Y 47 X -191 Y 48 X 81 Y 48 X 191 Y 48 X -273 Y 48 X 100 Y 48 X
 375 Y 48 X 249 Y 48 X -245 Y 48 X -219 Y 48 X -103 Y 48 X -35 Y 47 X -21 Y 48 X 7 Y 48 X -81 Y 48 X -64 Y 48 X -42 Y 48 X -13 Y 48 X -7 Y 48 X -1 Y 96 X -3 Y 47 X -3 Y 575 X s 0.490196 0.545098 0.615686 c 1 1 1 c 0.490196 0.545098 0.615686 c 952 202
 1202 1307 bl 1202 1307 m 952 X s 2154 1307 m 202 Y s 2154 1509 m -952 X s 1202 1509 m -202 Y s black
 gsave  2268 1676 0 0 C 1296.92 1437.23 t 0 r /Helvetica-Bold findfont 56.8825 sf 0 0 m (Signal \(training sample\)) show NC gr  0 0 0.933333 c /w 21 def /w2 {w 2 div} def /w3 {w 3 div} def 1250 1458 m20 black
 gsave  2268 1676 0 0 C 1296.92 1338.64 t 0 r /Helvetica-Bold findfont 56.8825 sf 0 0 m (Background \(training sample\)) show NC gr  1 0 0 c 1250 1358 m20 0 0 0.933333 c 1 1 1 c 0 0 0.933333 c 334 202 m 16 X s 365 202 m 17 X s 334 195 m 15 Y s 382
 195 m 15 Y s 358 202 m20 478 204 m 16 X s 509 204 m 17 X s 478 196 m 15 Y s 526 196 m 15 Y s 502 204 m20 526 205 m 16 X s 557 205 m 16 X s 526 198 m 15 Y s 573 198 m 15 Y s 549 205 m20 573 204 m 17 X s 605 204 m 16 X s 573 196 m 15 Y s 621 196 m 15
 Y s 597 204 m20 621 204 m 17 X s 653 204 m 16 X s 621 196 m 15 Y s 669 196 m 15 Y s 645 204 m20 669 220 m 17 X s 701 220 m 16 X s 669 213 m 15 Y s 717 213 m 15 Y s 693 220 m20 717 205 m 17 X s 749 205 m 16 X s 717 198 m 15 Y s 765 198 m 15 Y s 741
 205 m20 765 226 m 16 X s 797 226 m 16 X s 765 218 m 15 Y s 813 218 m 15 Y s 789 226 m20 837 288 m 4 Y s 837 308 m 4 Y s 813 300 m 16 X s 845 300 m 16 X s 829 288 m 16 X s 829 312 m 16 X s 813 292 m 16 Y s 861 292 m 16 Y s 837 300 m20 885 362 m 8 Y s
 885 385 m 8 Y s 861 377 m 16 X s 892 377 m 17 X s 877 362 m 15 X s 877 393 m 15 X s 861 370 m 15 Y s 909 370 m 15 Y s 885 377 m20 933 419 m 10 Y s 933 444 m 11 Y s 909 437 m 16 X s 940 437 m 17 X s 925 419 m 15 X s 925 455 m 15 X s 909 429 m 15 Y s
 957 429 m 15 Y s 933 437 m20 981 454 m 12 Y s 981 481 m 11 Y s 957 473 m 16 X s 988 473 m 17 X s 973 454 m 15 X s 973 492 m 15 X s 957 466 m 15 Y s 1005 466 m 15 Y s 981 473 m20 1029 498 m 14 Y s 1029 527 m 13 Y s 1005 519 m 16 X s 1036 519 m 17 X s
 1021 498 m 15 X s 1021 540 m 15 X s 1005 512 m 15 Y s 1053 512 m 15 Y s 1029 519 m20 1076 552 m 15 Y s 1076 582 m 15 Y s 1053 575 m 16 X s 1084 575 m 16 X s 1069 552 m 15 X s 1069 597 m 15 X s 1053 567 m 15 Y s 1100 567 m 15 Y s 1076 575 m20 1124
 719 m 20 Y s 1124 754 m 20 Y s 1100 747 m 17 X s 1132 747 m 16 X s 1117 719 m 15 X s 1117 774 m 15 X s 1100 739 m 15 Y s 1148 739 m 15 Y s 1124 747 m20 1172 805 m 22 Y s 1172 842 m 22 Y s 1148 835 m 17 X s 1180 835 m 16 X s 1165 805 m 15 X s 1165
 864 m 15 X s 1148 827 m 15 Y s 1196 827 m 15 Y s 1172 835 m20 1220 660 m 18 Y s 1220 693 m 18 Y s 1196 686 m 17 X s 1228 686 m 16 X s 1213 660 m 15 X s 1213 711 m 15 X s 1196 678 m 15 Y s 1244 678 m 15 Y s 1220 686 m20 1268 476 m 13 Y s 1268 504 m
 12 Y s 1244 496 m 16 X s 1276 496 m 16 X s 1260 476 m 16 X s 1260 516 m 16 X s 1244 489 m 15 Y s 1292 489 m 15 Y s 1268 496 m20 1316 373 m 9 Y s 1316 397 m 8 Y s 1292 389 m 16 X s 1324 389 m 16 X s 1308 373 m 16 X s 1308 405 m 16 X s 1292 382 m 15 Y
 s 1340 382 m 15 Y s 1316 389 m20 1364 397 m 9 Y s 1364 421 m 10 Y s 1340 414 m 16 X s 1371 414 m 17 X s 1356 397 m 15 X s 1356 431 m 15 X s 1340 406 m 15 Y s 1388 406 m 15 Y s 1364 414 m20 1412 308 m 5 Y s 1412 328 m 5 Y s 1388 320 m 16 X s 1419 320
 m 17 X s 1404 308 m 15 X s 1404 333 m 15 X s 1388 313 m 15 Y s 1436 313 m 15 Y s 1412 320 m20 1460 356 m 8 Y s 1460 379 m 8 Y s 1436 372 m 16 X s 1467 372 m 17 X s 1452 356 m 15 X s 1452 387 m 15 X s 1436 364 m 15 Y s 1484 364 m 15 Y s 1460 372 m20
 1508 302 m 5 Y s 1508 322 m 5 Y s 1484 315 m 16 X s 1515 315 m 17 X s 1500 302 m 15 X s 1500 327 m 15 X s 1484 307 m 15 Y s 1532 307 m 15 Y s 1508 315 m20 1556 391 m 10 Y s 1556 416 m 9 Y s 1532 408 m 16 X s 1563 408 m 16 X s 1548 391 m 15 X s 1548
 425 m 15 X s 1532 401 m 15 Y s 1579 401 m 15 Y s 1556 408 m20 1579 240 m 17 X s 1611 240 m 16 X s 1579 233 m 15 Y s 1627 233 m 15 Y s 1603 240 m20 1651 273 m 3 Y s 1651 291 m 3 Y s 1627 284 m 17 X s 1659 284 m 16 X s 1644 273 m 15 X s 1644 294 m 15
 X s 1627 276 m 15 Y s 1675 276 m 15 Y s 1651 284 m20 1699 358 m 7 Y s 1699 381 m 7 Y s 1675 373 m 17 X s 1707 373 m 16 X s 1692 358 m 15 X s 1692 388 m 15 X s 1675 365 m 16 Y s 1723 365 m 16 Y s 1699 373 m20 1747 276 m 3 Y s 1747 294 m 3 Y s 1723
 286 m 17 X s 1755 286 m 16 X s 1740 276 m 15 X s 1740 297 m 15 X s 1723 279 m 15 Y s 1771 279 m 15 Y s 1747 286 m20 1795 276 m 3 Y s 1795 294 m 3 Y s 1771 286 m 16 X s 1803 286 m 16 X s 1787 276 m 16 X s 1787 297 m 16 X s 1771 279 m 15 Y s 1819 279
 m 15 Y s 1795 286 m20 1843 351 m 8 Y s 1843 374 m 7 Y s 1819 366 m 16 X s 1851 366 m 16 X s 1835 351 m 16 X s 1835 381 m 16 X s 1819 359 m 15 Y s 1867 359 m 15 Y s 1843 366 m20 1891 569 m 16 Y s 1891 600 m 15 Y s 1867 592 m 16 X s 1898 592 m 17 X s
 1883 569 m 15 X s 1883 615 m 15 X s 1867 585 m 15 Y s 1915 585 m 15 Y s 1891 592 m20 1939 299 m 4 Y s 1939 318 m 5 Y s 1915 311 m 16 X s 1946 311 m 17 X s 1931 299 m 15 X s 1931 323 m 15 X s 1915 303 m 15 Y s 1963 303 m 15 Y s 1939 311 m20 1987 257
 m 2 Y s 1987 274 m 1 Y s 1963 266 m 16 X s 1994 266 m 17 X s 1979 257 m 15 X s 1979 275 m 15 X s 1963 259 m 15 Y s 2011 259 m 15 Y s 1987 266 m20 2035 291 m 4 Y s 2035 310 m 4 Y s 2011 303 m 16 X s 2042 303 m 17 X s 2027 291 m 15 X s 2027 314 m 15 X
 s 2011 295 m 15 Y s 2059 295 m 15 Y s 2035 303 m20 2082 382 m 9 Y s 2082 406 m 9 Y s 2059 399 m 16 X s 2090 399 m 16 X s 2075 382 m 15 X s 2075 415 m 15 X s 2059 391 m 15 Y s 2106 391 m 15 Y s 2082 399 m20 2130 938 m 24 Y s 2130 978 m 24 Y s 2106
 970 m 17 X s 2138 970 m 16 X s 2123 938 m 15 X s 2123 1002 m 15 X s 2106 962 m 16 Y s 2154 962 m 16 Y s 2130 970 m20 1 0 0 c 1 1 1 c 1 0 0 c 262 258 m 2 Y s 262 275 m 2 Y s 238 268 m 16 X s 270 268 m 16 X s 254 258 m 16 X s 254 277 m 16 X s 238 260
 m 15 Y s 286 260 m 15 Y s 262 268 m20 310 310 m 6 Y s 310 331 m 5 Y s 286 323 m 16 X s 318 323 m 16 X s 302 310 m 16 X s 302 336 m 16 X s 286 316 m 15 Y s 334 316 m 15 Y s 310 323 m20 358 490 m 13 Y s 358 518 m 13 Y s 334 510 m 16 X s 365 510 m 17 X
 s 350 490 m 15 X s 350 531 m 15 X s 334 503 m 15 Y s 382 503 m 15 Y s 358 510 m20 406 314 m 6 Y s 406 335 m 5 Y s 382 327 m 16 X s 413 327 m 17 X s 398 314 m 15 X s 398 340 m 15 X s 382 320 m 15 Y s 430 320 m 15 Y s 406 327 m20 454 1102 m 28 Y s 454
 1145 m 28 Y s 430 1137 m 16 X s 461 1137 m 17 X s 446 1102 m 15 X s 446 1173 m 15 X s 430 1130 m 15 Y s 478 1130 m 15 Y s 454 1137 m20 502 481 m 12 Y s 502 509 m 12 Y s 478 501 m 16 X s 509 501 m 17 X s 494 481 m 15 X s 494 521 m 15 X s 478 493 m 16
 Y s 526 493 m 16 Y s 502 501 m20 549 477 m 12 Y s 549 504 m 13 Y s 526 497 m 16 X s 557 497 m 16 X s 542 477 m 15 X s 542 517 m 15 X s 526 489 m 15 Y s 573 489 m 15 Y s 549 497 m20 597 291 m 4 Y s 597 310 m 5 Y s 573 303 m 17 X s 605 303 m 16 X s
 590 291 m 15 X s 590 315 m 15 X s 573 295 m 15 Y s 621 295 m 15 Y s 597 303 m20 645 358 m 8 Y s 645 381 m 8 Y s 621 373 m 17 X s 653 373 m 16 X s 638 358 m 15 X s 638 389 m 15 X s 621 366 m 15 Y s 669 366 m 15 Y s 645 373 m20 693 570 m 16 Y s 693
 601 m 15 Y s 669 593 m 17 X s 701 593 m 16 X s 686 570 m 15 X s 686 616 m 15 X s 669 586 m 15 Y s 717 586 m 15 Y s 693 593 m20 741 334 m 6 Y s 741 355 m 7 Y s 717 348 m 17 X s 749 348 m 16 X s 734 334 m 15 X s 734 362 m 15 X s 717 340 m 15 Y s 765
 340 m 15 Y s 741 348 m20 789 410 m 10 Y s 789 435 m 10 Y s 765 428 m 16 X s 797 428 m 16 X s 781 410 m 16 X s 781 445 m 16 X s 765 420 m 15 Y s 813 420 m 15 Y s 789 428 m20 837 778 m 21 Y s 837 814 m 21 Y s 813 806 m 16 X s 845 806 m 16 X s 829 778
 m 16 X s 829 835 m 16 X s 813 799 m 15 Y s 861 799 m 15 Y s 837 806 m20 885 995 m 26 Y s 885 1036 m 26 Y s 861 1029 m 16 X s 892 1029 m 17 X s 877 995 m 15 X s 877 1062 m 15 X s 861 1021 m 15 Y s 909 1021 m 15 Y s 885 1029 m20 933 776 m 21 Y s 933
 812 m 21 Y s 909 805 m 16 X s 940 805 m 17 X s 925 776 m 15 X s 925 833 m 15 X s 909 797 m 15 Y s 957 797 m 15 Y s 933 805 m20 981 608 m 17 Y s 981 640 m 17 Y s 957 633 m 16 X s 988 633 m 17 X s 973 608 m 15 X s 973 657 m 15 X s 957 625 m 15 Y s
 1005 625 m 15 Y s 981 633 m20 1029 435 m 11 Y s 1029 461 m 11 Y s 1005 453 m 16 X s 1036 453 m 17 X s 1021 435 m 15 X s 1021 472 m 15 X s 1005 446 m 15 Y s 1053 446 m 15 Y s 1029 453 m20 1076 439 m 11 Y s 1076 465 m 11 Y s 1053 458 m 16 X s 1084 458
 m 16 X s 1069 439 m 15 X s 1069 476 m 15 X s 1053 450 m 15 Y s 1100 450 m 15 Y s 1076 458 m20 1124 389 m 9 Y s 1124 414 m 9 Y s 1100 406 m 17 X s 1132 406 m 16 X s 1117 389 m 15 X s 1117 423 m 15 X s 1100 398 m 16 Y s 1148 398 m 16 Y s 1124 406 m20
 1172 404 m 9 Y s 1172 428 m 10 Y s 1148 421 m 17 X s 1180 421 m 16 X s 1165 404 m 15 X s 1165 438 m 15 X s 1148 413 m 15 Y s 1196 413 m 15 Y s 1172 421 m20 1220 295 m 4 Y s 1220 315 m 4 Y s 1196 307 m 17 X s 1228 307 m 16 X s 1213 295 m 15 X s 1213
 319 m 15 X s 1196 299 m 16 Y s 1244 299 m 16 Y s 1220 307 m20 1244 236 m 16 X s 1276 236 m 16 X s 1244 229 m 15 Y s 1292 229 m 15 Y s 1268 236 m20 1292 211 m 16 X s 1324 211 m 16 X s 1292 203 m 15 Y s 1340 203 m 15 Y s 1316 211 m20 1340 211 m 16 X s
 1371 211 m 17 X s 1340 203 m 15 Y s 1388 203 m 15 Y s 1364 211 m20 1388 208 m 16 X s 1419 208 m 17 X s 1388 200 m 16 Y s 1436 200 m 16 Y s 1412 208 m20 1436 204 m 16 X s 1467 204 m 17 X s 1436 196 m 15 Y s 1484 196 m 15 Y s 1460 204 m20 1484 202 m
 16 X s 1515 202 m 17 X s 1484 195 m 15 Y s 1532 195 m 15 Y s 1508 202 m20 1532 202 m 16 X s 1563 202 m 16 X s 1532 195 m 15 Y s 1579 195 m 15 Y s 1556 202 m20 black
 gsave  2268 1676 0 0 C 272.126 1240.34 t 0 r /Helvetica-Bold findfont 49.2982 sf 0 0 m (Kolmogorov\255Smirnov test: signal \(background\) probability = 0.089 \(0.064\)) show NC gr  238 201 m 1916 X s 428 244 m -43 Y s 469 222 m -21 Y s 509 222 m -21
 Y s 550 222 m -21 Y s 590 222 m -21 Y s 631 244 m -43 Y s 672 222 m -21 Y s 712 222 m -21 Y s 753 222 m -21 Y s 793 222 m -21 Y s 834 244 m -43 Y s 874 222 m -21 Y s 915 222 m -21 Y s 955 222 m -21 Y s 996 222 m -21 Y s 1036 244 m -43 Y s 1077 222 m
 -21 Y s 1117 222 m -21 Y s 1158 222 m -21 Y s 1198 222 m -21 Y s 1239 244 m -43 Y s 1279 222 m -21 Y s 1320 222 m -21 Y s 1360 222 m -21 Y s 1401 222 m -21 Y s 1441 244 m -43 Y s 1482 222 m -21 Y s 1522 222 m -21 Y s 1563 222 m -21 Y s 1604 222 m
 -21 Y s 1644 244 m -43 Y s 1685 222 m -21 Y s 1725 222 m -21 Y s 1766 222 m -21 Y s 1806 222 m -21 Y s 1847 244 m -43 Y s 1887 222 m -21 Y s 1928 222 m -21 Y s 1968 222 m -21 Y s 2009 222 m -21 Y s 2049 244 m -43 Y s 428 244 m -43 Y s 388 222 m -21
 Y s 347 222 m -21 Y s 307 222 m -21 Y s 266 222 m -21 Y s 2049 244 m -43 Y s 2090 222 m -21 Y s 2130 222 m -21 Y s 238 1509 m 1916 X s 428 1466 m 43 Y s 469 1487 m 22 Y s 509 1487 m 22 Y s 550 1487 m 22 Y s 590 1487 m 22 Y s 631 1466 m 43 Y s 672
 1487 m 22 Y s 712 1487 m 22 Y s 753 1487 m 22 Y s 793 1487 m 22 Y s 834 1466 m 43 Y s 874 1487 m 22 Y s 915 1487 m 22 Y s 955 1487 m 22 Y s 996 1487 m 22 Y s 1036 1466 m 43 Y s 1077 1487 m 22 Y s 1117 1487 m 22 Y s 1158 1487 m 22 Y s 1198 1487 m 22
 Y s 1239 1466 m 43 Y s 1279 1487 m 22 Y s 1320 1487 m 22 Y s 1360 1487 m 22 Y s 1401 1487 m 22 Y s 1441 1466 m 43 Y s 1482 1487 m 22 Y s 1522 1487 m 22 Y s 1563 1487 m 22 Y s 1604 1487 m 22 Y s 1644 1466 m 43 Y s 1685 1487 m 22 Y s 1725 1487 m 22 Y
 s 1766 1487 m 22 Y s 1806 1487 m 22 Y s 1847 1466 m 43 Y s 1887 1487 m 22 Y s 1928 1487 m 22 Y s 1968 1487 m 22 Y s 2009 1487 m 22 Y s 2049 1466 m 43 Y s 428 1466 m 43 Y s 388 1487 m 22 Y s 347 1487 m 22 Y s 307 1487 m 22 Y s 266 1487 m 22 Y s 2049
 1466 m 43 Y s 2090 1487 m 22 Y s 2130 1487 m 22 Y s 238 201 m 1308 Y s 291 201 m -53 X s 265 233 m -27 X s 265 265 m -27 X s 265 297 m -27 X s 265 329 m -27 X s 291 361 m -53 X s 265 393 m -27 X s 265 425 m -27 X s 265 457 m -27 X s 265 489 m -27 X
 s 291 521 m -53 X s 265 553 m -27 X s 265 585 m -27 X s 265 617 m -27 X s 265 649 m -27 X s 291 681 m -53 X s 265 713 m -27 X s 265 745 m -27 X s 265 777 m -27 X s 265 809 m -27 X s 291 841 m -53 X s 265 873 m -27 X s 265 905 m -27 X s 265 937 m -27
 X s 265 969 m -27 X s 291 1001 m -53 X s 265 1033 m -27 X s 265 1065 m -27 X s 265 1097 m -27 X s 265 1129 m -27 X s 291 1161 m -53 X s 265 1193 m -27 X s 265 1225 m -27 X s 265 1257 m -27 X s 265 1289 m -27 X s 291 1321 m -53 X s 265 1353 m -27 X s
 265 1385 m -27 X s 265 1417 m -27 X s 265 1449 m -27 X s 291 1481 m -53 X s 291 1481 m -53 X s 2154 201 m 1308 Y s 2101 201 m 53 X s 2128 233 m 26 X s 2128 265 m 26 X s 2128 297 m 26 X s 2128 329 m 26 X s 2101 361 m 53 X s 2128 393 m 26 X s 2128 425
 m 26 X s 2128 457 m 26 X s 2128 489 m 26 X s 2101 521 m 53 X s 2128 553 m 26 X s 2128 585 m 26 X s 2128 617 m 26 X s 2128 649 m 26 X s 2101 681 m 53 X s 2128 713 m 26 X s 2128 745 m 26 X s 2128 777 m 26 X s 2128 809 m 26 X s 2101 841 m 53 X s 2128
 873 m 26 X s 2128 905 m 26 X s 2128 937 m 26 X s 2128 969 m 26 X s 2101 1001 m 53 X s 2128 1033 m 26 X s 2128 1065 m 26 X s 2128 1097 m 26 X s 2128 1129 m 26 X s 2101 1161 m 53 X s 2128 1193 m 26 X s 2128 1225 m 26 X s 2128 1257 m 26 X s 2128 1289 m
 26 X s 2101 1321 m 53 X s 2128 1353 m 26 X s 2128 1385 m 26 X s 2128 1417 m 26 X s 2128 1449 m 26 X s 2101 1481 m 53 X s 2101 1481 m 53 X s
 gsave  2268 1676 0 0 C 2211.02 192.756 t 90 r /Helvetica-Bold findfont 45.506 sf 0 0 m (U/O\255flow \(S,B\): \(0.0, 0.0\)% / \(0.0, 0.0\)%) show NC gr  0.490196 0.545098 0.615686 c 0.364706 0.419608 0.490196 c 1587 96 23 1572 bf 0.490196 0.545098
 0.615686 c 23 1572 m 1587 X s 1610 1572 m 96 Y s 1610 1668 m -1587 X s 23 1668 m -96 Y s 1 1 1 c black 1 1 1 c
 gsave  2268 1676 0 0 C 102.389 1600.29 t 0 r /Helvetica-Bold findfont 68.259 sf 0 0 m (TMVA overtraining check for classifier: BDT) show NC gr 
 gr  gr showpage
end
%%EOF
