%!PS-Adobe-2.0 EPSF-2.0
%%BoundingBox:  0 0 567 419
%%Title: dataset/plots/overtrain_MLPBNN.eps: TMVA comparison MLPBNN
%%Creator: ROOT Version 6.12/06
%%CreationDate: Mon May 21 16:44:58 2018
%%DocumentNeededResources: ProcSet (FontSetInit)
%%EndComments
%%BeginProlog
80 dict begin
/s {stroke} def /l {lineto} def /m {moveto} def /t {translate} def
/r {rotate} def /rl {roll}  def /R {repeat} def
/d {rlineto} def /rm {rmoveto} def /gr {grestore} def /f {eofill} def
/c {setrgbcolor} def /black {0 setgray} def /sd {setdash} def
/cl {closepath} def /sf {scalefont setfont} def /lw {setlinewidth} def
/box {m dup 0 exch d exch 0 d 0 exch neg d cl} def
/NC{systemdict begin initclip end}def/C{NC box clip newpath}def
/bl {box s} def /bf {gsave box gsave f grestore 1 lw [] 0 sd s grestore} def /Y { 0 exch d} def /X { 0 d} def 
/K {{pop pop 0 moveto} exch kshow} bind def
/ita {/ang 15 def gsave [1 0 ang dup sin exch cos div 1 0 0] concat} def 
/mp {newpath /y exch def /x exch def} def
/side {[w .77 mul w .23 mul] .385 w mul sd w 0 l currentpoint t -144 r} def
/mr {mp x y w2 0 360 arc} def /m24 {mr s} def /m20 {mr f} def
/mb {mp x y w2 add m w2 neg 0 d 0 w neg d w 0 d 0 w d cl} def
/mt {mp x y w2 add m w2 neg w neg d w 0 d cl} def
/w4 {w 4 div} def
/w6 {w 6 div} def
/w8 {w 8 div} def
/m21 {mb f} def /m25 {mb s} def /m22 {mt f} def /m26{mt s} def
/m23 {mp x y w2 sub m w2 w d w neg 0 d cl f} def
/m27 {mp x y w2 add m w3 neg w2 neg d w3 w2 neg d w3 w2 d cl s} def
/m28 {mp x w2 sub y w2 sub w3 add m w3 0 d  0 w3 neg d w3 0 d 0 w3 d w3 0 d  0 w3 d w3 neg 0 d 0 w3 d w3 neg 0 d 0 w3 neg d w3 neg 0 d cl s } def
/m29 {mp gsave x w2 sub y w2 add w3 sub m currentpoint t 4 {side} repeat cl fill gr} def
/m30 {mp gsave x w2 sub y w2 add w3 sub m currentpoint t 4 {side} repeat cl s gr} def
/m31 {mp x y w2 sub m 0 w d x w2 sub y m w 0 d x w2 sub y w2 add m w w neg d x w2 sub y w2 sub m w w d s} def
/m32 {mp x y w2 sub m w2 w d w neg 0 d cl s} def
/m33 {mp x y w2 add m w3 neg w2 neg d w3 w2 neg d w3 w2 d cl f} def
/m34 {mp x w2 sub y w2 sub w3 add m w3 0 d  0 w3 neg d w3 0 d 0 w3 d w3 0 d  0 w3 d w3 neg 0 d 0 w3 d w3 neg 0 d 0 w3 neg d w3 neg 0 d cl f } def
/m35 {mp x y w2 add m w2 neg w2 neg d w2 w2 neg d w2 w2 d w2 neg w2 d x y w2 sub m 0 w d x w2 sub y m w 0 d s} def
/m36 {mb x w2 sub y w2 add m w w neg d x w2 sub y w2 sub m w w d s} def
/m37 {mp x y m w4 neg w2 d w4 neg w2 neg d w2 0 d  w4 neg w2 neg d w2 0 d w4 neg w2 d w2 0 d w4 neg w2 d w4 neg w2 neg d cl s} def
/m38 {mp x w4 sub y w2 add m w4 neg w4 neg d 0 w2 neg d w4 w4 neg d w2 0 d w4 w4 d 0 w2 d w4 neg w4 d w2 neg 0 d x y w2 sub m 0 w d x w2 sub y m w 0 d cl s} def
/m39 {mp x y m w4 neg w2 d w4 neg w2 neg d w2 0 d  w4 neg w2 neg d w2 0 d w4 neg w2 d w2 0 d w4 neg w2 d w4 neg w2 neg d cl f} def
/m40 {mp x y m w4 w2 d w4 w4 neg d w2 neg w4 neg d w2 w4 neg d w4 neg w4 neg d w4 neg w2 d w4 neg w2 neg d w4 neg w4 d w2 w4 d w2 neg w4 d w4 w4 d w4 w2 neg d cl s} def
/m41 {mp x y m w4 w2 d w4 w4 neg d w2 neg w4 neg d w2 w4 neg d w4 neg w4 neg d w4 neg w2 d w4 neg w2 neg d w4 neg w4 d w2 w4 d w2 neg w4 d w4 w4 d w4 w2 neg d cl f} def
/m42 {mp x y w2 add m w8 neg w2 -3 4 div mul d w2 -3 4 div mul w8 neg d w2 3 4 div mul w8 neg d w8 w2 -3 4 div mul d w8 w2 3 4 div mul d w2 3 4 div mul w8 d w2 -3 4 div mul w8 d w8 neg w2 3 4 div mul d cl s} def
/m43 {mp x y w2 add m w8 neg w2 -3 4 div mul d w2 -3 4 div mul w8 neg d w2 3 4 div mul w8 neg d w8 w2 -3 4 div mul d w8 w2 3 4 div mul d w2 3 4 div mul w8 d w2 -3 4 div mul w8 d w8 neg w2 3 4 div mul d cl f} def
/m44 {mp x y m w6 neg w2 d w2 2 3 div mul 0 d w6 neg w2 neg d w2 w6 d 0 w2 -2 3 div mul d w2 neg w6 d w6 w2 neg d w2 -2 3 div mul 0 d w6 w2 d w2 neg w6 neg d 0 w2 2 3 div mul d w2 w6 neg d cl s} def
/m45 {mp x y m w6 neg w2 d w2 2 3 div mul 0 d w6 neg w2 neg d w2 w6 d 0 w2 -2 3 div mul d w2 neg w6 d w6 w2 neg d w2 -2 3 div mul 0 d w6 w2 d w2 neg w6 neg d 0 w2 2 3 div mul d w2 w6 neg d cl f} def
/m46 {mp x y w4 add m w4 neg w4 d w4 neg w4 neg d  w4 w4 neg d w4 neg w4 neg d w4 w4 neg d w4 w4 d w4 w4 neg d w4 w4 d w4 neg w4 d w4 w4 d w4 neg w4 d w4 neg w4 neg d cl s} def
/m47 {mp x y w4 add m w4 neg w4 d w4 neg w4 neg d w4 w4 neg d w4 neg w4 neg d  w4 w4 neg d w4 w4 d w4 w4 neg d w4 w4 d w4 neg w4 d w4 w4 d w4 neg w4 d w4 neg w4 neg d cl f} def
/m48 {mp x y w4 add m w4 neg w4 d w4 neg w4 neg d w4 w4 neg d  w4 neg w4 neg d w4 w4 neg d w4 w4 d w4 w4 neg d w4 w4 d w4 neg w4 d w4 w4 d w4 neg w4 d w4 neg w4 neg d  w4 w4 neg d w4 neg w4 neg d w4 neg w4 d w4 w4 d cl f} def
/m49 {mp x w2 sub w3 add y w2 sub w3 add m  0 w3 neg d w3 0 d 0 w3 d w3 0 d 0 w3 d w3 neg 0 d 0 w3 d w3 neg 0 d 0 w3 neg d w3 neg 0 d 0 w3 neg d w3 0 d 0 w3 d w3 0 d 0 w3 neg d w3 neg 0 d cl f } def
/m2 {mp x y w2 sub m 0 w d x w2 sub y m w 0 d s} def
/m5 {mp x w2 sub y w2 sub m w w d x w2 sub y w2 add m w w neg d s} def
%%IncludeResource: ProcSet (FontSetInit)
%%IncludeResource: font Times-Roman
%%IncludeResource: font Times-Italic
%%IncludeResource: font Times-Bold
%%IncludeResource: font Times-BoldItalic
%%IncludeResource: font Helvetica
%%IncludeResource: font Helvetica-Oblique
%%IncludeResource: font Helvetica-Bold
%%IncludeResource: font Helvetica-BoldOblique
%%IncludeResource: font Courier
%%IncludeResource: font Courier-Oblique
%%IncludeResource: font Courier-Bold
%%IncludeResource: font Courier-BoldOblique
%%IncludeResource: font Symbol
%%IncludeResource: font ZapfDingbats
/reEncode {exch findfont dup length dict begin {1 index /FID eq  {pop pop} {def} ifelse } forall /Encoding exch def currentdict end dup /FontName get exch definefont pop } def [/Times-Bold /Times-Italic /Times-BoldItalic /Helvetica /Helvetica-Oblique
 /Helvetica-Bold /Helvetica-BoldOblique /Courier /Courier-Oblique /Courier-Bold /Courier-BoldOblique /Times-Roman /AvantGarde-Book /AvantGarde-BookOblique /AvantGarde-Demi /AvantGarde-DemiOblique /Bookman-Demi /Bookman-DemiItalic /Bookman-Light
 /Bookman-LightItalic /Helvetica-Narrow /Helvetica-Narrow-Bold /Helvetica-Narrow-BoldOblique /Helvetica-Narrow-Oblique /NewCenturySchlbk-Roman /NewCenturySchlbk-Bold /NewCenturySchlbk-BoldItalic /NewCenturySchlbk-Italic /Palatino-Bold
 /Palatino-BoldItalic /Palatino-Italic /Palatino-Roman ] {ISOLatin1Encoding reEncode } forall
%%EndProlog
%%BeginSetup
%%EndSetup
newpath  gsave  .25 .25 scale  gsave  0 0 t 0.490196 0.545098 0.615686 c[  ] 0 sd 3 lw 0.941176 0.941176 0.941176 c 2268 1676 0 0 bf black 1 1 0.992157 c 1916 1308 238 201 bf black 1916 1308 238 201 bl 1 1 0.992157 c 1916 1308 238 201 bf black 1916
 1308 238 201 bl 238 201 m 1916 X s 427 244 m -43 Y s 465 222 m -21 Y s 504 222 m -21 Y s 542 222 m -21 Y s 580 222 m -21 Y s 619 244 m -43 Y s 657 222 m -21 Y s 696 222 m -21 Y s 734 222 m -21 Y s 772 222 m -21 Y s 811 244 m -43 Y s 849 222 m -21 Y
 s 888 222 m -21 Y s 926 222 m -21 Y s 964 222 m -21 Y s 1003 244 m -43 Y s 1041 222 m -21 Y s 1079 222 m -21 Y s 1118 222 m -21 Y s 1156 222 m -21 Y s 1195 244 m -43 Y s 1233 222 m -21 Y s 1271 222 m -21 Y s 1310 222 m -21 Y s 1348 222 m -21 Y s
 1387 244 m -43 Y s 1425 222 m -21 Y s 1463 222 m -21 Y s 1502 222 m -21 Y s 1540 222 m -21 Y s 1578 244 m -43 Y s 1617 222 m -21 Y s 1655 222 m -21 Y s 1694 222 m -21 Y s 1732 222 m -21 Y s 1770 244 m -43 Y s 1809 222 m -21 Y s 1847 222 m -21 Y s
 1886 222 m -21 Y s 1924 222 m -21 Y s 1962 244 m -43 Y s 2001 222 m -21 Y s 2039 222 m -21 Y s 2078 222 m -21 Y s 2116 222 m -21 Y s 2154 244 m -43 Y s 427 244 m -43 Y s 388 222 m -21 Y s 350 222 m -21 Y s 312 222 m -21 Y s 273 222 m -21 Y s 2154
 244 m -43 Y s
 gsave  2268 1676 0 0 C 383.009 128.934 t 0 r /Helvetica-Bold findfont 64.4669 sf 0 0 m (0.1) show NC gr 
 gsave  2268 1676 0 0 C 572.617 128.934 t 0 r /Helvetica-Bold findfont 64.4669 sf 0 0 m (0.2) show NC gr 
 gsave  2268 1676 0 0 C 762.226 128.934 t 0 r /Helvetica-Bold findfont 64.4669 sf 0 0 m (0.3) show NC gr 
 gsave  2268 1676 0 0 C 955.626 128.934 t 0 r /Helvetica-Bold findfont 64.4669 sf 0 0 m (0.4) show NC gr 
 gsave  2268 1676 0 0 C 1149.03 128.934 t 0 r /Helvetica-Bold findfont 64.4669 sf 0 0 m (0.5) show NC gr 
 gsave  2268 1676 0 0 C 1338.64 128.934 t 0 r /Helvetica-Bold findfont 64.4669 sf 0 0 m (0.6) show NC gr 
 gsave  2268 1676 0 0 C 1532.04 128.934 t 0 r /Helvetica-Bold findfont 64.4669 sf 0 0 m (0.7) show NC gr 
 gsave  2268 1676 0 0 C 1721.64 128.934 t 0 r /Helvetica-Bold findfont 64.4669 sf 0 0 m (0.8) show NC gr 
 gsave  2268 1676 0 0 C 1915.04 128.934 t 0 r /Helvetica-Bold findfont 64.4669 sf 0 0 m (0.9) show NC gr 
 gsave  2268 1676 0 0 C 2138.78 128.934 t 0 r /Helvetica-Bold findfont 64.4669 sf 0 0 m (1) show NC gr 
 gsave  2268 1676 0 0 C 1505.49 34.1295 t 0 r /Helvetica-Bold findfont 72.0512 sf 0 0 m (MLPBNN response) show NC gr  238 1509 m 1916 X s 427 1466 m 43 Y s 465 1487 m 22 Y s 504 1487 m 22 Y s 542 1487 m 22 Y s 580 1487 m 22 Y s 619 1466 m 43 Y s 657
 1487 m 22 Y s 696 1487 m 22 Y s 734 1487 m 22 Y s 772 1487 m 22 Y s 811 1466 m 43 Y s 849 1487 m 22 Y s 888 1487 m 22 Y s 926 1487 m 22 Y s 964 1487 m 22 Y s 1003 1466 m 43 Y s 1041 1487 m 22 Y s 1079 1487 m 22 Y s 1118 1487 m 22 Y s 1156 1487 m 22
 Y s 1195 1466 m 43 Y s 1233 1487 m 22 Y s 1271 1487 m 22 Y s 1310 1487 m 22 Y s 1348 1487 m 22 Y s 1387 1466 m 43 Y s 1425 1487 m 22 Y s 1463 1487 m 22 Y s 1502 1487 m 22 Y s 1540 1487 m 22 Y s 1578 1466 m 43 Y s 1617 1487 m 22 Y s 1655 1487 m 22 Y
 s 1694 1487 m 22 Y s 1732 1487 m 22 Y s 1770 1466 m 43 Y s 1809 1487 m 22 Y s 1847 1487 m 22 Y s 1886 1487 m 22 Y s 1924 1487 m 22 Y s 1962 1466 m 43 Y s 2001 1487 m 22 Y s 2039 1487 m 22 Y s 2078 1487 m 22 Y s 2116 1487 m 22 Y s 2154 1466 m 43 Y s
 427 1466 m 43 Y s 388 1487 m 22 Y s 350 1487 m 22 Y s 312 1487 m 22 Y s 273 1487 m 22 Y s 2154 1466 m 43 Y s 238 201 m 1308 Y s 291 201 m -53 X s 265 231 m -27 X s 265 261 m -27 X s 265 291 m -27 X s 291 321 m -53 X s 265 351 m -27 X s 265 381 m -27
 X s 265 411 m -27 X s 291 441 m -53 X s 265 470 m -27 X s 265 500 m -27 X s 265 530 m -27 X s 291 560 m -53 X s 265 590 m -27 X s 265 620 m -27 X s 265 650 m -27 X s 291 680 m -53 X s 265 710 m -27 X s 265 740 m -27 X s 265 770 m -27 X s 291 800 m
 -53 X s 265 830 m -27 X s 265 859 m -27 X s 265 889 m -27 X s 291 919 m -53 X s 265 949 m -27 X s 265 979 m -27 X s 265 1009 m -27 X s 291 1039 m -53 X s 265 1069 m -27 X s 265 1099 m -27 X s 265 1129 m -27 X s 291 1159 m -53 X s 265 1189 m -27 X s
 265 1219 m -27 X s 265 1248 m -27 X s 291 1278 m -53 X s 265 1308 m -27 X s 265 1338 m -27 X s 265 1368 m -27 X s 291 1398 m -53 X s 291 1398 m -53 X s 265 1428 m -27 X s 265 1458 m -27 X s 265 1488 m -27 X s
 gsave  2268 1676 0 0 C 174.44 178.232 t 0 r /Helvetica-Bold findfont 64.4669 sf 0 0 m (0) show NC gr 
 gsave  2268 1676 0 0 C 174.44 295.789 t 0 r /Helvetica-Bold findfont 64.4669 sf 0 0 m (2) show NC gr 
 gsave  2268 1676 0 0 C 174.44 417.138 t 0 r /Helvetica-Bold findfont 64.4669 sf 0 0 m (4) show NC gr 
 gsave  2268 1676 0 0 C 174.44 534.696 t 0 r /Helvetica-Bold findfont 64.4669 sf 0 0 m (6) show NC gr 
 gsave  2268 1676 0 0 C 174.44 656.045 t 0 r /Helvetica-Bold findfont 64.4669 sf 0 0 m (8) show NC gr 
 gsave  2268 1676 0 0 C 136.518 773.602 t 0 r /Helvetica-Bold findfont 64.4669 sf 0 0 m (10) show NC gr 
 gsave  2268 1676 0 0 C 136.518 894.952 t 0 r /Helvetica-Bold findfont 64.4669 sf 0 0 m (12) show NC gr 
 gsave  2268 1676 0 0 C 136.518 1012.51 t 0 r /Helvetica-Bold findfont 64.4669 sf 0 0 m (14) show NC gr 
 gsave  2268 1676 0 0 C 136.518 1133.86 t 0 r /Helvetica-Bold findfont 64.4669 sf 0 0 m (16) show NC gr 
 gsave  2268 1676 0 0 C 136.518 1255.21 t 0 r /Helvetica-Bold findfont 64.4669 sf 0 0 m (18) show NC gr 
 gsave  2268 1676 0 0 C 136.518 1372.76 t 0 r /Helvetica-Bold findfont 64.4669 sf 0 0 m (20) show NC gr 
 gsave  2268 1676 0 0 C 64.4669 1425.86 t 90 r /Helvetica-Bold findfont 72.0512 sf 0 0 m (dx) show NC gr 
 gsave  2268 1676 0 0 C 30.3373 1406.89 t 90 r /Helvetica-Bold findfont 45.506 sf 0 0 m ( ) show NC gr 
 gsave  2268 1676 0 0 C 64.4669 1384.14 t 90 r /Helvetica-Bold findfont 72.0512 sf 0 0 m (/) show NC gr 
 gsave  2268 1676 0 0 C 30.3373 1365.18 t 90 r /Helvetica-Bold findfont 45.506 sf 0 0 m ( ) show NC gr 
 gsave  2268 1676 0 0 C 60.6747 1092.14 t 90 r /Helvetica-Bold findfont 72.0512 sf 0 0 m (\(1/N\) dN) show NC gr  2154 201 m 1308 Y s 2101 201 m 53 X s 2128 231 m 26 X s 2128 261 m 26 X s 2128 291 m 26 X s 2101 321 m 53 X s 2128 351 m 26 X s 2128 381
 m 26 X s 2128 411 m 26 X s 2101 441 m 53 X s 2128 470 m 26 X s 2128 500 m 26 X s 2128 530 m 26 X s 2101 560 m 53 X s 2128 590 m 26 X s 2128 620 m 26 X s 2128 650 m 26 X s 2101 680 m 53 X s 2128 710 m 26 X s 2128 740 m 26 X s 2128 770 m 26 X s 2101
 800 m 53 X s 2128 830 m 26 X s 2128 859 m 26 X s 2128 889 m 26 X s 2101 919 m 53 X s 2128 949 m 26 X s 2128 979 m 26 X s 2128 1009 m 26 X s 2101 1039 m 53 X s 2128 1069 m 26 X s 2128 1099 m 26 X s 2128 1129 m 26 X s 2101 1159 m 53 X s 2128 1189 m 26
 X s 2128 1219 m 26 X s 2128 1248 m 26 X s 2101 1278 m 53 X s 2128 1308 m 26 X s 2128 1338 m 26 X s 2128 1368 m 26 X s 2101 1398 m 53 X s 2101 1398 m 53 X s 2128 1428 m 26 X s 2128 1458 m 26 X s 2128 1488 m 26 X s 0.490196 0.545098 0.615686 c 1 1 1 c
 0.490196 0.545098 0.615686 c 907 202 238 1307 bl 238 1307 m 907 X s 1145 1307 m 202 Y s 1145 1509 m -907 X s 238 1509 m -202 Y s black
 gsave  2268 1676 0 0 C 417.138 1437.23 t 0 r /Helvetica-Bold findfont 56.8825 sf 0 0 m (Signal \(test sample\)) show NC gr  0.49 0.6 0.82 c 265 1423 m 127 X 70 Y -127 X f 0 0 0.933333 c 265 1493 m 127 X s 265 1423 m 127 X s 392 1423 m 70 Y s 265
 1423 m 70 Y s black
 gsave  2268 1676 0 0 C 417.138 1338.64 t 0 r /Helvetica-Bold findfont 56.8825 sf 0 0 m (Background \(test sample\)) show NC gr  1 0 0 c 392 1354 m -32 -32 d s 383 1393 m -71 -71 d s 335 1393 m -70 -69 d s 286 1393 m -21 -21 d s 0 0 0.933333 c 1 0 0
 c 265 1393 m 127 X s 265 1322 m 127 X s 392 1322 m 71 Y s 265 1322 m 71 Y s 0 0 0.933333 c 0.49 0.6 0.82 c black 0.49 0.6 0.82 c 238 201 m 10 Y 48 X -7 Y 48 X -1 Y 96 X 1 Y 96 X 3 Y 47 X 7 Y 48 X 7 Y 48 X 15 Y 48 X -7 Y 48 X 11 Y 48 X 6 Y 48 X -11 Y
 48 X 7 Y 48 X -1 Y 48 X 2 Y 48 X 1 Y 47 X -6 Y 48 X -2 Y 48 X 4 Y 96 X 4 Y 48 X 1 Y 48 X 3 Y 48 X -5 Y 48 X 6 Y 48 X 2 Y 47 X 10 Y 96 X 8 Y 48 X 8 Y 48 X -7 Y 48 X 2 Y 48 X 2 Y 48 X 1 Y 48 X 1 Y 48 X 8 Y 48 X 37 Y 47 X 624 Y 48 X -744 Y f 0 0
 0.933333 c 0.49 0.6 0.82 c 0 0 0.933333 c 238 211 m 48 X -7 Y 48 X -1 Y 96 X 1 Y 96 X 3 Y 47 X 7 Y 48 X 7 Y 48 X 15 Y 48 X -7 Y 48 X 11 Y 48 X 6 Y 48 X -11 Y 48 X 7 Y 48 X -1 Y 48 X 2 Y 48 X 1 Y 47 X -6 Y 48 X -2 Y 48 X 4 Y 96 X 4 Y 48 X 1 Y 48 X 3
 Y 48 X -5 Y 48 X 6 Y 48 X 2 Y 47 X 10 Y 96 X 8 Y 48 X 8 Y 48 X -7 Y 48 X 2 Y 48 X 2 Y 48 X 1 Y 48 X 1 Y 48 X 8 Y 48 X 37 Y 47 X 624 Y 48 X -744 Y s 1 0 0 c black 1 0 0 c 2126 202 m -1 -1 d s 2079 203 m -2 -2 d s 2033 205 m -4 -4 d s 1988 208 m -7 -7
 d s 1943 212 m -10 -11 d s 1895 212 m -10 -11 d s 1853 217 m -16 -16 d s 1806 219 m -17 -18 d s 1762 223 m -21 -22 d s 1706 215 m -14 -14 d s 1662 219 m -18 -18 d s 1613 218 m -17 -17 d s 1564 217 m -16 -16 d s 1516 217 m -16 -16 d s 1469 218 m -17
 -17 d s 1420 217 m -16 -16 d s 1375 220 m -19 -19 d s 1333 227 m -25 -26 d s 1291 233 m -32 -32 d s 1240 230 m -29 -29 d s 1196 234 m -33 -33 d s 1155 241 m -40 -40 d s 1111 245 m -44 -44 d s 1071 253 m -52 -52 d s 1033 263 m -62 -62 d s 999 277 m
 -76 -76 d s 957 283 m -82 -82 d s 926 301 m -99 -100 d s 903 326 m -125 -125 d s 861 332 m -131 -131 d s 831 350 m -149 -149 d s 794 361 m -29 -29 d s 730 297 m -13 -13 d s 674 241 m -5 -5 d s 658 225 m -24 -24 d s 599 214 m -13 -13 d s 545 208 m -7
 -7 d s 499 210 m -9 -9 d s 450 210 m -8 -9 d s 407 214 m -13 -13 d s 365 221 m -20 -20 d s 334 238 m -37 -37 d s 296 248 m -47 -47 d s 286 286 m -48 -48 d s 286 334 m -48 -48 d s 286 382 m -48 -48 d s 286 430 m -48 -48 d s 286 478 m -48 -47 d s 286
 527 m -48 -48 d s 286 575 m -48 -48 d s 286 623 m -48 -48 d s 286 671 m -48 -48 d s 286 719 m -48 -48 d s 286 767 m -48 -48 d s 286 815 m -48 -48 d s 286 863 m -48 -48 d s 286 911 m -48 -48 d s 286 959 m -48 -47 d s 286 1008 m -48 -48 d s 286 1056 m
 -48 -48 d s 286 1104 m -48 -48 d s 286 1152 m -48 -48 d s 286 1200 m -48 -48 d s 245 1207 m -7 -7 d s 238 1207 m 48 X -959 Y 48 X -27 Y 48 X -7 Y 48 X -4 Y 96 X -2 Y 47 X 6 Y 48 X 11 Y 48 X 16 Y 48 X 56 Y 48 X 64 Y 48 X -11 Y 48 X -24 Y 48 X -25 Y
 48 X -24 Y 48 X -14 Y 48 X -10 Y 47 X -8 Y 48 X -4 Y 48 X -11 Y 48 X 3 Y 48 X -6 Y 48 X -7 Y 48 X -3 Y 48 X 1 Y 48 X -1 Y 95 X 1 Y 48 X 1 Y 48 X -4 Y 48 X 8 Y 48 X -4 Y 48 X -2 Y 48 X -5 Y 96 X -4 Y 48 X -3 Y 48 X -2 Y 47 X -1 Y 48 X -1 Y s 0.490196
 0.545098 0.615686 c 1 1 1 c 0.490196 0.545098 0.615686 c 952 202 1202 1307 bl 1202 1307 m 952 X s 2154 1307 m 202 Y s 2154 1509 m -952 X s 1202 1509 m -202 Y s black
 gsave  2268 1676 0 0 C 1296.92 1437.23 t 0 r /Helvetica-Bold findfont 56.8825 sf 0 0 m (Signal \(training sample\)) show NC gr  0 0 0.933333 c /w 21 def /w2 {w 2 div} def /w3 {w 3 div} def 1250 1458 m20 black
 gsave  2268 1676 0 0 C 1296.92 1338.64 t 0 r /Helvetica-Bold findfont 56.8825 sf 0 0 m (Background \(training sample\)) show NC gr  1 0 0 c 1250 1358 m20 0 0 0.933333 c 1 1 1 c 0 0 0.933333 c 238 211 m 16 X s 270 211 m 16 X s 238 203 m 15 Y s 286
 203 m 15 Y s 262 211 m20 286 204 m 16 X s 318 204 m 16 X s 286 196 m 16 Y s 334 196 m 16 Y s 310 204 m20 334 205 m 16 X s 365 205 m 17 X s 334 197 m 16 Y s 382 197 m 16 Y s 358 205 m20 382 204 m 16 X s 413 204 m 17 X s 382 196 m 15 Y s 430 196 m 15
 Y s 406 204 m20 430 204 m 16 X s 461 204 m 17 X s 430 197 m 15 Y s 478 197 m 15 Y s 454 204 m20 478 203 m 16 X s 509 203 m 17 X s 478 195 m 16 Y s 526 195 m 16 Y s 502 203 m20 526 206 m 16 X s 557 206 m 16 X s 526 199 m 15 Y s 573 199 m 15 Y s 549
 206 m20 573 217 m 17 X s 605 217 m 16 X s 573 210 m 15 Y s 621 210 m 15 Y s 597 217 m20 621 229 m 17 X s 653 229 m 16 X s 621 222 m 15 Y s 669 222 m 15 Y s 645 229 m20 669 226 m 17 X s 701 226 m 16 X s 669 218 m 15 Y s 717 218 m 15 Y s 693 226 m20
 717 238 m 17 X s 749 238 m 16 X s 717 230 m 16 Y s 765 230 m 16 Y s 741 238 m20 765 239 m 16 X s 797 239 m 16 X s 765 231 m 15 Y s 813 231 m 15 Y s 789 239 m20 813 240 m 16 X s 845 240 m 16 X s 813 232 m 15 Y s 861 232 m 15 Y s 837 240 m20 861 241 m
 16 X s 892 241 m 17 X s 861 234 m 15 Y s 909 234 m 15 Y s 885 241 m20 909 247 m 16 X s 940 247 m 17 X s 909 239 m 15 Y s 957 239 m 15 Y s 933 247 m20 957 246 m 16 X s 988 246 m 17 X s 957 238 m 15 Y s 1005 238 m 15 Y s 981 246 m20 1005 243 m 16 X s
 1036 243 m 17 X s 1005 236 m 15 Y s 1053 236 m 15 Y s 1029 243 m20 1053 234 m 16 X s 1084 234 m 16 X s 1053 226 m 15 Y s 1100 226 m 15 Y s 1076 234 m20 1100 242 m 17 X s 1132 242 m 16 X s 1100 234 m 15 Y s 1148 234 m 15 Y s 1124 242 m20 1148 239 m
 17 X s 1180 239 m 16 X s 1148 231 m 16 Y s 1196 231 m 16 Y s 1172 239 m20 1196 237 m 17 X s 1228 237 m 16 X s 1196 230 m 15 Y s 1244 230 m 15 Y s 1220 237 m20 1244 242 m 16 X s 1276 242 m 16 X s 1244 235 m 15 Y s 1292 235 m 15 Y s 1268 242 m20 1292
 240 m 16 X s 1324 240 m 16 X s 1292 233 m 15 Y s 1340 233 m 15 Y s 1316 240 m20 1340 241 m 16 X s 1371 241 m 17 X s 1340 233 m 16 Y s 1388 233 m 16 Y s 1364 241 m20 1388 245 m 16 X s 1419 245 m 17 X s 1388 238 m 15 Y s 1436 238 m 15 Y s 1412 245 m20
 1436 240 m 16 X s 1467 240 m 17 X s 1436 232 m 15 Y s 1484 232 m 15 Y s 1460 240 m20 1484 252 m 16 X s 1515 252 m 17 X s 1484 245 m 15 Y s 1532 245 m 15 Y s 1508 252 m20 1532 239 m 16 X s 1563 239 m 16 X s 1532 231 m 15 Y s 1579 231 m 15 Y s 1556
 239 m20 1579 257 m 17 X s 1611 257 m 16 X s 1579 249 m 15 Y s 1627 249 m 15 Y s 1603 257 m20 1627 255 m 17 X s 1659 255 m 16 X s 1627 248 m 15 Y s 1675 248 m 15 Y s 1651 255 m20 1675 263 m 17 X s 1707 263 m 16 X s 1675 256 m 15 Y s 1723 256 m 15 Y s
 1699 263 m20 1723 294 m 17 X s 1755 294 m 16 X s 1723 286 m 15 Y s 1771 286 m 15 Y s 1747 294 m20 1771 283 m 16 X s 1803 283 m 16 X s 1771 276 m 15 Y s 1819 276 m 15 Y s 1795 283 m20 1819 266 m 16 X s 1851 266 m 16 X s 1819 259 m 15 Y s 1867 259 m
 15 Y s 1843 266 m20 1867 265 m 16 X s 1898 265 m 17 X s 1867 257 m 16 Y s 1915 257 m 16 Y s 1891 265 m20 1915 275 m 16 X s 1946 275 m 17 X s 1915 267 m 16 Y s 1963 267 m 16 Y s 1939 275 m20 1963 270 m 16 X s 1994 270 m 17 X s 1963 262 m 15 Y s 2011
 262 m 15 Y s 1987 270 m20 2011 299 m 16 X s 2042 299 m 17 X s 2011 291 m 16 Y s 2059 291 m 16 Y s 2035 299 m20 2059 312 m 16 X s 2090 312 m 16 X s 2059 304 m 16 Y s 2106 304 m 16 Y s 2082 312 m20 2130 931 m 11 Y s 2130 957 m 12 Y s 2106 950 m 17 X s
 2138 950 m 16 X s 2123 931 m 15 X s 2123 969 m 15 X s 2106 942 m 15 Y s 2154 942 m 15 Y s 2130 950 m20 1 0 0 c 1 1 1 c 1 0 0 c 262 1165 m 14 Y s 262 1194 m 14 Y s 238 1187 m 16 X s 270 1187 m 16 X s 254 1165 m 16 X s 254 1208 m 16 X s 238 1179 m 15
 Y s 286 1179 m 15 Y s 262 1187 m20 286 255 m 16 X s 318 255 m 16 X s 286 247 m 15 Y s 334 247 m 15 Y s 310 255 m20 334 222 m 16 X s 365 222 m 17 X s 334 215 m 15 Y s 382 215 m 15 Y s 358 222 m20 382 211 m 16 X s 413 211 m 17 X s 382 203 m 15 Y s 430
 203 m 15 Y s 406 211 m20 430 208 m 16 X s 461 208 m 17 X s 430 201 m 15 Y s 478 201 m 15 Y s 454 208 m20 478 210 m 16 X s 509 210 m 17 X s 478 202 m 15 Y s 526 202 m 15 Y s 502 210 m20 526 211 m 16 X s 557 211 m 16 X s 526 204 m 15 Y s 573 204 m 15
 Y s 549 211 m20 573 216 m 17 X s 605 216 m 16 X s 573 208 m 15 Y s 621 208 m 15 Y s 597 216 m20 621 222 m 17 X s 653 222 m 16 X s 621 214 m 15 Y s 669 214 m 15 Y s 645 222 m20 669 246 m 17 X s 701 246 m 16 X s 669 238 m 15 Y s 717 238 m 15 Y s 693
 246 m20 717 295 m 17 X s 749 295 m 16 X s 717 287 m 15 Y s 765 287 m 15 Y s 741 295 m20 789 356 m 1 Y s 789 372 m 2 Y s 765 365 m 16 X s 797 365 m 16 X s 781 356 m 16 X s 781 374 m 16 X s 765 357 m 15 Y s 813 357 m 15 Y s 789 365 m20 837 337 m 1 Y s
 837 353 m 1 Y s 813 346 m 16 X s 845 346 m 16 X s 829 337 m 16 X s 829 354 m 16 X s 813 338 m 15 Y s 861 338 m 15 Y s 837 346 m20 861 320 m 16 X s 892 320 m 17 X s 861 313 m 15 Y s 909 313 m 15 Y s 885 320 m20 909 308 m 16 X s 940 308 m 17 X s 909
 300 m 15 Y s 957 300 m 15 Y s 933 308 m20 957 282 m 16 X s 988 282 m 17 X s 957 275 m 15 Y s 1005 275 m 15 Y s 981 282 m20 1005 268 m 16 X s 1036 268 m 17 X s 1005 260 m 15 Y s 1053 260 m 15 Y s 1029 268 m20 1053 257 m 16 X s 1084 257 m 16 X s 1053
 250 m 15 Y s 1100 250 m 15 Y s 1076 257 m20 1100 252 m 17 X s 1132 252 m 16 X s 1100 244 m 15 Y s 1148 244 m 15 Y s 1124 252 m20 1148 236 m 17 X s 1180 236 m 16 X s 1148 228 m 15 Y s 1196 228 m 15 Y s 1172 236 m20 1196 236 m 17 X s 1228 236 m 16 X s
 1196 228 m 15 Y s 1244 228 m 15 Y s 1220 236 m20 1244 231 m 16 X s 1276 231 m 16 X s 1244 224 m 15 Y s 1292 224 m 15 Y s 1268 231 m20 1292 226 m 16 X s 1324 226 m 16 X s 1292 218 m 15 Y s 1340 218 m 15 Y s 1316 226 m20 1340 216 m 16 X s 1371 216 m
 17 X s 1340 209 m 15 Y s 1388 209 m 15 Y s 1364 216 m20 1388 221 m 16 X s 1419 221 m 17 X s 1388 213 m 15 Y s 1436 213 m 15 Y s 1412 221 m20 1436 214 m 16 X s 1467 214 m 17 X s 1436 207 m 15 Y s 1484 207 m 15 Y s 1460 214 m20 1484 216 m 16 X s 1515
 216 m 17 X s 1484 208 m 15 Y s 1532 208 m 15 Y s 1508 216 m20 1532 216 m 16 X s 1563 216 m 16 X s 1532 209 m 15 Y s 1579 209 m 15 Y s 1556 216 m20 1579 219 m 17 X s 1611 219 m 16 X s 1579 211 m 15 Y s 1627 211 m 15 Y s 1603 219 m20 1627 214 m 17 X s
 1659 214 m 16 X s 1627 206 m 15 Y s 1675 206 m 15 Y s 1651 214 m20 1675 214 m 17 X s 1707 214 m 16 X s 1675 207 m 15 Y s 1723 207 m 15 Y s 1699 214 m20 1723 223 m 17 X s 1755 223 m 16 X s 1723 215 m 15 Y s 1771 215 m 15 Y s 1747 223 m20 1771 217 m
 16 X s 1803 217 m 16 X s 1771 210 m 15 Y s 1819 210 m 15 Y s 1795 217 m20 1819 214 m 16 X s 1851 214 m 16 X s 1819 207 m 15 Y s 1867 207 m 15 Y s 1843 214 m20 1867 214 m 16 X s 1898 214 m 17 X s 1867 207 m 15 Y s 1915 207 m 15 Y s 1891 214 m20 1915
 216 m 16 X s 1946 216 m 17 X s 1915 208 m 16 Y s 1963 208 m 16 Y s 1939 216 m20 1963 211 m 16 X s 1994 211 m 17 X s 1963 203 m 15 Y s 2011 203 m 15 Y s 1987 211 m20 2011 205 m 16 X s 2042 205 m 17 X s 2011 198 m 15 Y s 2059 198 m 15 Y s 2035 205 m20
 2059 204 m 16 X s 2090 204 m 16 X s 2059 197 m 15 Y s 2106 197 m 15 Y s 2082 204 m20 2106 202 m 17 X s 2138 202 m 16 X s 2106 194 m 15 Y s 2154 194 m 15 Y s 2130 202 m20 black
 gsave  2268 1676 0 0 C 272.126 1240.34 t 0 r /Helvetica-Bold findfont 49.2982 sf 0 0 m (Kolmogorov\255Smirnov test: signal \(background\) probability =  0.67 \(0.602\)) show NC gr  238 201 m 1916 X s 427 244 m -43 Y s 465 222 m -21 Y s 504 222 m -21
 Y s 542 222 m -21 Y s 580 222 m -21 Y s 619 244 m -43 Y s 657 222 m -21 Y s 696 222 m -21 Y s 734 222 m -21 Y s 772 222 m -21 Y s 811 244 m -43 Y s 849 222 m -21 Y s 888 222 m -21 Y s 926 222 m -21 Y s 964 222 m -21 Y s 1003 244 m -43 Y s 1041 222 m
 -21 Y s 1079 222 m -21 Y s 1118 222 m -21 Y s 1156 222 m -21 Y s 1195 244 m -43 Y s 1233 222 m -21 Y s 1271 222 m -21 Y s 1310 222 m -21 Y s 1348 222 m -21 Y s 1387 244 m -43 Y s 1425 222 m -21 Y s 1463 222 m -21 Y s 1502 222 m -21 Y s 1540 222 m
 -21 Y s 1578 244 m -43 Y s 1617 222 m -21 Y s 1655 222 m -21 Y s 1694 222 m -21 Y s 1732 222 m -21 Y s 1770 244 m -43 Y s 1809 222 m -21 Y s 1847 222 m -21 Y s 1886 222 m -21 Y s 1924 222 m -21 Y s 1962 244 m -43 Y s 2001 222 m -21 Y s 2039 222 m
 -21 Y s 2078 222 m -21 Y s 2116 222 m -21 Y s 2154 244 m -43 Y s 427 244 m -43 Y s 388 222 m -21 Y s 350 222 m -21 Y s 312 222 m -21 Y s 273 222 m -21 Y s 2154 244 m -43 Y s 238 1509 m 1916 X s 427 1466 m 43 Y s 465 1487 m 22 Y s 504 1487 m 22 Y s
 542 1487 m 22 Y s 580 1487 m 22 Y s 619 1466 m 43 Y s 657 1487 m 22 Y s 696 1487 m 22 Y s 734 1487 m 22 Y s 772 1487 m 22 Y s 811 1466 m 43 Y s 849 1487 m 22 Y s 888 1487 m 22 Y s 926 1487 m 22 Y s 964 1487 m 22 Y s 1003 1466 m 43 Y s 1041 1487 m 22
 Y s 1079 1487 m 22 Y s 1118 1487 m 22 Y s 1156 1487 m 22 Y s 1195 1466 m 43 Y s 1233 1487 m 22 Y s 1271 1487 m 22 Y s 1310 1487 m 22 Y s 1348 1487 m 22 Y s 1387 1466 m 43 Y s 1425 1487 m 22 Y s 1463 1487 m 22 Y s 1502 1487 m 22 Y s 1540 1487 m 22 Y
 s 1578 1466 m 43 Y s 1617 1487 m 22 Y s 1655 1487 m 22 Y s 1694 1487 m 22 Y s 1732 1487 m 22 Y s 1770 1466 m 43 Y s 1809 1487 m 22 Y s 1847 1487 m 22 Y s 1886 1487 m 22 Y s 1924 1487 m 22 Y s 1962 1466 m 43 Y s 2001 1487 m 22 Y s 2039 1487 m 22 Y s
 2078 1487 m 22 Y s 2116 1487 m 22 Y s 2154 1466 m 43 Y s 427 1466 m 43 Y s 388 1487 m 22 Y s 350 1487 m 22 Y s 312 1487 m 22 Y s 273 1487 m 22 Y s 2154 1466 m 43 Y s 238 201 m 1308 Y s 291 201 m -53 X s 265 231 m -27 X s 265 261 m -27 X s 265 291 m
 -27 X s 291 321 m -53 X s 265 351 m -27 X s 265 381 m -27 X s 265 411 m -27 X s 291 441 m -53 X s 265 470 m -27 X s 265 500 m -27 X s 265 530 m -27 X s 291 560 m -53 X s 265 590 m -27 X s 265 620 m -27 X s 265 650 m -27 X s 291 680 m -53 X s 265 710
 m -27 X s 265 740 m -27 X s 265 770 m -27 X s 291 800 m -53 X s 265 830 m -27 X s 265 859 m -27 X s 265 889 m -27 X s 291 919 m -53 X s 265 949 m -27 X s 265 979 m -27 X s 265 1009 m -27 X s 291 1039 m -53 X s 265 1069 m -27 X s 265 1099 m -27 X s
 265 1129 m -27 X s 291 1159 m -53 X s 265 1189 m -27 X s 265 1219 m -27 X s 265 1248 m -27 X s 291 1278 m -53 X s 265 1308 m -27 X s 265 1338 m -27 X s 265 1368 m -27 X s 291 1398 m -53 X s 291 1398 m -53 X s 265 1428 m -27 X s 265 1458 m -27 X s
 265 1488 m -27 X s 2154 201 m 1308 Y s 2101 201 m 53 X s 2128 231 m 26 X s 2128 261 m 26 X s 2128 291 m 26 X s 2101 321 m 53 X s 2128 351 m 26 X s 2128 381 m 26 X s 2128 411 m 26 X s 2101 441 m 53 X s 2128 470 m 26 X s 2128 500 m 26 X s 2128 530 m
 26 X s 2101 560 m 53 X s 2128 590 m 26 X s 2128 620 m 26 X s 2128 650 m 26 X s 2101 680 m 53 X s 2128 710 m 26 X s 2128 740 m 26 X s 2128 770 m 26 X s 2101 800 m 53 X s 2128 830 m 26 X s 2128 859 m 26 X s 2128 889 m 26 X s 2101 919 m 53 X s 2128 949
 m 26 X s 2128 979 m 26 X s 2128 1009 m 26 X s 2101 1039 m 53 X s 2128 1069 m 26 X s 2128 1099 m 26 X s 2128 1129 m 26 X s 2101 1159 m 53 X s 2128 1189 m 26 X s 2128 1219 m 26 X s 2128 1248 m 26 X s 2101 1278 m 53 X s 2128 1308 m 26 X s 2128 1338 m
 26 X s 2128 1368 m 26 X s 2101 1398 m 53 X s 2101 1398 m 53 X s 2128 1428 m 26 X s 2128 1458 m 26 X s 2128 1488 m 26 X s
 gsave  2268 1676 0 0 C 2211.02 192.756 t 90 r /Helvetica-Bold findfont 45.506 sf 0 0 m (U/O\255flow \(S,B\): \(0.0, 0.0\)% / \(0.0, 0.0\)%) show NC gr  0.490196 0.545098 0.615686 c 0.364706 0.419608 0.490196 c 1587 96 23 1572 bf 0.490196 0.545098
 0.615686 c 23 1572 m 1587 X s 1610 1572 m 96 Y s 1610 1668 m -1587 X s 23 1668 m -96 Y s 1 1 1 c black 1 1 1 c
 gsave  2268 1676 0 0 C 72.0512 1604.09 t 0 r /Helvetica-Bold findfont 64.4669 sf 0 0 m (TMVA overtraining check for classifier: MLPBNN) show NC gr 
 gr  gr showpage
end
%%EOF
