%!PS-Adobe-2.0 EPSF-2.0
%%BoundingBox:  0 0 567 419
%%Title: dataset/plots/overtrain_MLP.eps: TMVA comparison MLP
%%Creator: ROOT Version 6.12/06
%%CreationDate: Mon May 21 16:44:58 2018
%%DocumentNeededResources: ProcSet (FontSetInit)
%%EndComments
%%BeginProlog
80 dict begin
/s {stroke} def /l {lineto} def /m {moveto} def /t {translate} def
/r {rotate} def /rl {roll}  def /R {repeat} def
/d {rlineto} def /rm {rmoveto} def /gr {grestore} def /f {eofill} def
/c {setrgbcolor} def /black {0 setgray} def /sd {setdash} def
/cl {closepath} def /sf {scalefont setfont} def /lw {setlinewidth} def
/box {m dup 0 exch d exch 0 d 0 exch neg d cl} def
/NC{systemdict begin initclip end}def/C{NC box clip newpath}def
/bl {box s} def /bf {gsave box gsave f grestore 1 lw [] 0 sd s grestore} def /Y { 0 exch d} def /X { 0 d} def 
/K {{pop pop 0 moveto} exch kshow} bind def
/ita {/ang 15 def gsave [1 0 ang dup sin exch cos div 1 0 0] concat} def 
/mp {newpath /y exch def /x exch def} def
/side {[w .77 mul w .23 mul] .385 w mul sd w 0 l currentpoint t -144 r} def
/mr {mp x y w2 0 360 arc} def /m24 {mr s} def /m20 {mr f} def
/mb {mp x y w2 add m w2 neg 0 d 0 w neg d w 0 d 0 w d cl} def
/mt {mp x y w2 add m w2 neg w neg d w 0 d cl} def
/w4 {w 4 div} def
/w6 {w 6 div} def
/w8 {w 8 div} def
/m21 {mb f} def /m25 {mb s} def /m22 {mt f} def /m26{mt s} def
/m23 {mp x y w2 sub m w2 w d w neg 0 d cl f} def
/m27 {mp x y w2 add m w3 neg w2 neg d w3 w2 neg d w3 w2 d cl s} def
/m28 {mp x w2 sub y w2 sub w3 add m w3 0 d  0 w3 neg d w3 0 d 0 w3 d w3 0 d  0 w3 d w3 neg 0 d 0 w3 d w3 neg 0 d 0 w3 neg d w3 neg 0 d cl s } def
/m29 {mp gsave x w2 sub y w2 add w3 sub m currentpoint t 4 {side} repeat cl fill gr} def
/m30 {mp gsave x w2 sub y w2 add w3 sub m currentpoint t 4 {side} repeat cl s gr} def
/m31 {mp x y w2 sub m 0 w d x w2 sub y m w 0 d x w2 sub y w2 add m w w neg d x w2 sub y w2 sub m w w d s} def
/m32 {mp x y w2 sub m w2 w d w neg 0 d cl s} def
/m33 {mp x y w2 add m w3 neg w2 neg d w3 w2 neg d w3 w2 d cl f} def
/m34 {mp x w2 sub y w2 sub w3 add m w3 0 d  0 w3 neg d w3 0 d 0 w3 d w3 0 d  0 w3 d w3 neg 0 d 0 w3 d w3 neg 0 d 0 w3 neg d w3 neg 0 d cl f } def
/m35 {mp x y w2 add m w2 neg w2 neg d w2 w2 neg d w2 w2 d w2 neg w2 d x y w2 sub m 0 w d x w2 sub y m w 0 d s} def
/m36 {mb x w2 sub y w2 add m w w neg d x w2 sub y w2 sub m w w d s} def
/m37 {mp x y m w4 neg w2 d w4 neg w2 neg d w2 0 d  w4 neg w2 neg d w2 0 d w4 neg w2 d w2 0 d w4 neg w2 d w4 neg w2 neg d cl s} def
/m38 {mp x w4 sub y w2 add m w4 neg w4 neg d 0 w2 neg d w4 w4 neg d w2 0 d w4 w4 d 0 w2 d w4 neg w4 d w2 neg 0 d x y w2 sub m 0 w d x w2 sub y m w 0 d cl s} def
/m39 {mp x y m w4 neg w2 d w4 neg w2 neg d w2 0 d  w4 neg w2 neg d w2 0 d w4 neg w2 d w2 0 d w4 neg w2 d w4 neg w2 neg d cl f} def
/m40 {mp x y m w4 w2 d w4 w4 neg d w2 neg w4 neg d w2 w4 neg d w4 neg w4 neg d w4 neg w2 d w4 neg w2 neg d w4 neg w4 d w2 w4 d w2 neg w4 d w4 w4 d w4 w2 neg d cl s} def
/m41 {mp x y m w4 w2 d w4 w4 neg d w2 neg w4 neg d w2 w4 neg d w4 neg w4 neg d w4 neg w2 d w4 neg w2 neg d w4 neg w4 d w2 w4 d w2 neg w4 d w4 w4 d w4 w2 neg d cl f} def
/m42 {mp x y w2 add m w8 neg w2 -3 4 div mul d w2 -3 4 div mul w8 neg d w2 3 4 div mul w8 neg d w8 w2 -3 4 div mul d w8 w2 3 4 div mul d w2 3 4 div mul w8 d w2 -3 4 div mul w8 d w8 neg w2 3 4 div mul d cl s} def
/m43 {mp x y w2 add m w8 neg w2 -3 4 div mul d w2 -3 4 div mul w8 neg d w2 3 4 div mul w8 neg d w8 w2 -3 4 div mul d w8 w2 3 4 div mul d w2 3 4 div mul w8 d w2 -3 4 div mul w8 d w8 neg w2 3 4 div mul d cl f} def
/m44 {mp x y m w6 neg w2 d w2 2 3 div mul 0 d w6 neg w2 neg d w2 w6 d 0 w2 -2 3 div mul d w2 neg w6 d w6 w2 neg d w2 -2 3 div mul 0 d w6 w2 d w2 neg w6 neg d 0 w2 2 3 div mul d w2 w6 neg d cl s} def
/m45 {mp x y m w6 neg w2 d w2 2 3 div mul 0 d w6 neg w2 neg d w2 w6 d 0 w2 -2 3 div mul d w2 neg w6 d w6 w2 neg d w2 -2 3 div mul 0 d w6 w2 d w2 neg w6 neg d 0 w2 2 3 div mul d w2 w6 neg d cl f} def
/m46 {mp x y w4 add m w4 neg w4 d w4 neg w4 neg d  w4 w4 neg d w4 neg w4 neg d w4 w4 neg d w4 w4 d w4 w4 neg d w4 w4 d w4 neg w4 d w4 w4 d w4 neg w4 d w4 neg w4 neg d cl s} def
/m47 {mp x y w4 add m w4 neg w4 d w4 neg w4 neg d w4 w4 neg d w4 neg w4 neg d  w4 w4 neg d w4 w4 d w4 w4 neg d w4 w4 d w4 neg w4 d w4 w4 d w4 neg w4 d w4 neg w4 neg d cl f} def
/m48 {mp x y w4 add m w4 neg w4 d w4 neg w4 neg d w4 w4 neg d  w4 neg w4 neg d w4 w4 neg d w4 w4 d w4 w4 neg d w4 w4 d w4 neg w4 d w4 w4 d w4 neg w4 d w4 neg w4 neg d  w4 w4 neg d w4 neg w4 neg d w4 neg w4 d w4 w4 d cl f} def
/m49 {mp x w2 sub w3 add y w2 sub w3 add m  0 w3 neg d w3 0 d 0 w3 d w3 0 d 0 w3 d w3 neg 0 d 0 w3 d w3 neg 0 d 0 w3 neg d w3 neg 0 d 0 w3 neg d w3 0 d 0 w3 d w3 0 d 0 w3 neg d w3 neg 0 d cl f } def
/m2 {mp x y w2 sub m 0 w d x w2 sub y m w 0 d s} def
/m5 {mp x w2 sub y w2 sub m w w d x w2 sub y w2 add m w w neg d s} def
%%IncludeResource: ProcSet (FontSetInit)
%%IncludeResource: font Times-Roman
%%IncludeResource: font Times-Italic
%%IncludeResource: font Times-Bold
%%IncludeResource: font Times-BoldItalic
%%IncludeResource: font Helvetica
%%IncludeResource: font Helvetica-Oblique
%%IncludeResource: font Helvetica-Bold
%%IncludeResource: font Helvetica-BoldOblique
%%IncludeResource: font Courier
%%IncludeResource: font Courier-Oblique
%%IncludeResource: font Courier-Bold
%%IncludeResource: font Courier-BoldOblique
%%IncludeResource: font Symbol
%%IncludeResource: font ZapfDingbats
/reEncode {exch findfont dup length dict begin {1 index /FID eq  {pop pop} {def} ifelse } forall /Encoding exch def currentdict end dup /FontName get exch definefont pop } def [/Times-Bold /Times-Italic /Times-BoldItalic /Helvetica /Helvetica-Oblique
 /Helvetica-Bold /Helvetica-BoldOblique /Courier /Courier-Oblique /Courier-Bold /Courier-BoldOblique /Times-Roman /AvantGarde-Book /AvantGarde-BookOblique /AvantGarde-Demi /AvantGarde-DemiOblique /Bookman-Demi /Bookman-DemiItalic /Bookman-Light
 /Bookman-LightItalic /Helvetica-Narrow /Helvetica-Narrow-Bold /Helvetica-Narrow-BoldOblique /Helvetica-Narrow-Oblique /NewCenturySchlbk-Roman /NewCenturySchlbk-Bold /NewCenturySchlbk-BoldItalic /NewCenturySchlbk-Italic /Palatino-Bold
 /Palatino-BoldItalic /Palatino-Italic /Palatino-Roman ] {ISOLatin1Encoding reEncode } forall
%%EndProlog
%%BeginSetup
%%EndSetup
newpath  gsave  .25 .25 scale  gsave  0 0 t 0.490196 0.545098 0.615686 c[  ] 0 sd 3 lw 0.941176 0.941176 0.941176 c 2268 1676 0 0 bf black 1 1 0.992157 c 1916 1308 238 201 bf black 1916 1308 238 201 bl 1 1 0.992157 c 1916 1308 238 201 bf black 1916
 1308 238 201 bl 238 201 m 1916 X s 430 244 m -43 Y s 468 222 m -21 Y s 506 222 m -21 Y s 545 222 m -21 Y s 583 222 m -21 Y s 621 244 m -43 Y s 660 222 m -21 Y s 698 222 m -21 Y s 736 222 m -21 Y s 775 222 m -21 Y s 813 244 m -43 Y s 851 222 m -21 Y
 s 890 222 m -21 Y s 928 222 m -21 Y s 966 222 m -21 Y s 1005 244 m -43 Y s 1043 222 m -21 Y s 1081 222 m -21 Y s 1120 222 m -21 Y s 1158 222 m -21 Y s 1196 244 m -43 Y s 1234 222 m -21 Y s 1273 222 m -21 Y s 1311 222 m -21 Y s 1349 222 m -21 Y s
 1388 244 m -43 Y s 1426 222 m -21 Y s 1464 222 m -21 Y s 1503 222 m -21 Y s 1541 222 m -21 Y s 1579 244 m -43 Y s 1618 222 m -21 Y s 1656 222 m -21 Y s 1694 222 m -21 Y s 1733 222 m -21 Y s 1771 244 m -43 Y s 1809 222 m -21 Y s 1848 222 m -21 Y s
 1886 222 m -21 Y s 1924 222 m -21 Y s 1963 244 m -43 Y s 2001 222 m -21 Y s 2039 222 m -21 Y s 2078 222 m -21 Y s 2116 222 m -21 Y s 2154 244 m -43 Y s 430 244 m -43 Y s 391 222 m -21 Y s 353 222 m -21 Y s 315 222 m -21 Y s 276 222 m -21 Y s 2154
 244 m -43 Y s
 gsave  2268 1676 0 0 C 386.801 128.934 t 0 r /Helvetica-Bold findfont 64.4669 sf 0 0 m (0.1) show NC gr 
 gsave  2268 1676 0 0 C 572.617 128.934 t 0 r /Helvetica-Bold findfont 64.4669 sf 0 0 m (0.2) show NC gr 
 gsave  2268 1676 0 0 C 766.018 128.934 t 0 r /Helvetica-Bold findfont 64.4669 sf 0 0 m (0.3) show NC gr 
 gsave  2268 1676 0 0 C 955.626 128.934 t 0 r /Helvetica-Bold findfont 64.4669 sf 0 0 m (0.4) show NC gr 
 gsave  2268 1676 0 0 C 1149.03 128.934 t 0 r /Helvetica-Bold findfont 64.4669 sf 0 0 m (0.5) show NC gr 
 gsave  2268 1676 0 0 C 1338.64 128.934 t 0 r /Helvetica-Bold findfont 64.4669 sf 0 0 m (0.6) show NC gr 
 gsave  2268 1676 0 0 C 1532.04 128.934 t 0 r /Helvetica-Bold findfont 64.4669 sf 0 0 m (0.7) show NC gr 
 gsave  2268 1676 0 0 C 1725.44 128.934 t 0 r /Helvetica-Bold findfont 64.4669 sf 0 0 m (0.8) show NC gr 
 gsave  2268 1676 0 0 C 1915.04 128.934 t 0 r /Helvetica-Bold findfont 64.4669 sf 0 0 m (0.9) show NC gr 
 gsave  2268 1676 0 0 C 2138.78 128.934 t 0 r /Helvetica-Bold findfont 64.4669 sf 0 0 m (1) show NC gr 
 gsave  2268 1676 0 0 C 1660.97 34.1295 t 0 r /Helvetica-Bold findfont 72.0512 sf 0 0 m (MLP response) show NC gr  238 1509 m 1916 X s 430 1466 m 43 Y s 468 1487 m 22 Y s 506 1487 m 22 Y s 545 1487 m 22 Y s 583 1487 m 22 Y s 621 1466 m 43 Y s 660
 1487 m 22 Y s 698 1487 m 22 Y s 736 1487 m 22 Y s 775 1487 m 22 Y s 813 1466 m 43 Y s 851 1487 m 22 Y s 890 1487 m 22 Y s 928 1487 m 22 Y s 966 1487 m 22 Y s 1005 1466 m 43 Y s 1043 1487 m 22 Y s 1081 1487 m 22 Y s 1120 1487 m 22 Y s 1158 1487 m 22
 Y s 1196 1466 m 43 Y s 1234 1487 m 22 Y s 1273 1487 m 22 Y s 1311 1487 m 22 Y s 1349 1487 m 22 Y s 1388 1466 m 43 Y s 1426 1487 m 22 Y s 1464 1487 m 22 Y s 1503 1487 m 22 Y s 1541 1487 m 22 Y s 1579 1466 m 43 Y s 1618 1487 m 22 Y s 1656 1487 m 22 Y
 s 1694 1487 m 22 Y s 1733 1487 m 22 Y s 1771 1466 m 43 Y s 1809 1487 m 22 Y s 1848 1487 m 22 Y s 1886 1487 m 22 Y s 1924 1487 m 22 Y s 1963 1466 m 43 Y s 2001 1487 m 22 Y s 2039 1487 m 22 Y s 2078 1487 m 22 Y s 2116 1487 m 22 Y s 2154 1466 m 43 Y s
 430 1466 m 43 Y s 391 1487 m 22 Y s 353 1487 m 22 Y s 315 1487 m 22 Y s 276 1487 m 22 Y s 2154 1466 m 43 Y s 238 201 m 1308 Y s 291 201 m -53 X s 265 236 m -27 X s 265 270 m -27 X s 265 304 m -27 X s 291 339 m -53 X s 265 373 m -27 X s 265 407 m -27
 X s 265 442 m -27 X s 291 476 m -53 X s 265 511 m -27 X s 265 545 m -27 X s 265 579 m -27 X s 291 614 m -53 X s 265 648 m -27 X s 265 683 m -27 X s 265 717 m -27 X s 291 751 m -53 X s 265 786 m -27 X s 265 820 m -27 X s 265 854 m -27 X s 291 889 m
 -53 X s 265 923 m -27 X s 265 958 m -27 X s 265 992 m -27 X s 291 1026 m -53 X s 265 1061 m -27 X s 265 1095 m -27 X s 265 1129 m -27 X s 291 1164 m -53 X s 265 1198 m -27 X s 265 1233 m -27 X s 265 1267 m -27 X s 291 1301 m -53 X s 265 1336 m -27 X
 s 265 1370 m -27 X s 265 1405 m -27 X s 291 1439 m -53 X s 291 1439 m -53 X s 265 1473 m -27 X s 265 1508 m -27 X s
 gsave  2268 1676 0 0 C 174.44 178.232 t 0 r /Helvetica-Bold findfont 64.4669 sf 0 0 m (0) show NC gr 
 gsave  2268 1676 0 0 C 174.44 314.75 t 0 r /Helvetica-Bold findfont 64.4669 sf 0 0 m (2) show NC gr 
 gsave  2268 1676 0 0 C 174.44 451.268 t 0 r /Helvetica-Bold findfont 64.4669 sf 0 0 m (4) show NC gr 
 gsave  2268 1676 0 0 C 174.44 587.786 t 0 r /Helvetica-Bold findfont 64.4669 sf 0 0 m (6) show NC gr 
 gsave  2268 1676 0 0 C 174.44 728.096 t 0 r /Helvetica-Bold findfont 64.4669 sf 0 0 m (8) show NC gr 
 gsave  2268 1676 0 0 C 136.518 864.614 t 0 r /Helvetica-Bold findfont 64.4669 sf 0 0 m (10) show NC gr 
 gsave  2268 1676 0 0 C 136.518 1001.13 t 0 r /Helvetica-Bold findfont 64.4669 sf 0 0 m (12) show NC gr 
 gsave  2268 1676 0 0 C 136.518 1137.65 t 0 r /Helvetica-Bold findfont 64.4669 sf 0 0 m (14) show NC gr 
 gsave  2268 1676 0 0 C 136.518 1277.96 t 0 r /Helvetica-Bold findfont 64.4669 sf 0 0 m (16) show NC gr 
 gsave  2268 1676 0 0 C 136.518 1414.48 t 0 r /Helvetica-Bold findfont 64.4669 sf 0 0 m (18) show NC gr 
 gsave  2268 1676 0 0 C 64.4669 1425.86 t 90 r /Helvetica-Bold findfont 72.0512 sf 0 0 m (dx) show NC gr 
 gsave  2268 1676 0 0 C 30.3373 1406.89 t 90 r /Helvetica-Bold findfont 45.506 sf 0 0 m ( ) show NC gr 
 gsave  2268 1676 0 0 C 64.4669 1384.14 t 90 r /Helvetica-Bold findfont 72.0512 sf 0 0 m (/) show NC gr 
 gsave  2268 1676 0 0 C 30.3373 1365.18 t 90 r /Helvetica-Bold findfont 45.506 sf 0 0 m ( ) show NC gr 
 gsave  2268 1676 0 0 C 60.6747 1092.14 t 90 r /Helvetica-Bold findfont 72.0512 sf 0 0 m (\(1/N\) dN) show NC gr  2154 201 m 1308 Y s 2101 201 m 53 X s 2128 236 m 26 X s 2128 270 m 26 X s 2128 304 m 26 X s 2101 339 m 53 X s 2128 373 m 26 X s 2128 407
 m 26 X s 2128 442 m 26 X s 2101 476 m 53 X s 2128 511 m 26 X s 2128 545 m 26 X s 2128 579 m 26 X s 2101 614 m 53 X s 2128 648 m 26 X s 2128 683 m 26 X s 2128 717 m 26 X s 2101 751 m 53 X s 2128 786 m 26 X s 2128 820 m 26 X s 2128 854 m 26 X s 2101
 889 m 53 X s 2128 923 m 26 X s 2128 958 m 26 X s 2128 992 m 26 X s 2101 1026 m 53 X s 2128 1061 m 26 X s 2128 1095 m 26 X s 2128 1129 m 26 X s 2101 1164 m 53 X s 2128 1198 m 26 X s 2128 1233 m 26 X s 2128 1267 m 26 X s 2101 1301 m 53 X s 2128 1336 m
 26 X s 2128 1370 m 26 X s 2128 1405 m 26 X s 2101 1439 m 53 X s 2101 1439 m 53 X s 2128 1473 m 26 X s 2128 1508 m 26 X s 0.490196 0.545098 0.615686 c 1 1 1 c 0.490196 0.545098 0.615686 c 907 202 238 1307 bl 238 1307 m 907 X s 1145 1307 m 202 Y s
 1145 1509 m -907 X s 238 1509 m -202 Y s black
 gsave  2268 1676 0 0 C 417.138 1437.23 t 0 r /Helvetica-Bold findfont 56.8825 sf 0 0 m (Signal \(test sample\)) show NC gr  0.49 0.6 0.82 c 265 1423 m 127 X 70 Y -127 X f 0 0 0.933333 c 265 1493 m 127 X s 265 1423 m 127 X s 392 1423 m 70 Y s 265
 1423 m 70 Y s black
 gsave  2268 1676 0 0 C 417.138 1338.64 t 0 r /Helvetica-Bold findfont 56.8825 sf 0 0 m (Background \(test sample\)) show NC gr  1 0 0 c 392 1354 m -32 -32 d s 383 1393 m -71 -71 d s 335 1393 m -70 -69 d s 286 1393 m -21 -21 d s 0 0 0.933333 c 1 0 0
 c 265 1393 m 127 X s 265 1322 m 127 X s 392 1322 m 71 Y s 265 1322 m 71 Y s 0 0 0.933333 c 0.49 0.6 0.82 c black 0.49 0.6 0.82 c 2154 201 m -1916 X 7 Y 48 X -4 Y 96 X -1 Y 48 X -1 Y 96 X 26 Y 47 X 15 Y 48 X 4 Y 48 X -15 Y 48 X 5 Y 48 X -8 Y 48 X 7 Y
 48 X -7 Y 48 X 3 Y 96 X -4 Y 48 X 4 Y 47 X 5 Y 48 X -8 Y 48 X 6 Y 48 X -6 Y 48 X 10 Y 48 X -3 Y 48 X -1 Y 144 X 15 Y 47 X -5 Y 48 X 18 Y 48 X 3 Y 48 X 11 Y 48 X 53 Y 48 X 4 Y 48 X -33 Y 48 X 6 Y 48 X 3 Y 48 X 4 Y 48 X 40 Y 47 X 754 Y 48 X f 0 0
 0.933333 c 0.49 0.6 0.82 c 0 0 0.933333 c 238 208 m 48 X -4 Y 96 X -1 Y 48 X -1 Y 96 X 26 Y 47 X 15 Y 48 X 4 Y 48 X -15 Y 48 X 5 Y 48 X -8 Y 48 X 7 Y 48 X -7 Y 48 X 3 Y 96 X -4 Y 48 X 4 Y 47 X 5 Y 48 X -8 Y 48 X 6 Y 48 X -6 Y 48 X 10 Y 48 X -3 Y 48
 X -1 Y 144 X 15 Y 47 X -5 Y 48 X 18 Y 48 X 3 Y 48 X 11 Y 48 X 53 Y 48 X 4 Y 48 X -33 Y 48 X 6 Y 48 X 3 Y 48 X 4 Y 48 X 40 Y 47 X 754 Y 48 X s 1 0 0 c black 1 0 0 c 2129 205 m -4 -4 d s 2083 207 m -6 -6 d s 2041 213 m -12 -12 d s 1991 212 m -10 -11 d
 s 1945 213 m -12 -12 d s 1911 228 m -26 -27 d s 1860 225 m -23 -24 d s 1819 232 m -30 -31 d s 1774 235 m -3 -3 d s 1760 221 m -19 -20 d s 1708 217 m -16 -16 d s 1660 217 m -16 -16 d s 1615 220 m -19 -19 d s 1564 217 m -16 -16 d s 1514 215 m -14 -14
 d s 1473 222 m -21 -21 d s 1421 219 m -17 -18 d s 1380 225 m -24 -24 d s 1324 217 m -16 -16 d s 1285 227 m -26 -26 d s 1239 229 m -28 -28 d s 1189 226 m -26 -25 d s 1148 234 m -33 -33 d s 1106 240 m -6 -5 d s 1097 231 m -30 -30 d s 1053 235 m -34
 -34 d s 1010 240 m -39 -39 d s 965 243 m -42 -42 d s 931 258 m -56 -57 d s 896 271 m -69 -70 d s 857 280 m -79 -79 d s 813 284 m -83 -83 d s 767 286 m -85 -85 d s 728 295 m -94 -94 d s 714 329 m -128 -128 d s 669 333 m -131 -132 d s 636 347 m -110
 -110 d s 510 221 m -20 -20 d s 621 381 m -48 -48 d s 562 322 m -36 -37 d s 460 220 m -18 -19 d s 586 393 m -13 -12 d s 417 225 m -23 -24 d s 382 238 m -37 -37 d s 349 252 m -52 -51 d s 334 286 m -85 -85 d s 328 328 m -90 -90 d s 286 334 m -48 -48 d
 s 286 382 m -48 -48 d s 286 430 m -48 -48 d s 286 478 m -48 -47 d s 286 527 m -48 -48 d s 286 575 m -48 -48 d s 286 623 m -48 -48 d s 286 671 m -48 -48 d s 286 719 m -48 -48 d s 286 767 m -48 -48 d s 286 815 m -48 -48 d s 286 863 m -48 -48 d s 286
 911 m -48 -48 d s 286 959 m -48 -47 d s 286 1008 m -48 -48 d s 286 1056 m -48 -48 d s 286 1104 m -48 -48 d s 286 1152 m -48 -48 d s 286 1200 m -48 -48 d s 245 1207 m -7 -7 d s 238 1207 m 48 X -879 Y 48 X -76 Y 48 X -27 Y 48 X -5 Y 48 X 1 Y 48 X 101
 Y 47 X 71 Y 48 X -46 Y 48 X -18 Y 48 X -34 Y 48 X -9 Y 48 X -6 Y 48 X -9 Y 48 X -13 Y 48 X -15 Y 48 X -3 Y 48 X -9 Y 47 X 9 Y 48 X -14 Y 48 X 3 Y 48 X -2 Y 48 X -10 Y 48 X 8 Y 48 X -6 Y 48 X 3 Y 48 X -7 Y 48 X 2 Y 47 X 3 Y 48 X -3 Y 96 X 4 Y 48 X 14
 Y 48 X -10 Y 48 X 3 Y 48 X -15 Y 48 X -1 Y 48 X 1 Y 48 X -6 Y 47 X -2 Y 48 X s 0.490196 0.545098 0.615686 c 1 1 1 c 0.490196 0.545098 0.615686 c 952 202 1202 1307 bl 1202 1307 m 952 X s 2154 1307 m 202 Y s 2154 1509 m -952 X s 1202 1509 m -202 Y s
 black
 gsave  2268 1676 0 0 C 1296.92 1437.23 t 0 r /Helvetica-Bold findfont 56.8825 sf 0 0 m (Signal \(training sample\)) show NC gr  0 0 0.933333 c /w 21 def /w2 {w 2 div} def /w3 {w 3 div} def 1250 1458 m20 black
 gsave  2268 1676 0 0 C 1296.92 1338.64 t 0 r /Helvetica-Bold findfont 56.8825 sf 0 0 m (Background \(training sample\)) show NC gr  1 0 0 c 1250 1358 m20 0 0 0.933333 c 1 1 1 c 0 0 0.933333 c 238 206 m 16 X s 270 206 m 16 X s 238 199 m 15 Y s 286
 199 m 15 Y s 262 206 m20 286 204 m 16 X s 318 204 m 16 X s 286 197 m 15 Y s 334 197 m 15 Y s 310 204 m20 334 206 m 16 X s 365 206 m 17 X s 334 198 m 15 Y s 382 198 m 15 Y s 358 206 m20 382 202 m 16 X s 413 202 m 17 X s 382 195 m 15 Y s 430 195 m 15
 Y s 406 202 m20 430 203 m 16 X s 461 203 m 17 X s 430 196 m 15 Y s 478 196 m 15 Y s 454 203 m20 478 206 m 16 X s 509 206 m 17 X s 478 198 m 15 Y s 526 198 m 15 Y s 502 206 m20 526 219 m 16 X s 557 219 m 16 X s 526 211 m 15 Y s 573 211 m 15 Y s 549
 219 m20 573 243 m 17 X s 605 243 m 16 X s 573 236 m 15 Y s 621 236 m 15 Y s 597 243 m20 621 240 m 17 X s 653 240 m 16 X s 621 232 m 15 Y s 669 232 m 15 Y s 645 240 m20 669 248 m 17 X s 701 248 m 16 X s 669 240 m 15 Y s 717 240 m 15 Y s 693 248 m20
 717 236 m 17 X s 749 236 m 16 X s 717 228 m 15 Y s 765 228 m 15 Y s 741 236 m20 765 233 m 16 X s 797 233 m 16 X s 765 225 m 16 Y s 813 225 m 16 Y s 789 233 m20 813 236 m 16 X s 845 236 m 16 X s 813 229 m 15 Y s 861 229 m 15 Y s 837 236 m20 861 234 m
 16 X s 892 234 m 17 X s 861 227 m 15 Y s 909 227 m 15 Y s 885 234 m20 909 236 m 16 X s 940 236 m 17 X s 909 229 m 15 Y s 957 229 m 15 Y s 933 236 m20 957 229 m 16 X s 988 229 m 17 X s 957 221 m 15 Y s 1005 221 m 15 Y s 981 229 m20 1005 224 m 16 X s
 1036 224 m 17 X s 1005 217 m 15 Y s 1053 217 m 15 Y s 1029 224 m20 1053 225 m 16 X s 1084 225 m 16 X s 1053 217 m 15 Y s 1100 217 m 15 Y s 1076 225 m20 1100 227 m 17 X s 1132 227 m 16 X s 1100 219 m 16 Y s 1148 219 m 16 Y s 1124 227 m20 1148 234 m
 17 X s 1180 234 m 16 X s 1148 226 m 15 Y s 1196 226 m 15 Y s 1172 234 m20 1196 236 m 17 X s 1228 236 m 16 X s 1196 228 m 15 Y s 1244 228 m 15 Y s 1220 236 m20 1244 232 m 16 X s 1276 232 m 16 X s 1244 224 m 16 Y s 1292 224 m 16 Y s 1268 232 m20 1292
 236 m 16 X s 1324 236 m 16 X s 1292 229 m 15 Y s 1340 229 m 15 Y s 1316 236 m20 1340 231 m 16 X s 1371 231 m 17 X s 1340 223 m 15 Y s 1388 223 m 15 Y s 1364 231 m20 1388 242 m 16 X s 1419 242 m 17 X s 1388 235 m 15 Y s 1436 235 m 15 Y s 1412 242 m20
 1436 238 m 16 X s 1467 238 m 17 X s 1436 230 m 16 Y s 1484 230 m 16 Y s 1460 238 m20 1484 236 m 16 X s 1515 236 m 17 X s 1484 229 m 15 Y s 1532 229 m 15 Y s 1508 236 m20 1532 244 m 16 X s 1563 244 m 16 X s 1532 236 m 16 Y s 1579 236 m 16 Y s 1556
 244 m20 1579 255 m 17 X s 1611 255 m 16 X s 1579 247 m 15 Y s 1627 247 m 15 Y s 1603 255 m20 1627 253 m 17 X s 1659 253 m 16 X s 1627 245 m 15 Y s 1675 245 m 15 Y s 1651 253 m20 1675 257 m 17 X s 1707 257 m 16 X s 1675 249 m 15 Y s 1723 249 m 15 Y s
 1699 257 m20 1723 302 m 17 X s 1755 302 m 16 X s 1723 294 m 15 Y s 1771 294 m 15 Y s 1747 302 m20 1795 313 m s 1795 329 m s 1771 321 m 16 X s 1803 321 m 16 X s 1787 313 m 16 X s 1787 329 m 16 X s 1771 313 m 16 Y s 1819 313 m 16 Y s 1795 321 m20 1843
 325 m 1 Y s 1843 341 m 1 Y s 1819 334 m 16 X s 1851 334 m 16 X s 1835 325 m 16 X s 1835 342 m 16 X s 1819 326 m 15 Y s 1867 326 m 15 Y s 1843 334 m20 1867 296 m 16 X s 1898 296 m 17 X s 1867 288 m 15 Y s 1915 288 m 15 Y s 1891 296 m20 1939 300 m s
 1939 315 m s 1915 307 m 16 X s 1946 307 m 17 X s 1931 300 m 15 X s 1931 315 m 15 X s 1915 300 m 15 Y s 1963 300 m 15 Y s 1939 307 m20 1963 292 m 16 X s 1994 292 m 17 X s 1963 284 m 15 Y s 2011 284 m 15 Y s 1987 292 m20 2035 315 m 1 Y s 2035 331 m s
 2011 323 m 16 X s 2042 323 m 17 X s 2027 315 m 15 X s 2027 331 m 15 X s 2011 316 m 15 Y s 2059 316 m 15 Y s 2035 323 m20 2082 351 m 2 Y s 2082 368 m 1 Y s 2059 360 m 16 X s 2090 360 m 16 X s 2075 351 m 15 X s 2075 369 m 15 X s 2059 353 m 15 Y s 2106
 353 m 15 Y s 2082 360 m20 2130 1088 m 15 Y s 2130 1118 m 15 Y s 2106 1111 m 17 X s 2138 1111 m 16 X s 2123 1088 m 15 X s 2123 1133 m 15 X s 2106 1103 m 15 Y s 2154 1103 m 15 Y s 2130 1111 m20 1 0 0 c 1 1 1 c 1 0 0 c 262 1151 m 15 Y s 262 1181 m 16 Y
 s 238 1174 m 16 X s 270 1174 m 16 X s 254 1151 m 16 X s 254 1197 m 16 X s 238 1166 m 15 Y s 286 1166 m 15 Y s 262 1174 m20 310 330 m 1 Y s 310 346 m 1 Y s 286 339 m 16 X s 318 339 m 16 X s 302 330 m 16 X s 302 347 m 16 X s 286 331 m 15 Y s 334 331 m
 15 Y s 310 339 m20 334 264 m 16 X s 365 264 m 17 X s 334 256 m 15 Y s 382 256 m 15 Y s 358 264 m20 382 229 m 16 X s 413 229 m 17 X s 382 222 m 15 Y s 430 222 m 15 Y s 406 229 m20 430 217 m 16 X s 461 217 m 17 X s 430 209 m 15 Y s 478 209 m 15 Y s
 454 217 m20 478 209 m 16 X s 509 209 m 17 X s 478 202 m 15 Y s 526 202 m 15 Y s 502 209 m20 549 310 m 1 Y s 549 326 m s 526 318 m 16 X s 557 318 m 16 X s 542 310 m 15 X s 542 326 m 15 X s 526 311 m 15 Y s 573 311 m 15 Y s 549 318 m20 597 395 m 3 Y s
 597 413 m 3 Y s 573 405 m 17 X s 605 405 m 16 X s 590 395 m 15 X s 590 416 m 15 X s 573 398 m 15 Y s 621 398 m 15 Y s 597 405 m20 645 337 m 2 Y s 645 354 m 1 Y s 621 346 m 17 X s 653 346 m 16 X s 638 337 m 15 X s 638 355 m 15 X s 621 339 m 15 Y s
 669 339 m 15 Y s 645 346 m20 693 309 m 1 Y s 693 325 m s 669 317 m 17 X s 701 317 m 16 X s 686 309 m 15 X s 686 325 m 15 X s 669 310 m 15 Y s 717 310 m 15 Y s 693 317 m20 741 305 m s 741 320 m 1 Y s 717 313 m 17 X s 749 313 m 16 X s 734 305 m 15 X s
 734 321 m 15 X s 717 305 m 15 Y s 765 305 m 15 Y s 741 313 m20 765 295 m 16 X s 797 295 m 16 X s 765 287 m 15 Y s 813 287 m 15 Y s 789 295 m20 813 285 m 16 X s 845 285 m 16 X s 813 277 m 15 Y s 861 277 m 15 Y s 837 285 m20 861 257 m 16 X s 892 257 m
 17 X s 861 250 m 15 Y s 909 250 m 15 Y s 885 257 m20 909 254 m 16 X s 940 254 m 17 X s 909 246 m 16 Y s 957 246 m 16 Y s 933 254 m20 957 246 m 16 X s 988 246 m 17 X s 957 239 m 15 Y s 1005 239 m 15 Y s 981 246 m20 1005 240 m 16 X s 1036 240 m 17 X s
 1005 233 m 15 Y s 1053 233 m 15 Y s 1029 240 m20 1053 237 m 16 X s 1084 237 m 16 X s 1053 229 m 15 Y s 1100 229 m 15 Y s 1076 237 m20 1100 243 m 17 X s 1132 243 m 16 X s 1100 235 m 16 Y s 1148 235 m 16 Y s 1124 243 m20 1148 234 m 17 X s 1180 234 m
 16 X s 1148 227 m 15 Y s 1196 227 m 15 Y s 1172 234 m20 1196 234 m 17 X s 1228 234 m 16 X s 1196 227 m 15 Y s 1244 227 m 15 Y s 1220 234 m20 1244 222 m 16 X s 1276 222 m 16 X s 1244 214 m 16 Y s 1292 214 m 16 Y s 1268 222 m20 1292 223 m 16 X s 1324
 223 m 16 X s 1292 216 m 15 Y s 1340 216 m 15 Y s 1316 223 m20 1340 217 m 16 X s 1371 217 m 17 X s 1340 209 m 15 Y s 1388 209 m 15 Y s 1364 217 m20 1388 217 m 16 X s 1419 217 m 17 X s 1388 210 m 15 Y s 1436 210 m 15 Y s 1412 217 m20 1436 222 m 16 X s
 1467 222 m 17 X s 1436 214 m 16 Y s 1484 214 m 16 Y s 1460 222 m20 1484 212 m 16 X s 1515 212 m 17 X s 1484 205 m 15 Y s 1532 205 m 15 Y s 1508 212 m20 1532 218 m 16 X s 1563 218 m 16 X s 1532 211 m 15 Y s 1579 211 m 15 Y s 1556 218 m20 1579 221 m
 17 X s 1611 221 m 16 X s 1579 214 m 15 Y s 1627 214 m 15 Y s 1603 221 m20 1627 214 m 17 X s 1659 214 m 16 X s 1627 207 m 15 Y s 1675 207 m 15 Y s 1651 214 m20 1675 221 m 17 X s 1707 221 m 16 X s 1675 213 m 16 Y s 1723 213 m 16 Y s 1699 221 m20 1723
 219 m 17 X s 1755 219 m 16 X s 1723 212 m 15 Y s 1771 212 m 15 Y s 1747 219 m20 1771 227 m 16 X s 1803 227 m 16 X s 1771 219 m 16 Y s 1819 219 m 16 Y s 1795 227 m20 1819 230 m 16 X s 1851 230 m 16 X s 1819 222 m 15 Y s 1867 222 m 15 Y s 1843 230 m20
 1867 220 m 16 X s 1898 220 m 17 X s 1867 213 m 15 Y s 1915 213 m 15 Y s 1891 220 m20 1915 217 m 16 X s 1946 217 m 17 X s 1915 209 m 15 Y s 1963 209 m 15 Y s 1939 217 m20 1963 213 m 16 X s 1994 213 m 17 X s 1963 206 m 15 Y s 2011 206 m 15 Y s 1987
 213 m20 2011 213 m 16 X s 2042 213 m 17 X s 2011 205 m 15 Y s 2059 205 m 15 Y s 2035 213 m20 2059 207 m 16 X s 2090 207 m 16 X s 2059 199 m 15 Y s 2106 199 m 15 Y s 2082 207 m20 2106 206 m 17 X s 2138 206 m 16 X s 2106 199 m 15 Y s 2154 199 m 15 Y s
 2130 206 m20 black
 gsave  2268 1676 0 0 C 272.126 1240.34 t 0 r /Helvetica-Bold findfont 49.2982 sf 0 0 m (Kolmogorov\255Smirnov test: signal \(background\) probability =  0.86 \(0.261\)) show NC gr  238 201 m 1916 X s 430 244 m -43 Y s 468 222 m -21 Y s 506 222 m -21
 Y s 545 222 m -21 Y s 583 222 m -21 Y s 621 244 m -43 Y s 660 222 m -21 Y s 698 222 m -21 Y s 736 222 m -21 Y s 775 222 m -21 Y s 813 244 m -43 Y s 851 222 m -21 Y s 890 222 m -21 Y s 928 222 m -21 Y s 966 222 m -21 Y s 1005 244 m -43 Y s 1043 222 m
 -21 Y s 1081 222 m -21 Y s 1120 222 m -21 Y s 1158 222 m -21 Y s 1196 244 m -43 Y s 1234 222 m -21 Y s 1273 222 m -21 Y s 1311 222 m -21 Y s 1349 222 m -21 Y s 1388 244 m -43 Y s 1426 222 m -21 Y s 1464 222 m -21 Y s 1503 222 m -21 Y s 1541 222 m
 -21 Y s 1579 244 m -43 Y s 1618 222 m -21 Y s 1656 222 m -21 Y s 1694 222 m -21 Y s 1733 222 m -21 Y s 1771 244 m -43 Y s 1809 222 m -21 Y s 1848 222 m -21 Y s 1886 222 m -21 Y s 1924 222 m -21 Y s 1963 244 m -43 Y s 2001 222 m -21 Y s 2039 222 m
 -21 Y s 2078 222 m -21 Y s 2116 222 m -21 Y s 2154 244 m -43 Y s 430 244 m -43 Y s 391 222 m -21 Y s 353 222 m -21 Y s 315 222 m -21 Y s 276 222 m -21 Y s 2154 244 m -43 Y s 238 1509 m 1916 X s 430 1466 m 43 Y s 468 1487 m 22 Y s 506 1487 m 22 Y s
 545 1487 m 22 Y s 583 1487 m 22 Y s 621 1466 m 43 Y s 660 1487 m 22 Y s 698 1487 m 22 Y s 736 1487 m 22 Y s 775 1487 m 22 Y s 813 1466 m 43 Y s 851 1487 m 22 Y s 890 1487 m 22 Y s 928 1487 m 22 Y s 966 1487 m 22 Y s 1005 1466 m 43 Y s 1043 1487 m 22
 Y s 1081 1487 m 22 Y s 1120 1487 m 22 Y s 1158 1487 m 22 Y s 1196 1466 m 43 Y s 1234 1487 m 22 Y s 1273 1487 m 22 Y s 1311 1487 m 22 Y s 1349 1487 m 22 Y s 1388 1466 m 43 Y s 1426 1487 m 22 Y s 1464 1487 m 22 Y s 1503 1487 m 22 Y s 1541 1487 m 22 Y
 s 1579 1466 m 43 Y s 1618 1487 m 22 Y s 1656 1487 m 22 Y s 1694 1487 m 22 Y s 1733 1487 m 22 Y s 1771 1466 m 43 Y s 1809 1487 m 22 Y s 1848 1487 m 22 Y s 1886 1487 m 22 Y s 1924 1487 m 22 Y s 1963 1466 m 43 Y s 2001 1487 m 22 Y s 2039 1487 m 22 Y s
 2078 1487 m 22 Y s 2116 1487 m 22 Y s 2154 1466 m 43 Y s 430 1466 m 43 Y s 391 1487 m 22 Y s 353 1487 m 22 Y s 315 1487 m 22 Y s 276 1487 m 22 Y s 2154 1466 m 43 Y s 238 201 m 1308 Y s 291 201 m -53 X s 265 236 m -27 X s 265 270 m -27 X s 265 304 m
 -27 X s 291 339 m -53 X s 265 373 m -27 X s 265 407 m -27 X s 265 442 m -27 X s 291 476 m -53 X s 265 511 m -27 X s 265 545 m -27 X s 265 579 m -27 X s 291 614 m -53 X s 265 648 m -27 X s 265 683 m -27 X s 265 717 m -27 X s 291 751 m -53 X s 265 786
 m -27 X s 265 820 m -27 X s 265 854 m -27 X s 291 889 m -53 X s 265 923 m -27 X s 265 958 m -27 X s 265 992 m -27 X s 291 1026 m -53 X s 265 1061 m -27 X s 265 1095 m -27 X s 265 1129 m -27 X s 291 1164 m -53 X s 265 1198 m -27 X s 265 1233 m -27 X
 s 265 1267 m -27 X s 291 1301 m -53 X s 265 1336 m -27 X s 265 1370 m -27 X s 265 1405 m -27 X s 291 1439 m -53 X s 291 1439 m -53 X s 265 1473 m -27 X s 265 1508 m -27 X s 2154 201 m 1308 Y s 2101 201 m 53 X s 2128 236 m 26 X s 2128 270 m 26 X s
 2128 304 m 26 X s 2101 339 m 53 X s 2128 373 m 26 X s 2128 407 m 26 X s 2128 442 m 26 X s 2101 476 m 53 X s 2128 511 m 26 X s 2128 545 m 26 X s 2128 579 m 26 X s 2101 614 m 53 X s 2128 648 m 26 X s 2128 683 m 26 X s 2128 717 m 26 X s 2101 751 m 53 X
 s 2128 786 m 26 X s 2128 820 m 26 X s 2128 854 m 26 X s 2101 889 m 53 X s 2128 923 m 26 X s 2128 958 m 26 X s 2128 992 m 26 X s 2101 1026 m 53 X s 2128 1061 m 26 X s 2128 1095 m 26 X s 2128 1129 m 26 X s 2101 1164 m 53 X s 2128 1198 m 26 X s 2128
 1233 m 26 X s 2128 1267 m 26 X s 2101 1301 m 53 X s 2128 1336 m 26 X s 2128 1370 m 26 X s 2128 1405 m 26 X s 2101 1439 m 53 X s 2101 1439 m 53 X s 2128 1473 m 26 X s 2128 1508 m 26 X s
 gsave  2268 1676 0 0 C 2211.02 192.756 t 90 r /Helvetica-Bold findfont 45.506 sf 0 0 m (U/O\255flow \(S,B\): \(0.0, 0.0\)% / \(0.0, 0.0\)%) show NC gr  0.490196 0.545098 0.615686 c 0.364706 0.419608 0.490196 c 1587 96 23 1572 bf 0.490196 0.545098
 0.615686 c 23 1572 m 1587 X s 1610 1572 m 96 Y s 1610 1668 m -1587 X s 23 1668 m -96 Y s 1 1 1 c black 1 1 1 c
 gsave  2268 1676 0 0 C 98.5964 1600.29 t 0 r /Helvetica-Bold findfont 68.259 sf 0 0 m (TMVA overtraining check for classifier: MLP) show NC gr 
 gr  gr showpage
end
%%EOF
