%!PS-Adobe-2.0 EPSF-2.0
%%BoundingBox:  0 0 567 419
%%Title: dataset/plots/overtrain_LikelihoodPCA.eps: TMVA comparison LikelihoodPCA
%%Creator: ROOT Version 6.12/06
%%CreationDate: Mon May 21 16:44:59 2018
%%DocumentNeededResources: ProcSet (FontSetInit)
%%EndComments
%%BeginProlog
80 dict begin
/s {stroke} def /l {lineto} def /m {moveto} def /t {translate} def
/r {rotate} def /rl {roll}  def /R {repeat} def
/d {rlineto} def /rm {rmoveto} def /gr {grestore} def /f {eofill} def
/c {setrgbcolor} def /black {0 setgray} def /sd {setdash} def
/cl {closepath} def /sf {scalefont setfont} def /lw {setlinewidth} def
/box {m dup 0 exch d exch 0 d 0 exch neg d cl} def
/NC{systemdict begin initclip end}def/C{NC box clip newpath}def
/bl {box s} def /bf {gsave box gsave f grestore 1 lw [] 0 sd s grestore} def /Y { 0 exch d} def /X { 0 d} def 
/K {{pop pop 0 moveto} exch kshow} bind def
/ita {/ang 15 def gsave [1 0 ang dup sin exch cos div 1 0 0] concat} def 
/mp {newpath /y exch def /x exch def} def
/side {[w .77 mul w .23 mul] .385 w mul sd w 0 l currentpoint t -144 r} def
/mr {mp x y w2 0 360 arc} def /m24 {mr s} def /m20 {mr f} def
/mb {mp x y w2 add m w2 neg 0 d 0 w neg d w 0 d 0 w d cl} def
/mt {mp x y w2 add m w2 neg w neg d w 0 d cl} def
/w4 {w 4 div} def
/w6 {w 6 div} def
/w8 {w 8 div} def
/m21 {mb f} def /m25 {mb s} def /m22 {mt f} def /m26{mt s} def
/m23 {mp x y w2 sub m w2 w d w neg 0 d cl f} def
/m27 {mp x y w2 add m w3 neg w2 neg d w3 w2 neg d w3 w2 d cl s} def
/m28 {mp x w2 sub y w2 sub w3 add m w3 0 d  0 w3 neg d w3 0 d 0 w3 d w3 0 d  0 w3 d w3 neg 0 d 0 w3 d w3 neg 0 d 0 w3 neg d w3 neg 0 d cl s } def
/m29 {mp gsave x w2 sub y w2 add w3 sub m currentpoint t 4 {side} repeat cl fill gr} def
/m30 {mp gsave x w2 sub y w2 add w3 sub m currentpoint t 4 {side} repeat cl s gr} def
/m31 {mp x y w2 sub m 0 w d x w2 sub y m w 0 d x w2 sub y w2 add m w w neg d x w2 sub y w2 sub m w w d s} def
/m32 {mp x y w2 sub m w2 w d w neg 0 d cl s} def
/m33 {mp x y w2 add m w3 neg w2 neg d w3 w2 neg d w3 w2 d cl f} def
/m34 {mp x w2 sub y w2 sub w3 add m w3 0 d  0 w3 neg d w3 0 d 0 w3 d w3 0 d  0 w3 d w3 neg 0 d 0 w3 d w3 neg 0 d 0 w3 neg d w3 neg 0 d cl f } def
/m35 {mp x y w2 add m w2 neg w2 neg d w2 w2 neg d w2 w2 d w2 neg w2 d x y w2 sub m 0 w d x w2 sub y m w 0 d s} def
/m36 {mb x w2 sub y w2 add m w w neg d x w2 sub y w2 sub m w w d s} def
/m37 {mp x y m w4 neg w2 d w4 neg w2 neg d w2 0 d  w4 neg w2 neg d w2 0 d w4 neg w2 d w2 0 d w4 neg w2 d w4 neg w2 neg d cl s} def
/m38 {mp x w4 sub y w2 add m w4 neg w4 neg d 0 w2 neg d w4 w4 neg d w2 0 d w4 w4 d 0 w2 d w4 neg w4 d w2 neg 0 d x y w2 sub m 0 w d x w2 sub y m w 0 d cl s} def
/m39 {mp x y m w4 neg w2 d w4 neg w2 neg d w2 0 d  w4 neg w2 neg d w2 0 d w4 neg w2 d w2 0 d w4 neg w2 d w4 neg w2 neg d cl f} def
/m40 {mp x y m w4 w2 d w4 w4 neg d w2 neg w4 neg d w2 w4 neg d w4 neg w4 neg d w4 neg w2 d w4 neg w2 neg d w4 neg w4 d w2 w4 d w2 neg w4 d w4 w4 d w4 w2 neg d cl s} def
/m41 {mp x y m w4 w2 d w4 w4 neg d w2 neg w4 neg d w2 w4 neg d w4 neg w4 neg d w4 neg w2 d w4 neg w2 neg d w4 neg w4 d w2 w4 d w2 neg w4 d w4 w4 d w4 w2 neg d cl f} def
/m42 {mp x y w2 add m w8 neg w2 -3 4 div mul d w2 -3 4 div mul w8 neg d w2 3 4 div mul w8 neg d w8 w2 -3 4 div mul d w8 w2 3 4 div mul d w2 3 4 div mul w8 d w2 -3 4 div mul w8 d w8 neg w2 3 4 div mul d cl s} def
/m43 {mp x y w2 add m w8 neg w2 -3 4 div mul d w2 -3 4 div mul w8 neg d w2 3 4 div mul w8 neg d w8 w2 -3 4 div mul d w8 w2 3 4 div mul d w2 3 4 div mul w8 d w2 -3 4 div mul w8 d w8 neg w2 3 4 div mul d cl f} def
/m44 {mp x y m w6 neg w2 d w2 2 3 div mul 0 d w6 neg w2 neg d w2 w6 d 0 w2 -2 3 div mul d w2 neg w6 d w6 w2 neg d w2 -2 3 div mul 0 d w6 w2 d w2 neg w6 neg d 0 w2 2 3 div mul d w2 w6 neg d cl s} def
/m45 {mp x y m w6 neg w2 d w2 2 3 div mul 0 d w6 neg w2 neg d w2 w6 d 0 w2 -2 3 div mul d w2 neg w6 d w6 w2 neg d w2 -2 3 div mul 0 d w6 w2 d w2 neg w6 neg d 0 w2 2 3 div mul d w2 w6 neg d cl f} def
/m46 {mp x y w4 add m w4 neg w4 d w4 neg w4 neg d  w4 w4 neg d w4 neg w4 neg d w4 w4 neg d w4 w4 d w4 w4 neg d w4 w4 d w4 neg w4 d w4 w4 d w4 neg w4 d w4 neg w4 neg d cl s} def
/m47 {mp x y w4 add m w4 neg w4 d w4 neg w4 neg d w4 w4 neg d w4 neg w4 neg d  w4 w4 neg d w4 w4 d w4 w4 neg d w4 w4 d w4 neg w4 d w4 w4 d w4 neg w4 d w4 neg w4 neg d cl f} def
/m48 {mp x y w4 add m w4 neg w4 d w4 neg w4 neg d w4 w4 neg d  w4 neg w4 neg d w4 w4 neg d w4 w4 d w4 w4 neg d w4 w4 d w4 neg w4 d w4 w4 d w4 neg w4 d w4 neg w4 neg d  w4 w4 neg d w4 neg w4 neg d w4 neg w4 d w4 w4 d cl f} def
/m49 {mp x w2 sub w3 add y w2 sub w3 add m  0 w3 neg d w3 0 d 0 w3 d w3 0 d 0 w3 d w3 neg 0 d 0 w3 d w3 neg 0 d 0 w3 neg d w3 neg 0 d 0 w3 neg d w3 0 d 0 w3 d w3 0 d 0 w3 neg d w3 neg 0 d cl f } def
/m2 {mp x y w2 sub m 0 w d x w2 sub y m w 0 d s} def
/m5 {mp x w2 sub y w2 sub m w w d x w2 sub y w2 add m w w neg d s} def
%%IncludeResource: ProcSet (FontSetInit)
%%IncludeResource: font Times-Roman
%%IncludeResource: font Times-Italic
%%IncludeResource: font Times-Bold
%%IncludeResource: font Times-BoldItalic
%%IncludeResource: font Helvetica
%%IncludeResource: font Helvetica-Oblique
%%IncludeResource: font Helvetica-Bold
%%IncludeResource: font Helvetica-BoldOblique
%%IncludeResource: font Courier
%%IncludeResource: font Courier-Oblique
%%IncludeResource: font Courier-Bold
%%IncludeResource: font Courier-BoldOblique
%%IncludeResource: font Symbol
%%IncludeResource: font ZapfDingbats
/reEncode {exch findfont dup length dict begin {1 index /FID eq  {pop pop} {def} ifelse } forall /Encoding exch def currentdict end dup /FontName get exch definefont pop } def [/Times-Bold /Times-Italic /Times-BoldItalic /Helvetica /Helvetica-Oblique
 /Helvetica-Bold /Helvetica-BoldOblique /Courier /Courier-Oblique /Courier-Bold /Courier-BoldOblique /Times-Roman /AvantGarde-Book /AvantGarde-BookOblique /AvantGarde-Demi /AvantGarde-DemiOblique /Bookman-Demi /Bookman-DemiItalic /Bookman-Light
 /Bookman-LightItalic /Helvetica-Narrow /Helvetica-Narrow-Bold /Helvetica-Narrow-BoldOblique /Helvetica-Narrow-Oblique /NewCenturySchlbk-Roman /NewCenturySchlbk-Bold /NewCenturySchlbk-BoldItalic /NewCenturySchlbk-Italic /Palatino-Bold
 /Palatino-BoldItalic /Palatino-Italic /Palatino-Roman ] {ISOLatin1Encoding reEncode } forall
%%EndProlog
%%BeginSetup
%%EndSetup
newpath  gsave  .25 .25 scale  gsave  0 0 t 0.490196 0.545098 0.615686 c[  ] 0 sd 3 lw 0.941176 0.941176 0.941176 c 2268 1676 0 0 bf black 1 1 0.992157 c 1916 1308 238 201 bf black 1916 1308 238 201 bl 1 1 0.992157 c 1916 1308 238 201 bf black 1916
 1308 238 201 bl 238 201 m 1916 X s 238 244 m -43 Y s 334 222 m -21 Y s 430 222 m -21 Y s 526 222 m -21 Y s 621 244 m -43 Y s 717 222 m -21 Y s 813 222 m -21 Y s 909 222 m -21 Y s 1005 244 m -43 Y s 1100 222 m -21 Y s 1196 222 m -21 Y s 1292 222 m
 -21 Y s 1388 244 m -43 Y s 1484 222 m -21 Y s 1579 222 m -21 Y s 1675 222 m -21 Y s 1771 244 m -43 Y s 1867 222 m -21 Y s 1963 222 m -21 Y s 2059 222 m -21 Y s 2154 244 m -43 Y s 238 244 m -43 Y s 2154 244 m -43 Y s
 gsave  2268 1676 0 0 C 216.154 128.934 t 0 r /Helvetica-Bold findfont 64.4669 sf 0 0 m (0) show NC gr 
 gsave  2268 1676 0 0 C 572.617 128.934 t 0 r /Helvetica-Bold findfont 64.4669 sf 0 0 m (0.2) show NC gr 
 gsave  2268 1676 0 0 C 955.626 128.934 t 0 r /Helvetica-Bold findfont 64.4669 sf 0 0 m (0.4) show NC gr 
 gsave  2268 1676 0 0 C 1338.64 128.934 t 0 r /Helvetica-Bold findfont 64.4669 sf 0 0 m (0.6) show NC gr 
 gsave  2268 1676 0 0 C 1725.44 128.934 t 0 r /Helvetica-Bold findfont 64.4669 sf 0 0 m (0.8) show NC gr 
 gsave  2268 1676 0 0 C 2138.78 128.934 t 0 r /Helvetica-Bold findfont 64.4669 sf 0 0 m (1) show NC gr 
 gsave  2268 1676 0 0 C 1300.71 30.3373 t 0 r /Helvetica-Bold findfont 72.0512 sf 0 0 m (LikelihoodPCA response) show NC gr  238 1509 m 1916 X s 238 1466 m 43 Y s 334 1487 m 22 Y s 430 1487 m 22 Y s 526 1487 m 22 Y s 621 1466 m 43 Y s 717 1487 m 22 Y
 s 813 1487 m 22 Y s 909 1487 m 22 Y s 1005 1466 m 43 Y s 1100 1487 m 22 Y s 1196 1487 m 22 Y s 1292 1487 m 22 Y s 1388 1466 m 43 Y s 1484 1487 m 22 Y s 1579 1487 m 22 Y s 1675 1487 m 22 Y s 1771 1466 m 43 Y s 1867 1487 m 22 Y s 1963 1487 m 22 Y s
 2059 1487 m 22 Y s 2154 1466 m 43 Y s 238 1466 m 43 Y s 2154 1466 m 43 Y s 238 201 m 1308 Y s 291 201 m -53 X s 265 231 m -27 X s 265 262 m -27 X s 265 292 m -27 X s 291 322 m -53 X s 265 353 m -27 X s 265 383 m -27 X s 265 413 m -27 X s 291 444 m
 -53 X s 265 474 m -27 X s 265 504 m -27 X s 265 535 m -27 X s 291 565 m -53 X s 265 595 m -27 X s 265 626 m -27 X s 265 656 m -27 X s 291 686 m -53 X s 265 717 m -27 X s 265 747 m -27 X s 265 777 m -27 X s 291 808 m -53 X s 265 838 m -27 X s 265 868
 m -27 X s 265 899 m -27 X s 291 929 m -53 X s 265 959 m -27 X s 265 989 m -27 X s 265 1020 m -27 X s 291 1050 m -53 X s 265 1080 m -27 X s 265 1111 m -27 X s 265 1141 m -27 X s 291 1171 m -53 X s 265 1202 m -27 X s 265 1232 m -27 X s 265 1262 m -27
 X s 291 1293 m -53 X s 265 1323 m -27 X s 265 1353 m -27 X s 265 1384 m -27 X s 291 1414 m -53 X s 291 1414 m -53 X s 265 1444 m -27 X s 265 1475 m -27 X s 265 1505 m -27 X s
 gsave  2268 1676 0 0 C 174.44 178.232 t 0 r /Helvetica-Bold findfont 64.4669 sf 0 0 m (0) show NC gr 
 gsave  2268 1676 0 0 C 174.44 299.581 t 0 r /Helvetica-Bold findfont 64.4669 sf 0 0 m (2) show NC gr 
 gsave  2268 1676 0 0 C 174.44 420.931 t 0 r /Helvetica-Bold findfont 64.4669 sf 0 0 m (4) show NC gr 
 gsave  2268 1676 0 0 C 174.44 538.488 t 0 r /Helvetica-Bold findfont 64.4669 sf 0 0 m (6) show NC gr 
 gsave  2268 1676 0 0 C 174.44 659.837 t 0 r /Helvetica-Bold findfont 64.4669 sf 0 0 m (8) show NC gr 
 gsave  2268 1676 0 0 C 136.518 781.187 t 0 r /Helvetica-Bold findfont 64.4669 sf 0 0 m (10) show NC gr 
 gsave  2268 1676 0 0 C 136.518 902.536 t 0 r /Helvetica-Bold findfont 64.4669 sf 0 0 m (12) show NC gr 
 gsave  2268 1676 0 0 C 136.518 1023.89 t 0 r /Helvetica-Bold findfont 64.4669 sf 0 0 m (14) show NC gr 
 gsave  2268 1676 0 0 C 136.518 1145.23 t 0 r /Helvetica-Bold findfont 64.4669 sf 0 0 m (16) show NC gr 
 gsave  2268 1676 0 0 C 136.518 1266.58 t 0 r /Helvetica-Bold findfont 64.4669 sf 0 0 m (18) show NC gr 
 gsave  2268 1676 0 0 C 136.518 1387.93 t 0 r /Helvetica-Bold findfont 64.4669 sf 0 0 m (20) show NC gr 
 gsave  2268 1676 0 0 C 64.4669 1425.86 t 90 r /Helvetica-Bold findfont 72.0512 sf 0 0 m (dx) show NC gr 
 gsave  2268 1676 0 0 C 30.3373 1406.89 t 90 r /Helvetica-Bold findfont 45.506 sf 0 0 m ( ) show NC gr 
 gsave  2268 1676 0 0 C 64.4669 1384.14 t 90 r /Helvetica-Bold findfont 72.0512 sf 0 0 m (/) show NC gr 
 gsave  2268 1676 0 0 C 30.3373 1365.18 t 90 r /Helvetica-Bold findfont 45.506 sf 0 0 m ( ) show NC gr 
 gsave  2268 1676 0 0 C 60.6747 1092.14 t 90 r /Helvetica-Bold findfont 72.0512 sf 0 0 m (\(1/N\) dN) show NC gr  2154 201 m 1308 Y s 2101 201 m 53 X s 2128 231 m 26 X s 2128 262 m 26 X s 2128 292 m 26 X s 2101 322 m 53 X s 2128 353 m 26 X s 2128 383
 m 26 X s 2128 413 m 26 X s 2101 444 m 53 X s 2128 474 m 26 X s 2128 504 m 26 X s 2128 535 m 26 X s 2101 565 m 53 X s 2128 595 m 26 X s 2128 626 m 26 X s 2128 656 m 26 X s 2101 686 m 53 X s 2128 717 m 26 X s 2128 747 m 26 X s 2128 777 m 26 X s 2101
 808 m 53 X s 2128 838 m 26 X s 2128 868 m 26 X s 2128 899 m 26 X s 2101 929 m 53 X s 2128 959 m 26 X s 2128 989 m 26 X s 2128 1020 m 26 X s 2101 1050 m 53 X s 2128 1080 m 26 X s 2128 1111 m 26 X s 2128 1141 m 26 X s 2101 1171 m 53 X s 2128 1202 m 26
 X s 2128 1232 m 26 X s 2128 1262 m 26 X s 2101 1293 m 53 X s 2128 1323 m 26 X s 2128 1353 m 26 X s 2128 1384 m 26 X s 2101 1414 m 53 X s 2101 1414 m 53 X s 2128 1444 m 26 X s 2128 1475 m 26 X s 2128 1505 m 26 X s 0.490196 0.545098 0.615686 c 1 1 1 c
 0.490196 0.545098 0.615686 c 907 202 238 1307 bl 238 1307 m 907 X s 1145 1307 m 202 Y s 1145 1509 m -907 X s 238 1509 m -202 Y s black
 gsave  2268 1676 0 0 C 417.138 1437.23 t 0 r /Helvetica-Bold findfont 56.8825 sf 0 0 m (Signal \(test sample\)) show NC gr  0.49 0.6 0.82 c 265 1423 m 127 X 70 Y -127 X f 0 0 0.933333 c 265 1493 m 127 X s 265 1423 m 127 X s 392 1423 m 70 Y s 265
 1423 m 70 Y s black
 gsave  2268 1676 0 0 C 417.138 1338.64 t 0 r /Helvetica-Bold findfont 56.8825 sf 0 0 m (Background \(test sample\)) show NC gr  1 0 0 c 392 1354 m -32 -32 d s 383 1393 m -71 -71 d s 335 1393 m -70 -69 d s 286 1393 m -21 -21 d s 0 0 0.933333 c 1 0 0
 c 265 1393 m 127 X s 265 1322 m 127 X s 392 1322 m 71 Y s 265 1322 m 71 Y s 0 0 0.933333 c 0.49 0.6 0.82 c black 0.49 0.6 0.82 c 238 201 m 8 Y 48 X -5 Y 48 X -1 Y 96 X -1 Y 48 X 2 Y 48 X 1 Y 95 X 36 Y 48 X 26 Y 48 X -20 Y 48 X -4 Y 48 X -2 Y 48 X -4
 Y 48 X -2 Y 48 X -1 Y 48 X -8 Y 48 X 7 Y 95 X -2 Y 48 X -9 Y 48 X 1 Y 48 X 1 Y 48 X 5 Y 48 X 4 Y 48 X 5 Y 48 X 7 Y 48 X 2 Y 47 X -1 Y 96 X 6 Y 48 X 7 Y 96 X 1 Y 48 X 6 Y 48 X 41 Y 48 X -11 Y 48 X -22 Y 48 X 5 Y 47 X 887 Y 48 X -965 Y f 0 0 0.933333
 c 0.49 0.6 0.82 c 0 0 0.933333 c 238 209 m 48 X -5 Y 48 X -1 Y 96 X -1 Y 48 X 2 Y 48 X 1 Y 95 X 36 Y 48 X 26 Y 48 X -20 Y 48 X -4 Y 48 X -2 Y 48 X -4 Y 48 X -2 Y 48 X -1 Y 48 X -8 Y 48 X 7 Y 95 X -2 Y 48 X -9 Y 48 X 1 Y 48 X 1 Y 48 X 5 Y 48 X 4 Y 48
 X 5 Y 48 X 7 Y 48 X 2 Y 47 X -1 Y 96 X 6 Y 48 X 7 Y 96 X 1 Y 48 X 6 Y 48 X 41 Y 48 X -11 Y 48 X -22 Y 48 X 5 Y 47 X 887 Y 48 X -965 Y s 1 0 0 c black 1 0 0 c 2130 206 m -5 -5 d s 2082 206 m -5 -5 d s 2035 207 m -6 -6 d s 1995 215 m -14 -14 d s 1959
 227 m -26 -26 d s 1897 214 m -12 -13 d s 1851 216 m -14 -15 d s 1803 216 m -14 -15 d s 1751 211 m -10 -10 d s 1705 213 m -13 -12 d s 1656 213 m -12 -12 d s 1611 216 m -15 -15 d s 1562 215 m -14 -14 d s 1517 219 m -17 -18 d s 1470 220 m -18 -19 d s
 1416 213 m -12 -12 d s 1375 221 m -19 -20 d s 1321 215 m -13 -14 d s 1272 213 m -13 -12 d s 1232 222 m -21 -21 d s 1182 220 m -19 -19 d s 1139 225 m -24 -24 d s 1094 228 m -27 -27 d s 1045 227 m -26 -26 d s 991 222 m -20 -21 d s 957 235 m -34 -34 d
 s 918 245 m -43 -44 d s 877 252 m -50 -51 d s 845 268 m -67 -67 d s 813 284 m -83 -83 d s 780 299 m -98 -98 d s 765 332 m -131 -131 d s 761 376 m -140 -139 d s 589 204 m -3 -3 d s 717 380 m -96 -95 d s 546 209 m -8 -8 d s 717 429 m -96 -96 d s 498
 209 m -8 -8 d s 717 477 m -48 -48 d s 625 384 m -4 -3 d s 450 209 m -8 -8 d s 686 494 m -17 -17 d s 407 215 m -13 -14 d s 366 222 m -21 -21 d s 334 238 m -37 -37 d s 308 260 m -59 -59 d s 286 286 m -48 -48 d s 286 334 m -48 -48 d s 286 382 m -48 -48
 d s 286 430 m -48 -48 d s 286 478 m -48 -47 d s 286 527 m -48 -48 d s 286 575 m -48 -48 d s 286 623 m -48 -48 d s 286 671 m -48 -48 d s 286 719 m -48 -48 d s 286 767 m -48 -48 d s 286 815 m -48 -48 d s 286 863 m -48 -48 d s 286 911 m -48 -48 d s 286
 959 m -48 -47 d s 286 1008 m -48 -48 d s 286 1056 m -48 -48 d s 286 1104 m -48 -48 d s 286 1152 m -48 -48 d s 286 1200 m -48 -48 d s 245 1207 m -7 -7 d s 238 1207 m 48 X -947 Y 48 X -38 Y 48 X -7 Y 48 X -6 Y 143 X -5 Y 48 X 180 Y 48 X 110 Y 48 X
 -118 Y 48 X -77 Y 48 X -31 Y 48 X -16 Y 48 X -7 Y 48 X -23 Y 48 X 5 Y 48 X 1 Y 47 X -3 Y 48 X -5 Y 48 X 2 Y 48 X -9 Y 48 X 2 Y 48 X 6 Y 48 X -8 Y 48 X 7 Y 48 X -1 Y 48 X -4 Y 47 X 1 Y 48 X -3 Y 96 X -2 Y 48 X 5 Y 96 X -2 Y 48 X 13 Y 48 X -12 Y 48 X
 -8 Y 48 X -1 Y 95 X -5 Y s 0.490196 0.545098 0.615686 c 1 1 1 c 0.490196 0.545098 0.615686 c 952 202 1202 1307 bl 1202 1307 m 952 X s 2154 1307 m 202 Y s 2154 1509 m -952 X s 1202 1509 m -202 Y s black
 gsave  2268 1676 0 0 C 1296.92 1437.23 t 0 r /Helvetica-Bold findfont 56.8825 sf 0 0 m (Signal \(training sample\)) show NC gr  0 0 0.933333 c /w 21 def /w2 {w 2 div} def /w3 {w 3 div} def 1250 1458 m20 black
 gsave  2268 1676 0 0 C 1296.92 1338.64 t 0 r /Helvetica-Bold findfont 56.8825 sf 0 0 m (Background \(training sample\)) show NC gr  1 0 0 c 1250 1358 m20 0 0 0.933333 c 1 1 1 c 0 0 0.933333 c 238 208 m 16 X s 270 208 m 16 X s 238 200 m 16 Y s 286
 200 m 16 Y s 262 208 m20 286 206 m 16 X s 318 206 m 16 X s 286 198 m 16 Y s 334 198 m 16 Y s 310 206 m20 334 203 m 16 X s 365 203 m 17 X s 334 195 m 16 Y s 382 195 m 16 Y s 358 203 m20 382 205 m 16 X s 413 205 m 17 X s 382 197 m 16 Y s 430 197 m 16
 Y s 406 205 m20 430 203 m 16 X s 461 203 m 17 X s 430 195 m 15 Y s 478 195 m 15 Y s 454 203 m20 478 203 m 16 X s 509 203 m 17 X s 478 195 m 16 Y s 526 195 m 16 Y s 502 203 m20 526 204 m 16 X s 557 204 m 16 X s 526 196 m 16 Y s 573 196 m 16 Y s 549
 204 m20 573 203 m 17 X s 605 203 m 16 X s 573 195 m 15 Y s 621 195 m 15 Y s 597 203 m20 621 242 m 17 X s 653 242 m 16 X s 621 234 m 15 Y s 669 234 m 15 Y s 645 242 m20 669 265 m 17 X s 701 265 m 16 X s 669 257 m 15 Y s 717 257 m 15 Y s 693 265 m20
 717 249 m 17 X s 749 249 m 16 X s 717 242 m 15 Y s 765 242 m 15 Y s 741 249 m20 765 248 m 16 X s 797 248 m 16 X s 765 240 m 15 Y s 813 240 m 15 Y s 789 248 m20 813 242 m 16 X s 845 242 m 16 X s 813 234 m 15 Y s 861 234 m 15 Y s 837 242 m20 861 240 m
 16 X s 892 240 m 17 X s 861 232 m 16 Y s 909 232 m 16 Y s 885 240 m20 909 242 m 16 X s 940 242 m 17 X s 909 234 m 15 Y s 957 234 m 15 Y s 933 242 m20 957 229 m 16 X s 988 229 m 17 X s 957 221 m 15 Y s 1005 221 m 15 Y s 981 229 m20 1005 226 m 16 X s
 1036 226 m 17 X s 1005 218 m 15 Y s 1053 218 m 15 Y s 1029 226 m20 1053 226 m 16 X s 1084 226 m 16 X s 1053 219 m 15 Y s 1100 219 m 15 Y s 1076 226 m20 1100 229 m 17 X s 1132 229 m 16 X s 1100 221 m 15 Y s 1148 221 m 15 Y s 1124 229 m20 1148 223 m
 17 X s 1180 223 m 16 X s 1148 216 m 15 Y s 1196 216 m 15 Y s 1172 223 m20 1196 225 m 17 X s 1228 225 m 16 X s 1196 217 m 15 Y s 1244 217 m 15 Y s 1220 225 m20 1244 230 m 16 X s 1276 230 m 16 X s 1244 223 m 15 Y s 1292 223 m 15 Y s 1268 230 m20 1292
 224 m 16 X s 1324 224 m 16 X s 1292 217 m 15 Y s 1340 217 m 15 Y s 1316 224 m20 1340 228 m 16 X s 1371 228 m 17 X s 1340 220 m 15 Y s 1388 220 m 15 Y s 1364 228 m20 1388 241 m 16 X s 1419 241 m 17 X s 1388 233 m 16 Y s 1436 233 m 16 Y s 1412 241 m20
 1436 235 m 16 X s 1467 235 m 17 X s 1436 228 m 15 Y s 1484 228 m 15 Y s 1460 235 m20 1484 236 m 16 X s 1515 236 m 17 X s 1484 228 m 15 Y s 1532 228 m 15 Y s 1508 236 m20 1532 239 m 16 X s 1563 239 m 16 X s 1532 232 m 15 Y s 1579 232 m 15 Y s 1556
 239 m20 1579 250 m 17 X s 1611 250 m 16 X s 1579 242 m 15 Y s 1627 242 m 15 Y s 1603 250 m20 1627 245 m 17 X s 1659 245 m 16 X s 1627 237 m 15 Y s 1675 237 m 15 Y s 1651 245 m20 1675 253 m 17 X s 1707 253 m 16 X s 1675 245 m 15 Y s 1723 245 m 15 Y s
 1699 253 m20 1723 256 m 17 X s 1755 256 m 16 X s 1723 249 m 15 Y s 1771 249 m 15 Y s 1747 256 m20 1771 256 m 16 X s 1803 256 m 16 X s 1771 249 m 15 Y s 1819 249 m 15 Y s 1795 256 m20 1819 265 m 16 X s 1851 265 m 16 X s 1819 258 m 15 Y s 1867 258 m
 15 Y s 1843 265 m20 1867 276 m 16 X s 1898 276 m 17 X s 1867 268 m 15 Y s 1915 268 m 15 Y s 1891 276 m20 1915 302 m 16 X s 1946 302 m 17 X s 1915 294 m 16 Y s 1963 294 m 16 Y s 1939 302 m20 1963 295 m 16 X s 1994 295 m 17 X s 1963 287 m 15 Y s 2011
 287 m 15 Y s 1987 295 m20 2011 276 m 16 X s 2042 276 m 17 X s 2011 268 m 15 Y s 2059 268 m 15 Y s 2035 276 m20 2059 278 m 16 X s 2090 278 m 16 X s 2059 271 m 15 Y s 2106 271 m 15 Y s 2082 278 m20 2130 1144 m 14 Y s 2130 1174 m 14 Y s 2106 1166 m 17
 X s 2138 1166 m 16 X s 2123 1144 m 15 X s 2123 1188 m 15 X s 2106 1158 m 16 Y s 2154 1158 m 16 Y s 2130 1166 m20 1 0 0 c 1 1 1 c 1 0 0 c 262 1152 m 14 Y s 262 1181 m 15 Y s 238 1174 m 16 X s 270 1174 m 16 X s 254 1152 m 16 X s 254 1196 m 16 X s 238
 1166 m 15 Y s 286 1166 m 15 Y s 262 1174 m20 286 274 m 16 X s 318 274 m 16 X s 286 267 m 15 Y s 334 267 m 15 Y s 310 274 m20 334 225 m 16 X s 365 225 m 17 X s 334 218 m 15 Y s 382 218 m 15 Y s 358 225 m20 382 213 m 16 X s 413 213 m 17 X s 382 205 m
 15 Y s 430 205 m 15 Y s 406 213 m20 430 209 m 16 X s 461 209 m 17 X s 430 202 m 15 Y s 478 202 m 15 Y s 454 209 m20 478 209 m 16 X s 509 209 m 17 X s 478 201 m 15 Y s 526 201 m 15 Y s 502 209 m20 526 205 m 16 X s 557 205 m 16 X s 526 197 m 16 Y s
 573 197 m 16 Y s 549 205 m20 573 206 m 17 X s 605 206 m 16 X s 573 198 m 16 Y s 621 198 m 16 Y s 597 206 m20 645 373 m 2 Y s 645 390 m 1 Y s 621 382 m 17 X s 653 382 m 16 X s 638 373 m 15 X s 638 391 m 15 X s 621 375 m 15 Y s 669 375 m 15 Y s 645
 382 m20 693 471 m 4 Y s 693 490 m 4 Y s 669 483 m 17 X s 701 483 m 16 X s 686 471 m 15 X s 686 494 m 15 X s 669 475 m 15 Y s 717 475 m 15 Y s 693 483 m20 741 367 m 2 Y s 741 384 m 1 Y s 717 376 m 17 X s 749 376 m 16 X s 734 367 m 15 X s 734 385 m 15
 X s 717 369 m 15 Y s 765 369 m 15 Y s 741 376 m20 765 312 m 16 X s 797 312 m 16 X s 765 305 m 15 Y s 813 305 m 15 Y s 789 312 m20 813 281 m 16 X s 845 281 m 16 X s 813 273 m 15 Y s 861 273 m 15 Y s 837 281 m20 861 255 m 16 X s 892 255 m 17 X s 861
 248 m 15 Y s 909 248 m 15 Y s 885 255 m20 909 251 m 16 X s 940 251 m 17 X s 909 243 m 15 Y s 957 243 m 15 Y s 933 251 m20 957 233 m 16 X s 988 233 m 17 X s 957 226 m 15 Y s 1005 226 m 15 Y s 981 233 m20 1005 232 m 16 X s 1036 232 m 17 X s 1005 224 m
 15 Y s 1053 224 m 15 Y s 1029 232 m20 1053 227 m 16 X s 1084 227 m 16 X s 1053 220 m 15 Y s 1100 220 m 15 Y s 1076 227 m20 1100 222 m 17 X s 1132 222 m 16 X s 1100 214 m 15 Y s 1148 214 m 15 Y s 1124 222 m20 1148 216 m 17 X s 1180 216 m 16 X s 1148
 209 m 15 Y s 1196 209 m 15 Y s 1172 216 m20 1196 218 m 17 X s 1228 218 m 16 X s 1196 210 m 15 Y s 1244 210 m 15 Y s 1220 218 m20 1244 218 m 16 X s 1276 218 m 16 X s 1244 211 m 15 Y s 1292 211 m 15 Y s 1268 218 m20 1292 213 m 16 X s 1324 213 m 16 X s
 1292 206 m 15 Y s 1340 206 m 15 Y s 1316 213 m20 1340 215 m 16 X s 1371 215 m 17 X s 1340 207 m 15 Y s 1388 207 m 15 Y s 1364 215 m20 1388 214 m 16 X s 1419 214 m 17 X s 1388 206 m 15 Y s 1436 206 m 15 Y s 1412 214 m20 1436 216 m 16 X s 1467 216 m
 17 X s 1436 208 m 15 Y s 1484 208 m 15 Y s 1460 216 m20 1484 213 m 16 X s 1515 213 m 17 X s 1484 205 m 15 Y s 1532 205 m 15 Y s 1508 213 m20 1532 223 m 16 X s 1563 223 m 16 X s 1532 215 m 16 Y s 1579 215 m 16 Y s 1556 223 m20 1579 216 m 17 X s 1611
 216 m 16 X s 1579 209 m 15 Y s 1627 209 m 15 Y s 1603 216 m20 1627 217 m 17 X s 1659 217 m 16 X s 1627 209 m 15 Y s 1675 209 m 15 Y s 1651 217 m20 1675 212 m 17 X s 1707 212 m 16 X s 1675 205 m 15 Y s 1723 205 m 15 Y s 1699 212 m20 1723 212 m 17 X s
 1755 212 m 16 X s 1723 205 m 15 Y s 1771 205 m 15 Y s 1747 212 m20 1771 216 m 16 X s 1803 216 m 16 X s 1771 208 m 15 Y s 1819 208 m 15 Y s 1795 216 m20 1819 217 m 16 X s 1851 217 m 16 X s 1819 210 m 15 Y s 1867 210 m 15 Y s 1843 217 m20 1867 209 m
 16 X s 1898 209 m 17 X s 1867 202 m 15 Y s 1915 202 m 15 Y s 1891 209 m20 1915 219 m 16 X s 1946 219 m 17 X s 1915 211 m 15 Y s 1963 211 m 15 Y s 1939 219 m20 1963 219 m 16 X s 1994 219 m 17 X s 1963 212 m 15 Y s 2011 212 m 15 Y s 1987 219 m20 2011
 207 m 16 X s 2042 207 m 17 X s 2011 199 m 16 Y s 2059 199 m 16 Y s 2035 207 m20 2059 206 m 16 X s 2090 206 m 16 X s 2059 199 m 15 Y s 2106 199 m 15 Y s 2082 206 m20 2106 206 m 17 X s 2138 206 m 16 X s 2106 198 m 16 Y s 2154 198 m 16 Y s 2130 206 m20
 black
 gsave  2268 1676 0 0 C 272.126 1240.34 t 0 r /Helvetica-Bold findfont 49.2982 sf 0 0 m (Kolmogorov\255Smirnov test: signal \(background\) probability = 0.811 \(0.168\)) show NC gr  238 201 m 1916 X s 238 244 m -43 Y s 334 222 m -21 Y s 430 222 m -21
 Y s 526 222 m -21 Y s 621 244 m -43 Y s 717 222 m -21 Y s 813 222 m -21 Y s 909 222 m -21 Y s 1005 244 m -43 Y s 1100 222 m -21 Y s 1196 222 m -21 Y s 1292 222 m -21 Y s 1388 244 m -43 Y s 1484 222 m -21 Y s 1579 222 m -21 Y s 1675 222 m -21 Y s
 1771 244 m -43 Y s 1867 222 m -21 Y s 1963 222 m -21 Y s 2059 222 m -21 Y s 2154 244 m -43 Y s 238 244 m -43 Y s 2154 244 m -43 Y s 238 1509 m 1916 X s 238 1466 m 43 Y s 334 1487 m 22 Y s 430 1487 m 22 Y s 526 1487 m 22 Y s 621 1466 m 43 Y s 717
 1487 m 22 Y s 813 1487 m 22 Y s 909 1487 m 22 Y s 1005 1466 m 43 Y s 1100 1487 m 22 Y s 1196 1487 m 22 Y s 1292 1487 m 22 Y s 1388 1466 m 43 Y s 1484 1487 m 22 Y s 1579 1487 m 22 Y s 1675 1487 m 22 Y s 1771 1466 m 43 Y s 1867 1487 m 22 Y s 1963 1487
 m 22 Y s 2059 1487 m 22 Y s 2154 1466 m 43 Y s 238 1466 m 43 Y s 2154 1466 m 43 Y s 238 201 m 1308 Y s 291 201 m -53 X s 265 231 m -27 X s 265 262 m -27 X s 265 292 m -27 X s 291 322 m -53 X s 265 353 m -27 X s 265 383 m -27 X s 265 413 m -27 X s
 291 444 m -53 X s 265 474 m -27 X s 265 504 m -27 X s 265 535 m -27 X s 291 565 m -53 X s 265 595 m -27 X s 265 626 m -27 X s 265 656 m -27 X s 291 686 m -53 X s 265 717 m -27 X s 265 747 m -27 X s 265 777 m -27 X s 291 808 m -53 X s 265 838 m -27 X
 s 265 868 m -27 X s 265 899 m -27 X s 291 929 m -53 X s 265 959 m -27 X s 265 989 m -27 X s 265 1020 m -27 X s 291 1050 m -53 X s 265 1080 m -27 X s 265 1111 m -27 X s 265 1141 m -27 X s 291 1171 m -53 X s 265 1202 m -27 X s 265 1232 m -27 X s 265
 1262 m -27 X s 291 1293 m -53 X s 265 1323 m -27 X s 265 1353 m -27 X s 265 1384 m -27 X s 291 1414 m -53 X s 291 1414 m -53 X s 265 1444 m -27 X s 265 1475 m -27 X s 265 1505 m -27 X s 2154 201 m 1308 Y s 2101 201 m 53 X s 2128 231 m 26 X s 2128
 262 m 26 X s 2128 292 m 26 X s 2101 322 m 53 X s 2128 353 m 26 X s 2128 383 m 26 X s 2128 413 m 26 X s 2101 444 m 53 X s 2128 474 m 26 X s 2128 504 m 26 X s 2128 535 m 26 X s 2101 565 m 53 X s 2128 595 m 26 X s 2128 626 m 26 X s 2128 656 m 26 X s
 2101 686 m 53 X s 2128 717 m 26 X s 2128 747 m 26 X s 2128 777 m 26 X s 2101 808 m 53 X s 2128 838 m 26 X s 2128 868 m 26 X s 2128 899 m 26 X s 2101 929 m 53 X s 2128 959 m 26 X s 2128 989 m 26 X s 2128 1020 m 26 X s 2101 1050 m 53 X s 2128 1080 m
 26 X s 2128 1111 m 26 X s 2128 1141 m 26 X s 2101 1171 m 53 X s 2128 1202 m 26 X s 2128 1232 m 26 X s 2128 1262 m 26 X s 2101 1293 m 53 X s 2128 1323 m 26 X s 2128 1353 m 26 X s 2128 1384 m 26 X s 2101 1414 m 53 X s 2101 1414 m 53 X s 2128 1444 m 26
 X s 2128 1475 m 26 X s 2128 1505 m 26 X s
 gsave  2268 1676 0 0 C 2211.02 192.756 t 90 r /Helvetica-Bold findfont 45.506 sf 0 0 m (U/O\255flow \(S,B\): \(0.0, 0.0\)% / \(0.0, 0.0\)%) show NC gr  0.490196 0.545098 0.615686 c 0.364706 0.419608 0.490196 c 1587 96 23 1572 bf 0.490196 0.545098
 0.615686 c 23 1572 m 1587 X s 1610 1572 m 96 Y s 1610 1668 m -1587 X s 23 1668 m -96 Y s 1 1 1 c black 1 1 1 c
 gsave  2268 1676 0 0 C 75.8434 1604.09 t 0 r /Helvetica-Bold findfont 56.8825 sf 0 0 m (TMVA overtraining check for classifier: LikelihoodPCA) show NC gr 
 gr  gr showpage
end
%%EOF
