%!PS-Adobe-2.0 EPSF-2.0
%%BoundingBox:  0 0 567 419
%%Title: dataset/plots/overtrain_Likelihood.eps: TMVA comparison Likelihood
%%Creator: ROOT Version 6.12/06
%%CreationDate: Mon May 21 16:44:59 2018
%%DocumentNeededResources: ProcSet (FontSetInit)
%%EndComments
%%BeginProlog
80 dict begin
/s {stroke} def /l {lineto} def /m {moveto} def /t {translate} def
/r {rotate} def /rl {roll}  def /R {repeat} def
/d {rlineto} def /rm {rmoveto} def /gr {grestore} def /f {eofill} def
/c {setrgbcolor} def /black {0 setgray} def /sd {setdash} def
/cl {closepath} def /sf {scalefont setfont} def /lw {setlinewidth} def
/box {m dup 0 exch d exch 0 d 0 exch neg d cl} def
/NC{systemdict begin initclip end}def/C{NC box clip newpath}def
/bl {box s} def /bf {gsave box gsave f grestore 1 lw [] 0 sd s grestore} def /Y { 0 exch d} def /X { 0 d} def 
/K {{pop pop 0 moveto} exch kshow} bind def
/ita {/ang 15 def gsave [1 0 ang dup sin exch cos div 1 0 0] concat} def 
/mp {newpath /y exch def /x exch def} def
/side {[w .77 mul w .23 mul] .385 w mul sd w 0 l currentpoint t -144 r} def
/mr {mp x y w2 0 360 arc} def /m24 {mr s} def /m20 {mr f} def
/mb {mp x y w2 add m w2 neg 0 d 0 w neg d w 0 d 0 w d cl} def
/mt {mp x y w2 add m w2 neg w neg d w 0 d cl} def
/w4 {w 4 div} def
/w6 {w 6 div} def
/w8 {w 8 div} def
/m21 {mb f} def /m25 {mb s} def /m22 {mt f} def /m26{mt s} def
/m23 {mp x y w2 sub m w2 w d w neg 0 d cl f} def
/m27 {mp x y w2 add m w3 neg w2 neg d w3 w2 neg d w3 w2 d cl s} def
/m28 {mp x w2 sub y w2 sub w3 add m w3 0 d  0 w3 neg d w3 0 d 0 w3 d w3 0 d  0 w3 d w3 neg 0 d 0 w3 d w3 neg 0 d 0 w3 neg d w3 neg 0 d cl s } def
/m29 {mp gsave x w2 sub y w2 add w3 sub m currentpoint t 4 {side} repeat cl fill gr} def
/m30 {mp gsave x w2 sub y w2 add w3 sub m currentpoint t 4 {side} repeat cl s gr} def
/m31 {mp x y w2 sub m 0 w d x w2 sub y m w 0 d x w2 sub y w2 add m w w neg d x w2 sub y w2 sub m w w d s} def
/m32 {mp x y w2 sub m w2 w d w neg 0 d cl s} def
/m33 {mp x y w2 add m w3 neg w2 neg d w3 w2 neg d w3 w2 d cl f} def
/m34 {mp x w2 sub y w2 sub w3 add m w3 0 d  0 w3 neg d w3 0 d 0 w3 d w3 0 d  0 w3 d w3 neg 0 d 0 w3 d w3 neg 0 d 0 w3 neg d w3 neg 0 d cl f } def
/m35 {mp x y w2 add m w2 neg w2 neg d w2 w2 neg d w2 w2 d w2 neg w2 d x y w2 sub m 0 w d x w2 sub y m w 0 d s} def
/m36 {mb x w2 sub y w2 add m w w neg d x w2 sub y w2 sub m w w d s} def
/m37 {mp x y m w4 neg w2 d w4 neg w2 neg d w2 0 d  w4 neg w2 neg d w2 0 d w4 neg w2 d w2 0 d w4 neg w2 d w4 neg w2 neg d cl s} def
/m38 {mp x w4 sub y w2 add m w4 neg w4 neg d 0 w2 neg d w4 w4 neg d w2 0 d w4 w4 d 0 w2 d w4 neg w4 d w2 neg 0 d x y w2 sub m 0 w d x w2 sub y m w 0 d cl s} def
/m39 {mp x y m w4 neg w2 d w4 neg w2 neg d w2 0 d  w4 neg w2 neg d w2 0 d w4 neg w2 d w2 0 d w4 neg w2 d w4 neg w2 neg d cl f} def
/m40 {mp x y m w4 w2 d w4 w4 neg d w2 neg w4 neg d w2 w4 neg d w4 neg w4 neg d w4 neg w2 d w4 neg w2 neg d w4 neg w4 d w2 w4 d w2 neg w4 d w4 w4 d w4 w2 neg d cl s} def
/m41 {mp x y m w4 w2 d w4 w4 neg d w2 neg w4 neg d w2 w4 neg d w4 neg w4 neg d w4 neg w2 d w4 neg w2 neg d w4 neg w4 d w2 w4 d w2 neg w4 d w4 w4 d w4 w2 neg d cl f} def
/m42 {mp x y w2 add m w8 neg w2 -3 4 div mul d w2 -3 4 div mul w8 neg d w2 3 4 div mul w8 neg d w8 w2 -3 4 div mul d w8 w2 3 4 div mul d w2 3 4 div mul w8 d w2 -3 4 div mul w8 d w8 neg w2 3 4 div mul d cl s} def
/m43 {mp x y w2 add m w8 neg w2 -3 4 div mul d w2 -3 4 div mul w8 neg d w2 3 4 div mul w8 neg d w8 w2 -3 4 div mul d w8 w2 3 4 div mul d w2 3 4 div mul w8 d w2 -3 4 div mul w8 d w8 neg w2 3 4 div mul d cl f} def
/m44 {mp x y m w6 neg w2 d w2 2 3 div mul 0 d w6 neg w2 neg d w2 w6 d 0 w2 -2 3 div mul d w2 neg w6 d w6 w2 neg d w2 -2 3 div mul 0 d w6 w2 d w2 neg w6 neg d 0 w2 2 3 div mul d w2 w6 neg d cl s} def
/m45 {mp x y m w6 neg w2 d w2 2 3 div mul 0 d w6 neg w2 neg d w2 w6 d 0 w2 -2 3 div mul d w2 neg w6 d w6 w2 neg d w2 -2 3 div mul 0 d w6 w2 d w2 neg w6 neg d 0 w2 2 3 div mul d w2 w6 neg d cl f} def
/m46 {mp x y w4 add m w4 neg w4 d w4 neg w4 neg d  w4 w4 neg d w4 neg w4 neg d w4 w4 neg d w4 w4 d w4 w4 neg d w4 w4 d w4 neg w4 d w4 w4 d w4 neg w4 d w4 neg w4 neg d cl s} def
/m47 {mp x y w4 add m w4 neg w4 d w4 neg w4 neg d w4 w4 neg d w4 neg w4 neg d  w4 w4 neg d w4 w4 d w4 w4 neg d w4 w4 d w4 neg w4 d w4 w4 d w4 neg w4 d w4 neg w4 neg d cl f} def
/m48 {mp x y w4 add m w4 neg w4 d w4 neg w4 neg d w4 w4 neg d  w4 neg w4 neg d w4 w4 neg d w4 w4 d w4 w4 neg d w4 w4 d w4 neg w4 d w4 w4 d w4 neg w4 d w4 neg w4 neg d  w4 w4 neg d w4 neg w4 neg d w4 neg w4 d w4 w4 d cl f} def
/m49 {mp x w2 sub w3 add y w2 sub w3 add m  0 w3 neg d w3 0 d 0 w3 d w3 0 d 0 w3 d w3 neg 0 d 0 w3 d w3 neg 0 d 0 w3 neg d w3 neg 0 d 0 w3 neg d w3 0 d 0 w3 d w3 0 d 0 w3 neg d w3 neg 0 d cl f } def
/m2 {mp x y w2 sub m 0 w d x w2 sub y m w 0 d s} def
/m5 {mp x w2 sub y w2 sub m w w d x w2 sub y w2 add m w w neg d s} def
%%IncludeResource: ProcSet (FontSetInit)
%%IncludeResource: font Times-Roman
%%IncludeResource: font Times-Italic
%%IncludeResource: font Times-Bold
%%IncludeResource: font Times-BoldItalic
%%IncludeResource: font Helvetica
%%IncludeResource: font Helvetica-Oblique
%%IncludeResource: font Helvetica-Bold
%%IncludeResource: font Helvetica-BoldOblique
%%IncludeResource: font Courier
%%IncludeResource: font Courier-Oblique
%%IncludeResource: font Courier-Bold
%%IncludeResource: font Courier-BoldOblique
%%IncludeResource: font Symbol
%%IncludeResource: font ZapfDingbats
/reEncode {exch findfont dup length dict begin {1 index /FID eq  {pop pop} {def} ifelse } forall /Encoding exch def currentdict end dup /FontName get exch definefont pop } def [/Times-Bold /Times-Italic /Times-BoldItalic /Helvetica /Helvetica-Oblique
 /Helvetica-Bold /Helvetica-BoldOblique /Courier /Courier-Oblique /Courier-Bold /Courier-BoldOblique /Times-Roman /AvantGarde-Book /AvantGarde-BookOblique /AvantGarde-Demi /AvantGarde-DemiOblique /Bookman-Demi /Bookman-DemiItalic /Bookman-Light
 /Bookman-LightItalic /Helvetica-Narrow /Helvetica-Narrow-Bold /Helvetica-Narrow-BoldOblique /Helvetica-Narrow-Oblique /NewCenturySchlbk-Roman /NewCenturySchlbk-Bold /NewCenturySchlbk-BoldItalic /NewCenturySchlbk-Italic /Palatino-Bold
 /Palatino-BoldItalic /Palatino-Italic /Palatino-Roman ] {ISOLatin1Encoding reEncode } forall
%%EndProlog
%%BeginSetup
%%EndSetup
newpath  gsave  .25 .25 scale  gsave  0 0 t 0.490196 0.545098 0.615686 c[  ] 0 sd 3 lw 0.941176 0.941176 0.941176 c 2268 1676 0 0 bf black 1 1 0.992157 c 1916 1308 238 201 bf black 1916 1308 238 201 bl 1 1 0.992157 c 1916 1308 238 201 bf black 1916
 1308 238 201 bl 238 201 m 1916 X s 290 244 m -43 Y s 332 222 m -21 Y s 373 222 m -21 Y s 415 222 m -21 Y s 456 222 m -21 Y s 497 244 m -43 Y s 539 222 m -21 Y s 580 222 m -21 Y s 622 222 m -21 Y s 663 222 m -21 Y s 705 244 m -43 Y s 746 222 m -21 Y
 s 787 222 m -21 Y s 829 222 m -21 Y s 870 222 m -21 Y s 912 244 m -43 Y s 953 222 m -21 Y s 995 222 m -21 Y s 1036 222 m -21 Y s 1077 222 m -21 Y s 1119 244 m -43 Y s 1160 222 m -21 Y s 1202 222 m -21 Y s 1243 222 m -21 Y s 1284 222 m -21 Y s 1326
 244 m -43 Y s 1367 222 m -21 Y s 1409 222 m -21 Y s 1450 222 m -21 Y s 1492 222 m -21 Y s 1533 244 m -43 Y s 1574 222 m -21 Y s 1616 222 m -21 Y s 1657 222 m -21 Y s 1699 222 m -21 Y s 1740 244 m -43 Y s 1782 222 m -21 Y s 1823 222 m -21 Y s 1864
 222 m -21 Y s 1906 222 m -21 Y s 1947 244 m -43 Y s 1989 222 m -21 Y s 2030 222 m -21 Y s 2071 222 m -21 Y s 2113 222 m -21 Y s 2154 244 m -43 Y s 290 244 m -43 Y s 249 222 m -21 Y s 2154 244 m -43 Y s
 gsave  2268 1676 0 0 C 246.491 128.934 t 0 r /Helvetica-Bold findfont 64.4669 sf 0 0 m (0.1) show NC gr 
 gsave  2268 1676 0 0 C 451.268 128.934 t 0 r /Helvetica-Bold findfont 64.4669 sf 0 0 m (0.2) show NC gr 
 gsave  2268 1676 0 0 C 656.045 128.934 t 0 r /Helvetica-Bold findfont 64.4669 sf 0 0 m (0.3) show NC gr 
 gsave  2268 1676 0 0 C 864.614 128.934 t 0 r /Helvetica-Bold findfont 64.4669 sf 0 0 m (0.4) show NC gr 
 gsave  2268 1676 0 0 C 1073.18 128.934 t 0 r /Helvetica-Bold findfont 64.4669 sf 0 0 m (0.5) show NC gr 
 gsave  2268 1676 0 0 C 1277.96 128.934 t 0 r /Helvetica-Bold findfont 64.4669 sf 0 0 m (0.6) show NC gr 
 gsave  2268 1676 0 0 C 1486.53 128.934 t 0 r /Helvetica-Bold findfont 64.4669 sf 0 0 m (0.7) show NC gr 
 gsave  2268 1676 0 0 C 1691.31 128.934 t 0 r /Helvetica-Bold findfont 64.4669 sf 0 0 m (0.8) show NC gr 
 gsave  2268 1676 0 0 C 1899.88 128.934 t 0 r /Helvetica-Bold findfont 64.4669 sf 0 0 m (0.9) show NC gr 
 gsave  2268 1676 0 0 C 2138.78 128.934 t 0 r /Helvetica-Bold findfont 64.4669 sf 0 0 m (1) show NC gr 
 gsave  2268 1676 0 0 C 1452.4 34.1295 t 0 r /Helvetica-Bold findfont 72.0512 sf 0 0 m (Likelihood response) show NC gr  238 1509 m 1916 X s 290 1466 m 43 Y s 332 1487 m 22 Y s 373 1487 m 22 Y s 415 1487 m 22 Y s 456 1487 m 22 Y s 497 1466 m 43 Y s
 539 1487 m 22 Y s 580 1487 m 22 Y s 622 1487 m 22 Y s 663 1487 m 22 Y s 705 1466 m 43 Y s 746 1487 m 22 Y s 787 1487 m 22 Y s 829 1487 m 22 Y s 870 1487 m 22 Y s 912 1466 m 43 Y s 953 1487 m 22 Y s 995 1487 m 22 Y s 1036 1487 m 22 Y s 1077 1487 m 22
 Y s 1119 1466 m 43 Y s 1160 1487 m 22 Y s 1202 1487 m 22 Y s 1243 1487 m 22 Y s 1284 1487 m 22 Y s 1326 1466 m 43 Y s 1367 1487 m 22 Y s 1409 1487 m 22 Y s 1450 1487 m 22 Y s 1492 1487 m 22 Y s 1533 1466 m 43 Y s 1574 1487 m 22 Y s 1616 1487 m 22 Y
 s 1657 1487 m 22 Y s 1699 1487 m 22 Y s 1740 1466 m 43 Y s 1782 1487 m 22 Y s 1823 1487 m 22 Y s 1864 1487 m 22 Y s 1906 1487 m 22 Y s 1947 1466 m 43 Y s 1989 1487 m 22 Y s 2030 1487 m 22 Y s 2071 1487 m 22 Y s 2113 1487 m 22 Y s 2154 1466 m 43 Y s
 290 1466 m 43 Y s 249 1487 m 22 Y s 2154 1466 m 43 Y s 238 201 m 1308 Y s 291 201 m -53 X s 265 241 m -27 X s 265 281 m -27 X s 265 321 m -27 X s 265 361 m -27 X s 291 401 m -53 X s 265 441 m -27 X s 265 480 m -27 X s 265 520 m -27 X s 265 560 m -27
 X s 291 600 m -53 X s 265 640 m -27 X s 265 680 m -27 X s 265 720 m -27 X s 265 760 m -27 X s 291 800 m -53 X s 265 840 m -27 X s 265 879 m -27 X s 265 919 m -27 X s 265 959 m -27 X s 291 999 m -53 X s 265 1039 m -27 X s 265 1079 m -27 X s 265 1119
 m -27 X s 265 1159 m -27 X s 291 1199 m -53 X s 265 1239 m -27 X s 265 1278 m -27 X s 265 1318 m -27 X s 265 1358 m -27 X s 291 1398 m -53 X s 291 1398 m -53 X s 265 1438 m -27 X s 265 1478 m -27 X s
 gsave  2268 1676 0 0 C 174.44 178.232 t 0 r /Helvetica-Bold findfont 64.4669 sf 0 0 m (0) show NC gr 
 gsave  2268 1676 0 0 C 182.024 375.425 t 0 r /Helvetica-Bold findfont 64.4669 sf 0 0 m (1) show NC gr 
 gsave  2268 1676 0 0 C 174.44 576.41 t 0 r /Helvetica-Bold findfont 64.4669 sf 0 0 m (2) show NC gr 
 gsave  2268 1676 0 0 C 174.44 773.602 t 0 r /Helvetica-Bold findfont 64.4669 sf 0 0 m (3) show NC gr 
 gsave  2268 1676 0 0 C 174.44 974.587 t 0 r /Helvetica-Bold findfont 64.4669 sf 0 0 m (4) show NC gr 
 gsave  2268 1676 0 0 C 174.44 1175.57 t 0 r /Helvetica-Bold findfont 64.4669 sf 0 0 m (5) show NC gr 
 gsave  2268 1676 0 0 C 174.44 1372.76 t 0 r /Helvetica-Bold findfont 64.4669 sf 0 0 m (6) show NC gr 
 gsave  2268 1676 0 0 C 64.4669 1425.86 t 90 r /Helvetica-Bold findfont 72.0512 sf 0 0 m (dx) show NC gr 
 gsave  2268 1676 0 0 C 30.3373 1406.89 t 90 r /Helvetica-Bold findfont 45.506 sf 0 0 m ( ) show NC gr 
 gsave  2268 1676 0 0 C 64.4669 1384.14 t 90 r /Helvetica-Bold findfont 72.0512 sf 0 0 m (/) show NC gr 
 gsave  2268 1676 0 0 C 30.3373 1365.18 t 90 r /Helvetica-Bold findfont 45.506 sf 0 0 m ( ) show NC gr 
 gsave  2268 1676 0 0 C 60.6747 1092.14 t 90 r /Helvetica-Bold findfont 72.0512 sf 0 0 m (\(1/N\) dN) show NC gr  2154 201 m 1308 Y s 2101 201 m 53 X s 2128 241 m 26 X s 2128 281 m 26 X s 2128 321 m 26 X s 2128 361 m 26 X s 2101 401 m 53 X s 2128 441
 m 26 X s 2128 480 m 26 X s 2128 520 m 26 X s 2128 560 m 26 X s 2101 600 m 53 X s 2128 640 m 26 X s 2128 680 m 26 X s 2128 720 m 26 X s 2128 760 m 26 X s 2101 800 m 53 X s 2128 840 m 26 X s 2128 879 m 26 X s 2128 919 m 26 X s 2128 959 m 26 X s 2101
 999 m 53 X s 2128 1039 m 26 X s 2128 1079 m 26 X s 2128 1119 m 26 X s 2128 1159 m 26 X s 2101 1199 m 53 X s 2128 1239 m 26 X s 2128 1278 m 26 X s 2128 1318 m 26 X s 2128 1358 m 26 X s 2101 1398 m 53 X s 2101 1398 m 53 X s 2128 1438 m 26 X s 2128
 1478 m 26 X s 0.490196 0.545098 0.615686 c 1 1 1 c 0.490196 0.545098 0.615686 c 907 202 238 1307 bl 238 1307 m 907 X s 1145 1307 m 202 Y s 1145 1509 m -907 X s 238 1509 m -202 Y s black
 gsave  2268 1676 0 0 C 417.138 1437.23 t 0 r /Helvetica-Bold findfont 56.8825 sf 0 0 m (Signal \(test sample\)) show NC gr  0.49 0.6 0.82 c 265 1423 m 127 X 70 Y -127 X f 0 0 0.933333 c 265 1493 m 127 X s 265 1423 m 127 X s 392 1423 m 70 Y s 265
 1423 m 70 Y s black
 gsave  2268 1676 0 0 C 417.138 1338.64 t 0 r /Helvetica-Bold findfont 56.8825 sf 0 0 m (Background \(test sample\)) show NC gr  1 0 0 c 392 1354 m -32 -32 d s 383 1393 m -71 -71 d s 335 1393 m -70 -69 d s 286 1393 m -21 -21 d s 0 0 0.933333 c 1 0 0
 c 265 1393 m 127 X s 265 1322 m 127 X s 392 1322 m 71 Y s 265 1322 m 71 Y s 0 0 0.933333 c 0.49 0.6 0.82 c black 0.49 0.6 0.82 c 238 201 m 14 Y 48 X 21 Y 48 X 32 Y 48 X 11 Y 48 X -19 Y 48 X 7 Y 48 X -4 Y 47 X -3 Y 48 X -12 Y 48 X 20 Y 48 X -22 Y 48
 X 41 Y 48 X 62 Y 48 X 228 Y 48 X 55 Y 48 X -34 Y 48 X 60 Y 48 X 178 Y 47 X -95 Y 48 X -167 Y 48 X -33 Y 48 X -83 Y 48 X -34 Y 48 X 1 Y 48 X -7 Y 48 X -34 Y 48 X 12 Y 48 X -64 Y 47 X -19 Y 96 X 85 Y 48 X -102 Y 48 X 47 Y 48 X -38 Y 48 X -35 Y 48 X 33
 Y 48 X 83 Y 48 X 214 Y 48 X -57 Y 47 X 617 Y 48 X -959 Y f 0 0 0.933333 c 0.49 0.6 0.82 c 0 0 0.933333 c 238 215 m 48 X 21 Y 48 X 32 Y 48 X 11 Y 48 X -19 Y 48 X 7 Y 48 X -4 Y 47 X -3 Y 48 X -12 Y 48 X 20 Y 48 X -22 Y 48 X 41 Y 48 X 62 Y 48 X 228 Y
 48 X 55 Y 48 X -34 Y 48 X 60 Y 48 X 178 Y 47 X -95 Y 48 X -167 Y 48 X -33 Y 48 X -83 Y 48 X -34 Y 48 X 1 Y 48 X -7 Y 48 X -34 Y 48 X 12 Y 48 X -64 Y 47 X -19 Y 96 X 85 Y 48 X -102 Y 48 X 47 Y 48 X -38 Y 48 X -35 Y 48 X 33 Y 48 X 83 Y 48 X 214 Y 48 X
 -57 Y 47 X 617 Y 48 X -959 Y s 1 0 0 c black 1 0 0 c 2143 218 m -18 -17 d s 2084 208 m -7 -7 d s 2046 218 m -17 -17 d s 1991 211 m -10 -10 d s 1959 227 m -26 -26 d s 1904 220 m -19 -19 d s 1867 231 m -30 -30 d s 1827 239 m -38 -38 d s 1778 239 m -7
 -7 d s 1770 230 m -29 -29 d s 1723 232 m -31 -31 d s 1681 237 m -37 -36 d s 1646 251 m -50 -50 d s 1603 256 m -55 -55 d s 1555 256 m -55 -55 d s 1532 281 m -80 -80 d s 1490 287 m -86 -86 d s 1468 313 m -112 -112 d s 1409 303 m -101 -102 d s 1353 294
 m -94 -93 d s 1340 330 m -129 -129 d s 1322 360 m -159 -159 d s 1265 351 m -150 -150 d s 1244 378 m -177 -177 d s 1241 424 m -222 -223 d s 1196 427 m -225 -226 d s 1162 441 m -239 -240 d s 1148 475 m -273 -274 d s 1132 506 m -305 -305 d s 1100 523 m
 -322 -322 d s 1100 571 m -370 -370 d s 1100 619 m -418 -418 d s 1074 641 m -21 -21 d s 1046 613 m -233 -233 d s 772 339 m -138 -138 d s 1005 620 m -144 -144 d s 831 446 m -18 -18 d s 722 337 m -5 -5 d s 698 313 m -112 -112 d s 1005 668 m -144 -144 d
 s 669 333 m -131 -132 d s 1000 712 m -139 -140 d s 669 381 m -179 -180 d s 957 716 m -96 -96 d s 642 401 m -21 -20 d s 614 374 m -172 -173 d s 957 764 m -96 -96 d s 573 381 m -179 -180 d s 957 812 m -96 -95 d s 573 429 m -228 -228 d s 941 845 m -80
 -80 d s 527 431 m -230 -230 d s 887 839 m -26 -26 d s 526 477 m -240 -239 d s 265 217 m -16 -16 d s 526 526 m -240 -240 d s 526 574 m -192 -192 d s 331 379 m -45 -45 d s 526 622 m -192 -192 d s 479 624 m -145 -146 d s 478 670 m -144 -144 d s 478 718
 m -144 -144 d s 478 766 m -144 -143 d s 478 814 m -144 -143 d s 451 836 m -117 -117 d s 430 863 m -96 -96 d s 430 911 m -96 -96 d s 430 959 m -96 -96 d s 430 1007 m -96 -96 d s 416 1041 m -34 -34 d s 364 989 m -30 -30 d s 238 217 m 48 X 162 Y 48 X
 610 Y 48 X 52 Y 48 X -205 Y 48 X -212 Y 48 X -193 Y 47 X -57 Y 48 X 27 Y 48 X -88 Y 48 X 24 Y 48 X 2 Y 48 X 107 Y 48 X 393 Y 48 X 6 Y 48 X -133 Y 48 X -99 Y 48 X 28 Y 47 X -135 Y 48 X -65 Y 48 X -17 Y 48 X -73 Y 48 X 9 Y 48 X -66 Y 48 X 9 Y 48 X 10
 Y 48 X -26 Y 48 X -31 Y 95 X -5 Y 48 X -14 Y 48 X -7 Y 48 X 9 Y 96 X -19 Y 48 X 7 Y 48 X -16 Y 48 X 7 Y 48 X -10 Y 47 X 10 Y 48 X -17 Y s 0.490196 0.545098 0.615686 c 1 1 1 c 0.490196 0.545098 0.615686 c 952 202 1202 1307 bl 1202 1307 m 952 X s 2154
 1307 m 202 Y s 2154 1509 m -952 X s 1202 1509 m -202 Y s black
 gsave  2268 1676 0 0 C 1296.92 1437.23 t 0 r /Helvetica-Bold findfont 56.8825 sf 0 0 m (Signal \(training sample\)) show NC gr  0 0 0.933333 c /w 21 def /w2 {w 2 div} def /w3 {w 3 div} def 1250 1458 m20 black
 gsave  2268 1676 0 0 C 1296.92 1338.64 t 0 r /Helvetica-Bold findfont 56.8825 sf 0 0 m (Background \(training sample\)) show NC gr  1 0 0 c 1250 1358 m20 0 0 0.933333 c 1 1 1 c 0 0 0.933333 c 238 208 m 16 X s 270 208 m 16 X s 238 200 m 16 Y s 286
 200 m 16 Y s 262 208 m20 310 229 m 1 Y s 310 245 m s 286 237 m 16 X s 318 237 m 16 X s 302 229 m 16 X s 302 245 m 16 X s 286 230 m 15 Y s 334 230 m 15 Y s 310 237 m20 358 259 m 4 Y s 358 278 m 3 Y s 334 270 m 16 X s 365 270 m 17 X s 350 259 m 15 X s
 350 281 m 15 X s 334 263 m 15 Y s 382 263 m 15 Y s 358 270 m20 406 243 m 2 Y s 406 260 m 2 Y s 382 253 m 16 X s 413 253 m 17 X s 398 243 m 15 X s 398 262 m 15 X s 382 245 m 15 Y s 430 245 m 15 Y s 406 253 m20 454 259 m 4 Y s 454 278 m 3 Y s 430 270
 m 16 X s 461 270 m 17 X s 446 259 m 15 X s 446 281 m 15 X s 430 263 m 15 Y s 478 263 m 15 Y s 454 270 m20 502 274 m 4 Y s 502 293 m 5 Y s 478 286 m 16 X s 509 286 m 17 X s 494 274 m 15 X s 494 298 m 15 X s 478 278 m 15 Y s 526 278 m 15 Y s 502 286
 m20 549 247 m 2 Y s 549 264 m 2 Y s 526 256 m 16 X s 557 256 m 16 X s 542 247 m 15 X s 542 266 m 15 X s 526 249 m 15 Y s 573 249 m 15 Y s 549 256 m20 597 253 m 3 Y s 597 271 m 3 Y s 573 263 m 17 X s 605 263 m 16 X s 590 253 m 15 X s 590 274 m 15 X s
 573 256 m 15 Y s 621 256 m 15 Y s 597 263 m20 645 272 m 4 Y s 645 292 m 4 Y s 621 284 m 17 X s 653 284 m 16 X s 638 272 m 15 X s 638 296 m 15 X s 621 276 m 16 Y s 669 276 m 16 Y s 645 284 m20 693 240 m 2 Y s 693 257 m 2 Y s 669 249 m 17 X s 701 249
 m 16 X s 686 240 m 15 X s 686 259 m 15 X s 669 242 m 15 Y s 717 242 m 15 Y s 693 249 m20 741 229 m 1 Y s 741 245 m s 717 237 m 17 X s 749 237 m 16 X s 734 229 m 15 X s 734 245 m 15 X s 717 230 m 15 Y s 765 230 m 15 Y s 741 237 m20 789 256 m 3 Y s
 789 274 m 3 Y s 765 267 m 16 X s 797 267 m 16 X s 781 256 m 16 X s 781 277 m 16 X s 765 259 m 15 Y s 813 259 m 15 Y s 789 267 m20 837 325 m 8 Y s 837 348 m 8 Y s 813 341 m 16 X s 845 341 m 16 X s 829 325 m 16 X s 829 356 m 16 X s 813 333 m 15 Y s
 861 333 m 15 Y s 837 341 m20 885 523 m 17 Y s 885 555 m 17 Y s 861 548 m 16 X s 892 548 m 17 X s 877 523 m 15 X s 877 572 m 15 X s 861 540 m 15 Y s 909 540 m 15 Y s 885 548 m20 933 612 m 20 Y s 933 647 m 20 Y s 909 639 m 16 X s 940 639 m 17 X s 925
 612 m 15 X s 925 667 m 15 X s 909 632 m 15 Y s 957 632 m 15 Y s 933 639 m20 981 600 m 20 Y s 981 635 m 19 Y s 957 627 m 16 X s 988 627 m 17 X s 973 600 m 15 X s 973 654 m 15 X s 957 620 m 15 Y s 1005 620 m 15 Y s 981 627 m20 1029 677 m 22 Y s 1029
 714 m 22 Y s 1005 707 m 16 X s 1036 707 m 17 X s 1021 677 m 15 X s 1021 736 m 15 X s 1005 699 m 15 Y s 1053 699 m 15 Y s 1029 707 m20 1076 749 m 24 Y s 1076 788 m 24 Y s 1053 781 m 16 X s 1084 781 m 16 X s 1069 749 m 15 X s 1069 812 m 15 X s 1053
 773 m 15 Y s 1100 773 m 15 Y s 1076 781 m20 1124 679 m 22 Y s 1124 716 m 22 Y s 1100 708 m 17 X s 1132 708 m 16 X s 1117 679 m 15 X s 1117 738 m 15 X s 1100 701 m 15 Y s 1148 701 m 15 Y s 1124 708 m20 1172 583 m 19 Y s 1172 618 m 19 Y s 1148 610 m
 17 X s 1180 610 m 16 X s 1165 583 m 15 X s 1165 637 m 15 X s 1148 602 m 16 Y s 1196 602 m 16 Y s 1172 610 m20 1220 508 m 17 Y s 1220 540 m 16 Y s 1196 532 m 17 X s 1228 532 m 16 X s 1213 508 m 15 X s 1213 556 m 15 X s 1196 525 m 15 Y s 1244 525 m 15
 Y s 1220 532 m20 1268 487 m 15 Y s 1268 517 m 16 Y s 1244 510 m 16 X s 1276 510 m 16 X s 1260 487 m 16 X s 1260 533 m 16 X s 1244 502 m 15 Y s 1292 502 m 15 Y s 1268 510 m20 1316 381 m 11 Y s 1316 407 m 11 Y s 1292 400 m 16 X s 1324 400 m 16 X s
 1308 381 m 16 X s 1308 418 m 16 X s 1292 392 m 15 Y s 1340 392 m 15 Y s 1316 400 m20 1364 373 m 10 Y s 1364 398 m 11 Y s 1340 391 m 16 X s 1371 391 m 17 X s 1356 373 m 15 X s 1356 409 m 15 X s 1340 383 m 15 Y s 1388 383 m 15 Y s 1364 391 m20 1412
 386 m 11 Y s 1412 412 m 11 Y s 1388 405 m 16 X s 1419 405 m 17 X s 1404 386 m 15 X s 1404 423 m 15 X s 1388 397 m 15 Y s 1436 397 m 15 Y s 1412 405 m20 1460 342 m 9 Y s 1460 366 m 9 Y s 1436 358 m 16 X s 1467 358 m 17 X s 1452 342 m 15 X s 1452 375
 m 15 X s 1436 351 m 15 Y s 1484 351 m 15 Y s 1460 358 m20 1508 351 m 10 Y s 1508 376 m 9 Y s 1484 368 m 16 X s 1515 368 m 17 X s 1500 351 m 15 X s 1500 385 m 15 X s 1484 361 m 15 Y s 1532 361 m 15 Y s 1508 368 m20 1556 348 m 9 Y s 1556 373 m 9 Y s
 1532 365 m 16 X s 1563 365 m 16 X s 1548 348 m 15 X s 1548 382 m 15 X s 1532 357 m 16 Y s 1579 357 m 16 Y s 1556 365 m20 1603 330 m 8 Y s 1603 354 m 8 Y s 1579 346 m 17 X s 1611 346 m 16 X s 1596 330 m 15 X s 1596 362 m 15 X s 1579 338 m 16 Y s 1627
 338 m 16 Y s 1603 346 m20 1651 319 m 7 Y s 1651 342 m 7 Y s 1627 334 m 17 X s 1659 334 m 16 X s 1644 319 m 15 X s 1644 349 m 15 X s 1627 326 m 16 Y s 1675 326 m 16 Y s 1651 334 m20 1699 337 m 8 Y s 1699 361 m 8 Y s 1675 353 m 17 X s 1707 353 m 16 X
 s 1692 337 m 15 X s 1692 369 m 15 X s 1675 345 m 16 Y s 1723 345 m 16 Y s 1699 353 m20 1747 303 m 6 Y s 1747 324 m 7 Y s 1723 317 m 17 X s 1755 317 m 16 X s 1740 303 m 15 X s 1740 331 m 15 X s 1723 309 m 15 Y s 1771 309 m 15 Y s 1747 317 m20 1795
 317 m 8 Y s 1795 340 m 7 Y s 1771 332 m 16 X s 1803 332 m 16 X s 1787 317 m 16 X s 1787 347 m 16 X s 1771 325 m 15 Y s 1819 325 m 15 Y s 1795 332 m20 1843 298 m 6 Y s 1843 319 m 6 Y s 1819 312 m 16 X s 1851 312 m 16 X s 1835 298 m 16 X s 1835 325 m
 16 X s 1819 304 m 15 Y s 1867 304 m 15 Y s 1843 312 m20 1891 285 m 5 Y s 1891 305 m 6 Y s 1867 298 m 16 X s 1898 298 m 17 X s 1883 285 m 15 X s 1883 311 m 15 X s 1867 290 m 15 Y s 1915 290 m 15 Y s 1891 298 m20 1939 295 m 6 Y s 1939 316 m 6 Y s 1915
 308 m 16 X s 1946 308 m 17 X s 1931 295 m 15 X s 1931 322 m 15 X s 1915 301 m 15 Y s 1963 301 m 15 Y s 1939 308 m20 1987 356 m 10 Y s 1987 381 m 10 Y s 1963 374 m 16 X s 1994 374 m 17 X s 1979 356 m 15 X s 1979 391 m 15 X s 1963 366 m 15 Y s 2011
 366 m 15 Y s 1987 374 m20 2035 545 m 18 Y s 2035 578 m 18 Y s 2011 570 m 16 X s 2042 570 m 17 X s 2027 545 m 15 X s 2027 596 m 15 X s 2011 563 m 15 Y s 2059 563 m 15 Y s 2035 570 m20 2082 525 m 17 Y s 2082 557 m 17 Y s 2059 550 m 16 X s 2090 550 m
 16 X s 2075 525 m 15 X s 2075 574 m 15 X s 2059 542 m 15 Y s 2106 542 m 15 Y s 2082 550 m20 2130 1165 m 34 Y s 2130 1214 m 34 Y s 2106 1207 m 17 X s 2138 1207 m 16 X s 2123 1165 m 15 X s 2123 1248 m 15 X s 2106 1199 m 15 Y s 2154 1199 m 15 Y s 2130
 1207 m20 1 0 0 c 1 1 1 c 1 0 0 c 238 213 m 16 X s 270 213 m 16 X s 238 206 m 15 Y s 286 206 m 15 Y s 262 213 m20 310 408 m 12 Y s 310 435 m 12 Y s 286 427 m 16 X s 318 427 m 16 X s 302 408 m 16 X s 302 447 m 16 X s 286 420 m 15 Y s 334 420 m 15 Y s
 310 427 m20 358 906 m 29 Y s 358 950 m 28 Y s 334 942 m 16 X s 365 942 m 17 X s 350 906 m 15 X s 350 978 m 15 X s 334 935 m 15 Y s 382 935 m 15 Y s 358 942 m20 406 937 m 29 Y s 406 981 m 29 Y s 382 973 m 16 X s 413 973 m 17 X s 398 937 m 15 X s 398
 1010 m 15 X s 382 966 m 15 Y s 430 966 m 15 Y s 406 973 m20 454 698 m 22 Y s 454 736 m 22 Y s 430 728 m 16 X s 461 728 m 17 X s 446 698 m 15 X s 446 758 m 15 X s 430 720 m 16 Y s 478 720 m 16 Y s 454 728 m20 502 668 m 21 Y s 502 704 m 22 Y s 478 697
 m 16 X s 509 697 m 17 X s 494 668 m 15 X s 494 726 m 15 X s 478 689 m 15 Y s 526 689 m 15 Y s 502 697 m20 549 404 m 12 Y s 549 432 m 12 Y s 526 424 m 16 X s 557 424 m 16 X s 542 404 m 15 X s 542 444 m 15 X s 526 416 m 16 Y s 573 416 m 16 Y s 549 424
 m20 597 418 m 12 Y s 597 445 m 13 Y s 573 438 m 17 X s 605 438 m 16 X s 590 418 m 15 X s 590 458 m 15 X s 573 430 m 15 Y s 621 430 m 15 Y s 597 438 m20 645 347 m 9 Y s 645 371 m 9 Y s 621 364 m 17 X s 653 364 m 16 X s 638 347 m 15 X s 638 380 m 15 X
 s 621 356 m 15 Y s 669 356 m 15 Y s 645 364 m20 693 306 m 7 Y s 693 328 m 7 Y s 669 320 m 17 X s 701 320 m 16 X s 686 306 m 15 X s 686 335 m 15 X s 669 313 m 15 Y s 717 313 m 15 Y s 693 320 m20 741 291 m 6 Y s 741 312 m 6 Y s 717 305 m 17 X s 749
 305 m 16 X s 734 291 m 15 X s 734 318 m 15 X s 717 297 m 15 Y s 765 297 m 15 Y s 741 305 m20 789 329 m 8 Y s 789 352 m 8 Y s 765 345 m 16 X s 797 345 m 16 X s 781 329 m 16 X s 781 360 m 16 X s 765 337 m 15 Y s 813 337 m 15 Y s 789 345 m20 837 451 m
 14 Y s 837 480 m 14 Y s 813 472 m 16 X s 845 472 m 16 X s 829 451 m 16 X s 829 494 m 16 X s 813 465 m 15 Y s 861 465 m 15 Y s 837 472 m20 885 842 m 27 Y s 885 884 m 27 Y s 861 877 m 16 X s 892 877 m 17 X s 877 842 m 15 X s 877 911 m 15 X s 861 869 m
 15 Y s 909 869 m 15 Y s 885 877 m20 933 832 m 27 Y s 933 874 m 26 Y s 909 866 m 16 X s 940 866 m 17 X s 925 832 m 15 X s 925 900 m 15 X s 909 859 m 15 Y s 957 859 m 15 Y s 933 866 m20 981 718 m 23 Y s 981 756 m 23 Y s 957 749 m 16 X s 988 749 m 17 X
 s 973 718 m 15 X s 973 779 m 15 X s 957 741 m 15 Y s 1005 741 m 15 Y s 981 749 m20 1029 579 m 19 Y s 1029 613 m 19 Y s 1005 605 m 16 X s 1036 605 m 17 X s 1021 579 m 15 X s 1021 632 m 15 X s 1005 598 m 15 Y s 1053 598 m 15 Y s 1029 605 m20 1076 569
 m 18 Y s 1076 603 m 18 Y s 1053 595 m 16 X s 1084 595 m 16 X s 1069 569 m 15 X s 1069 621 m 15 X s 1053 587 m 16 Y s 1100 587 m 16 Y s 1076 595 m20 1124 484 m 15 Y s 1124 514 m 16 Y s 1100 507 m 17 X s 1132 507 m 16 X s 1117 484 m 15 X s 1117 530 m
 15 X s 1100 499 m 15 Y s 1148 499 m 15 Y s 1124 507 m20 1172 436 m 13 Y s 1172 464 m 14 Y s 1148 457 m 17 X s 1180 457 m 16 X s 1165 436 m 15 X s 1165 478 m 15 X s 1148 449 m 15 Y s 1196 449 m 15 Y s 1172 457 m20 1220 416 m 12 Y s 1220 444 m 12 Y s
 1196 436 m 17 X s 1228 436 m 16 X s 1213 416 m 15 X s 1213 456 m 15 X s 1196 428 m 16 Y s 1244 428 m 16 Y s 1220 436 m20 1268 365 m 10 Y s 1268 390 m 10 Y s 1244 383 m 16 X s 1276 383 m 16 X s 1260 365 m 16 X s 1260 400 m 16 X s 1244 375 m 15 Y s
 1292 375 m 15 Y s 1268 383 m20 1316 309 m 7 Y s 1316 331 m 7 Y s 1292 324 m 16 X s 1324 324 m 16 X s 1308 309 m 16 X s 1308 338 m 16 X s 1292 316 m 15 Y s 1340 316 m 15 Y s 1316 324 m20 1364 301 m 7 Y s 1364 323 m 6 Y s 1340 315 m 16 X s 1371 315 m
 17 X s 1356 301 m 15 X s 1356 329 m 15 X s 1340 308 m 15 Y s 1388 308 m 15 Y s 1364 315 m20 1412 256 m 3 Y s 1412 274 m 3 Y s 1388 267 m 16 X s 1419 267 m 17 X s 1404 256 m 15 X s 1404 277 m 15 X s 1388 259 m 15 Y s 1436 259 m 15 Y s 1412 267 m20
 1460 275 m 5 Y s 1460 295 m 5 Y s 1436 288 m 16 X s 1467 288 m 17 X s 1452 275 m 15 X s 1452 300 m 15 X s 1436 280 m 15 Y s 1484 280 m 15 Y s 1460 288 m20 1508 290 m 5 Y s 1508 311 m 5 Y s 1484 303 m 16 X s 1515 303 m 17 X s 1500 290 m 15 X s 1500
 316 m 15 X s 1484 295 m 16 Y s 1532 295 m 16 Y s 1508 303 m20 1556 255 m 2 Y s 1556 273 m 3 Y s 1532 265 m 16 X s 1563 265 m 16 X s 1548 255 m 15 X s 1548 276 m 15 X s 1532 257 m 16 Y s 1579 257 m 16 Y s 1556 265 m20 1603 255 m 2 Y s 1603 273 m 3 Y
 s 1579 265 m 17 X s 1611 265 m 16 X s 1596 255 m 15 X s 1596 276 m 15 X s 1579 257 m 16 Y s 1627 257 m 16 Y s 1603 265 m20 1651 245 m 2 Y s 1651 262 m 2 Y s 1627 255 m 17 X s 1659 255 m 16 X s 1644 245 m 15 X s 1644 264 m 15 X s 1627 247 m 15 Y s
 1675 247 m 15 Y s 1651 255 m20 1699 229 m 1 Y s 1699 245 m s 1675 237 m 17 X s 1707 237 m 16 X s 1692 229 m 15 X s 1692 245 m 15 X s 1675 230 m 15 Y s 1723 230 m 15 Y s 1699 237 m20 1747 234 m 1 Y s 1747 250 m 1 Y s 1723 243 m 17 X s 1755 243 m 16 X
 s 1740 234 m 15 X s 1740 251 m 15 X s 1723 235 m 15 Y s 1771 235 m 15 Y s 1747 243 m20 1795 231 m 1 Y s 1795 247 m s 1771 239 m 16 X s 1803 239 m 16 X s 1787 231 m 16 X s 1787 247 m 16 X s 1771 232 m 15 Y s 1819 232 m 15 Y s 1795 239 m20 1843 234 m
 1 Y s 1843 250 m 1 Y s 1819 243 m 16 X s 1851 243 m 16 X s 1835 234 m 16 X s 1835 251 m 16 X s 1819 235 m 15 Y s 1867 235 m 15 Y s 1843 243 m20 1867 213 m 16 X s 1898 213 m 17 X s 1867 206 m 15 Y s 1915 206 m 15 Y s 1891 213 m20 1915 215 m 16 X s
 1946 215 m 17 X s 1915 207 m 16 Y s 1963 207 m 16 Y s 1939 215 m20 1963 218 m 16 X s 1994 218 m 17 X s 1963 211 m 15 Y s 2011 211 m 15 Y s 1987 218 m20 2011 227 m 16 X s 2042 227 m 17 X s 2011 219 m 16 Y s 2059 219 m 16 Y s 2035 227 m20 2059 212 m
 16 X s 2090 212 m 16 X s 2059 204 m 15 Y s 2106 204 m 15 Y s 2082 212 m20 2106 220 m 17 X s 2138 220 m 16 X s 2106 213 m 15 Y s 2154 213 m 15 Y s 2130 220 m20 black
 gsave  2268 1676 0 0 C 272.126 1240.34 t 0 r /Helvetica-Bold findfont 49.2982 sf 0 0 m (Kolmogorov\255Smirnov test: signal \(background\) probability = 0.326 \(0.016\)) show NC gr  238 201 m 1916 X s 290 244 m -43 Y s 332 222 m -21 Y s 373 222 m -21
 Y s 415 222 m -21 Y s 456 222 m -21 Y s 497 244 m -43 Y s 539 222 m -21 Y s 580 222 m -21 Y s 622 222 m -21 Y s 663 222 m -21 Y s 705 244 m -43 Y s 746 222 m -21 Y s 787 222 m -21 Y s 829 222 m -21 Y s 870 222 m -21 Y s 912 244 m -43 Y s 953 222 m
 -21 Y s 995 222 m -21 Y s 1036 222 m -21 Y s 1077 222 m -21 Y s 1119 244 m -43 Y s 1160 222 m -21 Y s 1202 222 m -21 Y s 1243 222 m -21 Y s 1284 222 m -21 Y s 1326 244 m -43 Y s 1367 222 m -21 Y s 1409 222 m -21 Y s 1450 222 m -21 Y s 1492 222 m -21
 Y s 1533 244 m -43 Y s 1574 222 m -21 Y s 1616 222 m -21 Y s 1657 222 m -21 Y s 1699 222 m -21 Y s 1740 244 m -43 Y s 1782 222 m -21 Y s 1823 222 m -21 Y s 1864 222 m -21 Y s 1906 222 m -21 Y s 1947 244 m -43 Y s 1989 222 m -21 Y s 2030 222 m -21 Y
 s 2071 222 m -21 Y s 2113 222 m -21 Y s 2154 244 m -43 Y s 290 244 m -43 Y s 249 222 m -21 Y s 2154 244 m -43 Y s 238 1509 m 1916 X s 290 1466 m 43 Y s 332 1487 m 22 Y s 373 1487 m 22 Y s 415 1487 m 22 Y s 456 1487 m 22 Y s 497 1466 m 43 Y s 539
 1487 m 22 Y s 580 1487 m 22 Y s 622 1487 m 22 Y s 663 1487 m 22 Y s 705 1466 m 43 Y s 746 1487 m 22 Y s 787 1487 m 22 Y s 829 1487 m 22 Y s 870 1487 m 22 Y s 912 1466 m 43 Y s 953 1487 m 22 Y s 995 1487 m 22 Y s 1036 1487 m 22 Y s 1077 1487 m 22 Y s
 1119 1466 m 43 Y s 1160 1487 m 22 Y s 1202 1487 m 22 Y s 1243 1487 m 22 Y s 1284 1487 m 22 Y s 1326 1466 m 43 Y s 1367 1487 m 22 Y s 1409 1487 m 22 Y s 1450 1487 m 22 Y s 1492 1487 m 22 Y s 1533 1466 m 43 Y s 1574 1487 m 22 Y s 1616 1487 m 22 Y s
 1657 1487 m 22 Y s 1699 1487 m 22 Y s 1740 1466 m 43 Y s 1782 1487 m 22 Y s 1823 1487 m 22 Y s 1864 1487 m 22 Y s 1906 1487 m 22 Y s 1947 1466 m 43 Y s 1989 1487 m 22 Y s 2030 1487 m 22 Y s 2071 1487 m 22 Y s 2113 1487 m 22 Y s 2154 1466 m 43 Y s
 290 1466 m 43 Y s 249 1487 m 22 Y s 2154 1466 m 43 Y s 238 201 m 1308 Y s 291 201 m -53 X s 265 241 m -27 X s 265 281 m -27 X s 265 321 m -27 X s 265 361 m -27 X s 291 401 m -53 X s 265 441 m -27 X s 265 480 m -27 X s 265 520 m -27 X s 265 560 m -27
 X s 291 600 m -53 X s 265 640 m -27 X s 265 680 m -27 X s 265 720 m -27 X s 265 760 m -27 X s 291 800 m -53 X s 265 840 m -27 X s 265 879 m -27 X s 265 919 m -27 X s 265 959 m -27 X s 291 999 m -53 X s 265 1039 m -27 X s 265 1079 m -27 X s 265 1119
 m -27 X s 265 1159 m -27 X s 291 1199 m -53 X s 265 1239 m -27 X s 265 1278 m -27 X s 265 1318 m -27 X s 265 1358 m -27 X s 291 1398 m -53 X s 291 1398 m -53 X s 265 1438 m -27 X s 265 1478 m -27 X s 2154 201 m 1308 Y s 2101 201 m 53 X s 2128 241 m
 26 X s 2128 281 m 26 X s 2128 321 m 26 X s 2128 361 m 26 X s 2101 401 m 53 X s 2128 441 m 26 X s 2128 480 m 26 X s 2128 520 m 26 X s 2128 560 m 26 X s 2101 600 m 53 X s 2128 640 m 26 X s 2128 680 m 26 X s 2128 720 m 26 X s 2128 760 m 26 X s 2101 800
 m 53 X s 2128 840 m 26 X s 2128 879 m 26 X s 2128 919 m 26 X s 2128 959 m 26 X s 2101 999 m 53 X s 2128 1039 m 26 X s 2128 1079 m 26 X s 2128 1119 m 26 X s 2128 1159 m 26 X s 2101 1199 m 53 X s 2128 1239 m 26 X s 2128 1278 m 26 X s 2128 1318 m 26 X
 s 2128 1358 m 26 X s 2101 1398 m 53 X s 2101 1398 m 53 X s 2128 1438 m 26 X s 2128 1478 m 26 X s
 gsave  2268 1676 0 0 C 2211.02 192.756 t 90 r /Helvetica-Bold findfont 45.506 sf 0 0 m (U/O\255flow \(S,B\): \(0.0, 0.0\)% / \(0.0, 0.0\)%) show NC gr  0.490196 0.545098 0.615686 c 0.364706 0.419608 0.490196 c 1587 96 23 1572 bf 0.490196 0.545098
 0.615686 c 23 1572 m 1587 X s 1610 1572 m 96 Y s 1610 1668 m -1587 X s 23 1668 m -96 Y s 1 1 1 c black 1 1 1 c
 gsave  2268 1676 0 0 C 91.012 1604.09 t 0 r /Helvetica-Bold findfont 60.6747 sf 0 0 m (TMVA overtraining check for classifier: Likelihood) show NC gr 
 gr  gr showpage
end
%%EOF
