%!PS-Adobe-2.0 EPSF-2.0
%%BoundingBox:  0 0 567 419
%%Title: dataset/plots/overtrain_SVM.eps: TMVA comparison SVM
%%Creator: ROOT Version 6.12/06
%%CreationDate: Mon May 21 16:45:00 2018
%%DocumentNeededResources: ProcSet (FontSetInit)
%%EndComments
%%BeginProlog
80 dict begin
/s {stroke} def /l {lineto} def /m {moveto} def /t {translate} def
/r {rotate} def /rl {roll}  def /R {repeat} def
/d {rlineto} def /rm {rmoveto} def /gr {grestore} def /f {eofill} def
/c {setrgbcolor} def /black {0 setgray} def /sd {setdash} def
/cl {closepath} def /sf {scalefont setfont} def /lw {setlinewidth} def
/box {m dup 0 exch d exch 0 d 0 exch neg d cl} def
/NC{systemdict begin initclip end}def/C{NC box clip newpath}def
/bl {box s} def /bf {gsave box gsave f grestore 1 lw [] 0 sd s grestore} def /Y { 0 exch d} def /X { 0 d} def 
/K {{pop pop 0 moveto} exch kshow} bind def
/ita {/ang 15 def gsave [1 0 ang dup sin exch cos div 1 0 0] concat} def 
/mp {newpath /y exch def /x exch def} def
/side {[w .77 mul w .23 mul] .385 w mul sd w 0 l currentpoint t -144 r} def
/mr {mp x y w2 0 360 arc} def /m24 {mr s} def /m20 {mr f} def
/mb {mp x y w2 add m w2 neg 0 d 0 w neg d w 0 d 0 w d cl} def
/mt {mp x y w2 add m w2 neg w neg d w 0 d cl} def
/w4 {w 4 div} def
/w6 {w 6 div} def
/w8 {w 8 div} def
/m21 {mb f} def /m25 {mb s} def /m22 {mt f} def /m26{mt s} def
/m23 {mp x y w2 sub m w2 w d w neg 0 d cl f} def
/m27 {mp x y w2 add m w3 neg w2 neg d w3 w2 neg d w3 w2 d cl s} def
/m28 {mp x w2 sub y w2 sub w3 add m w3 0 d  0 w3 neg d w3 0 d 0 w3 d w3 0 d  0 w3 d w3 neg 0 d 0 w3 d w3 neg 0 d 0 w3 neg d w3 neg 0 d cl s } def
/m29 {mp gsave x w2 sub y w2 add w3 sub m currentpoint t 4 {side} repeat cl fill gr} def
/m30 {mp gsave x w2 sub y w2 add w3 sub m currentpoint t 4 {side} repeat cl s gr} def
/m31 {mp x y w2 sub m 0 w d x w2 sub y m w 0 d x w2 sub y w2 add m w w neg d x w2 sub y w2 sub m w w d s} def
/m32 {mp x y w2 sub m w2 w d w neg 0 d cl s} def
/m33 {mp x y w2 add m w3 neg w2 neg d w3 w2 neg d w3 w2 d cl f} def
/m34 {mp x w2 sub y w2 sub w3 add m w3 0 d  0 w3 neg d w3 0 d 0 w3 d w3 0 d  0 w3 d w3 neg 0 d 0 w3 d w3 neg 0 d 0 w3 neg d w3 neg 0 d cl f } def
/m35 {mp x y w2 add m w2 neg w2 neg d w2 w2 neg d w2 w2 d w2 neg w2 d x y w2 sub m 0 w d x w2 sub y m w 0 d s} def
/m36 {mb x w2 sub y w2 add m w w neg d x w2 sub y w2 sub m w w d s} def
/m37 {mp x y m w4 neg w2 d w4 neg w2 neg d w2 0 d  w4 neg w2 neg d w2 0 d w4 neg w2 d w2 0 d w4 neg w2 d w4 neg w2 neg d cl s} def
/m38 {mp x w4 sub y w2 add m w4 neg w4 neg d 0 w2 neg d w4 w4 neg d w2 0 d w4 w4 d 0 w2 d w4 neg w4 d w2 neg 0 d x y w2 sub m 0 w d x w2 sub y m w 0 d cl s} def
/m39 {mp x y m w4 neg w2 d w4 neg w2 neg d w2 0 d  w4 neg w2 neg d w2 0 d w4 neg w2 d w2 0 d w4 neg w2 d w4 neg w2 neg d cl f} def
/m40 {mp x y m w4 w2 d w4 w4 neg d w2 neg w4 neg d w2 w4 neg d w4 neg w4 neg d w4 neg w2 d w4 neg w2 neg d w4 neg w4 d w2 w4 d w2 neg w4 d w4 w4 d w4 w2 neg d cl s} def
/m41 {mp x y m w4 w2 d w4 w4 neg d w2 neg w4 neg d w2 w4 neg d w4 neg w4 neg d w4 neg w2 d w4 neg w2 neg d w4 neg w4 d w2 w4 d w2 neg w4 d w4 w4 d w4 w2 neg d cl f} def
/m42 {mp x y w2 add m w8 neg w2 -3 4 div mul d w2 -3 4 div mul w8 neg d w2 3 4 div mul w8 neg d w8 w2 -3 4 div mul d w8 w2 3 4 div mul d w2 3 4 div mul w8 d w2 -3 4 div mul w8 d w8 neg w2 3 4 div mul d cl s} def
/m43 {mp x y w2 add m w8 neg w2 -3 4 div mul d w2 -3 4 div mul w8 neg d w2 3 4 div mul w8 neg d w8 w2 -3 4 div mul d w8 w2 3 4 div mul d w2 3 4 div mul w8 d w2 -3 4 div mul w8 d w8 neg w2 3 4 div mul d cl f} def
/m44 {mp x y m w6 neg w2 d w2 2 3 div mul 0 d w6 neg w2 neg d w2 w6 d 0 w2 -2 3 div mul d w2 neg w6 d w6 w2 neg d w2 -2 3 div mul 0 d w6 w2 d w2 neg w6 neg d 0 w2 2 3 div mul d w2 w6 neg d cl s} def
/m45 {mp x y m w6 neg w2 d w2 2 3 div mul 0 d w6 neg w2 neg d w2 w6 d 0 w2 -2 3 div mul d w2 neg w6 d w6 w2 neg d w2 -2 3 div mul 0 d w6 w2 d w2 neg w6 neg d 0 w2 2 3 div mul d w2 w6 neg d cl f} def
/m46 {mp x y w4 add m w4 neg w4 d w4 neg w4 neg d  w4 w4 neg d w4 neg w4 neg d w4 w4 neg d w4 w4 d w4 w4 neg d w4 w4 d w4 neg w4 d w4 w4 d w4 neg w4 d w4 neg w4 neg d cl s} def
/m47 {mp x y w4 add m w4 neg w4 d w4 neg w4 neg d w4 w4 neg d w4 neg w4 neg d  w4 w4 neg d w4 w4 d w4 w4 neg d w4 w4 d w4 neg w4 d w4 w4 d w4 neg w4 d w4 neg w4 neg d cl f} def
/m48 {mp x y w4 add m w4 neg w4 d w4 neg w4 neg d w4 w4 neg d  w4 neg w4 neg d w4 w4 neg d w4 w4 d w4 w4 neg d w4 w4 d w4 neg w4 d w4 w4 d w4 neg w4 d w4 neg w4 neg d  w4 w4 neg d w4 neg w4 neg d w4 neg w4 d w4 w4 d cl f} def
/m49 {mp x w2 sub w3 add y w2 sub w3 add m  0 w3 neg d w3 0 d 0 w3 d w3 0 d 0 w3 d w3 neg 0 d 0 w3 d w3 neg 0 d 0 w3 neg d w3 neg 0 d 0 w3 neg d w3 0 d 0 w3 d w3 0 d 0 w3 neg d w3 neg 0 d cl f } def
/m2 {mp x y w2 sub m 0 w d x w2 sub y m w 0 d s} def
/m5 {mp x w2 sub y w2 sub m w w d x w2 sub y w2 add m w w neg d s} def
%%IncludeResource: ProcSet (FontSetInit)
%%IncludeResource: font Times-Roman
%%IncludeResource: font Times-Italic
%%IncludeResource: font Times-Bold
%%IncludeResource: font Times-BoldItalic
%%IncludeResource: font Helvetica
%%IncludeResource: font Helvetica-Oblique
%%IncludeResource: font Helvetica-Bold
%%IncludeResource: font Helvetica-BoldOblique
%%IncludeResource: font Courier
%%IncludeResource: font Courier-Oblique
%%IncludeResource: font Courier-Bold
%%IncludeResource: font Courier-BoldOblique
%%IncludeResource: font Symbol
%%IncludeResource: font ZapfDingbats
/reEncode {exch findfont dup length dict begin {1 index /FID eq  {pop pop} {def} ifelse } forall /Encoding exch def currentdict end dup /FontName get exch definefont pop } def [/Times-Bold /Times-Italic /Times-BoldItalic /Helvetica /Helvetica-Oblique
 /Helvetica-Bold /Helvetica-BoldOblique /Courier /Courier-Oblique /Courier-Bold /Courier-BoldOblique /Times-Roman /AvantGarde-Book /AvantGarde-BookOblique /AvantGarde-Demi /AvantGarde-DemiOblique /Bookman-Demi /Bookman-DemiItalic /Bookman-Light
 /Bookman-LightItalic /Helvetica-Narrow /Helvetica-Narrow-Bold /Helvetica-Narrow-BoldOblique /Helvetica-Narrow-Oblique /NewCenturySchlbk-Roman /NewCenturySchlbk-Bold /NewCenturySchlbk-BoldItalic /NewCenturySchlbk-Italic /Palatino-Bold
 /Palatino-BoldItalic /Palatino-Italic /Palatino-Roman ] {ISOLatin1Encoding reEncode } forall
%%EndProlog
%%BeginSetup
%%EndSetup
newpath  gsave  .25 .25 scale  gsave  0 0 t 0.490196 0.545098 0.615686 c[  ] 0 sd 3 lw 0.941176 0.941176 0.941176 c 2268 1676 0 0 bf black 1 1 0.992157 c 1916 1308 238 201 bf black 1916 1308 238 201 bl 1 1 0.992157 c 1916 1308 238 201 bf black 1916
 1308 238 201 bl 238 201 m 1916 X s 430 244 m -43 Y s 468 222 m -21 Y s 507 222 m -21 Y s 545 222 m -21 Y s 583 222 m -21 Y s 622 244 m -43 Y s 660 222 m -21 Y s 698 222 m -21 Y s 737 222 m -21 Y s 775 222 m -21 Y s 813 244 m -43 Y s 852 222 m -21 Y
 s 890 222 m -21 Y s 928 222 m -21 Y s 967 222 m -21 Y s 1005 244 m -43 Y s 1044 222 m -21 Y s 1082 222 m -21 Y s 1120 222 m -21 Y s 1159 222 m -21 Y s 1197 244 m -43 Y s 1235 222 m -21 Y s 1274 222 m -21 Y s 1312 222 m -21 Y s 1350 222 m -21 Y s
 1389 244 m -43 Y s 1427 222 m -21 Y s 1465 222 m -21 Y s 1504 222 m -21 Y s 1542 222 m -21 Y s 1581 244 m -43 Y s 1619 222 m -21 Y s 1657 222 m -21 Y s 1696 222 m -21 Y s 1734 222 m -21 Y s 1772 244 m -43 Y s 1811 222 m -21 Y s 1849 222 m -21 Y s
 1887 222 m -21 Y s 1926 222 m -21 Y s 1964 244 m -43 Y s 430 244 m -43 Y s 391 222 m -21 Y s 353 222 m -21 Y s 315 222 m -21 Y s 276 222 m -21 Y s 1964 244 m -43 Y s 2002 222 m -21 Y s 2041 222 m -21 Y s 2079 222 m -21 Y s 2118 222 m -21 Y s
 gsave  2268 1676 0 0 C 386.801 128.934 t 0 r /Helvetica-Bold findfont 64.4669 sf 0 0 m (0.1) show NC gr 
 gsave  2268 1676 0 0 C 572.617 128.934 t 0 r /Helvetica-Bold findfont 64.4669 sf 0 0 m (0.2) show NC gr 
 gsave  2268 1676 0 0 C 766.018 128.934 t 0 r /Helvetica-Bold findfont 64.4669 sf 0 0 m (0.3) show NC gr 
 gsave  2268 1676 0 0 C 959.419 128.934 t 0 r /Helvetica-Bold findfont 64.4669 sf 0 0 m (0.4) show NC gr 
 gsave  2268 1676 0 0 C 1149.03 128.934 t 0 r /Helvetica-Bold findfont 64.4669 sf 0 0 m (0.5) show NC gr 
 gsave  2268 1676 0 0 C 1342.43 128.934 t 0 r /Helvetica-Bold findfont 64.4669 sf 0 0 m (0.6) show NC gr 
 gsave  2268 1676 0 0 C 1532.04 128.934 t 0 r /Helvetica-Bold findfont 64.4669 sf 0 0 m (0.7) show NC gr 
 gsave  2268 1676 0 0 C 1725.44 128.934 t 0 r /Helvetica-Bold findfont 64.4669 sf 0 0 m (0.8) show NC gr 
 gsave  2268 1676 0 0 C 1915.04 128.934 t 0 r /Helvetica-Bold findfont 64.4669 sf 0 0 m (0.9) show NC gr 
 gsave  2268 1676 0 0 C 1657.18 30.3373 t 0 r /Helvetica-Bold findfont 72.0512 sf 0 0 m (SVM response) show NC gr  238 1509 m 1916 X s 430 1466 m 43 Y s 468 1487 m 22 Y s 507 1487 m 22 Y s 545 1487 m 22 Y s 583 1487 m 22 Y s 622 1466 m 43 Y s 660
 1487 m 22 Y s 698 1487 m 22 Y s 737 1487 m 22 Y s 775 1487 m 22 Y s 813 1466 m 43 Y s 852 1487 m 22 Y s 890 1487 m 22 Y s 928 1487 m 22 Y s 967 1487 m 22 Y s 1005 1466 m 43 Y s 1044 1487 m 22 Y s 1082 1487 m 22 Y s 1120 1487 m 22 Y s 1159 1487 m 22
 Y s 1197 1466 m 43 Y s 1235 1487 m 22 Y s 1274 1487 m 22 Y s 1312 1487 m 22 Y s 1350 1487 m 22 Y s 1389 1466 m 43 Y s 1427 1487 m 22 Y s 1465 1487 m 22 Y s 1504 1487 m 22 Y s 1542 1487 m 22 Y s 1581 1466 m 43 Y s 1619 1487 m 22 Y s 1657 1487 m 22 Y
 s 1696 1487 m 22 Y s 1734 1487 m 22 Y s 1772 1466 m 43 Y s 1811 1487 m 22 Y s 1849 1487 m 22 Y s 1887 1487 m 22 Y s 1926 1487 m 22 Y s 1964 1466 m 43 Y s 430 1466 m 43 Y s 391 1487 m 22 Y s 353 1487 m 22 Y s 315 1487 m 22 Y s 276 1487 m 22 Y s 1964
 1466 m 43 Y s 2002 1487 m 22 Y s 2041 1487 m 22 Y s 2079 1487 m 22 Y s 2118 1487 m 22 Y s 238 201 m 1308 Y s 291 201 m -53 X s 265 255 m -27 X s 265 308 m -27 X s 265 362 m -27 X s 291 415 m -53 X s 265 469 m -27 X s 265 522 m -27 X s 265 576 m -27
 X s 291 629 m -53 X s 265 683 m -27 X s 265 736 m -27 X s 265 790 m -27 X s 291 843 m -53 X s 265 897 m -27 X s 265 950 m -27 X s 265 1004 m -27 X s 291 1057 m -53 X s 265 1111 m -27 X s 265 1164 m -27 X s 265 1218 m -27 X s 291 1271 m -53 X s 265
 1325 m -27 X s 265 1378 m -27 X s 265 1432 m -27 X s 291 1485 m -53 X s 291 1485 m -53 X s
 gsave  2268 1676 0 0 C 174.44 178.232 t 0 r /Helvetica-Bold findfont 64.4669 sf 0 0 m (0) show NC gr 
 gsave  2268 1676 0 0 C 174.44 390.593 t 0 r /Helvetica-Bold findfont 64.4669 sf 0 0 m (2) show NC gr 
 gsave  2268 1676 0 0 C 174.44 602.955 t 0 r /Helvetica-Bold findfont 64.4669 sf 0 0 m (4) show NC gr 
 gsave  2268 1676 0 0 C 174.44 819.108 t 0 r /Helvetica-Bold findfont 64.4669 sf 0 0 m (6) show NC gr 
 gsave  2268 1676 0 0 C 174.44 1031.47 t 0 r /Helvetica-Bold findfont 64.4669 sf 0 0 m (8) show NC gr 
 gsave  2268 1676 0 0 C 136.518 1247.62 t 0 r /Helvetica-Bold findfont 64.4669 sf 0 0 m (10) show NC gr 
 gsave  2268 1676 0 0 C 136.518 1459.98 t 0 r /Helvetica-Bold findfont 64.4669 sf 0 0 m (12) show NC gr 
 gsave  2268 1676 0 0 C 64.4669 1425.86 t 90 r /Helvetica-Bold findfont 72.0512 sf 0 0 m (dx) show NC gr 
 gsave  2268 1676 0 0 C 30.3373 1406.89 t 90 r /Helvetica-Bold findfont 45.506 sf 0 0 m ( ) show NC gr 
 gsave  2268 1676 0 0 C 64.4669 1384.14 t 90 r /Helvetica-Bold findfont 72.0512 sf 0 0 m (/) show NC gr 
 gsave  2268 1676 0 0 C 30.3373 1365.18 t 90 r /Helvetica-Bold findfont 45.506 sf 0 0 m ( ) show NC gr 
 gsave  2268 1676 0 0 C 60.6747 1092.14 t 90 r /Helvetica-Bold findfont 72.0512 sf 0 0 m (\(1/N\) dN) show NC gr  2154 201 m 1308 Y s 2101 201 m 53 X s 2128 255 m 26 X s 2128 308 m 26 X s 2128 362 m 26 X s 2101 415 m 53 X s 2128 469 m 26 X s 2128 522
 m 26 X s 2128 576 m 26 X s 2101 629 m 53 X s 2128 683 m 26 X s 2128 736 m 26 X s 2128 790 m 26 X s 2101 843 m 53 X s 2128 897 m 26 X s 2128 950 m 26 X s 2128 1004 m 26 X s 2101 1057 m 53 X s 2128 1111 m 26 X s 2128 1164 m 26 X s 2128 1218 m 26 X s
 2101 1271 m 53 X s 2128 1325 m 26 X s 2128 1378 m 26 X s 2128 1432 m 26 X s 2101 1485 m 53 X s 2101 1485 m 53 X s 0.490196 0.545098 0.615686 c 1 1 1 c 0.490196 0.545098 0.615686 c 907 202 238 1307 bl 238 1307 m 907 X s 1145 1307 m 202 Y s 1145 1509
 m -907 X s 238 1509 m -202 Y s black
 gsave  2268 1676 0 0 C 417.138 1437.23 t 0 r /Helvetica-Bold findfont 56.8825 sf 0 0 m (Signal \(test sample\)) show NC gr  0.49 0.6 0.82 c 265 1423 m 127 X 70 Y -127 X f 0 0 0.933333 c 265 1493 m 127 X s 265 1423 m 127 X s 392 1423 m 70 Y s 265
 1423 m 70 Y s black
 gsave  2268 1676 0 0 C 417.138 1338.64 t 0 r /Helvetica-Bold findfont 56.8825 sf 0 0 m (Background \(test sample\)) show NC gr  1 0 0 c 392 1354 m -32 -32 d s 383 1393 m -71 -71 d s 335 1393 m -70 -69 d s 286 1393 m -21 -21 d s 0 0 0.933333 c 1 0 0
 c 265 1393 m 127 X s 265 1322 m 127 X s 392 1322 m 71 Y s 265 1322 m 71 Y s 0 0 0.933333 c 0.49 0.6 0.82 c black 0.49 0.6 0.82 c 238 201 m 335 X 3 Y 48 X -2 Y 48 X 1 Y 48 X 2 Y 48 X -1 Y 48 X 2 Y 48 X -2 Y 48 X 8 Y 48 X 4 Y 48 X 13 Y 48 X 14 Y 47 X
 8 Y 48 X 21 Y 48 X 35 Y 48 X 59 Y 48 X 127 Y 48 X 367 Y 48 X -207 Y 48 X -111 Y 48 X -86 Y 48 X -49 Y 47 X -10 Y 48 X -32 Y 48 X -20 Y 48 X 7 Y 48 X -22 Y 48 X 1 Y 48 X -15 Y 48 X 19 Y 48 X -24 Y 48 X -10 Y 48 X 17 Y 47 X -31 Y 48 X -86 Y f 0 0
 0.933333 c 0.49 0.6 0.82 c 0 0 0.933333 c 238 201 m 335 X 3 Y 48 X -2 Y 48 X 1 Y 48 X 2 Y 48 X -1 Y 48 X 2 Y 48 X -2 Y 48 X 8 Y 48 X 4 Y 48 X 13 Y 48 X 14 Y 47 X 8 Y 48 X 21 Y 48 X 35 Y 48 X 59 Y 48 X 127 Y 48 X 367 Y 48 X -207 Y 48 X -111 Y 48 X
 -86 Y 48 X -49 Y 47 X -10 Y 48 X -32 Y 48 X -20 Y 48 X 7 Y 48 X -22 Y 48 X 1 Y 48 X -15 Y 48 X 19 Y 48 X -24 Y 48 X -10 Y 48 X 17 Y 47 X -31 Y 48 X -86 Y s 1 0 0 c black 1 0 0 c 2125 201 m s 2077 201 m s 2029 201 m s 1981 201 m s 1933 201 m s 1885
 201 m s 1837 201 m s 1789 201 m cl s 1741 201 m s 1692 201 m s 1647 204 m -3 -3 d s 1605 210 m -9 -9 d s 1579 233 m -31 -32 d s 1551 253 m -51 -52 d s 1532 281 m -80 -80 d s 1524 321 m -120 -120 d s 1484 329 m -128 -128 d s 1484 377 m -176 -176 d s
 1463 405 m -204 -204 d s 1436 426 m -144 -144 d s 1273 263 m -62 -62 d s 1436 474 m -144 -144 d s 1201 239 m -38 -38 d s 1436 522 m -96 -96 d s 1318 404 m -26 -26 d s 1149 235 m -34 -34 d s 1436 570 m -96 -96 d s 1101 235 m -34 -34 d s 1436 618 m
 -96 -96 d s 1057 240 m -4 -5 d s 1048 230 m -29 -29 d s 1411 641 m -71 -71 d s 1005 235 m -34 -34 d s 1388 666 m -48 -48 d s 985 264 m -62 -63 d s 1388 714 m -48 -48 d s 930 257 m -55 -56 d s 1388 762 m -48 -47 d s 909 283 m -82 -82 d s 1388 811 m
 -48 -48 d s 862 285 m -84 -84 d s 1388 859 m -48 -48 d s 859 330 m -129 -129 d s 1388 907 m -48 -48 d s 813 332 m -131 -131 d s 1388 955 m -48 -48 d s 813 380 m -179 -179 d s 1388 1003 m -48 -48 d s 810 426 m -224 -225 d s 1388 1051 m -48 -48 d s
 765 428 m -227 -227 d s 1388 1099 m -48 -48 d s 765 476 m -192 -191 d s 559 271 m -69 -70 d s 1388 1147 m -48 -48 d s 765 525 m -144 -144 d s 594 354 m -21 -21 d s 478 237 m s 467 226 m -25 -25 d s 1388 1195 m -48 -47 d s 737 545 m -116 -116 d s 405
 212 m -11 -11 d s 1351 1207 m -11 -11 d s 717 573 m -96 -96 d s 355 211 m -10 -10 d s 717 621 m -48 -48 d s 644 548 m -23 -23 d s 308 212 m -11 -11 d s 694 646 m -25 -25 d s 257 209 m -8 -8 d s 238 209 m 48 X 3 Y 48 X -1 Y 48 X 1 Y 48 X 14 Y 48 X 11
 Y 48 X 34 Y 47 X 83 Y 48 X 194 Y 48 X 98 Y 48 X -101 Y 48 X -119 Y 48 X -96 Y 48 X -45 Y 48 X -28 Y 48 X 7 Y 48 X -34 Y 48 X 10 Y 47 X -5 Y 96 X 4 Y 48 X 24 Y 48 X 141 Y 48 X 803 Y 48 X -566 Y 48 X -236 Y 48 X -84 Y 48 X -68 Y 47 X -43 Y 48 X -6 Y
 48 X -3 Y 479 X s 0.490196 0.545098 0.615686 c 1 1 1 c 0.490196 0.545098 0.615686 c 952 202 1202 1307 bl 1202 1307 m 952 X s 2154 1307 m 202 Y s 2154 1509 m -952 X s 1202 1509 m -202 Y s black
 gsave  2268 1676 0 0 C 1296.92 1437.23 t 0 r /Helvetica-Bold findfont 56.8825 sf 0 0 m (Signal \(training sample\)) show NC gr  0 0 0.933333 c /w 21 def /w2 {w 2 div} def /w3 {w 3 div} def 1250 1458 m20 black
 gsave  2268 1676 0 0 C 1296.92 1338.64 t 0 r /Helvetica-Bold findfont 56.8825 sf 0 0 m (Background \(training sample\)) show NC gr  1 0 0 c 1250 1358 m20 0 0 0.933333 c 1 1 1 c 0 0 0.933333 c 526 202 m 16 X s 557 202 m 16 X s 526 194 m 16 Y s 573
 194 m 16 Y s 549 202 m20 573 203 m 17 X s 605 203 m 16 X s 573 195 m 15 Y s 621 195 m 15 Y s 597 203 m20 669 202 m 17 X s 701 202 m 16 X s 669 194 m 16 Y s 717 194 m 16 Y s 693 202 m20 717 205 m 17 X s 749 205 m 16 X s 717 197 m 15 Y s 765 197 m 15
 Y s 741 205 m20 765 205 m 16 X s 797 205 m 16 X s 765 197 m 15 Y s 813 197 m 15 Y s 789 205 m20 813 208 m 16 X s 845 208 m 16 X s 813 200 m 16 Y s 861 200 m 16 Y s 837 208 m20 861 209 m 16 X s 892 209 m 17 X s 861 201 m 15 Y s 909 201 m 15 Y s 885
 209 m20 909 208 m 16 X s 940 208 m 17 X s 909 200 m 16 Y s 957 200 m 16 Y s 933 208 m20 957 221 m 16 X s 988 221 m 17 X s 957 213 m 15 Y s 1005 213 m 15 Y s 981 221 m20 1005 225 m 16 X s 1036 225 m 17 X s 1005 218 m 15 Y s 1053 218 m 15 Y s 1029 225
 m20 1053 240 m 16 X s 1084 240 m 16 X s 1053 232 m 15 Y s 1100 232 m 15 Y s 1076 240 m20 1100 255 m 17 X s 1132 255 m 16 X s 1100 248 m 15 Y s 1148 248 m 15 Y s 1124 255 m20 1172 267 m s 1172 282 m 1 Y s 1148 275 m 17 X s 1180 275 m 16 X s 1165 267
 m 15 X s 1165 283 m 15 X s 1148 267 m 15 Y s 1196 267 m 15 Y s 1172 275 m20 1220 304 m 2 Y s 1220 321 m 2 Y s 1196 313 m 17 X s 1228 313 m 16 X s 1213 304 m 15 X s 1213 323 m 15 X s 1196 306 m 15 Y s 1244 306 m 15 Y s 1220 313 m20 1268 365 m 5 Y s
 1268 385 m 5 Y s 1244 378 m 16 X s 1276 378 m 16 X s 1260 365 m 16 X s 1260 390 m 16 X s 1244 370 m 15 Y s 1292 370 m 15 Y s 1268 378 m20 1316 498 m 9 Y s 1316 522 m 9 Y s 1292 515 m 16 X s 1324 515 m 16 X s 1308 498 m 16 X s 1308 531 m 16 X s 1292
 507 m 15 Y s 1340 507 m 15 Y s 1316 515 m20 1364 844 m 16 Y s 1364 875 m 17 Y s 1340 868 m 16 X s 1371 868 m 17 X s 1356 844 m 15 X s 1356 892 m 15 X s 1340 860 m 15 Y s 1388 860 m 15 Y s 1364 868 m20 1412 595 m 12 Y s 1412 622 m 11 Y s 1388 614 m
 16 X s 1419 614 m 17 X s 1404 595 m 15 X s 1404 633 m 15 X s 1388 607 m 15 Y s 1436 607 m 15 Y s 1412 614 m20 1460 523 m 10 Y s 1460 548 m 9 Y s 1436 540 m 16 X s 1467 540 m 17 X s 1452 523 m 15 X s 1452 557 m 15 X s 1436 533 m 15 Y s 1484 533 m 15
 Y s 1460 540 m20 1508 415 m 6 Y s 1508 437 m 6 Y s 1484 429 m 16 X s 1515 429 m 17 X s 1500 415 m 15 X s 1500 443 m 15 X s 1484 421 m 16 Y s 1532 421 m 16 Y s 1508 429 m20 1556 423 m 6 Y s 1556 444 m 7 Y s 1532 437 m 16 X s 1563 437 m 16 X s 1548
 423 m 15 X s 1548 451 m 15 X s 1532 429 m 15 Y s 1579 429 m 15 Y s 1556 437 m20 1603 367 m 5 Y s 1603 387 m 5 Y s 1579 379 m 17 X s 1611 379 m 16 X s 1596 367 m 15 X s 1596 392 m 15 X s 1579 372 m 15 Y s 1627 372 m 15 Y s 1603 379 m20 1651 342 m 4 Y
 s 1651 361 m 4 Y s 1627 354 m 17 X s 1659 354 m 16 X s 1644 342 m 15 X s 1644 365 m 15 X s 1627 346 m 15 Y s 1675 346 m 15 Y s 1651 354 m20 1699 324 m 3 Y s 1699 342 m 3 Y s 1675 335 m 17 X s 1707 335 m 16 X s 1692 324 m 15 X s 1692 345 m 15 X s
 1675 327 m 15 Y s 1723 327 m 15 Y s 1699 335 m20 1747 341 m 4 Y s 1747 360 m 4 Y s 1723 353 m 17 X s 1755 353 m 16 X s 1740 341 m 15 X s 1740 364 m 15 X s 1723 345 m 15 Y s 1771 345 m 15 Y s 1747 353 m20 1795 338 m 4 Y s 1795 357 m 4 Y s 1771 349 m
 16 X s 1803 349 m 16 X s 1787 338 m 16 X s 1787 361 m 16 X s 1771 342 m 15 Y s 1819 342 m 15 Y s 1795 349 m20 1843 318 m 2 Y s 1843 336 m 2 Y s 1819 328 m 16 X s 1851 328 m 16 X s 1835 318 m 16 X s 1835 338 m 16 X s 1819 320 m 16 Y s 1867 320 m 16 Y
 s 1843 328 m20 1891 308 m 3 Y s 1891 326 m 3 Y s 1867 319 m 16 X s 1898 319 m 17 X s 1883 308 m 15 X s 1883 329 m 15 X s 1867 311 m 15 Y s 1915 311 m 15 Y s 1891 319 m20 1939 315 m 3 Y s 1939 333 m 3 Y s 1915 325 m 16 X s 1946 325 m 17 X s 1931 315
 m 15 X s 1931 336 m 15 X s 1915 318 m 15 Y s 1963 318 m 15 Y s 1939 325 m20 1987 304 m 2 Y s 1987 321 m 2 Y s 1963 313 m 16 X s 1994 313 m 17 X s 1979 304 m 15 X s 1979 323 m 15 X s 1963 306 m 15 Y s 2011 306 m 15 Y s 1987 313 m20 2035 290 m 1 Y s
 2035 306 m 2 Y s 2011 299 m 16 X s 2042 299 m 17 X s 2027 290 m 15 X s 2027 308 m 15 X s 2011 291 m 15 Y s 2059 291 m 15 Y s 2035 299 m20 2082 298 m 2 Y s 2082 315 m 2 Y s 2059 307 m 16 X s 2090 307 m 16 X s 2075 298 m 15 X s 2075 317 m 15 X s 2059
 300 m 15 Y s 2106 300 m 15 Y s 2082 307 m20 2130 299 m 3 Y s 2130 317 m 2 Y s 2106 309 m 17 X s 2138 309 m 16 X s 2123 299 m 15 X s 2123 319 m 15 X s 2106 302 m 15 Y s 2154 302 m 15 Y s 2130 309 m20 1 0 0 c 1 1 1 c 1 0 0 c 238 213 m 16 X s 270 213 m
 16 X s 238 206 m 15 Y s 286 206 m 15 Y s 262 213 m20 286 210 m 16 X s 318 210 m 16 X s 286 202 m 15 Y s 334 202 m 15 Y s 310 210 m20 334 214 m 16 X s 365 214 m 17 X s 334 206 m 16 Y s 382 206 m 16 Y s 358 214 m20 382 215 m 16 X s 413 215 m 17 X s
 382 207 m 15 Y s 430 207 m 15 Y s 406 215 m20 430 230 m 16 X s 461 230 m 17 X s 430 223 m 15 Y s 478 223 m 15 Y s 454 230 m20 478 241 m 16 X s 509 241 m 17 X s 478 234 m 15 Y s 526 234 m 15 Y s 502 241 m20 526 265 m 16 X s 557 265 m 16 X s 526 258 m
 15 Y s 573 258 m 15 Y s 549 265 m20 597 325 m 3 Y s 597 343 m 3 Y s 573 336 m 17 X s 605 336 m 16 X s 590 325 m 15 X s 590 346 m 15 X s 573 328 m 15 Y s 621 328 m 15 Y s 597 336 m20 645 490 m 9 Y s 645 514 m 8 Y s 621 506 m 17 X s 653 506 m 16 X s
 638 490 m 15 X s 638 522 m 15 X s 621 499 m 15 Y s 669 499 m 15 Y s 645 506 m20 693 611 m 12 Y s 693 638 m 12 Y s 669 630 m 17 X s 701 630 m 16 X s 686 611 m 15 X s 686 650 m 15 X s 669 623 m 15 Y s 717 623 m 15 Y s 693 630 m20 741 534 m 10 Y s 741
 559 m 10 Y s 717 552 m 17 X s 749 552 m 16 X s 734 534 m 15 X s 734 569 m 15 X s 717 544 m 15 Y s 765 544 m 15 Y s 741 552 m20 789 417 m 6 Y s 789 438 m 7 Y s 765 431 m 16 X s 797 431 m 16 X s 781 417 m 16 X s 781 445 m 16 X s 765 423 m 15 Y s 813
 423 m 15 Y s 789 431 m20 837 350 m 5 Y s 837 370 m 4 Y s 813 362 m 16 X s 845 362 m 16 X s 829 350 m 16 X s 829 374 m 16 X s 813 355 m 15 Y s 861 355 m 15 Y s 837 362 m20 885 270 m 1 Y s 885 286 m s 861 278 m 16 X s 892 278 m 17 X s 877 270 m 15 X s
 877 286 m 15 X s 861 271 m 15 Y s 909 271 m 15 Y s 885 278 m20 933 265 m 1 Y s 933 281 m s 909 273 m 16 X s 940 273 m 17 X s 925 265 m 15 X s 925 281 m 15 X s 909 266 m 15 Y s 957 266 m 15 Y s 933 273 m20 957 229 m 16 X s 988 229 m 17 X s 957 222 m
 15 Y s 1005 222 m 15 Y s 981 229 m20 1005 241 m 16 X s 1036 241 m 17 X s 1005 234 m 15 Y s 1053 234 m 15 Y s 1029 241 m20 1053 233 m 16 X s 1084 233 m 16 X s 1053 225 m 15 Y s 1100 225 m 15 Y s 1076 233 m20 1100 237 m 17 X s 1132 237 m 16 X s 1100
 230 m 15 Y s 1148 230 m 15 Y s 1124 237 m20 1148 240 m 17 X s 1180 240 m 16 X s 1148 232 m 15 Y s 1196 232 m 15 Y s 1172 240 m20 1196 238 m 17 X s 1228 238 m 16 X s 1196 230 m 16 Y s 1244 230 m 16 Y s 1220 238 m20 1268 267 m s 1268 282 m 1 Y s 1244
 275 m 16 X s 1276 275 m 16 X s 1260 267 m 16 X s 1260 283 m 16 X s 1244 267 m 15 Y s 1292 267 m 15 Y s 1268 275 m20 1316 372 m 5 Y s 1316 392 m 5 Y s 1292 384 m 16 X s 1324 384 m 16 X s 1308 372 m 16 X s 1308 397 m 16 X s 1292 377 m 15 Y s 1340 377
 m 15 Y s 1316 384 m20 1364 1173 m 21 Y s 1364 1209 m 22 Y s 1340 1202 m 16 X s 1371 1202 m 17 X s 1356 1173 m 15 X s 1356 1231 m 15 X s 1340 1194 m 15 Y s 1388 1194 m 15 Y s 1364 1202 m20 1412 646 m 12 Y s 1412 673 m 12 Y s 1388 666 m 16 X s 1419
 666 m 17 X s 1404 646 m 15 X s 1404 685 m 15 X s 1388 658 m 15 Y s 1436 658 m 15 Y s 1412 666 m20 1460 425 m 7 Y s 1460 447 m 7 Y s 1436 439 m 16 X s 1467 439 m 17 X s 1452 425 m 15 X s 1452 454 m 15 X s 1436 432 m 15 Y s 1484 432 m 15 Y s 1460 439
 m20 1508 299 m 3 Y s 1508 317 m 2 Y s 1484 309 m 16 X s 1515 309 m 17 X s 1500 299 m 15 X s 1500 319 m 15 X s 1484 302 m 15 Y s 1532 302 m 15 Y s 1508 309 m20 1532 244 m 16 X s 1563 244 m 16 X s 1532 236 m 16 Y s 1579 236 m 16 Y s 1556 244 m20 1579
 218 m 17 X s 1611 218 m 16 X s 1579 211 m 15 Y s 1627 211 m 15 Y s 1603 218 m20 1627 204 m 17 X s 1659 204 m 16 X s 1627 196 m 15 Y s 1675 196 m 15 Y s 1651 204 m20 1723 202 m 17 X s 1755 202 m 16 X s 1723 194 m 16 Y s 1771 194 m 16 Y s 1747 202 m20
 black
 gsave  2268 1676 0 0 C 272.126 1240.34 t 0 r /Helvetica-Bold findfont 49.2982 sf 0 0 m (Kolmogorov\255Smirnov test: signal \(background\) probability = 0.225 \(0.118\)) show NC gr  238 201 m 1916 X s 430 244 m -43 Y s 468 222 m -21 Y s 507 222 m -21
 Y s 545 222 m -21 Y s 583 222 m -21 Y s 622 244 m -43 Y s 660 222 m -21 Y s 698 222 m -21 Y s 737 222 m -21 Y s 775 222 m -21 Y s 813 244 m -43 Y s 852 222 m -21 Y s 890 222 m -21 Y s 928 222 m -21 Y s 967 222 m -21 Y s 1005 244 m -43 Y s 1044 222 m
 -21 Y s 1082 222 m -21 Y s 1120 222 m -21 Y s 1159 222 m -21 Y s 1197 244 m -43 Y s 1235 222 m -21 Y s 1274 222 m -21 Y s 1312 222 m -21 Y s 1350 222 m -21 Y s 1389 244 m -43 Y s 1427 222 m -21 Y s 1465 222 m -21 Y s 1504 222 m -21 Y s 1542 222 m
 -21 Y s 1581 244 m -43 Y s 1619 222 m -21 Y s 1657 222 m -21 Y s 1696 222 m -21 Y s 1734 222 m -21 Y s 1772 244 m -43 Y s 1811 222 m -21 Y s 1849 222 m -21 Y s 1887 222 m -21 Y s 1926 222 m -21 Y s 1964 244 m -43 Y s 430 244 m -43 Y s 391 222 m -21
 Y s 353 222 m -21 Y s 315 222 m -21 Y s 276 222 m -21 Y s 1964 244 m -43 Y s 2002 222 m -21 Y s 2041 222 m -21 Y s 2079 222 m -21 Y s 2118 222 m -21 Y s 238 1509 m 1916 X s 430 1466 m 43 Y s 468 1487 m 22 Y s 507 1487 m 22 Y s 545 1487 m 22 Y s 583
 1487 m 22 Y s 622 1466 m 43 Y s 660 1487 m 22 Y s 698 1487 m 22 Y s 737 1487 m 22 Y s 775 1487 m 22 Y s 813 1466 m 43 Y s 852 1487 m 22 Y s 890 1487 m 22 Y s 928 1487 m 22 Y s 967 1487 m 22 Y s 1005 1466 m 43 Y s 1044 1487 m 22 Y s 1082 1487 m 22 Y
 s 1120 1487 m 22 Y s 1159 1487 m 22 Y s 1197 1466 m 43 Y s 1235 1487 m 22 Y s 1274 1487 m 22 Y s 1312 1487 m 22 Y s 1350 1487 m 22 Y s 1389 1466 m 43 Y s 1427 1487 m 22 Y s 1465 1487 m 22 Y s 1504 1487 m 22 Y s 1542 1487 m 22 Y s 1581 1466 m 43 Y s
 1619 1487 m 22 Y s 1657 1487 m 22 Y s 1696 1487 m 22 Y s 1734 1487 m 22 Y s 1772 1466 m 43 Y s 1811 1487 m 22 Y s 1849 1487 m 22 Y s 1887 1487 m 22 Y s 1926 1487 m 22 Y s 1964 1466 m 43 Y s 430 1466 m 43 Y s 391 1487 m 22 Y s 353 1487 m 22 Y s 315
 1487 m 22 Y s 276 1487 m 22 Y s 1964 1466 m 43 Y s 2002 1487 m 22 Y s 2041 1487 m 22 Y s 2079 1487 m 22 Y s 2118 1487 m 22 Y s 238 201 m 1308 Y s 291 201 m -53 X s 265 255 m -27 X s 265 308 m -27 X s 265 362 m -27 X s 291 415 m -53 X s 265 469 m -27
 X s 265 522 m -27 X s 265 576 m -27 X s 291 629 m -53 X s 265 683 m -27 X s 265 736 m -27 X s 265 790 m -27 X s 291 843 m -53 X s 265 897 m -27 X s 265 950 m -27 X s 265 1004 m -27 X s 291 1057 m -53 X s 265 1111 m -27 X s 265 1164 m -27 X s 265
 1218 m -27 X s 291 1271 m -53 X s 265 1325 m -27 X s 265 1378 m -27 X s 265 1432 m -27 X s 291 1485 m -53 X s 291 1485 m -53 X s 2154 201 m 1308 Y s 2101 201 m 53 X s 2128 255 m 26 X s 2128 308 m 26 X s 2128 362 m 26 X s 2101 415 m 53 X s 2128 469 m
 26 X s 2128 522 m 26 X s 2128 576 m 26 X s 2101 629 m 53 X s 2128 683 m 26 X s 2128 736 m 26 X s 2128 790 m 26 X s 2101 843 m 53 X s 2128 897 m 26 X s 2128 950 m 26 X s 2128 1004 m 26 X s 2101 1057 m 53 X s 2128 1111 m 26 X s 2128 1164 m 26 X s 2128
 1218 m 26 X s 2101 1271 m 53 X s 2128 1325 m 26 X s 2128 1378 m 26 X s 2128 1432 m 26 X s 2101 1485 m 53 X s 2101 1485 m 53 X s
 gsave  2268 1676 0 0 C 2211.02 192.756 t 90 r /Helvetica-Bold findfont 45.506 sf 0 0 m (U/O\255flow \(S,B\): \(0.0, 0.0\)% / \(0.0, 0.0\)%) show NC gr  0.490196 0.545098 0.615686 c 0.364706 0.419608 0.490196 c 1587 96 23 1572 bf 0.490196 0.545098
 0.615686 c 23 1572 m 1587 X s 1610 1572 m 96 Y s 1610 1668 m -1587 X s 23 1668 m -96 Y s 1 1 1 c black 1 1 1 c
 gsave  2268 1676 0 0 C 98.5964 1600.29 t 0 r /Helvetica-Bold findfont 68.259 sf 0 0 m (TMVA overtraining check for classifier: SVM) show NC gr 
 gr  gr showpage
end
%%EOF
