%!PS-Adobe-2.0 EPSF-2.0
%%BoundingBox:  0 0 567 260
%%Title: dataset/plots/variables_id_c1.eps: Input variables (training sample)
%%Creator: ROOT Version 6.12/06
%%CreationDate: Mon May 21 12:02:28 2018
%%DocumentNeededResources: ProcSet (FontSetInit)
%%EndComments
%%BeginProlog
80 dict begin
/s {stroke} def /l {lineto} def /m {moveto} def /t {translate} def
/r {rotate} def /rl {roll}  def /R {repeat} def
/d {rlineto} def /rm {rmoveto} def /gr {grestore} def /f {eofill} def
/c {setrgbcolor} def /black {0 setgray} def /sd {setdash} def
/cl {closepath} def /sf {scalefont setfont} def /lw {setlinewidth} def
/box {m dup 0 exch d exch 0 d 0 exch neg d cl} def
/NC{systemdict begin initclip end}def/C{NC box clip newpath}def
/bl {box s} def /bf {gsave box gsave f grestore 1 lw [] 0 sd s grestore} def /Y { 0 exch d} def /X { 0 d} def 
/K {{pop pop 0 moveto} exch kshow} bind def
/ita {/ang 15 def gsave [1 0 ang dup sin exch cos div 1 0 0] concat} def 
/mp {newpath /y exch def /x exch def} def
/side {[w .77 mul w .23 mul] .385 w mul sd w 0 l currentpoint t -144 r} def
/mr {mp x y w2 0 360 arc} def /m24 {mr s} def /m20 {mr f} def
/mb {mp x y w2 add m w2 neg 0 d 0 w neg d w 0 d 0 w d cl} def
/mt {mp x y w2 add m w2 neg w neg d w 0 d cl} def
/w4 {w 4 div} def
/w6 {w 6 div} def
/w8 {w 8 div} def
/m21 {mb f} def /m25 {mb s} def /m22 {mt f} def /m26{mt s} def
/m23 {mp x y w2 sub m w2 w d w neg 0 d cl f} def
/m27 {mp x y w2 add m w3 neg w2 neg d w3 w2 neg d w3 w2 d cl s} def
/m28 {mp x w2 sub y w2 sub w3 add m w3 0 d  0 w3 neg d w3 0 d 0 w3 d w3 0 d  0 w3 d w3 neg 0 d 0 w3 d w3 neg 0 d 0 w3 neg d w3 neg 0 d cl s } def
/m29 {mp gsave x w2 sub y w2 add w3 sub m currentpoint t 4 {side} repeat cl fill gr} def
/m30 {mp gsave x w2 sub y w2 add w3 sub m currentpoint t 4 {side} repeat cl s gr} def
/m31 {mp x y w2 sub m 0 w d x w2 sub y m w 0 d x w2 sub y w2 add m w w neg d x w2 sub y w2 sub m w w d s} def
/m32 {mp x y w2 sub m w2 w d w neg 0 d cl s} def
/m33 {mp x y w2 add m w3 neg w2 neg d w3 w2 neg d w3 w2 d cl f} def
/m34 {mp x w2 sub y w2 sub w3 add m w3 0 d  0 w3 neg d w3 0 d 0 w3 d w3 0 d  0 w3 d w3 neg 0 d 0 w3 d w3 neg 0 d 0 w3 neg d w3 neg 0 d cl f } def
/m35 {mp x y w2 add m w2 neg w2 neg d w2 w2 neg d w2 w2 d w2 neg w2 d x y w2 sub m 0 w d x w2 sub y m w 0 d s} def
/m36 {mb x w2 sub y w2 add m w w neg d x w2 sub y w2 sub m w w d s} def
/m37 {mp x y m w4 neg w2 d w4 neg w2 neg d w2 0 d  w4 neg w2 neg d w2 0 d w4 neg w2 d w2 0 d w4 neg w2 d w4 neg w2 neg d cl s} def
/m38 {mp x w4 sub y w2 add m w4 neg w4 neg d 0 w2 neg d w4 w4 neg d w2 0 d w4 w4 d 0 w2 d w4 neg w4 d w2 neg 0 d x y w2 sub m 0 w d x w2 sub y m w 0 d cl s} def
/m39 {mp x y m w4 neg w2 d w4 neg w2 neg d w2 0 d  w4 neg w2 neg d w2 0 d w4 neg w2 d w2 0 d w4 neg w2 d w4 neg w2 neg d cl f} def
/m40 {mp x y m w4 w2 d w4 w4 neg d w2 neg w4 neg d w2 w4 neg d w4 neg w4 neg d w4 neg w2 d w4 neg w2 neg d w4 neg w4 d w2 w4 d w2 neg w4 d w4 w4 d w4 w2 neg d cl s} def
/m41 {mp x y m w4 w2 d w4 w4 neg d w2 neg w4 neg d w2 w4 neg d w4 neg w4 neg d w4 neg w2 d w4 neg w2 neg d w4 neg w4 d w2 w4 d w2 neg w4 d w4 w4 d w4 w2 neg d cl f} def
/m42 {mp x y w2 add m w8 neg w2 -3 4 div mul d w2 -3 4 div mul w8 neg d w2 3 4 div mul w8 neg d w8 w2 -3 4 div mul d w8 w2 3 4 div mul d w2 3 4 div mul w8 d w2 -3 4 div mul w8 d w8 neg w2 3 4 div mul d cl s} def
/m43 {mp x y w2 add m w8 neg w2 -3 4 div mul d w2 -3 4 div mul w8 neg d w2 3 4 div mul w8 neg d w8 w2 -3 4 div mul d w8 w2 3 4 div mul d w2 3 4 div mul w8 d w2 -3 4 div mul w8 d w8 neg w2 3 4 div mul d cl f} def
/m44 {mp x y m w6 neg w2 d w2 2 3 div mul 0 d w6 neg w2 neg d w2 w6 d 0 w2 -2 3 div mul d w2 neg w6 d w6 w2 neg d w2 -2 3 div mul 0 d w6 w2 d w2 neg w6 neg d 0 w2 2 3 div mul d w2 w6 neg d cl s} def
/m45 {mp x y m w6 neg w2 d w2 2 3 div mul 0 d w6 neg w2 neg d w2 w6 d 0 w2 -2 3 div mul d w2 neg w6 d w6 w2 neg d w2 -2 3 div mul 0 d w6 w2 d w2 neg w6 neg d 0 w2 2 3 div mul d w2 w6 neg d cl f} def
/m46 {mp x y w4 add m w4 neg w4 d w4 neg w4 neg d  w4 w4 neg d w4 neg w4 neg d w4 w4 neg d w4 w4 d w4 w4 neg d w4 w4 d w4 neg w4 d w4 w4 d w4 neg w4 d w4 neg w4 neg d cl s} def
/m47 {mp x y w4 add m w4 neg w4 d w4 neg w4 neg d w4 w4 neg d w4 neg w4 neg d  w4 w4 neg d w4 w4 d w4 w4 neg d w4 w4 d w4 neg w4 d w4 w4 d w4 neg w4 d w4 neg w4 neg d cl f} def
/m48 {mp x y w4 add m w4 neg w4 d w4 neg w4 neg d w4 w4 neg d  w4 neg w4 neg d w4 w4 neg d w4 w4 d w4 w4 neg d w4 w4 d w4 neg w4 d w4 w4 d w4 neg w4 d w4 neg w4 neg d  w4 w4 neg d w4 neg w4 neg d w4 neg w4 d w4 w4 d cl f} def
/m49 {mp x w2 sub w3 add y w2 sub w3 add m  0 w3 neg d w3 0 d 0 w3 d w3 0 d 0 w3 d w3 neg 0 d 0 w3 d w3 neg 0 d 0 w3 neg d w3 neg 0 d 0 w3 neg d w3 0 d 0 w3 d w3 0 d 0 w3 neg d w3 neg 0 d cl f } def
/m2 {mp x y w2 sub m 0 w d x w2 sub y m w 0 d s} def
/m5 {mp x w2 sub y w2 sub m w w d x w2 sub y w2 add m w w neg d s} def
%%IncludeResource: ProcSet (FontSetInit)
%%IncludeResource: font Times-Roman
%%IncludeResource: font Times-Italic
%%IncludeResource: font Times-Bold
%%IncludeResource: font Times-BoldItalic
%%IncludeResource: font Helvetica
%%IncludeResource: font Helvetica-Oblique
%%IncludeResource: font Helvetica-Bold
%%IncludeResource: font Helvetica-BoldOblique
%%IncludeResource: font Courier
%%IncludeResource: font Courier-Oblique
%%IncludeResource: font Courier-Bold
%%IncludeResource: font Courier-BoldOblique
%%IncludeResource: font Symbol
%%IncludeResource: font ZapfDingbats
/reEncode {exch findfont dup length dict begin {1 index /FID eq  {pop pop} {def} ifelse } forall /Encoding exch def currentdict end dup /FontName get exch definefont pop } def [/Times-Bold /Times-Italic /Times-BoldItalic /Helvetica /Helvetica-Oblique
 /Helvetica-Bold /Helvetica-BoldOblique /Courier /Courier-Oblique /Courier-Bold /Courier-BoldOblique /Times-Roman /AvantGarde-Book /AvantGarde-BookOblique /AvantGarde-Demi /AvantGarde-DemiOblique /Bookman-Demi /Bookman-DemiItalic /Bookman-Light
 /Bookman-LightItalic /Helvetica-Narrow /Helvetica-Narrow-Bold /Helvetica-Narrow-BoldOblique /Helvetica-Narrow-Oblique /NewCenturySchlbk-Roman /NewCenturySchlbk-Bold /NewCenturySchlbk-BoldItalic /NewCenturySchlbk-Italic /Palatino-Bold
 /Palatino-BoldItalic /Palatino-Italic /Palatino-Roman ] {ISOLatin1Encoding reEncode } forall
%%EndProlog
%%BeginSetup
%%EndSetup
newpath  gsave  .25 .25 scale  gsave  0 0 t 0.490196 0.545098 0.615686 c[  ] 0 sd 3 lw 0.941176 0.941176 0.941176 c 2268 1039 0 0 bf 0.490196 0.545098 0.615686 c 0.941176 0.941176 0.941176 c 1088 1019 23 10 bf black 1 1 0.992157 c 838 770 208 157 bf
 black 838 770 208 157 bl 1 1 0.992157 c 838 770 208 157 bf black 838 770 208 157 bl 0 0 0.933333 c 6 lw 0.49 0.6 0.82 c black 3 lw 0.49 0.6 0.82 c 208 157 m 42 X 6 Y 21 X -1 Y 21 X -2 Y 20 X 5 Y 21 X 6 Y 21 X 17 Y 21 X 29 Y 21 X -4 Y 21 X 60 Y 21 X
 26 Y 21 X 63 Y 21 X 53 Y 21 X 53 Y 21 X 57 Y 21 X 59 Y 21 X 60 Y 21 X -30 Y 21 X 4 Y 21 X -29 Y 21 X -17 Y 21 X -35 Y 21 X -104 Y 21 X -62 Y 21 X -43 Y 21 X -44 Y 20 X -34 Y 21 X -29 Y 21 X -30 Y 21 X -14 Y 21 X -5 Y 21 X -1 Y 21 X -12 Y 21 X 1 Y 21
 X -3 Y 105 X f 6 lw 0 0 0.933333 c 0.49 0.6 0.82 c 0 0 0.933333 c 208 157 m 42 X 6 Y 21 X -1 Y 21 X -2 Y 20 X 5 Y 21 X 6 Y 21 X 17 Y 21 X 29 Y 21 X -4 Y 21 X 60 Y 21 X 26 Y 21 X 63 Y 21 X 53 Y 21 X 53 Y 21 X 57 Y 21 X 59 Y 21 X 60 Y 21 X -30 Y 21 X
 4 Y 21 X -29 Y 21 X -17 Y 21 X -35 Y 21 X -104 Y 21 X -62 Y 21 X -43 Y 21 X -44 Y 20 X -34 Y 21 X -29 Y 21 X -30 Y 21 X -14 Y 21 X -5 Y 21 X -1 Y 21 X -12 Y 21 X 1 Y 21 X -3 Y 105 X s black 3 lw 208 157 m 838 X s 335 181 m -24 Y s 369 169 m -12 Y s
 402 169 m -12 Y s 435 169 m -12 Y s 468 181 m -24 Y s 501 169 m -12 Y s 534 169 m -12 Y s 567 169 m -12 Y s 600 181 m -24 Y s 633 169 m -12 Y s 666 169 m -12 Y s 699 169 m -12 Y s 733 181 m -24 Y s 766 169 m -12 Y s 799 169 m -12 Y s 832 169 m -12 Y
 s 865 181 m -24 Y s 898 169 m -12 Y s 931 169 m -12 Y s 964 169 m -12 Y s 997 181 m -24 Y s 335 181 m -24 Y s 302 169 m -12 Y s 269 169 m -12 Y s 236 169 m -12 Y s 997 181 m -24 Y s 1030 169 m -12 Y s
 gsave  1088 1019 23 10 C 329.919 106.181 t 0 r /Helvetica findfont 45.5943 sf 0 0 m (4) show NC gr 
 gsave  1088 1019 23 10 C 307.166 106.181 t 0 r /Symbol findfont 45.5943 sf 0 0 m (-) show NC gr 
 gsave  1088 1019 23 10 C 462.645 106.181 t 0 r /Helvetica findfont 45.5943 sf 0 0 m (2) show NC gr 
 gsave  1088 1019 23 10 C 439.892 106.181 t 0 r /Symbol findfont 45.5943 sf 0 0 m (-) show NC gr 
 gsave  1088 1019 23 10 C 583.994 106.181 t 0 r /Helvetica findfont 45.5943 sf 0 0 m (0) show NC gr 
 gsave  1088 1019 23 10 C 716.72 106.181 t 0 r /Helvetica findfont 45.5943 sf 0 0 m (2) show NC gr 
 gsave  1088 1019 23 10 C 849.446 106.181 t 0 r /Helvetica findfont 45.5943 sf 0 0 m (4) show NC gr 
 gsave  1088 1019 23 10 C 978.379 106.181 t 0 r /Helvetica findfont 45.5943 sf 0 0 m (6) show NC gr 
 gsave  1088 1019 23 10 C 712.928 30.3373 t 0 r /Helvetica findfont 53.1934 sf 0 0 m (Variable 1  [F]) show NC gr  208 927 m 838 X s 335 903 m 24 Y s 369 915 m 12 Y s 402 915 m 12 Y s 435 915 m 12 Y s 468 903 m 24 Y s 501 915 m 12 Y s 534 915 m 12 Y
 s 567 915 m 12 Y s 600 903 m 24 Y s 633 915 m 12 Y s 666 915 m 12 Y s 699 915 m 12 Y s 733 903 m 24 Y s 766 915 m 12 Y s 799 915 m 12 Y s 832 915 m 12 Y s 865 903 m 24 Y s 898 915 m 12 Y s 931 915 m 12 Y s 964 915 m 12 Y s 997 903 m 24 Y s 335 903 m
 24 Y s 302 915 m 12 Y s 269 915 m 12 Y s 236 915 m 12 Y s 997 903 m 24 Y s 1030 915 m 12 Y s 208 157 m 770 Y s 232 157 m -24 X s 220 175 m -12 X s 220 193 m -12 X s 220 211 m -12 X s 220 229 m -12 X s 232 247 m -24 X s 220 265 m -12 X s 220 283 m
 -12 X s 220 301 m -12 X s 220 319 m -12 X s 232 337 m -24 X s 220 355 m -12 X s 220 373 m -12 X s 220 390 m -12 X s 220 408 m -12 X s 232 426 m -24 X s 220 444 m -12 X s 220 462 m -12 X s 220 480 m -12 X s 220 498 m -12 X s 232 516 m -24 X s 220 534
 m -12 X s 220 552 m -12 X s 220 570 m -12 X s 220 588 m -12 X s 232 606 m -24 X s 220 624 m -12 X s 220 642 m -12 X s 220 660 m -12 X s 220 678 m -12 X s 232 696 m -24 X s 220 714 m -12 X s 220 732 m -12 X s 220 750 m -12 X s 220 768 m -12 X s 232
 786 m -24 X s 220 804 m -12 X s 220 821 m -12 X s 220 839 m -12 X s 220 857 m -12 X s 232 875 m -24 X s 232 875 m -24 X s 220 893 m -12 X s 220 911 m -12 X s
 gsave  1088 1019 23 10 C 166.855 140.31 t 0 r /Helvetica findfont 45.5943 sf 0 0 m (0) show NC gr 
 gsave  1088 1019 23 10 C 106.181 231.322 t 0 r /Helvetica findfont 45.5943 sf 0 0 m (0.05) show NC gr 
 gsave  1088 1019 23 10 C 136.518 318.542 t 0 r /Helvetica findfont 45.5943 sf 0 0 m (0.1) show NC gr 
 gsave  1088 1019 23 10 C 106.181 409.554 t 0 r /Helvetica findfont 45.5943 sf 0 0 m (0.15) show NC gr 
 gsave  1088 1019 23 10 C 128.934 500.566 t 0 r /Helvetica findfont 45.5943 sf 0 0 m (0.2) show NC gr 
 gsave  1088 1019 23 10 C 106.181 587.786 t 0 r /Helvetica findfont 45.5943 sf 0 0 m (0.25) show NC gr 
 gsave  1088 1019 23 10 C 128.934 678.798 t 0 r /Helvetica findfont 45.5943 sf 0 0 m (0.3) show NC gr 
 gsave  1088 1019 23 10 C 106.181 769.81 t 0 r /Helvetica findfont 45.5943 sf 0 0 m (0.35) show NC gr 
 gsave  1088 1019 23 10 C 128.934 857.03 t 0 r /Helvetica findfont 45.5943 sf 0 0 m (0.4) show NC gr 
 gsave  1088 1019 23 10 C 60.6747 750.849 t 90 r /Helvetica findfont 53.1934 sf 0 0 m (0.317 F) show NC gr 
 gsave  1088 1019 23 10 C 37.9217 739.473 t 90 r /Helvetica findfont 34.1957 sf 0 0 m ( ) show NC gr 
 gsave  1088 1019 23 10 C 60.6747 720.512 t 90 r /Helvetica findfont 53.1934 sf 0 0 m (/) show NC gr 
 gsave  1088 1019 23 10 C 72.0512 709.135 t 90 r /Helvetica findfont 34.1957 sf 0 0 m ( ) show NC gr 
 gsave  1088 1019 23 10 C 60.6747 511.943 t 90 r /Helvetica findfont 53.1934 sf 0 0 m (\(1/N\) dN) show NC gr  1046 157 m 770 Y s 1021 157 m 25 X s 1034 175 m 12 X s 1034 193 m 12 X s 1034 211 m 12 X s 1034 229 m 12 X s 1021 247 m 25 X s 1034 265 m
 12 X s 1034 283 m 12 X s 1034 301 m 12 X s 1034 319 m 12 X s 1021 337 m 25 X s 1034 355 m 12 X s 1034 373 m 12 X s 1034 390 m 12 X s 1034 408 m 12 X s 1021 426 m 25 X s 1034 444 m 12 X s 1034 462 m 12 X s 1034 480 m 12 X s 1034 498 m 12 X s 1021 516
 m 25 X s 1034 534 m 12 X s 1034 552 m 12 X s 1034 570 m 12 X s 1034 588 m 12 X s 1021 606 m 25 X s 1034 624 m 12 X s 1034 642 m 12 X s 1034 660 m 12 X s 1034 678 m 12 X s 1021 696 m 25 X s 1034 714 m 12 X s 1034 732 m 12 X s 1034 750 m 12 X s 1034
 768 m 12 X s 1021 786 m 25 X s 1034 804 m 12 X s 1034 821 m 12 X s 1034 839 m 12 X s 1034 857 m 12 X s 1021 875 m 25 X s 1021 875 m 25 X s 1034 893 m 12 X s 1034 911 m 12 X s 1 0 0 c 6 lw black 3 lw 1 0 0 c 1023 157 m s 1000 157 m s 977 157 m s 954
 157 m s 931 157 m s 908 157 m s 886 158 m -1 -1 d s 862 157 m s 840 158 m -1 -1 d s 818 159 m -2 -2 d s 796 160 m -3 -3 d s 773 161 m -4 -4 d s 755 166 m -9 -9 d s 753 186 m -30 -29 d s 753 209 m -53 -52 d s 739 219 m -62 -62 d s 732 235 m -78 -78 d
 s 732 258 m -101 -101 d s 732 281 m -124 -124 d s 732 304 m -147 -147 d s 732 327 m -170 -170 d s 732 350 m -193 -193 d s 732 373 m -217 -216 d s 723 388 m -231 -231 d s 711 399 m -242 -242 d s 711 422 m -265 -265 d s 711 445 m -252 -252 d s 447 181
 m -9 -9 d s 433 167 m -10 -10 d s 711 468 m -252 -252 d s 403 160 m -3 -3 d s 711 491 m -252 -252 d s 378 158 m -1 -1 d s 711 514 m -252 -251 d s 354 158 m -1 Y s 711 538 m -231 -231 d s 468 294 m -9 -8 d s 331 157 m s 711 561 m -231 -231 d s 309
 158 m -1 -1 d s 702 576 m -222 -223 d s 285 157 m cl s 690 586 m -210 -210 d s 261 157 m cl s 690 609 m -210 -210 d s 238 157 m cl s 690 632 m -210 -210 d s 218 159 m -3 -2 d s 680 646 m -200 -201 d s 669 657 m -63 -63 d s 585 573 m -105 -104 d s
 661 673 m -13 -13 d s 627 639 m s 623 635 m -17 -17 d s 585 597 m -84 -84 d s 486 497 m -6 -5 d s 585 620 m -84 -84 d s 585 643 m -84 -84 d s 573 654 m -72 -72 d s 564 668 m -21 -21 d s 543 647 m -21 -21 d s 510 614 m -9 -9 d s 564 691 m -21 -21 d s
 564 714 m -21 -21 d s 564 738 m -21 -21 d s 553 749 m -10 -9 d s 6 lw 208 159 m 21 X -2 Y 63 X 1 Y 20 X -1 Y 21 X 1 Y 21 X -1 Y 21 X 1 Y 21 X 2 Y 21 X 7 Y 21 X 14 Y 21 X 113 Y 21 X 203 Y 21 X 117 Y 21 X 33 Y 21 X 102 Y 21 X -95 Y 21 X -81 Y 21 X 62
 Y 21 X 4 Y 21 X 34 Y 21 X -27 Y 21 X -70 Y 21 X -188 Y 21 X -169 Y 21 X -53 Y 20 X -6 Y 42 X -1 Y 21 X -1 Y 21 X -1 Y 21 X 1 Y 21 X -1 Y 126 X 1 Y 21 X s 0.490196 0.545098 0.615686 c 3 lw 1 1 1 c 0.490196 0.545098 0.615686 c 435 153 208 774 bl 208
 774 m 435 X s 643 774 m 153 Y s 643 927 m -435 X s 208 927 m -153 Y s black
 gsave  1088 1019 23 10 C 337.503 872.199 t 0 r /Helvetica-Bold findfont 49.3938 sf 0 0 m (Signal) show NC gr  0.49 0.6 0.82 c 227 862 m 92 X 53 Y -92 X f 0 0 0.933333 c 6 lw 227 915 m 92 X s 227 862 m 92 X s 319 862 m 53 Y s 227 862 m 53 Y s black
 gsave  1088 1019 23 10 C 337.503 796.355 t 0 r /Helvetica-Bold findfont 49.3938 sf 0 0 m (Background) show NC gr  1 0 0 c 3 lw 319 793 m -7 -7 d s 319 816 m -30 -30 d s 319 839 m -53 -53 d s 296 839 m -54 -53 d s 273 839 m -46 -45 d s 250 839 m -23
 -22 d s 6 lw 0 0 0.933333 c 1 0 0 c 227 839 m 92 X s 227 786 m 92 X s 319 786 m 53 Y s 227 786 m 53 Y s black 3 lw 208 157 m 838 X s 335 181 m -24 Y s 369 169 m -12 Y s 402 169 m -12 Y s 435 169 m -12 Y s 468 181 m -24 Y s 501 169 m -12 Y s 534 169
 m -12 Y s 567 169 m -12 Y s 600 181 m -24 Y s 633 169 m -12 Y s 666 169 m -12 Y s 699 169 m -12 Y s 733 181 m -24 Y s 766 169 m -12 Y s 799 169 m -12 Y s 832 169 m -12 Y s 865 181 m -24 Y s 898 169 m -12 Y s 931 169 m -12 Y s 964 169 m -12 Y s 997
 181 m -24 Y s 335 181 m -24 Y s 302 169 m -12 Y s 269 169 m -12 Y s 236 169 m -12 Y s 997 181 m -24 Y s 1030 169 m -12 Y s 208 927 m 838 X s 335 903 m 24 Y s 369 915 m 12 Y s 402 915 m 12 Y s 435 915 m 12 Y s 468 903 m 24 Y s 501 915 m 12 Y s 534
 915 m 12 Y s 567 915 m 12 Y s 600 903 m 24 Y s 633 915 m 12 Y s 666 915 m 12 Y s 699 915 m 12 Y s 733 903 m 24 Y s 766 915 m 12 Y s 799 915 m 12 Y s 832 915 m 12 Y s 865 903 m 24 Y s 898 915 m 12 Y s 931 915 m 12 Y s 964 915 m 12 Y s 997 903 m 24 Y
 s 335 903 m 24 Y s 302 915 m 12 Y s 269 915 m 12 Y s 236 915 m 12 Y s 997 903 m 24 Y s 1030 915 m 12 Y s 208 157 m 770 Y s 232 157 m -24 X s 220 175 m -12 X s 220 193 m -12 X s 220 211 m -12 X s 220 229 m -12 X s 232 247 m -24 X s 220 265 m -12 X s
 220 283 m -12 X s 220 301 m -12 X s 220 319 m -12 X s 232 337 m -24 X s 220 355 m -12 X s 220 373 m -12 X s 220 390 m -12 X s 220 408 m -12 X s 232 426 m -24 X s 220 444 m -12 X s 220 462 m -12 X s 220 480 m -12 X s 220 498 m -12 X s 232 516 m -24 X
 s 220 534 m -12 X s 220 552 m -12 X s 220 570 m -12 X s 220 588 m -12 X s 232 606 m -24 X s 220 624 m -12 X s 220 642 m -12 X s 220 660 m -12 X s 220 678 m -12 X s 232 696 m -24 X s 220 714 m -12 X s 220 732 m -12 X s 220 750 m -12 X s 220 768 m -12
 X s 232 786 m -24 X s 220 804 m -12 X s 220 821 m -12 X s 220 839 m -12 X s 220 857 m -12 X s 232 875 m -24 X s 232 875 m -24 X s 220 893 m -12 X s 220 911 m -12 X s 1046 157 m 770 Y s 1021 157 m 25 X s 1034 175 m 12 X s 1034 193 m 12 X s 1034 211 m
 12 X s 1034 229 m 12 X s 1021 247 m 25 X s 1034 265 m 12 X s 1034 283 m 12 X s 1034 301 m 12 X s 1034 319 m 12 X s 1021 337 m 25 X s 1034 355 m 12 X s 1034 373 m 12 X s 1034 390 m 12 X s 1034 408 m 12 X s 1021 426 m 25 X s 1034 444 m 12 X s 1034 462
 m 12 X s 1034 480 m 12 X s 1034 498 m 12 X s 1021 516 m 25 X s 1034 534 m 12 X s 1034 552 m 12 X s 1034 570 m 12 X s 1034 588 m 12 X s 1021 606 m 25 X s 1034 624 m 12 X s 1034 642 m 12 X s 1034 660 m 12 X s 1034 678 m 12 X s 1021 696 m 25 X s 1034
 714 m 12 X s 1034 732 m 12 X s 1034 750 m 12 X s 1034 768 m 12 X s 1021 786 m 25 X s 1034 804 m 12 X s 1034 821 m 12 X s 1034 839 m 12 X s 1034 857 m 12 X s 1021 875 m 25 X s 1021 875 m 25 X s 1034 893 m 12 X s 1034 911 m 12 X s
 gsave  1088 1019 23 10 C 1089.41 152.949 t 90 r /Helvetica-Bold findfont 37.9953 sf 0 0 m (U/O\255flow \(S,B\): \(0.0, 0.0\)% / \(0.0, 0.0\)%) show NC gr  0.490196 0.545098 0.615686 c 0.364706 0.419608 0.490196 c 598 60 34 964 bf 0.490196 0.545098
 0.615686 c 34 964 m 598 X s 632 964 m 60 Y s 632 1024 m -598 X s 34 1024 m -60 Y s 1 1 1 c black 1 1 1 c
 gsave  1088 1019 23 10 C 64.4669 982.172 t 0 r /Helvetica-Bold findfont 45.5943 sf 0 0 m (Input variable: Variable 1) show NC gr  0.490196 0.545098 0.615686 c 0.941176 0.941176 0.941176 c 1088 1019 1157 10 bf black 1 1 0.992157 c 838 770 1342 157 bf
 black 838 770 1342 157 bl 1 1 0.992157 c 838 770 1342 157 bf black 838 770 1342 157 bl 0 0 0.933333 c 6 lw 0.49 0.6 0.82 c black 3 lw 0.49 0.6 0.82 c 1342 157 m 167 X 3 Y 21 X -2 Y 21 X 5 Y 21 X 3 Y 21 X 6 Y 21 X 16 Y 21 X 33 Y 21 X 38 Y 21 X 46 Y
 21 X 84 Y 21 X 79 Y 21 X 87 Y 21 X 69 Y 21 X 112 Y 21 X 2 Y 21 X 56 Y 20 X -33 Y 21 X -74 Y 21 X -79 Y 21 X -24 Y 21 X -143 Y 21 X -78 Y 21 X -59 Y 21 X -58 Y 21 X -40 Y 21 X -14 Y 21 X -18 Y 21 X -4 Y 21 X -8 Y 21 X -4 Y 63 X -1 Y f 6 lw 0 0
 0.933333 c 0.49 0.6 0.82 c 0 0 0.933333 c 1342 157 m 167 X 3 Y 21 X -2 Y 21 X 5 Y 21 X 3 Y 21 X 6 Y 21 X 16 Y 21 X 33 Y 21 X 38 Y 21 X 46 Y 21 X 84 Y 21 X 79 Y 21 X 87 Y 21 X 69 Y 21 X 112 Y 21 X 2 Y 21 X 56 Y 20 X -33 Y 21 X -74 Y 21 X -79 Y 21 X
 -24 Y 21 X -143 Y 21 X -78 Y 21 X -59 Y 21 X -58 Y 21 X -40 Y 21 X -14 Y 21 X -18 Y 21 X -4 Y 21 X -8 Y 21 X -4 Y 63 X s black 3 lw 1342 157 m 838 X s 1366 181 m -24 Y s 1399 169 m -12 Y s 1433 169 m -12 Y s 1466 169 m -12 Y s 1499 181 m -24 Y s
 1532 169 m -12 Y s 1566 169 m -12 Y s 1599 169 m -12 Y s 1632 181 m -24 Y s 1665 169 m -12 Y s 1698 169 m -12 Y s 1732 169 m -12 Y s 1765 181 m -24 Y s 1798 169 m -12 Y s 1831 169 m -12 Y s 1865 169 m -12 Y s 1898 181 m -24 Y s 1931 169 m -12 Y s
 1964 169 m -12 Y s 1997 169 m -12 Y s 2031 181 m -24 Y s 2064 169 m -12 Y s 2097 169 m -12 Y s 2130 169 m -12 Y s 2163 181 m -24 Y s 1366 181 m -24 Y s 2163 181 m -24 Y s
 gsave  1088 1019 1157 10 C 1361.39 106.181 t 0 r /Helvetica findfont 45.5943 sf 0 0 m (6) show NC gr 
 gsave  1088 1019 1157 10 C 1338.64 106.181 t 0 r /Symbol findfont 45.5943 sf 0 0 m (-) show NC gr 
 gsave  1088 1019 1157 10 C 1494.11 106.181 t 0 r /Helvetica findfont 45.5943 sf 0 0 m (4) show NC gr 
 gsave  1088 1019 1157 10 C 1471.36 106.181 t 0 r /Symbol findfont 45.5943 sf 0 0 m (-) show NC gr 
 gsave  1088 1019 1157 10 C 1626.84 106.181 t 0 r /Helvetica findfont 45.5943 sf 0 0 m (2) show NC gr 
 gsave  1088 1019 1157 10 C 1604.09 106.181 t 0 r /Symbol findfont 45.5943 sf 0 0 m (-) show NC gr 
 gsave  1088 1019 1157 10 C 1748.19 106.181 t 0 r /Helvetica findfont 45.5943 sf 0 0 m (0) show NC gr 
 gsave  1088 1019 1157 10 C 1880.92 106.181 t 0 r /Helvetica findfont 45.5943 sf 0 0 m (2) show NC gr 
 gsave  1088 1019 1157 10 C 2013.64 106.181 t 0 r /Helvetica findfont 45.5943 sf 0 0 m (4) show NC gr 
 gsave  1088 1019 1157 10 C 2146.37 106.181 t 0 r /Helvetica findfont 45.5943 sf 0 0 m (6) show NC gr 
 gsave  1088 1019 1157 10 C 1846.79 30.3373 t 0 r /Helvetica findfont 53.1934 sf 0 0 m (Variable 2  [F]) show NC gr  1342 927 m 838 X s 1366 903 m 24 Y s 1399 915 m 12 Y s 1433 915 m 12 Y s 1466 915 m 12 Y s 1499 903 m 24 Y s 1532 915 m 12 Y s 1566
 915 m 12 Y s 1599 915 m 12 Y s 1632 903 m 24 Y s 1665 915 m 12 Y s 1698 915 m 12 Y s 1732 915 m 12 Y s 1765 903 m 24 Y s 1798 915 m 12 Y s 1831 915 m 12 Y s 1865 915 m 12 Y s 1898 903 m 24 Y s 1931 915 m 12 Y s 1964 915 m 12 Y s 1997 915 m 12 Y s
 2031 903 m 24 Y s 2064 915 m 12 Y s 2097 915 m 12 Y s 2130 915 m 12 Y s 2163 903 m 24 Y s 1366 903 m 24 Y s 2163 903 m 24 Y s 1342 157 m 770 Y s 1366 157 m -24 X s 1354 177 m -12 X s 1354 198 m -12 X s 1354 218 m -12 X s 1354 238 m -12 X s 1366 259
 m -24 X s 1354 279 m -12 X s 1354 299 m -12 X s 1354 320 m -12 X s 1354 340 m -12 X s 1366 360 m -24 X s 1354 381 m -12 X s 1354 401 m -12 X s 1354 421 m -12 X s 1354 442 m -12 X s 1366 462 m -24 X s 1354 482 m -12 X s 1354 503 m -12 X s 1354 523 m
 -12 X s 1354 543 m -12 X s 1366 564 m -24 X s 1354 584 m -12 X s 1354 604 m -12 X s 1354 624 m -12 X s 1354 645 m -12 X s 1366 665 m -24 X s 1354 685 m -12 X s 1354 706 m -12 X s 1354 726 m -12 X s 1354 746 m -12 X s 1366 767 m -24 X s 1354 787 m
 -12 X s 1354 807 m -12 X s 1354 828 m -12 X s 1354 848 m -12 X s 1366 868 m -24 X s 1366 868 m -24 X s 1354 889 m -12 X s 1354 909 m -12 X s
 gsave  1088 1019 1157 10 C 1300.71 140.31 t 0 r /Helvetica findfont 45.5943 sf 0 0 m (0) show NC gr 
 gsave  1088 1019 1157 10 C 1240.04 242.699 t 0 r /Helvetica findfont 45.5943 sf 0 0 m (0.05) show NC gr 
 gsave  1088 1019 1157 10 C 1270.38 345.087 t 0 r /Helvetica findfont 45.5943 sf 0 0 m (0.1) show NC gr 
 gsave  1088 1019 1157 10 C 1240.04 443.684 t 0 r /Helvetica findfont 45.5943 sf 0 0 m (0.15) show NC gr 
 gsave  1088 1019 1157 10 C 1262.79 546.072 t 0 r /Helvetica findfont 45.5943 sf 0 0 m (0.2) show NC gr 
 gsave  1088 1019 1157 10 C 1240.04 648.461 t 0 r /Helvetica findfont 45.5943 sf 0 0 m (0.25) show NC gr 
 gsave  1088 1019 1157 10 C 1262.79 750.849 t 0 r /Helvetica findfont 45.5943 sf 0 0 m (0.3) show NC gr 
 gsave  1088 1019 1157 10 C 1240.04 849.446 t 0 r /Helvetica findfont 45.5943 sf 0 0 m (0.35) show NC gr 
 gsave  1088 1019 1157 10 C 1198.33 750.849 t 90 r /Helvetica findfont 53.1934 sf 0 0 m (0.315 F) show NC gr 
 gsave  1088 1019 1157 10 C 1171.78 739.473 t 90 r /Helvetica findfont 34.1957 sf 0 0 m ( ) show NC gr 
 gsave  1088 1019 1157 10 C 1198.33 720.512 t 90 r /Helvetica findfont 53.1934 sf 0 0 m (/) show NC gr 
 gsave  1088 1019 1157 10 C 1209.7 709.135 t 90 r /Helvetica findfont 34.1957 sf 0 0 m ( ) show NC gr 
 gsave  1088 1019 1157 10 C 1198.33 511.943 t 90 r /Helvetica findfont 53.1934 sf 0 0 m (\(1/N\) dN) show NC gr  2180 157 m 770 Y s 2155 157 m 25 X s 2167 177 m 13 X s 2167 198 m 13 X s 2167 218 m 13 X s 2167 238 m 13 X s 2155 259 m 25 X s 2167 279 m
 13 X s 2167 299 m 13 X s 2167 320 m 13 X s 2167 340 m 13 X s 2155 360 m 25 X s 2167 381 m 13 X s 2167 401 m 13 X s 2167 421 m 13 X s 2167 442 m 13 X s 2155 462 m 25 X s 2167 482 m 13 X s 2167 503 m 13 X s 2167 523 m 13 X s 2167 543 m 13 X s 2155 564
 m 25 X s 2167 584 m 13 X s 2167 604 m 13 X s 2167 624 m 13 X s 2167 645 m 13 X s 2155 665 m 25 X s 2167 685 m 13 X s 2167 706 m 13 X s 2167 726 m 13 X s 2167 746 m 13 X s 2155 767 m 25 X s 2167 787 m 13 X s 2167 807 m 13 X s 2167 828 m 13 X s 2167
 848 m 13 X s 2155 868 m 25 X s 2155 868 m 25 X s 2167 889 m 13 X s 2167 909 m 13 X s 1 0 0 c 6 lw black 3 lw 1 0 0 c 2157 157 m s 2137 160 m -3 -3 d s 2111 157 m s 2088 157 m s 2065 157 m cl s 2042 157 m s 2019 157 m s 1997 158 m -1 -1 d s 1978 162
 m -5 -5 d s 1952 160 m -3 -3 d s 1939 170 m -13 -13 d s 1928 182 m -25 -25 d s 1928 205 m -48 -48 d s 1907 207 m -50 -50 d s 1907 230 m -73 -73 d s 1907 254 m -96 -97 d s 1907 277 m -119 -120 d s 1907 300 m -142 -143 d s 1907 323 m -165 -166 d s
 1907 346 m -188 -189 d s 1890 352 m -195 -195 d s 1886 371 m -214 -214 d s 1886 394 m -237 -237 d s 1886 418 m -260 -261 d s 1886 441 m -283 -284 d s 1886 464 m -104 -105 d s 1773 350 m -159 -159 d s 1602 179 m -9 -9 d s 1588 165 m -8 -8 d s 1886
 487 m -104 -105 d s 1761 361 m -147 -147 d s 1561 161 m -4 -4 d s 1886 510 m -104 -105 d s 1761 384 m -147 -147 d s 1536 160 m -2 -3 d s 1886 533 m -104 -105 d s 1758 404 m -123 -123 d s 1627 273 m -13 -13 d s 1513 160 m -2 -3 d s 1886 556 m -104
 -105 d s 1740 409 m -105 -104 d s 1492 161 m -4 -3 d s 1488 157 m s 1886 579 m -104 -104 d s 1740 433 m -105 -105 d s 1465 157 m cl s 1886 603 m -104 -105 d s 1740 456 m -105 -105 d s 1441 157 m s 1886 626 m -104 -105 d s 1740 479 m -105 -105 d s
 1418 157 m cl s 1884 647 m -81 -82 d s 1786 549 m -4 -5 d s 1740 502 m -105 -105 d s 1395 157 m s 1865 651 m -62 -63 d s 1740 525 m -105 -105 d s 1372 157 m cl s 1865 674 m -62 -63 d s 1740 548 m -105 -105 d s 1350 158 m -1 -1 d s 1865 697 m -62 -63
 d s 1740 571 m -105 -105 d s 1865 720 m -62 -63 d s 1740 594 m -105 -104 d s 1865 744 m -62 -63 d s 1740 618 m -84 -84 d s 1645 523 m -10 -10 d s 1865 767 m -62 -63 d s 1740 641 m -84 -84 d s 1865 790 m -62 -63 d s 1721 645 m -65 -65 d s 1865 813 m
 -62 -63 d s 1719 666 m -63 -63 d s 1848 818 m -4 -3 d s 1832 803 m -8 -9 d s 1804 774 m -1 -1 d s 1719 689 m -63 -63 d s 1719 712 m -63 -63 d s 1719 735 m -63 -63 d s 1719 758 m -63 -62 d s 1719 782 m -42 -42 d s 1666 729 m -10 -10 d s 1719 805 m
 -42 -42 d s 1719 828 m -21 -21 d s 1691 800 m -14 -14 d s 1719 851 m -21 -21 d s 1702 857 m -4 -4 d s 6 lw 1342 158 m 21 X -1 Y 125 X 4 Y 21 X -1 Y 42 X 1 Y 21 X 4 Y 21 X 14 Y 21 X 94 Y 21 X 250 Y 21 X 206 Y 21 X 71 Y 21 X 57 Y 21 X -212 Y 21 X -241
 Y 21 X -54 Y 21 X 199 Y 21 X 225 Y 21 X 29 Y 20 X 15 Y 21 X -171 Y 21 X -295 Y 21 X -146 Y 21 X -36 Y 21 X -10 Y 21 X 2 Y 21 X -4 Y 21 X -1 Y 105 X 3 Y 21 X -3 Y 42 X s black 3 lw 1342 157 m 838 X s 1366 181 m -24 Y s 1399 169 m -12 Y s 1433 169 m
 -12 Y s 1466 169 m -12 Y s 1499 181 m -24 Y s 1532 169 m -12 Y s 1566 169 m -12 Y s 1599 169 m -12 Y s 1632 181 m -24 Y s 1665 169 m -12 Y s 1698 169 m -12 Y s 1732 169 m -12 Y s 1765 181 m -24 Y s 1798 169 m -12 Y s 1831 169 m -12 Y s 1865 169 m
 -12 Y s 1898 181 m -24 Y s 1931 169 m -12 Y s 1964 169 m -12 Y s 1997 169 m -12 Y s 2031 181 m -24 Y s 2064 169 m -12 Y s 2097 169 m -12 Y s 2130 169 m -12 Y s 2163 181 m -24 Y s 1366 181 m -24 Y s 2163 181 m -24 Y s 1342 927 m 838 X s 1366 903 m 24
 Y s 1399 915 m 12 Y s 1433 915 m 12 Y s 1466 915 m 12 Y s 1499 903 m 24 Y s 1532 915 m 12 Y s 1566 915 m 12 Y s 1599 915 m 12 Y s 1632 903 m 24 Y s 1665 915 m 12 Y s 1698 915 m 12 Y s 1732 915 m 12 Y s 1765 903 m 24 Y s 1798 915 m 12 Y s 1831 915 m
 12 Y s 1865 915 m 12 Y s 1898 903 m 24 Y s 1931 915 m 12 Y s 1964 915 m 12 Y s 1997 915 m 12 Y s 2031 903 m 24 Y s 2064 915 m 12 Y s 2097 915 m 12 Y s 2130 915 m 12 Y s 2163 903 m 24 Y s 1366 903 m 24 Y s 2163 903 m 24 Y s 1342 157 m 770 Y s 1366
 157 m -24 X s 1354 177 m -12 X s 1354 198 m -12 X s 1354 218 m -12 X s 1354 238 m -12 X s 1366 259 m -24 X s 1354 279 m -12 X s 1354 299 m -12 X s 1354 320 m -12 X s 1354 340 m -12 X s 1366 360 m -24 X s 1354 381 m -12 X s 1354 401 m -12 X s 1354
 421 m -12 X s 1354 442 m -12 X s 1366 462 m -24 X s 1354 482 m -12 X s 1354 503 m -12 X s 1354 523 m -12 X s 1354 543 m -12 X s 1366 564 m -24 X s 1354 584 m -12 X s 1354 604 m -12 X s 1354 624 m -12 X s 1354 645 m -12 X s 1366 665 m -24 X s 1354
 685 m -12 X s 1354 706 m -12 X s 1354 726 m -12 X s 1354 746 m -12 X s 1366 767 m -24 X s 1354 787 m -12 X s 1354 807 m -12 X s 1354 828 m -12 X s 1354 848 m -12 X s 1366 868 m -24 X s 1366 868 m -24 X s 1354 889 m -12 X s 1354 909 m -12 X s 2180
 157 m 770 Y s 2155 157 m 25 X s 2167 177 m 13 X s 2167 198 m 13 X s 2167 218 m 13 X s 2167 238 m 13 X s 2155 259 m 25 X s 2167 279 m 13 X s 2167 299 m 13 X s 2167 320 m 13 X s 2167 340 m 13 X s 2155 360 m 25 X s 2167 381 m 13 X s 2167 401 m 13 X s
 2167 421 m 13 X s 2167 442 m 13 X s 2155 462 m 25 X s 2167 482 m 13 X s 2167 503 m 13 X s 2167 523 m 13 X s 2167 543 m 13 X s 2155 564 m 25 X s 2167 584 m 13 X s 2167 604 m 13 X s 2167 624 m 13 X s 2167 645 m 13 X s 2155 665 m 25 X s 2167 685 m 13 X
 s 2167 706 m 13 X s 2167 726 m 13 X s 2167 746 m 13 X s 2155 767 m 25 X s 2167 787 m 13 X s 2167 807 m 13 X s 2167 828 m 13 X s 2167 848 m 13 X s 2155 868 m 25 X s 2155 868 m 25 X s 2167 889 m 13 X s 2167 909 m 13 X s
 gsave  1088 1019 1157 10 C 2223.27 152.949 t 90 r /Helvetica-Bold findfont 37.9953 sf 0 0 m (U/O\255flow \(S,B\): \(0.0, 0.0\)% / \(0.0, 0.0\)%) show NC gr  0.490196 0.545098 0.615686 c 0.364706 0.419608 0.490196 c 606 60 1167 964 bf 0.490196
 0.545098 0.615686 c 1167 964 m 606 X s 1773 964 m 60 Y s 1773 1024 m -606 X s 1167 1024 m -60 Y s 1 1 1 c black 1 1 1 c
 gsave  1088 1019 1157 10 C 1198.33 982.172 t 0 r /Helvetica-Bold findfont 45.5943 sf 0 0 m (Input variable: Variable 2) show NC gr 
 gr  gr showpage
end
%%EOF
