%!PS-Adobe-2.0 EPSF-2.0
%%BoundingBox:  0 0 567 260
%%Title: dataset/plots/variables_pca_c1.eps: Input variables 'PCA'-transformed (training sample)
%%Creator: ROOT Version 6.12/06
%%CreationDate: Mon May 21 12:02:40 2018
%%DocumentNeededResources: ProcSet (FontSetInit)
%%EndComments
%%BeginProlog
80 dict begin
/s {stroke} def /l {lineto} def /m {moveto} def /t {translate} def
/r {rotate} def /rl {roll}  def /R {repeat} def
/d {rlineto} def /rm {rmoveto} def /gr {grestore} def /f {eofill} def
/c {setrgbcolor} def /black {0 setgray} def /sd {setdash} def
/cl {closepath} def /sf {scalefont setfont} def /lw {setlinewidth} def
/box {m dup 0 exch d exch 0 d 0 exch neg d cl} def
/NC{systemdict begin initclip end}def/C{NC box clip newpath}def
/bl {box s} def /bf {gsave box gsave f grestore 1 lw [] 0 sd s grestore} def /Y { 0 exch d} def /X { 0 d} def 
/K {{pop pop 0 moveto} exch kshow} bind def
/ita {/ang 15 def gsave [1 0 ang dup sin exch cos div 1 0 0] concat} def 
/mp {newpath /y exch def /x exch def} def
/side {[w .77 mul w .23 mul] .385 w mul sd w 0 l currentpoint t -144 r} def
/mr {mp x y w2 0 360 arc} def /m24 {mr s} def /m20 {mr f} def
/mb {mp x y w2 add m w2 neg 0 d 0 w neg d w 0 d 0 w d cl} def
/mt {mp x y w2 add m w2 neg w neg d w 0 d cl} def
/w4 {w 4 div} def
/w6 {w 6 div} def
/w8 {w 8 div} def
/m21 {mb f} def /m25 {mb s} def /m22 {mt f} def /m26{mt s} def
/m23 {mp x y w2 sub m w2 w d w neg 0 d cl f} def
/m27 {mp x y w2 add m w3 neg w2 neg d w3 w2 neg d w3 w2 d cl s} def
/m28 {mp x w2 sub y w2 sub w3 add m w3 0 d  0 w3 neg d w3 0 d 0 w3 d w3 0 d  0 w3 d w3 neg 0 d 0 w3 d w3 neg 0 d 0 w3 neg d w3 neg 0 d cl s } def
/m29 {mp gsave x w2 sub y w2 add w3 sub m currentpoint t 4 {side} repeat cl fill gr} def
/m30 {mp gsave x w2 sub y w2 add w3 sub m currentpoint t 4 {side} repeat cl s gr} def
/m31 {mp x y w2 sub m 0 w d x w2 sub y m w 0 d x w2 sub y w2 add m w w neg d x w2 sub y w2 sub m w w d s} def
/m32 {mp x y w2 sub m w2 w d w neg 0 d cl s} def
/m33 {mp x y w2 add m w3 neg w2 neg d w3 w2 neg d w3 w2 d cl f} def
/m34 {mp x w2 sub y w2 sub w3 add m w3 0 d  0 w3 neg d w3 0 d 0 w3 d w3 0 d  0 w3 d w3 neg 0 d 0 w3 d w3 neg 0 d 0 w3 neg d w3 neg 0 d cl f } def
/m35 {mp x y w2 add m w2 neg w2 neg d w2 w2 neg d w2 w2 d w2 neg w2 d x y w2 sub m 0 w d x w2 sub y m w 0 d s} def
/m36 {mb x w2 sub y w2 add m w w neg d x w2 sub y w2 sub m w w d s} def
/m37 {mp x y m w4 neg w2 d w4 neg w2 neg d w2 0 d  w4 neg w2 neg d w2 0 d w4 neg w2 d w2 0 d w4 neg w2 d w4 neg w2 neg d cl s} def
/m38 {mp x w4 sub y w2 add m w4 neg w4 neg d 0 w2 neg d w4 w4 neg d w2 0 d w4 w4 d 0 w2 d w4 neg w4 d w2 neg 0 d x y w2 sub m 0 w d x w2 sub y m w 0 d cl s} def
/m39 {mp x y m w4 neg w2 d w4 neg w2 neg d w2 0 d  w4 neg w2 neg d w2 0 d w4 neg w2 d w2 0 d w4 neg w2 d w4 neg w2 neg d cl f} def
/m40 {mp x y m w4 w2 d w4 w4 neg d w2 neg w4 neg d w2 w4 neg d w4 neg w4 neg d w4 neg w2 d w4 neg w2 neg d w4 neg w4 d w2 w4 d w2 neg w4 d w4 w4 d w4 w2 neg d cl s} def
/m41 {mp x y m w4 w2 d w4 w4 neg d w2 neg w4 neg d w2 w4 neg d w4 neg w4 neg d w4 neg w2 d w4 neg w2 neg d w4 neg w4 d w2 w4 d w2 neg w4 d w4 w4 d w4 w2 neg d cl f} def
/m42 {mp x y w2 add m w8 neg w2 -3 4 div mul d w2 -3 4 div mul w8 neg d w2 3 4 div mul w8 neg d w8 w2 -3 4 div mul d w8 w2 3 4 div mul d w2 3 4 div mul w8 d w2 -3 4 div mul w8 d w8 neg w2 3 4 div mul d cl s} def
/m43 {mp x y w2 add m w8 neg w2 -3 4 div mul d w2 -3 4 div mul w8 neg d w2 3 4 div mul w8 neg d w8 w2 -3 4 div mul d w8 w2 3 4 div mul d w2 3 4 div mul w8 d w2 -3 4 div mul w8 d w8 neg w2 3 4 div mul d cl f} def
/m44 {mp x y m w6 neg w2 d w2 2 3 div mul 0 d w6 neg w2 neg d w2 w6 d 0 w2 -2 3 div mul d w2 neg w6 d w6 w2 neg d w2 -2 3 div mul 0 d w6 w2 d w2 neg w6 neg d 0 w2 2 3 div mul d w2 w6 neg d cl s} def
/m45 {mp x y m w6 neg w2 d w2 2 3 div mul 0 d w6 neg w2 neg d w2 w6 d 0 w2 -2 3 div mul d w2 neg w6 d w6 w2 neg d w2 -2 3 div mul 0 d w6 w2 d w2 neg w6 neg d 0 w2 2 3 div mul d w2 w6 neg d cl f} def
/m46 {mp x y w4 add m w4 neg w4 d w4 neg w4 neg d  w4 w4 neg d w4 neg w4 neg d w4 w4 neg d w4 w4 d w4 w4 neg d w4 w4 d w4 neg w4 d w4 w4 d w4 neg w4 d w4 neg w4 neg d cl s} def
/m47 {mp x y w4 add m w4 neg w4 d w4 neg w4 neg d w4 w4 neg d w4 neg w4 neg d  w4 w4 neg d w4 w4 d w4 w4 neg d w4 w4 d w4 neg w4 d w4 w4 d w4 neg w4 d w4 neg w4 neg d cl f} def
/m48 {mp x y w4 add m w4 neg w4 d w4 neg w4 neg d w4 w4 neg d  w4 neg w4 neg d w4 w4 neg d w4 w4 d w4 w4 neg d w4 w4 d w4 neg w4 d w4 w4 d w4 neg w4 d w4 neg w4 neg d  w4 w4 neg d w4 neg w4 neg d w4 neg w4 d w4 w4 d cl f} def
/m49 {mp x w2 sub w3 add y w2 sub w3 add m  0 w3 neg d w3 0 d 0 w3 d w3 0 d 0 w3 d w3 neg 0 d 0 w3 d w3 neg 0 d 0 w3 neg d w3 neg 0 d 0 w3 neg d w3 0 d 0 w3 d w3 0 d 0 w3 neg d w3 neg 0 d cl f } def
/m2 {mp x y w2 sub m 0 w d x w2 sub y m w 0 d s} def
/m5 {mp x w2 sub y w2 sub m w w d x w2 sub y w2 add m w w neg d s} def
%%IncludeResource: ProcSet (FontSetInit)
%%IncludeResource: font Times-Roman
%%IncludeResource: font Times-Italic
%%IncludeResource: font Times-Bold
%%IncludeResource: font Times-BoldItalic
%%IncludeResource: font Helvetica
%%IncludeResource: font Helvetica-Oblique
%%IncludeResource: font Helvetica-Bold
%%IncludeResource: font Helvetica-BoldOblique
%%IncludeResource: font Courier
%%IncludeResource: font Courier-Oblique
%%IncludeResource: font Courier-Bold
%%IncludeResource: font Courier-BoldOblique
%%IncludeResource: font Symbol
%%IncludeResource: font ZapfDingbats
/reEncode {exch findfont dup length dict begin {1 index /FID eq  {pop pop} {def} ifelse } forall /Encoding exch def currentdict end dup /FontName get exch definefont pop } def [/Times-Bold /Times-Italic /Times-BoldItalic /Helvetica /Helvetica-Oblique
 /Helvetica-Bold /Helvetica-BoldOblique /Courier /Courier-Oblique /Courier-Bold /Courier-BoldOblique /Times-Roman /AvantGarde-Book /AvantGarde-BookOblique /AvantGarde-Demi /AvantGarde-DemiOblique /Bookman-Demi /Bookman-DemiItalic /Bookman-Light
 /Bookman-LightItalic /Helvetica-Narrow /Helvetica-Narrow-Bold /Helvetica-Narrow-BoldOblique /Helvetica-Narrow-Oblique /NewCenturySchlbk-Roman /NewCenturySchlbk-Bold /NewCenturySchlbk-BoldItalic /NewCenturySchlbk-Italic /Palatino-Bold
 /Palatino-BoldItalic /Palatino-Italic /Palatino-Roman ] {ISOLatin1Encoding reEncode } forall
%%EndProlog
%%BeginSetup
%%EndSetup
newpath  gsave  .25 .25 scale  gsave  0 0 t 0.490196 0.545098 0.615686 c[  ] 0 sd 3 lw 0.941176 0.941176 0.941176 c 2268 1039 0 0 bf 0.490196 0.545098 0.615686 c 0.941176 0.941176 0.941176 c 1088 1019 23 10 bf black 1 1 0.992157 c 838 770 208 157 bf
 black 838 770 208 157 bl 1 1 0.992157 c 838 770 208 157 bf black 838 770 208 157 bl 0 0 0.933333 c 6 lw 0.49 0.6 0.82 c black 3 lw 0.49 0.6 0.82 c 208 157 m 2 Y 42 X 2 Y 42 X 3 Y 41 X 7 Y 21 X 6 Y 21 X 25 Y 21 X 7 Y 21 X 22 Y 21 X 36 Y 21 X 13 Y 21
 X 38 Y 21 X 20 Y 21 X 61 Y 21 X 14 Y 21 X 36 Y 21 X -19 Y 21 X 23 Y 21 X -23 Y 21 X -40 Y 21 X -30 Y 21 X -8 Y 21 X -26 Y 21 X -28 Y 21 X -45 Y 20 X -23 Y 21 X -15 Y 21 X -19 Y 21 X -14 Y 21 X -3 Y 21 X -11 Y 21 X -7 Y 21 X -2 Y 21 X 3 Y 21 X -3 Y
 21 X -2 Y 42 X 1 Y 21 X -1 Y f 6 lw 0 0 0.933333 c 0.49 0.6 0.82 c 0 0 0.933333 c 208 159 m 42 X 2 Y 42 X 3 Y 41 X 7 Y 21 X 6 Y 21 X 25 Y 21 X 7 Y 21 X 22 Y 21 X 36 Y 21 X 13 Y 21 X 38 Y 21 X 20 Y 21 X 61 Y 21 X 14 Y 21 X 36 Y 21 X -19 Y 21 X 23 Y
 21 X -23 Y 21 X -40 Y 21 X -30 Y 21 X -8 Y 21 X -26 Y 21 X -28 Y 21 X -45 Y 20 X -23 Y 21 X -15 Y 21 X -19 Y 21 X -14 Y 21 X -3 Y 21 X -11 Y 21 X -7 Y 21 X -2 Y 21 X 3 Y 21 X -3 Y 21 X -2 Y 42 X 1 Y 21 X s black 3 lw 208 157 m 838 X s 217 181 m -24
 Y s 248 169 m -12 Y s 278 169 m -12 Y s 308 169 m -12 Y s 339 181 m -24 Y s 369 169 m -12 Y s 400 169 m -12 Y s 430 169 m -12 Y s 460 181 m -24 Y s 491 169 m -12 Y s 521 169 m -12 Y s 551 169 m -12 Y s 582 181 m -24 Y s 612 169 m -12 Y s 642 169 m
 -12 Y s 673 169 m -12 Y s 703 181 m -24 Y s 734 169 m -12 Y s 764 169 m -12 Y s 794 169 m -12 Y s 825 181 m -24 Y s 855 169 m -12 Y s 885 169 m -12 Y s 916 169 m -12 Y s 946 181 m -24 Y s 217 181 m -24 Y s 946 181 m -24 Y s 976 169 m -12 Y s 1007
 169 m -12 Y s 1037 169 m -12 Y s
 gsave  1088 1019 23 10 C 212.361 106.181 t 0 r /Helvetica findfont 45.5943 sf 0 0 m (6) show NC gr 
 gsave  1088 1019 23 10 C 189.608 106.181 t 0 r /Symbol findfont 45.5943 sf 0 0 m (-) show NC gr 
 gsave  1088 1019 23 10 C 333.711 106.181 t 0 r /Helvetica findfont 45.5943 sf 0 0 m (4) show NC gr 
 gsave  1088 1019 23 10 C 310.958 106.181 t 0 r /Symbol findfont 45.5943 sf 0 0 m (-) show NC gr 
 gsave  1088 1019 23 10 C 455.06 106.181 t 0 r /Helvetica findfont 45.5943 sf 0 0 m (2) show NC gr 
 gsave  1088 1019 23 10 C 432.307 106.181 t 0 r /Symbol findfont 45.5943 sf 0 0 m (-) show NC gr 
 gsave  1088 1019 23 10 C 565.033 106.181 t 0 r /Helvetica findfont 45.5943 sf 0 0 m (0) show NC gr 
 gsave  1088 1019 23 10 C 686.382 106.181 t 0 r /Helvetica findfont 45.5943 sf 0 0 m (2) show NC gr 
 gsave  1088 1019 23 10 C 807.732 106.181 t 0 r /Helvetica findfont 45.5943 sf 0 0 m (4) show NC gr 
 gsave  1088 1019 23 10 C 929.081 106.181 t 0 r /Helvetica findfont 45.5943 sf 0 0 m (6) show NC gr 
 gsave  1088 1019 23 10 C 553.657 30.3373 t 0 r /Helvetica findfont 53.1934 sf 0 0 m (Variable 1 \(PCA\)  [F]) show NC gr  208 927 m 838 X s 217 903 m 24 Y s 248 915 m 12 Y s 278 915 m 12 Y s 308 915 m 12 Y s 339 903 m 24 Y s 369 915 m 12 Y s 400 915
 m 12 Y s 430 915 m 12 Y s 460 903 m 24 Y s 491 915 m 12 Y s 521 915 m 12 Y s 551 915 m 12 Y s 582 903 m 24 Y s 612 915 m 12 Y s 642 915 m 12 Y s 673 915 m 12 Y s 703 903 m 24 Y s 734 915 m 12 Y s 764 915 m 12 Y s 794 915 m 12 Y s 825 903 m 24 Y s
 855 915 m 12 Y s 885 915 m 12 Y s 916 915 m 12 Y s 946 903 m 24 Y s 217 903 m 24 Y s 946 903 m 24 Y s 976 915 m 12 Y s 1007 915 m 12 Y s 1037 915 m 12 Y s 208 157 m 770 Y s 232 157 m -24 X s 220 183 m -12 X s 220 208 m -12 X s 220 234 m -12 X s 220
 260 m -12 X s 232 285 m -24 X s 220 311 m -12 X s 220 336 m -12 X s 220 362 m -12 X s 220 388 m -12 X s 232 413 m -24 X s 220 439 m -12 X s 220 465 m -12 X s 220 490 m -12 X s 220 516 m -12 X s 232 542 m -24 X s 220 567 m -12 X s 220 593 m -12 X s
 220 618 m -12 X s 220 644 m -12 X s 232 670 m -24 X s 220 695 m -12 X s 220 721 m -12 X s 220 747 m -12 X s 220 772 m -12 X s 232 798 m -24 X s 220 824 m -12 X s 220 849 m -12 X s 220 875 m -12 X s 220 900 m -12 X s 232 926 m -24 X s 232 926 m -24 X
 s
 gsave  1088 1019 23 10 C 166.855 140.31 t 0 r /Helvetica findfont 45.5943 sf 0 0 m (0) show NC gr 
 gsave  1088 1019 23 10 C 136.518 269.244 t 0 r /Helvetica findfont 45.5943 sf 0 0 m (0.1) show NC gr 
 gsave  1088 1019 23 10 C 128.934 398.178 t 0 r /Helvetica findfont 45.5943 sf 0 0 m (0.2) show NC gr 
 gsave  1088 1019 23 10 C 128.934 523.319 t 0 r /Helvetica findfont 45.5943 sf 0 0 m (0.3) show NC gr 
 gsave  1088 1019 23 10 C 128.934 652.253 t 0 r /Helvetica findfont 45.5943 sf 0 0 m (0.4) show NC gr 
 gsave  1088 1019 23 10 C 128.934 781.187 t 0 r /Helvetica findfont 45.5943 sf 0 0 m (0.5) show NC gr 
 gsave  1088 1019 23 10 C 128.934 910.12 t 0 r /Helvetica findfont 45.5943 sf 0 0 m (0.6) show NC gr 
 gsave  1088 1019 23 10 C 60.6747 750.849 t 90 r /Helvetica findfont 53.1934 sf 0 0 m (0.345 F) show NC gr 
 gsave  1088 1019 23 10 C 37.9217 739.473 t 90 r /Helvetica findfont 34.1957 sf 0 0 m ( ) show NC gr 
 gsave  1088 1019 23 10 C 60.6747 720.512 t 90 r /Helvetica findfont 53.1934 sf 0 0 m (/) show NC gr 
 gsave  1088 1019 23 10 C 72.0512 709.135 t 90 r /Helvetica findfont 34.1957 sf 0 0 m ( ) show NC gr 
 gsave  1088 1019 23 10 C 60.6747 511.943 t 90 r /Helvetica findfont 53.1934 sf 0 0 m (\(1/N\) dN) show NC gr  1046 157 m 770 Y s 1021 157 m 25 X s 1034 183 m 12 X s 1034 208 m 12 X s 1034 234 m 12 X s 1034 260 m 12 X s 1021 285 m 25 X s 1034 311 m
 12 X s 1034 336 m 12 X s 1034 362 m 12 X s 1034 388 m 12 X s 1021 413 m 25 X s 1034 439 m 12 X s 1034 465 m 12 X s 1034 490 m 12 X s 1034 516 m 12 X s 1021 542 m 25 X s 1034 567 m 12 X s 1034 593 m 12 X s 1034 618 m 12 X s 1034 644 m 12 X s 1021 670
 m 25 X s 1034 695 m 12 X s 1034 721 m 12 X s 1034 747 m 12 X s 1034 772 m 12 X s 1021 798 m 25 X s 1034 824 m 12 X s 1034 849 m 12 X s 1034 875 m 12 X s 1034 900 m 12 X s 1021 926 m 25 X s 1021 926 m 25 X s 1 0 0 c 6 lw black 3 lw 1 0 0 c 1023 157 m
 s 1000 157 m s 977 157 m s 954 157 m s 931 157 m s 908 157 m s 885 157 m s 862 157 m s 839 157 m s 816 157 m s 793 157 m s 769 157 m s 746 157 m s 723 157 m s 701 158 m -1 -1 d s 683 163 m -6 -6 d s 669 172 m -15 -15 d s 669 195 m -38 -38 d s 659
 208 m -51 -51 d s 648 220 m -63 -63 d s 648 243 m -86 -86 d s 648 266 m -109 -109 d s 648 290 m -133 -133 d s 648 313 m -156 -156 d s 630 318 m -161 -161 d s 627 338 m -181 -181 d s 627 361 m -168 -168 d s 453 187 m -15 -15 d s 426 160 m -3 -3 d s
 627 384 m -168 -168 d s 400 157 m cl s 627 407 m -168 -168 d s 377 157 m s 627 430 m -147 -146 d s 474 277 m -15 -14 d s 354 157 m s 627 454 m -147 -147 d s 331 157 m cl s 627 477 m -147 -147 d s 308 157 m cl s 627 500 m -147 -147 d s 285 157 m cl s
 627 523 m -147 -147 d s 261 157 m s 613 532 m -133 -133 d s 238 157 m s 606 548 m -105 -105 d s 496 438 m -16 -16 d s 215 157 m cl s 606 571 m -105 -105 d s 606 594 m -105 -104 d s 606 618 m -105 -105 d s 606 641 m -105 -105 d s 606 664 m -105 -105
 d s 590 671 m -89 -89 d s 585 689 m -63 -63 d s 506 610 m -5 -5 d s 585 712 m -63 -63 d s 585 735 m -63 -63 d s 576 749 m -12 -11 d s 553 726 m -10 -9 d s 541 715 m -19 -19 d s 6 lw 208 157 m 209 X 3 Y 21 X 27 Y 21 X 90 Y 21 X 161 Y 21 X 172 Y 21 X
 105 Y 21 X 11 Y 21 X 23 Y 21 X -78 Y 21 X -139 Y 21 X -214 Y 21 X -110 Y 21 X -45 Y 21 X -5 Y 21 X -1 Y 335 X s 0.490196 0.545098 0.615686 c 3 lw 1 1 1 c 0.490196 0.545098 0.615686 c 435 153 208 774 bl 208 774 m 435 X s 643 774 m 153 Y s 643 927 m
 -435 X s 208 927 m -153 Y s black
 gsave  1088 1019 23 10 C 337.503 872.199 t 0 r /Helvetica-Bold findfont 49.3938 sf 0 0 m (Signal) show NC gr  0.49 0.6 0.82 c 227 862 m 92 X 53 Y -92 X f 0 0 0.933333 c 6 lw 227 915 m 92 X s 227 862 m 92 X s 319 862 m 53 Y s 227 862 m 53 Y s black
 gsave  1088 1019 23 10 C 337.503 796.355 t 0 r /Helvetica-Bold findfont 49.3938 sf 0 0 m (Background) show NC gr  1 0 0 c 3 lw 319 793 m -7 -7 d s 319 816 m -30 -30 d s 319 839 m -53 -53 d s 296 839 m -54 -53 d s 273 839 m -46 -45 d s 250 839 m -23
 -22 d s 6 lw 0 0 0.933333 c 1 0 0 c 227 839 m 92 X s 227 786 m 92 X s 319 786 m 53 Y s 227 786 m 53 Y s black 3 lw 208 157 m 838 X s 217 181 m -24 Y s 248 169 m -12 Y s 278 169 m -12 Y s 308 169 m -12 Y s 339 181 m -24 Y s 369 169 m -12 Y s 400 169
 m -12 Y s 430 169 m -12 Y s 460 181 m -24 Y s 491 169 m -12 Y s 521 169 m -12 Y s 551 169 m -12 Y s 582 181 m -24 Y s 612 169 m -12 Y s 642 169 m -12 Y s 673 169 m -12 Y s 703 181 m -24 Y s 734 169 m -12 Y s 764 169 m -12 Y s 794 169 m -12 Y s 825
 181 m -24 Y s 855 169 m -12 Y s 885 169 m -12 Y s 916 169 m -12 Y s 946 181 m -24 Y s 217 181 m -24 Y s 946 181 m -24 Y s 976 169 m -12 Y s 1007 169 m -12 Y s 1037 169 m -12 Y s 208 927 m 838 X s 217 903 m 24 Y s 248 915 m 12 Y s 278 915 m 12 Y s
 308 915 m 12 Y s 339 903 m 24 Y s 369 915 m 12 Y s 400 915 m 12 Y s 430 915 m 12 Y s 460 903 m 24 Y s 491 915 m 12 Y s 521 915 m 12 Y s 551 915 m 12 Y s 582 903 m 24 Y s 612 915 m 12 Y s 642 915 m 12 Y s 673 915 m 12 Y s 703 903 m 24 Y s 734 915 m
 12 Y s 764 915 m 12 Y s 794 915 m 12 Y s 825 903 m 24 Y s 855 915 m 12 Y s 885 915 m 12 Y s 916 915 m 12 Y s 946 903 m 24 Y s 217 903 m 24 Y s 946 903 m 24 Y s 976 915 m 12 Y s 1007 915 m 12 Y s 1037 915 m 12 Y s 208 157 m 770 Y s 232 157 m -24 X s
 220 183 m -12 X s 220 208 m -12 X s 220 234 m -12 X s 220 260 m -12 X s 232 285 m -24 X s 220 311 m -12 X s 220 336 m -12 X s 220 362 m -12 X s 220 388 m -12 X s 232 413 m -24 X s 220 439 m -12 X s 220 465 m -12 X s 220 490 m -12 X s 220 516 m -12 X
 s 232 542 m -24 X s 220 567 m -12 X s 220 593 m -12 X s 220 618 m -12 X s 220 644 m -12 X s 232 670 m -24 X s 220 695 m -12 X s 220 721 m -12 X s 220 747 m -12 X s 220 772 m -12 X s 232 798 m -24 X s 220 824 m -12 X s 220 849 m -12 X s 220 875 m -12
 X s 220 900 m -12 X s 232 926 m -24 X s 232 926 m -24 X s 1046 157 m 770 Y s 1021 157 m 25 X s 1034 183 m 12 X s 1034 208 m 12 X s 1034 234 m 12 X s 1034 260 m 12 X s 1021 285 m 25 X s 1034 311 m 12 X s 1034 336 m 12 X s 1034 362 m 12 X s 1034 388 m
 12 X s 1021 413 m 25 X s 1034 439 m 12 X s 1034 465 m 12 X s 1034 490 m 12 X s 1034 516 m 12 X s 1021 542 m 25 X s 1034 567 m 12 X s 1034 593 m 12 X s 1034 618 m 12 X s 1034 644 m 12 X s 1021 670 m 25 X s 1034 695 m 12 X s 1034 721 m 12 X s 1034 747
 m 12 X s 1034 772 m 12 X s 1021 798 m 25 X s 1034 824 m 12 X s 1034 849 m 12 X s 1034 875 m 12 X s 1034 900 m 12 X s 1021 926 m 25 X s 1021 926 m 25 X s
 gsave  1088 1019 23 10 C 1089.41 152.949 t 90 r /Helvetica-Bold findfont 37.9953 sf 0 0 m (U/O\255flow \(S,B\): \(0.0, 0.0\)% / \(0.0, 0.0\)%) show NC gr  0.490196 0.545098 0.615686 c 0.364706 0.419608 0.490196 c 762 60 34 964 bf 0.490196 0.545098
 0.615686 c 34 964 m 762 X s 796 964 m 60 Y s 796 1024 m -762 X s 34 1024 m -60 Y s 1 1 1 c black 1 1 1 c
 gsave  1088 1019 23 10 C 56.8825 985.964 t 0 r /Helvetica-Bold findfont 34.1957 sf 0 0 m (Input variable'PCA'\255transformed : Variable 1) show NC gr  0.490196 0.545098 0.615686 c 0.941176 0.941176 0.941176 c 1088 1019 1157 10 bf black 1 1 0.992157
 c 838 770 1342 157 bf black 838 770 1342 157 bl 1 1 0.992157 c 838 770 1342 157 bf black 838 770 1342 157 bl 0 0 0.933333 c 6 lw 0.49 0.6 0.82 c black 3 lw 0.49 0.6 0.82 c 1342 157 m 314 X 1 Y 21 X 8 Y 21 X 25 Y 21 X 62 Y 21 X 131 Y 21 X 212 Y 21 X
 101 Y 21 X 8 Y 21 X -124 Y 20 X -173 Y 21 X -136 Y 21 X -73 Y 21 X -25 Y 21 X -15 Y 21 X -2 Y 231 X f 6 lw 0 0 0.933333 c 0.49 0.6 0.82 c 0 0 0.933333 c 1342 157 m 314 X 1 Y 21 X 8 Y 21 X 25 Y 21 X 62 Y 21 X 131 Y 21 X 212 Y 21 X 101 Y 21 X 8 Y 21 X
 -124 Y 20 X -173 Y 21 X -136 Y 21 X -73 Y 21 X -25 Y 21 X -15 Y 21 X -2 Y 231 X s black 3 lw 1342 157 m 838 X s 1405 181 m -24 Y s 1429 169 m -12 Y s 1453 169 m -12 Y s 1477 169 m -12 Y s 1501 181 m -24 Y s 1525 169 m -12 Y s 1549 169 m -12 Y s 1573
 169 m -12 Y s 1597 181 m -24 Y s 1621 169 m -12 Y s 1645 169 m -12 Y s 1669 169 m -12 Y s 1693 181 m -24 Y s 1717 169 m -12 Y s 1741 169 m -12 Y s 1765 169 m -12 Y s 1789 181 m -24 Y s 1813 169 m -12 Y s 1837 169 m -12 Y s 1861 169 m -12 Y s 1885
 181 m -24 Y s 1909 169 m -12 Y s 1933 169 m -12 Y s 1957 169 m -12 Y s 1981 181 m -24 Y s 2005 169 m -12 Y s 2029 169 m -12 Y s 2053 169 m -12 Y s 2077 181 m -24 Y s 2101 169 m -12 Y s 2125 169 m -12 Y s 2149 169 m -12 Y s 2173 181 m -24 Y s 1405
 181 m -24 Y s 1381 169 m -12 Y s 1357 169 m -12 Y s 2173 181 m -24 Y s
 gsave  1088 1019 1157 10 C 1399.31 106.181 t 0 r /Helvetica findfont 45.5943 sf 0 0 m (8) show NC gr 
 gsave  1088 1019 1157 10 C 1376.56 106.181 t 0 r /Symbol findfont 45.5943 sf 0 0 m (-) show NC gr 
 gsave  1088 1019 1157 10 C 1494.11 106.181 t 0 r /Helvetica findfont 45.5943 sf 0 0 m (6) show NC gr 
 gsave  1088 1019 1157 10 C 1471.36 106.181 t 0 r /Symbol findfont 45.5943 sf 0 0 m (-) show NC gr 
 gsave  1088 1019 1157 10 C 1592.71 106.181 t 0 r /Helvetica findfont 45.5943 sf 0 0 m (4) show NC gr 
 gsave  1088 1019 1157 10 C 1569.96 106.181 t 0 r /Symbol findfont 45.5943 sf 0 0 m (-) show NC gr 
 gsave  1088 1019 1157 10 C 1687.51 106.181 t 0 r /Helvetica findfont 45.5943 sf 0 0 m (2) show NC gr 
 gsave  1088 1019 1157 10 C 1664.76 106.181 t 0 r /Symbol findfont 45.5943 sf 0 0 m (-) show NC gr 
 gsave  1088 1019 1157 10 C 1770.94 106.181 t 0 r /Helvetica findfont 45.5943 sf 0 0 m (0) show NC gr 
 gsave  1088 1019 1157 10 C 1869.54 106.181 t 0 r /Helvetica findfont 45.5943 sf 0 0 m (2) show NC gr 
 gsave  1088 1019 1157 10 C 1964.34 106.181 t 0 r /Helvetica findfont 45.5943 sf 0 0 m (4) show NC gr 
 gsave  1088 1019 1157 10 C 2059.15 106.181 t 0 r /Helvetica findfont 45.5943 sf 0 0 m (6) show NC gr 
 gsave  1088 1019 1157 10 C 2157.74 106.181 t 0 r /Helvetica findfont 45.5943 sf 0 0 m (8) show NC gr 
 gsave  1088 1019 1157 10 C 1687.51 30.3373 t 0 r /Helvetica findfont 53.1934 sf 0 0 m (Variable 2 \(PCA\)  [F]) show NC gr  1342 927 m 838 X s 1405 903 m 24 Y s 1429 915 m 12 Y s 1453 915 m 12 Y s 1477 915 m 12 Y s 1501 903 m 24 Y s 1525 915 m 12 Y
 s 1549 915 m 12 Y s 1573 915 m 12 Y s 1597 903 m 24 Y s 1621 915 m 12 Y s 1645 915 m 12 Y s 1669 915 m 12 Y s 1693 903 m 24 Y s 1717 915 m 12 Y s 1741 915 m 12 Y s 1765 915 m 12 Y s 1789 903 m 24 Y s 1813 915 m 12 Y s 1837 915 m 12 Y s 1861 915 m 12
 Y s 1885 903 m 24 Y s 1909 915 m 12 Y s 1933 915 m 12 Y s 1957 915 m 12 Y s 1981 903 m 24 Y s 2005 915 m 12 Y s 2029 915 m 12 Y s 2053 915 m 12 Y s 2077 903 m 24 Y s 2101 915 m 12 Y s 2125 915 m 12 Y s 2149 915 m 12 Y s 2173 903 m 24 Y s 1405 903 m
 24 Y s 1381 915 m 12 Y s 1357 915 m 12 Y s 2173 903 m 24 Y s 1342 157 m 770 Y s 1366 157 m -24 X s 1354 181 m -12 X s 1354 205 m -12 X s 1354 229 m -12 X s 1354 253 m -12 X s 1366 277 m -24 X s 1354 301 m -12 X s 1354 325 m -12 X s 1354 349 m -12 X
 s 1354 373 m -12 X s 1366 397 m -24 X s 1354 420 m -12 X s 1354 444 m -12 X s 1354 468 m -12 X s 1354 492 m -12 X s 1366 516 m -24 X s 1354 540 m -12 X s 1354 564 m -12 X s 1354 588 m -12 X s 1354 612 m -12 X s 1366 636 m -24 X s 1354 660 m -12 X s
 1354 684 m -12 X s 1354 708 m -12 X s 1354 732 m -12 X s 1366 756 m -24 X s 1354 780 m -12 X s 1354 804 m -12 X s 1354 828 m -12 X s 1354 852 m -12 X s 1366 876 m -24 X s 1366 876 m -24 X s 1354 899 m -12 X s 1354 923 m -12 X s
 gsave  1088 1019 1157 10 C 1300.71 140.31 t 0 r /Helvetica findfont 45.5943 sf 0 0 m (0) show NC gr 
 gsave  1088 1019 1157 10 C 1270.38 257.867 t 0 r /Helvetica findfont 45.5943 sf 0 0 m (0.1) show NC gr 
 gsave  1088 1019 1157 10 C 1262.79 379.217 t 0 r /Helvetica findfont 45.5943 sf 0 0 m (0.2) show NC gr 
 gsave  1088 1019 1157 10 C 1262.79 500.566 t 0 r /Helvetica findfont 45.5943 sf 0 0 m (0.3) show NC gr 
 gsave  1088 1019 1157 10 C 1262.79 618.123 t 0 r /Helvetica findfont 45.5943 sf 0 0 m (0.4) show NC gr 
 gsave  1088 1019 1157 10 C 1262.79 739.473 t 0 r /Helvetica findfont 45.5943 sf 0 0 m (0.5) show NC gr 
 gsave  1088 1019 1157 10 C 1262.79 857.03 t 0 r /Helvetica findfont 45.5943 sf 0 0 m (0.6) show NC gr 
 gsave  1088 1019 1157 10 C 1198.33 750.849 t 90 r /Helvetica findfont 53.1934 sf 0 0 m (0.436 F) show NC gr 
 gsave  1088 1019 1157 10 C 1171.78 739.473 t 90 r /Helvetica findfont 34.1957 sf 0 0 m ( ) show NC gr 
 gsave  1088 1019 1157 10 C 1198.33 720.512 t 90 r /Helvetica findfont 53.1934 sf 0 0 m (/) show NC gr 
 gsave  1088 1019 1157 10 C 1209.7 709.135 t 90 r /Helvetica findfont 34.1957 sf 0 0 m ( ) show NC gr 
 gsave  1088 1019 1157 10 C 1198.33 511.943 t 90 r /Helvetica findfont 53.1934 sf 0 0 m (\(1/N\) dN) show NC gr  2180 157 m 770 Y s 2155 157 m 25 X s 2167 181 m 13 X s 2167 205 m 13 X s 2167 229 m 13 X s 2167 253 m 13 X s 2155 277 m 25 X s 2167 301 m
 13 X s 2167 325 m 13 X s 2167 349 m 13 X s 2167 373 m 13 X s 2155 397 m 25 X s 2167 420 m 13 X s 2167 444 m 13 X s 2167 468 m 13 X s 2167 492 m 13 X s 2155 516 m 25 X s 2167 540 m 13 X s 2167 564 m 13 X s 2167 588 m 13 X s 2167 612 m 13 X s 2155 636
 m 25 X s 2167 660 m 13 X s 2167 684 m 13 X s 2167 708 m 13 X s 2167 732 m 13 X s 2155 756 m 25 X s 2167 780 m 13 X s 2167 804 m 13 X s 2167 828 m 13 X s 2167 852 m 13 X s 2155 876 m 25 X s 2155 876 m 25 X s 2167 899 m 13 X s 2167 923 m 13 X s 1 0 0
 c 6 lw black 3 lw 1 0 0 c 2158 158 m -1 -1 d s 2134 157 m s 2111 157 m s 2088 157 m s 2065 157 m s 2042 158 m -1 Y s 2019 158 m -1 Y s 1996 157 m s 1973 158 m -1 Y s 1950 158 m -1 -1 d s 1931 162 m -5 -5 d s 1908 162 m -5 -5 d s 1892 169 m -12 -12 d
 s 1886 186 m -29 -29 d s 1886 209 m -52 -52 d s 1876 222 m -65 -65 d s 1865 235 m -77 -78 d s 1865 258 m -100 -101 d s 1865 281 m -62 -63 d s 1800 215 m -58 -58 d s 1865 304 m -41 -42 d s 1818 257 m -15 -16 d s 1774 212 m -55 -55 d s 1865 327 m -41
 -42 d s 1754 215 m -59 -58 d s 1865 350 m -41 -42 d s 1740 224 m -68 -67 d s 1865 373 m -41 -41 d s 1740 248 m -91 -91 d s 1865 397 m -41 -42 d s 1740 271 m -63 -63 d s 1664 195 m -8 -8 d s 1637 168 m -2 -2 d s 1631 161 m -5 -4 d s 1865 420 m -41
 -42 d s 1740 294 m -63 -63 d s 1605 159 m -2 -2 d s 1865 443 m -41 -42 d s 1740 317 m -63 -63 d s 1581 158 m -1 -1 d s 1865 466 m -41 -42 d s 1736 337 m -59 -60 d s 1558 158 m -1 -1 d s 1865 489 m -41 -42 d s 1719 342 m -42 -42 d s 1535 158 m -1 -1
 d s 1865 512 m -41 -42 d s 1719 365 m -42 -42 d s 1511 158 m -1 Y s 1865 535 m -41 -42 d s 1719 388 m -42 -42 d s 1488 157 m s 1865 558 m -41 -41 d s 1719 412 m -42 -42 d s 1465 157 m s 1865 582 m -41 -42 d s 1719 435 m -42 -42 d s 1441 157 m s 1865
 605 m -41 -42 d s 1719 458 m -42 -42 d s 1418 157 m s 1865 628 m -41 -42 d s 1719 481 m -42 -42 d s 1395 157 m cl s 1865 651 m -41 -42 d s 1719 504 m -42 -42 d s 1372 157 m s 1860 669 m -36 -37 d s 1719 527 m -21 -21 d s 1681 490 m -4 -5 d s 1350
 158 m -1 -1 d s 1844 676 m -20 -21 d s 1719 550 m -21 -21 d s 1844 699 m -20 -21 d s 1719 573 m -21 -21 d s 1844 723 m -20 -21 d s 1719 597 m -21 -21 d s 1844 746 m -20 -21 d s 1719 620 m -21 -21 d s 1832 756 m -8 -8 d s 1719 643 m -21 -21 d s 1719
 666 m -21 -21 d s 1719 689 m -21 -21 d s 1719 712 m -21 -21 d s 1719 735 m -21 -21 d s 1719 758 m -21 -20 d s 1719 782 m -21 -21 d s 1719 805 m -21 -21 d s 1719 828 m -21 -21 d s 1719 851 m -21 -21 d s 1702 857 m -4 -4 d s 6 lw 1342 158 m 21 X -1 Y
 125 X 1 Y 105 X 1 Y 21 X 2 Y 21 X 7 Y 21 X 27 Y 21 X 295 Y 21 X 367 Y 21 X -520 Y 21 X -122 Y 21 X -3 Y 21 X 3 Y 21 X 42 Y 21 X 499 Y 20 X -87 Y 21 X -447 Y 21 X -53 Y 21 X -7 Y 42 X -4 Y 42 X -1 Y 21 X 1 Y 42 X -1 Y 84 X 1 Y 42 X s black 3 lw 1342
 157 m 838 X s 1405 181 m -24 Y s 1429 169 m -12 Y s 1453 169 m -12 Y s 1477 169 m -12 Y s 1501 181 m -24 Y s 1525 169 m -12 Y s 1549 169 m -12 Y s 1573 169 m -12 Y s 1597 181 m -24 Y s 1621 169 m -12 Y s 1645 169 m -12 Y s 1669 169 m -12 Y s 1693
 181 m -24 Y s 1717 169 m -12 Y s 1741 169 m -12 Y s 1765 169 m -12 Y s 1789 181 m -24 Y s 1813 169 m -12 Y s 1837 169 m -12 Y s 1861 169 m -12 Y s 1885 181 m -24 Y s 1909 169 m -12 Y s 1933 169 m -12 Y s 1957 169 m -12 Y s 1981 181 m -24 Y s 2005
 169 m -12 Y s 2029 169 m -12 Y s 2053 169 m -12 Y s 2077 181 m -24 Y s 2101 169 m -12 Y s 2125 169 m -12 Y s 2149 169 m -12 Y s 2173 181 m -24 Y s 1405 181 m -24 Y s 1381 169 m -12 Y s 1357 169 m -12 Y s 2173 181 m -24 Y s 1342 927 m 838 X s 1405
 903 m 24 Y s 1429 915 m 12 Y s 1453 915 m 12 Y s 1477 915 m 12 Y s 1501 903 m 24 Y s 1525 915 m 12 Y s 1549 915 m 12 Y s 1573 915 m 12 Y s 1597 903 m 24 Y s 1621 915 m 12 Y s 1645 915 m 12 Y s 1669 915 m 12 Y s 1693 903 m 24 Y s 1717 915 m 12 Y s
 1741 915 m 12 Y s 1765 915 m 12 Y s 1789 903 m 24 Y s 1813 915 m 12 Y s 1837 915 m 12 Y s 1861 915 m 12 Y s 1885 903 m 24 Y s 1909 915 m 12 Y s 1933 915 m 12 Y s 1957 915 m 12 Y s 1981 903 m 24 Y s 2005 915 m 12 Y s 2029 915 m 12 Y s 2053 915 m 12 Y
 s 2077 903 m 24 Y s 2101 915 m 12 Y s 2125 915 m 12 Y s 2149 915 m 12 Y s 2173 903 m 24 Y s 1405 903 m 24 Y s 1381 915 m 12 Y s 1357 915 m 12 Y s 2173 903 m 24 Y s 1342 157 m 770 Y s 1366 157 m -24 X s 1354 181 m -12 X s 1354 205 m -12 X s 1354 229
 m -12 X s 1354 253 m -12 X s 1366 277 m -24 X s 1354 301 m -12 X s 1354 325 m -12 X s 1354 349 m -12 X s 1354 373 m -12 X s 1366 397 m -24 X s 1354 420 m -12 X s 1354 444 m -12 X s 1354 468 m -12 X s 1354 492 m -12 X s 1366 516 m -24 X s 1354 540 m
 -12 X s 1354 564 m -12 X s 1354 588 m -12 X s 1354 612 m -12 X s 1366 636 m -24 X s 1354 660 m -12 X s 1354 684 m -12 X s 1354 708 m -12 X s 1354 732 m -12 X s 1366 756 m -24 X s 1354 780 m -12 X s 1354 804 m -12 X s 1354 828 m -12 X s 1354 852 m
 -12 X s 1366 876 m -24 X s 1366 876 m -24 X s 1354 899 m -12 X s 1354 923 m -12 X s 2180 157 m 770 Y s 2155 157 m 25 X s 2167 181 m 13 X s 2167 205 m 13 X s 2167 229 m 13 X s 2167 253 m 13 X s 2155 277 m 25 X s 2167 301 m 13 X s 2167 325 m 13 X s
 2167 349 m 13 X s 2167 373 m 13 X s 2155 397 m 25 X s 2167 420 m 13 X s 2167 444 m 13 X s 2167 468 m 13 X s 2167 492 m 13 X s 2155 516 m 25 X s 2167 540 m 13 X s 2167 564 m 13 X s 2167 588 m 13 X s 2167 612 m 13 X s 2155 636 m 25 X s 2167 660 m 13 X
 s 2167 684 m 13 X s 2167 708 m 13 X s 2167 732 m 13 X s 2155 756 m 25 X s 2167 780 m 13 X s 2167 804 m 13 X s 2167 828 m 13 X s 2167 852 m 13 X s 2155 876 m 25 X s 2155 876 m 25 X s 2167 899 m 13 X s 2167 923 m 13 X s
 gsave  1088 1019 1157 10 C 2223.27 152.949 t 90 r /Helvetica-Bold findfont 37.9953 sf 0 0 m (U/O\255flow \(S,B\): \(0.0, 0.0\)% / \(0.0, 0.0\)%) show NC gr  0.490196 0.545098 0.615686 c 0.364706 0.419608 0.490196 c 762 60 1167 964 bf 0.490196
 0.545098 0.615686 c 1167 964 m 762 X s 1929 964 m 60 Y s 1929 1024 m -762 X s 1167 1024 m -60 Y s 1 1 1 c black 1 1 1 c
 gsave  1088 1019 1157 10 C 1190.74 985.964 t 0 r /Helvetica-Bold findfont 34.1957 sf 0 0 m (Input variable'PCA'\255transformed : Variable 2) show NC gr 
 gr  gr showpage
end
%%EOF
