%!PS-Adobe-2.0 EPSF-2.0
%%BoundingBox:  0 0 567 260
%%Title: dataset/plots/variables_deco_c1.eps: Input variables 'Deco'-transformed (training sample)
%%Creator: ROOT Version 6.12/06
%%CreationDate: Mon May 21 11:03:52 2018
%%DocumentNeededResources: ProcSet (FontSetInit)
%%EndComments
%%BeginProlog
80 dict begin
/s {stroke} def /l {lineto} def /m {moveto} def /t {translate} def
/r {rotate} def /rl {roll}  def /R {repeat} def
/d {rlineto} def /rm {rmoveto} def /gr {grestore} def /f {eofill} def
/c {setrgbcolor} def /black {0 setgray} def /sd {setdash} def
/cl {closepath} def /sf {scalefont setfont} def /lw {setlinewidth} def
/box {m dup 0 exch d exch 0 d 0 exch neg d cl} def
/NC{systemdict begin initclip end}def/C{NC box clip newpath}def
/bl {box s} def /bf {gsave box gsave f grestore 1 lw [] 0 sd s grestore} def /Y { 0 exch d} def /X { 0 d} def 
/K {{pop pop 0 moveto} exch kshow} bind def
/ita {/ang 15 def gsave [1 0 ang dup sin exch cos div 1 0 0] concat} def 
/mp {newpath /y exch def /x exch def} def
/side {[w .77 mul w .23 mul] .385 w mul sd w 0 l currentpoint t -144 r} def
/mr {mp x y w2 0 360 arc} def /m24 {mr s} def /m20 {mr f} def
/mb {mp x y w2 add m w2 neg 0 d 0 w neg d w 0 d 0 w d cl} def
/mt {mp x y w2 add m w2 neg w neg d w 0 d cl} def
/w4 {w 4 div} def
/w6 {w 6 div} def
/w8 {w 8 div} def
/m21 {mb f} def /m25 {mb s} def /m22 {mt f} def /m26{mt s} def
/m23 {mp x y w2 sub m w2 w d w neg 0 d cl f} def
/m27 {mp x y w2 add m w3 neg w2 neg d w3 w2 neg d w3 w2 d cl s} def
/m28 {mp x w2 sub y w2 sub w3 add m w3 0 d  0 w3 neg d w3 0 d 0 w3 d w3 0 d  0 w3 d w3 neg 0 d 0 w3 d w3 neg 0 d 0 w3 neg d w3 neg 0 d cl s } def
/m29 {mp gsave x w2 sub y w2 add w3 sub m currentpoint t 4 {side} repeat cl fill gr} def
/m30 {mp gsave x w2 sub y w2 add w3 sub m currentpoint t 4 {side} repeat cl s gr} def
/m31 {mp x y w2 sub m 0 w d x w2 sub y m w 0 d x w2 sub y w2 add m w w neg d x w2 sub y w2 sub m w w d s} def
/m32 {mp x y w2 sub m w2 w d w neg 0 d cl s} def
/m33 {mp x y w2 add m w3 neg w2 neg d w3 w2 neg d w3 w2 d cl f} def
/m34 {mp x w2 sub y w2 sub w3 add m w3 0 d  0 w3 neg d w3 0 d 0 w3 d w3 0 d  0 w3 d w3 neg 0 d 0 w3 d w3 neg 0 d 0 w3 neg d w3 neg 0 d cl f } def
/m35 {mp x y w2 add m w2 neg w2 neg d w2 w2 neg d w2 w2 d w2 neg w2 d x y w2 sub m 0 w d x w2 sub y m w 0 d s} def
/m36 {mb x w2 sub y w2 add m w w neg d x w2 sub y w2 sub m w w d s} def
/m37 {mp x y m w4 neg w2 d w4 neg w2 neg d w2 0 d  w4 neg w2 neg d w2 0 d w4 neg w2 d w2 0 d w4 neg w2 d w4 neg w2 neg d cl s} def
/m38 {mp x w4 sub y w2 add m w4 neg w4 neg d 0 w2 neg d w4 w4 neg d w2 0 d w4 w4 d 0 w2 d w4 neg w4 d w2 neg 0 d x y w2 sub m 0 w d x w2 sub y m w 0 d cl s} def
/m39 {mp x y m w4 neg w2 d w4 neg w2 neg d w2 0 d  w4 neg w2 neg d w2 0 d w4 neg w2 d w2 0 d w4 neg w2 d w4 neg w2 neg d cl f} def
/m40 {mp x y m w4 w2 d w4 w4 neg d w2 neg w4 neg d w2 w4 neg d w4 neg w4 neg d w4 neg w2 d w4 neg w2 neg d w4 neg w4 d w2 w4 d w2 neg w4 d w4 w4 d w4 w2 neg d cl s} def
/m41 {mp x y m w4 w2 d w4 w4 neg d w2 neg w4 neg d w2 w4 neg d w4 neg w4 neg d w4 neg w2 d w4 neg w2 neg d w4 neg w4 d w2 w4 d w2 neg w4 d w4 w4 d w4 w2 neg d cl f} def
/m42 {mp x y w2 add m w8 neg w2 -3 4 div mul d w2 -3 4 div mul w8 neg d w2 3 4 div mul w8 neg d w8 w2 -3 4 div mul d w8 w2 3 4 div mul d w2 3 4 div mul w8 d w2 -3 4 div mul w8 d w8 neg w2 3 4 div mul d cl s} def
/m43 {mp x y w2 add m w8 neg w2 -3 4 div mul d w2 -3 4 div mul w8 neg d w2 3 4 div mul w8 neg d w8 w2 -3 4 div mul d w8 w2 3 4 div mul d w2 3 4 div mul w8 d w2 -3 4 div mul w8 d w8 neg w2 3 4 div mul d cl f} def
/m44 {mp x y m w6 neg w2 d w2 2 3 div mul 0 d w6 neg w2 neg d w2 w6 d 0 w2 -2 3 div mul d w2 neg w6 d w6 w2 neg d w2 -2 3 div mul 0 d w6 w2 d w2 neg w6 neg d 0 w2 2 3 div mul d w2 w6 neg d cl s} def
/m45 {mp x y m w6 neg w2 d w2 2 3 div mul 0 d w6 neg w2 neg d w2 w6 d 0 w2 -2 3 div mul d w2 neg w6 d w6 w2 neg d w2 -2 3 div mul 0 d w6 w2 d w2 neg w6 neg d 0 w2 2 3 div mul d w2 w6 neg d cl f} def
/m46 {mp x y w4 add m w4 neg w4 d w4 neg w4 neg d  w4 w4 neg d w4 neg w4 neg d w4 w4 neg d w4 w4 d w4 w4 neg d w4 w4 d w4 neg w4 d w4 w4 d w4 neg w4 d w4 neg w4 neg d cl s} def
/m47 {mp x y w4 add m w4 neg w4 d w4 neg w4 neg d w4 w4 neg d w4 neg w4 neg d  w4 w4 neg d w4 w4 d w4 w4 neg d w4 w4 d w4 neg w4 d w4 w4 d w4 neg w4 d w4 neg w4 neg d cl f} def
/m48 {mp x y w4 add m w4 neg w4 d w4 neg w4 neg d w4 w4 neg d  w4 neg w4 neg d w4 w4 neg d w4 w4 d w4 w4 neg d w4 w4 d w4 neg w4 d w4 w4 d w4 neg w4 d w4 neg w4 neg d  w4 w4 neg d w4 neg w4 neg d w4 neg w4 d w4 w4 d cl f} def
/m49 {mp x w2 sub w3 add y w2 sub w3 add m  0 w3 neg d w3 0 d 0 w3 d w3 0 d 0 w3 d w3 neg 0 d 0 w3 d w3 neg 0 d 0 w3 neg d w3 neg 0 d 0 w3 neg d w3 0 d 0 w3 d w3 0 d 0 w3 neg d w3 neg 0 d cl f } def
/m2 {mp x y w2 sub m 0 w d x w2 sub y m w 0 d s} def
/m5 {mp x w2 sub y w2 sub m w w d x w2 sub y w2 add m w w neg d s} def
%%IncludeResource: ProcSet (FontSetInit)
%%IncludeResource: font Times-Roman
%%IncludeResource: font Times-Italic
%%IncludeResource: font Times-Bold
%%IncludeResource: font Times-BoldItalic
%%IncludeResource: font Helvetica
%%IncludeResource: font Helvetica-Oblique
%%IncludeResource: font Helvetica-Bold
%%IncludeResource: font Helvetica-BoldOblique
%%IncludeResource: font Courier
%%IncludeResource: font Courier-Oblique
%%IncludeResource: font Courier-Bold
%%IncludeResource: font Courier-BoldOblique
%%IncludeResource: font Symbol
%%IncludeResource: font ZapfDingbats
/reEncode {exch findfont dup length dict begin {1 index /FID eq  {pop pop} {def} ifelse } forall /Encoding exch def currentdict end dup /FontName get exch definefont pop } def [/Times-Bold /Times-Italic /Times-BoldItalic /Helvetica /Helvetica-Oblique
 /Helvetica-Bold /Helvetica-BoldOblique /Courier /Courier-Oblique /Courier-Bold /Courier-BoldOblique /Times-Roman /AvantGarde-Book /AvantGarde-BookOblique /AvantGarde-Demi /AvantGarde-DemiOblique /Bookman-Demi /Bookman-DemiItalic /Bookman-Light
 /Bookman-LightItalic /Helvetica-Narrow /Helvetica-Narrow-Bold /Helvetica-Narrow-BoldOblique /Helvetica-Narrow-Oblique /NewCenturySchlbk-Roman /NewCenturySchlbk-Bold /NewCenturySchlbk-BoldItalic /NewCenturySchlbk-Italic /Palatino-Bold
 /Palatino-BoldItalic /Palatino-Italic /Palatino-Roman ] {ISOLatin1Encoding reEncode } forall
%%EndProlog
%%BeginSetup
%%EndSetup
newpath  gsave  .25 .25 scale  gsave  0 0 t 0.490196 0.545098 0.615686 c[  ] 0 sd 3 lw 0.941176 0.941176 0.941176 c 2268 1039 0 0 bf 0.490196 0.545098 0.615686 c 0.941176 0.941176 0.941176 c 1088 1019 23 10 bf black 1 1 0.992157 c 838 770 208 157 bf
 black 838 770 208 157 bl 1 1 0.992157 c 838 770 208 157 bf black 838 770 208 157 bl 0 0 0.933333 c 6 lw 0.49 0.6 0.82 c black 3 lw 0.49 0.6 0.82 c 208 157 m 42 X 1 Y 21 X 1 Y 21 X 3 Y 20 X 11 Y 21 X 32 Y 21 X 68 Y 21 X 91 Y 21 X 124 Y 21 X 126 Y 21
 X 113 Y 21 X 22 Y 21 X -71 Y 21 X -90 Y 21 X -141 Y 21 X -120 Y 21 X -95 Y 21 X -35 Y 21 X -29 Y 21 X -7 Y 21 X -3 Y 42 X -1 Y 356 X f 6 lw 0 0 0.933333 c 0.49 0.6 0.82 c 0 0 0.933333 c 208 157 m 42 X 1 Y 21 X 1 Y 21 X 3 Y 20 X 11 Y 21 X 32 Y 21 X
 68 Y 21 X 91 Y 21 X 124 Y 21 X 126 Y 21 X 113 Y 21 X 22 Y 21 X -71 Y 21 X -90 Y 21 X -141 Y 21 X -120 Y 21 X -95 Y 21 X -35 Y 21 X -29 Y 21 X -7 Y 21 X -3 Y 42 X -1 Y 356 X s black 3 lw 208 157 m 838 X s 220 181 m -24 Y s 261 169 m -12 Y s 301 169 m
 -12 Y s 341 169 m -12 Y s 382 181 m -24 Y s 422 169 m -12 Y s 463 169 m -12 Y s 503 169 m -12 Y s 543 181 m -24 Y s 584 169 m -12 Y s 624 169 m -12 Y s 664 169 m -12 Y s 705 181 m -24 Y s 745 169 m -12 Y s 785 169 m -12 Y s 826 169 m -12 Y s 866 181
 m -24 Y s 907 169 m -12 Y s 947 169 m -12 Y s 987 169 m -12 Y s 1028 181 m -24 Y s 220 181 m -24 Y s 1028 181 m -24 Y s
 gsave  1088 1019 23 10 C 216.154 106.181 t 0 r /Helvetica findfont 45.5943 sf 0 0 m (4) show NC gr 
 gsave  1088 1019 23 10 C 193.401 106.181 t 0 r /Symbol findfont 45.5943 sf 0 0 m (-) show NC gr 
 gsave  1088 1019 23 10 C 375.425 106.181 t 0 r /Helvetica findfont 45.5943 sf 0 0 m (2) show NC gr 
 gsave  1088 1019 23 10 C 352.672 106.181 t 0 r /Symbol findfont 45.5943 sf 0 0 m (-) show NC gr 
 gsave  1088 1019 23 10 C 527.111 106.181 t 0 r /Helvetica findfont 45.5943 sf 0 0 m (0) show NC gr 
 gsave  1088 1019 23 10 C 686.382 106.181 t 0 r /Helvetica findfont 45.5943 sf 0 0 m (2) show NC gr 
 gsave  1088 1019 23 10 C 849.446 106.181 t 0 r /Helvetica findfont 45.5943 sf 0 0 m (4) show NC gr 
 gsave  1088 1019 23 10 C 1012.51 106.181 t 0 r /Helvetica findfont 45.5943 sf 0 0 m (6) show NC gr 
 gsave  1088 1019 23 10 C 538.488 30.3373 t 0 r /Helvetica findfont 53.1934 sf 0 0 m (Variable 1 \(Deco\)  [F]) show NC gr  208 927 m 838 X s 220 903 m 24 Y s 261 915 m 12 Y s 301 915 m 12 Y s 341 915 m 12 Y s 382 903 m 24 Y s 422 915 m 12 Y s 463
 915 m 12 Y s 503 915 m 12 Y s 543 903 m 24 Y s 584 915 m 12 Y s 624 915 m 12 Y s 664 915 m 12 Y s 705 903 m 24 Y s 745 915 m 12 Y s 785 915 m 12 Y s 826 915 m 12 Y s 866 903 m 24 Y s 907 915 m 12 Y s 947 915 m 12 Y s 987 915 m 12 Y s 1028 903 m 24 Y
 s 220 903 m 24 Y s 1028 903 m 24 Y s 208 157 m 770 Y s 232 157 m -24 X s 220 177 m -12 X s 220 197 m -12 X s 220 218 m -12 X s 220 238 m -12 X s 232 258 m -24 X s 220 278 m -12 X s 220 298 m -12 X s 220 318 m -12 X s 220 339 m -12 X s 232 359 m -24
 X s 220 379 m -12 X s 220 399 m -12 X s 220 419 m -12 X s 220 439 m -12 X s 232 460 m -24 X s 220 480 m -12 X s 220 500 m -12 X s 220 520 m -12 X s 220 540 m -12 X s 232 560 m -24 X s 220 581 m -12 X s 220 601 m -12 X s 220 621 m -12 X s 220 641 m
 -12 X s 232 661 m -24 X s 220 681 m -12 X s 220 702 m -12 X s 220 722 m -12 X s 220 742 m -12 X s 232 762 m -24 X s 220 782 m -12 X s 220 802 m -12 X s 220 822 m -12 X s 220 843 m -12 X s 232 863 m -24 X s 232 863 m -24 X s 220 883 m -12 X s 220 903
 m -12 X s 220 923 m -12 X s
 gsave  1088 1019 23 10 C 166.855 140.31 t 0 r /Helvetica findfont 45.5943 sf 0 0 m (0) show NC gr 
 gsave  1088 1019 23 10 C 136.518 238.907 t 0 r /Helvetica findfont 45.5943 sf 0 0 m (0.1) show NC gr 
 gsave  1088 1019 23 10 C 128.934 341.295 t 0 r /Helvetica findfont 45.5943 sf 0 0 m (0.2) show NC gr 
 gsave  1088 1019 23 10 C 128.934 443.684 t 0 r /Helvetica findfont 45.5943 sf 0 0 m (0.3) show NC gr 
 gsave  1088 1019 23 10 C 128.934 542.28 t 0 r /Helvetica findfont 45.5943 sf 0 0 m (0.4) show NC gr 
 gsave  1088 1019 23 10 C 128.934 644.669 t 0 r /Helvetica findfont 45.5943 sf 0 0 m (0.5) show NC gr 
 gsave  1088 1019 23 10 C 128.934 743.265 t 0 r /Helvetica findfont 45.5943 sf 0 0 m (0.6) show NC gr 
 gsave  1088 1019 23 10 C 128.934 845.653 t 0 r /Helvetica findfont 45.5943 sf 0 0 m (0.7) show NC gr 
 gsave  1088 1019 23 10 C 60.6747 750.849 t 90 r /Helvetica findfont 53.1934 sf 0 0 m (0.259 F) show NC gr 
 gsave  1088 1019 23 10 C 37.9217 739.473 t 90 r /Helvetica findfont 34.1957 sf 0 0 m ( ) show NC gr 
 gsave  1088 1019 23 10 C 60.6747 720.512 t 90 r /Helvetica findfont 53.1934 sf 0 0 m (/) show NC gr 
 gsave  1088 1019 23 10 C 72.0512 709.135 t 90 r /Helvetica findfont 34.1957 sf 0 0 m ( ) show NC gr 
 gsave  1088 1019 23 10 C 60.6747 511.943 t 90 r /Helvetica findfont 53.1934 sf 0 0 m (\(1/N\) dN) show NC gr  1046 157 m 770 Y s 1021 157 m 25 X s 1034 177 m 12 X s 1034 197 m 12 X s 1034 218 m 12 X s 1034 238 m 12 X s 1021 258 m 25 X s 1034 278 m
 12 X s 1034 298 m 12 X s 1034 318 m 12 X s 1034 339 m 12 X s 1021 359 m 25 X s 1034 379 m 12 X s 1034 399 m 12 X s 1034 419 m 12 X s 1034 439 m 12 X s 1021 460 m 25 X s 1034 480 m 12 X s 1034 500 m 12 X s 1034 520 m 12 X s 1034 540 m 12 X s 1021 560
 m 25 X s 1034 581 m 12 X s 1034 601 m 12 X s 1034 621 m 12 X s 1034 641 m 12 X s 1021 661 m 25 X s 1034 681 m 12 X s 1034 702 m 12 X s 1034 722 m 12 X s 1034 742 m 12 X s 1021 762 m 25 X s 1034 782 m 12 X s 1034 802 m 12 X s 1034 822 m 12 X s 1034
 843 m 12 X s 1021 863 m 25 X s 1021 863 m 25 X s 1034 883 m 12 X s 1034 903 m 12 X s 1034 923 m 12 X s 1 0 0 c 6 lw black 3 lw 1 0 0 c 1023 157 m s 1000 157 m s 977 157 m s 955 158 m -1 -1 d s 931 157 m s 908 157 m s 885 157 m s 862 157 m s 839 157
 m s 816 158 m -1 Y s 794 159 m -1 -2 d s 773 161 m -4 -4 d s 753 163 m -7 -6 d s 747 181 m -24 -24 d s 732 188 m -32 -31 d s 718 198 m -41 -41 d s 711 214 m -57 -57 d s 706 232 m -75 -75 d s 690 239 m -82 -82 d s 690 262 m -105 -105 d s 681 277 m
 -119 -120 d s 669 287 m -130 -130 d s 669 311 m -154 -154 d s 669 334 m -177 -177 d s 648 336 m -179 -179 d s 642 354 m -196 -197 d s 627 361 m -204 -204 d s 627 384 m -227 -227 d s 627 407 m -250 -250 d s 618 421 m -264 -264 d s 606 433 m -231 -231
 d s 373 199 m -19 -18 d s 349 175 m -18 -18 d s 606 456 m -210 -210 d s 383 232 m -8 -7 d s 315 165 m -3 -3 d s 312 161 m -4 -4 d s 592 465 m -196 -196 d s 285 158 m -1 Y s 580 476 m -163 -163 d s 400 295 m -4 -3 d s 262 158 m -1 -1 d s 564 483 m
 -105 -105 d s 458 377 m -20 -20 d s 425 344 m -8 -8 d s 238 157 m cl s 564 506 m -105 -105 d s 216 158 m -1 -1 d s 563 528 m -41 -41 d s 517 483 m -16 -17 d s 497 462 m -17 -17 d s 472 437 m -13 -13 d s 539 528 m -17 -17 d s 6 lw 208 158 m 21 X -1 Y
 21 X 1 Y 42 X 3 Y 20 X 4 Y 21 X 10 Y 21 X 24 Y 21 X 33 Y 21 X 63 Y 21 X 49 Y 21 X 33 Y 21 X 60 Y 21 X 25 Y 21 X 21 Y 21 X 45 Y 42 X -52 Y 21 X -11 Y 21 X -44 Y 21 X -67 Y 21 X -19 Y 21 X -58 Y 21 X -45 Y 21 X -34 Y 21 X -17 Y 21 X -19 Y 20 X -3 Y 42
 X -1 Y 21 X -1 Y 105 X 1 Y 21 X -1 Y 63 X 1 Y 21 X s 0.490196 0.545098 0.615686 c 3 lw 1 1 1 c 0.490196 0.545098 0.615686 c 435 153 208 774 bl 208 774 m 435 X s 643 774 m 153 Y s 643 927 m -435 X s 208 927 m -153 Y s black
 gsave  1088 1019 23 10 C 337.503 872.199 t 0 r /Helvetica-Bold findfont 49.3938 sf 0 0 m (Signal) show NC gr  0.49 0.6 0.82 c 227 862 m 92 X 53 Y -92 X f 0 0 0.933333 c 6 lw 227 915 m 92 X s 227 862 m 92 X s 319 862 m 53 Y s 227 862 m 53 Y s black
 gsave  1088 1019 23 10 C 337.503 796.355 t 0 r /Helvetica-Bold findfont 49.3938 sf 0 0 m (Background) show NC gr  1 0 0 c 3 lw 319 793 m -7 -7 d s 319 816 m -30 -30 d s 319 839 m -53 -53 d s 296 839 m -54 -53 d s 273 839 m -46 -45 d s 250 839 m -23
 -22 d s 6 lw 0 0 0.933333 c 1 0 0 c 227 839 m 92 X s 227 786 m 92 X s 319 786 m 53 Y s 227 786 m 53 Y s black 3 lw 208 157 m 838 X s 220 181 m -24 Y s 261 169 m -12 Y s 301 169 m -12 Y s 341 169 m -12 Y s 382 181 m -24 Y s 422 169 m -12 Y s 463 169
 m -12 Y s 503 169 m -12 Y s 543 181 m -24 Y s 584 169 m -12 Y s 624 169 m -12 Y s 664 169 m -12 Y s 705 181 m -24 Y s 745 169 m -12 Y s 785 169 m -12 Y s 826 169 m -12 Y s 866 181 m -24 Y s 907 169 m -12 Y s 947 169 m -12 Y s 987 169 m -12 Y s 1028
 181 m -24 Y s 220 181 m -24 Y s 1028 181 m -24 Y s 208 927 m 838 X s 220 903 m 24 Y s 261 915 m 12 Y s 301 915 m 12 Y s 341 915 m 12 Y s 382 903 m 24 Y s 422 915 m 12 Y s 463 915 m 12 Y s 503 915 m 12 Y s 543 903 m 24 Y s 584 915 m 12 Y s 624 915 m
 12 Y s 664 915 m 12 Y s 705 903 m 24 Y s 745 915 m 12 Y s 785 915 m 12 Y s 826 915 m 12 Y s 866 903 m 24 Y s 907 915 m 12 Y s 947 915 m 12 Y s 987 915 m 12 Y s 1028 903 m 24 Y s 220 903 m 24 Y s 1028 903 m 24 Y s 208 157 m 770 Y s 232 157 m -24 X s
 220 177 m -12 X s 220 197 m -12 X s 220 218 m -12 X s 220 238 m -12 X s 232 258 m -24 X s 220 278 m -12 X s 220 298 m -12 X s 220 318 m -12 X s 220 339 m -12 X s 232 359 m -24 X s 220 379 m -12 X s 220 399 m -12 X s 220 419 m -12 X s 220 439 m -12 X
 s 232 460 m -24 X s 220 480 m -12 X s 220 500 m -12 X s 220 520 m -12 X s 220 540 m -12 X s 232 560 m -24 X s 220 581 m -12 X s 220 601 m -12 X s 220 621 m -12 X s 220 641 m -12 X s 232 661 m -24 X s 220 681 m -12 X s 220 702 m -12 X s 220 722 m -12
 X s 220 742 m -12 X s 232 762 m -24 X s 220 782 m -12 X s 220 802 m -12 X s 220 822 m -12 X s 220 843 m -12 X s 232 863 m -24 X s 232 863 m -24 X s 220 883 m -12 X s 220 903 m -12 X s 220 923 m -12 X s 1046 157 m 770 Y s 1021 157 m 25 X s 1034 177 m
 12 X s 1034 197 m 12 X s 1034 218 m 12 X s 1034 238 m 12 X s 1021 258 m 25 X s 1034 278 m 12 X s 1034 298 m 12 X s 1034 318 m 12 X s 1034 339 m 12 X s 1021 359 m 25 X s 1034 379 m 12 X s 1034 399 m 12 X s 1034 419 m 12 X s 1034 439 m 12 X s 1021 460
 m 25 X s 1034 480 m 12 X s 1034 500 m 12 X s 1034 520 m 12 X s 1034 540 m 12 X s 1021 560 m 25 X s 1034 581 m 12 X s 1034 601 m 12 X s 1034 621 m 12 X s 1034 641 m 12 X s 1021 661 m 25 X s 1034 681 m 12 X s 1034 702 m 12 X s 1034 722 m 12 X s 1034
 742 m 12 X s 1021 762 m 25 X s 1034 782 m 12 X s 1034 802 m 12 X s 1034 822 m 12 X s 1034 843 m 12 X s 1021 863 m 25 X s 1021 863 m 25 X s 1034 883 m 12 X s 1034 903 m 12 X s 1034 923 m 12 X s
 gsave  1088 1019 23 10 C 1089.41 152.949 t 90 r /Helvetica-Bold findfont 37.9953 sf 0 0 m (U/O\255flow \(S,B\): \(0.0, 0.0\)% / \(0.0, 0.0\)%) show NC gr  0.490196 0.545098 0.615686 c 0.364706 0.419608 0.490196 c 762 60 34 964 bf 0.490196 0.545098
 0.615686 c 34 964 m 762 X s 796 964 m 60 Y s 796 1024 m -762 X s 34 1024 m -60 Y s 1 1 1 c black 1 1 1 c
 gsave  1088 1019 23 10 C 53.0904 985.964 t 0 r /Helvetica-Bold findfont 34.1957 sf 0 0 m (Input variable'Deco'\255transformed : Variable 1) show NC gr  0.490196 0.545098 0.615686 c 0.941176 0.941176 0.941176 c 1088 1019 1157 10 bf black 1 1 0.992157
 c 838 770 1342 157 bf black 838 770 1342 157 bl 1 1 0.992157 c 838 770 1342 157 bf black 838 770 1342 157 bl 0 0 0.933333 c 6 lw 0.49 0.6 0.82 c black 3 lw 0.49 0.6 0.82 c 1342 157 m 230 X 1 Y 21 X 1 Y 21 X 15 Y 21 X 25 Y 21 X 74 Y 21 X 153 Y 21 X
 221 Y 21 X 119 Y 21 X 91 Y 21 X -73 Y 21 X -206 Y 21 X -176 Y 21 X -140 Y 20 X -70 Y 21 X -20 Y 21 X -14 Y 42 X -1 Y 252 X f 6 lw 0 0 0.933333 c 0.49 0.6 0.82 c 0 0 0.933333 c 1342 157 m 230 X 1 Y 21 X 1 Y 21 X 15 Y 21 X 25 Y 21 X 74 Y 21 X 153 Y 21
 X 221 Y 21 X 119 Y 21 X 91 Y 21 X -73 Y 21 X -206 Y 21 X -176 Y 21 X -140 Y 20 X -70 Y 21 X -20 Y 21 X -14 Y 42 X -1 Y 252 X s black 3 lw 1342 157 m 838 X s 1361 181 m -24 Y s 1401 169 m -12 Y s 1440 169 m -12 Y s 1479 169 m -12 Y s 1519 181 m -24 Y
 s 1558 169 m -12 Y s 1597 169 m -12 Y s 1637 169 m -12 Y s 1676 181 m -24 Y s 1715 169 m -12 Y s 1755 169 m -12 Y s 1794 169 m -12 Y s 1833 181 m -24 Y s 1873 169 m -12 Y s 1912 169 m -12 Y s 1951 169 m -12 Y s 1991 181 m -24 Y s 2030 169 m -12 Y s
 2069 169 m -12 Y s 2109 169 m -12 Y s 2148 181 m -24 Y s 1361 181 m -24 Y s 2148 181 m -24 Y s
 gsave  1088 1019 1157 10 C 1353.8 106.181 t 0 r /Helvetica findfont 45.5943 sf 0 0 m (4) show NC gr 
 gsave  1088 1019 1157 10 C 1331.05 106.181 t 0 r /Symbol findfont 45.5943 sf 0 0 m (-) show NC gr 
 gsave  1088 1019 1157 10 C 1513.08 106.181 t 0 r /Helvetica findfont 45.5943 sf 0 0 m (2) show NC gr 
 gsave  1088 1019 1157 10 C 1490.32 106.181 t 0 r /Symbol findfont 45.5943 sf 0 0 m (-) show NC gr 
 gsave  1088 1019 1157 10 C 1657.18 106.181 t 0 r /Helvetica findfont 45.5943 sf 0 0 m (0) show NC gr 
 gsave  1088 1019 1157 10 C 1816.45 106.181 t 0 r /Helvetica findfont 45.5943 sf 0 0 m (2) show NC gr 
 gsave  1088 1019 1157 10 C 1971.93 106.181 t 0 r /Helvetica findfont 45.5943 sf 0 0 m (4) show NC gr 
 gsave  1088 1019 1157 10 C 2131.2 106.181 t 0 r /Helvetica findfont 45.5943 sf 0 0 m (6) show NC gr 
 gsave  1088 1019 1157 10 C 1672.35 30.3373 t 0 r /Helvetica findfont 53.1934 sf 0 0 m (Variable 2 \(Deco\)  [F]) show NC gr  1342 927 m 838 X s 1361 903 m 24 Y s 1401 915 m 12 Y s 1440 915 m 12 Y s 1479 915 m 12 Y s 1519 903 m 24 Y s 1558 915 m 12 Y
 s 1597 915 m 12 Y s 1637 915 m 12 Y s 1676 903 m 24 Y s 1715 915 m 12 Y s 1755 915 m 12 Y s 1794 915 m 12 Y s 1833 903 m 24 Y s 1873 915 m 12 Y s 1912 915 m 12 Y s 1951 915 m 12 Y s 1991 903 m 24 Y s 2030 915 m 12 Y s 2069 915 m 12 Y s 2109 915 m 12
 Y s 2148 903 m 24 Y s 1361 903 m 24 Y s 2148 903 m 24 Y s 1342 157 m 770 Y s 1366 157 m -24 X s 1354 177 m -12 X s 1354 196 m -12 X s 1354 216 m -12 X s 1354 236 m -12 X s 1366 255 m -24 X s 1354 275 m -12 X s 1354 295 m -12 X s 1354 315 m -12 X s
 1354 334 m -12 X s 1366 354 m -24 X s 1354 374 m -12 X s 1354 393 m -12 X s 1354 413 m -12 X s 1354 433 m -12 X s 1366 452 m -24 X s 1354 472 m -12 X s 1354 492 m -12 X s 1354 511 m -12 X s 1354 531 m -12 X s 1366 551 m -24 X s 1354 570 m -12 X s
 1354 590 m -12 X s 1354 610 m -12 X s 1354 630 m -12 X s 1366 649 m -24 X s 1354 669 m -12 X s 1354 689 m -12 X s 1354 708 m -12 X s 1354 728 m -12 X s 1366 748 m -24 X s 1354 767 m -12 X s 1354 787 m -12 X s 1354 807 m -12 X s 1354 826 m -12 X s
 1366 846 m -24 X s 1366 846 m -24 X s 1354 866 m -12 X s 1354 885 m -12 X s 1354 905 m -12 X s 1354 925 m -12 X s
 gsave  1088 1019 1157 10 C 1300.71 140.31 t 0 r /Helvetica findfont 45.5943 sf 0 0 m (0) show NC gr 
 gsave  1088 1019 1157 10 C 1270.38 238.907 t 0 r /Helvetica findfont 45.5943 sf 0 0 m (0.1) show NC gr 
 gsave  1088 1019 1157 10 C 1262.79 337.503 t 0 r /Helvetica findfont 45.5943 sf 0 0 m (0.2) show NC gr 
 gsave  1088 1019 1157 10 C 1262.79 436.099 t 0 r /Helvetica findfont 45.5943 sf 0 0 m (0.3) show NC gr 
 gsave  1088 1019 1157 10 C 1262.79 534.696 t 0 r /Helvetica findfont 45.5943 sf 0 0 m (0.4) show NC gr 
 gsave  1088 1019 1157 10 C 1262.79 633.292 t 0 r /Helvetica findfont 45.5943 sf 0 0 m (0.5) show NC gr 
 gsave  1088 1019 1157 10 C 1262.79 731.888 t 0 r /Helvetica findfont 45.5943 sf 0 0 m (0.6) show NC gr 
 gsave  1088 1019 1157 10 C 1262.79 830.485 t 0 r /Helvetica findfont 45.5943 sf 0 0 m (0.7) show NC gr 
 gsave  1088 1019 1157 10 C 1198.33 750.849 t 90 r /Helvetica findfont 53.1934 sf 0 0 m (0.266 F) show NC gr 
 gsave  1088 1019 1157 10 C 1171.78 739.473 t 90 r /Helvetica findfont 34.1957 sf 0 0 m ( ) show NC gr 
 gsave  1088 1019 1157 10 C 1198.33 720.512 t 90 r /Helvetica findfont 53.1934 sf 0 0 m (/) show NC gr 
 gsave  1088 1019 1157 10 C 1209.7 709.135 t 90 r /Helvetica findfont 34.1957 sf 0 0 m ( ) show NC gr 
 gsave  1088 1019 1157 10 C 1198.33 511.943 t 90 r /Helvetica findfont 53.1934 sf 0 0 m (\(1/N\) dN) show NC gr  2180 157 m 770 Y s 2155 157 m 25 X s 2167 177 m 13 X s 2167 196 m 13 X s 2167 216 m 13 X s 2167 236 m 13 X s 2155 255 m 25 X s 2167 275 m
 13 X s 2167 295 m 13 X s 2167 315 m 13 X s 2167 334 m 13 X s 2155 354 m 25 X s 2167 374 m 13 X s 2167 393 m 13 X s 2167 413 m 13 X s 2167 433 m 13 X s 2155 452 m 25 X s 2167 472 m 13 X s 2167 492 m 13 X s 2167 511 m 13 X s 2167 531 m 13 X s 2155 551
 m 25 X s 2167 570 m 13 X s 2167 590 m 13 X s 2167 610 m 13 X s 2167 630 m 13 X s 2155 649 m 25 X s 2167 669 m 13 X s 2167 689 m 13 X s 2167 708 m 13 X s 2167 728 m 13 X s 2155 748 m 25 X s 2167 767 m 13 X s 2167 787 m 13 X s 2167 807 m 13 X s 2167
 826 m 13 X s 2155 846 m 25 X s 2155 846 m 25 X s 2167 866 m 13 X s 2167 885 m 13 X s 2167 905 m 13 X s 2167 925 m 13 X s 1 0 0 c 6 lw black 3 lw 1 0 0 c 2157 157 m s 2134 157 m s 2111 157 m s 2088 157 m s 2065 157 m cl s 2042 157 m s 2019 157 m s
 1996 157 m s 1973 157 m s 1952 159 m -3 -2 d s 1927 158 m -1 -1 d s 1906 160 m -3 -3 d s 1886 163 m -6 -6 d s 1874 174 m -17 -17 d s 1865 188 m -31 -31 d s 1849 195 m -38 -38 d s 1844 214 m -56 -57 d s 1842 235 m -77 -78 d s 1824 239 m -82 -82 d s
 1824 262 m -105 -105 d s 1824 285 m -129 -128 d s 1806 291 m -134 -134 d s 1803 311 m -154 -154 d s 1803 334 m -177 -177 d s 1803 357 m -200 -200 d s 1782 360 m -202 -203 d s 1782 382 m -225 -225 d s 1778 402 m -244 -245 d s 1761 407 m -250 -250 d s
 1761 430 m -273 -273 d s 1745 438 m -5 -5 d s 1726 419 m -217 -217 d s 1501 193 m -13 -12 d s 1477 170 m -12 -13 d s 1709 425 m -179 -179 d s 1524 240 m -15 -15 d s 1448 164 m -2 -2 d s 1441 157 m s 1696 435 m -166 -166 d s 1424 162 m -6 -5 d s 1677
 439 m -126 -126 d s 1541 303 m -11 -11 d s 1398 159 m -3 -2 d s 1658 444 m -86 -87 d s 1555 340 m -4 -4 d s 1372 157 m s 1645 453 m -31 -31 d s 1612 420 m -40 -40 d s 1351 158 m -2 -1 d s 1630 461 m -16 -16 d s 1584 415 m -12 -12 d s 6 lw 1342 158 m
 21 X -1 Y 20 X 2 Y 21 X 3 Y 21 X -5 Y 21 X 7 Y 21 X 6 Y 21 X 23 Y 21 X 47 Y 21 X 63 Y 21 X 37 Y 21 X 75 Y 21 X 5 Y 21 X 41 Y 21 X -8 Y 21 X -9 Y 21 X -9 Y 21 X -10 Y 21 X -6 Y 21 X 19 Y 21 X -36 Y 21 X -42 Y 21 X -69 Y 21 X -56 Y 20 X -40 Y 21 X -21
 Y 21 X -14 Y 21 X -2 Y 42 X 1 Y 21 X -2 Y 189 X 1 Y 21 X s black 3 lw 1342 157 m 838 X s 1361 181 m -24 Y s 1401 169 m -12 Y s 1440 169 m -12 Y s 1479 169 m -12 Y s 1519 181 m -24 Y s 1558 169 m -12 Y s 1597 169 m -12 Y s 1637 169 m -12 Y s 1676 181
 m -24 Y s 1715 169 m -12 Y s 1755 169 m -12 Y s 1794 169 m -12 Y s 1833 181 m -24 Y s 1873 169 m -12 Y s 1912 169 m -12 Y s 1951 169 m -12 Y s 1991 181 m -24 Y s 2030 169 m -12 Y s 2069 169 m -12 Y s 2109 169 m -12 Y s 2148 181 m -24 Y s 1361 181 m
 -24 Y s 2148 181 m -24 Y s 1342 927 m 838 X s 1361 903 m 24 Y s 1401 915 m 12 Y s 1440 915 m 12 Y s 1479 915 m 12 Y s 1519 903 m 24 Y s 1558 915 m 12 Y s 1597 915 m 12 Y s 1637 915 m 12 Y s 1676 903 m 24 Y s 1715 915 m 12 Y s 1755 915 m 12 Y s 1794
 915 m 12 Y s 1833 903 m 24 Y s 1873 915 m 12 Y s 1912 915 m 12 Y s 1951 915 m 12 Y s 1991 903 m 24 Y s 2030 915 m 12 Y s 2069 915 m 12 Y s 2109 915 m 12 Y s 2148 903 m 24 Y s 1361 903 m 24 Y s 2148 903 m 24 Y s 1342 157 m 770 Y s 1366 157 m -24 X s
 1354 177 m -12 X s 1354 196 m -12 X s 1354 216 m -12 X s 1354 236 m -12 X s 1366 255 m -24 X s 1354 275 m -12 X s 1354 295 m -12 X s 1354 315 m -12 X s 1354 334 m -12 X s 1366 354 m -24 X s 1354 374 m -12 X s 1354 393 m -12 X s 1354 413 m -12 X s
 1354 433 m -12 X s 1366 452 m -24 X s 1354 472 m -12 X s 1354 492 m -12 X s 1354 511 m -12 X s 1354 531 m -12 X s 1366 551 m -24 X s 1354 570 m -12 X s 1354 590 m -12 X s 1354 610 m -12 X s 1354 630 m -12 X s 1366 649 m -24 X s 1354 669 m -12 X s
 1354 689 m -12 X s 1354 708 m -12 X s 1354 728 m -12 X s 1366 748 m -24 X s 1354 767 m -12 X s 1354 787 m -12 X s 1354 807 m -12 X s 1354 826 m -12 X s 1366 846 m -24 X s 1366 846 m -24 X s 1354 866 m -12 X s 1354 885 m -12 X s 1354 905 m -12 X s
 1354 925 m -12 X s 2180 157 m 770 Y s 2155 157 m 25 X s 2167 177 m 13 X s 2167 196 m 13 X s 2167 216 m 13 X s 2167 236 m 13 X s 2155 255 m 25 X s 2167 275 m 13 X s 2167 295 m 13 X s 2167 315 m 13 X s 2167 334 m 13 X s 2155 354 m 25 X s 2167 374 m 13
 X s 2167 393 m 13 X s 2167 413 m 13 X s 2167 433 m 13 X s 2155 452 m 25 X s 2167 472 m 13 X s 2167 492 m 13 X s 2167 511 m 13 X s 2167 531 m 13 X s 2155 551 m 25 X s 2167 570 m 13 X s 2167 590 m 13 X s 2167 610 m 13 X s 2167 630 m 13 X s 2155 649 m
 25 X s 2167 669 m 13 X s 2167 689 m 13 X s 2167 708 m 13 X s 2167 728 m 13 X s 2155 748 m 25 X s 2167 767 m 13 X s 2167 787 m 13 X s 2167 807 m 13 X s 2167 826 m 13 X s 2155 846 m 25 X s 2155 846 m 25 X s 2167 866 m 13 X s 2167 885 m 13 X s 2167 905
 m 13 X s 2167 925 m 13 X s
 gsave  1088 1019 1157 10 C 2223.27 152.949 t 90 r /Helvetica-Bold findfont 37.9953 sf 0 0 m (U/O\255flow \(S,B\): \(0.0, 0.0\)% / \(0.0, 0.0\)%) show NC gr  0.490196 0.545098 0.615686 c 0.364706 0.419608 0.490196 c 762 60 1167 964 bf 0.490196
 0.545098 0.615686 c 1167 964 m 762 X s 1929 964 m 60 Y s 1929 1024 m -762 X s 1167 1024 m -60 Y s 1 1 1 c black 1 1 1 c
 gsave  1088 1019 1157 10 C 1183.16 985.964 t 0 r /Helvetica-Bold findfont 34.1957 sf 0 0 m (Input variable'Deco'\255transformed : Variable 2) show NC gr 
 gr  gr showpage
end
%%EOF
