CeBr3_Ba133 80.997 152.289 0.00303841 6.22266 0.00366756 0.096227 5.67474e-05
CeBr3_Co57  136.4743 181.167 0.00295626 5.65818 0.00404745 0.0735508 5.26265e-05
CeBr3_Cs137 661.657 682.6 0.085137 13.4654 0.0898074 0.0464561 0.000309894
CeBr3_Eu152 121.7817 187.52 0.0104576 6.29266 0.0131022 0.0790273 0.000164606
CeBr3_Na22  511 542.742 0.0474387 13.6277 0.0710588 0.0591315 0.000308373
