filename    & centroid & centroidError & sigma&sigmaError & energyResolution & energyResolutionError \\
CeBr3_Ba133 & 152.301 & 0.00304342 & 6.22293 & 0.00367744 & 0.0962238 & 5.6896e-05 \\
CeBr3_Co57  & 181.166 & 0.00297242 & 5.6803  & 0.00408197 & 0.0738388 & 5.30758e-05 \\
CeBr3_Cs137 & 682.572 & 0.0847704  & 13.3544 & 0.0889909  & 0.0460751 & 0.000307088 \\
CeBr3_Eu152 & 187.524 & 0.0105013  & 6.30644 & 0.0131819  & 0.0791986 & 0.000165603 \\
CeBr3_Na22  & 542.741 & 0.0475332  & 13.639  & 0.0713713  & 0.059181  & 0.00030973 \\
