%!PS-Adobe-2.0 EPSF-2.0
%%BoundingBox:  0 0 567 533
%%Title: dataset/plots/correlationscatter_y__PCA_c2.eps: Correlation profiles for 'PCA'-transformed background variables
%%Creator: ROOT Version 6.12/06
%%CreationDate: Mon May 21 12:06:52 2018
%%DocumentNeededResources: ProcSet (FontSetInit)
%%EndComments
%%BeginProlog
80 dict begin
/s {stroke} def /l {lineto} def /m {moveto} def /t {translate} def
/r {rotate} def /rl {roll}  def /R {repeat} def
/d {rlineto} def /rm {rmoveto} def /gr {grestore} def /f {eofill} def
/c {setrgbcolor} def /black {0 setgray} def /sd {setdash} def
/cl {closepath} def /sf {scalefont setfont} def /lw {setlinewidth} def
/box {m dup 0 exch d exch 0 d 0 exch neg d cl} def
/NC{systemdict begin initclip end}def/C{NC box clip newpath}def
/bl {box s} def /bf {gsave box gsave f grestore 1 lw [] 0 sd s grestore} def /Y { 0 exch d} def /X { 0 d} def 
/K {{pop pop 0 moveto} exch kshow} bind def
/ita {/ang 15 def gsave [1 0 ang dup sin exch cos div 1 0 0] concat} def 
/mp {newpath /y exch def /x exch def} def
/side {[w .77 mul w .23 mul] .385 w mul sd w 0 l currentpoint t -144 r} def
/mr {mp x y w2 0 360 arc} def /m24 {mr s} def /m20 {mr f} def
/mb {mp x y w2 add m w2 neg 0 d 0 w neg d w 0 d 0 w d cl} def
/mt {mp x y w2 add m w2 neg w neg d w 0 d cl} def
/w4 {w 4 div} def
/w6 {w 6 div} def
/w8 {w 8 div} def
/m21 {mb f} def /m25 {mb s} def /m22 {mt f} def /m26{mt s} def
/m23 {mp x y w2 sub m w2 w d w neg 0 d cl f} def
/m27 {mp x y w2 add m w3 neg w2 neg d w3 w2 neg d w3 w2 d cl s} def
/m28 {mp x w2 sub y w2 sub w3 add m w3 0 d  0 w3 neg d w3 0 d 0 w3 d w3 0 d  0 w3 d w3 neg 0 d 0 w3 d w3 neg 0 d 0 w3 neg d w3 neg 0 d cl s } def
/m29 {mp gsave x w2 sub y w2 add w3 sub m currentpoint t 4 {side} repeat cl fill gr} def
/m30 {mp gsave x w2 sub y w2 add w3 sub m currentpoint t 4 {side} repeat cl s gr} def
/m31 {mp x y w2 sub m 0 w d x w2 sub y m w 0 d x w2 sub y w2 add m w w neg d x w2 sub y w2 sub m w w d s} def
/m32 {mp x y w2 sub m w2 w d w neg 0 d cl s} def
/m33 {mp x y w2 add m w3 neg w2 neg d w3 w2 neg d w3 w2 d cl f} def
/m34 {mp x w2 sub y w2 sub w3 add m w3 0 d  0 w3 neg d w3 0 d 0 w3 d w3 0 d  0 w3 d w3 neg 0 d 0 w3 d w3 neg 0 d 0 w3 neg d w3 neg 0 d cl f } def
/m35 {mp x y w2 add m w2 neg w2 neg d w2 w2 neg d w2 w2 d w2 neg w2 d x y w2 sub m 0 w d x w2 sub y m w 0 d s} def
/m36 {mb x w2 sub y w2 add m w w neg d x w2 sub y w2 sub m w w d s} def
/m37 {mp x y m w4 neg w2 d w4 neg w2 neg d w2 0 d  w4 neg w2 neg d w2 0 d w4 neg w2 d w2 0 d w4 neg w2 d w4 neg w2 neg d cl s} def
/m38 {mp x w4 sub y w2 add m w4 neg w4 neg d 0 w2 neg d w4 w4 neg d w2 0 d w4 w4 d 0 w2 d w4 neg w4 d w2 neg 0 d x y w2 sub m 0 w d x w2 sub y m w 0 d cl s} def
/m39 {mp x y m w4 neg w2 d w4 neg w2 neg d w2 0 d  w4 neg w2 neg d w2 0 d w4 neg w2 d w2 0 d w4 neg w2 d w4 neg w2 neg d cl f} def
/m40 {mp x y m w4 w2 d w4 w4 neg d w2 neg w4 neg d w2 w4 neg d w4 neg w4 neg d w4 neg w2 d w4 neg w2 neg d w4 neg w4 d w2 w4 d w2 neg w4 d w4 w4 d w4 w2 neg d cl s} def
/m41 {mp x y m w4 w2 d w4 w4 neg d w2 neg w4 neg d w2 w4 neg d w4 neg w4 neg d w4 neg w2 d w4 neg w2 neg d w4 neg w4 d w2 w4 d w2 neg w4 d w4 w4 d w4 w2 neg d cl f} def
/m42 {mp x y w2 add m w8 neg w2 -3 4 div mul d w2 -3 4 div mul w8 neg d w2 3 4 div mul w8 neg d w8 w2 -3 4 div mul d w8 w2 3 4 div mul d w2 3 4 div mul w8 d w2 -3 4 div mul w8 d w8 neg w2 3 4 div mul d cl s} def
/m43 {mp x y w2 add m w8 neg w2 -3 4 div mul d w2 -3 4 div mul w8 neg d w2 3 4 div mul w8 neg d w8 w2 -3 4 div mul d w8 w2 3 4 div mul d w2 3 4 div mul w8 d w2 -3 4 div mul w8 d w8 neg w2 3 4 div mul d cl f} def
/m44 {mp x y m w6 neg w2 d w2 2 3 div mul 0 d w6 neg w2 neg d w2 w6 d 0 w2 -2 3 div mul d w2 neg w6 d w6 w2 neg d w2 -2 3 div mul 0 d w6 w2 d w2 neg w6 neg d 0 w2 2 3 div mul d w2 w6 neg d cl s} def
/m45 {mp x y m w6 neg w2 d w2 2 3 div mul 0 d w6 neg w2 neg d w2 w6 d 0 w2 -2 3 div mul d w2 neg w6 d w6 w2 neg d w2 -2 3 div mul 0 d w6 w2 d w2 neg w6 neg d 0 w2 2 3 div mul d w2 w6 neg d cl f} def
/m46 {mp x y w4 add m w4 neg w4 d w4 neg w4 neg d  w4 w4 neg d w4 neg w4 neg d w4 w4 neg d w4 w4 d w4 w4 neg d w4 w4 d w4 neg w4 d w4 w4 d w4 neg w4 d w4 neg w4 neg d cl s} def
/m47 {mp x y w4 add m w4 neg w4 d w4 neg w4 neg d w4 w4 neg d w4 neg w4 neg d  w4 w4 neg d w4 w4 d w4 w4 neg d w4 w4 d w4 neg w4 d w4 w4 d w4 neg w4 d w4 neg w4 neg d cl f} def
/m48 {mp x y w4 add m w4 neg w4 d w4 neg w4 neg d w4 w4 neg d  w4 neg w4 neg d w4 w4 neg d w4 w4 d w4 w4 neg d w4 w4 d w4 neg w4 d w4 w4 d w4 neg w4 d w4 neg w4 neg d  w4 w4 neg d w4 neg w4 neg d w4 neg w4 d w4 w4 d cl f} def
/m49 {mp x w2 sub w3 add y w2 sub w3 add m  0 w3 neg d w3 0 d 0 w3 d w3 0 d 0 w3 d w3 neg 0 d 0 w3 d w3 neg 0 d 0 w3 neg d w3 neg 0 d 0 w3 neg d w3 0 d 0 w3 d w3 0 d 0 w3 neg d w3 neg 0 d cl f } def
/m2 {mp x y w2 sub m 0 w d x w2 sub y m w 0 d s} def
/m5 {mp x w2 sub y w2 sub m w w d x w2 sub y w2 add m w w neg d s} def
%%IncludeResource: ProcSet (FontSetInit)
%%IncludeResource: font Times-Roman
%%IncludeResource: font Times-Italic
%%IncludeResource: font Times-Bold
%%IncludeResource: font Times-BoldItalic
%%IncludeResource: font Helvetica
%%IncludeResource: font Helvetica-Oblique
%%IncludeResource: font Helvetica-Bold
%%IncludeResource: font Helvetica-BoldOblique
%%IncludeResource: font Courier
%%IncludeResource: font Courier-Oblique
%%IncludeResource: font Courier-Bold
%%IncludeResource: font Courier-BoldOblique
%%IncludeResource: font Symbol
%%IncludeResource: font ZapfDingbats
/reEncode {exch findfont dup length dict begin {1 index /FID eq  {pop pop} {def} ifelse } forall /Encoding exch def currentdict end dup /FontName get exch definefont pop } def [/Times-Bold /Times-Italic /Times-BoldItalic /Helvetica /Helvetica-Oblique
 /Helvetica-Bold /Helvetica-BoldOblique /Courier /Courier-Oblique /Courier-Bold /Courier-BoldOblique /Times-Roman /AvantGarde-Book /AvantGarde-BookOblique /AvantGarde-Demi /AvantGarde-DemiOblique /Bookman-Demi /Bookman-DemiItalic /Bookman-Light
 /Bookman-LightItalic /Helvetica-Narrow /Helvetica-Narrow-Bold /Helvetica-Narrow-BoldOblique /Helvetica-Narrow-Oblique /NewCenturySchlbk-Roman /NewCenturySchlbk-Bold /NewCenturySchlbk-BoldItalic /NewCenturySchlbk-Italic /Palatino-Bold
 /Palatino-BoldItalic /Palatino-Italic /Palatino-Roman ] {ISOLatin1Encoding reEncode } forall
%%EndProlog
%%BeginSetup
%%EndSetup
newpath  gsave  .25 .25 scale  gsave  0 0 t 0.490196 0.545098 0.615686 c[  ] 0 sd 3 lw 0.941176 0.941176 0.941176 c 2268 2131 0 0 bf 0.490196 0.545098 0.615686 c 0.941176 0.941176 0.941176 c 2222 2089 23 21 bf black 1 1 0.992157 c 1801 1579 311 322
 bf black 1801 1579 311 322 bl 1 1 0.992157 c 1801 1579 311 322 bf black 1801 1579 311 322 bl 0.49 0.6 0.82 c 0 0.0800001 1 c 6 5 1091 701 bf 6 5 1553 717 bf 6 6 1529 727 bf 6 6 1571 727 bf 6 5 1547 738 bf 6 5 1559 743 bf 6 5 1649 743 bf 6 5 1529 754
 bf 6 5 1535 754 bf 6 5 1541 754 bf 6 5 1109 759 bf 6 5 1295 759 bf 6 5 1493 759 bf 6 5 1559 759 bf 6 5 1103 764 bf 0 0.733333 1 c 6 6 1547 769 bf 0 0.0800001 1 c 6 5 1421 775 bf 6 5 1505 775 bf 6 5 1553 775 bf 6 5 1577 775 bf 6 5 1109 780 bf 6 5
 1163 780 bf 6 5 1457 780 bf 6 5 1559 780 bf 6 5 1571 780 bf 6 5 1109 785 bf 6 5 1175 785 bf 0 0.733333 1 c 6 5 1547 785 bf 0 0.0800001 1 c 6 6 1085 790 bf 6 6 1103 790 bf 6 6 1121 790 bf 6 6 1163 790 bf 6 6 1517 790 bf 6 6 1547 790 bf 6 6 1559 790
 bf 6 6 1565 790 bf 6 6 1577 790 bf 6 5 1097 796 bf 6 5 1103 796 bf 6 5 1121 796 bf 6 5 1145 796 bf 6 5 1169 796 bf 6 5 1229 796 bf 6 5 1487 796 bf 6 5 1517 796 bf 6 5 1535 796 bf 6 5 1541 796 bf 6 5 1565 796 bf 6 5 1619 796 bf 6 5 1079 801 bf 6 5
 1121 801 bf 6 5 1139 801 bf 6 5 1175 801 bf 6 5 1217 801 bf 6 5 1415 801 bf 6 5 1493 801 bf 0 0.733333 1 c 6 5 1553 801 bf 6 5 1577 801 bf 0 0.0800001 1 c 6 5 1085 806 bf 6 5 1121 806 bf 6 5 1463 806 bf 6 5 1523 806 bf 6 5 1541 806 bf 6 6 1079 811
 bf 6 6 1091 811 bf 6 6 1127 811 bf 6 6 1169 811 bf 6 6 1517 811 bf 6 6 1535 811 bf 0 0.733333 1 c 6 6 1553 811 bf 0 0.0800001 1 c 6 6 1571 811 bf 6 6 1703 811 bf 0 0.733333 1 c 6 5 1091 817 bf 0 0.0800001 1 c 6 5 1097 817 bf 6 5 1121 817 bf 6 5 1349
 817 bf 6 5 1499 817 bf 6 5 1505 817 bf 6 5 1517 817 bf 6 5 1601 817 bf 6 5 1079 822 bf 6 5 1103 822 bf 6 5 1139 822 bf 6 5 1301 822 bf 6 5 1415 822 bf 6 5 1493 822 bf 6 5 1517 822 bf 6 5 1523 822 bf 6 5 1529 822 bf 6 5 1547 822 bf 6 5 1553 822 bf 6
 6 1091 827 bf 6 6 1127 827 bf 6 6 1313 827 bf 6 6 1481 827 bf 6 6 1547 827 bf 0 0.733333 1 c 6 6 1553 827 bf 0 0.0800001 1 c 6 6 1559 827 bf 6 6 1565 827 bf 6 6 1571 827 bf 0 0.733333 1 c 6 5 1115 833 bf 0 0.0800001 1 c 6 5 1121 833 bf 6 5 1139 833
 bf 6 5 1151 833 bf 6 5 1175 833 bf 6 5 1379 833 bf 6 5 1475 833 bf 0 0.733333 1 c 6 5 1505 833 bf 0 0.0800001 1 c 6 5 1511 833 bf 6 5 1517 833 bf 6 5 1523 833 bf 6 5 1535 833 bf 6 5 1541 833 bf 6 5 1547 833 bf 0 0.733333 1 c 6 5 1559 833 bf 0
 0.0800001 1 c 6 5 1565 833 bf 6 5 1589 833 bf 6 5 1631 833 bf 6 5 1685 833 bf 6 5 1691 833 bf 0 0.733333 1 c 6 5 1091 838 bf 0 0.0800001 1 c 6 5 1103 838 bf 6 5 1109 838 bf 6 5 1115 838 bf 6 5 1121 838 bf 6 5 1151 838 bf 6 5 1163 838 bf 6 5 1511 838
 bf 0 0.733333 1 c 6 5 1529 838 bf 0 0.0800001 1 c 6 5 1541 838 bf 6 5 1553 838 bf 6 5 1559 838 bf 0 1 0.52 c 6 5 1565 838 bf 0 0.0800001 1 c 6 5 1577 838 bf 0 0.733333 1 c 6 5 1619 838 bf 0 0.0800001 1 c 6 5 1049 843 bf 6 5 1079 843 bf 0 0.733333 1
 c 6 5 1109 843 bf 0 0.0800001 1 c 6 5 1211 843 bf 6 5 1223 843 bf 6 5 1283 843 bf 6 5 1319 843 bf 6 5 1415 843 bf 6 5 1469 843 bf 6 5 1523 843 bf 6 5 1529 843 bf 0 0.733333 1 c 6 5 1535 843 bf 0 0.0800001 1 c 6 5 1541 843 bf 6 5 1553 843 bf 6 5 1559
 843 bf 0 0.733333 1 c 6 5 1565 843 bf 0 1 0.52 c 6 5 1571 843 bf 0 0.0800001 1 c 6 5 1577 843 bf 6 5 1589 843 bf 6 5 1631 843 bf 0 0.733333 1 c 6 6 1025 848 bf 0 0.0800001 1 c 6 6 1073 848 bf 6 6 1109 848 bf 0 0.733333 1 c 6 6 1115 848 bf 0
 0.0800001 1 c 6 6 1121 848 bf 6 6 1127 848 bf 0 0.733333 1 c 6 6 1145 848 bf 0 0.0800001 1 c 6 6 1211 848 bf 6 6 1457 848 bf 6 6 1469 848 bf 6 6 1493 848 bf 6 6 1535 848 bf 6 6 1547 848 bf 6 6 1553 848 bf 0 1 0.52 c 6 6 1565 848 bf 0 0.0800001 1 c 6
 6 1613 848 bf 6 6 1703 848 bf 6 5 1061 854 bf 0 0.733333 1 c 6 5 1097 854 bf 0 0.0800001 1 c 6 5 1109 854 bf 6 5 1115 854 bf 0.88 1 0 c 6 5 1121 854 bf 0 0.0800001 1 c 6 5 1133 854 bf 6 5 1145 854 bf 6 5 1205 854 bf 0 0.733333 1 c 6 5 1289 854 bf 0
 0.0800001 1 c 6 5 1439 854 bf 6 5 1517 854 bf 0 0.733333 1 c 6 5 1523 854 bf 0 0.0800001 1 c 6 5 1529 854 bf 0 1 0.52 c 6 5 1535 854 bf 0 0.733333 1 c 6 5 1541 854 bf 0 0.0800001 1 c 6 5 1547 854 bf 6 5 1577 854 bf 6 5 1595 854 bf 0 0.733333 1 c 6 5
 1607 854 bf 0 0.0800001 1 c 6 5 1649 854 bf 6 5 1073 859 bf 6 5 1097 859 bf 6 5 1103 859 bf 0 1 0.52 c 6 5 1109 859 bf 0 0.733333 1 c 6 5 1121 859 bf 6 5 1139 859 bf 0 0.0800001 1 c 6 5 1163 859 bf 6 5 1211 859 bf 6 5 1367 859 bf 6 5 1379 859 bf 6 5
 1469 859 bf 6 5 1481 859 bf 6 5 1499 859 bf 6 5 1505 859 bf 6 5 1511 859 bf 0 0.733333 1 c 6 5 1523 859 bf 0 0.0800001 1 c 6 5 1529 859 bf 0 0.733333 1 c 6 5 1535 859 bf 0 0.0800001 1 c 6 5 1541 859 bf 0 1 0.52 c 6 5 1553 859 bf 0 0.0800001 1 c 6 5
 1559 859 bf 6 5 1565 859 bf 6 5 1577 859 bf 6 5 1583 859 bf 6 5 1613 859 bf 6 5 1655 859 bf 6 5 1091 864 bf 6 5 1109 864 bf 6 5 1115 864 bf 6 5 1127 864 bf 0 1 0.52 c 6 5 1133 864 bf 0 0.733333 1 c 6 5 1145 864 bf 0 0.0800001 1 c 6 5 1151 864 bf 0
 0.733333 1 c 6 5 1157 864 bf 0 0.0800001 1 c 6 5 1181 864 bf 6 5 1445 864 bf 6 5 1499 864 bf 6 5 1505 864 bf 6 5 1511 864 bf 0 1 0.52 c 6 5 1547 864 bf 0 0.0800001 1 c 6 5 1553 864 bf 6 5 1565 864 bf 6 5 1577 864 bf 6 5 1607 864 bf 6 5 1637 864 bf 6
 6 1067 869 bf 6 6 1109 869 bf 0 0.733333 1 c 6 6 1115 869 bf 6 6 1121 869 bf 0 0.0800001 1 c 6 6 1133 869 bf 6 6 1139 869 bf 6 6 1181 869 bf 6 6 1205 869 bf 6 6 1229 869 bf 6 6 1397 869 bf 6 6 1475 869 bf 6 6 1487 869 bf 6 6 1505 869 bf 6 6 1517 869
 bf 6 6 1523 869 bf 6 6 1535 869 bf 0 0.733333 1 c 6 6 1541 869 bf 0 1 0.52 c 6 6 1559 869 bf 0 0.733333 1 c 6 6 1571 869 bf 6 6 1577 869 bf 0 0.0800001 1 c 6 6 1589 869 bf 6 5 683 875 bf 6 5 1043 875 bf 6 5 1061 875 bf 6 5 1079 875 bf 6 5 1085 875
 bf 6 5 1097 875 bf 6 5 1109 875 bf 0 0.733333 1 c 6 5 1115 875 bf 0 0.0800001 1 c 6 5 1127 875 bf 0 0.733333 1 c 6 5 1139 875 bf 0 0.0800001 1 c 6 5 1145 875 bf 6 5 1181 875 bf 6 5 1205 875 bf 6 5 1229 875 bf 6 5 1241 875 bf 6 5 1265 875 bf 6 5 1337
 875 bf 0 0.733333 1 c 6 5 1499 875 bf 0 0.0800001 1 c 6 5 1505 875 bf 0 0.733333 1 c 6 5 1517 875 bf 0 0.0800001 1 c 6 5 1541 875 bf 6 5 1547 875 bf 0 0.733333 1 c 6 5 1571 875 bf 0 0.0800001 1 c 6 5 1589 875 bf 0 1 0.52 c 6 5 1595 875 bf 0
 0.0800001 1 c 6 5 845 880 bf 6 5 1079 880 bf 6 5 1091 880 bf 6 5 1097 880 bf 0.133333 1 0 c 6 5 1115 880 bf 0 0.733333 1 c 6 5 1121 880 bf 6 5 1133 880 bf 0 0.0800001 1 c 6 5 1151 880 bf 6 5 1157 880 bf 6 5 1163 880 bf 6 5 1187 880 bf 6 5 1211 880
 bf 6 5 1247 880 bf 6 5 1259 880 bf 6 5 1289 880 bf 6 5 1337 880 bf 6 5 1355 880 bf 6 5 1433 880 bf 6 5 1463 880 bf 0 0.733333 1 c 6 5 1505 880 bf 6 5 1523 880 bf 6 5 1529 880 bf 0 0.0800001 1 c 6 5 1535 880 bf 6 5 1541 880 bf 6 5 1547 880 bf 0 1
 0.52 c 6 5 1553 880 bf 0 0.0800001 1 c 6 5 1559 880 bf 0 1 0.52 c 6 5 1565 880 bf 0 0.0800001 1 c 6 5 1577 880 bf 6 5 1691 880 bf 6 5 1031 885 bf 6 5 1049 885 bf 6 5 1073 885 bf 0 0.733333 1 c 6 5 1085 885 bf 6 5 1091 885 bf 6 5 1103 885 bf 0 1 0.52
 c 6 5 1109 885 bf 6 5 1121 885 bf 0 0.0800001 1 c 6 5 1145 885 bf 6 5 1181 885 bf 6 5 1193 885 bf 6 5 1253 885 bf 6 5 1289 885 bf 6 5 1457 885 bf 6 5 1511 885 bf 6 5 1541 885 bf 6 5 1559 885 bf 6 5 1571 885 bf 6 5 1607 885 bf 6 5 1860 885 bf 6 6
 1055 890 bf 0 0.733333 1 c 6 6 1085 890 bf 0 0.0800001 1 c 6 6 1091 890 bf 6 6 1097 890 bf 6 6 1103 890 bf 0 1 0.52 c 6 6 1109 890 bf 6 6 1115 890 bf 0 0.733333 1 c 6 6 1121 890 bf 6 6 1133 890 bf 0 0.0800001 1 c 6 6 1157 890 bf 0 1 0.52 c 6 6 1163
 890 bf 0 0.0800001 1 c 6 6 1175 890 bf 6 6 1211 890 bf 6 6 1223 890 bf 6 6 1247 890 bf 6 6 1331 890 bf 6 6 1373 890 bf 6 6 1391 890 bf 6 6 1415 890 bf 6 6 1427 890 bf 6 6 1475 890 bf 0 0.733333 1 c 6 6 1529 890 bf 0 0.0800001 1 c 6 6 1535 890 bf 6 6
 1541 890 bf 0.88 1 0 c 6 6 1547 890 bf 0 0.733333 1 c 6 6 1553 890 bf 0 0.0800001 1 c 6 6 1559 890 bf 6 6 1565 890 bf 6 5 1091 896 bf 6 5 1103 896 bf 0 0.733333 1 c 6 5 1115 896 bf 0 0.0800001 1 c 6 5 1127 896 bf 6 5 1133 896 bf 6 5 1145 896 bf 6 5
 1157 896 bf 6 5 1199 896 bf 0 0.733333 1 c 6 5 1349 896 bf 0 0.0800001 1 c 6 5 1421 896 bf 6 5 1427 896 bf 6 5 1475 896 bf 6 5 1517 896 bf 0 0.733333 1 c 6 5 1523 896 bf 6 5 1535 896 bf 6 5 1541 896 bf 6 5 1547 896 bf 0 0.0800001 1 c 6 5 1553 896 bf
 6 5 1559 896 bf 6 5 1565 896 bf 6 5 1583 896 bf 6 5 1589 896 bf 6 5 1601 896 bf 6 5 1079 901 bf 6 5 1085 901 bf 0 0.733333 1 c 6 5 1091 901 bf 0 1 0.52 c 6 5 1097 901 bf 0 0.0800001 1 c 6 5 1127 901 bf 6 5 1193 901 bf 0 0.733333 1 c 6 5 1211 901 bf
 0 0.0800001 1 c 6 5 1295 901 bf 6 5 1505 901 bf 0 0.733333 1 c 6 5 1523 901 bf 0 1 0.52 c 6 5 1535 901 bf 6 5 1541 901 bf 0 0.0800001 1 c 6 5 1565 901 bf 0 0.733333 1 c 6 5 1571 901 bf 0 0.0800001 1 c 6 5 1577 901 bf 6 5 1607 901 bf 6 5 1067 906 bf
 6 5 1091 906 bf 6 5 1097 906 bf 6 5 1103 906 bf 6 5 1109 906 bf 0 0.733333 1 c 6 5 1115 906 bf 6 5 1121 906 bf 0 1 0.52 c 6 5 1127 906 bf 0 0.0800001 1 c 6 5 1133 906 bf 6 5 1145 906 bf 6 5 1163 906 bf 6 5 1199 906 bf 6 5 1307 906 bf 0 0.733333 1 c
 6 5 1487 906 bf 0 0.0800001 1 c 6 5 1493 906 bf 0 0.733333 1 c 6 5 1499 906 bf 0 0.0800001 1 c 6 5 1523 906 bf 6 5 1535 906 bf 6 5 1547 906 bf 0 1 0.52 c 6 5 1553 906 bf 0.133333 1 0 c 6 5 1559 906 bf 0 0.733333 1 c 6 5 1565 906 bf 6 5 1571 906 bf 0
 0.0800001 1 c 6 5 1589 906 bf 6 6 773 911 bf 6 6 971 911 bf 6 6 1019 911 bf 0 0.733333 1 c 6 6 1091 911 bf 0 0.0800001 1 c 6 6 1097 911 bf 6 6 1103 911 bf 0 0.733333 1 c 6 6 1109 911 bf 6 6 1121 911 bf 0 1 0.52 c 6 6 1127 911 bf 0 0.0800001 1 c 6 6
 1133 911 bf 6 6 1139 911 bf 6 6 1145 911 bf 6 6 1157 911 bf 6 6 1181 911 bf 6 6 1193 911 bf 6 6 1247 911 bf 6 6 1325 911 bf 6 6 1373 911 bf 6 6 1433 911 bf 6 6 1469 911 bf 6 6 1511 911 bf 0 1 0.52 c 6 6 1541 911 bf 0 0.733333 1 c 6 6 1547 911 bf 0 1
 0.52 c 6 6 1553 911 bf 0.133333 1 0 c 6 6 1559 911 bf 0 0.0800001 1 c 6 6 1565 911 bf 0 1 0.52 c 6 6 1571 911 bf 0 0.0800001 1 c 6 6 1577 911 bf 6 6 1625 911 bf 6 5 1043 917 bf 6 5 1073 917 bf 6 5 1085 917 bf 0 0.733333 1 c 6 5 1091 917 bf 0
 0.0800001 1 c 6 5 1103 917 bf 0 0.733333 1 c 6 5 1109 917 bf 0 0.0800001 1 c 6 5 1115 917 bf 0 0.733333 1 c 6 5 1121 917 bf 0 0.0800001 1 c 6 5 1127 917 bf 6 5 1139 917 bf 6 5 1145 917 bf 6 5 1163 917 bf 6 5 1217 917 bf 6 5 1223 917 bf 6 5 1265 917
 bf 6 5 1283 917 bf 6 5 1289 917 bf 6 5 1301 917 bf 6 5 1505 917 bf 6 5 1511 917 bf 6 5 1523 917 bf 0 0.733333 1 c 6 5 1529 917 bf 0 0.0800001 1 c 6 5 1535 917 bf 6 5 1541 917 bf 0 0.733333 1 c 6 5 1553 917 bf 0 0.0800001 1 c 6 5 1559 917 bf 0
 0.733333 1 c 6 5 1565 917 bf 6 5 1571 917 bf 0 0.0800001 1 c 6 5 1577 917 bf 6 5 1583 917 bf 6 5 1673 917 bf 6 5 1037 922 bf 6 5 1073 922 bf 6 5 1085 922 bf 0 0.733333 1 c 6 5 1097 922 bf 0 0.0800001 1 c 6 5 1115 922 bf 6 5 1121 922 bf 6 5 1127 922
 bf 0 0.733333 1 c 6 5 1133 922 bf 6 5 1145 922 bf 0 0.0800001 1 c 6 5 1157 922 bf 6 5 1169 922 bf 6 5 1181 922 bf 6 5 1187 922 bf 6 5 1205 922 bf 6 5 1211 922 bf 6 5 1223 922 bf 6 5 1247 922 bf 6 5 1253 922 bf 6 5 1265 922 bf 6 5 1451 922 bf 6 5
 1475 922 bf 6 5 1505 922 bf 6 5 1523 922 bf 6 5 1535 922 bf 6 5 1541 922 bf 0 0.733333 1 c 6 5 1547 922 bf 0 0.0800001 1 c 6 5 1553 922 bf 0.133333 1 0 c 6 5 1559 922 bf 0 0.0800001 1 c 6 5 1565 922 bf 6 5 1571 922 bf 6 5 1583 922 bf 6 5 1601 922 bf
 6 5 1613 922 bf 6 5 1649 922 bf 0 0.733333 1 c 6 5 1103 927 bf 6 5 1109 927 bf 0 0.0800001 1 c 6 5 1115 927 bf 0 0.733333 1 c 6 5 1121 927 bf 0 1 0.52 c 6 5 1139 927 bf 0 0.0800001 1 c 6 5 1151 927 bf 6 5 1175 927 bf 6 5 1199 927 bf 6 5 1325 927 bf
 6 5 1355 927 bf 6 5 1403 927 bf 6 5 1421 927 bf 6 5 1487 927 bf 6 5 1499 927 bf 6 5 1523 927 bf 0 0.733333 1 c 6 5 1535 927 bf 0 0.0800001 1 c 6 5 1541 927 bf 0 1 0.52 c 6 5 1547 927 bf 0 0.733333 1 c 6 5 1553 927 bf 0.133333 1 0 c 6 5 1559 927 bf 0
 0.0800001 1 c 6 5 1565 927 bf 0 0.733333 1 c 6 5 1577 927 bf 0 0.0800001 1 c 6 5 1589 927 bf 0 0.733333 1 c 6 5 1595 927 bf 0 0.0800001 1 c 6 5 1601 927 bf 6 5 1667 927 bf 6 6 1079 932 bf 6 6 1103 932 bf 6 6 1109 932 bf 6 6 1115 932 bf 0 0.733333 1
 c 6 6 1121 932 bf 0 1 0.52 c 6 6 1127 932 bf 0 0.0800001 1 c 6 6 1175 932 bf 6 6 1193 932 bf 6 6 1205 932 bf 6 6 1235 932 bf 6 6 1445 932 bf 0 0.733333 1 c 6 6 1487 932 bf 0 0.0800001 1 c 6 6 1499 932 bf 6 6 1511 932 bf 6 6 1517 932 bf 6 6 1535 932
 bf 0 0.733333 1 c 6 6 1541 932 bf 6 6 1547 932 bf 0.133333 1 0 c 6 6 1553 932 bf 0 0.0800001 1 c 6 6 1559 932 bf 6 6 1565 932 bf 6 6 1577 932 bf 6 6 1583 932 bf 6 6 1589 932 bf 6 6 1595 932 bf 6 6 1601 932 bf 6 5 1013 938 bf 6 5 1061 938 bf 6 5 1079
 938 bf 6 5 1091 938 bf 6 5 1097 938 bf 0 0.733333 1 c 6 5 1103 938 bf 6 5 1121 938 bf 6 5 1127 938 bf 6 5 1133 938 bf 0 1 0.52 c 6 5 1139 938 bf 0 0.0800001 1 c 6 5 1145 938 bf 6 5 1157 938 bf 0 0.733333 1 c 6 5 1163 938 bf 0 0.0800001 1 c 6 5 1169
 938 bf 6 5 1181 938 bf 6 5 1193 938 bf 6 5 1205 938 bf 6 5 1253 938 bf 6 5 1391 938 bf 6 5 1487 938 bf 0 1 0.52 c 6 5 1511 938 bf 0 0.0800001 1 c 6 5 1523 938 bf 0 0.733333 1 c 6 5 1529 938 bf 0 0.0800001 1 c 6 5 1535 938 bf 6 5 1541 938 bf 0.133333
 1 0 c 6 5 1547 938 bf 0 0.0800001 1 c 6 5 1553 938 bf 6 5 1559 938 bf 0 1 0.52 c 6 5 1565 938 bf 0 0.0800001 1 c 6 5 1571 938 bf 6 5 1577 938 bf 6 5 1583 938 bf 6 5 1589 938 bf 6 5 1613 938 bf 6 5 1001 943 bf 6 5 1013 943 bf 0 0.733333 1 c 6 5 1091
 943 bf 0 0.0800001 1 c 6 5 1097 943 bf 0 1 0.52 c 6 5 1115 943 bf 0 0.0800001 1 c 6 5 1121 943 bf 6 5 1133 943 bf 6 5 1139 943 bf 0 0.733333 1 c 6 5 1145 943 bf 0 0.0800001 1 c 6 5 1151 943 bf 6 5 1193 943 bf 6 5 1265 943 bf 6 5 1295 943 bf 6 5 1319
 943 bf 6 5 1361 943 bf 6 5 1457 943 bf 6 5 1517 943 bf 6 5 1523 943 bf 0 0.733333 1 c 6 5 1529 943 bf 0 0.0800001 1 c 6 5 1535 943 bf 0 0.733333 1 c 6 5 1541 943 bf 0 1 0.52 c 6 5 1547 943 bf 0 0.733333 1 c 6 5 1553 943 bf 0 1 0.52 c 6 5 1559 943 bf
 6 5 1565 943 bf 0 0.733333 1 c 6 5 1571 943 bf 0 0.0800001 1 c 6 5 1577 943 bf 6 5 1589 943 bf 0 0.733333 1 c 6 5 1595 943 bf 0 0.0800001 1 c 6 5 1607 943 bf 6 5 1691 943 bf 6 6 575 948 bf 0 0.733333 1 c 6 6 1103 948 bf 0 1 0.52 c 6 6 1109 948 bf 0
 0.0800001 1 c 6 6 1139 948 bf 6 6 1151 948 bf 0 0.733333 1 c 6 6 1163 948 bf 0 0.0800001 1 c 6 6 1187 948 bf 6 6 1205 948 bf 6 6 1217 948 bf 6 6 1223 948 bf 6 6 1331 948 bf 6 6 1427 948 bf 6 6 1439 948 bf 6 6 1445 948 bf 6 6 1475 948 bf 6 6 1511 948
 bf 0 0.733333 1 c 6 6 1523 948 bf 0.133333 1 0 c 6 6 1541 948 bf 0 0.0800001 1 c 6 6 1547 948 bf 6 6 1553 948 bf 0 1 0.52 c 6 6 1559 948 bf 0 0.0800001 1 c 6 6 1583 948 bf 6 6 1595 948 bf 0 1 0.52 c 6 6 1613 948 bf 0 0.0800001 1 c 6 6 1625 948 bf 6
 6 1643 948 bf 6 5 1031 954 bf 6 5 1037 954 bf 6 5 1085 954 bf 6 5 1091 954 bf 6 5 1103 954 bf 0 0.733333 1 c 6 5 1109 954 bf 0.133333 1 0 c 6 5 1115 954 bf 0 0.0800001 1 c 6 5 1121 954 bf 6 5 1127 954 bf 0 0.733333 1 c 6 5 1133 954 bf 0 0.0800001 1
 c 6 5 1139 954 bf 6 5 1151 954 bf 6 5 1169 954 bf 6 5 1211 954 bf 6 5 1217 954 bf 6 5 1235 954 bf 6 5 1253 954 bf 6 5 1319 954 bf 6 5 1337 954 bf 6 5 1391 954 bf 6 5 1439 954 bf 0 0.733333 1 c 6 5 1469 954 bf 0 0.0800001 1 c 6 5 1499 954 bf 6 5 1523
 954 bf 6 5 1529 954 bf 6 5 1541 954 bf 0.88 1 0 c 6 5 1547 954 bf 0 1 0.52 c 6 5 1553 954 bf 0 0.733333 1 c 6 5 1559 954 bf 6 5 1565 954 bf 0 0.0800001 1 c 6 5 1601 954 bf 0 0.733333 1 c 6 5 1613 954 bf 0 0.0800001 1 c 6 5 1619 954 bf 6 5 1631 954
 bf 6 5 1007 959 bf 6 5 1061 959 bf 6 5 1085 959 bf 0 0.733333 1 c 6 5 1103 959 bf 0 1 0.52 c 6 5 1121 959 bf 0 0.0800001 1 c 6 5 1133 959 bf 0 0.733333 1 c 6 5 1181 959 bf 0 0.0800001 1 c 6 5 1247 959 bf 6 5 1271 959 bf 6 5 1307 959 bf 0 0.733333 1
 c 6 5 1379 959 bf 0 0.0800001 1 c 6 5 1403 959 bf 6 5 1409 959 bf 6 5 1439 959 bf 6 5 1451 959 bf 6 5 1475 959 bf 6 5 1481 959 bf 6 5 1487 959 bf 6 5 1523 959 bf 0 0.733333 1 c 6 5 1535 959 bf 6 5 1547 959 bf 0 1 0.52 c 6 5 1553 959 bf 0.133333 1 0
 c 6 5 1559 959 bf 0 0.0800001 1 c 6 5 1571 959 bf 6 5 1577 959 bf 0 0.733333 1 c 6 5 1583 959 bf 6 5 1595 959 bf 0 0.0800001 1 c 6 5 1607 959 bf 6 5 1613 959 bf 6 5 1625 959 bf 6 5 1091 964 bf 0 1 0.52 c 6 5 1103 964 bf 0 0.733333 1 c 6 5 1109 964
 bf 6 5 1115 964 bf 0 0.0800001 1 c 6 5 1121 964 bf 0 0.733333 1 c 6 5 1127 964 bf 0.133333 1 0 c 6 5 1139 964 bf 0 1 0.52 c 6 5 1145 964 bf 0 0.0800001 1 c 6 5 1151 964 bf 0 1 0.52 c 6 5 1163 964 bf 0 0.0800001 1 c 6 5 1175 964 bf 6 5 1187 964 bf 6
 5 1199 964 bf 6 5 1265 964 bf 6 5 1313 964 bf 6 5 1331 964 bf 6 5 1409 964 bf 6 5 1451 964 bf 6 5 1517 964 bf 6 5 1529 964 bf 0 0.733333 1 c 6 5 1535 964 bf 0.133333 1 0 c 6 5 1541 964 bf 0 0.0800001 1 c 6 5 1547 964 bf 0 0.733333 1 c 6 5 1553 964
 bf 0 0.0800001 1 c 6 5 1559 964 bf 6 5 1565 964 bf 0 1 0.52 c 6 5 1571 964 bf 0 0.0800001 1 c 6 5 1577 964 bf 0 0.733333 1 c 6 5 1583 964 bf 0 0.0800001 1 c 6 5 1589 964 bf 6 5 1601 964 bf 6 5 1619 964 bf 6 5 1733 964 bf 6 6 1037 969 bf 6 6 1055 969
 bf 6 6 1079 969 bf 6 6 1085 969 bf 6 6 1091 969 bf 6 6 1109 969 bf 0 1 0.52 c 6 6 1121 969 bf 0 0.733333 1 c 6 6 1127 969 bf 6 6 1133 969 bf 0 0.0800001 1 c 6 6 1145 969 bf 6 6 1151 969 bf 6 6 1211 969 bf 6 6 1313 969 bf 6 6 1367 969 bf 6 6 1373 969
 bf 6 6 1475 969 bf 6 6 1499 969 bf 6 6 1505 969 bf 6 6 1511 969 bf 0 0.733333 1 c 6 6 1535 969 bf 6 6 1541 969 bf 0.133333 1 0 c 6 6 1547 969 bf 0 0.0800001 1 c 6 6 1559 969 bf 6 6 1565 969 bf 6 6 1571 969 bf 6 6 1577 969 bf 6 6 1583 969 bf 0 1 0.52
 c 6 6 1589 969 bf 0 0.0800001 1 c 6 6 1637 969 bf 6 6 1649 969 bf 6 5 959 975 bf 6 5 1049 975 bf 6 5 1079 975 bf 6 5 1085 975 bf 6 5 1091 975 bf 0 1 0.52 c 6 5 1097 975 bf 0 0.0800001 1 c 6 5 1103 975 bf 0 0.733333 1 c 6 5 1109 975 bf 0 1 0.52 c 6 5
 1115 975 bf 0 0.0800001 1 c 6 5 1121 975 bf 0 0.733333 1 c 6 5 1127 975 bf 6 5 1139 975 bf 0 0.0800001 1 c 6 5 1151 975 bf 0 0.733333 1 c 6 5 1169 975 bf 0 0.0800001 1 c 6 5 1181 975 bf 6 5 1223 975 bf 6 5 1241 975 bf 6 5 1247 975 bf 6 5 1271 975 bf
 6 5 1277 975 bf 6 5 1385 975 bf 6 5 1409 975 bf 6 5 1445 975 bf 6 5 1469 975 bf 6 5 1481 975 bf 6 5 1487 975 bf 6 5 1517 975 bf 0 1 0.52 c 6 5 1535 975 bf 0 0.0800001 1 c 6 5 1541 975 bf 0.88 1 0 c 6 5 1547 975 bf 1 0.466667 0 c 6 5 1553 975 bf
 0.133333 1 0 c 6 5 1559 975 bf 0 0.0800001 1 c 6 5 1565 975 bf 6 5 1577 975 bf 6 5 1631 975 bf 6 5 1691 975 bf 6 5 1920 975 bf 6 5 1007 980 bf 6 5 1073 980 bf 6 5 1079 980 bf 6 5 1085 980 bf 6 5 1091 980 bf 0 0.733333 1 c 6 5 1097 980 bf 0 1 0.52 c
 6 5 1103 980 bf 0 0.0800001 1 c 6 5 1109 980 bf 0 1 0.52 c 6 5 1115 980 bf 0 0.733333 1 c 6 5 1121 980 bf 6 5 1127 980 bf 0 0.0800001 1 c 6 5 1133 980 bf 6 5 1139 980 bf 0 1 0.52 c 6 5 1145 980 bf 0 0.733333 1 c 6 5 1157 980 bf 0 1 0.52 c 6 5 1163
 980 bf 0 0.0800001 1 c 6 5 1175 980 bf 6 5 1211 980 bf 6 5 1217 980 bf 6 5 1229 980 bf 6 5 1241 980 bf 6 5 1295 980 bf 6 5 1379 980 bf 0 0.733333 1 c 6 5 1385 980 bf 0 0.0800001 1 c 6 5 1439 980 bf 6 5 1445 980 bf 6 5 1457 980 bf 0 0.733333 1 c 6 5
 1505 980 bf 6 5 1517 980 bf 6 5 1529 980 bf 0 1 0.52 c 6 5 1535 980 bf 0 0.733333 1 c 6 5 1547 980 bf 0 1 0.52 c 6 5 1553 980 bf 0 0.733333 1 c 6 5 1559 980 bf 6 5 1565 980 bf 6 5 1571 980 bf 6 5 1583 980 bf 0 0.0800001 1 c 6 5 1607 980 bf 6 5 1043
 985 bf 6 5 1055 985 bf 6 5 1067 985 bf 6 5 1079 985 bf 6 5 1097 985 bf 0.133333 1 0 c 6 5 1103 985 bf 0 0.0800001 1 c 6 5 1109 985 bf 0.133333 1 0 c 6 5 1115 985 bf 0 0.733333 1 c 6 5 1121 985 bf 0 0.0800001 1 c 6 5 1127 985 bf 0 0.733333 1 c 6 5
 1139 985 bf 6 5 1145 985 bf 0 0.0800001 1 c 6 5 1151 985 bf 6 5 1169 985 bf 6 5 1199 985 bf 6 5 1259 985 bf 6 5 1439 985 bf 6 5 1517 985 bf 0 1 0.52 c 6 5 1529 985 bf 0 0.733333 1 c 6 5 1547 985 bf 6 5 1553 985 bf 0 1 0.52 c 6 5 1565 985 bf 0
 0.0800001 1 c 6 5 1577 985 bf 6 5 1583 985 bf 6 5 1601 985 bf 6 5 1613 985 bf 6 5 1661 985 bf 6 6 965 990 bf 6 6 1097 990 bf 0 0.733333 1 c 6 6 1109 990 bf 0 0.0800001 1 c 6 6 1121 990 bf 6 6 1127 990 bf 6 6 1133 990 bf 6 6 1145 990 bf 6 6 1169 990
 bf 6 6 1175 990 bf 6 6 1181 990 bf 6 6 1253 990 bf 6 6 1283 990 bf 6 6 1313 990 bf 6 6 1343 990 bf 6 6 1367 990 bf 6 6 1385 990 bf 6 6 1463 990 bf 6 6 1469 990 bf 6 6 1487 990 bf 0 0.733333 1 c 6 6 1523 990 bf 0 0.0800001 1 c 6 6 1529 990 bf 0
 0.733333 1 c 6 6 1535 990 bf 0.88 1 0 c 6 6 1541 990 bf 0 0.0800001 1 c 6 6 1547 990 bf 0 1 0.52 c 6 6 1553 990 bf 6 6 1559 990 bf 0 0.733333 1 c 6 6 1565 990 bf 0 0.0800001 1 c 6 6 1583 990 bf 6 6 1589 990 bf 6 6 1601 990 bf 6 6 1613 990 bf 6 6
 1637 990 bf 6 6 1715 990 bf 6 5 929 996 bf 6 5 971 996 bf 6 5 1031 996 bf 0 0.733333 1 c 6 5 1079 996 bf 0 0.0800001 1 c 6 5 1085 996 bf 0 0.733333 1 c 6 5 1091 996 bf 6 5 1103 996 bf 0 0.0800001 1 c 6 5 1115 996 bf 0 0.733333 1 c 6 5 1121 996 bf 0
 1 0.52 c 6 5 1127 996 bf 6 5 1139 996 bf 0 0.0800001 1 c 6 5 1145 996 bf 0 0.733333 1 c 6 5 1163 996 bf 6 5 1175 996 bf 0 0.0800001 1 c 6 5 1181 996 bf 0 0.733333 1 c 6 5 1193 996 bf 0 0.0800001 1 c 6 5 1241 996 bf 6 5 1247 996 bf 6 5 1307 996 bf 6
 5 1337 996 bf 6 5 1355 996 bf 6 5 1391 996 bf 6 5 1451 996 bf 6 5 1457 996 bf 6 5 1505 996 bf 0 0.733333 1 c 6 5 1511 996 bf 0 0.0800001 1 c 6 5 1517 996 bf 0 0.733333 1 c 6 5 1523 996 bf 0 0.0800001 1 c 6 5 1529 996 bf 0 0.733333 1 c 6 5 1535 996
 bf 0 0.0800001 1 c 6 5 1541 996 bf 0 0.733333 1 c 6 5 1553 996 bf 0 1 0.52 c 6 5 1559 996 bf 0 0.733333 1 c 6 5 1565 996 bf 6 5 1571 996 bf 0 0.0800001 1 c 6 5 1577 996 bf 6 5 1583 996 bf 6 5 1589 996 bf 6 5 1595 996 bf 6 5 1619 996 bf 6 5 1643 996
 bf 0 0.733333 1 c 6 5 1697 996 bf 0 0.0800001 1 c 6 5 1758 996 bf 6 5 1860 996 bf 6 5 809 1001 bf 6 5 1079 1001 bf 0 0.733333 1 c 6 5 1085 1001 bf 0 0.0800001 1 c 6 5 1103 1001 bf 0 0.733333 1 c 6 5 1109 1001 bf 0 0.0800001 1 c 6 5 1121 1001 bf 1
 0.466667 0 c 6 5 1127 1001 bf 0 0.733333 1 c 6 5 1133 1001 bf 6 5 1145 1001 bf 0 0.0800001 1 c 6 5 1163 1001 bf 6 5 1235 1001 bf 6 5 1277 1001 bf 6 5 1295 1001 bf 6 5 1355 1001 bf 6 5 1475 1001 bf 6 5 1481 1001 bf 0 0.733333 1 c 6 5 1493 1001 bf 0
 0.0800001 1 c 6 5 1517 1001 bf 0 0.733333 1 c 6 5 1523 1001 bf 0 0.0800001 1 c 6 5 1529 1001 bf 0.88 1 0 c 6 5 1541 1001 bf 0 0.733333 1 c 6 5 1547 1001 bf 6 5 1553 1001 bf 0.88 1 0 c 6 5 1559 1001 bf 0 0.733333 1 c 6 5 1565 1001 bf 0 0.0800001 1 c
 6 5 1571 1001 bf 0 1 0.52 c 6 5 1577 1001 bf 0 0.733333 1 c 6 5 1595 1001 bf 0 0.0800001 1 c 6 5 1607 1001 bf 6 5 1619 1001 bf 0 1 0.52 c 6 5 1097 1006 bf 0 0.0800001 1 c 6 5 1109 1006 bf 0 1 0.52 c 6 5 1115 1006 bf 1 0.466667 0 c 6 5 1121 1006 bf 0
 1 0.52 c 6 5 1127 1006 bf 0 0.733333 1 c 6 5 1133 1006 bf 6 5 1145 1006 bf 0 0.0800001 1 c 6 5 1157 1006 bf 6 5 1199 1006 bf 6 5 1229 1006 bf 6 5 1241 1006 bf 6 5 1253 1006 bf 6 5 1295 1006 bf 6 5 1331 1006 bf 6 5 1349 1006 bf 6 5 1457 1006 bf 0
 0.733333 1 c 6 5 1463 1006 bf 0 0.0800001 1 c 6 5 1493 1006 bf 6 5 1505 1006 bf 0 1 0.52 c 6 5 1523 1006 bf 0 0.0800001 1 c 6 5 1529 1006 bf 0 0.733333 1 c 6 5 1535 1006 bf 6 5 1541 1006 bf 6 5 1547 1006 bf 6 5 1553 1006 bf 0 0.0800001 1 c 6 5 1559
 1006 bf 0 1 0.52 c 6 5 1565 1006 bf 0.88 1 0 c 6 5 1571 1006 bf 0 0.0800001 1 c 6 5 1577 1006 bf 0 0.733333 1 c 6 5 1589 1006 bf 0 1 0.52 c 6 5 1595 1006 bf 0 0.0800001 1 c 6 5 1607 1006 bf 6 5 1661 1006 bf 6 6 983 1011 bf 6 6 1085 1011 bf 6 6 1091
 1011 bf 0.133333 1 0 c 6 6 1109 1011 bf 0 1 0.52 c 6 6 1121 1011 bf 6 6 1127 1011 bf 0 0.0800001 1 c 6 6 1139 1011 bf 6 6 1151 1011 bf 6 6 1169 1011 bf 6 6 1175 1011 bf 6 6 1193 1011 bf 6 6 1205 1011 bf 6 6 1403 1011 bf 6 6 1457 1011 bf 6 6 1499
 1011 bf 0 0.733333 1 c 6 6 1523 1011 bf 6 6 1541 1011 bf 0 1 0.52 c 6 6 1553 1011 bf 0 0.0800001 1 c 6 6 1559 1011 bf 6 6 1571 1011 bf 6 6 1577 1011 bf 6 6 1589 1011 bf 6 6 1625 1011 bf 6 5 641 1017 bf 6 5 1001 1017 bf 6 5 1067 1017 bf 6 5 1073 1017
 bf 0 0.733333 1 c 6 5 1079 1017 bf 0 0.0800001 1 c 6 5 1103 1017 bf 0 0.733333 1 c 6 5 1109 1017 bf 0 1 0.52 c 6 5 1115 1017 bf 6 5 1121 1017 bf 0 0.733333 1 c 6 5 1127 1017 bf 6 5 1139 1017 bf 0 1 0.52 c 6 5 1145 1017 bf 0 0.0800001 1 c 6 5 1151
 1017 bf 6 5 1163 1017 bf 6 5 1169 1017 bf 6 5 1181 1017 bf 6 5 1247 1017 bf 6 5 1277 1017 bf 6 5 1373 1017 bf 6 5 1397 1017 bf 6 5 1415 1017 bf 6 5 1427 1017 bf 6 5 1463 1017 bf 0 0.733333 1 c 6 5 1475 1017 bf 6 5 1481 1017 bf 0 1 0.52 c 6 5 1499
 1017 bf 0 0.0800001 1 c 6 5 1517 1017 bf 6 5 1535 1017 bf 0.88 1 0 c 6 5 1541 1017 bf 0 0.733333 1 c 6 5 1547 1017 bf 0.133333 1 0 c 6 5 1553 1017 bf 0 0.733333 1 c 6 5 1559 1017 bf 6 5 1565 1017 bf 0 0.0800001 1 c 6 5 1577 1017 bf 6 5 1583 1017 bf
 6 5 1091 1022 bf 0 0.733333 1 c 6 5 1097 1022 bf 0 0.0800001 1 c 6 5 1103 1022 bf 6 5 1109 1022 bf 0.133333 1 0 c 6 5 1115 1022 bf 0 0.0800001 1 c 6 5 1121 1022 bf 0.133333 1 0 c 6 5 1127 1022 bf 0 0.733333 1 c 6 5 1133 1022 bf 6 5 1139 1022 bf 0
 0.0800001 1 c 6 5 1151 1022 bf 0 0.733333 1 c 6 5 1157 1022 bf 6 5 1163 1022 bf 0 0.0800001 1 c 6 5 1169 1022 bf 0 0.733333 1 c 6 5 1175 1022 bf 0 0.0800001 1 c 6 5 1181 1022 bf 6 5 1187 1022 bf 0 0.733333 1 c 6 5 1193 1022 bf 0 0.0800001 1 c 6 5
 1211 1022 bf 6 5 1271 1022 bf 6 5 1295 1022 bf 0 0.733333 1 c 6 5 1361 1022 bf 0 0.0800001 1 c 6 5 1367 1022 bf 6 5 1421 1022 bf 6 5 1433 1022 bf 6 5 1451 1022 bf 6 5 1481 1022 bf 6 5 1487 1022 bf 6 5 1499 1022 bf 6 5 1511 1022 bf 6 5 1523 1022 bf 6
 5 1529 1022 bf 0 1 0.52 c 6 5 1535 1022 bf 0 0.0800001 1 c 6 5 1547 1022 bf 1 0 0 c 6 5 1553 1022 bf 0 1 0.52 c 6 5 1559 1022 bf 0 0.733333 1 c 6 5 1565 1022 bf 6 5 1577 1022 bf 0 0.0800001 1 c 6 5 1583 1022 bf 6 5 1625 1022 bf 0 0.733333 1 c 6 5
 1649 1022 bf 0 0.0800001 1 c 6 5 1673 1022 bf 6 5 1703 1022 bf 6 5 1782 1022 bf 6 5 1085 1027 bf 6 5 1097 1027 bf 6 5 1109 1027 bf 0.133333 1 0 c 6 5 1115 1027 bf 0 0.733333 1 c 6 5 1121 1027 bf 0 0.0800001 1 c 6 5 1127 1027 bf 6 5 1133 1027 bf 6 5
 1139 1027 bf 6 5 1145 1027 bf 6 5 1157 1027 bf 6 5 1163 1027 bf 6 5 1169 1027 bf 6 5 1187 1027 bf 6 5 1205 1027 bf 6 5 1271 1027 bf 6 5 1313 1027 bf 6 5 1373 1027 bf 6 5 1457 1027 bf 6 5 1469 1027 bf 6 5 1505 1027 bf 6 5 1517 1027 bf 0 1 0.52 c 6 5
 1529 1027 bf 0 0.733333 1 c 6 5 1535 1027 bf 6 5 1541 1027 bf 0 0.0800001 1 c 6 5 1547 1027 bf 0 0.733333 1 c 6 5 1553 1027 bf 6 5 1559 1027 bf 6 5 1565 1027 bf 0 0.0800001 1 c 6 5 1571 1027 bf 0 1 0.52 c 6 5 1577 1027 bf 0 0.0800001 1 c 6 5 1589
 1027 bf 6 5 1679 1027 bf 6 5 1703 1027 bf 6 6 989 1032 bf 6 6 1019 1032 bf 6 6 1073 1032 bf 6 6 1085 1032 bf 6 6 1091 1032 bf 0 0.733333 1 c 6 6 1097 1032 bf 0 0.0800001 1 c 6 6 1103 1032 bf 6 6 1109 1032 bf 6 6 1115 1032 bf 0.88 1 0 c 6 6 1121 1032
 bf 0 0.0800001 1 c 6 6 1127 1032 bf 0 1 0.52 c 6 6 1139 1032 bf 0 0.0800001 1 c 6 6 1151 1032 bf 6 6 1205 1032 bf 6 6 1211 1032 bf 0 0.733333 1 c 6 6 1247 1032 bf 0 0.0800001 1 c 6 6 1295 1032 bf 6 6 1307 1032 bf 6 6 1379 1032 bf 6 6 1403 1032 bf 6
 6 1463 1032 bf 6 6 1505 1032 bf 6 6 1511 1032 bf 6 6 1517 1032 bf 0 0.733333 1 c 6 6 1529 1032 bf 0 1 0.52 c 6 6 1535 1032 bf 0 0.0800001 1 c 6 6 1553 1032 bf 0.88 1 0 c 6 6 1559 1032 bf 0 1 0.52 c 6 6 1565 1032 bf 0 0.0800001 1 c 6 6 1571 1032 bf 6
 6 1595 1032 bf 6 6 1619 1032 bf 6 5 1031 1038 bf 6 5 1043 1038 bf 6 5 1079 1038 bf 6 5 1085 1038 bf 6 5 1097 1038 bf 6 5 1103 1038 bf 6 5 1109 1038 bf 0.88 1 0 c 6 5 1115 1038 bf 0 1 0.52 c 6 5 1121 1038 bf 0 0.733333 1 c 6 5 1127 1038 bf 0 1 0.52 c
 6 5 1133 1038 bf 0 0.733333 1 c 6 5 1139 1038 bf 0 0.0800001 1 c 6 5 1145 1038 bf 6 5 1151 1038 bf 6 5 1193 1038 bf 6 5 1211 1038 bf 6 5 1229 1038 bf 6 5 1235 1038 bf 6 5 1295 1038 bf 0 0.733333 1 c 6 5 1343 1038 bf 0 0.0800001 1 c 6 5 1409 1038 bf
 6 5 1439 1038 bf 6 5 1463 1038 bf 6 5 1505 1038 bf 6 5 1523 1038 bf 0.133333 1 0 c 6 5 1529 1038 bf 0 0.0800001 1 c 6 5 1535 1038 bf 6 5 1547 1038 bf 0 1 0.52 c 6 5 1553 1038 bf 0 0.733333 1 c 6 5 1559 1038 bf 6 5 1565 1038 bf 0 0.0800001 1 c 6 5
 1571 1038 bf 0 1 0.52 c 6 5 1577 1038 bf 0 0.0800001 1 c 6 5 1583 1038 bf 6 5 1613 1038 bf 6 5 1619 1038 bf 6 5 1067 1043 bf 6 5 1091 1043 bf 0 0.733333 1 c 6 5 1103 1043 bf 0.133333 1 0 c 6 5 1115 1043 bf 0 0.0800001 1 c 6 5 1121 1043 bf 0 0.733333
 1 c 6 5 1133 1043 bf 0 0.0800001 1 c 6 5 1151 1043 bf 0 0.733333 1 c 6 5 1157 1043 bf 6 5 1169 1043 bf 0 0.0800001 1 c 6 5 1193 1043 bf 6 5 1199 1043 bf 6 5 1205 1043 bf 6 5 1445 1043 bf 6 5 1487 1043 bf 6 5 1505 1043 bf 6 5 1511 1043 bf 6 5 1523
 1043 bf 0 1 0.52 c 6 5 1541 1043 bf 0 0.733333 1 c 6 5 1547 1043 bf 0 0.0800001 1 c 6 5 1553 1043 bf 1 0.466667 0 c 6 5 1565 1043 bf 0 0.0800001 1 c 6 5 1571 1043 bf 0 0.733333 1 c 6 5 1577 1043 bf 0 0.0800001 1 c 6 5 1589 1043 bf 6 5 1601 1043 bf 6
 6 1019 1048 bf 6 6 1049 1048 bf 0 0.733333 1 c 6 6 1073 1048 bf 0 0.0800001 1 c 6 6 1079 1048 bf 6 6 1091 1048 bf 0 0.733333 1 c 6 6 1097 1048 bf 0 0.0800001 1 c 6 6 1103 1048 bf 0 0.733333 1 c 6 6 1115 1048 bf 0 1 0.52 c 6 6 1121 1048 bf 6 6 1127
 1048 bf 0 0.733333 1 c 6 6 1133 1048 bf 0.133333 1 0 c 6 6 1139 1048 bf 0 0.0800001 1 c 6 6 1145 1048 bf 6 6 1151 1048 bf 6 6 1163 1048 bf 6 6 1205 1048 bf 6 6 1217 1048 bf 6 6 1229 1048 bf 6 6 1343 1048 bf 6 6 1367 1048 bf 6 6 1391 1048 bf 6 6 1409
 1048 bf 6 6 1475 1048 bf 6 6 1511 1048 bf 6 6 1523 1048 bf 0 0.733333 1 c 6 6 1529 1048 bf 6 6 1535 1048 bf 0 0.0800001 1 c 6 6 1541 1048 bf 0.133333 1 0 c 6 6 1547 1048 bf 0 1 0.52 c 6 6 1553 1048 bf 0 0.733333 1 c 6 6 1571 1048 bf 0 0.0800001 1 c
 6 6 1577 1048 bf 6 6 1607 1048 bf 6 6 1613 1048 bf 6 6 1631 1048 bf 6 6 1643 1048 bf 0 0.733333 1 c 6 6 1649 1048 bf 0 0.0800001 1 c 6 6 1727 1048 bf 6 5 1025 1054 bf 6 5 1091 1054 bf 6 5 1103 1054 bf 6 5 1109 1054 bf 0.88 1 0 c 6 5 1115 1054 bf 0
 0.733333 1 c 6 5 1121 1054 bf 0 1 0.52 c 6 5 1127 1054 bf 6 5 1139 1054 bf 0 0.0800001 1 c 6 5 1145 1054 bf 6 5 1157 1054 bf 6 5 1163 1054 bf 6 5 1175 1054 bf 0 0.733333 1 c 6 5 1211 1054 bf 0 0.0800001 1 c 6 5 1217 1054 bf 6 5 1223 1054 bf 6 5 1265
 1054 bf 6 5 1319 1054 bf 6 5 1343 1054 bf 6 5 1397 1054 bf 6 5 1445 1054 bf 6 5 1487 1054 bf 0 0.733333 1 c 6 5 1505 1054 bf 0 1 0.52 c 6 5 1517 1054 bf 0 0.0800001 1 c 6 5 1523 1054 bf 0 0.733333 1 c 6 5 1529 1054 bf 6 5 1535 1054 bf 0.133333 1 0 c
 6 5 1541 1054 bf 6 5 1547 1054 bf 0 0.733333 1 c 6 5 1553 1054 bf 0.88 1 0 c 6 5 1559 1054 bf 0 0.733333 1 c 6 5 1565 1054 bf 6 5 1571 1054 bf 6 5 1583 1054 bf 0 0.0800001 1 c 6 5 1589 1054 bf 0 0.733333 1 c 6 5 1613 1054 bf 0 0.0800001 1 c 6 5 1085
 1059 bf 0 0.733333 1 c 6 5 1103 1059 bf 6 5 1115 1059 bf 6 5 1121 1059 bf 0.88 1 0 c 6 5 1127 1059 bf 0 0.733333 1 c 6 5 1133 1059 bf 0 0.0800001 1 c 6 5 1139 1059 bf 6 5 1145 1059 bf 0 0.733333 1 c 6 5 1157 1059 bf 0 0.0800001 1 c 6 5 1163 1059 bf
 6 5 1169 1059 bf 6 5 1205 1059 bf 6 5 1307 1059 bf 6 5 1391 1059 bf 6 5 1433 1059 bf 6 5 1481 1059 bf 6 5 1499 1059 bf 0 0.733333 1 c 6 5 1517 1059 bf 6 5 1529 1059 bf 0 1 0.52 c 6 5 1535 1059 bf 0 0.733333 1 c 6 5 1541 1059 bf 6 5 1547 1059 bf
 0.133333 1 0 c 6 5 1553 1059 bf 1 0.466667 0 c 6 5 1559 1059 bf 0 0.733333 1 c 6 5 1565 1059 bf 0 1 0.52 c 6 5 1577 1059 bf 0 0.0800001 1 c 6 5 1583 1059 bf 6 5 1589 1059 bf 0 0.733333 1 c 6 5 1595 1059 bf 0 0.0800001 1 c 6 5 1625 1059 bf 6 5 1649
 1059 bf 6 5 1685 1059 bf 6 5 1067 1064 bf 0 0.733333 1 c 6 5 1073 1064 bf 0 0.0800001 1 c 6 5 1079 1064 bf 6 5 1085 1064 bf 6 5 1091 1064 bf 0 1 0.52 c 6 5 1097 1064 bf 0 0.0800001 1 c 6 5 1109 1064 bf 0 0.733333 1 c 6 5 1115 1064 bf 6 5 1121 1064
 bf 6 5 1127 1064 bf 0 1 0.52 c 6 5 1139 1064 bf 0 0.733333 1 c 6 5 1151 1064 bf 6 5 1157 1064 bf 0 0.0800001 1 c 6 5 1169 1064 bf 6 5 1199 1064 bf 6 5 1211 1064 bf 6 5 1217 1064 bf 6 5 1265 1064 bf 6 5 1283 1064 bf 6 5 1379 1064 bf 0 0.733333 1 c 6
 5 1481 1064 bf 0 0.0800001 1 c 6 5 1499 1064 bf 6 5 1505 1064 bf 6 5 1511 1064 bf 6 5 1517 1064 bf 0 0.733333 1 c 6 5 1523 1064 bf 0 0.0800001 1 c 6 5 1529 1064 bf 6 5 1535 1064 bf 0.88 1 0 c 6 5 1541 1064 bf 0 0.733333 1 c 6 5 1547 1064 bf 0
 0.0800001 1 c 6 5 1553 1064 bf 0 0.733333 1 c 6 5 1559 1064 bf 0 0.0800001 1 c 6 5 1571 1064 bf 6 5 1589 1064 bf 6 5 1649 1064 bf 6 5 1673 1064 bf 6 5 1679 1064 bf 6 5 1721 1064 bf 6 6 1025 1069 bf 6 6 1031 1069 bf 6 6 1055 1069 bf 6 6 1079 1069 bf
 6 6 1085 1069 bf 6 6 1097 1069 bf 6 6 1103 1069 bf 0.133333 1 0 c 6 6 1109 1069 bf 0 1 0.52 c 6 6 1115 1069 bf 6 6 1121 1069 bf 0.88 1 0 c 6 6 1127 1069 bf 0 1 0.52 c 6 6 1133 1069 bf 0 0.733333 1 c 6 6 1151 1069 bf 0 1 0.52 c 6 6 1157 1069 bf 0
 0.0800001 1 c 6 6 1169 1069 bf 6 6 1211 1069 bf 6 6 1469 1069 bf 6 6 1475 1069 bf 0 0.733333 1 c 6 6 1499 1069 bf 0 0.0800001 1 c 6 6 1517 1069 bf 6 6 1523 1069 bf 0 0.733333 1 c 6 6 1541 1069 bf 0 0.0800001 1 c 6 6 1547 1069 bf 6 6 1553 1069 bf 0
 0.733333 1 c 6 6 1559 1069 bf 0.133333 1 0 c 6 6 1565 1069 bf 0 1 0.52 c 6 6 1571 1069 bf 0 0.0800001 1 c 6 6 1607 1069 bf 6 6 1613 1069 bf 6 5 1043 1075 bf 6 5 1061 1075 bf 6 5 1079 1075 bf 6 5 1085 1075 bf 6 5 1091 1075 bf 6 5 1103 1075 bf 1 0 0 c
 6 5 1109 1075 bf 0 0.733333 1 c 6 5 1115 1075 bf 0.133333 1 0 c 6 5 1121 1075 bf 0.88 1 0 c 6 5 1127 1075 bf 0 0.0800001 1 c 6 5 1139 1075 bf 6 5 1145 1075 bf 6 5 1175 1075 bf 6 5 1181 1075 bf 6 5 1211 1075 bf 6 5 1379 1075 bf 0 0.733333 1 c 6 5
 1469 1075 bf 0 0.0800001 1 c 6 5 1499 1075 bf 6 5 1505 1075 bf 6 5 1517 1075 bf 0 0.733333 1 c 6 5 1523 1075 bf 0 0.0800001 1 c 6 5 1529 1075 bf 6 5 1535 1075 bf 0 1 0.52 c 6 5 1541 1075 bf 0 0.733333 1 c 6 5 1547 1075 bf 6 5 1553 1075 bf 0
 0.0800001 1 c 6 5 1559 1075 bf 0.88 1 0 c 6 5 1565 1075 bf 0 0.733333 1 c 6 5 1571 1075 bf 0 0.0800001 1 c 6 5 1589 1075 bf 6 5 1001 1080 bf 6 5 1067 1080 bf 6 5 1073 1080 bf 6 5 1085 1080 bf 6 5 1097 1080 bf 0 1 0.52 c 6 5 1109 1080 bf 0 0.733333 1
 c 6 5 1115 1080 bf 0 0.0800001 1 c 6 5 1121 1080 bf 0 0.733333 1 c 6 5 1127 1080 bf 6 5 1133 1080 bf 0 1 0.52 c 6 5 1139 1080 bf 0 0.733333 1 c 6 5 1145 1080 bf 0 0.0800001 1 c 6 5 1151 1080 bf 6 5 1157 1080 bf 6 5 1169 1080 bf 6 5 1181 1080 bf 6 5
 1241 1080 bf 6 5 1331 1080 bf 6 5 1343 1080 bf 6 5 1367 1080 bf 6 5 1385 1080 bf 6 5 1391 1080 bf 6 5 1439 1080 bf 6 5 1457 1080 bf 6 5 1463 1080 bf 6 5 1493 1080 bf 6 5 1499 1080 bf 6 5 1511 1080 bf 6 5 1523 1080 bf 6 5 1535 1080 bf 0 1 0.52 c 6 5
 1541 1080 bf 0 0.733333 1 c 6 5 1547 1080 bf 0 0.0800001 1 c 6 5 1553 1080 bf 0 1 0.52 c 6 5 1559 1080 bf 0 0.733333 1 c 6 5 1571 1080 bf 0 0.0800001 1 c 6 5 1577 1080 bf 0 0.733333 1 c 6 5 1583 1080 bf 0 0.0800001 1 c 6 5 1589 1080 bf 0 0.733333 1
 c 6 5 1595 1080 bf 0 0.0800001 1 c 6 5 1619 1080 bf 6 5 1637 1080 bf 6 5 1727 1080 bf 6 5 983 1085 bf 6 5 1019 1085 bf 6 5 1067 1085 bf 0 0.733333 1 c 6 5 1073 1085 bf 0 0.0800001 1 c 6 5 1103 1085 bf 0.133333 1 0 c 6 5 1109 1085 bf 0 0.733333 1 c 6
 5 1115 1085 bf 0.88 1 0 c 6 5 1121 1085 bf 0.133333 1 0 c 6 5 1127 1085 bf 0 0.0800001 1 c 6 5 1133 1085 bf 0 0.733333 1 c 6 5 1139 1085 bf 0 0.0800001 1 c 6 5 1157 1085 bf 6 5 1163 1085 bf 6 5 1193 1085 bf 6 5 1199 1085 bf 6 5 1217 1085 bf 6 5 1253
 1085 bf 6 5 1325 1085 bf 6 5 1409 1085 bf 6 5 1451 1085 bf 6 5 1475 1085 bf 0 0.733333 1 c 6 5 1517 1085 bf 0 0.0800001 1 c 6 5 1523 1085 bf 0.88 1 0 c 6 5 1529 1085 bf 0 0.0800001 1 c 6 5 1541 1085 bf 0 0.733333 1 c 6 5 1547 1085 bf 0 0.0800001 1 c
 6 5 1553 1085 bf 6 5 1559 1085 bf 6 5 1571 1085 bf 0 0.733333 1 c 6 5 1577 1085 bf 0 0.0800001 1 c 6 5 1583 1085 bf 6 5 1595 1085 bf 0 0.733333 1 c 6 5 1601 1085 bf 0 0.0800001 1 c 6 5 1619 1085 bf 6 5 1643 1085 bf 6 5 1691 1085 bf 6 5 1896 1085 bf
 6 6 1043 1090 bf 6 6 1067 1090 bf 6 6 1091 1090 bf 6 6 1097 1090 bf 0 1 0.52 c 6 6 1103 1090 bf 0.133333 1 0 c 6 6 1109 1090 bf 0 1 0.52 c 6 6 1115 1090 bf 0 0.0800001 1 c 6 6 1121 1090 bf 0 1 0.52 c 6 6 1127 1090 bf 6 6 1133 1090 bf 0.133333 1 0 c
 6 6 1139 1090 bf 0 0.733333 1 c 6 6 1157 1090 bf 0 0.0800001 1 c 6 6 1163 1090 bf 6 6 1169 1090 bf 6 6 1175 1090 bf 6 6 1181 1090 bf 6 6 1229 1090 bf 6 6 1265 1090 bf 6 6 1337 1090 bf 6 6 1439 1090 bf 6 6 1499 1090 bf 6 6 1523 1090 bf 6 6 1529 1090
 bf 0 0.733333 1 c 6 6 1535 1090 bf 0 0.0800001 1 c 6 6 1541 1090 bf 6 6 1547 1090 bf 0 1 0.52 c 6 6 1553 1090 bf 0 0.733333 1 c 6 6 1559 1090 bf 0 0.0800001 1 c 6 6 1565 1090 bf 6 6 1577 1090 bf 0 0.733333 1 c 6 6 1583 1090 bf 0 0.0800001 1 c 6 6
 1589 1090 bf 6 6 1607 1090 bf 6 6 1637 1090 bf 6 6 1721 1090 bf 6 5 1031 1096 bf 0 0.733333 1 c 6 5 1097 1096 bf 0 0.0800001 1 c 6 5 1103 1096 bf 0 0.733333 1 c 6 5 1109 1096 bf 0 0.0800001 1 c 6 5 1115 1096 bf 0 1 0.52 c 6 5 1121 1096 bf 1 0.466667
 0 c 6 5 1127 1096 bf 0.88 1 0 c 6 5 1133 1096 bf 0 1 0.52 c 6 5 1139 1096 bf 0 0.0800001 1 c 6 5 1151 1096 bf 6 5 1163 1096 bf 0 0.733333 1 c 6 5 1193 1096 bf 6 5 1199 1096 bf 0 0.0800001 1 c 6 5 1211 1096 bf 6 5 1397 1096 bf 6 5 1409 1096 bf 6 5
 1451 1096 bf 6 5 1463 1096 bf 0 1 0.52 c 6 5 1523 1096 bf 0 0.733333 1 c 6 5 1529 1096 bf 6 5 1535 1096 bf 0 1 0.52 c 6 5 1547 1096 bf 1 0.466667 0 c 6 5 1553 1096 bf 0.133333 1 0 c 6 5 1559 1096 bf 0 1 0.52 c 6 5 1565 1096 bf 0 0.733333 1 c 6 5
 1571 1096 bf 0 0.0800001 1 c 6 5 1577 1096 bf 6 5 1601 1096 bf 6 5 1625 1096 bf 6 5 1643 1096 bf 6 5 1715 1096 bf 6 5 1037 1101 bf 6 5 1061 1101 bf 0 0.733333 1 c 6 5 1091 1101 bf 0 1 0.52 c 6 5 1097 1101 bf 0 0.733333 1 c 6 5 1103 1101 bf 0
 0.0800001 1 c 6 5 1109 1101 bf 6 5 1115 1101 bf 0.88 1 0 c 6 5 1121 1101 bf 0 1 0.52 c 6 5 1139 1101 bf 6 5 1145 1101 bf 0 0.0800001 1 c 6 5 1151 1101 bf 6 5 1157 1101 bf 6 5 1175 1101 bf 6 5 1205 1101 bf 6 5 1229 1101 bf 6 5 1253 1101 bf 6 5 1259
 1101 bf 6 5 1265 1101 bf 6 5 1295 1101 bf 6 5 1307 1101 bf 6 5 1469 1101 bf 6 5 1505 1101 bf 6 5 1511 1101 bf 0 0.733333 1 c 6 5 1523 1101 bf 0 1 0.52 c 6 5 1553 1101 bf 0 0.733333 1 c 6 5 1565 1101 bf 0 0.0800001 1 c 6 5 1571 1101 bf 0 1 0.52 c 6 5
 1577 1101 bf 0 0.733333 1 c 6 5 1583 1101 bf 6 5 1619 1101 bf 0 0.0800001 1 c 6 5 1043 1106 bf 6 5 1061 1106 bf 6 5 1079 1106 bf 6 5 1085 1106 bf 0 1 0.52 c 6 5 1103 1106 bf 0 0.0800001 1 c 6 5 1109 1106 bf 6 5 1115 1106 bf 0 0.733333 1 c 6 5 1121
 1106 bf 0 0.0800001 1 c 6 5 1127 1106 bf 0 0.733333 1 c 6 5 1133 1106 bf 0 1 0.52 c 6 5 1145 1106 bf 0 0.0800001 1 c 6 5 1181 1106 bf 6 5 1193 1106 bf 6 5 1211 1106 bf 6 5 1241 1106 bf 6 5 1247 1106 bf 6 5 1265 1106 bf 6 5 1415 1106 bf 6 5 1463 1106
 bf 6 5 1481 1106 bf 6 5 1493 1106 bf 0 0.733333 1 c 6 5 1499 1106 bf 0 0.0800001 1 c 6 5 1511 1106 bf 0 0.733333 1 c 6 5 1529 1106 bf 0 0.0800001 1 c 6 5 1535 1106 bf 0 0.733333 1 c 6 5 1541 1106 bf 6 5 1553 1106 bf 0 0.0800001 1 c 6 5 1559 1106 bf
 0 1 0.52 c 6 5 1565 1106 bf 0.88 1 0 c 6 5 1571 1106 bf 0 0.733333 1 c 6 5 1577 1106 bf 0 1 0.52 c 6 5 1583 1106 bf 0 0.733333 1 c 6 5 1589 1106 bf 0 0.0800001 1 c 6 5 1601 1106 bf 0 0.733333 1 c 6 5 1613 1106 bf 0 0.0800001 1 c 6 5 1631 1106 bf 6 5
 1661 1106 bf 0 0.733333 1 c 6 6 1079 1111 bf 0 0.0800001 1 c 6 6 1097 1111 bf 0.133333 1 0 c 6 6 1103 1111 bf 0 0.0800001 1 c 6 6 1109 1111 bf 0 1 0.52 c 6 6 1115 1111 bf 0 0.0800001 1 c 6 6 1121 1111 bf 0 0.733333 1 c 6 6 1127 1111 bf 0 0.0800001 1
 c 6 6 1133 1111 bf 0 0.733333 1 c 6 6 1139 1111 bf 6 6 1145 1111 bf 0 0.0800001 1 c 6 6 1151 1111 bf 6 6 1157 1111 bf 6 6 1163 1111 bf 6 6 1175 1111 bf 6 6 1217 1111 bf 6 6 1241 1111 bf 0 0.733333 1 c 6 6 1265 1111 bf 0 0.0800001 1 c 6 6 1325 1111
 bf 6 6 1355 1111 bf 6 6 1439 1111 bf 6 6 1493 1111 bf 0 1 0.52 c 6 6 1541 1111 bf 6 6 1553 1111 bf 0 0.733333 1 c 6 6 1559 1111 bf 0 0.0800001 1 c 6 6 1565 1111 bf 6 6 1571 1111 bf 0 0.733333 1 c 6 6 1577 1111 bf 0 0.0800001 1 c 6 6 1583 1111 bf 6 6
 1595 1111 bf 6 6 1643 1111 bf 6 6 1715 1111 bf 6 5 1031 1117 bf 0 0.733333 1 c 6 5 1079 1117 bf 6 5 1097 1117 bf 0 0.0800001 1 c 6 5 1103 1117 bf 0 1 0.52 c 6 5 1115 1117 bf 6 5 1121 1117 bf 0 0.0800001 1 c 6 5 1133 1117 bf 0 0.733333 1 c 6 5 1145
 1117 bf 0 0.0800001 1 c 6 5 1151 1117 bf 6 5 1157 1117 bf 6 5 1169 1117 bf 6 5 1181 1117 bf 6 5 1193 1117 bf 6 5 1199 1117 bf 6 5 1229 1117 bf 6 5 1445 1117 bf 6 5 1463 1117 bf 6 5 1499 1117 bf 6 5 1523 1117 bf 6 5 1529 1117 bf 0 1 0.52 c 6 5 1535
 1117 bf 0 0.0800001 1 c 6 5 1547 1117 bf 0 0.733333 1 c 6 5 1553 1117 bf 0 1 0.52 c 6 5 1571 1117 bf 0 0.733333 1 c 6 5 1577 1117 bf 0 0.0800001 1 c 6 5 1583 1117 bf 0 0.733333 1 c 6 5 1589 1117 bf 0 0.0800001 1 c 6 5 1703 1117 bf 6 5 1019 1122 bf 6
 5 1043 1122 bf 6 5 1073 1122 bf 6 5 1091 1122 bf 6 5 1103 1122 bf 0 1 0.52 c 6 5 1115 1122 bf 0 0.733333 1 c 6 5 1127 1122 bf 0 0.0800001 1 c 6 5 1133 1122 bf 0 0.733333 1 c 6 5 1139 1122 bf 0 0.0800001 1 c 6 5 1145 1122 bf 0 1 0.52 c 6 5 1151 1122
 bf 0 0.733333 1 c 6 5 1157 1122 bf 0 0.0800001 1 c 6 5 1163 1122 bf 6 5 1169 1122 bf 6 5 1211 1122 bf 6 5 1253 1122 bf 6 5 1367 1122 bf 6 5 1373 1122 bf 6 5 1379 1122 bf 6 5 1427 1122 bf 6 5 1487 1122 bf 6 5 1499 1122 bf 6 5 1505 1122 bf 6 5 1517
 1122 bf 6 5 1523 1122 bf 0 1 0.52 c 6 5 1541 1122 bf 0 0.733333 1 c 6 5 1547 1122 bf 0 1 0.52 c 6 5 1553 1122 bf 6 5 1571 1122 bf 0 0.0800001 1 c 6 5 1583 1122 bf 6 5 1601 1122 bf 6 5 1625 1122 bf 6 5 1661 1122 bf 6 5 1667 1122 bf 6 5 1733 1122 bf 0
 0.733333 1 c 6 5 1085 1127 bf 6 5 1091 1127 bf 0 1 0.52 c 6 5 1097 1127 bf 6 5 1103 1127 bf 0 0.0800001 1 c 6 5 1109 1127 bf 6 5 1115 1127 bf 0.88 1 0 c 6 5 1121 1127 bf 0 0.733333 1 c 6 5 1127 1127 bf 0 1 0.52 c 6 5 1133 1127 bf 6 5 1139 1127 bf 6
 5 1145 1127 bf 0 0.0800001 1 c 6 5 1151 1127 bf 6 5 1169 1127 bf 6 5 1175 1127 bf 6 5 1361 1127 bf 6 5 1391 1127 bf 6 5 1433 1127 bf 6 5 1493 1127 bf 6 5 1499 1127 bf 6 5 1517 1127 bf 0 1 0.52 c 6 5 1523 1127 bf 6 5 1541 1127 bf 6 5 1547 1127 bf 0
 0.733333 1 c 6 5 1553 1127 bf 0.133333 1 0 c 6 5 1559 1127 bf 0 0.733333 1 c 6 5 1571 1127 bf 6 5 1589 1127 bf 0 0.0800001 1 c 6 5 1601 1127 bf 6 5 1649 1127 bf 6 6 1055 1132 bf 0 0.733333 1 c 6 6 1061 1132 bf 0 0.0800001 1 c 6 6 1067 1132 bf 6 6
 1073 1132 bf 6 6 1103 1132 bf 1 0.466667 0 c 6 6 1109 1132 bf 0 0.733333 1 c 6 6 1115 1132 bf 0 0.0800001 1 c 6 6 1121 1132 bf 0 1 0.52 c 6 6 1127 1132 bf 0 0.0800001 1 c 6 6 1133 1132 bf 0 0.733333 1 c 6 6 1139 1132 bf 0 1 0.52 c 6 6 1145 1132 bf 0
 0.0800001 1 c 6 6 1157 1132 bf 0 0.733333 1 c 6 6 1163 1132 bf 0 0.0800001 1 c 6 6 1211 1132 bf 6 6 1307 1132 bf 6 6 1451 1132 bf 6 6 1481 1132 bf 6 6 1511 1132 bf 0 0.733333 1 c 6 6 1517 1132 bf 0 0.0800001 1 c 6 6 1523 1132 bf 6 6 1529 1132 bf 0
 0.733333 1 c 6 6 1535 1132 bf 0 0.0800001 1 c 6 6 1541 1132 bf 6 6 1547 1132 bf 0.133333 1 0 c 6 6 1553 1132 bf 0 1 0.52 c 6 6 1559 1132 bf 0 0.0800001 1 c 6 6 1565 1132 bf 6 6 1571 1132 bf 0 0.733333 1 c 6 6 1577 1132 bf 0 0.0800001 1 c 6 6 1589
 1132 bf 6 6 1601 1132 bf 6 6 1625 1132 bf 6 6 1649 1132 bf 6 6 1655 1132 bf 6 5 1067 1138 bf 0 0.733333 1 c 6 5 1097 1138 bf 6 5 1103 1138 bf 6 5 1109 1138 bf 6 5 1115 1138 bf 0.88 1 0 c 6 5 1121 1138 bf 0 0.0800001 1 c 6 5 1127 1138 bf 6 5 1133
 1138 bf 0 1 0.52 c 6 5 1151 1138 bf 0 0.0800001 1 c 6 5 1157 1138 bf 0 0.733333 1 c 6 5 1211 1138 bf 0 0.0800001 1 c 6 5 1361 1138 bf 0 0.733333 1 c 6 5 1439 1138 bf 0 0.0800001 1 c 6 5 1463 1138 bf 6 5 1481 1138 bf 6 5 1493 1138 bf 6 5 1499 1138 bf
 6 5 1505 1138 bf 0 0.733333 1 c 6 5 1511 1138 bf 0 0.0800001 1 c 6 5 1517 1138 bf 0 1 0.52 c 6 5 1523 1138 bf 0 0.0800001 1 c 6 5 1541 1138 bf 0.133333 1 0 c 6 5 1547 1138 bf 0 1 0.52 c 6 5 1553 1138 bf 6 5 1559 1138 bf 0 0.733333 1 c 6 5 1565 1138
 bf 6 5 1571 1138 bf 0 0.0800001 1 c 6 5 1583 1138 bf 6 5 1589 1138 bf 6 5 1631 1138 bf 6 5 1715 1138 bf 6 5 773 1143 bf 6 5 1019 1143 bf 6 5 1055 1143 bf 0 0.733333 1 c 6 5 1091 1143 bf 6 5 1097 1143 bf 6 5 1103 1143 bf 6 5 1115 1143 bf 6 5 1121
 1143 bf 0 0.0800001 1 c 6 5 1127 1143 bf 6 5 1133 1143 bf 0 1 0.52 c 6 5 1139 1143 bf 0 0.0800001 1 c 6 5 1151 1143 bf 0 0.733333 1 c 6 5 1157 1143 bf 0 0.0800001 1 c 6 5 1163 1143 bf 6 5 1169 1143 bf 0 0.733333 1 c 6 5 1187 1143 bf 0 0.0800001 1 c
 6 5 1199 1143 bf 6 5 1265 1143 bf 6 5 1343 1143 bf 6 5 1475 1143 bf 6 5 1481 1143 bf 6 5 1493 1143 bf 6 5 1511 1143 bf 6 5 1529 1143 bf 0 0.733333 1 c 6 5 1535 1143 bf 0 0.0800001 1 c 6 5 1541 1143 bf 0 0.733333 1 c 6 5 1553 1143 bf 0 1 0.52 c 6 5
 1559 1143 bf 1 0.466667 0 c 6 5 1565 1143 bf 0 0.733333 1 c 6 5 1571 1143 bf 6 5 1577 1143 bf 0.133333 1 0 c 6 5 1589 1143 bf 0 0.0800001 1 c 6 5 1631 1143 bf 6 5 1679 1143 bf 6 6 1055 1148 bf 6 6 1079 1148 bf 6 6 1085 1148 bf 6 6 1091 1148 bf 6 6
 1097 1148 bf 0 0.733333 1 c 6 6 1103 1148 bf 0 0.0800001 1 c 6 6 1115 1148 bf 0 1 0.52 c 6 6 1121 1148 bf 0 0.733333 1 c 6 6 1127 1148 bf 0 1 0.52 c 6 6 1133 1148 bf 0 0.0800001 1 c 6 6 1139 1148 bf 6 6 1145 1148 bf 0 0.733333 1 c 6 6 1151 1148 bf 6
 6 1157 1148 bf 0 0.0800001 1 c 6 6 1169 1148 bf 0 1 0.52 c 6 6 1175 1148 bf 0 0.0800001 1 c 6 6 1211 1148 bf 6 6 1259 1148 bf 6 6 1271 1148 bf 6 6 1373 1148 bf 6 6 1391 1148 bf 6 6 1397 1148 bf 6 6 1463 1148 bf 6 6 1487 1148 bf 6 6 1493 1148 bf 6 6
 1517 1148 bf 6 6 1523 1148 bf 6 6 1529 1148 bf 6 6 1535 1148 bf 6 6 1541 1148 bf 0 1 0.52 c 6 6 1547 1148 bf 0 0.733333 1 c 6 6 1553 1148 bf 6 6 1565 1148 bf 0 0.0800001 1 c 6 6 1577 1148 bf 6 6 1595 1148 bf 6 6 1613 1148 bf 6 5 1025 1154 bf 0 1
 0.52 c 6 5 1091 1154 bf 0 0.0800001 1 c 6 5 1097 1154 bf 0.133333 1 0 c 6 5 1103 1154 bf 6 5 1109 1154 bf 0 0.733333 1 c 6 5 1115 1154 bf 0 0.0800001 1 c 6 5 1121 1154 bf 0 0.733333 1 c 6 5 1127 1154 bf 0 0.0800001 1 c 6 5 1133 1154 bf 6 5 1139 1154
 bf 0.133333 1 0 c 6 5 1145 1154 bf 0 0.0800001 1 c 6 5 1157 1154 bf 0 0.733333 1 c 6 5 1169 1154 bf 0 0.0800001 1 c 6 5 1223 1154 bf 6 5 1337 1154 bf 6 5 1397 1154 bf 6 5 1415 1154 bf 6 5 1481 1154 bf 6 5 1517 1154 bf 6 5 1523 1154 bf 6 5 1547 1154
 bf 6 5 1553 1154 bf 0 1 0.52 c 6 5 1559 1154 bf 0 0.733333 1 c 6 5 1565 1154 bf 6 5 1571 1154 bf 0 1 0.52 c 6 5 1577 1154 bf 0 0.0800001 1 c 6 5 1583 1154 bf 6 5 1595 1154 bf 0 0.733333 1 c 6 5 1601 1154 bf 0 0.0800001 1 c 6 5 1607 1154 bf 6 5 1613
 1154 bf 0 0.733333 1 c 6 5 1631 1154 bf 0 0.0800001 1 c 6 5 1643 1154 bf 6 5 1655 1154 bf 6 5 1721 1154 bf 6 5 815 1159 bf 6 5 1049 1159 bf 6 5 1061 1159 bf 6 5 1079 1159 bf 6 5 1097 1159 bf 6 5 1103 1159 bf 0.133333 1 0 c 6 5 1109 1159 bf 0
 0.0800001 1 c 6 5 1115 1159 bf 0 1 0.52 c 6 5 1121 1159 bf 0.133333 1 0 c 6 5 1127 1159 bf 0 0.0800001 1 c 6 5 1133 1159 bf 0 1 0.52 c 6 5 1139 1159 bf 0 0.0800001 1 c 6 5 1145 1159 bf 6 5 1151 1159 bf 6 5 1163 1159 bf 6 5 1175 1159 bf 6 5 1187 1159
 bf 6 5 1193 1159 bf 6 5 1229 1159 bf 6 5 1385 1159 bf 6 5 1457 1159 bf 6 5 1523 1159 bf 6 5 1529 1159 bf 6 5 1535 1159 bf 6 5 1541 1159 bf 6 5 1547 1159 bf 6 5 1553 1159 bf 0.133333 1 0 c 6 5 1559 1159 bf 0 0.733333 1 c 6 5 1571 1159 bf 6 5 1583
 1159 bf 0 0.0800001 1 c 6 5 1607 1159 bf 6 5 1866 1159 bf 6 5 1043 1164 bf 6 5 1061 1164 bf 0 1 0.52 c 6 5 1085 1164 bf 6 5 1097 1164 bf 0 0.0800001 1 c 6 5 1103 1164 bf 0 0.733333 1 c 6 5 1109 1164 bf 0 0.0800001 1 c 6 5 1115 1164 bf 0 0.733333 1 c
 6 5 1121 1164 bf 0.133333 1 0 c 6 5 1127 1164 bf 0 0.733333 1 c 6 5 1133 1164 bf 6 5 1139 1164 bf 0 0.0800001 1 c 6 5 1145 1164 bf 6 5 1151 1164 bf 0 0.733333 1 c 6 5 1157 1164 bf 0 0.0800001 1 c 6 5 1175 1164 bf 6 5 1205 1164 bf 6 5 1301 1164 bf 6
 5 1325 1164 bf 6 5 1337 1164 bf 6 5 1415 1164 bf 6 5 1505 1164 bf 0 1 0.52 c 6 5 1517 1164 bf 0 0.0800001 1 c 6 5 1523 1164 bf 6 5 1547 1164 bf 0 0.733333 1 c 6 5 1553 1164 bf 0 1 0.52 c 6 5 1559 1164 bf 0 0.733333 1 c 6 5 1565 1164 bf 6 5 1571 1164
 bf 0 0.0800001 1 c 6 5 1589 1164 bf 0 0.733333 1 c 6 5 1595 1164 bf 6 5 1655 1164 bf 0 0.0800001 1 c 6 5 1992 1164 bf 6 6 635 1169 bf 6 6 965 1169 bf 6 6 1031 1169 bf 6 6 1055 1169 bf 6 6 1103 1169 bf 0.133333 1 0 c 6 6 1121 1169 bf 0 0.733333 1 c 6
 6 1127 1169 bf 0 1 0.52 c 6 6 1133 1169 bf 0 0.0800001 1 c 6 6 1139 1169 bf 6 6 1151 1169 bf 6 6 1163 1169 bf 6 6 1169 1169 bf 6 6 1175 1169 bf 0 0.733333 1 c 6 6 1181 1169 bf 0 0.0800001 1 c 6 6 1193 1169 bf 6 6 1241 1169 bf 0 0.733333 1 c 6 6 1259
 1169 bf 0 0.0800001 1 c 6 6 1283 1169 bf 6 6 1319 1169 bf 6 6 1433 1169 bf 6 6 1457 1169 bf 0 0.733333 1 c 6 6 1463 1169 bf 0 0.0800001 1 c 6 6 1475 1169 bf 6 6 1481 1169 bf 6 6 1511 1169 bf 6 6 1529 1169 bf 0 1 0.52 c 6 6 1547 1169 bf 0 0.733333 1
 c 6 6 1553 1169 bf 0.133333 1 0 c 6 6 1559 1169 bf 0 1 0.52 c 6 6 1571 1169 bf 0 0.0800001 1 c 6 6 1583 1169 bf 6 6 1607 1169 bf 0 0.733333 1 c 6 6 1625 1169 bf 0 0.0800001 1 c 6 5 1067 1175 bf 6 5 1079 1175 bf 6 5 1085 1175 bf 0 0.733333 1 c 6 5
 1103 1175 bf 0.133333 1 0 c 6 5 1109 1175 bf 6 5 1115 1175 bf 0 1 0.52 c 6 5 1121 1175 bf 0 0.733333 1 c 6 5 1127 1175 bf 0 0.0800001 1 c 6 5 1133 1175 bf 0.133333 1 0 c 6 5 1145 1175 bf 0 0.733333 1 c 6 5 1151 1175 bf 6 5 1181 1175 bf 0 0.0800001 1
 c 6 5 1283 1175 bf 6 5 1355 1175 bf 6 5 1373 1175 bf 6 5 1427 1175 bf 6 5 1433 1175 bf 6 5 1451 1175 bf 6 5 1487 1175 bf 6 5 1499 1175 bf 6 5 1505 1175 bf 0 1 0.52 c 6 5 1535 1175 bf 6 5 1553 1175 bf 0 0.733333 1 c 6 5 1565 1175 bf 0.133333 1 0 c 6
 5 1571 1175 bf 0 1 0.52 c 6 5 1577 1175 bf 0 0.0800001 1 c 6 5 1601 1175 bf 6 5 1631 1175 bf 6 5 773 1180 bf 6 5 1079 1180 bf 6 5 1097 1180 bf 6 5 1109 1180 bf 6 5 1115 1180 bf 0 0.733333 1 c 6 5 1127 1180 bf 0 0.0800001 1 c 6 5 1133 1180 bf 0
 0.733333 1 c 6 5 1145 1180 bf 6 5 1157 1180 bf 0 1 0.52 c 6 5 1163 1180 bf 0 0.0800001 1 c 6 5 1181 1180 bf 6 5 1187 1180 bf 6 5 1211 1180 bf 6 5 1349 1180 bf 6 5 1433 1180 bf 6 5 1463 1180 bf 6 5 1499 1180 bf 6 5 1511 1180 bf 6 5 1523 1180 bf 0 1
 0.52 c 6 5 1535 1180 bf 0 0.0800001 1 c 6 5 1541 1180 bf 0 0.733333 1 c 6 5 1547 1180 bf 0 1 0.52 c 6 5 1553 1180 bf 0 0.733333 1 c 6 5 1559 1180 bf 6 5 1565 1180 bf 6 5 1577 1180 bf 6 5 1583 1180 bf 0 0.0800001 1 c 6 5 1607 1180 bf 6 5 995 1185 bf
 6 5 1097 1185 bf 0 0.733333 1 c 6 5 1109 1185 bf 0 1 0.52 c 6 5 1115 1185 bf 0 0.0800001 1 c 6 5 1133 1185 bf 6 5 1139 1185 bf 0 0.733333 1 c 6 5 1145 1185 bf 0 1 0.52 c 6 5 1151 1185 bf 0 0.733333 1 c 6 5 1157 1185 bf 6 5 1163 1185 bf 0 0.0800001 1
 c 6 5 1169 1185 bf 0 0.733333 1 c 6 5 1193 1185 bf 0 0.0800001 1 c 6 5 1265 1185 bf 6 5 1289 1185 bf 6 5 1373 1185 bf 6 5 1379 1185 bf 6 5 1397 1185 bf 6 5 1451 1185 bf 0 0.733333 1 c 6 5 1475 1185 bf 6 5 1511 1185 bf 0 0.0800001 1 c 6 5 1517 1185
 bf 0 0.733333 1 c 6 5 1523 1185 bf 0 1 0.52 c 6 5 1547 1185 bf 0 0.0800001 1 c 6 5 1559 1185 bf 0 1 0.52 c 6 5 1565 1185 bf 6 5 1571 1185 bf 0 0.0800001 1 c 6 5 1583 1185 bf 6 5 1601 1185 bf 6 6 863 1190 bf 6 6 971 1190 bf 6 6 1013 1190 bf 0
 0.733333 1 c 6 6 1031 1190 bf 0 0.0800001 1 c 6 6 1067 1190 bf 6 6 1091 1190 bf 0 0.733333 1 c 6 6 1103 1190 bf 0.133333 1 0 c 6 6 1109 1190 bf 0 1 0.52 c 6 6 1115 1190 bf 0 0.733333 1 c 6 6 1121 1190 bf 0 1 0.52 c 6 6 1127 1190 bf 1 0.466667 0 c 6
 6 1133 1190 bf 0 0.0800001 1 c 6 6 1139 1190 bf 0 0.733333 1 c 6 6 1145 1190 bf 0 0.0800001 1 c 6 6 1151 1190 bf 6 6 1157 1190 bf 6 6 1169 1190 bf 6 6 1181 1190 bf 6 6 1193 1190 bf 6 6 1235 1190 bf 6 6 1307 1190 bf 6 6 1325 1190 bf 6 6 1343 1190 bf
 6 6 1385 1190 bf 6 6 1469 1190 bf 6 6 1475 1190 bf 0 0.733333 1 c 6 6 1481 1190 bf 0 0.0800001 1 c 6 6 1487 1190 bf 6 6 1493 1190 bf 6 6 1499 1190 bf 0 0.733333 1 c 6 6 1523 1190 bf 0 0.0800001 1 c 6 6 1547 1190 bf 0 1 0.52 c 6 6 1553 1190 bf 6 6
 1559 1190 bf 0 0.0800001 1 c 6 6 1565 1190 bf 6 6 1571 1190 bf 6 6 1577 1190 bf 0 1 0.52 c 6 6 1583 1190 bf 0 0.0800001 1 c 6 6 1601 1190 bf 6 6 1613 1190 bf 6 6 1619 1190 bf 6 6 1637 1190 bf 6 5 1037 1196 bf 6 5 1073 1196 bf 6 5 1079 1196 bf 6 5
 1085 1196 bf 0 0.733333 1 c 6 5 1097 1196 bf 1 0 0 c 6 5 1109 1196 bf 0 0.0800001 1 c 6 5 1115 1196 bf 0.133333 1 0 c 6 5 1121 1196 bf 0 0.0800001 1 c 6 5 1127 1196 bf 6 5 1133 1196 bf 0.88 1 0 c 6 5 1139 1196 bf 0 0.0800001 1 c 6 5 1145 1196 bf 0
 0.733333 1 c 6 5 1157 1196 bf 0 0.0800001 1 c 6 5 1175 1196 bf 6 5 1181 1196 bf 6 5 1187 1196 bf 6 5 1199 1196 bf 6 5 1217 1196 bf 6 5 1235 1196 bf 6 5 1241 1196 bf 6 5 1319 1196 bf 6 5 1379 1196 bf 6 5 1469 1196 bf 6 5 1481 1196 bf 6 5 1505 1196 bf
 0 1 0.52 c 6 5 1517 1196 bf 0 0.0800001 1 c 6 5 1529 1196 bf 0.133333 1 0 c 6 5 1535 1196 bf 0 0.733333 1 c 6 5 1541 1196 bf 0 1 0.52 c 6 5 1547 1196 bf 0 0.0800001 1 c 6 5 1553 1196 bf 0 0.733333 1 c 6 5 1559 1196 bf 0 1 0.52 c 6 5 1565 1196 bf 0
 0.0800001 1 c 6 5 1577 1196 bf 0 0.733333 1 c 6 5 1583 1196 bf 0 0.0800001 1 c 6 5 1595 1196 bf 6 5 1601 1196 bf 6 5 1607 1196 bf 6 5 1613 1196 bf 6 5 929 1201 bf 6 5 935 1201 bf 6 5 959 1201 bf 6 5 1001 1201 bf 6 5 1025 1201 bf 6 5 1097 1201 bf 6 5
 1109 1201 bf 0 1 0.52 c 6 5 1115 1201 bf 0 0.733333 1 c 6 5 1127 1201 bf 6 5 1133 1201 bf 6 5 1139 1201 bf 6 5 1145 1201 bf 0 0.0800001 1 c 6 5 1151 1201 bf 0.133333 1 0 c 6 5 1157 1201 bf 0 0.0800001 1 c 6 5 1163 1201 bf 6 5 1193 1201 bf 6 5 1205
 1201 bf 6 5 1361 1201 bf 6 5 1391 1201 bf 6 5 1397 1201 bf 6 5 1409 1201 bf 6 5 1415 1201 bf 6 5 1469 1201 bf 6 5 1493 1201 bf 6 5 1511 1201 bf 0 1 0.52 c 6 5 1517 1201 bf 0 0.0800001 1 c 6 5 1523 1201 bf 6 5 1535 1201 bf 6 5 1541 1201 bf 6 5 1547
 1201 bf 6 5 1553 1201 bf 6 5 1571 1201 bf 0 0.733333 1 c 6 5 1583 1201 bf 0 0.0800001 1 c 6 5 1589 1201 bf 6 5 1595 1201 bf 6 5 1613 1201 bf 6 5 1631 1201 bf 6 5 1649 1201 bf 6 5 1758 1201 bf 6 5 983 1206 bf 6 5 1055 1206 bf 6 5 1061 1206 bf 6 5
 1079 1206 bf 6 5 1103 1206 bf 6 5 1109 1206 bf 6 5 1115 1206 bf 0.133333 1 0 c 6 5 1121 1206 bf 0 0.0800001 1 c 6 5 1133 1206 bf 0 0.733333 1 c 6 5 1139 1206 bf 0 0.0800001 1 c 6 5 1145 1206 bf 6 5 1151 1206 bf 0 1 0.52 c 6 5 1157 1206 bf 0 0.733333
 1 c 6 5 1163 1206 bf 0 0.0800001 1 c 6 5 1187 1206 bf 6 5 1205 1206 bf 6 5 1307 1206 bf 6 5 1361 1206 bf 6 5 1445 1206 bf 6 5 1457 1206 bf 6 5 1463 1206 bf 6 5 1475 1206 bf 6 5 1505 1206 bf 6 5 1523 1206 bf 6 5 1541 1206 bf 6 5 1547 1206 bf 0 1 0.52
 c 6 5 1553 1206 bf 6 5 1559 1206 bf 0 0.733333 1 c 6 5 1565 1206 bf 6 5 1577 1206 bf 0 0.0800001 1 c 6 5 1583 1206 bf 0 0.733333 1 c 6 5 1595 1206 bf 0 0.0800001 1 c 6 5 1631 1206 bf 6 5 1649 1206 bf 6 6 1067 1211 bf 6 6 1079 1211 bf 6 6 1097 1211
 bf 0 1 0.52 c 6 6 1103 1211 bf 6 6 1109 1211 bf 0 0.733333 1 c 6 6 1115 1211 bf 0.133333 1 0 c 6 6 1121 1211 bf 0 0.733333 1 c 6 6 1133 1211 bf 0 0.0800001 1 c 6 6 1139 1211 bf 6 6 1145 1211 bf 0.133333 1 0 c 6 6 1151 1211 bf 0 0.0800001 1 c 6 6
 1187 1211 bf 6 6 1199 1211 bf 6 6 1205 1211 bf 6 6 1229 1211 bf 6 6 1313 1211 bf 6 6 1331 1211 bf 6 6 1337 1211 bf 6 6 1361 1211 bf 6 6 1397 1211 bf 6 6 1427 1211 bf 0 0.733333 1 c 6 6 1451 1211 bf 0 0.0800001 1 c 6 6 1505 1211 bf 6 6 1517 1211 bf 6
 6 1529 1211 bf 6 6 1535 1211 bf 0 0.733333 1 c 6 6 1541 1211 bf 0.88 1 0 c 6 6 1547 1211 bf 0 0.0800001 1 c 6 6 1553 1211 bf 0 1 0.52 c 6 6 1559 1211 bf 6 6 1565 1211 bf 6 6 1571 1211 bf 0 0.733333 1 c 6 6 1583 1211 bf 0 1 0.52 c 6 6 1589 1211 bf 0
 0.0800001 1 c 6 6 1595 1211 bf 6 6 1607 1211 bf 6 5 1013 1217 bf 6 5 1079 1217 bf 0 0.733333 1 c 6 5 1085 1217 bf 0 0.0800001 1 c 6 5 1097 1217 bf 0 1 0.52 c 6 5 1103 1217 bf 6 5 1109 1217 bf 0 0.733333 1 c 6 5 1115 1217 bf 0 0.0800001 1 c 6 5 1121
 1217 bf 6 5 1127 1217 bf 1 0 0 c 6 5 1133 1217 bf 0 0.0800001 1 c 6 5 1139 1217 bf 0 0.733333 1 c 6 5 1151 1217 bf 0 0.0800001 1 c 6 5 1163 1217 bf 6 5 1217 1217 bf 6 5 1253 1217 bf 6 5 1313 1217 bf 0 0.733333 1 c 6 5 1331 1217 bf 0 0.0800001 1 c 6
 5 1367 1217 bf 6 5 1451 1217 bf 0 0.733333 1 c 6 5 1487 1217 bf 0 0.0800001 1 c 6 5 1499 1217 bf 6 5 1517 1217 bf 6 5 1523 1217 bf 0 0.733333 1 c 6 5 1529 1217 bf 0 0.0800001 1 c 6 5 1541 1217 bf 0.133333 1 0 c 6 5 1547 1217 bf 0 0.733333 1 c 6 5
 1553 1217 bf 0.133333 1 0 c 6 5 1559 1217 bf 0 0.733333 1 c 6 5 1565 1217 bf 6 5 1571 1217 bf 6 5 1577 1217 bf 0 0.0800001 1 c 6 5 1583 1217 bf 6 5 1595 1217 bf 6 5 1601 1217 bf 6 5 1619 1217 bf 6 5 1649 1217 bf 6 5 1818 1217 bf 6 5 311 1222 bf 6 5
 791 1222 bf 6 5 815 1222 bf 6 5 959 1222 bf 0 0.733333 1 c 6 5 1031 1222 bf 0 0.0800001 1 c 6 5 1049 1222 bf 6 5 1067 1222 bf 6 5 1085 1222 bf 6 5 1091 1222 bf 6 5 1097 1222 bf 6 5 1103 1222 bf 0.133333 1 0 c 6 5 1109 1222 bf 0 0.0800001 1 c 6 5
 1115 1222 bf 0 0.733333 1 c 6 5 1121 1222 bf 6 5 1127 1222 bf 0.133333 1 0 c 6 5 1133 1222 bf 0 0.733333 1 c 6 5 1145 1222 bf 6 5 1163 1222 bf 0 0.0800001 1 c 6 5 1481 1222 bf 6 5 1511 1222 bf 6 5 1523 1222 bf 6 5 1529 1222 bf 6 5 1535 1222 bf 0
 0.733333 1 c 6 5 1547 1222 bf 6 5 1553 1222 bf 0.88 1 0 c 6 5 1565 1222 bf 0 0.0800001 1 c 6 5 1571 1222 bf 0 0.733333 1 c 6 5 1577 1222 bf 0 0.0800001 1 c 6 5 1589 1222 bf 6 5 1673 1222 bf 6 5 797 1227 bf 6 5 923 1227 bf 6 5 1025 1227 bf 6 5 1037
 1227 bf 6 5 1067 1227 bf 6 5 1091 1227 bf 0 0.733333 1 c 6 5 1103 1227 bf 0 0.0800001 1 c 6 5 1109 1227 bf 0 0.733333 1 c 6 5 1115 1227 bf 0 1 0.52 c 6 5 1121 1227 bf 0 0.0800001 1 c 6 5 1127 1227 bf 6 5 1133 1227 bf 0 0.733333 1 c 6 5 1139 1227 bf
 6 5 1145 1227 bf 0 0.0800001 1 c 6 5 1169 1227 bf 6 5 1187 1227 bf 6 5 1205 1227 bf 6 5 1211 1227 bf 6 5 1271 1227 bf 6 5 1313 1227 bf 6 5 1325 1227 bf 6 5 1451 1227 bf 6 5 1463 1227 bf 6 5 1475 1227 bf 6 5 1517 1227 bf 6 5 1535 1227 bf 6 5 1541
 1227 bf 6 5 1547 1227 bf 0 1 0.52 c 6 5 1553 1227 bf 0.133333 1 0 c 6 5 1559 1227 bf 0 0.733333 1 c 6 5 1565 1227 bf 0 0.0800001 1 c 6 5 1571 1227 bf 0 1 0.52 c 6 5 1577 1227 bf 0 0.733333 1 c 6 5 1625 1227 bf 0 0.0800001 1 c 6 5 1649 1227 bf 6 5
 1697 1227 bf 6 6 1109 1232 bf 0 1 0.52 c 6 6 1115 1232 bf 0 0.733333 1 c 6 6 1121 1232 bf 0 1 0.52 c 6 6 1127 1232 bf 0 0.733333 1 c 6 6 1133 1232 bf 0 0.0800001 1 c 6 6 1139 1232 bf 6 6 1145 1232 bf 6 6 1151 1232 bf 6 6 1157 1232 bf 6 6 1169 1232
 bf 6 6 1211 1232 bf 6 6 1229 1232 bf 6 6 1265 1232 bf 6 6 1343 1232 bf 6 6 1355 1232 bf 6 6 1391 1232 bf 6 6 1439 1232 bf 6 6 1463 1232 bf 0 0.733333 1 c 6 6 1505 1232 bf 6 6 1529 1232 bf 0 1 0.52 c 6 6 1541 1232 bf 0 0.733333 1 c 6 6 1547 1232 bf
 0.133333 1 0 c 6 6 1553 1232 bf 0 1 0.52 c 6 6 1559 1232 bf 0 0.0800001 1 c 6 6 1565 1232 bf 6 6 1571 1232 bf 6 6 1589 1232 bf 6 6 1595 1232 bf 6 5 1103 1238 bf 6 5 1109 1238 bf 6 5 1115 1238 bf 6 5 1121 1238 bf 0 0.733333 1 c 6 5 1127 1238 bf 0
 0.0800001 1 c 6 5 1133 1238 bf 0 0.733333 1 c 6 5 1139 1238 bf 0 1 0.52 c 6 5 1145 1238 bf 0 0.0800001 1 c 6 5 1151 1238 bf 6 5 1157 1238 bf 6 5 1163 1238 bf 6 5 1175 1238 bf 0 0.733333 1 c 6 5 1379 1238 bf 0 0.0800001 1 c 6 5 1481 1238 bf 0
 0.733333 1 c 6 5 1487 1238 bf 0 0.0800001 1 c 6 5 1499 1238 bf 6 5 1511 1238 bf 0 1 0.52 c 6 5 1517 1238 bf 0 0.733333 1 c 6 5 1523 1238 bf 0 0.0800001 1 c 6 5 1541 1238 bf 0 1 0.52 c 6 5 1547 1238 bf 0.133333 1 0 c 6 5 1553 1238 bf 6 5 1559 1238 bf
 0.88 1 0 c 6 5 1565 1238 bf 0 0.733333 1 c 6 5 1571 1238 bf 0 0.0800001 1 c 6 5 1577 1238 bf 6 5 1583 1238 bf 0 0.733333 1 c 6 5 1589 1238 bf 6 5 1613 1238 bf 0 0.0800001 1 c 6 5 1667 1238 bf 6 5 1691 1238 bf 6 5 1878 1238 bf 6 5 1049 1243 bf 6 5
 1085 1243 bf 6 5 1091 1243 bf 0 0.733333 1 c 6 5 1097 1243 bf 6 5 1109 1243 bf 0 0.0800001 1 c 6 5 1115 1243 bf 6 5 1121 1243 bf 0.133333 1 0 c 6 5 1127 1243 bf 0 0.0800001 1 c 6 5 1133 1243 bf 0 0.733333 1 c 6 5 1139 1243 bf 0.133333 1 0 c 6 5 1151
 1243 bf 0 0.733333 1 c 6 5 1157 1243 bf 0 0.0800001 1 c 6 5 1181 1243 bf 6 5 1193 1243 bf 6 5 1199 1243 bf 6 5 1265 1243 bf 6 5 1283 1243 bf 6 5 1289 1243 bf 6 5 1427 1243 bf 6 5 1433 1243 bf 6 5 1475 1243 bf 6 5 1523 1243 bf 0 1 0.52 c 6 5 1535
 1243 bf 0 0.0800001 1 c 6 5 1541 1243 bf 0 1 0.52 c 6 5 1547 1243 bf 0 0.0800001 1 c 6 5 1553 1243 bf 0 1 0.52 c 6 5 1559 1243 bf 0 0.733333 1 c 6 5 1565 1243 bf 0 0.0800001 1 c 6 5 1571 1243 bf 0 0.733333 1 c 6 5 1589 1243 bf 0 0.0800001 1 c 6 5
 1607 1243 bf 0 0.733333 1 c 6 5 1619 1243 bf 0 0.0800001 1 c 6 5 1625 1243 bf 6 5 1643 1243 bf 6 6 1043 1248 bf 6 6 1055 1248 bf 6 6 1091 1248 bf 0 0.733333 1 c 6 6 1103 1248 bf 6 6 1109 1248 bf 0.133333 1 0 c 6 6 1115 1248 bf 0.88 1 0 c 6 6 1121
 1248 bf 0 0.733333 1 c 6 6 1127 1248 bf 6 6 1133 1248 bf 6 6 1139 1248 bf 1 0.466667 0 c 6 6 1145 1248 bf 0 0.0800001 1 c 6 6 1151 1248 bf 0.133333 1 0 c 6 6 1157 1248 bf 0 0.0800001 1 c 6 6 1163 1248 bf 6 6 1181 1248 bf 6 6 1235 1248 bf 6 6 1265
 1248 bf 6 6 1295 1248 bf 6 6 1331 1248 bf 6 6 1343 1248 bf 6 6 1415 1248 bf 6 6 1469 1248 bf 6 6 1475 1248 bf 0 0.733333 1 c 6 6 1487 1248 bf 0 0.0800001 1 c 6 6 1493 1248 bf 0 0.733333 1 c 6 6 1499 1248 bf 0 0.0800001 1 c 6 6 1523 1248 bf 6 6 1541
 1248 bf 0 0.733333 1 c 6 6 1547 1248 bf 0 0.0800001 1 c 6 6 1559 1248 bf 6 6 1565 1248 bf 6 6 1577 1248 bf 6 6 1595 1248 bf 0 0.733333 1 c 6 6 1601 1248 bf 0 0.0800001 1 c 6 5 1067 1254 bf 6 5 1073 1254 bf 6 5 1097 1254 bf 0 0.733333 1 c 6 5 1103
 1254 bf 6 5 1115 1254 bf 6 5 1121 1254 bf 6 5 1127 1254 bf 6 5 1133 1254 bf 0.133333 1 0 c 6 5 1139 1254 bf 0 0.0800001 1 c 6 5 1145 1254 bf 6 5 1163 1254 bf 0 1 0.52 c 6 5 1169 1254 bf 0 0.0800001 1 c 6 5 1193 1254 bf 6 5 1241 1254 bf 6 5 1343 1254
 bf 6 5 1433 1254 bf 6 5 1445 1254 bf 6 5 1475 1254 bf 6 5 1505 1254 bf 6 5 1517 1254 bf 6 5 1535 1254 bf 0 0.733333 1 c 6 5 1541 1254 bf 0.88 1 0 c 6 5 1553 1254 bf 0.133333 1 0 c 6 5 1559 1254 bf 0 1 0.52 c 6 5 1565 1254 bf 0 0.0800001 1 c 6 5 1571
 1254 bf 6 5 1577 1254 bf 6 5 1601 1254 bf 6 5 599 1259 bf 6 5 605 1259 bf 6 5 1085 1259 bf 6 5 1091 1259 bf 6 5 1097 1259 bf 6 5 1103 1259 bf 0 1 0.52 c 6 5 1109 1259 bf 0 0.0800001 1 c 6 5 1115 1259 bf 6 5 1127 1259 bf 0.133333 1 0 c 6 5 1133 1259
 bf 0 0.0800001 1 c 6 5 1139 1259 bf 6 5 1157 1259 bf 0 1 0.52 c 6 5 1181 1259 bf 0 0.733333 1 c 6 5 1193 1259 bf 0 0.0800001 1 c 6 5 1199 1259 bf 0 0.733333 1 c 6 5 1211 1259 bf 0 0.0800001 1 c 6 5 1241 1259 bf 6 5 1319 1259 bf 6 5 1331 1259 bf 6 5
 1475 1259 bf 6 5 1493 1259 bf 0 0.733333 1 c 6 5 1511 1259 bf 6 5 1517 1259 bf 0 0.0800001 1 c 6 5 1535 1259 bf 6 5 1541 1259 bf 0 1 0.52 c 6 5 1547 1259 bf 0 0.0800001 1 c 6 5 1553 1259 bf 0.133333 1 0 c 6 5 1559 1259 bf 0 0.0800001 1 c 6 5 1571
 1259 bf 0 0.733333 1 c 6 5 1577 1259 bf 0 0.0800001 1 c 6 5 1589 1259 bf 6 5 1824 1259 bf 6 5 881 1264 bf 6 5 1049 1264 bf 6 5 1067 1264 bf 0 0.733333 1 c 6 5 1073 1264 bf 0 1 0.52 c 6 5 1079 1264 bf 0 0.0800001 1 c 6 5 1085 1264 bf 6 5 1109 1264 bf
 0.133333 1 0 c 6 5 1115 1264 bf 0 0.733333 1 c 6 5 1121 1264 bf 0 0.0800001 1 c 6 5 1127 1264 bf 0 1 0.52 c 6 5 1133 1264 bf 0 0.0800001 1 c 6 5 1139 1264 bf 6 5 1145 1264 bf 6 5 1163 1264 bf 6 5 1211 1264 bf 6 5 1277 1264 bf 6 5 1289 1264 bf 6 5
 1301 1264 bf 6 5 1349 1264 bf 6 5 1379 1264 bf 6 5 1385 1264 bf 6 5 1481 1264 bf 6 5 1505 1264 bf 6 5 1523 1264 bf 0 0.733333 1 c 6 5 1529 1264 bf 0 1 0.52 c 6 5 1535 1264 bf 0 0.733333 1 c 6 5 1541 1264 bf 0 1 0.52 c 6 5 1547 1264 bf 0 0.0800001 1
 c 6 5 1559 1264 bf 0 0.733333 1 c 6 5 1565 1264 bf 0 0.0800001 1 c 6 5 1571 1264 bf 0 1 0.52 c 6 5 1577 1264 bf 0 0.0800001 1 c 6 5 1583 1264 bf 6 5 1589 1264 bf 6 5 1595 1264 bf 6 5 1625 1264 bf 6 6 1037 1269 bf 0 0.733333 1 c 6 6 1103 1269 bf 0
 0.0800001 1 c 6 6 1109 1269 bf 6 6 1115 1269 bf 0.133333 1 0 c 6 6 1121 1269 bf 0 1 0.52 c 6 6 1127 1269 bf 1 0.466667 0 c 6 6 1133 1269 bf 0 0.733333 1 c 6 6 1145 1269 bf 0 0.0800001 1 c 6 6 1151 1269 bf 6 6 1157 1269 bf 6 6 1169 1269 bf 6 6 1265
 1269 bf 6 6 1289 1269 bf 6 6 1343 1269 bf 6 6 1385 1269 bf 6 6 1397 1269 bf 6 6 1403 1269 bf 6 6 1439 1269 bf 6 6 1487 1269 bf 6 6 1517 1269 bf 6 6 1529 1269 bf 6 6 1535 1269 bf 0 0.733333 1 c 6 6 1547 1269 bf 0 0.0800001 1 c 6 6 1553 1269 bf 0
 0.733333 1 c 6 6 1559 1269 bf 6 6 1565 1269 bf 6 6 1571 1269 bf 0 0.0800001 1 c 6 6 1577 1269 bf 0 1 0.52 c 6 6 1583 1269 bf 0 0.0800001 1 c 6 6 1595 1269 bf 6 6 1601 1269 bf 0 0.733333 1 c 6 6 1619 1269 bf 0 0.0800001 1 c 6 6 1661 1269 bf 6 6 1794
 1269 bf 6 5 1043 1275 bf 6 5 1073 1275 bf 6 5 1079 1275 bf 6 5 1097 1275 bf 6 5 1103 1275 bf 0 0.733333 1 c 6 5 1109 1275 bf 0 0.0800001 1 c 6 5 1115 1275 bf 0.88 1 0 c 6 5 1121 1275 bf 0 0.733333 1 c 6 5 1127 1275 bf 0 1 0.52 c 6 5 1133 1275 bf 0
 0.0800001 1 c 6 5 1145 1275 bf 6 5 1157 1275 bf 0 0.733333 1 c 6 5 1169 1275 bf 0 0.0800001 1 c 6 5 1175 1275 bf 6 5 1181 1275 bf 6 5 1199 1275 bf 6 5 1253 1275 bf 6 5 1367 1275 bf 6 5 1385 1275 bf 6 5 1409 1275 bf 6 5 1415 1275 bf 6 5 1469 1275 bf
 6 5 1475 1275 bf 6 5 1511 1275 bf 6 5 1517 1275 bf 6 5 1523 1275 bf 6 5 1535 1275 bf 0 0.733333 1 c 6 5 1541 1275 bf 0 0.0800001 1 c 6 5 1547 1275 bf 0 0.733333 1 c 6 5 1553 1275 bf 0 0.0800001 1 c 6 5 1559 1275 bf 0 0.733333 1 c 6 5 1565 1275 bf 0
 1 0.52 c 6 5 1571 1275 bf 0 0.0800001 1 c 6 5 1583 1275 bf 6 5 1589 1275 bf 6 5 1595 1275 bf 6 5 1601 1275 bf 6 5 1643 1275 bf 6 5 1055 1280 bf 6 5 1061 1280 bf 6 5 1085 1280 bf 6 5 1103 1280 bf 6 5 1109 1280 bf 0 0.733333 1 c 6 5 1115 1280 bf 0
 0.0800001 1 c 6 5 1121 1280 bf 6 5 1127 1280 bf 6 5 1133 1280 bf 6 5 1139 1280 bf 6 5 1145 1280 bf 0 0.733333 1 c 6 5 1151 1280 bf 0 1 0.52 c 6 5 1157 1280 bf 0 0.0800001 1 c 6 5 1181 1280 bf 0 0.733333 1 c 6 5 1199 1280 bf 0 0.0800001 1 c 6 5 1217
 1280 bf 6 5 1223 1280 bf 6 5 1241 1280 bf 6 5 1277 1280 bf 6 5 1457 1280 bf 6 5 1499 1280 bf 0 0.733333 1 c 6 5 1511 1280 bf 0 0.0800001 1 c 6 5 1517 1280 bf 0 1 0.52 c 6 5 1523 1280 bf 0 0.733333 1 c 6 5 1529 1280 bf 6 5 1535 1280 bf 0.133333 1 0 c
 6 5 1553 1280 bf 0 0.0800001 1 c 6 5 1559 1280 bf 0 0.733333 1 c 6 5 1577 1280 bf 6 5 1595 1280 bf 0 0.0800001 1 c 6 5 1649 1280 bf 6 5 1697 1280 bf 6 5 1721 1280 bf 6 5 1013 1285 bf 6 5 1067 1285 bf 6 5 1103 1285 bf 6 5 1109 1285 bf 0 1 0.52 c 6 5
 1115 1285 bf 0 0.733333 1 c 6 5 1121 1285 bf 0 1 0.52 c 6 5 1133 1285 bf 0 0.0800001 1 c 6 5 1139 1285 bf 6 5 1145 1285 bf 6 5 1157 1285 bf 6 5 1169 1285 bf 0 0.733333 1 c 6 5 1181 1285 bf 0 0.0800001 1 c 6 5 1193 1285 bf 6 5 1247 1285 bf 6 5 1331
 1285 bf 0 0.733333 1 c 6 5 1355 1285 bf 0 0.0800001 1 c 6 5 1415 1285 bf 6 5 1421 1285 bf 6 5 1457 1285 bf 6 5 1505 1285 bf 6 5 1517 1285 bf 6 5 1529 1285 bf 0 1 0.52 c 6 5 1535 1285 bf 0 0.0800001 1 c 6 5 1547 1285 bf 0 1 0.52 c 6 5 1553 1285 bf 0
 0.733333 1 c 6 5 1559 1285 bf 0 0.0800001 1 c 6 5 1577 1285 bf 6 5 1583 1285 bf 6 5 1589 1285 bf 0 0.733333 1 c 6 5 1595 1285 bf 0 0.0800001 1 c 6 5 1607 1285 bf 6 5 1685 1285 bf 6 5 1703 1285 bf 6 6 1085 1290 bf 0 0.733333 1 c 6 6 1097 1290 bf 0
 0.0800001 1 c 6 6 1103 1290 bf 0 0.733333 1 c 6 6 1109 1290 bf 0 0.0800001 1 c 6 6 1115 1290 bf 0 1 0.52 c 6 6 1127 1290 bf 0 0.0800001 1 c 6 6 1133 1290 bf 0 0.733333 1 c 6 6 1139 1290 bf 0 0.0800001 1 c 6 6 1157 1290 bf 6 6 1169 1290 bf 6 6 1181
 1290 bf 6 6 1187 1290 bf 6 6 1193 1290 bf 6 6 1307 1290 bf 6 6 1427 1290 bf 6 6 1457 1290 bf 0 1 0.52 c 6 6 1505 1290 bf 0 0.0800001 1 c 6 6 1511 1290 bf 6 6 1535 1290 bf 6 6 1541 1290 bf 6 6 1547 1290 bf 0 0.733333 1 c 6 6 1553 1290 bf 0 1 0.52 c 6
 6 1559 1290 bf 0.88 1 0 c 6 6 1565 1290 bf 0 0.0800001 1 c 6 6 1571 1290 bf 6 6 1577 1290 bf 6 6 1595 1290 bf 0 0.733333 1 c 6 6 1625 1290 bf 0 0.0800001 1 c 6 6 1643 1290 bf 6 5 959 1296 bf 6 5 1037 1296 bf 6 5 1043 1296 bf 0 0.733333 1 c 6 5 1067
 1296 bf 6 5 1079 1296 bf 0 0.0800001 1 c 6 5 1091 1296 bf 6 5 1103 1296 bf 6 5 1109 1296 bf 0 1 0.52 c 6 5 1115 1296 bf 0 0.0800001 1 c 6 5 1121 1296 bf 0 0.733333 1 c 6 5 1127 1296 bf 6 5 1139 1296 bf 6 5 1145 1296 bf 0 0.0800001 1 c 6 5 1157 1296
 bf 6 5 1163 1296 bf 6 5 1187 1296 bf 6 5 1193 1296 bf 6 5 1223 1296 bf 0 0.733333 1 c 6 5 1283 1296 bf 0 0.0800001 1 c 6 5 1319 1296 bf 6 5 1439 1296 bf 6 5 1463 1296 bf 6 5 1481 1296 bf 6 5 1523 1296 bf 6 5 1529 1296 bf 6 5 1541 1296 bf 6 5 1547
 1296 bf 0 0.733333 1 c 6 5 1553 1296 bf 6 5 1559 1296 bf 0 0.0800001 1 c 6 5 1571 1296 bf 0 0.733333 1 c 6 5 1577 1296 bf 6 5 1601 1296 bf 0 0.0800001 1 c 6 5 1607 1296 bf 6 5 1643 1296 bf 6 5 1091 1301 bf 6 5 1097 1301 bf 0 0.733333 1 c 6 5 1103
 1301 bf 0.88 1 0 c 6 5 1109 1301 bf 0 0.0800001 1 c 6 5 1115 1301 bf 6 5 1121 1301 bf 0 0.733333 1 c 6 5 1127 1301 bf 0 0.0800001 1 c 6 5 1133 1301 bf 0 1 0.52 c 6 5 1139 1301 bf 0 0.0800001 1 c 6 5 1157 1301 bf 6 5 1163 1301 bf 6 5 1193 1301 bf 6 5
 1223 1301 bf 6 5 1259 1301 bf 6 5 1433 1301 bf 6 5 1463 1301 bf 6 5 1499 1301 bf 0 0.733333 1 c 6 5 1523 1301 bf 0 0.0800001 1 c 6 5 1535 1301 bf 0 0.733333 1 c 6 5 1541 1301 bf 0 0.0800001 1 c 6 5 1547 1301 bf 6 5 1553 1301 bf 0 1 0.52 c 6 5 1559
 1301 bf 0 0.0800001 1 c 6 5 1565 1301 bf 6 5 1577 1301 bf 6 5 1595 1301 bf 6 5 1758 1301 bf 6 5 929 1306 bf 6 5 1079 1306 bf 0 0.733333 1 c 6 5 1115 1306 bf 0 0.0800001 1 c 6 5 1121 1306 bf 0 1 0.52 c 6 5 1127 1306 bf 6 5 1133 1306 bf 0 0.0800001 1
 c 6 5 1139 1306 bf 6 5 1145 1306 bf 6 5 1157 1306 bf 6 5 1163 1306 bf 6 5 1193 1306 bf 6 5 1205 1306 bf 6 5 1229 1306 bf 6 5 1523 1306 bf 0 0.733333 1 c 6 5 1529 1306 bf 0 0.0800001 1 c 6 5 1541 1306 bf 6 5 1547 1306 bf 0 1 0.52 c 6 5 1553 1306 bf 0
 0.0800001 1 c 6 5 1559 1306 bf 0 1 0.52 c 6 5 1571 1306 bf 0 0.0800001 1 c 6 5 1577 1306 bf 6 5 1601 1306 bf 6 5 1619 1306 bf 0 0.733333 1 c 6 5 1667 1306 bf 0 0.0800001 1 c 6 6 1043 1311 bf 6 6 1073 1311 bf 6 6 1097 1311 bf 6 6 1103 1311 bf 6 6
 1115 1311 bf 6 6 1121 1311 bf 6 6 1139 1311 bf 0 0.733333 1 c 6 6 1145 1311 bf 6 6 1151 1311 bf 0 0.0800001 1 c 6 6 1157 1311 bf 6 6 1169 1311 bf 6 6 1187 1311 bf 6 6 1385 1311 bf 6 6 1439 1311 bf 6 6 1445 1311 bf 6 6 1529 1311 bf 0 0.733333 1 c 6 6
 1541 1311 bf 0 1 0.52 c 6 6 1547 1311 bf 0 0.0800001 1 c 6 6 1559 1311 bf 0 0.733333 1 c 6 6 1565 1311 bf 0.133333 1 0 c 6 6 1571 1311 bf 0 0.0800001 1 c 6 6 1577 1311 bf 0 0.733333 1 c 6 6 1583 1311 bf 0 0.0800001 1 c 6 6 1595 1311 bf 6 6 1607 1311
 bf 6 5 1019 1317 bf 6 5 1091 1317 bf 6 5 1097 1317 bf 0.133333 1 0 c 6 5 1115 1317 bf 0 0.733333 1 c 6 5 1121 1317 bf 0 1 0.52 c 6 5 1127 1317 bf 0 0.733333 1 c 6 5 1133 1317 bf 0 1 0.52 c 6 5 1139 1317 bf 0.133333 1 0 c 6 5 1145 1317 bf 0 0.733333
 1 c 6 5 1175 1317 bf 0 0.0800001 1 c 6 5 1187 1317 bf 6 5 1337 1317 bf 6 5 1523 1317 bf 6 5 1541 1317 bf 6 5 1547 1317 bf 0 0.733333 1 c 6 5 1559 1317 bf 0 0.0800001 1 c 6 5 1565 1317 bf 6 5 1577 1317 bf 6 5 1583 1317 bf 6 5 995 1322 bf 6 5 1061
 1322 bf 6 5 1091 1322 bf 6 5 1103 1322 bf 6 5 1109 1322 bf 0.133333 1 0 c 6 5 1115 1322 bf 0 0.0800001 1 c 6 5 1121 1322 bf 0 0.733333 1 c 6 5 1127 1322 bf 0 0.0800001 1 c 6 5 1133 1322 bf 6 5 1139 1322 bf 0 0.733333 1 c 6 5 1145 1322 bf 6 5 1151
 1322 bf 0 0.0800001 1 c 6 5 1157 1322 bf 0 0.733333 1 c 6 5 1163 1322 bf 0 0.0800001 1 c 6 5 1187 1322 bf 6 5 1199 1322 bf 6 5 1241 1322 bf 6 5 1415 1322 bf 6 5 1523 1322 bf 6 5 1529 1322 bf 0 0.733333 1 c 6 5 1535 1322 bf 0 0.0800001 1 c 6 5 1547
 1322 bf 6 5 1553 1322 bf 6 5 1559 1322 bf 6 5 1613 1322 bf 6 5 1049 1327 bf 6 5 1073 1327 bf 6 5 1085 1327 bf 0 0.733333 1 c 6 5 1097 1327 bf 6 5 1115 1327 bf 0 1 0.52 c 6 5 1121 1327 bf 0 0.733333 1 c 6 5 1127 1327 bf 0 0.0800001 1 c 6 5 1139 1327
 bf 6 5 1157 1327 bf 6 5 1169 1327 bf 0 0.733333 1 c 6 5 1175 1327 bf 6 5 1181 1327 bf 0 0.0800001 1 c 6 5 1235 1327 bf 6 5 1469 1327 bf 6 5 1481 1327 bf 6 5 1487 1327 bf 6 5 1511 1327 bf 6 5 1523 1327 bf 6 5 1541 1327 bf 6 5 1565 1327 bf 6 5 1571
 1327 bf 6 5 1577 1327 bf 6 5 1583 1327 bf 0 0.733333 1 c 6 5 1589 1327 bf 0 0.0800001 1 c 6 5 1607 1327 bf 6 5 1613 1327 bf 6 5 1619 1327 bf 6 5 1830 1327 bf 6 6 893 1332 bf 6 6 1103 1332 bf 0 0.733333 1 c 6 6 1109 1332 bf 0 0.0800001 1 c 6 6 1115
 1332 bf 0 1 0.52 c 6 6 1121 1332 bf 0 0.733333 1 c 6 6 1127 1332 bf 0 0.0800001 1 c 6 6 1133 1332 bf 6 6 1157 1332 bf 6 6 1181 1332 bf 6 6 1187 1332 bf 6 6 1295 1332 bf 6 6 1325 1332 bf 6 6 1481 1332 bf 6 6 1511 1332 bf 6 6 1517 1332 bf 6 6 1541
 1332 bf 6 6 1553 1332 bf 6 6 1559 1332 bf 6 6 1565 1332 bf 0 0.733333 1 c 6 6 1577 1332 bf 0 1 0.52 c 6 6 1589 1332 bf 0 0.0800001 1 c 6 6 1643 1332 bf 6 5 1049 1338 bf 6 5 1091 1338 bf 6 5 1115 1338 bf 6 5 1121 1338 bf 6 5 1127 1338 bf 0 0.733333 1
 c 6 5 1133 1338 bf 6 5 1139 1338 bf 0 0.0800001 1 c 6 5 1145 1338 bf 6 5 1151 1338 bf 6 5 1157 1338 bf 6 5 1169 1338 bf 6 5 1211 1338 bf 6 5 1487 1338 bf 0 1 0.52 c 6 5 1553 1338 bf 0 0.733333 1 c 6 5 1565 1338 bf 6 5 1571 1338 bf 6 5 1577 1338 bf 0
 0.0800001 1 c 6 5 1613 1338 bf 6 5 1037 1343 bf 6 5 1067 1343 bf 6 5 1091 1343 bf 0 1 0.52 c 6 5 1109 1343 bf 1 0.466667 0 c 6 5 1115 1343 bf 0 0.733333 1 c 6 5 1127 1343 bf 0 0.0800001 1 c 6 5 1133 1343 bf 0 0.733333 1 c 6 5 1139 1343 bf 0
 0.0800001 1 c 6 5 1145 1343 bf 6 5 1151 1343 bf 0 1 0.52 c 6 5 1157 1343 bf 0 0.733333 1 c 6 5 1175 1343 bf 0 0.0800001 1 c 6 5 1385 1343 bf 6 5 1535 1343 bf 0 0.733333 1 c 6 5 1547 1343 bf 0 0.0800001 1 c 6 5 1559 1343 bf 0 0.733333 1 c 6 5 1565
 1343 bf 0 0.0800001 1 c 6 5 1571 1343 bf 0 0.733333 1 c 6 5 1577 1343 bf 0 1 0.52 c 6 5 1589 1343 bf 0 0.0800001 1 c 6 5 1667 1343 bf 6 6 905 1348 bf 6 6 1091 1348 bf 6 6 1097 1348 bf 6 6 1109 1348 bf 6 6 1115 1348 bf 6 6 1121 1348 bf 0.88 1 0 c 6 6
 1133 1348 bf 0 0.0800001 1 c 6 6 1139 1348 bf 6 6 1145 1348 bf 6 6 1151 1348 bf 0 0.733333 1 c 6 6 1157 1348 bf 0 0.0800001 1 c 6 6 1163 1348 bf 6 6 1169 1348 bf 6 6 1181 1348 bf 6 6 1193 1348 bf 6 6 1205 1348 bf 6 6 1223 1348 bf 6 6 1241 1348 bf 6
 6 1373 1348 bf 6 6 1439 1348 bf 6 6 1499 1348 bf 6 6 1529 1348 bf 6 6 1541 1348 bf 6 6 1547 1348 bf 0 0.733333 1 c 6 6 1565 1348 bf 6 6 1571 1348 bf 0 0.0800001 1 c 6 6 1577 1348 bf 6 6 1595 1348 bf 6 6 1601 1348 bf 6 6 1625 1348 bf 6 6 1637 1348 bf
 6 6 1733 1348 bf 0 1 0.52 c 6 5 1097 1354 bf 0 0.0800001 1 c 6 5 1103 1354 bf 6 5 1109 1354 bf 0 0.733333 1 c 6 5 1115 1354 bf 0 0.0800001 1 c 6 5 1121 1354 bf 0 0.733333 1 c 6 5 1127 1354 bf 6 5 1133 1354 bf 0 0.0800001 1 c 6 5 1241 1354 bf 6 5
 1259 1354 bf 6 5 1505 1354 bf 6 5 1511 1354 bf 0 0.733333 1 c 6 5 1523 1354 bf 0 0.0800001 1 c 6 5 1529 1354 bf 6 5 1535 1354 bf 0 0.733333 1 c 6 5 1541 1354 bf 0 0.0800001 1 c 6 5 1547 1354 bf 6 5 1565 1354 bf 0.133333 1 0 c 6 5 1571 1354 bf 0
 0.0800001 1 c 6 5 1583 1354 bf 6 5 1619 1354 bf 6 5 1055 1359 bf 6 5 1061 1359 bf 6 5 1127 1359 bf 0 0.733333 1 c 6 5 1139 1359 bf 6 5 1145 1359 bf 0 0.0800001 1 c 6 5 1151 1359 bf 6 5 1157 1359 bf 6 5 1295 1359 bf 6 5 1541 1359 bf 6 5 1547 1359 bf
 0 0.733333 1 c 6 5 1553 1359 bf 0 0.0800001 1 c 6 5 1583 1359 bf 0 0.733333 1 c 6 5 1601 1359 bf 0 0.0800001 1 c 6 5 1625 1359 bf 6 5 1739 1359 bf 6 5 1061 1364 bf 6 5 1079 1364 bf 6 5 1091 1364 bf 6 5 1097 1364 bf 0 0.733333 1 c 6 5 1115 1364 bf 0
 0.0800001 1 c 6 5 1121 1364 bf 0 0.733333 1 c 6 5 1127 1364 bf 6 5 1133 1364 bf 6 5 1139 1364 bf 6 5 1151 1364 bf 6 5 1157 1364 bf 6 5 1163 1364 bf 0 0.0800001 1 c 6 5 1169 1364 bf 6 5 1211 1364 bf 6 5 1289 1364 bf 6 5 1373 1364 bf 6 5 1445 1364 bf
 6 5 1511 1364 bf 0 0.733333 1 c 6 5 1517 1364 bf 0 0.0800001 1 c 6 5 1535 1364 bf 6 5 1541 1364 bf 0 0.733333 1 c 6 5 1547 1364 bf 0 1 0.52 c 6 5 1553 1364 bf 0 0.0800001 1 c 6 5 1571 1364 bf 0 0.733333 1 c 6 5 1601 1364 bf 0 0.0800001 1 c 6 6 1055
 1369 bf 6 6 1127 1369 bf 6 6 1133 1369 bf 0 0.733333 1 c 6 6 1139 1369 bf 0 0.0800001 1 c 6 6 1169 1369 bf 6 6 1175 1369 bf 6 6 1403 1369 bf 6 6 1463 1369 bf 6 6 1511 1369 bf 6 6 1559 1369 bf 6 6 1565 1369 bf 6 6 1595 1369 bf 6 5 989 1375 bf 6 5
 1013 1375 bf 6 5 1091 1375 bf 6 5 1103 1375 bf 0 0.733333 1 c 6 5 1115 1375 bf 0 0.0800001 1 c 6 5 1121 1375 bf 6 5 1127 1375 bf 6 5 1133 1375 bf 6 5 1139 1375 bf 6 5 1151 1375 bf 6 5 1163 1375 bf 6 5 1475 1375 bf 6 5 1511 1375 bf 6 5 1535 1375 bf 6
 5 1547 1375 bf 6 5 1553 1375 bf 6 5 1559 1375 bf 6 5 1571 1375 bf 6 5 1577 1375 bf 6 5 1607 1375 bf 6 5 1079 1380 bf 6 5 1091 1380 bf 0 0.733333 1 c 6 5 1103 1380 bf 0 0.0800001 1 c 6 5 1127 1380 bf 0 0.733333 1 c 6 5 1133 1380 bf 0 0.0800001 1 c 6
 5 1139 1380 bf 6 5 1145 1380 bf 6 5 1223 1380 bf 6 5 1277 1380 bf 6 5 1559 1380 bf 6 5 1577 1380 bf 6 5 1583 1380 bf 6 5 1595 1380 bf 0 0.733333 1 c 6 5 1049 1385 bf 0 0.0800001 1 c 6 5 1079 1385 bf 6 5 1097 1385 bf 6 5 1115 1385 bf 6 5 1127 1385 bf
 6 5 1139 1385 bf 0 1 0.52 c 6 5 1145 1385 bf 0 0.733333 1 c 6 5 1163 1385 bf 0 0.0800001 1 c 6 5 1193 1385 bf 6 5 1199 1385 bf 6 5 1391 1385 bf 6 5 1463 1385 bf 6 5 1547 1385 bf 6 5 1571 1385 bf 6 5 1583 1385 bf 6 5 1619 1385 bf 6 6 935 1390 bf 6 6
 1031 1390 bf 0 1 0.52 c 6 6 1115 1390 bf 0 0.0800001 1 c 6 6 1121 1390 bf 0 1 0.52 c 6 6 1133 1390 bf 0 0.0800001 1 c 6 6 1139 1390 bf 6 6 1145 1390 bf 6 6 1157 1390 bf 6 6 1505 1390 bf 6 6 1541 1390 bf 6 6 1553 1390 bf 6 6 1625 1390 bf 6 6 1631
 1390 bf 0 1 0.52 c 6 5 1097 1396 bf 0 0.0800001 1 c 6 5 1109 1396 bf 6 5 1127 1396 bf 6 5 1133 1396 bf 6 5 1157 1396 bf 6 5 1223 1396 bf 6 5 1367 1396 bf 6 5 1493 1396 bf 0 0.733333 1 c 6 5 1541 1396 bf 0 0.0800001 1 c 6 5 1565 1396 bf 6 5 1571 1396
 bf 6 5 1589 1396 bf 6 5 725 1401 bf 6 5 1055 1401 bf 6 5 1103 1401 bf 6 5 1109 1401 bf 0 0.733333 1 c 6 5 1115 1401 bf 0.133333 1 0 c 6 5 1121 1401 bf 0 0.0800001 1 c 6 5 1151 1401 bf 6 5 1205 1401 bf 6 5 1337 1401 bf 6 5 1463 1401 bf 0 1 0.52 c 6 5
 1559 1401 bf 0 0.0800001 1 c 6 5 1679 1401 bf 6 5 1061 1406 bf 0 0.733333 1 c 6 5 1097 1406 bf 0 0.0800001 1 c 6 5 1103 1406 bf 0 0.733333 1 c 6 5 1109 1406 bf 6 5 1127 1406 bf 0 0.0800001 1 c 6 5 1133 1406 bf 0 0.733333 1 c 6 5 1151 1406 bf 0
 0.0800001 1 c 6 5 1157 1406 bf 6 5 1199 1406 bf 6 5 1295 1406 bf 6 5 1325 1406 bf 6 5 1553 1406 bf 6 6 1073 1411 bf 6 6 1091 1411 bf 6 6 1097 1411 bf 6 6 1133 1411 bf 6 6 1139 1411 bf 6 6 1145 1411 bf 6 6 1205 1411 bf 6 6 1529 1411 bf 6 6 1559 1411
 bf 0 0.733333 1 c 6 6 1565 1411 bf 6 6 1577 1411 bf 0 0.0800001 1 c 6 5 1055 1417 bf 6 5 1121 1417 bf 6 5 1139 1417 bf 6 5 1181 1417 bf 6 5 1559 1417 bf 6 5 1601 1417 bf 6 5 1685 1417 bf 6 5 1709 1417 bf 6 5 1091 1422 bf 6 5 1121 1422 bf 6 5 1133
 1422 bf 6 5 1139 1422 bf 6 5 1547 1422 bf 6 5 1553 1422 bf 6 5 1559 1422 bf 6 5 1595 1422 bf 6 5 887 1427 bf 6 5 1055 1427 bf 6 5 1151 1427 bf 6 5 1547 1427 bf 6 6 1049 1432 bf 0 0.733333 1 c 6 6 1145 1432 bf 0 0.0800001 1 c 6 6 1163 1432 bf 6 6
 1169 1432 bf 6 6 1337 1432 bf 6 6 1547 1432 bf 6 6 1553 1432 bf 6 6 1565 1432 bf 6 5 1127 1438 bf 6 5 1535 1438 bf 6 5 1001 1443 bf 6 5 1091 1443 bf 6 5 1133 1443 bf 6 5 1145 1443 bf 6 6 1037 1448 bf 6 6 1115 1448 bf 6 6 1121 1448 bf 6 6 1139 1448
 bf 6 6 1565 1448 bf 6 6 1643 1448 bf 6 5 1139 1454 bf 6 5 1175 1454 bf 6 5 1091 1459 bf 6 5 1109 1459 bf 6 5 1115 1459 bf 6 5 1169 1459 bf 6 5 1097 1485 bf 6 5 1121 1501 bf 0.49 0.6 0.82 c black 311 322 m 1801 X s 575 373 m -51 Y s 647 347 m -25 Y s
 720 347 m -25 Y s 792 347 m -25 Y s 865 373 m -51 Y s 937 347 m -25 Y s 1010 347 m -25 Y s 1082 347 m -25 Y s 1154 373 m -51 Y s 1227 347 m -25 Y s 1299 347 m -25 Y s 1372 347 m -25 Y s 1444 373 m -51 Y s 1517 347 m -25 Y s 1589 347 m -25 Y s 1662
 347 m -25 Y s 1734 373 m -51 Y s 1807 347 m -25 Y s 1879 347 m -25 Y s 1952 347 m -25 Y s 2024 373 m -51 Y s 575 373 m -51 Y s 502 347 m -25 Y s 430 347 m -25 Y s 357 347 m -25 Y s 2024 373 m -51 Y s 2097 347 m -25 Y s
 gsave  2222 2089 23 21 C 564.08 222.213 t 0 r /Helvetica findfont 91.294 sf 0 0 m (6) show NC gr 
 gsave  2222 2089 23 21 C 518.498 222.213 t 0 r /Symbol findfont 91.294 sf 0 0 m (-) show NC gr 
 gsave  2222 2089 23 21 C 854.667 222.213 t 0 r /Helvetica findfont 91.294 sf 0 0 m (4) show NC gr 
 gsave  2222 2089 23 21 C 809.085 222.213 t 0 r /Symbol findfont 91.294 sf 0 0 m (-) show NC gr 
 gsave  2222 2089 23 21 C 1145.25 222.213 t 0 r /Helvetica findfont 91.294 sf 0 0 m (2) show NC gr 
 gsave  2222 2089 23 21 C 1099.67 222.213 t 0 r /Symbol findfont 91.294 sf 0 0 m (-) show NC gr 
 gsave  2222 2089 23 21 C 1413.05 222.213 t 0 r /Helvetica findfont 91.294 sf 0 0 m (0) show NC gr 
 gsave  2222 2089 23 21 C 1703.64 222.213 t 0 r /Helvetica findfont 91.294 sf 0 0 m (2) show NC gr 
 gsave  2222 2089 23 21 C 1994.22 222.213 t 0 r /Helvetica findfont 91.294 sf 0 0 m (4) show NC gr 
 gsave  2222 2089 23 21 C 1168.04 62.6756 t 0 r /Helvetica findfont 102.706 sf 0 0 m (Variable 1 \(PCA\)  [F]) show NC gr  311 1901 m 1801 X s 575 1850 m 51 Y s 647 1875 m 26 Y s 720 1875 m 26 Y s 792 1875 m 26 Y s 865 1850 m 51 Y s 937 1875 m 26 Y s
 1010 1875 m 26 Y s 1082 1875 m 26 Y s 1154 1850 m 51 Y s 1227 1875 m 26 Y s 1299 1875 m 26 Y s 1372 1875 m 26 Y s 1444 1850 m 51 Y s 1517 1875 m 26 Y s 1589 1875 m 26 Y s 1662 1875 m 26 Y s 1734 1850 m 51 Y s 1807 1875 m 26 Y s 1879 1875 m 26 Y s
 1952 1875 m 26 Y s 2024 1850 m 51 Y s 575 1850 m 51 Y s 502 1875 m 26 Y s 430 1875 m 26 Y s 357 1875 m 26 Y s 2024 1850 m 51 Y s 2097 1875 m 26 Y s 311 322 m 1579 Y s 361 458 m -50 X s 336 502 m -25 X s 336 547 m -25 X s 336 591 m -25 X s 336 635 m
 -25 X s 361 679 m -50 X s 336 723 m -25 X s 336 768 m -25 X s 336 812 m -25 X s 336 856 m -25 X s 361 900 m -50 X s 336 944 m -25 X s 336 988 m -25 X s 336 1033 m -25 X s 336 1077 m -25 X s 361 1121 m -50 X s 336 1165 m -25 X s 336 1209 m -25 X s
 336 1254 m -25 X s 336 1298 m -25 X s 361 1342 m -50 X s 336 1386 m -25 X s 336 1430 m -25 X s 336 1475 m -25 X s 336 1519 m -25 X s 361 1563 m -50 X s 336 1607 m -25 X s 336 1651 m -25 X s 336 1695 m -25 X s 336 1740 m -25 X s 361 1784 m -50 X s
 361 458 m -50 X s 336 414 m -25 X s 336 370 m -25 X s 336 326 m -25 X s 361 1784 m -50 X s 336 1828 m -25 X s 336 1872 m -25 X s
 gsave  2222 2089 23 21 C 227.911 427.334 t 0 r /Helvetica findfont 91.294 sf 0 0 m (3) show NC gr 
 gsave  2222 2089 23 21 C 176.631 427.334 t 0 r /Symbol findfont 91.294 sf 0 0 m (-) show NC gr 
 gsave  2222 2089 23 21 C 227.911 643.849 t 0 r /Helvetica findfont 91.294 sf 0 0 m (2) show NC gr 
 gsave  2222 2089 23 21 C 176.631 643.849 t 0 r /Symbol findfont 91.294 sf 0 0 m (-) show NC gr 
 gsave  2222 2089 23 21 C 245.005 860.365 t 0 r /Helvetica findfont 91.294 sf 0 0 m (1) show NC gr 
 gsave  2222 2089 23 21 C 193.725 860.365 t 0 r /Symbol findfont 91.294 sf 0 0 m (-) show NC gr 
 gsave  2222 2089 23 21 C 227.911 1088.28 t 0 r /Helvetica findfont 91.294 sf 0 0 m (0) show NC gr 
 gsave  2222 2089 23 21 C 245.005 1304.79 t 0 r /Helvetica findfont 91.294 sf 0 0 m (1) show NC gr 
 gsave  2222 2089 23 21 C 227.911 1527.01 t 0 r /Helvetica findfont 91.294 sf 0 0 m (2) show NC gr 
 gsave  2222 2089 23 21 C 227.911 1754.92 t 0 r /Helvetica findfont 91.294 sf 0 0 m (3) show NC gr 
 gsave  2222 2089 23 21 C 102.56 962.925 t 90 r /Helvetica findfont 102.706 sf 0 0 m (Variable 2 \(PCA\)  [F]) show NC gr  2112 322 m 1579 Y s 2061 458 m 51 X s 2086 502 m 26 X s 2086 547 m 26 X s 2086 591 m 26 X s 2086 635 m 26 X s 2061 679 m 51 X s
 2086 723 m 26 X s 2086 768 m 26 X s 2086 812 m 26 X s 2086 856 m 26 X s 2061 900 m 51 X s 2086 944 m 26 X s 2086 988 m 26 X s 2086 1033 m 26 X s 2086 1077 m 26 X s 2061 1121 m 51 X s 2086 1165 m 26 X s 2086 1209 m 26 X s 2086 1254 m 26 X s 2086 1298
 m 26 X s 2061 1342 m 51 X s 2086 1386 m 26 X s 2086 1430 m 26 X s 2086 1475 m 26 X s 2086 1519 m 26 X s 2061 1563 m 51 X s 2086 1607 m 26 X s 2086 1651 m 26 X s 2086 1695 m 26 X s 2086 1740 m 26 X s 2061 1784 m 51 X s 2061 458 m 51 X s 2086 414 m 26
 X s 2086 370 m 26 X s 2086 326 m 26 X s 2061 1784 m 51 X s 2086 1828 m 26 X s 2086 1872 m 26 X s 1 0 0 c 0.81 0.37 0.38 c 1 0 0 c 311 1223 m 22 X s 333 1223 m 23 X s 311 1211 m 23 Y s 356 1211 m 23 Y s /w 2 def /w2 {w 2 div} def /w3 {w 3 div} def
 333 1223 m20 536 953 m 22 X s 558 953 m 23 X s 536 942 m 22 Y s 581 942 m 22 Y s 558 953 m20 603 1260 m 2 Y s 603 1262 m 1 Y s 581 1262 m 22 X s 603 1262 m 23 X s 592 1260 m 23 X s 592 1263 m 23 X s 581 1250 m 23 Y s 626 1250 m 23 Y s 603 1262 m20
 648 1044 m 53 Y s 648 1097 m 53 Y s 626 1097 m 22 X s 648 1097 m 23 X s 637 1044 m 23 X s 637 1150 m 23 X s 626 1085 m 23 Y s 671 1085 m 23 Y s 648 1097 m20 671 878 m 22 X s 693 878 m 23 X s 671 866 m 23 Y s 716 866 m 23 Y s 693 878 m20 716 1401 m
 22 X s 738 1401 m 23 X s 716 1390 m 23 Y s 761 1390 m 23 Y s 738 1401 m20 783 1087 m 52 Y s 783 1139 m 53 Y s 761 1139 m 22 X s 783 1139 m 23 X s 772 1087 m 23 X s 772 1192 m 23 X s 761 1128 m 23 Y s 806 1128 m 23 Y s 783 1139 m20 828 1000 m 67 Y s
 828 1067 m 67 Y s 806 1067 m 22 X s 828 1067 m 23 X s 817 1000 m 23 X s 817 1134 m 23 X s 806 1056 m 22 Y s 851 1056 m 22 Y s 828 1067 m20 874 1239 m 57 Y s 874 1296 m 57 Y s 851 1296 m 23 X s 874 1296 m 22 X s 862 1239 m 23 X s 862 1353 m 23 X s
 851 1285 m 23 Y s 896 1285 m 23 Y s 874 1296 m20 919 1212 m 41 Y s 919 1253 m 41 Y s 896 1253 m 23 X s 919 1253 m 22 X s 907 1212 m 23 X s 907 1294 m 23 X s 896 1241 m 23 Y s 941 1241 m 23 Y s 919 1253 m20 964 1080 m 36 Y s 964 1116 m 36 Y s 941
 1116 m 23 X s 964 1116 m 22 X s 952 1080 m 23 X s 952 1152 m 23 X s 941 1105 m 22 Y s 986 1105 m 22 Y s 964 1116 m20 1009 1087 m 27 Y s 1009 1114 m 27 Y s 986 1114 m 23 X s 1009 1114 m 22 X s 997 1087 m 23 X s 997 1141 m 23 X s 986 1103 m 23 Y s
 1031 1103 m 23 Y s 1009 1114 m20 1054 1139 m 15 Y s 1054 1154 m 14 Y s 1031 1154 m 23 X s 1054 1154 m 22 X s 1042 1139 m 23 X s 1042 1168 m 23 X s 1031 1142 m 23 Y s 1076 1142 m 23 Y s 1054 1154 m20 1099 1104 m 6 Y s 1099 1110 m 6 Y s 1076 1110 m 23
 X s 1099 1110 m 22 X s 1087 1104 m 23 X s 1087 1116 m 23 X s 1076 1098 m 23 Y s 1121 1098 m 23 Y s 1099 1110 m20 1144 1137 m 5 Y s 1144 1142 m 4 Y s 1121 1142 m 23 X s 1144 1142 m 22 X s 1132 1137 m 23 X s 1132 1146 m 23 X s 1121 1130 m 23 Y s 1166
 1130 m 23 Y s 1144 1142 m20 1189 1119 m 10 Y s 1189 1129 m 10 Y s 1166 1129 m 23 X s 1189 1129 m 22 X s 1177 1119 m 23 X s 1177 1139 m 23 X s 1166 1117 m 23 Y s 1211 1117 m 23 Y s 1189 1129 m20 1234 1067 m 14 Y s 1234 1081 m 14 Y s 1211 1081 m 23 X
 s 1234 1081 m 22 X s 1222 1067 m 23 X s 1222 1095 m 23 X s 1211 1070 m 23 Y s 1256 1070 m 23 Y s 1234 1081 m20 1279 1074 m 18 Y s 1279 1092 m 18 Y s 1256 1092 m 23 X s 1279 1092 m 22 X s 1267 1074 m 23 X s 1267 1110 m 23 X s 1256 1081 m 22 Y s 1301
 1081 m 22 Y s 1279 1092 m20 1324 1094 m 18 Y s 1324 1112 m 18 Y s 1301 1112 m 23 X s 1324 1112 m 22 X s 1312 1094 m 23 X s 1312 1130 m 23 X s 1301 1101 m 22 Y s 1346 1101 m 22 Y s 1324 1112 m20 1369 1083 m 17 Y s 1369 1100 m 16 Y s 1346 1100 m 23 X
 s 1369 1100 m 22 X s 1357 1083 m 23 X s 1357 1116 m 23 X s 1346 1088 m 23 Y s 1391 1088 m 23 Y s 1369 1100 m20 1414 1073 m 17 Y s 1414 1090 m 18 Y s 1391 1090 m 23 X s 1414 1090 m 22 X s 1402 1073 m 23 X s 1402 1108 m 23 X s 1391 1079 m 22 Y s 1436
 1079 m 22 Y s 1414 1090 m20 1459 1084 m 12 Y s 1459 1096 m 13 Y s 1436 1096 m 23 X s 1459 1096 m 22 X s 1447 1084 m 23 X s 1447 1109 m 23 X s 1436 1085 m 23 Y s 1481 1085 m 23 Y s 1459 1096 m20 1504 1078 m 8 Y s 1504 1086 m 9 Y s 1481 1086 m 23 X s
 1504 1086 m 22 X s 1492 1078 m 23 X s 1492 1095 m 23 X s 1481 1075 m 23 Y s 1526 1075 m 23 Y s 1504 1086 m20 1549 1086 m 5 Y s 1549 1091 m 4 Y s 1526 1091 m 23 X s 1549 1091 m 22 X s 1537 1086 m 23 X s 1537 1095 m 23 X s 1526 1079 m 23 Y s 1571 1079
 m 23 Y s 1549 1091 m20 1594 1113 m 7 Y s 1594 1120 m 7 Y s 1571 1120 m 23 X s 1594 1120 m 22 X s 1583 1113 m 22 X s 1583 1127 m 22 X s 1571 1109 m 22 Y s 1616 1109 m 22 Y s 1594 1120 m20 1639 1102 m 14 Y s 1639 1116 m 15 Y s 1616 1116 m 23 X s 1639
 1116 m 22 X s 1628 1102 m 22 X s 1628 1131 m 22 X s 1616 1105 m 23 Y s 1661 1105 m 23 Y s 1639 1116 m20 1684 1083 m 27 Y s 1684 1110 m 28 Y s 1661 1110 m 23 X s 1684 1110 m 22 X s 1673 1083 m 22 X s 1673 1138 m 22 X s 1661 1099 m 23 Y s 1706 1099 m
 23 Y s 1684 1110 m20 1729 1085 m 35 Y s 1729 1120 m 34 Y s 1706 1120 m 23 X s 1729 1120 m 22 X s 1718 1085 m 22 X s 1718 1154 m 22 X s 1706 1108 m 23 Y s 1751 1108 m 23 Y s 1729 1120 m20 1774 1105 m 57 Y s 1774 1162 m 56 Y s 1751 1162 m 23 X s 1774
 1162 m 23 X s 1763 1105 m 22 X s 1763 1218 m 22 X s 1751 1150 m 23 Y s 1797 1150 m 23 Y s 1774 1162 m20 1819 1244 m 26 Y s 1819 1270 m 26 Y s 1797 1270 m 22 X s 1819 1270 m 23 X s 1808 1244 m 22 X s 1808 1296 m 22 X s 1797 1259 m 23 Y s 1842 1259 m
 23 Y s 1819 1270 m20 1864 1003 m 70 Y s 1864 1073 m 69 Y s 1842 1073 m 22 X s 1864 1073 m 23 X s 1853 1003 m 22 X s 1853 1142 m 22 X s 1842 1061 m 23 Y s 1887 1061 m 23 Y s 1864 1073 m20 1909 992 m 39 Y s 1909 1031 m 38 Y s 1887 1031 m 22 X s 1909
 1031 m 23 X s 1898 992 m 22 X s 1898 1069 m 22 X s 1887 1019 m 23 Y s 1932 1019 m 23 Y s 1909 1031 m20 1977 1166 m 22 X s 1999 1166 m 23 X s 1977 1155 m 23 Y s 2022 1155 m 23 Y s 1999 1166 m20 black 311 322 m 1801 X s 575 373 m -51 Y s 647 347 m -25
 Y s 720 347 m -25 Y s 792 347 m -25 Y s 865 373 m -51 Y s 937 347 m -25 Y s 1010 347 m -25 Y s 1082 347 m -25 Y s 1154 373 m -51 Y s 1227 347 m -25 Y s 1299 347 m -25 Y s 1372 347 m -25 Y s 1444 373 m -51 Y s 1517 347 m -25 Y s 1589 347 m -25 Y s
 1662 347 m -25 Y s 1734 373 m -51 Y s 1807 347 m -25 Y s 1879 347 m -25 Y s 1952 347 m -25 Y s 2024 373 m -51 Y s 575 373 m -51 Y s 502 347 m -25 Y s 430 347 m -25 Y s 357 347 m -25 Y s 2024 373 m -51 Y s 2097 347 m -25 Y s 311 1901 m 1801 X s 575
 1850 m 51 Y s 647 1875 m 26 Y s 720 1875 m 26 Y s 792 1875 m 26 Y s 865 1850 m 51 Y s 937 1875 m 26 Y s 1010 1875 m 26 Y s 1082 1875 m 26 Y s 1154 1850 m 51 Y s 1227 1875 m 26 Y s 1299 1875 m 26 Y s 1372 1875 m 26 Y s 1444 1850 m 51 Y s 1517 1875 m
 26 Y s 1589 1875 m 26 Y s 1662 1875 m 26 Y s 1734 1850 m 51 Y s 1807 1875 m 26 Y s 1879 1875 m 26 Y s 1952 1875 m 26 Y s 2024 1850 m 51 Y s 575 1850 m 51 Y s 502 1875 m 26 Y s 430 1875 m 26 Y s 357 1875 m 26 Y s 2024 1850 m 51 Y s 2097 1875 m 26 Y s
 311 322 m 1579 Y s 361 458 m -50 X s 336 502 m -25 X s 336 547 m -25 X s 336 591 m -25 X s 336 635 m -25 X s 361 679 m -50 X s 336 723 m -25 X s 336 768 m -25 X s 336 812 m -25 X s 336 856 m -25 X s 361 900 m -50 X s 336 944 m -25 X s 336 988 m -25
 X s 336 1033 m -25 X s 336 1077 m -25 X s 361 1121 m -50 X s 336 1165 m -25 X s 336 1209 m -25 X s 336 1254 m -25 X s 336 1298 m -25 X s 361 1342 m -50 X s 336 1386 m -25 X s 336 1430 m -25 X s 336 1475 m -25 X s 336 1519 m -25 X s 361 1563 m -50 X
 s 336 1607 m -25 X s 336 1651 m -25 X s 336 1695 m -25 X s 336 1740 m -25 X s 361 1784 m -50 X s 361 458 m -50 X s 336 414 m -25 X s 336 370 m -25 X s 336 326 m -25 X s 361 1784 m -50 X s 336 1828 m -25 X s 336 1872 m -25 X s 2112 322 m 1579 Y s
 2061 458 m 51 X s 2086 502 m 26 X s 2086 547 m 26 X s 2086 591 m 26 X s 2086 635 m 26 X s 2061 679 m 51 X s 2086 723 m 26 X s 2086 768 m 26 X s 2086 812 m 26 X s 2086 856 m 26 X s 2061 900 m 51 X s 2086 944 m 26 X s 2086 988 m 26 X s 2086 1033 m 26
 X s 2086 1077 m 26 X s 2061 1121 m 51 X s 2086 1165 m 26 X s 2086 1209 m 26 X s 2086 1254 m 26 X s 2086 1298 m 26 X s 2061 1342 m 51 X s 2086 1386 m 26 X s 2086 1430 m 26 X s 2086 1475 m 26 X s 2086 1519 m 26 X s 2061 1563 m 51 X s 2086 1607 m 26 X
 s 2086 1651 m 26 X s 2086 1695 m 26 X s 2086 1740 m 26 X s 2061 1784 m 51 X s 2061 458 m 51 X s 2086 414 m 26 X s 2086 370 m 26 X s 2086 326 m 26 X s 2061 1784 m 51 X s 2086 1828 m 26 X s 2086 1872 m 26 X s 0.490196 0.545098 0.615686 c 0.364706
 0.419608 0.490196 c 1556 123 45 1976 bf 0.490196 0.545098 0.615686 c 45 1976 m 1556 X s 1601 1976 m 123 Y s 1601 2099 m -1556 X s 45 2099 m -123 Y s 1 1 1 c black 1 1 1 c
 gsave  2222 2089 23 21 C 108.258 2017.01 t 0 r /Helvetica-Bold findfont 62.7646 sf 0 0 m (Variable 2 versus Variable 1 \(Background\)_PCA) show NC gr 
 gr  gr showpage
end
%%EOF
