%!PS-Adobe-2.0 EPSF-2.0
%%BoundingBox:  0 0 567 533
%%Title: dataset/plots/correlationscatter_y__PCA_c1.eps: Correlation profiles for 'PCA'-transformed signal variables
%%Creator: ROOT Version 6.12/06
%%CreationDate: Mon May 21 12:06:52 2018
%%DocumentNeededResources: ProcSet (FontSetInit)
%%EndComments
%%BeginProlog
80 dict begin
/s {stroke} def /l {lineto} def /m {moveto} def /t {translate} def
/r {rotate} def /rl {roll}  def /R {repeat} def
/d {rlineto} def /rm {rmoveto} def /gr {grestore} def /f {eofill} def
/c {setrgbcolor} def /black {0 setgray} def /sd {setdash} def
/cl {closepath} def /sf {scalefont setfont} def /lw {setlinewidth} def
/box {m dup 0 exch d exch 0 d 0 exch neg d cl} def
/NC{systemdict begin initclip end}def/C{NC box clip newpath}def
/bl {box s} def /bf {gsave box gsave f grestore 1 lw [] 0 sd s grestore} def /Y { 0 exch d} def /X { 0 d} def 
/K {{pop pop 0 moveto} exch kshow} bind def
/ita {/ang 15 def gsave [1 0 ang dup sin exch cos div 1 0 0] concat} def 
/mp {newpath /y exch def /x exch def} def
/side {[w .77 mul w .23 mul] .385 w mul sd w 0 l currentpoint t -144 r} def
/mr {mp x y w2 0 360 arc} def /m24 {mr s} def /m20 {mr f} def
/mb {mp x y w2 add m w2 neg 0 d 0 w neg d w 0 d 0 w d cl} def
/mt {mp x y w2 add m w2 neg w neg d w 0 d cl} def
/w4 {w 4 div} def
/w6 {w 6 div} def
/w8 {w 8 div} def
/m21 {mb f} def /m25 {mb s} def /m22 {mt f} def /m26{mt s} def
/m23 {mp x y w2 sub m w2 w d w neg 0 d cl f} def
/m27 {mp x y w2 add m w3 neg w2 neg d w3 w2 neg d w3 w2 d cl s} def
/m28 {mp x w2 sub y w2 sub w3 add m w3 0 d  0 w3 neg d w3 0 d 0 w3 d w3 0 d  0 w3 d w3 neg 0 d 0 w3 d w3 neg 0 d 0 w3 neg d w3 neg 0 d cl s } def
/m29 {mp gsave x w2 sub y w2 add w3 sub m currentpoint t 4 {side} repeat cl fill gr} def
/m30 {mp gsave x w2 sub y w2 add w3 sub m currentpoint t 4 {side} repeat cl s gr} def
/m31 {mp x y w2 sub m 0 w d x w2 sub y m w 0 d x w2 sub y w2 add m w w neg d x w2 sub y w2 sub m w w d s} def
/m32 {mp x y w2 sub m w2 w d w neg 0 d cl s} def
/m33 {mp x y w2 add m w3 neg w2 neg d w3 w2 neg d w3 w2 d cl f} def
/m34 {mp x w2 sub y w2 sub w3 add m w3 0 d  0 w3 neg d w3 0 d 0 w3 d w3 0 d  0 w3 d w3 neg 0 d 0 w3 d w3 neg 0 d 0 w3 neg d w3 neg 0 d cl f } def
/m35 {mp x y w2 add m w2 neg w2 neg d w2 w2 neg d w2 w2 d w2 neg w2 d x y w2 sub m 0 w d x w2 sub y m w 0 d s} def
/m36 {mb x w2 sub y w2 add m w w neg d x w2 sub y w2 sub m w w d s} def
/m37 {mp x y m w4 neg w2 d w4 neg w2 neg d w2 0 d  w4 neg w2 neg d w2 0 d w4 neg w2 d w2 0 d w4 neg w2 d w4 neg w2 neg d cl s} def
/m38 {mp x w4 sub y w2 add m w4 neg w4 neg d 0 w2 neg d w4 w4 neg d w2 0 d w4 w4 d 0 w2 d w4 neg w4 d w2 neg 0 d x y w2 sub m 0 w d x w2 sub y m w 0 d cl s} def
/m39 {mp x y m w4 neg w2 d w4 neg w2 neg d w2 0 d  w4 neg w2 neg d w2 0 d w4 neg w2 d w2 0 d w4 neg w2 d w4 neg w2 neg d cl f} def
/m40 {mp x y m w4 w2 d w4 w4 neg d w2 neg w4 neg d w2 w4 neg d w4 neg w4 neg d w4 neg w2 d w4 neg w2 neg d w4 neg w4 d w2 w4 d w2 neg w4 d w4 w4 d w4 w2 neg d cl s} def
/m41 {mp x y m w4 w2 d w4 w4 neg d w2 neg w4 neg d w2 w4 neg d w4 neg w4 neg d w4 neg w2 d w4 neg w2 neg d w4 neg w4 d w2 w4 d w2 neg w4 d w4 w4 d w4 w2 neg d cl f} def
/m42 {mp x y w2 add m w8 neg w2 -3 4 div mul d w2 -3 4 div mul w8 neg d w2 3 4 div mul w8 neg d w8 w2 -3 4 div mul d w8 w2 3 4 div mul d w2 3 4 div mul w8 d w2 -3 4 div mul w8 d w8 neg w2 3 4 div mul d cl s} def
/m43 {mp x y w2 add m w8 neg w2 -3 4 div mul d w2 -3 4 div mul w8 neg d w2 3 4 div mul w8 neg d w8 w2 -3 4 div mul d w8 w2 3 4 div mul d w2 3 4 div mul w8 d w2 -3 4 div mul w8 d w8 neg w2 3 4 div mul d cl f} def
/m44 {mp x y m w6 neg w2 d w2 2 3 div mul 0 d w6 neg w2 neg d w2 w6 d 0 w2 -2 3 div mul d w2 neg w6 d w6 w2 neg d w2 -2 3 div mul 0 d w6 w2 d w2 neg w6 neg d 0 w2 2 3 div mul d w2 w6 neg d cl s} def
/m45 {mp x y m w6 neg w2 d w2 2 3 div mul 0 d w6 neg w2 neg d w2 w6 d 0 w2 -2 3 div mul d w2 neg w6 d w6 w2 neg d w2 -2 3 div mul 0 d w6 w2 d w2 neg w6 neg d 0 w2 2 3 div mul d w2 w6 neg d cl f} def
/m46 {mp x y w4 add m w4 neg w4 d w4 neg w4 neg d  w4 w4 neg d w4 neg w4 neg d w4 w4 neg d w4 w4 d w4 w4 neg d w4 w4 d w4 neg w4 d w4 w4 d w4 neg w4 d w4 neg w4 neg d cl s} def
/m47 {mp x y w4 add m w4 neg w4 d w4 neg w4 neg d w4 w4 neg d w4 neg w4 neg d  w4 w4 neg d w4 w4 d w4 w4 neg d w4 w4 d w4 neg w4 d w4 w4 d w4 neg w4 d w4 neg w4 neg d cl f} def
/m48 {mp x y w4 add m w4 neg w4 d w4 neg w4 neg d w4 w4 neg d  w4 neg w4 neg d w4 w4 neg d w4 w4 d w4 w4 neg d w4 w4 d w4 neg w4 d w4 w4 d w4 neg w4 d w4 neg w4 neg d  w4 w4 neg d w4 neg w4 neg d w4 neg w4 d w4 w4 d cl f} def
/m49 {mp x w2 sub w3 add y w2 sub w3 add m  0 w3 neg d w3 0 d 0 w3 d w3 0 d 0 w3 d w3 neg 0 d 0 w3 d w3 neg 0 d 0 w3 neg d w3 neg 0 d 0 w3 neg d w3 0 d 0 w3 d w3 0 d 0 w3 neg d w3 neg 0 d cl f } def
/m2 {mp x y w2 sub m 0 w d x w2 sub y m w 0 d s} def
/m5 {mp x w2 sub y w2 sub m w w d x w2 sub y w2 add m w w neg d s} def
%%IncludeResource: ProcSet (FontSetInit)
%%IncludeResource: font Times-Roman
%%IncludeResource: font Times-Italic
%%IncludeResource: font Times-Bold
%%IncludeResource: font Times-BoldItalic
%%IncludeResource: font Helvetica
%%IncludeResource: font Helvetica-Oblique
%%IncludeResource: font Helvetica-Bold
%%IncludeResource: font Helvetica-BoldOblique
%%IncludeResource: font Courier
%%IncludeResource: font Courier-Oblique
%%IncludeResource: font Courier-Bold
%%IncludeResource: font Courier-BoldOblique
%%IncludeResource: font Symbol
%%IncludeResource: font ZapfDingbats
/reEncode {exch findfont dup length dict begin {1 index /FID eq  {pop pop} {def} ifelse } forall /Encoding exch def currentdict end dup /FontName get exch definefont pop } def [/Times-Bold /Times-Italic /Times-BoldItalic /Helvetica /Helvetica-Oblique
 /Helvetica-Bold /Helvetica-BoldOblique /Courier /Courier-Oblique /Courier-Bold /Courier-BoldOblique /Times-Roman /AvantGarde-Book /AvantGarde-BookOblique /AvantGarde-Demi /AvantGarde-DemiOblique /Bookman-Demi /Bookman-DemiItalic /Bookman-Light
 /Bookman-LightItalic /Helvetica-Narrow /Helvetica-Narrow-Bold /Helvetica-Narrow-BoldOblique /Helvetica-Narrow-Oblique /NewCenturySchlbk-Roman /NewCenturySchlbk-Bold /NewCenturySchlbk-BoldItalic /NewCenturySchlbk-Italic /Palatino-Bold
 /Palatino-BoldItalic /Palatino-Italic /Palatino-Roman ] {ISOLatin1Encoding reEncode } forall
%%EndProlog
%%BeginSetup
%%EndSetup
newpath  gsave  .25 .25 scale  gsave  0 0 t 0.490196 0.545098 0.615686 c[  ] 0 sd 3 lw 0.941176 0.941176 0.941176 c 2268 2131 0 0 bf 0.490196 0.545098 0.615686 c 0.941176 0.941176 0.941176 c 2222 2089 23 21 bf black 1 1 0.992157 c 1801 1579 311 322
 bf black 1801 1579 311 322 bl 1 1 0.992157 c 1801 1579 311 322 bf black 1801 1579 311 322 bl 0.49 0.6 0.82 c 0 0.0800001 1 c 6 5 1547 322 bf 6 5 1517 333 bf 6 5 1535 354 bf 6 5 1583 406 bf 6 5 1541 422 bf 6 6 1445 427 bf 6 5 1487 464 bf 6 5 1427 475
 bf 6 5 1559 485 bf 6 5 1607 485 bf 6 5 1589 506 bf 6 6 1463 511 bf 6 5 1475 517 bf 6 5 1511 522 bf 6 5 1625 522 bf 6 5 1481 533 bf 6 5 1577 533 bf 6 5 1439 543 bf 6 5 1487 543 bf 6 5 1571 554 bf 6 5 1679 554 bf 6 5 1523 559 bf 6 5 1565 559 bf 6 5
 1571 559 bf 6 5 1517 564 bf 6 5 1649 564 bf 6 6 1541 569 bf 6 6 1559 569 bf 6 6 1571 569 bf 6 6 1625 569 bf 6 5 1499 575 bf 6 5 1541 575 bf 6 5 1547 575 bf 6 5 1559 575 bf 6 5 1649 575 bf 6 5 1529 585 bf 6 6 1499 590 bf 6 5 1463 601 bf 6 5 1499 601
 bf 6 5 1511 601 bf 6 5 1445 606 bf 6 5 1487 606 bf 6 5 1499 606 bf 6 5 1523 606 bf 6 5 1535 606 bf 6 6 1559 611 bf 6 6 1649 611 bf 6 5 1535 617 bf 6 5 1619 617 bf 6 5 1499 622 bf 6 5 1529 622 bf 6 5 1565 622 bf 6 5 1571 622 bf 6 6 1439 627 bf 0
 0.733333 1 c 6 6 1517 627 bf 0 0.0800001 1 c 6 6 1559 627 bf 6 5 1397 633 bf 6 5 1565 633 bf 6 5 1577 633 bf 6 5 1601 633 bf 6 5 1505 638 bf 6 5 1523 638 bf 6 5 1535 638 bf 6 5 1559 638 bf 6 5 1601 638 bf 6 5 1625 643 bf 6 6 1385 648 bf 6 6 1463 648
 bf 0 0.733333 1 c 6 6 1487 648 bf 0 0.0800001 1 c 6 6 1535 648 bf 6 6 1565 648 bf 6 5 1379 654 bf 6 5 1553 654 bf 6 5 1637 654 bf 6 5 1457 659 bf 6 5 1511 659 bf 6 5 1529 659 bf 6 5 1541 659 bf 6 5 1565 659 bf 6 5 1571 659 bf 6 5 1613 659 bf 6 5
 1415 664 bf 6 5 1427 664 bf 6 5 1529 664 bf 6 5 1547 664 bf 6 6 1427 669 bf 6 6 1469 669 bf 0 0.733333 1 c 6 6 1499 669 bf 0 0.0800001 1 c 6 6 1511 669 bf 0 0.733333 1 c 6 6 1517 669 bf 0 0.0800001 1 c 6 5 1475 675 bf 6 5 1481 675 bf 6 5 1523 675 bf
 6 5 1583 675 bf 6 5 1625 675 bf 6 5 1637 675 bf 6 5 1445 680 bf 6 5 1505 680 bf 6 5 1511 680 bf 6 5 1535 680 bf 6 5 1541 680 bf 6 5 1559 680 bf 6 5 1613 680 bf 6 5 1499 685 bf 6 5 1505 685 bf 6 5 1517 685 bf 6 5 1541 685 bf 6 5 1571 685 bf 6 6 1445
 690 bf 6 6 1481 690 bf 6 6 1487 690 bf 6 6 1505 690 bf 6 6 1553 690 bf 6 6 1583 690 bf 6 5 1451 696 bf 6 5 1481 696 bf 6 5 1511 696 bf 6 5 1529 696 bf 6 5 1577 696 bf 0 0.733333 1 c 6 5 1583 696 bf 0 0.0800001 1 c 6 5 1619 696 bf 6 5 1523 701 bf 6 5
 1553 701 bf 6 5 1583 701 bf 0 0.733333 1 c 6 5 1487 706 bf 0 0.0800001 1 c 6 5 1505 706 bf 6 5 1601 706 bf 6 6 1457 711 bf 6 6 1499 711 bf 6 6 1559 711 bf 6 6 1577 711 bf 6 5 1463 717 bf 6 5 1529 717 bf 6 5 1541 717 bf 6 5 1547 717 bf 6 5 1595 717
 bf 6 5 1613 717 bf 6 5 1469 722 bf 6 5 1523 722 bf 6 5 1529 722 bf 6 5 1595 722 bf 6 6 1535 727 bf 0 0.733333 1 c 6 6 1541 727 bf 0 0.0800001 1 c 6 6 1571 727 bf 6 6 1613 727 bf 6 5 1415 733 bf 6 5 1451 733 bf 6 5 1463 733 bf 6 5 1487 733 bf 6 5
 1493 733 bf 6 5 1535 733 bf 0 0.733333 1 c 6 5 1547 733 bf 0 0.0800001 1 c 6 5 1559 733 bf 6 5 1565 733 bf 6 5 1577 733 bf 6 5 1589 733 bf 6 5 1427 738 bf 6 5 1499 738 bf 6 5 1511 738 bf 0 1 0.52 c 6 5 1517 738 bf 6 5 1559 738 bf 0 0.0800001 1 c 6 5
 1577 738 bf 6 5 1589 738 bf 6 5 1595 738 bf 6 5 1415 743 bf 6 5 1427 743 bf 6 5 1457 743 bf 6 5 1469 743 bf 6 5 1493 743 bf 6 5 1553 743 bf 0 0.733333 1 c 6 5 1565 743 bf 0 0.0800001 1 c 6 5 1589 743 bf 0 0.733333 1 c 6 5 1601 743 bf 0 0.0800001 1 c
 6 5 1613 743 bf 6 5 1685 743 bf 0 0.733333 1 c 6 6 1475 748 bf 0 0.0800001 1 c 6 6 1487 748 bf 6 6 1517 748 bf 6 6 1523 748 bf 6 6 1535 748 bf 6 6 1565 748 bf 6 6 1619 748 bf 6 5 1451 754 bf 6 5 1457 754 bf 6 5 1469 754 bf 6 5 1505 754 bf 6 5 1523
 754 bf 6 5 1529 754 bf 0 0.733333 1 c 6 5 1535 754 bf 0 0.0800001 1 c 6 5 1541 754 bf 6 5 1553 754 bf 0 0.733333 1 c 6 5 1589 754 bf 0 0.0800001 1 c 6 5 1595 754 bf 6 5 1607 754 bf 6 5 1385 759 bf 6 5 1457 759 bf 6 5 1463 759 bf 6 5 1481 759 bf 6 5
 1499 759 bf 6 5 1517 759 bf 6 5 1523 759 bf 6 5 1553 759 bf 6 5 1595 759 bf 6 5 1637 759 bf 6 5 1649 759 bf 6 5 1691 759 bf 6 5 1445 764 bf 6 5 1475 764 bf 6 5 1481 764 bf 0 0.733333 1 c 6 5 1493 764 bf 0 0.0800001 1 c 6 5 1505 764 bf 0 1 0.52 c 6 5
 1511 764 bf 0 0.0800001 1 c 6 5 1517 764 bf 6 5 1535 764 bf 6 5 1571 764 bf 6 6 1505 769 bf 0 0.733333 1 c 6 6 1511 769 bf 0 0.0800001 1 c 6 6 1625 769 bf 6 6 1637 769 bf 6 5 1439 775 bf 0 0.733333 1 c 6 5 1451 775 bf 0 0.0800001 1 c 6 5 1475 775 bf
 6 5 1511 775 bf 6 5 1523 775 bf 6 5 1529 775 bf 6 5 1535 775 bf 6 5 1553 775 bf 0 1 0.52 c 6 5 1565 775 bf 0 0.0800001 1 c 6 5 1577 775 bf 6 5 1613 775 bf 6 5 1433 780 bf 6 5 1451 780 bf 6 5 1469 780 bf 6 5 1481 780 bf 6 5 1493 780 bf 6 5 1499 780
 bf 6 5 1505 780 bf 6 5 1523 780 bf 0 0.733333 1 c 6 5 1559 780 bf 0 0.0800001 1 c 6 5 1565 780 bf 6 5 1571 780 bf 6 5 1589 780 bf 6 5 1595 780 bf 6 5 1403 785 bf 6 5 1409 785 bf 6 5 1451 785 bf 0 0.733333 1 c 6 5 1463 785 bf 0 0.0800001 1 c 6 5 1475
 785 bf 6 5 1481 785 bf 6 5 1487 785 bf 0 0.733333 1 c 6 5 1499 785 bf 0 1 0.52 c 6 5 1523 785 bf 0 0.0800001 1 c 6 5 1541 785 bf 0 0.733333 1 c 6 5 1547 785 bf 6 5 1553 785 bf 0 0.0800001 1 c 6 5 1577 785 bf 6 6 1475 790 bf 6 6 1493 790 bf 6 6 1505
 790 bf 0 0.733333 1 c 6 6 1511 790 bf 0 0.0800001 1 c 6 6 1517 790 bf 0 0.733333 1 c 6 6 1535 790 bf 0 0.0800001 1 c 6 6 1547 790 bf 0 0.733333 1 c 6 6 1553 790 bf 0 0.0800001 1 c 6 6 1565 790 bf 6 6 1571 790 bf 6 6 1577 790 bf 0 0.733333 1 c 6 6
 1583 790 bf 0 0.0800001 1 c 6 6 1607 790 bf 0 0.733333 1 c 6 6 1619 790 bf 0 0.0800001 1 c 6 6 1625 790 bf 6 5 1457 796 bf 6 5 1481 796 bf 6 5 1499 796 bf 6 5 1517 796 bf 6 5 1523 796 bf 6 5 1541 796 bf 6 5 1547 796 bf 6 5 1559 796 bf 6 5 1577 796
 bf 6 5 1595 796 bf 0 0.733333 1 c 6 5 1613 796 bf 0 0.0800001 1 c 6 5 1631 796 bf 6 5 1637 796 bf 6 5 1445 801 bf 6 5 1457 801 bf 0 0.733333 1 c 6 5 1475 801 bf 0 0.0800001 1 c 6 5 1505 801 bf 6 5 1511 801 bf 6 5 1517 801 bf 6 5 1523 801 bf 6 5 1529
 801 bf 0 1 0.52 c 6 5 1535 801 bf 0 0.0800001 1 c 6 5 1541 801 bf 6 5 1559 801 bf 6 5 1565 801 bf 6 5 1571 801 bf 6 5 1601 801 bf 6 5 1613 801 bf 6 5 1661 801 bf 6 5 1439 806 bf 6 5 1487 806 bf 6 5 1493 806 bf 6 5 1517 806 bf 6 5 1529 806 bf 6 5
 1535 806 bf 0 1 0.52 c 6 5 1547 806 bf 0 0.0800001 1 c 6 5 1565 806 bf 0 0.733333 1 c 6 5 1571 806 bf 0 0.0800001 1 c 6 5 1583 806 bf 6 5 1595 806 bf 6 5 1601 806 bf 6 5 1691 806 bf 6 6 1463 811 bf 6 6 1475 811 bf 6 6 1505 811 bf 6 6 1511 811 bf 6 6
 1529 811 bf 6 6 1541 811 bf 0.88 1 0 c 6 6 1547 811 bf 0 0.0800001 1 c 6 6 1565 811 bf 6 6 1571 811 bf 0 0.733333 1 c 6 6 1583 811 bf 0 0.0800001 1 c 6 6 1595 811 bf 6 6 1613 811 bf 6 6 1625 811 bf 6 6 1667 811 bf 6 5 1391 817 bf 6 5 1475 817 bf 6 5
 1481 817 bf 6 5 1487 817 bf 6 5 1505 817 bf 6 5 1517 817 bf 6 5 1535 817 bf 6 5 1553 817 bf 0 0.733333 1 c 6 5 1565 817 bf 0 0.0800001 1 c 6 5 1583 817 bf 6 5 1379 822 bf 6 5 1433 822 bf 6 5 1445 822 bf 6 5 1457 822 bf 6 5 1463 822 bf 6 5 1487 822
 bf 6 5 1511 822 bf 6 5 1517 822 bf 6 5 1523 822 bf 6 5 1535 822 bf 6 5 1541 822 bf 0 0.733333 1 c 6 5 1571 822 bf 0 0.0800001 1 c 6 5 1589 822 bf 6 5 1631 822 bf 6 5 1649 822 bf 6 6 1397 827 bf 0 0.733333 1 c 6 6 1445 827 bf 0 0.0800001 1 c 6 6 1463
 827 bf 0 0.733333 1 c 6 6 1475 827 bf 0 0.0800001 1 c 6 6 1487 827 bf 6 6 1493 827 bf 0 0.733333 1 c 6 6 1499 827 bf 0 0.0800001 1 c 6 6 1505 827 bf 0 0.733333 1 c 6 6 1511 827 bf 0 0.0800001 1 c 6 6 1517 827 bf 6 6 1529 827 bf 6 6 1535 827 bf 6 6
 1553 827 bf 6 6 1559 827 bf 0 1 0.52 c 6 6 1571 827 bf 0 0.0800001 1 c 6 6 1637 827 bf 6 6 1715 827 bf 6 5 1481 833 bf 6 5 1499 833 bf 6 5 1535 833 bf 6 5 1541 833 bf 6 5 1553 833 bf 6 5 1559 833 bf 6 5 1565 833 bf 6 5 1571 833 bf 6 5 1613 833 bf 6
 5 1643 833 bf 6 5 1673 833 bf 6 5 1439 838 bf 6 5 1451 838 bf 6 5 1475 838 bf 6 5 1505 838 bf 0 0.733333 1 c 6 5 1511 838 bf 0 0.0800001 1 c 6 5 1541 838 bf 6 5 1547 838 bf 0 0.733333 1 c 6 5 1559 838 bf 0 0.0800001 1 c 6 5 1565 838 bf 6 5 1577 838
 bf 6 5 1595 838 bf 6 5 1619 838 bf 0 1 0.52 c 6 5 1631 838 bf 0 0.0800001 1 c 6 5 1691 838 bf 6 5 1457 843 bf 6 5 1463 843 bf 6 5 1469 843 bf 0 0.733333 1 c 6 5 1481 843 bf 0 0.0800001 1 c 6 5 1499 843 bf 6 5 1511 843 bf 0 1 0.52 c 6 5 1535 843 bf 0
 0.733333 1 c 6 5 1541 843 bf 0 0.0800001 1 c 6 5 1547 843 bf 6 5 1553 843 bf 6 5 1565 843 bf 0 0.733333 1 c 6 5 1589 843 bf 0 1 0.52 c 6 5 1601 843 bf 0 0.0800001 1 c 6 5 1619 843 bf 6 5 1637 843 bf 6 6 1307 848 bf 6 6 1475 848 bf 6 6 1481 848 bf 6
 6 1499 848 bf 6 6 1505 848 bf 6 6 1511 848 bf 6 6 1553 848 bf 0 0.733333 1 c 6 6 1559 848 bf 0 0.0800001 1 c 6 6 1571 848 bf 6 6 1589 848 bf 6 6 1595 848 bf 6 6 1625 848 bf 6 6 1637 848 bf 6 6 1649 848 bf 6 6 1709 848 bf 6 5 1385 854 bf 6 5 1451 854
 bf 6 5 1469 854 bf 6 5 1481 854 bf 0 1 0.52 c 6 5 1487 854 bf 0 0.733333 1 c 6 5 1493 854 bf 6 5 1517 854 bf 0 0.0800001 1 c 6 5 1523 854 bf 0 0.733333 1 c 6 5 1535 854 bf 6 5 1541 854 bf 0 0.0800001 1 c 6 5 1559 854 bf 6 5 1583 854 bf 6 5 1589 854
 bf 0 0.733333 1 c 6 5 1613 854 bf 0 0.0800001 1 c 6 5 1643 854 bf 6 5 1667 854 bf 6 5 1673 854 bf 0 0.733333 1 c 6 5 1391 859 bf 0 0.0800001 1 c 6 5 1415 859 bf 6 5 1439 859 bf 6 5 1451 859 bf 6 5 1463 859 bf 6 5 1481 859 bf 6 5 1487 859 bf 0 1 0.52
 c 6 5 1493 859 bf 0 0.733333 1 c 6 5 1505 859 bf 6 5 1511 859 bf 0 0.0800001 1 c 6 5 1517 859 bf 0 0.733333 1 c 6 5 1523 859 bf 6 5 1529 859 bf 0 0.0800001 1 c 6 5 1541 859 bf 0 0.733333 1 c 6 5 1571 859 bf 0 0.0800001 1 c 6 5 1577 859 bf 6 5 1583
 859 bf 6 5 1595 859 bf 6 5 1607 859 bf 6 5 1619 859 bf 6 5 1433 864 bf 6 5 1451 864 bf 6 5 1457 864 bf 0.133333 1 0 c 6 5 1493 864 bf 0 0.733333 1 c 6 5 1499 864 bf 0 0.0800001 1 c 6 5 1505 864 bf 6 5 1511 864 bf 6 5 1523 864 bf 6 5 1535 864 bf 6 5
 1541 864 bf 6 5 1565 864 bf 6 5 1571 864 bf 6 5 1583 864 bf 6 5 1589 864 bf 6 5 1637 864 bf 6 5 1643 864 bf 6 6 1457 869 bf 0 0.733333 1 c 6 6 1481 869 bf 0 1 0.52 c 6 6 1493 869 bf 0 0.0800001 1 c 6 6 1505 869 bf 0 1 0.52 c 6 6 1511 869 bf 0
 0.733333 1 c 6 6 1517 869 bf 0 0.0800001 1 c 6 6 1529 869 bf 0 0.733333 1 c 6 6 1535 869 bf 0 0.0800001 1 c 6 6 1547 869 bf 6 6 1553 869 bf 6 6 1565 869 bf 6 6 1571 869 bf 0 1 0.52 c 6 6 1577 869 bf 0 0.0800001 1 c 6 6 1589 869 bf 6 6 1601 869 bf 6
 6 1607 869 bf 6 6 1613 869 bf 6 5 1481 875 bf 0 0.733333 1 c 6 5 1487 875 bf 0 0.0800001 1 c 6 5 1493 875 bf 6 5 1505 875 bf 6 5 1547 875 bf 6 5 1583 875 bf 6 5 1595 875 bf 6 5 1607 875 bf 6 5 1613 875 bf 6 5 1631 875 bf 6 5 1649 875 bf 6 5 1427 880
 bf 6 5 1457 880 bf 6 5 1469 880 bf 6 5 1481 880 bf 0 0.733333 1 c 6 5 1517 880 bf 6 5 1535 880 bf 0 0.0800001 1 c 6 5 1541 880 bf 0 1 0.52 c 6 5 1547 880 bf 0 0.0800001 1 c 6 5 1565 880 bf 6 5 1571 880 bf 6 5 1577 880 bf 6 5 1583 880 bf 6 5 1613 880
 bf 6 5 1637 880 bf 6 5 1667 880 bf 6 5 1355 885 bf 6 5 1409 885 bf 0 0.733333 1 c 6 5 1451 885 bf 0 0.0800001 1 c 6 5 1469 885 bf 0 0.733333 1 c 6 5 1481 885 bf 6 5 1493 885 bf 6 5 1505 885 bf 6 5 1511 885 bf 0 1 0.52 c 6 5 1517 885 bf 6 5 1535 885
 bf 0 0.733333 1 c 6 5 1541 885 bf 6 5 1547 885 bf 0 0.0800001 1 c 6 5 1559 885 bf 6 5 1565 885 bf 6 5 1595 885 bf 0 0.733333 1 c 6 5 1625 885 bf 0 0.0800001 1 c 6 5 1631 885 bf 6 5 1649 885 bf 6 5 1673 885 bf 6 6 1439 890 bf 0 0.733333 1 c 6 6 1445
 890 bf 0 0.0800001 1 c 6 6 1451 890 bf 6 6 1469 890 bf 6 6 1499 890 bf 0.133333 1 0 c 6 6 1505 890 bf 0 0.0800001 1 c 6 6 1517 890 bf 0 0.733333 1 c 6 6 1523 890 bf 0 0.0800001 1 c 6 6 1535 890 bf 0.88 1 0 c 6 6 1541 890 bf 0 0.733333 1 c 6 6 1547
 890 bf 6 6 1553 890 bf 0 0.0800001 1 c 6 6 1559 890 bf 6 6 1601 890 bf 6 6 1637 890 bf 6 5 1427 896 bf 6 5 1439 896 bf 6 5 1475 896 bf 6 5 1481 896 bf 6 5 1499 896 bf 6 5 1505 896 bf 6 5 1517 896 bf 6 5 1523 896 bf 6 5 1529 896 bf 6 5 1535 896 bf 0
 0.733333 1 c 6 5 1541 896 bf 0 0.0800001 1 c 6 5 1547 896 bf 0 0.733333 1 c 6 5 1553 896 bf 0 0.0800001 1 c 6 5 1559 896 bf 6 5 1565 896 bf 6 5 1571 896 bf 6 5 1577 896 bf 6 5 1583 896 bf 6 5 1619 896 bf 6 5 1673 896 bf 6 5 1421 901 bf 6 5 1463 901
 bf 6 5 1493 901 bf 6 5 1499 901 bf 6 5 1505 901 bf 0.133333 1 0 c 6 5 1517 901 bf 0 1 0.52 c 6 5 1523 901 bf 0 0.0800001 1 c 6 5 1529 901 bf 0 0.733333 1 c 6 5 1541 901 bf 0 0.0800001 1 c 6 5 1547 901 bf 0 0.733333 1 c 6 5 1553 901 bf 6 5 1559 901
 bf 6 5 1607 901 bf 6 5 1619 901 bf 0 0.0800001 1 c 6 5 1625 901 bf 0 0.733333 1 c 6 5 1643 901 bf 0 0.0800001 1 c 6 5 1457 906 bf 0 0.733333 1 c 6 5 1469 906 bf 0 0.0800001 1 c 6 5 1475 906 bf 6 5 1481 906 bf 6 5 1493 906 bf 6 5 1499 906 bf 6 5 1505
 906 bf 6 5 1511 906 bf 6 5 1517 906 bf 0 0.733333 1 c 6 5 1523 906 bf 0 0.0800001 1 c 6 5 1535 906 bf 6 5 1547 906 bf 6 5 1553 906 bf 0 0.733333 1 c 6 5 1559 906 bf 6 5 1565 906 bf 0 0.0800001 1 c 6 5 1577 906 bf 6 5 1583 906 bf 6 5 1589 906 bf 0
 0.733333 1 c 6 5 1595 906 bf 0 0.0800001 1 c 6 5 1601 906 bf 6 5 1607 906 bf 6 5 1619 906 bf 6 5 1649 906 bf 6 5 1661 906 bf 6 5 1667 906 bf 0 0.733333 1 c 6 6 1427 911 bf 0 0.0800001 1 c 6 6 1457 911 bf 6 6 1487 911 bf 0 1 0.52 c 6 6 1499 911 bf 0
 0.0800001 1 c 6 6 1505 911 bf 0 0.733333 1 c 6 6 1517 911 bf 0.133333 1 0 c 6 6 1535 911 bf 0 0.0800001 1 c 6 6 1541 911 bf 6 6 1547 911 bf 0 1 0.52 c 6 6 1553 911 bf 6 6 1559 911 bf 6 6 1565 911 bf 0 0.0800001 1 c 6 6 1571 911 bf 6 6 1583 911 bf 6
 6 1601 911 bf 6 6 1637 911 bf 6 5 1463 917 bf 6 5 1469 917 bf 6 5 1487 917 bf 0 0.733333 1 c 6 5 1499 917 bf 6 5 1523 917 bf 6 5 1553 917 bf 0 0.0800001 1 c 6 5 1559 917 bf 6 5 1565 917 bf 0 0.733333 1 c 6 5 1571 917 bf 6 5 1577 917 bf 6 5 1589 917
 bf 6 5 1595 917 bf 0 0.0800001 1 c 6 5 1601 917 bf 6 5 1613 917 bf 6 5 1643 917 bf 6 5 1685 917 bf 6 5 1439 922 bf 6 5 1445 922 bf 6 5 1463 922 bf 6 5 1469 922 bf 6 5 1475 922 bf 0 0.733333 1 c 6 5 1481 922 bf 0 0.0800001 1 c 6 5 1487 922 bf 6 5
 1493 922 bf 6 5 1499 922 bf 0 0.733333 1 c 6 5 1505 922 bf 6 5 1511 922 bf 0 0.0800001 1 c 6 5 1523 922 bf 0 1 0.52 c 6 5 1535 922 bf 0 0.0800001 1 c 6 5 1547 922 bf 6 5 1553 922 bf 0 0.733333 1 c 6 5 1559 922 bf 6 5 1565 922 bf 0 0.0800001 1 c 6 5
 1571 922 bf 6 5 1577 922 bf 0 0.733333 1 c 6 5 1589 922 bf 0 0.0800001 1 c 6 5 1601 922 bf 0 0.733333 1 c 6 5 1607 922 bf 0 0.0800001 1 c 6 5 1613 922 bf 6 5 1619 922 bf 6 5 1637 922 bf 6 5 1451 927 bf 0 0.733333 1 c 6 5 1469 927 bf 0 0.0800001 1 c
 6 5 1475 927 bf 0 0.733333 1 c 6 5 1481 927 bf 6 5 1487 927 bf 0 0.0800001 1 c 6 5 1499 927 bf 6 5 1505 927 bf 6 5 1511 927 bf 6 5 1517 927 bf 6 5 1523 927 bf 6 5 1529 927 bf 6 5 1535 927 bf 0 0.733333 1 c 6 5 1541 927 bf 0 0.0800001 1 c 6 5 1547
 927 bf 6 5 1553 927 bf 0 0.733333 1 c 6 5 1565 927 bf 0 0.0800001 1 c 6 5 1571 927 bf 6 5 1577 927 bf 6 5 1589 927 bf 0 0.733333 1 c 6 5 1595 927 bf 6 5 1601 927 bf 0 0.0800001 1 c 6 5 1607 927 bf 6 5 1613 927 bf 6 5 1619 927 bf 6 5 1625 927 bf 6 5
 1643 927 bf 6 5 1649 927 bf 6 6 1397 932 bf 6 6 1421 932 bf 6 6 1433 932 bf 6 6 1445 932 bf 6 6 1451 932 bf 6 6 1457 932 bf 0 0.733333 1 c 6 6 1469 932 bf 0 0.0800001 1 c 6 6 1511 932 bf 6 6 1517 932 bf 6 6 1523 932 bf 6 6 1529 932 bf 0 0.733333 1 c
 6 6 1541 932 bf 0 0.0800001 1 c 6 6 1547 932 bf 6 6 1553 932 bf 6 6 1559 932 bf 6 6 1565 932 bf 6 6 1571 932 bf 0 1 0.52 c 6 6 1577 932 bf 0 0.733333 1 c 6 6 1589 932 bf 6 6 1595 932 bf 6 6 1607 932 bf 0 0.0800001 1 c 6 6 1619 932 bf 6 6 1625 932 bf
 6 6 1631 932 bf 6 6 1667 932 bf 7 6 1751 932 bf 6 5 1451 938 bf 6 5 1463 938 bf 0 0.733333 1 c 6 5 1475 938 bf 0 0.0800001 1 c 6 5 1481 938 bf 6 5 1493 938 bf 6 5 1511 938 bf 0.133333 1 0 c 6 5 1517 938 bf 0 0.0800001 1 c 6 5 1523 938 bf 6 5 1529
 938 bf 0 0.733333 1 c 6 5 1535 938 bf 6 5 1547 938 bf 0 0.0800001 1 c 6 5 1559 938 bf 6 5 1565 938 bf 0 1 0.52 c 6 5 1577 938 bf 6 5 1583 938 bf 0 0.0800001 1 c 6 5 1589 938 bf 6 5 1607 938 bf 6 5 1619 938 bf 6 5 1631 938 bf 6 5 1667 938 bf 0
 0.733333 1 c 6 5 1451 943 bf 6 5 1463 943 bf 0 0.0800001 1 c 6 5 1469 943 bf 6 5 1475 943 bf 0 0.733333 1 c 6 5 1499 943 bf 0 0.0800001 1 c 6 5 1505 943 bf 6 5 1511 943 bf 0 1 0.52 c 6 5 1517 943 bf 0 0.733333 1 c 6 5 1523 943 bf 0 1 0.52 c 6 5 1535
 943 bf 0 0.0800001 1 c 6 5 1541 943 bf 6 5 1547 943 bf 0 0.733333 1 c 6 5 1559 943 bf 0 0.0800001 1 c 6 5 1565 943 bf 0 1 0.52 c 6 5 1577 943 bf 0 0.733333 1 c 6 5 1583 943 bf 6 5 1589 943 bf 0 0.0800001 1 c 6 5 1595 943 bf 0 0.733333 1 c 6 5 1619
 943 bf 0 0.0800001 1 c 6 5 1625 943 bf 6 5 1631 943 bf 6 6 1451 948 bf 0 0.733333 1 c 6 6 1457 948 bf 0 0.0800001 1 c 6 6 1469 948 bf 6 6 1475 948 bf 6 6 1481 948 bf 6 6 1487 948 bf 6 6 1493 948 bf 6 6 1499 948 bf 6 6 1505 948 bf 6 6 1511 948 bf 6 6
 1517 948 bf 6 6 1523 948 bf 0 0.733333 1 c 6 6 1529 948 bf 6 6 1535 948 bf 6 6 1553 948 bf 6 6 1577 948 bf 0 0.0800001 1 c 6 6 1583 948 bf 0 0.733333 1 c 6 6 1595 948 bf 6 6 1613 948 bf 0 0.0800001 1 c 6 6 1655 948 bf 6 5 1415 954 bf 6 5 1475 954 bf
 0 0.733333 1 c 6 5 1487 954 bf 0 0.0800001 1 c 6 5 1493 954 bf 0 0.733333 1 c 6 5 1499 954 bf 0 0.0800001 1 c 6 5 1505 954 bf 6 5 1511 954 bf 0 1 0.52 c 6 5 1523 954 bf 0 0.0800001 1 c 6 5 1529 954 bf 6 5 1535 954 bf 6 5 1541 954 bf 0 0.733333 1 c 6
 5 1547 954 bf 6 5 1553 954 bf 6 5 1559 954 bf 0 1 0.52 c 6 5 1565 954 bf 0.133333 1 0 c 6 5 1571 954 bf 0 1 0.52 c 6 5 1577 954 bf 0 0.733333 1 c 6 5 1589 954 bf 0 0.0800001 1 c 6 5 1601 954 bf 0 0.733333 1 c 6 5 1607 954 bf 0 0.0800001 1 c 6 5 1613
 954 bf 6 5 1637 954 bf 6 5 1397 959 bf 6 5 1445 959 bf 6 5 1469 959 bf 6 5 1475 959 bf 0 0.733333 1 c 6 5 1487 959 bf 0 0.0800001 1 c 6 5 1493 959 bf 6 5 1499 959 bf 0 0.733333 1 c 6 5 1505 959 bf 0 1 0.52 c 6 5 1511 959 bf 0.133333 1 0 c 6 5 1523
 959 bf 0 0.733333 1 c 6 5 1529 959 bf 0 1 0.52 c 6 5 1535 959 bf 0.133333 1 0 c 6 5 1541 959 bf 0 0.0800001 1 c 6 5 1547 959 bf 0 0.733333 1 c 6 5 1553 959 bf 0 0.0800001 1 c 6 5 1559 959 bf 0 0.733333 1 c 6 5 1565 959 bf 0 0.0800001 1 c 6 5 1571
 959 bf 6 5 1577 959 bf 6 5 1583 959 bf 6 5 1589 959 bf 0 0.733333 1 c 6 5 1595 959 bf 6 5 1607 959 bf 6 5 1613 959 bf 0 0.0800001 1 c 6 5 1625 959 bf 6 5 1445 964 bf 6 5 1451 964 bf 0 0.733333 1 c 6 5 1469 964 bf 0 0.0800001 1 c 6 5 1475 964 bf
 0.133333 1 0 c 6 5 1487 964 bf 0 0.733333 1 c 6 5 1493 964 bf 6 5 1523 964 bf 6 5 1535 964 bf 0 1 0.52 c 6 5 1541 964 bf 0 0.0800001 1 c 6 5 1547 964 bf 6 5 1553 964 bf 6 5 1571 964 bf 0 0.733333 1 c 6 5 1583 964 bf 0 0.0800001 1 c 6 5 1589 964 bf 0
 0.733333 1 c 6 5 1595 964 bf 6 5 1607 964 bf 0 0.0800001 1 c 6 5 1613 964 bf 6 5 1625 964 bf 0 0.733333 1 c 6 5 1673 964 bf 0 0.0800001 1 c 6 6 1403 969 bf 0 0.733333 1 c 6 6 1451 969 bf 0 0.0800001 1 c 6 6 1457 969 bf 0 0.733333 1 c 6 6 1469 969 bf
 0 1 0.52 c 6 6 1493 969 bf 0 0.733333 1 c 6 6 1505 969 bf 6 6 1511 969 bf 0 0.0800001 1 c 6 6 1517 969 bf 0 0.733333 1 c 6 6 1523 969 bf 0 1 0.52 c 6 6 1535 969 bf 6 6 1541 969 bf 6 6 1547 969 bf 0 0.0800001 1 c 6 6 1553 969 bf 6 6 1559 969 bf 6 6
 1577 969 bf 6 6 1583 969 bf 6 6 1595 969 bf 0 0.733333 1 c 6 6 1601 969 bf 6 6 1607 969 bf 0 0.0800001 1 c 6 6 1613 969 bf 6 6 1625 969 bf 6 6 1679 969 bf 6 5 1409 975 bf 0 0.733333 1 c 6 5 1421 975 bf 0 0.0800001 1 c 6 5 1433 975 bf 6 5 1445 975 bf
 6 5 1457 975 bf 6 5 1469 975 bf 0 0.733333 1 c 6 5 1475 975 bf 0 0.0800001 1 c 6 5 1487 975 bf 0 0.733333 1 c 6 5 1493 975 bf 6 5 1499 975 bf 0 0.0800001 1 c 6 5 1505 975 bf 6 5 1511 975 bf 6 5 1517 975 bf 0 0.733333 1 c 6 5 1523 975 bf 0 1 0.52 c 6
 5 1535 975 bf 6 5 1541 975 bf 6 5 1547 975 bf 6 5 1553 975 bf 0 0.733333 1 c 6 5 1565 975 bf 0 0.0800001 1 c 6 5 1571 975 bf 6 5 1577 975 bf 6 5 1583 975 bf 0.133333 1 0 c 6 5 1589 975 bf 0 0.0800001 1 c 6 5 1595 975 bf 6 5 1601 975 bf 0 1 0.52 c 6
 5 1607 975 bf 0 0.733333 1 c 6 5 1625 975 bf 6 5 1637 975 bf 0 0.0800001 1 c 6 5 1655 975 bf 6 5 1661 975 bf 6 5 1433 980 bf 6 5 1457 980 bf 6 5 1463 980 bf 6 5 1475 980 bf 6 5 1481 980 bf 6 5 1487 980 bf 0 0.733333 1 c 6 5 1493 980 bf 0 0.0800001 1
 c 6 5 1499 980 bf 0 0.733333 1 c 6 5 1505 980 bf 0 0.0800001 1 c 6 5 1511 980 bf 0 1 0.52 c 6 5 1517 980 bf 0.133333 1 0 c 6 5 1523 980 bf 0 0.733333 1 c 6 5 1529 980 bf 0 1 0.52 c 6 5 1547 980 bf 0 0.733333 1 c 6 5 1553 980 bf 0 1 0.52 c 6 5 1559
 980 bf 0 0.0800001 1 c 6 5 1565 980 bf 0.133333 1 0 c 6 5 1583 980 bf 0 0.0800001 1 c 6 5 1589 980 bf 6 5 1613 980 bf 6 5 1643 980 bf 6 5 1649 980 bf 6 5 1661 980 bf 6 5 1391 985 bf 6 5 1493 985 bf 0.133333 1 0 c 6 5 1505 985 bf 0 1 0.52 c 6 5 1511
 985 bf 0 0.733333 1 c 6 5 1517 985 bf 0 0.0800001 1 c 6 5 1529 985 bf 6 5 1535 985 bf 0 0.733333 1 c 6 5 1547 985 bf 0 0.0800001 1 c 6 5 1559 985 bf 0 1 0.52 c 6 5 1565 985 bf 0 0.0800001 1 c 6 5 1571 985 bf 0 0.733333 1 c 6 5 1577 985 bf 0
 0.0800001 1 c 6 5 1589 985 bf 6 5 1595 985 bf 6 5 1601 985 bf 6 5 1607 985 bf 6 5 1613 985 bf 6 5 1649 985 bf 6 5 1655 985 bf 6 5 1661 985 bf 6 6 1409 990 bf 6 6 1463 990 bf 6 6 1469 990 bf 6 6 1475 990 bf 6 6 1487 990 bf 0 0.733333 1 c 6 6 1493 990
 bf 6 6 1499 990 bf 0 1 0.52 c 6 6 1511 990 bf 0 0.0800001 1 c 6 6 1517 990 bf 0 0.733333 1 c 6 6 1523 990 bf 6 6 1529 990 bf 0 1 0.52 c 6 6 1535 990 bf 0 0.0800001 1 c 6 6 1541 990 bf 6 6 1547 990 bf 6 6 1553 990 bf 6 6 1559 990 bf 0 0.733333 1 c 6
 6 1565 990 bf 0 0.0800001 1 c 6 6 1571 990 bf 0.133333 1 0 c 6 6 1583 990 bf 0 0.0800001 1 c 6 6 1589 990 bf 0 0.733333 1 c 6 6 1595 990 bf 0 0.0800001 1 c 6 6 1601 990 bf 6 6 1613 990 bf 0 0.733333 1 c 6 6 1619 990 bf 0 0.0800001 1 c 6 6 1625 990
 bf 6 6 1649 990 bf 6 6 1655 990 bf 6 6 1661 990 bf 6 5 1397 996 bf 6 5 1451 996 bf 6 5 1457 996 bf 6 5 1463 996 bf 6 5 1475 996 bf 6 5 1481 996 bf 6 5 1487 996 bf 0 0.733333 1 c 6 5 1499 996 bf 0 0.0800001 1 c 6 5 1505 996 bf 0 1 0.52 c 6 5 1511 996
 bf 6 5 1523 996 bf 0 0.0800001 1 c 6 5 1529 996 bf 0 0.733333 1 c 6 5 1535 996 bf 0 0.0800001 1 c 6 5 1541 996 bf 6 5 1547 996 bf 6 5 1559 996 bf 0 0.733333 1 c 6 5 1571 996 bf 0 1 0.52 c 6 5 1577 996 bf 0 0.0800001 1 c 6 5 1589 996 bf 0 0.733333 1
 c 6 5 1595 996 bf 0 1 0.52 c 6 5 1601 996 bf 0 0.0800001 1 c 6 5 1607 996 bf 6 5 1613 996 bf 0 0.733333 1 c 6 5 1619 996 bf 0 0.0800001 1 c 6 5 1625 996 bf 6 5 1631 996 bf 6 5 1637 996 bf 0 0.733333 1 c 6 5 1649 996 bf 0 0.0800001 1 c 6 5 1655 996
 bf 6 5 1385 1001 bf 6 5 1427 1001 bf 0 0.733333 1 c 6 5 1457 1001 bf 0 0.0800001 1 c 6 5 1469 1001 bf 6 5 1505 1001 bf 0 1 0.52 c 6 5 1511 1001 bf 0.133333 1 0 c 6 5 1517 1001 bf 0 1 0.52 c 6 5 1523 1001 bf 0.133333 1 0 c 6 5 1529 1001 bf 0
 0.0800001 1 c 6 5 1535 1001 bf 6 5 1547 1001 bf 6 5 1553 1001 bf 0 0.733333 1 c 6 5 1559 1001 bf 6 5 1565 1001 bf 6 5 1577 1001 bf 0 1 0.52 c 6 5 1589 1001 bf 0 0.733333 1 c 6 5 1595 1001 bf 0 0.0800001 1 c 6 5 1601 1001 bf 0 0.733333 1 c 6 5 1607
 1001 bf 0 0.0800001 1 c 6 5 1613 1001 bf 6 5 1625 1001 bf 6 5 1673 1001 bf 6 5 1415 1006 bf 6 5 1469 1006 bf 6 5 1481 1006 bf 6 5 1487 1006 bf 0 0.733333 1 c 6 5 1499 1006 bf 0 0.0800001 1 c 6 5 1511 1006 bf 6 5 1523 1006 bf 6 5 1529 1006 bf 6 5
 1535 1006 bf 0 0.733333 1 c 6 5 1541 1006 bf 6 5 1547 1006 bf 0 0.0800001 1 c 6 5 1565 1006 bf 0 0.733333 1 c 6 5 1571 1006 bf 6 5 1577 1006 bf 0 1 0.52 c 6 5 1583 1006 bf 0 0.0800001 1 c 6 5 1589 1006 bf 6 5 1607 1006 bf 6 5 1619 1006 bf 6 5 1625
 1006 bf 6 5 1631 1006 bf 6 5 1703 1006 bf 6 6 1355 1011 bf 6 6 1433 1011 bf 6 6 1451 1011 bf 0 0.733333 1 c 6 6 1469 1011 bf 0 0.0800001 1 c 6 6 1475 1011 bf 0 0.733333 1 c 6 6 1487 1011 bf 0 0.0800001 1 c 6 6 1493 1011 bf 6 6 1499 1011 bf 0.88 1 0
 c 6 6 1505 1011 bf 0.133333 1 0 c 6 6 1523 1011 bf 0 1 0.52 c 6 6 1529 1011 bf 0 0.733333 1 c 6 6 1535 1011 bf 0 1 0.52 c 6 6 1559 1011 bf 0 0.0800001 1 c 6 6 1583 1011 bf 0 0.733333 1 c 6 6 1607 1011 bf 0 0.0800001 1 c 6 6 1613 1011 bf 6 6 1619
 1011 bf 6 6 1625 1011 bf 6 6 1637 1011 bf 6 6 1643 1011 bf 6 6 1649 1011 bf 6 6 1667 1011 bf 6 5 1433 1017 bf 6 5 1439 1017 bf 0 0.733333 1 c 6 5 1445 1017 bf 6 5 1475 1017 bf 0 1 0.52 c 6 5 1481 1017 bf 0 0.733333 1 c 6 5 1487 1017 bf 0 0.0800001 1
 c 6 5 1499 1017 bf 6 5 1505 1017 bf 6 5 1511 1017 bf 6 5 1517 1017 bf 0 0.733333 1 c 6 5 1523 1017 bf 6 5 1529 1017 bf 0 0.0800001 1 c 6 5 1535 1017 bf 0 0.733333 1 c 6 5 1541 1017 bf 6 5 1547 1017 bf 6 5 1553 1017 bf 6 5 1559 1017 bf 0 0.0800001 1
 c 6 5 1565 1017 bf 0 0.733333 1 c 6 5 1571 1017 bf 0 0.0800001 1 c 6 5 1577 1017 bf 0 0.733333 1 c 6 5 1583 1017 bf 6 5 1589 1017 bf 0.133333 1 0 c 6 5 1595 1017 bf 0 0.0800001 1 c 6 5 1601 1017 bf 6 5 1613 1017 bf 6 5 1619 1017 bf 6 5 1379 1022 bf
 6 5 1421 1022 bf 6 5 1445 1022 bf 6 5 1475 1022 bf 0 0.733333 1 c 6 5 1487 1022 bf 0 1 0.52 c 6 5 1493 1022 bf 0 0.0800001 1 c 6 5 1499 1022 bf 6 5 1511 1022 bf 0 0.733333 1 c 6 5 1517 1022 bf 6 5 1523 1022 bf 6 5 1529 1022 bf 6 5 1535 1022 bf 0
 0.0800001 1 c 6 5 1547 1022 bf 0 0.733333 1 c 6 5 1553 1022 bf 6 5 1559 1022 bf 0 0.0800001 1 c 6 5 1571 1022 bf 6 5 1577 1022 bf 0 1 0.52 c 6 5 1583 1022 bf 0 0.0800001 1 c 6 5 1595 1022 bf 0 1 0.52 c 6 5 1601 1022 bf 0 0.733333 1 c 6 5 1613 1022
 bf 0 0.0800001 1 c 6 5 1619 1022 bf 6 5 1625 1022 bf 6 5 1649 1022 bf 6 5 1661 1022 bf 0 0.733333 1 c 6 5 1667 1022 bf 0 0.0800001 1 c 6 5 1673 1022 bf 6 5 1679 1022 bf 0 0.733333 1 c 6 5 1445 1027 bf 0 0.0800001 1 c 6 5 1457 1027 bf 0 0.733333 1 c
 6 5 1463 1027 bf 0 0.0800001 1 c 6 5 1481 1027 bf 6 5 1493 1027 bf 0 0.733333 1 c 6 5 1499 1027 bf 0 1 0.52 c 6 5 1505 1027 bf 6 5 1511 1027 bf 0.88 1 0 c 6 5 1517 1027 bf 0 0.733333 1 c 6 5 1529 1027 bf 6 5 1541 1027 bf 1 0.466667 0 c 6 5 1547 1027
 bf 0 0.733333 1 c 6 5 1553 1027 bf 0 0.0800001 1 c 6 5 1559 1027 bf 0.88 1 0 c 6 5 1565 1027 bf 0 0.0800001 1 c 6 5 1571 1027 bf 0 1 0.52 c 6 5 1577 1027 bf 0 0.0800001 1 c 6 5 1583 1027 bf 6 5 1589 1027 bf 0 0.733333 1 c 6 5 1595 1027 bf 6 5 1607
 1027 bf 0 1 0.52 c 6 5 1619 1027 bf 0 0.0800001 1 c 6 5 1625 1027 bf 6 5 1637 1027 bf 0 0.733333 1 c 6 5 1673 1027 bf 0 0.0800001 1 c 6 6 1421 1032 bf 6 6 1445 1032 bf 6 6 1463 1032 bf 6 6 1481 1032 bf 6 6 1487 1032 bf 0 1 0.52 c 6 6 1499 1032 bf 6
 6 1523 1032 bf 0 0.0800001 1 c 6 6 1529 1032 bf 6 6 1535 1032 bf 0.133333 1 0 c 6 6 1541 1032 bf 0 0.0800001 1 c 6 6 1547 1032 bf 6 6 1553 1032 bf 6 6 1559 1032 bf 0 0.733333 1 c 6 6 1565 1032 bf 6 6 1571 1032 bf 0.133333 1 0 c 6 6 1577 1032 bf 0 1
 0.52 c 6 6 1583 1032 bf 0 0.0800001 1 c 6 6 1595 1032 bf 6 6 1613 1032 bf 6 6 1619 1032 bf 0 0.733333 1 c 6 6 1643 1032 bf 0 0.0800001 1 c 6 6 1649 1032 bf 6 6 1667 1032 bf 6 6 1673 1032 bf 6 6 1691 1032 bf 6 5 1409 1038 bf 0 0.733333 1 c 6 5 1451
 1038 bf 0 0.0800001 1 c 6 5 1469 1038 bf 6 5 1475 1038 bf 6 5 1481 1038 bf 6 5 1487 1038 bf 6 5 1493 1038 bf 6 5 1499 1038 bf 0 1 0.52 c 6 5 1505 1038 bf 0.133333 1 0 c 6 5 1511 1038 bf 0 0.0800001 1 c 6 5 1517 1038 bf 6 5 1523 1038 bf 0 0.733333 1
 c 6 5 1535 1038 bf 0 1 0.52 c 6 5 1547 1038 bf 6 5 1553 1038 bf 0 0.0800001 1 c 6 5 1559 1038 bf 0 1 0.52 c 6 5 1571 1038 bf 0 0.733333 1 c 6 5 1577 1038 bf 0 0.0800001 1 c 6 5 1595 1038 bf 0 0.733333 1 c 6 5 1601 1038 bf 0 0.0800001 1 c 6 5 1607
 1038 bf 6 5 1613 1038 bf 0 0.733333 1 c 6 5 1619 1038 bf 6 5 1631 1038 bf 0 0.0800001 1 c 6 5 1637 1038 bf 6 5 1643 1038 bf 6 5 1661 1038 bf 6 5 1403 1043 bf 6 5 1415 1043 bf 6 5 1439 1043 bf 0 0.733333 1 c 6 5 1445 1043 bf 0 0.0800001 1 c 6 5 1451
 1043 bf 6 5 1457 1043 bf 6 5 1463 1043 bf 0 0.733333 1 c 6 5 1469 1043 bf 0 0.0800001 1 c 6 5 1481 1043 bf 6 5 1499 1043 bf 6 5 1505 1043 bf 0 0.733333 1 c 6 5 1511 1043 bf 0 0.0800001 1 c 6 5 1517 1043 bf 0 1 0.52 c 6 5 1523 1043 bf 0 0.733333 1 c
 6 5 1535 1043 bf 0 1 0.52 c 6 5 1541 1043 bf 0.133333 1 0 c 6 5 1547 1043 bf 0 0.733333 1 c 6 5 1553 1043 bf 0 0.0800001 1 c 6 5 1559 1043 bf 6 5 1565 1043 bf 0 1 0.52 c 6 5 1571 1043 bf 0 0.733333 1 c 6 5 1577 1043 bf 0 0.0800001 1 c 6 5 1583 1043
 bf 6 5 1595 1043 bf 0 0.733333 1 c 6 5 1601 1043 bf 0 0.0800001 1 c 6 5 1607 1043 bf 0 0.733333 1 c 6 5 1631 1043 bf 0 0.0800001 1 c 6 5 1637 1043 bf 6 5 1649 1043 bf 6 5 1661 1043 bf 6 5 1721 1043 bf 6 5 1745 1043 bf 6 6 1385 1048 bf 6 6 1391 1048
 bf 6 6 1427 1048 bf 6 6 1439 1048 bf 6 6 1457 1048 bf 6 6 1463 1048 bf 6 6 1469 1048 bf 6 6 1487 1048 bf 6 6 1493 1048 bf 0 0.733333 1 c 6 6 1499 1048 bf 0 0.0800001 1 c 6 6 1505 1048 bf 0 0.733333 1 c 6 6 1511 1048 bf 6 6 1523 1048 bf 0.88 1 0 c 6
 6 1529 1048 bf 6 6 1535 1048 bf 0 1 0.52 c 6 6 1541 1048 bf 1 0.466667 0 c 6 6 1547 1048 bf 0 0.0800001 1 c 6 6 1559 1048 bf 6 6 1565 1048 bf 6 6 1571 1048 bf 0 0.733333 1 c 6 6 1577 1048 bf 0 0.0800001 1 c 6 6 1583 1048 bf 0.88 1 0 c 6 6 1589 1048
 bf 0 1 0.52 c 6 6 1595 1048 bf 0 0.0800001 1 c 6 6 1649 1048 bf 6 5 1421 1054 bf 6 5 1433 1054 bf 6 5 1439 1054 bf 6 5 1457 1054 bf 0 0.733333 1 c 6 5 1469 1054 bf 0 1 0.52 c 6 5 1475 1054 bf 0 0.733333 1 c 6 5 1481 1054 bf 0 0.0800001 1 c 6 5 1493
 1054 bf 0 1 0.52 c 6 5 1499 1054 bf 0 0.733333 1 c 6 5 1505 1054 bf 1 0 0 c 6 5 1511 1054 bf 0 0.733333 1 c 6 5 1523 1054 bf 0 1 0.52 c 6 5 1529 1054 bf 0 0.0800001 1 c 6 5 1535 1054 bf 0 0.733333 1 c 6 5 1541 1054 bf 6 5 1547 1054 bf 6 5 1559 1054
 bf 0.133333 1 0 c 6 5 1565 1054 bf 6 5 1577 1054 bf 0 0.0800001 1 c 6 5 1583 1054 bf 0 0.733333 1 c 6 5 1595 1054 bf 0 0.0800001 1 c 6 5 1607 1054 bf 6 5 1613 1054 bf 6 5 1619 1054 bf 0 0.733333 1 c 6 5 1625 1054 bf 0 0.0800001 1 c 6 5 1631 1054 bf
 6 5 1433 1059 bf 6 5 1439 1059 bf 6 5 1475 1059 bf 6 5 1481 1059 bf 0 0.733333 1 c 6 5 1493 1059 bf 0 0.0800001 1 c 6 5 1499 1059 bf 6 5 1505 1059 bf 0 1 0.52 c 6 5 1511 1059 bf 0 0.733333 1 c 6 5 1517 1059 bf 0 1 0.52 c 6 5 1523 1059 bf 0 0.0800001
 1 c 6 5 1529 1059 bf 6 5 1535 1059 bf 0.133333 1 0 c 6 5 1541 1059 bf 0 0.733333 1 c 6 5 1547 1059 bf 6 5 1553 1059 bf 0 0.0800001 1 c 6 5 1559 1059 bf 0.88 1 0 c 6 5 1565 1059 bf 0 0.0800001 1 c 6 5 1571 1059 bf 6 5 1577 1059 bf 6 5 1583 1059 bf 6
 5 1589 1059 bf 6 5 1595 1059 bf 0 0.733333 1 c 6 5 1607 1059 bf 0 0.0800001 1 c 6 5 1625 1059 bf 0 0.733333 1 c 6 5 1643 1059 bf 6 5 1385 1064 bf 0 0.0800001 1 c 6 5 1415 1064 bf 6 5 1439 1064 bf 6 5 1445 1064 bf 6 5 1463 1064 bf 0 0.733333 1 c 6 5
 1469 1064 bf 0 0.0800001 1 c 6 5 1475 1064 bf 6 5 1481 1064 bf 6 5 1487 1064 bf 6 5 1493 1064 bf 0 0.733333 1 c 6 5 1499 1064 bf 6 5 1505 1064 bf 0 0.0800001 1 c 6 5 1511 1064 bf 0 1 0.52 c 6 5 1517 1064 bf 6 5 1523 1064 bf 1 0.466667 0 c 6 5 1541
 1064 bf 0 1 0.52 c 6 5 1547 1064 bf 0 0.733333 1 c 6 5 1559 1064 bf 0 1 0.52 c 6 5 1571 1064 bf 0 0.0800001 1 c 6 5 1577 1064 bf 0 0.733333 1 c 6 5 1589 1064 bf 0 0.0800001 1 c 6 5 1595 1064 bf 6 5 1607 1064 bf 6 5 1631 1064 bf 6 5 1637 1064 bf 6 5
 1643 1064 bf 6 5 1655 1064 bf 6 6 1421 1069 bf 6 6 1433 1069 bf 6 6 1439 1069 bf 6 6 1445 1069 bf 0 0.733333 1 c 6 6 1457 1069 bf 0 0.0800001 1 c 6 6 1469 1069 bf 6 6 1475 1069 bf 6 6 1481 1069 bf 0 1 0.52 c 6 6 1487 1069 bf 0.88 1 0 c 6 6 1493 1069
 bf 0 0.0800001 1 c 6 6 1499 1069 bf 0 0.733333 1 c 6 6 1511 1069 bf 0 0.0800001 1 c 6 6 1517 1069 bf 0 0.733333 1 c 6 6 1523 1069 bf 0.88 1 0 c 6 6 1529 1069 bf 0 0.0800001 1 c 6 6 1535 1069 bf 6 6 1541 1069 bf 0 0.733333 1 c 6 6 1547 1069 bf 0
 0.0800001 1 c 6 6 1553 1069 bf 6 6 1559 1069 bf 0 0.733333 1 c 6 6 1565 1069 bf 6 6 1571 1069 bf 0 0.0800001 1 c 6 6 1577 1069 bf 6 6 1583 1069 bf 6 6 1589 1069 bf 0 0.733333 1 c 6 6 1595 1069 bf 0 1 0.52 c 6 6 1601 1069 bf 0 0.733333 1 c 6 6 1607
 1069 bf 6 6 1613 1069 bf 6 6 1631 1069 bf 0 0.0800001 1 c 6 6 1643 1069 bf 6 6 1655 1069 bf 6 5 1445 1075 bf 6 5 1451 1075 bf 6 5 1463 1075 bf 6 5 1469 1075 bf 6 5 1475 1075 bf 6 5 1481 1075 bf 6 5 1487 1075 bf 0 0.733333 1 c 6 5 1493 1075 bf 0
 0.0800001 1 c 6 5 1499 1075 bf 0 0.733333 1 c 6 5 1505 1075 bf 0.133333 1 0 c 6 5 1511 1075 bf 0 1 0.52 c 6 5 1517 1075 bf 0 0.733333 1 c 6 5 1523 1075 bf 0 0.0800001 1 c 6 5 1535 1075 bf 6 5 1541 1075 bf 6 5 1547 1075 bf 6 5 1553 1075 bf 0 0.733333
 1 c 6 5 1559 1075 bf 0 0.0800001 1 c 6 5 1571 1075 bf 0 1 0.52 c 6 5 1583 1075 bf 0 0.0800001 1 c 6 5 1601 1075 bf 0.133333 1 0 c 6 5 1607 1075 bf 0 1 0.52 c 6 5 1631 1075 bf 0 0.733333 1 c 6 5 1643 1075 bf 0 0.0800001 1 c 6 5 1439 1080 bf 6 5 1445
 1080 bf 6 5 1451 1080 bf 0 0.733333 1 c 6 5 1463 1080 bf 0 0.0800001 1 c 6 5 1469 1080 bf 6 5 1475 1080 bf 0 0.733333 1 c 6 5 1481 1080 bf 0 0.0800001 1 c 6 5 1499 1080 bf 6 5 1505 1080 bf 6 5 1511 1080 bf 6 5 1517 1080 bf 0 0.733333 1 c 6 5 1523
 1080 bf 0 1 0.52 c 6 5 1529 1080 bf 6 5 1535 1080 bf 0 0.0800001 1 c 6 5 1541 1080 bf 0.133333 1 0 c 6 5 1547 1080 bf 0 1 0.52 c 6 5 1553 1080 bf 0 0.733333 1 c 6 5 1565 1080 bf 0 0.0800001 1 c 6 5 1571 1080 bf 6 5 1577 1080 bf 6 5 1583 1080 bf 6 5
 1595 1080 bf 6 5 1601 1080 bf 6 5 1613 1080 bf 6 5 1619 1080 bf 6 5 1631 1080 bf 6 5 1637 1080 bf 6 5 1643 1080 bf 6 5 1445 1085 bf 6 5 1451 1085 bf 0 0.733333 1 c 6 5 1469 1085 bf 0 0.0800001 1 c 6 5 1487 1085 bf 6 5 1493 1085 bf 6 5 1499 1085 bf 0
 1 0.52 c 6 5 1505 1085 bf 0 0.0800001 1 c 6 5 1511 1085 bf 0 0.733333 1 c 6 5 1523 1085 bf 0 1 0.52 c 6 5 1529 1085 bf 6 5 1535 1085 bf 0 0.733333 1 c 6 5 1541 1085 bf 0 0.0800001 1 c 6 5 1547 1085 bf 0 0.733333 1 c 6 5 1553 1085 bf 6 5 1565 1085 bf
 6 5 1571 1085 bf 0 0.0800001 1 c 6 5 1577 1085 bf 6 5 1583 1085 bf 0 0.733333 1 c 6 5 1595 1085 bf 0 1 0.52 c 6 5 1601 1085 bf 0 0.733333 1 c 6 5 1607 1085 bf 6 5 1613 1085 bf 0 0.0800001 1 c 6 5 1619 1085 bf 6 5 1625 1085 bf 0 0.733333 1 c 6 5 1637
 1085 bf 0 0.0800001 1 c 6 5 1655 1085 bf 0 0.733333 1 c 6 6 1451 1090 bf 0 0.0800001 1 c 6 6 1469 1090 bf 0 0.733333 1 c 6 6 1475 1090 bf 0 0.0800001 1 c 6 6 1487 1090 bf 0 1 0.52 c 6 6 1493 1090 bf 6 6 1499 1090 bf 0 0.733333 1 c 6 6 1511 1090 bf 0
 1 0.52 c 6 6 1517 1090 bf 6 6 1523 1090 bf 0 0.733333 1 c 6 6 1529 1090 bf 6 6 1541 1090 bf 0 0.0800001 1 c 6 6 1547 1090 bf 1 0 0 c 6 6 1553 1090 bf 0 0.0800001 1 c 6 6 1559 1090 bf 1 0.466667 0 c 6 6 1565 1090 bf 0 0.0800001 1 c 6 6 1571 1090 bf 0
 0.733333 1 c 6 6 1577 1090 bf 0 1 0.52 c 6 6 1583 1090 bf 0 0.733333 1 c 6 6 1589 1090 bf 0 1 0.52 c 6 6 1595 1090 bf 0 0.0800001 1 c 6 6 1601 1090 bf 0 1 0.52 c 6 6 1613 1090 bf 0 0.733333 1 c 6 6 1625 1090 bf 0 0.0800001 1 c 6 6 1643 1090 bf 6 6
 1655 1090 bf 6 6 1661 1090 bf 6 5 1385 1096 bf 6 5 1391 1096 bf 6 5 1403 1096 bf 0 0.733333 1 c 6 5 1415 1096 bf 0 0.0800001 1 c 6 5 1451 1096 bf 6 5 1457 1096 bf 6 5 1463 1096 bf 0 0.733333 1 c 6 5 1469 1096 bf 6 5 1475 1096 bf 0 1 0.52 c 6 5 1487
 1096 bf 0 0.733333 1 c 6 5 1493 1096 bf 0 0.0800001 1 c 6 5 1505 1096 bf 0 1 0.52 c 6 5 1511 1096 bf 0 0.0800001 1 c 6 5 1517 1096 bf 0 1 0.52 c 6 5 1529 1096 bf 0 0.0800001 1 c 6 5 1535 1096 bf 0 1 0.52 c 6 5 1541 1096 bf 0.133333 1 0 c 6 5 1547
 1096 bf 0 0.0800001 1 c 6 5 1553 1096 bf 6 5 1559 1096 bf 0 0.733333 1 c 6 5 1565 1096 bf 0.133333 1 0 c 6 5 1571 1096 bf 0 0.733333 1 c 6 5 1577 1096 bf 0 0.0800001 1 c 6 5 1583 1096 bf 6 5 1589 1096 bf 0 0.733333 1 c 6 5 1595 1096 bf 0 0.0800001 1
 c 6 5 1601 1096 bf 0 1 0.52 c 6 5 1607 1096 bf 0 0.733333 1 c 6 5 1613 1096 bf 0 0.0800001 1 c 6 5 1619 1096 bf 6 5 1631 1096 bf 6 5 1637 1096 bf 6 5 1415 1101 bf 6 5 1427 1101 bf 0 0.733333 1 c 6 5 1439 1101 bf 0 0.0800001 1 c 6 5 1451 1101 bf 0
 0.733333 1 c 6 5 1463 1101 bf 0 0.0800001 1 c 6 5 1469 1101 bf 6 5 1475 1101 bf 6 5 1481 1101 bf 0 0.733333 1 c 6 5 1487 1101 bf 0 1 0.52 c 6 5 1493 1101 bf 0 0.0800001 1 c 6 5 1499 1101 bf 6 5 1505 1101 bf 0 1 0.52 c 6 5 1511 1101 bf 0 0.733333 1 c
 6 5 1517 1101 bf 6 5 1523 1101 bf 1 0.466667 0 c 6 5 1529 1101 bf 0 0.0800001 1 c 6 5 1535 1101 bf 0 1 0.52 c 6 5 1541 1101 bf 0 0.0800001 1 c 6 5 1553 1101 bf 6 5 1559 1101 bf 0 1 0.52 c 6 5 1565 1101 bf 0 0.0800001 1 c 6 5 1571 1101 bf 0 0.733333
 1 c 6 5 1577 1101 bf 0 1 0.52 c 6 5 1583 1101 bf 0 0.733333 1 c 6 5 1589 1101 bf 0 0.0800001 1 c 6 5 1595 1101 bf 6 5 1601 1101 bf 6 5 1607 1101 bf 6 5 1619 1101 bf 6 5 1631 1101 bf 0 0.733333 1 c 6 5 1649 1101 bf 6 5 1667 1101 bf 0 0.0800001 1 c 6
 5 1685 1101 bf 6 5 1409 1106 bf 6 5 1415 1106 bf 6 5 1439 1106 bf 6 5 1457 1106 bf 6 5 1463 1106 bf 6 5 1487 1106 bf 0 1 0.52 c 6 5 1493 1106 bf 0 0.733333 1 c 6 5 1499 1106 bf 6 5 1505 1106 bf 6 5 1511 1106 bf 0 0.0800001 1 c 6 5 1517 1106 bf
 0.133333 1 0 c 6 5 1523 1106 bf 0 1 0.52 c 6 5 1529 1106 bf 0 0.733333 1 c 6 5 1535 1106 bf 6 5 1541 1106 bf 0 0.0800001 1 c 6 5 1547 1106 bf 0 0.733333 1 c 6 5 1559 1106 bf 6 5 1565 1106 bf 0.133333 1 0 c 6 5 1571 1106 bf 0 0.0800001 1 c 6 5 1577
 1106 bf 0 1 0.52 c 6 5 1583 1106 bf 0 0.733333 1 c 6 5 1601 1106 bf 6 5 1607 1106 bf 0 1 0.52 c 6 5 1613 1106 bf 0 0.733333 1 c 6 5 1619 1106 bf 0 0.0800001 1 c 6 5 1643 1106 bf 6 5 1661 1106 bf 6 5 1703 1106 bf 6 6 1409 1111 bf 6 6 1415 1111 bf 6 6
 1421 1111 bf 6 6 1427 1111 bf 6 6 1433 1111 bf 6 6 1445 1111 bf 6 6 1469 1111 bf 0 0.733333 1 c 6 6 1475 1111 bf 0 0.0800001 1 c 6 6 1481 1111 bf 0.133333 1 0 c 6 6 1487 1111 bf 0 0.733333 1 c 6 6 1499 1111 bf 0 0.0800001 1 c 6 6 1505 1111 bf 6 6
 1511 1111 bf 0 1 0.52 c 6 6 1517 1111 bf 0.133333 1 0 c 6 6 1523 1111 bf 0 0.733333 1 c 6 6 1529 1111 bf 0 0.0800001 1 c 6 6 1535 1111 bf 0 0.733333 1 c 6 6 1541 1111 bf 0 1 0.52 c 6 6 1547 1111 bf 0 0.733333 1 c 6 6 1553 1111 bf 0.133333 1 0 c 6 6
 1559 1111 bf 6 6 1565 1111 bf 0 0.733333 1 c 6 6 1571 1111 bf 0 1 0.52 c 6 6 1577 1111 bf 0 0.733333 1 c 6 6 1583 1111 bf 0 1 0.52 c 6 6 1589 1111 bf 0 0.0800001 1 c 6 6 1595 1111 bf 6 6 1601 1111 bf 0 1 0.52 c 6 6 1607 1111 bf 0 0.733333 1 c 6 6
 1613 1111 bf 0 0.0800001 1 c 6 6 1619 1111 bf 0 0.733333 1 c 6 6 1631 1111 bf 0 0.0800001 1 c 6 5 1391 1117 bf 6 5 1445 1117 bf 6 5 1469 1117 bf 6 5 1481 1117 bf 0 0.733333 1 c 6 5 1493 1117 bf 6 5 1499 1117 bf 0 0.0800001 1 c 6 5 1505 1117 bf 0
 0.733333 1 c 6 5 1511 1117 bf 0 0.0800001 1 c 6 5 1517 1117 bf 0.133333 1 0 c 6 5 1523 1117 bf 0 0.0800001 1 c 6 5 1529 1117 bf 6 5 1535 1117 bf 0 0.733333 1 c 6 5 1541 1117 bf 0.88 1 0 c 6 5 1547 1117 bf 0 1 0.52 c 6 5 1565 1117 bf 0 0.0800001 1 c
 6 5 1571 1117 bf 0.88 1 0 c 6 5 1577 1117 bf 0 0.0800001 1 c 6 5 1595 1117 bf 6 5 1619 1117 bf 0 0.733333 1 c 6 5 1625 1117 bf 0 0.0800001 1 c 6 5 1631 1117 bf 6 5 1637 1117 bf 6 5 1643 1117 bf 6 5 1649 1117 bf 6 5 1667 1117 bf 6 5 1679 1117 bf 6 5
 1403 1122 bf 6 5 1409 1122 bf 6 5 1445 1122 bf 6 5 1457 1122 bf 6 5 1469 1122 bf 0 0.733333 1 c 6 5 1475 1122 bf 6 5 1481 1122 bf 0 1 0.52 c 6 5 1493 1122 bf 0 0.0800001 1 c 6 5 1499 1122 bf 6 5 1505 1122 bf 6 5 1511 1122 bf 0 0.733333 1 c 6 5 1517
 1122 bf 0 1 0.52 c 6 5 1529 1122 bf 0 0.733333 1 c 6 5 1535 1122 bf 6 5 1541 1122 bf 0 0.0800001 1 c 6 5 1547 1122 bf 0.88 1 0 c 6 5 1553 1122 bf 0 1 0.52 c 6 5 1559 1122 bf 0 0.733333 1 c 6 5 1565 1122 bf 0 0.0800001 1 c 6 5 1571 1122 bf 0 1 0.52 c
 6 5 1577 1122 bf 0 0.0800001 1 c 6 5 1583 1122 bf 6 5 1589 1122 bf 6 5 1595 1122 bf 0 0.733333 1 c 6 5 1607 1122 bf 0 0.0800001 1 c 6 5 1613 1122 bf 6 5 1619 1122 bf 6 5 1625 1122 bf 0 0.733333 1 c 6 5 1631 1122 bf 0 0.0800001 1 c 6 5 1643 1122 bf 6
 5 1673 1122 bf 6 5 1721 1122 bf 6 5 1451 1127 bf 6 5 1469 1127 bf 0 0.733333 1 c 6 5 1475 1127 bf 6 5 1481 1127 bf 6 5 1487 1127 bf 0 0.0800001 1 c 6 5 1493 1127 bf 6 5 1505 1127 bf 0 0.733333 1 c 6 5 1511 1127 bf 0 0.0800001 1 c 6 5 1523 1127 bf 0
 1 0.52 c 6 5 1529 1127 bf 0 0.733333 1 c 6 5 1535 1127 bf 0.133333 1 0 c 6 5 1541 1127 bf 0 0.733333 1 c 6 5 1553 1127 bf 0 0.0800001 1 c 6 5 1559 1127 bf 0 1 0.52 c 6 5 1565 1127 bf 0 0.0800001 1 c 6 5 1571 1127 bf 0 0.733333 1 c 6 5 1583 1127 bf 0
 1 0.52 c 6 5 1595 1127 bf 0 0.0800001 1 c 6 5 1601 1127 bf 6 5 1607 1127 bf 6 5 1631 1127 bf 6 5 1637 1127 bf 6 5 1643 1127 bf 6 5 1661 1127 bf 6 6 1373 1132 bf 6 6 1397 1132 bf 6 6 1421 1132 bf 0 1 0.52 c 6 6 1457 1132 bf 0 0.0800001 1 c 6 6 1469
 1132 bf 0 0.733333 1 c 6 6 1499 1132 bf 0 1 0.52 c 6 6 1505 1132 bf 0 0.0800001 1 c 6 6 1511 1132 bf 0 0.733333 1 c 6 6 1517 1132 bf 0 1 0.52 c 6 6 1523 1132 bf 6 6 1529 1132 bf 0 0.733333 1 c 6 6 1535 1132 bf 6 6 1541 1132 bf 0 1 0.52 c 6 6 1553
 1132 bf 0.88 1 0 c 6 6 1559 1132 bf 0 0.0800001 1 c 6 6 1571 1132 bf 0 1 0.52 c 6 6 1577 1132 bf 0 0.0800001 1 c 6 6 1583 1132 bf 0 1 0.52 c 6 6 1589 1132 bf 0 0.733333 1 c 6 6 1595 1132 bf 0 0.0800001 1 c 6 6 1601 1132 bf 0 1 0.52 c 6 6 1607 1132
 bf 6 6 1619 1132 bf 0 0.0800001 1 c 6 6 1625 1132 bf 6 6 1631 1132 bf 6 6 1643 1132 bf 6 6 1679 1132 bf 6 6 1691 1132 bf 0 0.733333 1 c 6 5 1397 1138 bf 0 0.0800001 1 c 6 5 1415 1138 bf 0 0.733333 1 c 6 5 1463 1138 bf 6 5 1469 1138 bf 0 1 0.52 c 6 5
 1481 1138 bf 0.133333 1 0 c 6 5 1493 1138 bf 0 0.733333 1 c 6 5 1499 1138 bf 0 0.0800001 1 c 6 5 1505 1138 bf 0 1 0.52 c 6 5 1511 1138 bf 0 0.733333 1 c 6 5 1517 1138 bf 6 5 1523 1138 bf 6 5 1529 1138 bf 6 5 1535 1138 bf 6 5 1541 1138 bf 0 0.0800001
 1 c 6 5 1553 1138 bf 6 5 1559 1138 bf 0 0.733333 1 c 6 5 1565 1138 bf 0 0.0800001 1 c 6 5 1571 1138 bf 0 0.733333 1 c 6 5 1589 1138 bf 0 0.0800001 1 c 6 5 1601 1138 bf 0 0.733333 1 c 6 5 1607 1138 bf 0 0.0800001 1 c 6 5 1631 1138 bf 6 5 1637 1138 bf
 6 5 1655 1138 bf 6 5 1661 1138 bf 6 5 1409 1143 bf 6 5 1415 1143 bf 0 0.733333 1 c 6 5 1433 1143 bf 0 0.0800001 1 c 6 5 1439 1143 bf 6 5 1463 1143 bf 0 0.733333 1 c 6 5 1475 1143 bf 0 0.0800001 1 c 6 5 1481 1143 bf 0 0.733333 1 c 6 5 1487 1143 bf 0
 0.0800001 1 c 6 5 1505 1143 bf 0 1 0.52 c 6 5 1511 1143 bf 0 0.733333 1 c 6 5 1517 1143 bf 0 1 0.52 c 6 5 1523 1143 bf 0 0.0800001 1 c 6 5 1529 1143 bf 6 5 1535 1143 bf 0 1 0.52 c 6 5 1541 1143 bf 0 0.0800001 1 c 6 5 1547 1143 bf 0 0.733333 1 c 6 5
 1553 1143 bf 0.88 1 0 c 6 5 1559 1143 bf 0 0.733333 1 c 6 5 1565 1143 bf 0 0.0800001 1 c 6 5 1577 1143 bf 0 0.733333 1 c 6 5 1589 1143 bf 0 0.0800001 1 c 6 5 1595 1143 bf 6 5 1601 1143 bf 0.133333 1 0 c 6 5 1607 1143 bf 0 0.733333 1 c 6 5 1613 1143
 bf 6 5 1619 1143 bf 0 0.0800001 1 c 6 5 1631 1143 bf 0 0.733333 1 c 6 5 1643 1143 bf 0 0.0800001 1 c 6 5 1649 1143 bf 6 5 1691 1143 bf 6 5 1703 1143 bf 6 6 1403 1148 bf 6 6 1415 1148 bf 6 6 1433 1148 bf 6 6 1439 1148 bf 6 6 1445 1148 bf 0 0.733333 1
 c 6 6 1463 1148 bf 6 6 1469 1148 bf 6 6 1481 1148 bf 6 6 1493 1148 bf 0 0.0800001 1 c 6 6 1499 1148 bf 0 1 0.52 c 6 6 1505 1148 bf 0 0.0800001 1 c 6 6 1511 1148 bf 0 0.733333 1 c 6 6 1523 1148 bf 6 6 1529 1148 bf 0 0.0800001 1 c 6 6 1535 1148 bf 6 6
 1541 1148 bf 0 0.733333 1 c 6 6 1553 1148 bf 0 1 0.52 c 6 6 1559 1148 bf 0 0.733333 1 c 6 6 1565 1148 bf 0 1 0.52 c 6 6 1571 1148 bf 6 6 1577 1148 bf 0.133333 1 0 c 6 6 1583 1148 bf 0 0.0800001 1 c 6 6 1589 1148 bf 0.133333 1 0 c 6 6 1595 1148 bf 0
 0.0800001 1 c 6 6 1601 1148 bf 6 6 1613 1148 bf 6 6 1625 1148 bf 6 6 1631 1148 bf 6 6 1661 1148 bf 6 6 1709 1148 bf 6 5 1427 1154 bf 6 5 1445 1154 bf 0 0.733333 1 c 6 5 1463 1154 bf 0 0.0800001 1 c 6 5 1475 1154 bf 6 5 1481 1154 bf 6 5 1487 1154 bf
 0.133333 1 0 c 6 5 1511 1154 bf 0 0.733333 1 c 6 5 1517 1154 bf 0 0.0800001 1 c 6 5 1523 1154 bf 0 1 0.52 c 6 5 1529 1154 bf 0 0.0800001 1 c 6 5 1535 1154 bf 6 5 1553 1154 bf 0 1 0.52 c 6 5 1559 1154 bf 0 0.733333 1 c 6 5 1571 1154 bf 0 0.0800001 1
 c 6 5 1577 1154 bf 0 1 0.52 c 6 5 1589 1154 bf 0 0.733333 1 c 6 5 1595 1154 bf 6 5 1601 1154 bf 6 5 1607 1154 bf 6 5 1613 1154 bf 0 0.0800001 1 c 6 5 1625 1154 bf 6 5 1637 1154 bf 0 0.733333 1 c 6 5 1643 1154 bf 6 5 1649 1154 bf 0 0.0800001 1 c 6 5
 1457 1159 bf 6 5 1469 1159 bf 6 5 1475 1159 bf 0 0.733333 1 c 6 5 1487 1159 bf 0 0.0800001 1 c 6 5 1493 1159 bf 0 1 0.52 c 6 5 1499 1159 bf 0 0.733333 1 c 6 5 1511 1159 bf 6 5 1523 1159 bf 0.88 1 0 c 6 5 1529 1159 bf 0 0.733333 1 c 6 5 1541 1159 bf
 6 5 1547 1159 bf 0 1 0.52 c 6 5 1553 1159 bf 0 0.733333 1 c 6 5 1559 1159 bf 6 5 1571 1159 bf 0 0.0800001 1 c 6 5 1577 1159 bf 6 5 1583 1159 bf 6 5 1589 1159 bf 6 5 1595 1159 bf 0 0.733333 1 c 6 5 1607 1159 bf 6 5 1613 1159 bf 0 0.0800001 1 c 6 5
 1631 1159 bf 6 5 1643 1159 bf 6 5 1649 1159 bf 6 5 1391 1164 bf 6 5 1463 1164 bf 6 5 1469 1164 bf 6 5 1475 1164 bf 6 5 1493 1164 bf 0 1 0.52 c 6 5 1499 1164 bf 0 0.733333 1 c 6 5 1505 1164 bf 6 5 1517 1164 bf 0 1 0.52 c 6 5 1523 1164 bf 6 5 1529
 1164 bf 0.88 1 0 c 6 5 1535 1164 bf 0 0.733333 1 c 6 5 1541 1164 bf 0 0.0800001 1 c 6 5 1547 1164 bf 0.133333 1 0 c 6 5 1553 1164 bf 6 5 1559 1164 bf 0 0.0800001 1 c 6 5 1565 1164 bf 0 1 0.52 c 6 5 1571 1164 bf 0 0.733333 1 c 6 5 1583 1164 bf 0
 0.0800001 1 c 6 5 1601 1164 bf 6 5 1607 1164 bf 6 5 1613 1164 bf 6 5 1619 1164 bf 6 5 1625 1164 bf 6 5 1649 1164 bf 6 5 1667 1164 bf 0 0.733333 1 c 6 6 1427 1169 bf 0 0.0800001 1 c 6 6 1445 1169 bf 0 0.733333 1 c 6 6 1457 1169 bf 0 1 0.52 c 6 6 1463
 1169 bf 0 0.0800001 1 c 6 6 1481 1169 bf 0 1 0.52 c 6 6 1487 1169 bf 0 0.0800001 1 c 6 6 1493 1169 bf 6 6 1499 1169 bf 0 0.733333 1 c 6 6 1505 1169 bf 6 6 1511 1169 bf 0.133333 1 0 c 6 6 1517 1169 bf 0 0.0800001 1 c 6 6 1523 1169 bf 6 6 1529 1169 bf
 0.88 1 0 c 6 6 1535 1169 bf 0 0.0800001 1 c 6 6 1541 1169 bf 0 0.733333 1 c 6 6 1553 1169 bf 6 6 1559 1169 bf 6 6 1565 1169 bf 0 1 0.52 c 6 6 1571 1169 bf 0.133333 1 0 c 6 6 1577 1169 bf 0 0.0800001 1 c 6 6 1583 1169 bf 0 1 0.52 c 6 6 1589 1169 bf 6
 6 1595 1169 bf 0 0.0800001 1 c 6 6 1601 1169 bf 0 0.733333 1 c 6 6 1613 1169 bf 0 0.0800001 1 c 6 6 1619 1169 bf 6 6 1625 1169 bf 6 6 1637 1169 bf 6 6 1649 1169 bf 0 0.733333 1 c 6 6 1655 1169 bf 0 0.0800001 1 c 6 6 1661 1169 bf 6 6 1673 1169 bf 6 5
 1385 1175 bf 6 5 1445 1175 bf 0 1 0.52 c 6 5 1451 1175 bf 0 0.0800001 1 c 6 5 1457 1175 bf 6 5 1469 1175 bf 6 5 1475 1175 bf 0 0.733333 1 c 6 5 1487 1175 bf 0 1 0.52 c 6 5 1499 1175 bf 0 0.733333 1 c 6 5 1517 1175 bf 0 1 0.52 c 6 5 1523 1175 bf 0
 0.733333 1 c 6 5 1529 1175 bf 6 5 1535 1175 bf 6 5 1541 1175 bf 0 0.0800001 1 c 6 5 1547 1175 bf 0 0.733333 1 c 6 5 1553 1175 bf 0 0.0800001 1 c 6 5 1559 1175 bf 0 1 0.52 c 6 5 1565 1175 bf 0 0.733333 1 c 6 5 1571 1175 bf 0 0.0800001 1 c 6 5 1589
 1175 bf 0.133333 1 0 c 6 5 1595 1175 bf 0 0.0800001 1 c 6 5 1601 1175 bf 0 0.733333 1 c 6 5 1607 1175 bf 0.133333 1 0 c 6 5 1613 1175 bf 0 0.0800001 1 c 6 5 1625 1175 bf 6 5 1631 1175 bf 0 0.733333 1 c 6 5 1637 1175 bf 0 0.0800001 1 c 6 5 1679 1175
 bf 6 5 1685 1175 bf 6 5 1463 1180 bf 6 5 1493 1180 bf 0 0.733333 1 c 6 5 1499 1180 bf 0.133333 1 0 c 6 5 1517 1180 bf 0 0.0800001 1 c 6 5 1523 1180 bf 0 0.733333 1 c 6 5 1535 1180 bf 0 1 0.52 c 6 5 1541 1180 bf 0 0.0800001 1 c 6 5 1547 1180 bf
 0.133333 1 0 c 6 5 1553 1180 bf 0 0.733333 1 c 6 5 1559 1180 bf 0.88 1 0 c 6 5 1565 1180 bf 0 0.0800001 1 c 6 5 1571 1180 bf 0 0.733333 1 c 6 5 1577 1180 bf 0 1 0.52 c 6 5 1583 1180 bf 0 0.0800001 1 c 6 5 1595 1180 bf 6 5 1613 1180 bf 0 0.733333 1 c
 6 5 1619 1180 bf 0 0.0800001 1 c 6 5 1631 1180 bf 0 0.733333 1 c 6 5 1643 1180 bf 0 0.0800001 1 c 6 5 1649 1180 bf 6 5 1685 1180 bf 6 5 1697 1180 bf 6 5 1745 1180 bf 0 0.733333 1 c 6 5 1427 1185 bf 0 0.0800001 1 c 6 5 1451 1185 bf 6 5 1457 1185 bf 6
 5 1469 1185 bf 0 0.733333 1 c 6 5 1487 1185 bf 0 1 0.52 c 6 5 1499 1185 bf 0 0.733333 1 c 6 5 1505 1185 bf 0 0.0800001 1 c 6 5 1511 1185 bf 0 0.733333 1 c 6 5 1517 1185 bf 0 0.0800001 1 c 6 5 1523 1185 bf 0 1 0.52 c 6 5 1529 1185 bf 6 5 1535 1185 bf
 0.133333 1 0 c 6 5 1541 1185 bf 0 0.0800001 1 c 6 5 1547 1185 bf 0.133333 1 0 c 6 5 1553 1185 bf 0 0.733333 1 c 6 5 1559 1185 bf 0 1 0.52 c 6 5 1565 1185 bf 6 5 1571 1185 bf 0 0.733333 1 c 6 5 1577 1185 bf 6 5 1583 1185 bf 0 1 0.52 c 6 5 1595 1185
 bf 0 0.0800001 1 c 6 5 1607 1185 bf 0 0.733333 1 c 6 5 1613 1185 bf 6 5 1625 1185 bf 0 0.0800001 1 c 6 5 1649 1185 bf 6 6 1361 1190 bf 6 6 1409 1190 bf 6 6 1451 1190 bf 6 6 1457 1190 bf 0 0.733333 1 c 6 6 1463 1190 bf 0 0.0800001 1 c 6 6 1487 1190
 bf 6 6 1493 1190 bf 6 6 1499 1190 bf 0 1 0.52 c 6 6 1505 1190 bf 6 6 1511 1190 bf 0 0.0800001 1 c 6 6 1523 1190 bf 6 6 1529 1190 bf 0 0.733333 1 c 6 6 1535 1190 bf 0 1 0.52 c 6 6 1541 1190 bf 0 0.733333 1 c 6 6 1547 1190 bf 0 0.0800001 1 c 6 6 1553
 1190 bf 0 0.733333 1 c 6 6 1559 1190 bf 0 0.0800001 1 c 6 6 1565 1190 bf 6 6 1571 1190 bf 0 0.733333 1 c 6 6 1577 1190 bf 6 6 1583 1190 bf 0 0.0800001 1 c 6 6 1595 1190 bf 6 6 1601 1190 bf 0 0.733333 1 c 6 6 1613 1190 bf 0 0.0800001 1 c 6 6 1631
 1190 bf 6 6 1637 1190 bf 6 6 1643 1190 bf 6 6 1655 1190 bf 0 0.733333 1 c 6 6 1661 1190 bf 0 0.0800001 1 c 6 5 1439 1196 bf 6 5 1445 1196 bf 6 5 1451 1196 bf 0 0.733333 1 c 6 5 1463 1196 bf 0 0.0800001 1 c 6 5 1469 1196 bf 6 5 1487 1196 bf 0 1 0.52
 c 6 5 1493 1196 bf 6 5 1499 1196 bf 0 0.0800001 1 c 6 5 1505 1196 bf 0.88 1 0 c 6 5 1511 1196 bf 0 0.733333 1 c 6 5 1517 1196 bf 6 5 1523 1196 bf 6 5 1529 1196 bf 0 0.0800001 1 c 6 5 1535 1196 bf 0 1 0.52 c 6 5 1541 1196 bf 0 0.0800001 1 c 6 5 1547
 1196 bf 6 5 1553 1196 bf 6 5 1565 1196 bf 0 0.733333 1 c 6 5 1571 1196 bf 6 5 1577 1196 bf 0 0.0800001 1 c 6 5 1583 1196 bf 6 5 1589 1196 bf 0 1 0.52 c 6 5 1595 1196 bf 0 0.733333 1 c 6 5 1601 1196 bf 0 1 0.52 c 6 5 1607 1196 bf 0 0.0800001 1 c 6 5
 1613 1196 bf 0 0.733333 1 c 6 5 1631 1196 bf 0 0.0800001 1 c 6 5 1673 1196 bf 6 5 1451 1201 bf 0 0.733333 1 c 6 5 1469 1201 bf 0 0.0800001 1 c 6 5 1475 1201 bf 6 5 1487 1201 bf 6 5 1493 1201 bf 0 0.733333 1 c 6 5 1499 1201 bf 0 0.0800001 1 c 6 5
 1505 1201 bf 1 0.466667 0 c 6 5 1511 1201 bf 0 0.0800001 1 c 6 5 1523 1201 bf 0.88 1 0 c 6 5 1529 1201 bf 0 1 0.52 c 6 5 1535 1201 bf 6 5 1541 1201 bf 0 0.733333 1 c 6 5 1547 1201 bf 6 5 1553 1201 bf 0 0.0800001 1 c 6 5 1559 1201 bf 0 0.733333 1 c 6
 5 1565 1201 bf 0 0.0800001 1 c 6 5 1571 1201 bf 6 5 1595 1201 bf 6 5 1601 1201 bf 6 5 1607 1201 bf 0 0.733333 1 c 6 5 1613 1201 bf 0 0.0800001 1 c 6 5 1619 1201 bf 0 0.733333 1 c 6 5 1625 1201 bf 0 0.0800001 1 c 6 5 1631 1201 bf 0 1 0.52 c 6 5 1655
 1201 bf 0 0.0800001 1 c 6 5 1439 1206 bf 6 5 1445 1206 bf 6 5 1451 1206 bf 6 5 1457 1206 bf 0 1 0.52 c 6 5 1469 1206 bf 0 0.0800001 1 c 6 5 1481 1206 bf 0 0.733333 1 c 6 5 1493 1206 bf 6 5 1499 1206 bf 0.133333 1 0 c 6 5 1505 1206 bf 0 0.0800001 1 c
 6 5 1511 1206 bf 6 5 1517 1206 bf 0 1 0.52 c 6 5 1523 1206 bf 0 0.0800001 1 c 6 5 1529 1206 bf 6 5 1535 1206 bf 0 0.733333 1 c 6 5 1541 1206 bf 0.133333 1 0 c 6 5 1547 1206 bf 6 5 1553 1206 bf 0 0.733333 1 c 6 5 1559 1206 bf 6 5 1565 1206 bf 6 5
 1571 1206 bf 6 5 1577 1206 bf 0 0.0800001 1 c 6 5 1583 1206 bf 6 5 1589 1206 bf 6 5 1601 1206 bf 6 5 1607 1206 bf 6 5 1613 1206 bf 6 5 1619 1206 bf 6 5 1631 1206 bf 6 5 1655 1206 bf 6 5 1685 1206 bf 6 6 1433 1211 bf 6 6 1457 1211 bf 6 6 1481 1211 bf
 0 0.733333 1 c 6 6 1493 1211 bf 0 0.0800001 1 c 6 6 1499 1211 bf 0 1 0.52 c 6 6 1505 1211 bf 0 0.733333 1 c 6 6 1511 1211 bf 0 1 0.52 c 6 6 1523 1211 bf 0 0.0800001 1 c 6 6 1529 1211 bf 0 0.733333 1 c 6 6 1535 1211 bf 6 6 1541 1211 bf 0 0.0800001 1
 c 6 6 1547 1211 bf 0 1 0.52 c 6 6 1553 1211 bf 0.133333 1 0 c 6 6 1559 1211 bf 0 0.0800001 1 c 6 6 1565 1211 bf 0 0.733333 1 c 6 6 1571 1211 bf 6 6 1577 1211 bf 0 0.0800001 1 c 6 6 1583 1211 bf 0 0.733333 1 c 6 6 1589 1211 bf 6 6 1601 1211 bf 6 6
 1607 1211 bf 6 6 1619 1211 bf 0 0.0800001 1 c 6 6 1625 1211 bf 6 6 1655 1211 bf 6 6 1667 1211 bf 6 6 1673 1211 bf 6 6 1697 1211 bf 7 6 1751 1211 bf 6 5 1409 1217 bf 6 5 1427 1217 bf 6 5 1457 1217 bf 6 5 1463 1217 bf 0 0.733333 1 c 6 5 1469 1217 bf 0
 0.0800001 1 c 6 5 1475 1217 bf 0 0.733333 1 c 6 5 1481 1217 bf 0 0.0800001 1 c 6 5 1487 1217 bf 6 5 1493 1217 bf 0.133333 1 0 c 6 5 1505 1217 bf 0 0.0800001 1 c 6 5 1511 1217 bf 0.133333 1 0 c 6 5 1523 1217 bf 6 5 1529 1217 bf 6 5 1535 1217 bf 0
 0.0800001 1 c 6 5 1541 1217 bf 0 0.733333 1 c 6 5 1553 1217 bf 0 0.0800001 1 c 6 5 1559 1217 bf 0.133333 1 0 c 6 5 1565 1217 bf 0 0.0800001 1 c 6 5 1571 1217 bf 0 0.733333 1 c 6 5 1583 1217 bf 0 0.0800001 1 c 6 5 1589 1217 bf 0 0.733333 1 c 6 5 1595
 1217 bf 0 0.0800001 1 c 6 5 1601 1217 bf 6 5 1607 1217 bf 6 5 1619 1217 bf 6 5 1625 1217 bf 6 5 1631 1217 bf 6 5 1637 1217 bf 6 5 1643 1217 bf 6 5 1661 1217 bf 6 5 1391 1222 bf 6 5 1439 1222 bf 6 5 1457 1222 bf 0 1 0.52 c 6 5 1469 1222 bf 0 0.733333
 1 c 6 5 1499 1222 bf 0 1 0.52 c 6 5 1511 1222 bf 0 0.733333 1 c 6 5 1535 1222 bf 0.133333 1 0 c 6 5 1541 1222 bf 0 0.0800001 1 c 6 5 1547 1222 bf 0.88 1 0 c 6 5 1553 1222 bf 0 0.0800001 1 c 6 5 1559 1222 bf 6 5 1565 1222 bf 0 0.733333 1 c 6 5 1571
 1222 bf 0 0.0800001 1 c 6 5 1577 1222 bf 0 0.733333 1 c 6 5 1589 1222 bf 6 5 1607 1222 bf 0 0.0800001 1 c 6 5 1613 1222 bf 0 0.733333 1 c 6 5 1619 1222 bf 0 0.0800001 1 c 6 5 1631 1222 bf 0 1 0.52 c 6 5 1643 1222 bf 0 0.0800001 1 c 6 5 1655 1222 bf
 0 1 0.52 c 6 5 1661 1222 bf 0 0.0800001 1 c 6 5 1433 1227 bf 6 5 1445 1227 bf 6 5 1457 1227 bf 0 0.733333 1 c 6 5 1475 1227 bf 6 5 1481 1227 bf 0 0.0800001 1 c 6 5 1493 1227 bf 0 1 0.52 c 6 5 1499 1227 bf 0 0.0800001 1 c 6 5 1505 1227 bf 6 5 1511
 1227 bf 0.133333 1 0 c 6 5 1517 1227 bf 0 0.733333 1 c 6 5 1523 1227 bf 0 0.0800001 1 c 6 5 1529 1227 bf 6 5 1535 1227 bf 0 1 0.52 c 6 5 1541 1227 bf 0.133333 1 0 c 6 5 1547 1227 bf 0 0.0800001 1 c 6 5 1553 1227 bf 6 5 1559 1227 bf 6 5 1565 1227 bf
 0.88 1 0 c 6 5 1583 1227 bf 0 0.0800001 1 c 6 5 1589 1227 bf 0 0.733333 1 c 6 5 1595 1227 bf 0 0.0800001 1 c 6 5 1607 1227 bf 6 5 1625 1227 bf 0 0.733333 1 c 6 5 1631 1227 bf 0 0.0800001 1 c 6 5 1637 1227 bf 6 5 1679 1227 bf 6 6 1445 1232 bf
 0.133333 1 0 c 6 6 1463 1232 bf 0 0.733333 1 c 6 6 1469 1232 bf 0.133333 1 0 c 6 6 1475 1232 bf 0 0.0800001 1 c 6 6 1481 1232 bf 6 6 1487 1232 bf 0 0.733333 1 c 6 6 1493 1232 bf 0 0.0800001 1 c 6 6 1505 1232 bf 6 6 1511 1232 bf 6 6 1517 1232 bf 6 6
 1523 1232 bf 6 6 1529 1232 bf 6 6 1535 1232 bf 6 6 1541 1232 bf 0 1 0.52 c 6 6 1547 1232 bf 0 0.733333 1 c 6 6 1553 1232 bf 6 6 1565 1232 bf 6 6 1571 1232 bf 0 0.0800001 1 c 6 6 1577 1232 bf 0 0.733333 1 c 6 6 1583 1232 bf 0 0.0800001 1 c 6 6 1589
 1232 bf 6 6 1595 1232 bf 0 0.733333 1 c 6 6 1619 1232 bf 0 0.0800001 1 c 6 6 1637 1232 bf 0 0.733333 1 c 6 6 1643 1232 bf 0 0.0800001 1 c 6 6 1649 1232 bf 6 6 1685 1232 bf 6 5 1427 1238 bf 6 5 1433 1238 bf 6 5 1439 1238 bf 6 5 1463 1238 bf 0
 0.733333 1 c 6 5 1469 1238 bf 0 0.0800001 1 c 6 5 1475 1238 bf 6 5 1481 1238 bf 0 0.733333 1 c 6 5 1493 1238 bf 0 0.0800001 1 c 6 5 1499 1238 bf 6 5 1511 1238 bf 6 5 1517 1238 bf 6 5 1523 1238 bf 0 0.733333 1 c 6 5 1529 1238 bf 6 5 1535 1238 bf 0 1
 0.52 c 6 5 1541 1238 bf 6 5 1547 1238 bf 0 0.0800001 1 c 6 5 1553 1238 bf 6 5 1559 1238 bf 0.133333 1 0 c 6 5 1565 1238 bf 0.88 1 0 c 6 5 1571 1238 bf 0 0.0800001 1 c 6 5 1577 1238 bf 0 0.733333 1 c 6 5 1583 1238 bf 0.133333 1 0 c 6 5 1601 1238 bf 0
 0.0800001 1 c 6 5 1625 1238 bf 6 5 1637 1238 bf 6 5 1649 1238 bf 6 5 1661 1238 bf 6 5 1691 1238 bf 6 5 1415 1243 bf 6 5 1421 1243 bf 6 5 1439 1243 bf 6 5 1445 1243 bf 6 5 1451 1243 bf 0 1 0.52 c 6 5 1463 1243 bf 0 0.0800001 1 c 6 5 1487 1243 bf 0 1
 0.52 c 6 5 1493 1243 bf 0 0.0800001 1 c 6 5 1505 1243 bf 0 1 0.52 c 6 5 1511 1243 bf 0.133333 1 0 c 6 5 1523 1243 bf 0 0.0800001 1 c 6 5 1529 1243 bf 6 5 1535 1243 bf 0 0.733333 1 c 6 5 1541 1243 bf 0 1 0.52 c 6 5 1547 1243 bf 0 0.0800001 1 c 6 5
 1559 1243 bf 0 0.733333 1 c 6 5 1565 1243 bf 6 5 1571 1243 bf 0 1 0.52 c 6 5 1577 1243 bf 0 0.0800001 1 c 6 5 1589 1243 bf 6 5 1595 1243 bf 6 5 1601 1243 bf 6 5 1619 1243 bf 6 5 1625 1243 bf 6 5 1637 1243 bf 6 5 1661 1243 bf 6 5 1673 1243 bf 6 5
 1679 1243 bf 6 5 1685 1243 bf 6 5 1691 1243 bf 6 6 1451 1248 bf 6 6 1469 1248 bf 0 0.733333 1 c 6 6 1481 1248 bf 0 0.0800001 1 c 6 6 1493 1248 bf 6 6 1499 1248 bf 6 6 1505 1248 bf 0.133333 1 0 c 6 6 1511 1248 bf 0 0.0800001 1 c 6 6 1517 1248 bf 6 6
 1523 1248 bf 0 1 0.52 c 6 6 1529 1248 bf 0 0.733333 1 c 6 6 1535 1248 bf 6 6 1547 1248 bf 6 6 1559 1248 bf 0 0.0800001 1 c 6 6 1565 1248 bf 6 6 1577 1248 bf 0 0.733333 1 c 6 6 1589 1248 bf 0 0.0800001 1 c 6 6 1595 1248 bf 6 6 1607 1248 bf 0 0.733333
 1 c 6 6 1613 1248 bf 0 0.0800001 1 c 6 6 1631 1248 bf 6 6 1643 1248 bf 6 5 1313 1254 bf 6 5 1403 1254 bf 6 5 1433 1254 bf 0 1 0.52 c 6 5 1445 1254 bf 0 0.733333 1 c 6 5 1463 1254 bf 0.133333 1 0 c 6 5 1469 1254 bf 0 0.733333 1 c 6 5 1493 1254 bf 0
 0.0800001 1 c 6 5 1499 1254 bf 0 1 0.52 c 6 5 1505 1254 bf 0 0.733333 1 c 6 5 1511 1254 bf 6 5 1517 1254 bf 6 5 1535 1254 bf 6 5 1541 1254 bf 0 0.0800001 1 c 6 5 1559 1254 bf 0 0.733333 1 c 6 5 1565 1254 bf 0 1 0.52 c 6 5 1571 1254 bf 0 0.0800001 1
 c 6 5 1577 1254 bf 0 0.733333 1 c 6 5 1583 1254 bf 6 5 1589 1254 bf 0 0.0800001 1 c 6 5 1601 1254 bf 6 5 1613 1254 bf 6 5 1619 1254 bf 6 5 1625 1254 bf 6 5 1643 1254 bf 6 5 1661 1254 bf 6 5 1715 1254 bf 6 5 1415 1259 bf 6 5 1439 1259 bf 0 0.733333 1
 c 6 5 1451 1259 bf 6 5 1475 1259 bf 6 5 1481 1259 bf 0 0.0800001 1 c 6 5 1499 1259 bf 6 5 1511 1259 bf 0 0.733333 1 c 6 5 1517 1259 bf 6 5 1523 1259 bf 6 5 1529 1259 bf 0 0.0800001 1 c 6 5 1535 1259 bf 6 5 1541 1259 bf 0 1 0.52 c 6 5 1547 1259 bf 0
 0.733333 1 c 6 5 1559 1259 bf 0 1 0.52 c 6 5 1565 1259 bf 0 0.0800001 1 c 6 5 1571 1259 bf 6 5 1577 1259 bf 0 1 0.52 c 6 5 1583 1259 bf 0 0.0800001 1 c 6 5 1589 1259 bf 0 0.733333 1 c 6 5 1601 1259 bf 0 0.0800001 1 c 6 5 1607 1259 bf 6 5 1619 1259
 bf 6 5 1625 1259 bf 6 5 1643 1259 bf 6 5 1679 1259 bf 6 5 1433 1264 bf 6 5 1439 1264 bf 6 5 1451 1264 bf 6 5 1481 1264 bf 6 5 1487 1264 bf 0 1 0.52 c 6 5 1493 1264 bf 0 0.0800001 1 c 6 5 1499 1264 bf 6 5 1517 1264 bf 6 5 1523 1264 bf 0.133333 1 0 c
 6 5 1529 1264 bf 0 0.0800001 1 c 6 5 1535 1264 bf 0 0.733333 1 c 6 5 1547 1264 bf 6 5 1559 1264 bf 6 5 1565 1264 bf 0 0.0800001 1 c 6 5 1571 1264 bf 0 1 0.52 c 6 5 1577 1264 bf 0 0.0800001 1 c 6 5 1583 1264 bf 0 0.733333 1 c 6 5 1589 1264 bf 0
 0.0800001 1 c 6 5 1595 1264 bf 0 0.733333 1 c 6 5 1601 1264 bf 0 0.0800001 1 c 6 5 1607 1264 bf 6 5 1619 1264 bf 6 5 1631 1264 bf 6 5 1637 1264 bf 6 5 1655 1264 bf 6 5 1679 1264 bf 6 6 1385 1269 bf 6 6 1439 1269 bf 6 6 1463 1269 bf 6 6 1469 1269 bf
 6 6 1487 1269 bf 0 0.733333 1 c 6 6 1499 1269 bf 0 0.0800001 1 c 6 6 1505 1269 bf 6 6 1517 1269 bf 6 6 1523 1269 bf 0 1 0.52 c 6 6 1529 1269 bf 6 6 1535 1269 bf 0 0.733333 1 c 6 6 1541 1269 bf 6 6 1547 1269 bf 0 0.0800001 1 c 6 6 1553 1269 bf 0 1
 0.52 c 6 6 1559 1269 bf 0 0.0800001 1 c 6 6 1571 1269 bf 6 6 1577 1269 bf 0 0.733333 1 c 6 6 1583 1269 bf 0 0.0800001 1 c 6 6 1595 1269 bf 0 1 0.52 c 6 6 1601 1269 bf 0 0.733333 1 c 6 6 1613 1269 bf 0 0.0800001 1 c 6 6 1619 1269 bf 6 6 1625 1269 bf
 0 0.733333 1 c 6 6 1637 1269 bf 0 0.0800001 1 c 6 6 1679 1269 bf 0 1 0.52 c 6 5 1457 1275 bf 0 0.0800001 1 c 6 5 1487 1275 bf 0 0.733333 1 c 6 5 1493 1275 bf 0 0.0800001 1 c 6 5 1499 1275 bf 6 5 1505 1275 bf 0 0.733333 1 c 6 5 1517 1275 bf 0
 0.0800001 1 c 6 5 1523 1275 bf 6 5 1529 1275 bf 0 0.733333 1 c 6 5 1541 1275 bf 6 5 1547 1275 bf 6 5 1559 1275 bf 0 1 0.52 c 6 5 1565 1275 bf 0 0.0800001 1 c 6 5 1571 1275 bf 0 1 0.52 c 6 5 1577 1275 bf 0 0.733333 1 c 6 5 1583 1275 bf 6 5 1589 1275
 bf 0.133333 1 0 c 6 5 1595 1275 bf 0 0.733333 1 c 6 5 1601 1275 bf 0 0.0800001 1 c 6 5 1607 1275 bf 6 5 1613 1275 bf 6 5 1631 1275 bf 6 5 1643 1275 bf 6 5 1655 1275 bf 6 5 1661 1275 bf 0 0.733333 1 c 6 5 1439 1280 bf 6 5 1469 1280 bf 6 5 1475 1280
 bf 0 0.0800001 1 c 6 5 1499 1280 bf 0 0.733333 1 c 6 5 1505 1280 bf 6 5 1517 1280 bf 1 0 0 c 6 5 1529 1280 bf 0 0.733333 1 c 6 5 1535 1280 bf 0.133333 1 0 c 6 5 1541 1280 bf 0 0.0800001 1 c 6 5 1547 1280 bf 0 1 0.52 c 6 5 1553 1280 bf 0 0.733333 1 c
 6 5 1559 1280 bf 6 5 1565 1280 bf 0.133333 1 0 c 6 5 1571 1280 bf 0 0.0800001 1 c 6 5 1577 1280 bf 6 5 1583 1280 bf 6 5 1595 1280 bf 0 0.733333 1 c 6 5 1607 1280 bf 0 0.0800001 1 c 6 5 1625 1280 bf 6 5 1667 1280 bf 6 5 1691 1280 bf 6 5 1739 1280 bf
 6 5 1451 1285 bf 6 5 1475 1285 bf 6 5 1487 1285 bf 0 1 0.52 c 6 5 1499 1285 bf 0 0.733333 1 c 6 5 1511 1285 bf 0.133333 1 0 c 6 5 1517 1285 bf 0 0.0800001 1 c 6 5 1523 1285 bf 6 5 1535 1285 bf 0 0.733333 1 c 6 5 1541 1285 bf 6 5 1559 1285 bf 0
 0.0800001 1 c 6 5 1577 1285 bf 6 5 1583 1285 bf 6 5 1607 1285 bf 6 5 1613 1285 bf 6 5 1631 1285 bf 6 5 1637 1285 bf 6 5 1643 1285 bf 6 5 1715 1285 bf 6 6 1439 1290 bf 6 6 1445 1290 bf 6 6 1451 1290 bf 6 6 1469 1290 bf 0 1 0.52 c 6 6 1481 1290 bf 6 6
 1487 1290 bf 0 0.0800001 1 c 6 6 1511 1290 bf 0 1 0.52 c 6 6 1517 1290 bf 6 6 1523 1290 bf 0 0.733333 1 c 6 6 1529 1290 bf 0 1 0.52 c 6 6 1535 1290 bf 0 0.0800001 1 c 6 6 1541 1290 bf 0 1 0.52 c 6 6 1547 1290 bf 0 0.0800001 1 c 6 6 1553 1290 bf 0 1
 0.52 c 6 6 1559 1290 bf 0 0.733333 1 c 6 6 1571 1290 bf 6 6 1577 1290 bf 6 6 1583 1290 bf 0 0.0800001 1 c 6 6 1589 1290 bf 6 6 1595 1290 bf 6 6 1607 1290 bf 0 0.733333 1 c 6 6 1619 1290 bf 0 0.0800001 1 c 6 6 1625 1290 bf 6 6 1631 1290 bf 6 6 1643
 1290 bf 6 6 1661 1290 bf 6 6 1733 1290 bf 6 5 1469 1296 bf 6 5 1475 1296 bf 0 0.733333 1 c 6 5 1487 1296 bf 0.133333 1 0 c 6 5 1517 1296 bf 0 0.0800001 1 c 6 5 1529 1296 bf 6 5 1535 1296 bf 6 5 1541 1296 bf 0 1 0.52 c 6 5 1547 1296 bf 0 0.733333 1 c
 6 5 1559 1296 bf 0 1 0.52 c 6 5 1577 1296 bf 0 0.733333 1 c 6 5 1595 1296 bf 0 1 0.52 c 6 5 1601 1296 bf 0 0.733333 1 c 6 5 1607 1296 bf 6 5 1619 1296 bf 0 0.0800001 1 c 6 5 1625 1296 bf 0 1 0.52 c 6 5 1631 1296 bf 0 0.733333 1 c 6 5 1655 1296 bf 0
 0.0800001 1 c 6 5 1667 1296 bf 6 5 1673 1296 bf 6 5 1691 1296 bf 6 5 1697 1296 bf 6 5 1475 1301 bf 6 5 1487 1301 bf 6 5 1493 1301 bf 0 0.733333 1 c 6 5 1499 1301 bf 6 5 1505 1301 bf 0 0.0800001 1 c 6 5 1511 1301 bf 0 0.733333 1 c 6 5 1535 1301 bf
 0.133333 1 0 c 6 5 1541 1301 bf 0 0.0800001 1 c 6 5 1547 1301 bf 0 0.733333 1 c 6 5 1553 1301 bf 0 0.0800001 1 c 6 5 1571 1301 bf 6 5 1577 1301 bf 6 5 1583 1301 bf 6 5 1589 1301 bf 0 1 0.52 c 6 5 1595 1301 bf 0 0.0800001 1 c 6 5 1607 1301 bf 6 5
 1613 1301 bf 6 5 1625 1301 bf 6 5 1631 1301 bf 6 5 1637 1301 bf 6 5 1667 1301 bf 0 0.733333 1 c 6 5 1451 1306 bf 0 0.0800001 1 c 6 5 1469 1306 bf 6 5 1481 1306 bf 6 5 1493 1306 bf 0 0.733333 1 c 6 5 1505 1306 bf 0.133333 1 0 c 6 5 1511 1306 bf 0
 0.733333 1 c 6 5 1517 1306 bf 0 0.0800001 1 c 6 5 1547 1306 bf 0 0.733333 1 c 6 5 1553 1306 bf 0 0.0800001 1 c 6 5 1559 1306 bf 6 5 1565 1306 bf 0 0.733333 1 c 6 5 1577 1306 bf 0 1 0.52 c 6 5 1583 1306 bf 0 0.0800001 1 c 6 5 1595 1306 bf 6 5 1601
 1306 bf 6 5 1631 1306 bf 6 5 1637 1306 bf 6 5 1643 1306 bf 6 5 1685 1306 bf 6 5 1715 1306 bf 6 6 1379 1311 bf 6 6 1451 1311 bf 6 6 1475 1311 bf 6 6 1481 1311 bf 0 0.733333 1 c 6 6 1487 1311 bf 0 0.0800001 1 c 6 6 1493 1311 bf 6 6 1499 1311 bf 6 6
 1511 1311 bf 0 1 0.52 c 6 6 1517 1311 bf 0 0.0800001 1 c 6 6 1529 1311 bf 0 0.733333 1 c 6 6 1535 1311 bf 0 1 0.52 c 6 6 1541 1311 bf 0 0.733333 1 c 6 6 1547 1311 bf 0 0.0800001 1 c 6 6 1559 1311 bf 6 6 1565 1311 bf 0 1 0.52 c 6 6 1571 1311 bf 0
 0.733333 1 c 6 6 1577 1311 bf 0 0.0800001 1 c 6 6 1589 1311 bf 6 6 1607 1311 bf 6 6 1619 1311 bf 6 6 1631 1311 bf 6 6 1685 1311 bf 6 5 1409 1317 bf 6 5 1445 1317 bf 6 5 1451 1317 bf 6 5 1463 1317 bf 6 5 1469 1317 bf 0 0.733333 1 c 6 5 1475 1317 bf 6
 5 1487 1317 bf 0 0.0800001 1 c 6 5 1499 1317 bf 6 5 1505 1317 bf 6 5 1517 1317 bf 0 0.733333 1 c 6 5 1529 1317 bf 0 0.0800001 1 c 6 5 1535 1317 bf 0.133333 1 0 c 6 5 1541 1317 bf 0 0.0800001 1 c 6 5 1547 1317 bf 6 5 1553 1317 bf 6 5 1565 1317 bf 0 1
 0.52 c 6 5 1577 1317 bf 0 0.0800001 1 c 6 5 1589 1317 bf 6 5 1595 1317 bf 6 5 1601 1317 bf 6 5 1409 1322 bf 6 5 1439 1322 bf 6 5 1445 1322 bf 6 5 1487 1322 bf 0.133333 1 0 c 6 5 1505 1322 bf 0 1 0.52 c 6 5 1511 1322 bf 0 0.733333 1 c 6 5 1529 1322
 bf 6 5 1541 1322 bf 6 5 1559 1322 bf 0.88 1 0 c 6 5 1571 1322 bf 0 1 0.52 c 6 5 1577 1322 bf 0 0.733333 1 c 6 5 1583 1322 bf 0 0.0800001 1 c 6 5 1589 1322 bf 6 5 1613 1322 bf 6 5 1619 1322 bf 6 5 1625 1322 bf 6 5 1661 1322 bf 6 5 1433 1327 bf 6 5
 1481 1327 bf 6 5 1487 1327 bf 6 5 1493 1327 bf 6 5 1499 1327 bf 6 5 1517 1327 bf 6 5 1523 1327 bf 0 1 0.52 c 6 5 1529 1327 bf 0 0.733333 1 c 6 5 1535 1327 bf 6 5 1547 1327 bf 0 0.0800001 1 c 6 5 1553 1327 bf 6 5 1559 1327 bf 0 0.733333 1 c 6 5 1565
 1327 bf 0 1 0.52 c 6 5 1571 1327 bf 0 0.733333 1 c 6 5 1577 1327 bf 0 1 0.52 c 6 5 1595 1327 bf 0 0.0800001 1 c 6 5 1613 1327 bf 6 5 1625 1327 bf 6 5 1643 1327 bf 6 5 1667 1327 bf 6 5 1679 1327 bf 6 6 1451 1332 bf 6 6 1457 1332 bf 0 0.733333 1 c 6 6
 1469 1332 bf 0 0.0800001 1 c 6 6 1481 1332 bf 6 6 1487 1332 bf 6 6 1523 1332 bf 6 6 1535 1332 bf 0 1 0.52 c 6 6 1547 1332 bf 0 0.0800001 1 c 6 6 1553 1332 bf 6 6 1559 1332 bf 6 6 1565 1332 bf 6 6 1577 1332 bf 0 1 0.52 c 6 6 1583 1332 bf 0 0.0800001
 1 c 6 6 1601 1332 bf 0 0.733333 1 c 6 6 1607 1332 bf 0 0.0800001 1 c 6 6 1613 1332 bf 6 6 1619 1332 bf 6 6 1631 1332 bf 6 5 1409 1338 bf 0 0.733333 1 c 6 5 1463 1338 bf 0 0.0800001 1 c 6 5 1481 1338 bf 0 0.733333 1 c 6 5 1487 1338 bf 0 0.0800001 1 c
 6 5 1499 1338 bf 6 5 1511 1338 bf 0 1 0.52 c 6 5 1517 1338 bf 0 0.0800001 1 c 6 5 1523 1338 bf 0 1 0.52 c 6 5 1529 1338 bf 0 0.0800001 1 c 6 5 1535 1338 bf 6 5 1541 1338 bf 0 1 0.52 c 6 5 1547 1338 bf 0 0.733333 1 c 6 5 1553 1338 bf 0 0.0800001 1 c
 6 5 1565 1338 bf 6 5 1571 1338 bf 0 1 0.52 c 6 5 1589 1338 bf 0 0.0800001 1 c 6 5 1595 1338 bf 6 5 1601 1338 bf 0 0.733333 1 c 6 5 1607 1338 bf 6 5 1613 1338 bf 0 0.0800001 1 c 6 5 1625 1338 bf 0 0.733333 1 c 6 5 1637 1338 bf 0 0.0800001 1 c 6 5
 1445 1343 bf 6 5 1451 1343 bf 6 5 1457 1343 bf 6 5 1481 1343 bf 6 5 1487 1343 bf 6 5 1493 1343 bf 6 5 1499 1343 bf 6 5 1523 1343 bf 0 0.733333 1 c 6 5 1529 1343 bf 6 5 1541 1343 bf 0 0.0800001 1 c 6 5 1547 1343 bf 6 5 1553 1343 bf 0 0.733333 1 c 6 5
 1565 1343 bf 6 5 1577 1343 bf 6 5 1583 1343 bf 0 0.0800001 1 c 6 5 1601 1343 bf 6 5 1607 1343 bf 6 5 1637 1343 bf 6 5 1643 1343 bf 6 5 1649 1343 bf 6 5 1655 1343 bf 6 6 1439 1348 bf 0 0.733333 1 c 6 6 1451 1348 bf 6 6 1463 1348 bf 0 0.0800001 1 c 6
 6 1481 1348 bf 0 0.733333 1 c 6 6 1487 1348 bf 0 0.0800001 1 c 6 6 1493 1348 bf 6 6 1499 1348 bf 6 6 1505 1348 bf 6 6 1511 1348 bf 6 6 1529 1348 bf 0 0.733333 1 c 6 6 1535 1348 bf 0 0.0800001 1 c 6 6 1541 1348 bf 6 6 1553 1348 bf 0 1 0.52 c 6 6 1565
 1348 bf 0 0.733333 1 c 6 6 1571 1348 bf 6 6 1577 1348 bf 0 0.0800001 1 c 6 6 1589 1348 bf 6 6 1625 1348 bf 6 6 1649 1348 bf 6 6 1679 1348 bf 6 6 1697 1348 bf 6 5 1391 1354 bf 6 5 1433 1354 bf 6 5 1451 1354 bf 6 5 1487 1354 bf 0 1 0.52 c 6 5 1493
 1354 bf 0 0.0800001 1 c 6 5 1499 1354 bf 6 5 1505 1354 bf 6 5 1511 1354 bf 0 0.733333 1 c 6 5 1541 1354 bf 6 5 1565 1354 bf 0 1 0.52 c 6 5 1577 1354 bf 0 0.733333 1 c 6 5 1583 1354 bf 0 0.0800001 1 c 6 5 1589 1354 bf 6 5 1631 1354 bf 6 5 1637 1354
 bf 6 5 1649 1354 bf 6 5 1655 1354 bf 6 5 1451 1359 bf 6 5 1457 1359 bf 6 5 1493 1359 bf 6 5 1499 1359 bf 6 5 1511 1359 bf 6 5 1529 1359 bf 0 0.733333 1 c 6 5 1541 1359 bf 0 0.0800001 1 c 6 5 1547 1359 bf 6 5 1553 1359 bf 6 5 1559 1359 bf 6 5 1565
 1359 bf 6 5 1571 1359 bf 0 0.733333 1 c 6 5 1583 1359 bf 6 5 1595 1359 bf 0 0.0800001 1 c 6 5 1619 1359 bf 6 5 1661 1359 bf 6 5 1667 1359 bf 6 5 1685 1359 bf 6 5 1493 1364 bf 0 0.733333 1 c 6 5 1505 1364 bf 0 0.0800001 1 c 6 5 1511 1364 bf 0
 0.733333 1 c 6 5 1523 1364 bf 6 5 1529 1364 bf 6 5 1541 1364 bf 0 0.0800001 1 c 6 5 1547 1364 bf 6 5 1553 1364 bf 0 0.733333 1 c 6 5 1559 1364 bf 0 0.0800001 1 c 6 5 1565 1364 bf 6 5 1571 1364 bf 6 5 1583 1364 bf 6 5 1607 1364 bf 0 0.733333 1 c 6 5
 1613 1364 bf 6 5 1619 1364 bf 0 0.0800001 1 c 6 5 1625 1364 bf 6 5 1637 1364 bf 6 5 1649 1364 bf 6 5 1661 1364 bf 6 6 1403 1369 bf 6 6 1481 1369 bf 6 6 1499 1369 bf 6 6 1505 1369 bf 6 6 1511 1369 bf 0 0.733333 1 c 6 6 1529 1369 bf 0 0.0800001 1 c 6
 6 1535 1369 bf 6 6 1541 1369 bf 0 0.733333 1 c 6 6 1547 1369 bf 0 1 0.52 c 6 6 1553 1369 bf 0 0.0800001 1 c 6 6 1565 1369 bf 0 0.733333 1 c 6 6 1571 1369 bf 0 0.0800001 1 c 6 6 1583 1369 bf 0 0.733333 1 c 6 6 1595 1369 bf 0 1 0.52 c 6 6 1601 1369 bf
 0 0.0800001 1 c 6 6 1607 1369 bf 0 0.733333 1 c 6 6 1613 1369 bf 0 0.0800001 1 c 6 6 1649 1369 bf 6 6 1655 1369 bf 6 6 1661 1369 bf 6 5 1445 1375 bf 6 5 1469 1375 bf 0 0.733333 1 c 6 5 1475 1375 bf 0 0.0800001 1 c 6 5 1493 1375 bf 0 0.733333 1 c 6 5
 1499 1375 bf 0 0.0800001 1 c 6 5 1505 1375 bf 6 5 1523 1375 bf 0 0.733333 1 c 6 5 1529 1375 bf 0.133333 1 0 c 6 5 1541 1375 bf 0 0.733333 1 c 6 5 1547 1375 bf 6 5 1559 1375 bf 0 1 0.52 c 6 5 1565 1375 bf 0 0.0800001 1 c 6 5 1583 1375 bf 6 5 1595
 1375 bf 6 5 1601 1375 bf 0 0.733333 1 c 6 5 1607 1375 bf 6 5 1613 1375 bf 6 5 1433 1380 bf 0 0.0800001 1 c 6 5 1439 1380 bf 6 5 1469 1380 bf 0.133333 1 0 c 6 5 1487 1380 bf 0 0.0800001 1 c 6 5 1505 1380 bf 6 5 1517 1380 bf 6 5 1529 1380 bf 0
 0.733333 1 c 6 5 1535 1380 bf 6 5 1547 1380 bf 6 5 1553 1380 bf 0 0.0800001 1 c 6 5 1565 1380 bf 6 5 1571 1380 bf 0 0.733333 1 c 6 5 1577 1380 bf 6 5 1595 1380 bf 6 5 1601 1380 bf 0 1 0.52 c 6 5 1607 1380 bf 0 0.0800001 1 c 6 5 1613 1380 bf 6 5 1619
 1380 bf 6 5 1673 1380 bf 6 5 1427 1385 bf 6 5 1433 1385 bf 6 5 1451 1385 bf 6 5 1469 1385 bf 6 5 1481 1385 bf 0 0.733333 1 c 6 5 1499 1385 bf 0 0.0800001 1 c 6 5 1529 1385 bf 0.133333 1 0 c 6 5 1547 1385 bf 0 0.733333 1 c 6 5 1559 1385 bf 6 5 1571
 1385 bf 0 0.0800001 1 c 6 5 1577 1385 bf 0 0.733333 1 c 6 5 1583 1385 bf 0 0.0800001 1 c 6 5 1589 1385 bf 6 5 1625 1385 bf 6 5 1637 1385 bf 6 6 1433 1390 bf 6 6 1457 1390 bf 6 6 1463 1390 bf 6 6 1481 1390 bf 6 6 1505 1390 bf 0 0.733333 1 c 6 6 1511
 1390 bf 0 0.0800001 1 c 6 6 1517 1390 bf 6 6 1553 1390 bf 0 1 0.52 c 6 6 1571 1390 bf 0 0.733333 1 c 6 6 1577 1390 bf 0 0.0800001 1 c 6 6 1607 1390 bf 0 0.733333 1 c 6 6 1619 1390 bf 0 0.0800001 1 c 6 6 1643 1390 bf 6 6 1667 1390 bf 6 6 1691 1390 bf
 0 0.733333 1 c 6 5 1433 1396 bf 0 0.0800001 1 c 6 5 1439 1396 bf 6 5 1445 1396 bf 6 5 1481 1396 bf 6 5 1499 1396 bf 6 5 1511 1396 bf 6 5 1517 1396 bf 6 5 1529 1396 bf 6 5 1541 1396 bf 6 5 1553 1396 bf 0 0.733333 1 c 6 5 1559 1396 bf 6 5 1565 1396 bf
 0 0.0800001 1 c 6 5 1571 1396 bf 6 5 1577 1396 bf 6 5 1595 1396 bf 0 0.733333 1 c 6 5 1601 1396 bf 0 0.0800001 1 c 6 5 1613 1396 bf 6 5 1625 1396 bf 6 5 1643 1396 bf 6 5 1691 1396 bf 6 5 1403 1401 bf 6 5 1409 1401 bf 6 5 1469 1401 bf 6 5 1529 1401
 bf 6 5 1571 1401 bf 0 0.733333 1 c 6 5 1577 1401 bf 6 5 1583 1401 bf 0 0.0800001 1 c 6 5 1601 1401 bf 6 5 1613 1401 bf 6 5 1415 1406 bf 6 5 1451 1406 bf 6 5 1457 1406 bf 6 5 1475 1406 bf 6 5 1493 1406 bf 6 5 1511 1406 bf 6 5 1559 1406 bf 6 5 1577
 1406 bf 0.133333 1 0 c 6 5 1583 1406 bf 0 0.0800001 1 c 6 5 1589 1406 bf 6 5 1613 1406 bf 6 5 1637 1406 bf 0 0.733333 1 c 6 5 1649 1406 bf 0 0.0800001 1 c 6 5 1661 1406 bf 6 5 1679 1406 bf 6 6 1469 1411 bf 6 6 1487 1411 bf 6 6 1499 1411 bf 0
 0.733333 1 c 6 6 1511 1411 bf 0 0.0800001 1 c 6 6 1541 1411 bf 6 6 1547 1411 bf 6 6 1553 1411 bf 0 1 0.52 c 6 6 1565 1411 bf 0 0.0800001 1 c 6 6 1583 1411 bf 6 6 1595 1411 bf 6 6 1601 1411 bf 6 6 1655 1411 bf 0 0.733333 1 c 6 5 1457 1417 bf 0
 0.0800001 1 c 6 5 1463 1417 bf 6 5 1493 1417 bf 6 5 1499 1417 bf 6 5 1511 1417 bf 6 5 1517 1417 bf 0 1 0.52 c 6 5 1523 1417 bf 0 0.0800001 1 c 6 5 1529 1417 bf 6 5 1535 1417 bf 0 0.733333 1 c 6 5 1541 1417 bf 0 0.0800001 1 c 6 5 1547 1417 bf 6 5
 1553 1417 bf 6 5 1559 1417 bf 0 0.733333 1 c 6 5 1577 1417 bf 0 0.0800001 1 c 6 5 1607 1417 bf 0 1 0.52 c 6 5 1613 1417 bf 0 0.0800001 1 c 6 5 1415 1422 bf 6 5 1439 1422 bf 6 5 1445 1422 bf 0 0.733333 1 c 6 5 1487 1422 bf 0 0.0800001 1 c 6 5 1517
 1422 bf 6 5 1529 1422 bf 6 5 1541 1422 bf 0 1 0.52 c 6 5 1547 1422 bf 6 5 1583 1422 bf 0 0.0800001 1 c 6 5 1595 1422 bf 6 5 1601 1422 bf 6 5 1607 1422 bf 6 5 1643 1422 bf 6 5 1685 1422 bf 6 5 1457 1427 bf 6 5 1499 1427 bf 6 5 1517 1427 bf 6 5 1523
 1427 bf 6 5 1547 1427 bf 6 5 1565 1427 bf 6 5 1571 1427 bf 0 0.733333 1 c 6 5 1589 1427 bf 0 0.0800001 1 c 6 5 1607 1427 bf 6 6 1397 1432 bf 6 6 1427 1432 bf 6 6 1505 1432 bf 0 0.733333 1 c 6 6 1517 1432 bf 0 0.0800001 1 c 6 6 1523 1432 bf 6 6 1535
 1432 bf 6 6 1541 1432 bf 6 6 1565 1432 bf 6 6 1595 1432 bf 6 6 1619 1432 bf 6 6 1661 1432 bf 6 5 1457 1438 bf 6 5 1493 1438 bf 6 5 1505 1438 bf 6 5 1517 1438 bf 6 5 1535 1438 bf 6 5 1541 1438 bf 6 5 1553 1438 bf 6 5 1565 1438 bf 6 5 1571 1438 bf 6 5
 1577 1438 bf 6 5 1595 1438 bf 6 5 1607 1438 bf 6 5 1613 1438 bf 6 5 1625 1438 bf 6 5 1637 1438 bf 6 5 1655 1438 bf 6 5 1661 1438 bf 6 5 1451 1443 bf 6 5 1469 1443 bf 6 5 1481 1443 bf 6 5 1487 1443 bf 0 0.733333 1 c 6 5 1493 1443 bf 0 0.0800001 1 c 6
 5 1577 1443 bf 6 5 1607 1443 bf 6 5 1631 1443 bf 0 0.733333 1 c 6 6 1481 1448 bf 0 0.0800001 1 c 6 6 1487 1448 bf 6 6 1493 1448 bf 6 6 1499 1448 bf 6 6 1511 1448 bf 0 0.733333 1 c 6 6 1523 1448 bf 0 1 0.52 c 6 6 1529 1448 bf 0 0.0800001 1 c 6 6 1535
 1448 bf 0 0.733333 1 c 6 6 1553 1448 bf 0 1 0.52 c 6 6 1565 1448 bf 0 0.0800001 1 c 6 6 1583 1448 bf 0 0.733333 1 c 6 6 1589 1448 bf 0 0.0800001 1 c 6 6 1595 1448 bf 6 6 1607 1448 bf 6 6 1625 1448 bf 6 6 1643 1448 bf 6 5 1397 1454 bf 6 5 1481 1454
 bf 6 5 1487 1454 bf 6 5 1505 1454 bf 6 5 1517 1454 bf 6 5 1523 1454 bf 0 0.733333 1 c 6 5 1547 1454 bf 0 0.0800001 1 c 6 5 1565 1454 bf 6 5 1571 1454 bf 6 5 1601 1454 bf 0 0.733333 1 c 6 5 1619 1454 bf 0 0.0800001 1 c 6 5 1655 1454 bf 6 5 1703 1454
 bf 6 5 1403 1459 bf 6 5 1469 1459 bf 6 5 1487 1459 bf 6 5 1499 1459 bf 6 5 1517 1459 bf 6 5 1529 1459 bf 6 5 1535 1459 bf 6 5 1553 1459 bf 6 5 1559 1459 bf 6 5 1571 1459 bf 6 5 1577 1459 bf 6 5 1595 1459 bf 0 0.733333 1 c 6 5 1625 1459 bf 0
 0.0800001 1 c 6 5 1637 1459 bf 6 5 1643 1459 bf 6 5 1649 1459 bf 6 5 1451 1464 bf 6 5 1469 1464 bf 0 0.733333 1 c 6 5 1481 1464 bf 0 0.0800001 1 c 6 5 1523 1464 bf 6 5 1541 1464 bf 6 5 1547 1464 bf 6 5 1583 1464 bf 6 5 1601 1464 bf 6 5 1631 1464 bf
 0 0.733333 1 c 6 5 1637 1464 bf 0 0.0800001 1 c 6 5 1643 1464 bf 6 6 1415 1469 bf 6 6 1457 1469 bf 6 6 1529 1469 bf 0 1 0.52 c 6 6 1547 1469 bf 0 0.0800001 1 c 6 6 1565 1469 bf 6 6 1571 1469 bf 6 6 1583 1469 bf 0 1 0.52 c 6 6 1589 1469 bf 0
 0.0800001 1 c 6 6 1601 1469 bf 6 6 1607 1469 bf 6 6 1637 1469 bf 6 6 1661 1469 bf 0 0.733333 1 c 6 5 1439 1475 bf 0 0.0800001 1 c 6 5 1457 1475 bf 6 5 1493 1475 bf 6 5 1523 1475 bf 6 5 1529 1475 bf 6 5 1535 1475 bf 6 5 1547 1475 bf 0 0.733333 1 c 6
 5 1559 1475 bf 0 0.0800001 1 c 6 5 1565 1475 bf 6 5 1577 1475 bf 6 5 1607 1475 bf 6 5 1613 1475 bf 6 5 1619 1475 bf 6 5 1625 1475 bf 6 5 1631 1475 bf 6 5 1643 1475 bf 6 5 1649 1475 bf 0 0.733333 1 c 6 5 1487 1480 bf 0 0.0800001 1 c 6 5 1493 1480 bf
 0 1 0.52 c 6 5 1499 1480 bf 0 0.0800001 1 c 6 5 1505 1480 bf 6 5 1517 1480 bf 6 5 1553 1480 bf 6 5 1571 1480 bf 6 5 1589 1480 bf 6 5 1595 1480 bf 6 5 1601 1480 bf 6 5 1607 1480 bf 6 5 1613 1480 bf 6 5 1625 1480 bf 6 5 1439 1485 bf 6 5 1487 1485 bf 6
 5 1517 1485 bf 6 5 1523 1485 bf 6 5 1529 1485 bf 6 5 1535 1485 bf 6 5 1553 1485 bf 0 0.733333 1 c 6 5 1559 1485 bf 0 0.0800001 1 c 6 5 1565 1485 bf 0 0.733333 1 c 6 5 1583 1485 bf 0 0.0800001 1 c 6 6 1463 1490 bf 6 6 1469 1490 bf 6 6 1493 1490 bf 6
 6 1505 1490 bf 6 6 1517 1490 bf 6 6 1523 1490 bf 6 6 1529 1490 bf 6 6 1541 1490 bf 0.133333 1 0 c 6 6 1553 1490 bf 0 0.0800001 1 c 6 6 1559 1490 bf 6 6 1571 1490 bf 6 6 1589 1490 bf 6 6 1607 1490 bf 6 6 1619 1490 bf 6 6 1643 1490 bf 6 5 1445 1496 bf
 6 5 1463 1496 bf 6 5 1493 1496 bf 6 5 1511 1496 bf 6 5 1523 1496 bf 6 5 1529 1496 bf 6 5 1553 1496 bf 6 5 1577 1496 bf 6 5 1589 1496 bf 6 5 1601 1496 bf 6 5 1631 1496 bf 6 5 1643 1496 bf 6 5 1385 1501 bf 6 5 1439 1501 bf 6 5 1505 1501 bf 0 1 0.52 c
 6 5 1511 1501 bf 0 0.0800001 1 c 6 5 1535 1501 bf 0 0.733333 1 c 6 5 1541 1501 bf 0 0.0800001 1 c 6 5 1547 1501 bf 6 5 1553 1501 bf 6 5 1565 1501 bf 6 5 1571 1501 bf 0 0.733333 1 c 6 5 1577 1501 bf 0 0.0800001 1 c 6 5 1583 1501 bf 6 5 1661 1501 bf 6
 5 1703 1501 bf 6 5 1493 1506 bf 6 5 1505 1506 bf 6 5 1553 1506 bf 6 5 1565 1506 bf 6 5 1595 1506 bf 6 6 1439 1511 bf 6 6 1451 1511 bf 6 6 1487 1511 bf 6 6 1523 1511 bf 6 6 1535 1511 bf 0 1 0.52 c 6 6 1541 1511 bf 0 0.0800001 1 c 6 6 1559 1511 bf 6 6
 1571 1511 bf 6 6 1583 1511 bf 6 6 1595 1511 bf 6 5 1427 1517 bf 6 5 1523 1517 bf 6 5 1529 1517 bf 6 5 1541 1517 bf 6 5 1559 1517 bf 6 5 1565 1517 bf 6 5 1589 1517 bf 6 5 1595 1517 bf 6 5 1613 1517 bf 6 5 1481 1522 bf 0 1 0.52 c 6 5 1511 1522 bf 0
 0.0800001 1 c 6 5 1535 1522 bf 6 5 1541 1522 bf 6 5 1553 1522 bf 6 5 1559 1522 bf 6 5 1571 1522 bf 6 5 1577 1522 bf 6 5 1601 1522 bf 6 5 1511 1527 bf 6 5 1517 1527 bf 6 5 1541 1527 bf 6 5 1553 1527 bf 6 5 1565 1527 bf 6 5 1571 1527 bf 6 5 1637 1527
 bf 6 5 1643 1527 bf 6 6 1433 1532 bf 6 6 1493 1532 bf 6 6 1499 1532 bf 6 6 1511 1532 bf 6 6 1517 1532 bf 6 6 1523 1532 bf 6 6 1535 1532 bf 6 6 1541 1532 bf 6 6 1601 1532 bf 6 5 1469 1538 bf 6 5 1475 1538 bf 6 5 1493 1538 bf 0 0.733333 1 c 6 5 1529
 1538 bf 6 5 1553 1538 bf 0 0.0800001 1 c 6 5 1571 1538 bf 6 5 1583 1538 bf 6 5 1601 1538 bf 6 5 1661 1538 bf 6 5 1679 1538 bf 6 5 1439 1543 bf 6 5 1457 1543 bf 0 0.733333 1 c 6 5 1499 1543 bf 0 0.0800001 1 c 6 5 1517 1543 bf 6 5 1577 1543 bf 6 5
 1595 1543 bf 6 5 1403 1548 bf 6 5 1475 1548 bf 6 5 1493 1548 bf 6 5 1505 1548 bf 6 5 1667 1548 bf 6 6 1415 1553 bf 6 6 1493 1553 bf 6 6 1499 1553 bf 6 6 1535 1553 bf 6 6 1553 1553 bf 6 6 1559 1553 bf 0 0.733333 1 c 6 6 1565 1553 bf 0 0.0800001 1 c 6
 5 1547 1559 bf 6 5 1559 1559 bf 0 0.733333 1 c 6 5 1589 1559 bf 0 0.0800001 1 c 6 5 1613 1559 bf 6 5 1625 1559 bf 0 0.733333 1 c 6 5 1493 1564 bf 0 0.0800001 1 c 6 5 1595 1564 bf 6 5 1637 1564 bf 6 5 1649 1564 bf 6 5 1709 1564 bf 6 6 1487 1569 bf 6
 6 1547 1569 bf 6 6 1625 1569 bf 6 5 1523 1575 bf 6 5 1595 1575 bf 6 5 1451 1580 bf 6 5 1469 1580 bf 6 5 1499 1580 bf 6 5 1553 1580 bf 6 5 1559 1580 bf 6 5 1571 1580 bf 6 5 1589 1580 bf 6 5 1439 1585 bf 0 0.733333 1 c 6 5 1583 1585 bf 0 0.0800001 1 c
 6 5 1637 1585 bf 6 6 1439 1590 bf 6 6 1571 1590 bf 6 6 1613 1590 bf 6 5 1487 1596 bf 6 5 1499 1596 bf 6 5 1547 1596 bf 6 5 1613 1596 bf 6 5 1451 1601 bf 6 5 1547 1601 bf 6 5 1445 1606 bf 6 5 1565 1606 bf 0 0.733333 1 c 6 5 1607 1606 bf 0 0.0800001 1
 c 6 6 1625 1611 bf 6 5 1559 1617 bf 6 5 1577 1617 bf 6 5 1583 1617 bf 6 5 1589 1617 bf 6 5 1541 1622 bf 6 5 1559 1622 bf 6 5 1571 1622 bf 6 5 1625 1622 bf 6 5 1667 1622 bf 6 5 1523 1627 bf 6 5 1583 1627 bf 6 5 1607 1627 bf 6 6 1433 1632 bf 6 6 1541
 1632 bf 6 5 1445 1638 bf 6 5 1469 1638 bf 6 5 1541 1638 bf 6 5 1595 1638 bf 6 5 1433 1643 bf 6 5 1499 1643 bf 6 5 1661 1643 bf 6 5 1481 1648 bf 6 5 1505 1648 bf 6 5 1571 1648 bf 6 6 1493 1653 bf 6 6 1529 1653 bf 6 6 1535 1653 bf 6 6 1553 1653 bf 6 6
 1607 1653 bf 0 0.733333 1 c 6 6 1649 1653 bf 0 0.0800001 1 c 6 5 1613 1659 bf 6 5 1481 1664 bf 6 6 1613 1669 bf 6 5 1631 1675 bf 6 5 1559 1680 bf 6 5 1589 1680 bf 6 5 1613 1680 bf 6 5 1487 1685 bf 6 6 1535 1690 bf 6 6 1553 1690 bf 6 6 1601 1690 bf 6
 5 1415 1696 bf 6 5 1631 1696 bf 6 5 1685 1701 bf 6 5 1631 1706 bf 6 6 1499 1711 bf 6 6 1517 1711 bf 6 6 1643 1711 bf 6 5 1589 1717 bf 6 5 1493 1722 bf 6 5 1661 1722 bf 6 5 1601 1727 bf 6 5 1523 1738 bf 6 5 1619 1743 bf 6 5 1631 1759 bf 6 5 1595 1764
 bf 6 5 1541 1775 bf 6 5 1529 1817 bf 6 5 1559 1817 bf 6 5 1619 1838 bf 6 5 1547 1875 bf 0.49 0.6 0.82 c black 311 322 m 1801 X s 575 373 m -51 Y s 647 347 m -25 Y s 720 347 m -25 Y s 792 347 m -25 Y s 865 373 m -51 Y s 937 347 m -25 Y s 1010 347 m
 -25 Y s 1082 347 m -25 Y s 1154 373 m -51 Y s 1227 347 m -25 Y s 1299 347 m -25 Y s 1372 347 m -25 Y s 1444 373 m -51 Y s 1517 347 m -25 Y s 1589 347 m -25 Y s 1662 347 m -25 Y s 1734 373 m -51 Y s 1807 347 m -25 Y s 1879 347 m -25 Y s 1952 347 m
 -25 Y s 2024 373 m -51 Y s 575 373 m -51 Y s 502 347 m -25 Y s 430 347 m -25 Y s 357 347 m -25 Y s 2024 373 m -51 Y s 2097 347 m -25 Y s
 gsave  2222 2089 23 21 C 564.08 222.213 t 0 r /Helvetica findfont 91.294 sf 0 0 m (6) show NC gr 
 gsave  2222 2089 23 21 C 518.498 222.213 t 0 r /Symbol findfont 91.294 sf 0 0 m (-) show NC gr 
 gsave  2222 2089 23 21 C 854.667 222.213 t 0 r /Helvetica findfont 91.294 sf 0 0 m (4) show NC gr 
 gsave  2222 2089 23 21 C 809.085 222.213 t 0 r /Symbol findfont 91.294 sf 0 0 m (-) show NC gr 
 gsave  2222 2089 23 21 C 1145.25 222.213 t 0 r /Helvetica findfont 91.294 sf 0 0 m (2) show NC gr 
 gsave  2222 2089 23 21 C 1099.67 222.213 t 0 r /Symbol findfont 91.294 sf 0 0 m (-) show NC gr 
 gsave  2222 2089 23 21 C 1413.05 222.213 t 0 r /Helvetica findfont 91.294 sf 0 0 m (0) show NC gr 
 gsave  2222 2089 23 21 C 1703.64 222.213 t 0 r /Helvetica findfont 91.294 sf 0 0 m (2) show NC gr 
 gsave  2222 2089 23 21 C 1994.22 222.213 t 0 r /Helvetica findfont 91.294 sf 0 0 m (4) show NC gr 
 gsave  2222 2089 23 21 C 1168.04 62.6756 t 0 r /Helvetica findfont 102.706 sf 0 0 m (Variable 1 \(PCA\)  [F]) show NC gr  311 1901 m 1801 X s 575 1850 m 51 Y s 647 1875 m 26 Y s 720 1875 m 26 Y s 792 1875 m 26 Y s 865 1850 m 51 Y s 937 1875 m 26 Y s
 1010 1875 m 26 Y s 1082 1875 m 26 Y s 1154 1850 m 51 Y s 1227 1875 m 26 Y s 1299 1875 m 26 Y s 1372 1875 m 26 Y s 1444 1850 m 51 Y s 1517 1875 m 26 Y s 1589 1875 m 26 Y s 1662 1875 m 26 Y s 1734 1850 m 51 Y s 1807 1875 m 26 Y s 1879 1875 m 26 Y s
 1952 1875 m 26 Y s 2024 1850 m 51 Y s 575 1850 m 51 Y s 502 1875 m 26 Y s 430 1875 m 26 Y s 357 1875 m 26 Y s 2024 1850 m 51 Y s 2097 1875 m 26 Y s 311 322 m 1579 Y s 361 458 m -50 X s 336 502 m -25 X s 336 547 m -25 X s 336 591 m -25 X s 336 635 m
 -25 X s 361 679 m -50 X s 336 723 m -25 X s 336 768 m -25 X s 336 812 m -25 X s 336 856 m -25 X s 361 900 m -50 X s 336 944 m -25 X s 336 988 m -25 X s 336 1033 m -25 X s 336 1077 m -25 X s 361 1121 m -50 X s 336 1165 m -25 X s 336 1209 m -25 X s
 336 1254 m -25 X s 336 1298 m -25 X s 361 1342 m -50 X s 336 1386 m -25 X s 336 1430 m -25 X s 336 1475 m -25 X s 336 1519 m -25 X s 361 1563 m -50 X s 336 1607 m -25 X s 336 1651 m -25 X s 336 1695 m -25 X s 336 1740 m -25 X s 361 1784 m -50 X s
 361 458 m -50 X s 336 414 m -25 X s 336 370 m -25 X s 336 326 m -25 X s 361 1784 m -50 X s 336 1828 m -25 X s 336 1872 m -25 X s
 gsave  2222 2089 23 21 C 227.911 427.334 t 0 r /Helvetica findfont 91.294 sf 0 0 m (3) show NC gr 
 gsave  2222 2089 23 21 C 176.631 427.334 t 0 r /Symbol findfont 91.294 sf 0 0 m (-) show NC gr 
 gsave  2222 2089 23 21 C 227.911 643.849 t 0 r /Helvetica findfont 91.294 sf 0 0 m (2) show NC gr 
 gsave  2222 2089 23 21 C 176.631 643.849 t 0 r /Symbol findfont 91.294 sf 0 0 m (-) show NC gr 
 gsave  2222 2089 23 21 C 245.005 860.365 t 0 r /Helvetica findfont 91.294 sf 0 0 m (1) show NC gr 
 gsave  2222 2089 23 21 C 193.725 860.365 t 0 r /Symbol findfont 91.294 sf 0 0 m (-) show NC gr 
 gsave  2222 2089 23 21 C 227.911 1088.28 t 0 r /Helvetica findfont 91.294 sf 0 0 m (0) show NC gr 
 gsave  2222 2089 23 21 C 245.005 1304.79 t 0 r /Helvetica findfont 91.294 sf 0 0 m (1) show NC gr 
 gsave  2222 2089 23 21 C 227.911 1527.01 t 0 r /Helvetica findfont 91.294 sf 0 0 m (2) show NC gr 
 gsave  2222 2089 23 21 C 227.911 1754.92 t 0 r /Helvetica findfont 91.294 sf 0 0 m (3) show NC gr 
 gsave  2222 2089 23 21 C 102.56 962.925 t 90 r /Helvetica findfont 102.706 sf 0 0 m (Variable 2 \(PCA\)  [F]) show NC gr  2112 322 m 1579 Y s 2061 458 m 51 X s 2086 502 m 26 X s 2086 547 m 26 X s 2086 591 m 26 X s 2086 635 m 26 X s 2061 679 m 51 X s
 2086 723 m 26 X s 2086 768 m 26 X s 2086 812 m 26 X s 2086 856 m 26 X s 2061 900 m 51 X s 2086 944 m 26 X s 2086 988 m 26 X s 2086 1033 m 26 X s 2086 1077 m 26 X s 2061 1121 m 51 X s 2086 1165 m 26 X s 2086 1209 m 26 X s 2086 1254 m 26 X s 2086 1298
 m 26 X s 2061 1342 m 51 X s 2086 1386 m 26 X s 2086 1430 m 26 X s 2086 1475 m 26 X s 2086 1519 m 26 X s 2061 1563 m 51 X s 2086 1607 m 26 X s 2086 1651 m 26 X s 2086 1695 m 26 X s 2086 1740 m 26 X s 2061 1784 m 51 X s 2061 458 m 51 X s 2086 414 m 26
 X s 2086 370 m 26 X s 2086 326 m 26 X s 2061 1784 m 51 X s 2086 1828 m 26 X s 2086 1872 m 26 X s 1 0 0 c 0.81 0.37 0.38 c 1 0 0 c 1324 910 m 143 Y s 1324 1053 m 142 Y s 1301 1053 m 23 X s 1324 1053 m 22 X s 1312 910 m 23 X s 1312 1195 m 23 X s 1301
 1041 m 23 Y s 1346 1041 m 23 Y s /w 2 def /w2 {w 2 div} def /w3 {w 3 div} def 1324 1053 m20 1369 980 m 49 Y s 1369 1029 m 49 Y s 1346 1029 m 23 X s 1369 1029 m 22 X s 1357 980 m 23 X s 1357 1078 m 23 X s 1346 1017 m 23 Y s 1391 1017 m 23 Y s 1369
 1029 m20 1414 1086 m 20 Y s 1414 1106 m 20 Y s 1391 1106 m 23 X s 1414 1106 m 22 X s 1402 1086 m 23 X s 1402 1126 m 23 X s 1391 1095 m 22 Y s 1436 1095 m 22 Y s 1414 1106 m20 1459 1101 m 10 Y s 1459 1111 m 9 Y s 1436 1111 m 23 X s 1459 1111 m 22 X s
 1447 1101 m 23 X s 1447 1120 m 23 X s 1436 1099 m 23 Y s 1481 1099 m 23 Y s 1459 1111 m20 1504 1103 m 7 Y s 1504 1110 m 6 Y s 1481 1110 m 23 X s 1504 1110 m 22 X s 1492 1103 m 23 X s 1492 1116 m 23 X s 1481 1098 m 23 Y s 1526 1098 m 23 Y s 1504 1110
 m20 1549 1124 m 6 Y s 1549 1130 m 5 Y s 1526 1130 m 23 X s 1549 1130 m 22 X s 1537 1124 m 23 X s 1537 1135 m 23 X s 1526 1118 m 23 Y s 1571 1118 m 23 Y s 1549 1130 m20 1594 1140 m 6 Y s 1594 1146 m 6 Y s 1571 1146 m 23 X s 1594 1146 m 22 X s 1583
 1140 m 22 X s 1583 1152 m 22 X s 1571 1135 m 23 Y s 1616 1135 m 23 Y s 1594 1146 m20 1639 1145 m 10 Y s 1639 1155 m 10 Y s 1616 1155 m 23 X s 1639 1155 m 22 X s 1628 1145 m 22 X s 1628 1165 m 22 X s 1616 1144 m 23 Y s 1661 1144 m 23 Y s 1639 1155
 m20 1684 1159 m 19 Y s 1684 1178 m 19 Y s 1661 1178 m 23 X s 1684 1178 m 22 X s 1673 1159 m 22 X s 1673 1197 m 22 X s 1661 1167 m 23 Y s 1706 1167 m 23 Y s 1684 1178 m20 1729 1129 m 48 Y s 1729 1177 m 48 Y s 1706 1177 m 23 X s 1729 1177 m 22 X s
 1718 1129 m 22 X s 1718 1225 m 22 X s 1706 1166 m 22 Y s 1751 1166 m 22 Y s 1729 1177 m20 1774 978 m 98 Y s 1774 1076 m 99 Y s 1751 1076 m 23 X s 1774 1076 m 23 X s 1763 978 m 22 X s 1763 1175 m 22 X s 1751 1065 m 23 Y s 1797 1065 m 23 Y s 1774 1076
 m20 black 311 322 m 1801 X s 575 373 m -51 Y s 647 347 m -25 Y s 720 347 m -25 Y s 792 347 m -25 Y s 865 373 m -51 Y s 937 347 m -25 Y s 1010 347 m -25 Y s 1082 347 m -25 Y s 1154 373 m -51 Y s 1227 347 m -25 Y s 1299 347 m -25 Y s 1372 347 m -25 Y
 s 1444 373 m -51 Y s 1517 347 m -25 Y s 1589 347 m -25 Y s 1662 347 m -25 Y s 1734 373 m -51 Y s 1807 347 m -25 Y s 1879 347 m -25 Y s 1952 347 m -25 Y s 2024 373 m -51 Y s 575 373 m -51 Y s 502 347 m -25 Y s 430 347 m -25 Y s 357 347 m -25 Y s 2024
 373 m -51 Y s 2097 347 m -25 Y s 311 1901 m 1801 X s 575 1850 m 51 Y s 647 1875 m 26 Y s 720 1875 m 26 Y s 792 1875 m 26 Y s 865 1850 m 51 Y s 937 1875 m 26 Y s 1010 1875 m 26 Y s 1082 1875 m 26 Y s 1154 1850 m 51 Y s 1227 1875 m 26 Y s 1299 1875 m
 26 Y s 1372 1875 m 26 Y s 1444 1850 m 51 Y s 1517 1875 m 26 Y s 1589 1875 m 26 Y s 1662 1875 m 26 Y s 1734 1850 m 51 Y s 1807 1875 m 26 Y s 1879 1875 m 26 Y s 1952 1875 m 26 Y s 2024 1850 m 51 Y s 575 1850 m 51 Y s 502 1875 m 26 Y s 430 1875 m 26 Y
 s 357 1875 m 26 Y s 2024 1850 m 51 Y s 2097 1875 m 26 Y s 311 322 m 1579 Y s 361 458 m -50 X s 336 502 m -25 X s 336 547 m -25 X s 336 591 m -25 X s 336 635 m -25 X s 361 679 m -50 X s 336 723 m -25 X s 336 768 m -25 X s 336 812 m -25 X s 336 856 m
 -25 X s 361 900 m -50 X s 336 944 m -25 X s 336 988 m -25 X s 336 1033 m -25 X s 336 1077 m -25 X s 361 1121 m -50 X s 336 1165 m -25 X s 336 1209 m -25 X s 336 1254 m -25 X s 336 1298 m -25 X s 361 1342 m -50 X s 336 1386 m -25 X s 336 1430 m -25 X
 s 336 1475 m -25 X s 336 1519 m -25 X s 361 1563 m -50 X s 336 1607 m -25 X s 336 1651 m -25 X s 336 1695 m -25 X s 336 1740 m -25 X s 361 1784 m -50 X s 361 458 m -50 X s 336 414 m -25 X s 336 370 m -25 X s 336 326 m -25 X s 361 1784 m -50 X s 336
 1828 m -25 X s 336 1872 m -25 X s 2112 322 m 1579 Y s 2061 458 m 51 X s 2086 502 m 26 X s 2086 547 m 26 X s 2086 591 m 26 X s 2086 635 m 26 X s 2061 679 m 51 X s 2086 723 m 26 X s 2086 768 m 26 X s 2086 812 m 26 X s 2086 856 m 26 X s 2061 900 m 51 X
 s 2086 944 m 26 X s 2086 988 m 26 X s 2086 1033 m 26 X s 2086 1077 m 26 X s 2061 1121 m 51 X s 2086 1165 m 26 X s 2086 1209 m 26 X s 2086 1254 m 26 X s 2086 1298 m 26 X s 2061 1342 m 51 X s 2086 1386 m 26 X s 2086 1430 m 26 X s 2086 1475 m 26 X s
 2086 1519 m 26 X s 2061 1563 m 51 X s 2086 1607 m 26 X s 2086 1651 m 26 X s 2086 1695 m 26 X s 2086 1740 m 26 X s 2061 1784 m 51 X s 2061 458 m 51 X s 2086 414 m 26 X s 2086 370 m 26 X s 2086 326 m 26 X s 2061 1784 m 51 X s 2086 1828 m 26 X s 2086
 1872 m 26 X s 0.490196 0.545098 0.615686 c 0.364706 0.419608 0.490196 c 1556 123 45 1976 bf 0.490196 0.545098 0.615686 c 45 1976 m 1556 X s 1601 1976 m 123 Y s 1601 2099 m -1556 X s 45 2099 m -123 Y s 1 1 1 c black 1 1 1 c
 gsave  2222 2089 23 21 C 85.4667 2017.01 t 0 r /Helvetica-Bold findfont 74.1764 sf 0 0 m (Variable 2 versus Variable 1 \(Signal\)_PCA) show NC gr 
 gr  gr showpage
end
%%EOF
