%!PS-Adobe-2.0 EPSF-2.0
%%BoundingBox:  0 0 567 419
%%Title: dataset/plots/mvaeffs_MLPBNN.eps: Cut efficiencies for MLPBNN classifier
%%Creator: ROOT Version 6.12/06
%%CreationDate: Mon May 21 13:38:13 2018
%%DocumentNeededResources: ProcSet (FontSetInit)
%%EndComments
%%BeginProlog
80 dict begin
/s {stroke} def /l {lineto} def /m {moveto} def /t {translate} def
/r {rotate} def /rl {roll}  def /R {repeat} def
/d {rlineto} def /rm {rmoveto} def /gr {grestore} def /f {eofill} def
/c {setrgbcolor} def /black {0 setgray} def /sd {setdash} def
/cl {closepath} def /sf {scalefont setfont} def /lw {setlinewidth} def
/box {m dup 0 exch d exch 0 d 0 exch neg d cl} def
/NC{systemdict begin initclip end}def/C{NC box clip newpath}def
/bl {box s} def /bf {gsave box gsave f grestore 1 lw [] 0 sd s grestore} def /Y { 0 exch d} def /X { 0 d} def 
/K {{pop pop 0 moveto} exch kshow} bind def
/ita {/ang 15 def gsave [1 0 ang dup sin exch cos div 1 0 0] concat} def 
/mp {newpath /y exch def /x exch def} def
/side {[w .77 mul w .23 mul] .385 w mul sd w 0 l currentpoint t -144 r} def
/mr {mp x y w2 0 360 arc} def /m24 {mr s} def /m20 {mr f} def
/mb {mp x y w2 add m w2 neg 0 d 0 w neg d w 0 d 0 w d cl} def
/mt {mp x y w2 add m w2 neg w neg d w 0 d cl} def
/w4 {w 4 div} def
/w6 {w 6 div} def
/w8 {w 8 div} def
/m21 {mb f} def /m25 {mb s} def /m22 {mt f} def /m26{mt s} def
/m23 {mp x y w2 sub m w2 w d w neg 0 d cl f} def
/m27 {mp x y w2 add m w3 neg w2 neg d w3 w2 neg d w3 w2 d cl s} def
/m28 {mp x w2 sub y w2 sub w3 add m w3 0 d  0 w3 neg d w3 0 d 0 w3 d w3 0 d  0 w3 d w3 neg 0 d 0 w3 d w3 neg 0 d 0 w3 neg d w3 neg 0 d cl s } def
/m29 {mp gsave x w2 sub y w2 add w3 sub m currentpoint t 4 {side} repeat cl fill gr} def
/m30 {mp gsave x w2 sub y w2 add w3 sub m currentpoint t 4 {side} repeat cl s gr} def
/m31 {mp x y w2 sub m 0 w d x w2 sub y m w 0 d x w2 sub y w2 add m w w neg d x w2 sub y w2 sub m w w d s} def
/m32 {mp x y w2 sub m w2 w d w neg 0 d cl s} def
/m33 {mp x y w2 add m w3 neg w2 neg d w3 w2 neg d w3 w2 d cl f} def
/m34 {mp x w2 sub y w2 sub w3 add m w3 0 d  0 w3 neg d w3 0 d 0 w3 d w3 0 d  0 w3 d w3 neg 0 d 0 w3 d w3 neg 0 d 0 w3 neg d w3 neg 0 d cl f } def
/m35 {mp x y w2 add m w2 neg w2 neg d w2 w2 neg d w2 w2 d w2 neg w2 d x y w2 sub m 0 w d x w2 sub y m w 0 d s} def
/m36 {mb x w2 sub y w2 add m w w neg d x w2 sub y w2 sub m w w d s} def
/m37 {mp x y m w4 neg w2 d w4 neg w2 neg d w2 0 d  w4 neg w2 neg d w2 0 d w4 neg w2 d w2 0 d w4 neg w2 d w4 neg w2 neg d cl s} def
/m38 {mp x w4 sub y w2 add m w4 neg w4 neg d 0 w2 neg d w4 w4 neg d w2 0 d w4 w4 d 0 w2 d w4 neg w4 d w2 neg 0 d x y w2 sub m 0 w d x w2 sub y m w 0 d cl s} def
/m39 {mp x y m w4 neg w2 d w4 neg w2 neg d w2 0 d  w4 neg w2 neg d w2 0 d w4 neg w2 d w2 0 d w4 neg w2 d w4 neg w2 neg d cl f} def
/m40 {mp x y m w4 w2 d w4 w4 neg d w2 neg w4 neg d w2 w4 neg d w4 neg w4 neg d w4 neg w2 d w4 neg w2 neg d w4 neg w4 d w2 w4 d w2 neg w4 d w4 w4 d w4 w2 neg d cl s} def
/m41 {mp x y m w4 w2 d w4 w4 neg d w2 neg w4 neg d w2 w4 neg d w4 neg w4 neg d w4 neg w2 d w4 neg w2 neg d w4 neg w4 d w2 w4 d w2 neg w4 d w4 w4 d w4 w2 neg d cl f} def
/m42 {mp x y w2 add m w8 neg w2 -3 4 div mul d w2 -3 4 div mul w8 neg d w2 3 4 div mul w8 neg d w8 w2 -3 4 div mul d w8 w2 3 4 div mul d w2 3 4 div mul w8 d w2 -3 4 div mul w8 d w8 neg w2 3 4 div mul d cl s} def
/m43 {mp x y w2 add m w8 neg w2 -3 4 div mul d w2 -3 4 div mul w8 neg d w2 3 4 div mul w8 neg d w8 w2 -3 4 div mul d w8 w2 3 4 div mul d w2 3 4 div mul w8 d w2 -3 4 div mul w8 d w8 neg w2 3 4 div mul d cl f} def
/m44 {mp x y m w6 neg w2 d w2 2 3 div mul 0 d w6 neg w2 neg d w2 w6 d 0 w2 -2 3 div mul d w2 neg w6 d w6 w2 neg d w2 -2 3 div mul 0 d w6 w2 d w2 neg w6 neg d 0 w2 2 3 div mul d w2 w6 neg d cl s} def
/m45 {mp x y m w6 neg w2 d w2 2 3 div mul 0 d w6 neg w2 neg d w2 w6 d 0 w2 -2 3 div mul d w2 neg w6 d w6 w2 neg d w2 -2 3 div mul 0 d w6 w2 d w2 neg w6 neg d 0 w2 2 3 div mul d w2 w6 neg d cl f} def
/m46 {mp x y w4 add m w4 neg w4 d w4 neg w4 neg d  w4 w4 neg d w4 neg w4 neg d w4 w4 neg d w4 w4 d w4 w4 neg d w4 w4 d w4 neg w4 d w4 w4 d w4 neg w4 d w4 neg w4 neg d cl s} def
/m47 {mp x y w4 add m w4 neg w4 d w4 neg w4 neg d w4 w4 neg d w4 neg w4 neg d  w4 w4 neg d w4 w4 d w4 w4 neg d w4 w4 d w4 neg w4 d w4 w4 d w4 neg w4 d w4 neg w4 neg d cl f} def
/m48 {mp x y w4 add m w4 neg w4 d w4 neg w4 neg d w4 w4 neg d  w4 neg w4 neg d w4 w4 neg d w4 w4 d w4 w4 neg d w4 w4 d w4 neg w4 d w4 w4 d w4 neg w4 d w4 neg w4 neg d  w4 w4 neg d w4 neg w4 neg d w4 neg w4 d w4 w4 d cl f} def
/m49 {mp x w2 sub w3 add y w2 sub w3 add m  0 w3 neg d w3 0 d 0 w3 d w3 0 d 0 w3 d w3 neg 0 d 0 w3 d w3 neg 0 d 0 w3 neg d w3 neg 0 d 0 w3 neg d w3 0 d 0 w3 d w3 0 d 0 w3 neg d w3 neg 0 d cl f } def
/m2 {mp x y w2 sub m 0 w d x w2 sub y m w 0 d s} def
/m5 {mp x w2 sub y w2 sub m w w d x w2 sub y w2 add m w w neg d s} def
%%IncludeResource: ProcSet (FontSetInit)
%%IncludeResource: font Times-Roman
%%IncludeResource: font Times-Italic
%%IncludeResource: font Times-Bold
%%IncludeResource: font Times-BoldItalic
%%IncludeResource: font Helvetica
%%IncludeResource: font Helvetica-Oblique
%%IncludeResource: font Helvetica-Bold
%%IncludeResource: font Helvetica-BoldOblique
%%IncludeResource: font Courier
%%IncludeResource: font Courier-Oblique
%%IncludeResource: font Courier-Bold
%%IncludeResource: font Courier-BoldOblique
%%IncludeResource: font Symbol
%%IncludeResource: font ZapfDingbats
/reEncode {exch findfont dup length dict begin {1 index /FID eq  {pop pop} {def} ifelse } forall /Encoding exch def currentdict end dup /FontName get exch definefont pop } def [/Times-Bold /Times-Italic /Times-BoldItalic /Helvetica /Helvetica-Oblique
 /Helvetica-Bold /Helvetica-BoldOblique /Courier /Courier-Oblique /Courier-Bold /Courier-BoldOblique /Times-Roman /AvantGarde-Book /AvantGarde-BookOblique /AvantGarde-Demi /AvantGarde-DemiOblique /Bookman-Demi /Bookman-DemiItalic /Bookman-Light
 /Bookman-LightItalic /Helvetica-Narrow /Helvetica-Narrow-Bold /Helvetica-Narrow-BoldOblique /Helvetica-Narrow-Oblique /NewCenturySchlbk-Roman /NewCenturySchlbk-Bold /NewCenturySchlbk-BoldItalic /NewCenturySchlbk-Italic /Palatino-Bold
 /Palatino-BoldItalic /Palatino-Italic /Palatino-Roman ] {ISOLatin1Encoding reEncode } forall
%%EndProlog
%%BeginSetup
%%EndSetup
newpath  gsave  .25 .25 scale  gsave  0 0 t 0.490196 0.545098 0.615686 c[  ] 0 sd 3 lw 0.941176 0.941176 0.941176 c 2268 1676 0 0 bf black 1 1 0.992157 c 1796 1140 245 201 bf black 1796 1140 245 201 bl 1 1 0.992157 c 1796 1140 245 201 bf black 1796
 1140 245 201 bl 245 201 m 1796 X s[ 4 8] 0 sd 245 1341 m -1140 Y s 604 1341 m -1140 Y s 963 1341 m -1140 Y s 1323 1341 m -1140 Y s 1682 1341 m -1140 Y s 2041 1341 m -1140 Y s 245 1341 m -1140 Y s 2041 1341 m -1140 Y s[  ] 0 sd 245 201 m 1140 Y s[ 4
 8] 0 sd 2041 201 m -1796 X s 2041 408 m -1796 X s 2041 616 m -1796 X s 2041 823 m -1796 X s 2041 1030 m -1796 X s 2041 1237 m -1796 X s 2041 1237 m -1796 X s 0 0 0.933333 c[  22 12 ] 0 sd 6 lw 0.49 0.6 0.82 c black 0 0 0.933333 c 245 719 m 173 Y 1 X
 1 Y 5 X 1 Y -1 Y 2 X 1 Y 1 X s 254 894 m 9 X s 263 894 m 5 X 1 Y 3 X s 271 895 m 9 X s 280 895 m 9 X s 289 895 m 2 X 1 Y 7 X s 298 896 m 9 X s 307 896 m 8 X s 315 896 m 9 X s 324 896 m 9 X s 333 896 m 1 X 1 Y 8 X s 342 897 m 1 -1 d 8 X s 351 896 m 1
 Y 8 X s 359 897 m 9 X s 368 897 m 1 X -1 Y 8 X s 377 896 m 1 X 1 1 d 7 X s 386 897 m 9 X s 395 897 m 8 X s 403 897 m 9 X s 412 897 m 9 X s 421 897 m 9 X s 430 897 m 9 X s 439 897 m 8 X s 447 897 m 9 X s 456 897 m 9 X s 465 897 m 9 X s 474 897 m 9 X
 s 483 897 m 8 X s 491 897 m 9 X s 500 897 m 9 X s 509 897 m 9 X s 518 897 m 9 X s 527 897 m 1 Y 8 X s 535 898 m 9 X s 544 898 m 9 X s 553 898 m 9 X s 562 898 m 9 X s 571 898 m 8 X s 579 898 m 9 X s 588 898 m 9 X s 597 898 m 9 X s 606 898 m 9 X s 615
 898 m 8 X s 623 898 m 9 X s 632 898 m 9 X s 641 898 m 9 X s 650 898 m 9 X s 659 898 m 8 X s 667 898 m 9 X s 676 898 m 9 X s 685 898 m 9 X s 694 898 m 9 X s 703 898 m 8 X s 711 898 m 9 X s 720 898 m 2 X 1 Y 7 X s 729 899 m 9 X s 738 899 m 9 X s 747
 899 m 8 X s 755 899 m 9 X s 764 899 m 9 X s 773 899 m 9 X s 782 899 m 2 X -1 Y 1 X 1 Y 6 X s 791 899 m 8 X s 799 899 m 9 X s 808 899 m 9 X s 817 899 m 9 X s 826 899 m 9 X s 835 899 m 8 X s 843 899 m 9 X s 852 899 m 9 X s 861 899 m 9 X s 870 899 m 9
 X s 879 899 m 8 X s 887 899 m 9 X s 896 899 m 9 X s 905 899 m 9 X s 914 899 m 9 X s 923 899 m 8 X s 931 899 m 9 X s 940 899 m 9 X s 949 899 m 2 X -1 Y 7 X s 958 898 m 9 X s 967 898 m 8 X s 975 898 m 9 X s 984 898 m 9 X s 993 898 m 9 X s 1002 898 m 9
 X s 1011 898 m 7 X 1 Y 1 X s 1019 899 m 5 X -1 Y 3 X 1 1 d s 1028 899 m 9 X s 1037 899 m 9 X s 1046 899 m 9 X s 1055 899 m 8 X s 1063 899 m 9 X s 1072 899 m 3 X -1 Y 6 X s 1081 898 m 9 X s 1090 898 m 9 X s 1099 898 m 8 X s 1107 898 m 9 X s 1116 898
 m 9 X s 1125 898 m 9 X s 1134 898 m 9 X s 1143 898 m 4 X -1 Y 4 X s 1151 897 m 9 X s 1160 897 m 9 X s 1169 897 m 9 X s 1178 897 m 2 X 1 1 d -1 Y 6 X s 1187 897 m 8 X s 1195 897 m 4 X 1 Y 5 X s 1204 898 m 9 X s 1213 898 m 9 X s 1222 898 m 1 X -1 Y 1
 X 1 Y 1 X -1 Y 6 X s 1231 897 m 8 X s 1239 897 m 8 X 1 -1 d 1 Y s 1248 897 m 3 X -1 Y 6 X s 1257 896 m 9 X s 1266 896 m 9 X s 1275 896 m 1 X -1 Y 4 X -1 Y 3 X s 1283 894 m 9 X s 1292 894 m -1 Y 1 X 1 Y -1 Y 1 X 1 1 d -1 Y 6 X s 1301 893 m 9 X s 1310
 893 m 1 X -1 Y 8 X s 1319 892 m 2 X -1 Y 6 X s 1327 891 m 2 X -1 Y 3 X 1 -1 d 1 X 1 Y 1 -1 d -1 Y 1 X -3 Y s 1336 885 m -1 Y 1 -1 d -2 Y 1 -1 d -4 Y 1 -1 d -6 Y 1 -1 d -5 Y 1 -1 d -8 Y 1 -2 d -6 Y 1 -1 d -6 Y 1 -2 d -4 Y 1 -1 d -3 Y s 1345 829 m -3
 Y 1 -1 d -6 Y 1 -2 d 1 Y -7 Y 1 -1 d -10 Y 1 -1 d -5 Y 1 -1 d -10 Y 1 -1 d -6 Y 1 -1 d -8 Y 1 -4 d -4 Y 1 -1 d -3 Y s 1354 755 m -4 Y 1 -1 d -8 Y 1 -1 d -9 Y 1 -1 d -12 Y 1 -4 d -7 Y 1 -2 d -6 Y 1 -2 d -4 Y 1 -1 d -4 Y 1 -2 d -5 Y 1 -2 d s 1363 680
 m -7 Y 1 -1 d -6 Y 1 -1 d -7 Y 1 -1 d -6 Y 1 -1 d -2 Y 1 -1 d -5 Y 1 -2 d -4 Y 1 X -3 Y 1 -2 d -4 Y s 1371 627 m 1 -1 d -3 Y 1 -1 d 1 Y -2 Y 1 -1 d -3 Y 1 -1 d -3 Y 1 X -2 Y 1 X -3 Y 1 -1 d -2 Y 1 X -1 Y 1 -1 d -2 Y s 1380 601 m -1 Y 1 X -2 Y 1 -1 d
 -2 Y 1 X -2 Y 1 X -1 Y 1 X -1 Y 1 -1 d -2 Y 1 X -4 Y 1 -1 d -1 Y 1 X -3 Y s 1389 579 m -1 Y 1 X -2 Y 1 X -3 Y 1 X -3 Y 1 X -2 Y 1 -1 d -2 Y 1 X -1 Y 1 -1 d -1 Y 1 Y 1 -1 d -3 Y 1 X -1 Y s 1398 558 m -1 Y 1 X -4 Y 1 X -1 Y 1 -1 d -1 Y 1 X -2 Y 1 X -1
 Y 1 Y -1 Y 1 -1 d 1 Y -1 Y 1 -1 d 1 Y -2 Y 1 Y 1 X -3 Y 1 X s 1407 542 m -1 Y 1 -1 d -2 Y 1 X 1 -1 d -2 Y 1 -1 d 1 -1 d -1 Y 1 X -1 Y 1 1 d -3 Y 1 X -2 Y s 1415 527 m 1 X -1 Y 1 -1 d 1 Y -2 Y 1 -1 d 1 X -1 Y 1 X -2 Y 1 Y 1 -1 d -2 Y 1 1 d -2 Y 1 X
 -1 Y 1 -1 d -1 Y s 1424 514 m -1 Y 1 X -1 Y 1 X -1 Y 1 -1 d 1 X -2 Y 1 X 1 Y -1 Y 2 X -2 Y 1 -1 d -1 Y 1 X -1 Y s 1433 503 m 1 -1 d -1 Y 1 X -1 Y 1 X 1 -1 d -1 Y 1 X -1 Y 1 X -1 Y 1 X -2 Y 1 X -2 Y 1 -1 d s 1442 491 m -1 Y 1 X -1 Y 1 X -1 Y 2 X -1 Y
 1 -1 d -1 Y 1 X -1 Y 1 X -1 Y 1 -1 d -1 Y 1 X s 1451 481 m -2 Y 1 X -2 Y 1 X -1 Y 1 X -1 Y 1 -1 d 1 Y 1 -1 d -1 Y 1 X -1 Y 1 1 d -1 Y 1 -1 d s 1459 471 m 1 X -1 Y 1 X 1 -1 d -1 Y 1 X -1 Y 1 X -2 Y 1 X -1 Y 1 X 1 Y -1 Y 1 X -1 Y 1 X s 1468 463 m 2 X
 -2 Y 1 X -1 Y 1 Y 1 X -1 Y 1 X -1 Y 1 X -1 Y 1 -1 d 1 X -1 Y 1 X s 1477 456 m -1 Y 1 X -2 Y 1 X -2 Y 1 X -1 Y 1 X -1 Y 1 X 1 Y -1 Y 1 Y 1 -1 d -1 Y 1 X -1 Y 1 X -1 Y 1 X s 1486 446 m -1 Y 1 X -1 Y 1 X -1 Y 1 X -1 Y 1 X -1 Y 1 X -1 Y 2 X 1 -1 d 1 -1
 d s 1495 438 m 1 Y -1 Y 1 -1 d 1 X -1 Y 1 X -1 Y 2 X -1 Y 1 -1 d -1 Y 2 X s 1503 432 m 1 X -2 Y 3 X -1 Y 1 X -1 Y 2 X -1 Y 1 X -1 Y 1 X s 1512 426 m -1 Y 1 X -1 Y 2 X -1 Y 1 X -1 Y 1 Y -1 Y 1 X 1 -1 d 1 Y -1 Y 3 X -1 Y s 1521 420 m -1 Y 1 X -1 Y 1 1
 d -1 Y 1 X -2 Y 1 X -1 Y 1 X -1 Y 1 -1 d 1 X -1 Y 2 X s 1530 412 m -1 Y 2 X -1 Y 1 Y -1 Y 1 X -1 Y 1 X 1 -1 d 1 X -1 Y 1 X -1 Y 2 X s 1539 406 m 1 -1 d -1 Y 3 X -1 Y 4 X -2 Y s 1547 401 m 1 X 1 Y -1 Y 1 Y 1 -1 d -1 Y 2 X 1 -1 d 1 1 d -1 Y 2 X -1 Y 1
 Y -1 Y 1 X s 1556 398 m 3 X -1 Y 1 X -1 Y 3 X -2 Y 2 X -1 Y s 1565 393 m 1 Y 1 X -1 Y 1 X -1 Y 3 X -1 Y 1 X -1 Y 3 X 1 Y -1 Y s 1574 390 m 1 1 d -1 Y 1 X 1 Y 1 X -1 Y 1 X 1 Y -1 Y 2 X 1 -1 d 2 X s 1583 389 m 1 X -1 Y 1 Y -1 Y 4 X -1 Y 1 X -1 Y 1 X 1
 Y 1 X -1 Y s 1591 386 m 3 X 1 -1 d -1 Y 2 X -1 Y 2 X -1 Y 1 X 1 Y s 1600 383 m -1 Y 3 X -1 Y 3 X 1 -1 d -1 Y 2 X s 1609 379 m -1 Y 2 X -1 Y 1 X 1 Y -1 Y 3 X -1 Y 1 X -1 Y 1 X -1 Y 1 Y -1 Y 1 X s 1618 374 m 1 X -1 Y 1 X -1 Y 1 X -1 Y 4 X 1 -1 d -1 Y
 1 X s 1627 369 m 1 -1 d 1 Y -1 Y 1 Y 1 -1 d 2 X -1 Y 2 X -1 Y 2 X -1 Y s 1635 365 m 3 X -1 Y 4 X -1 Y 1 X 1 Y -1 Y 1 X s 1644 363 m 3 X -1 Y 2 X -1 Y 3 X -1 Y 1 X -1 Y s 1653 359 m 4 X -1 Y 2 X -1 Y 2 X -1 Y 1 Y 1 -1 d s 1662 356 m 1 X -1 Y 1 X -1 Y
 1 X 1 Y -1 Y 3 X -1 Y 3 X s 1671 353 m 4 X -1 Y 1 X -1 Y 3 X s 1679 351 m 3 X -1 Y 3 X -1 Y 2 X -1 Y 1 X s 1688 348 m 2 X -1 Y 2 X -1 Y 3 X -1 Y 2 X s 1697 345 m 4 X -1 Y 3 X -1 Y 2 X s 1706 343 m 1 X -1 Y 1 X 1 Y -1 Y 1 X -1 Y 1 X -1 Y 1 Y 1 X -1 Y
 2 X -1 Y 2 X s 1715 339 m 1 X -1 Y 3 X -1 Y 2 X 1 -1 d 1 X -1 Y s 1723 335 m 2 X -1 Y 2 X -1 Y 1 Y 3 X -1 Y 1 X -1 Y 1 X s 1732 332 m 2 X -1 Y 2 X -1 Y 3 X 1 -1 d 1 X s 1741 329 m 2 X -1 Y 5 X -1 Y 2 X s 1750 327 m 1 X -1 Y 3 X -1 Y 3 X -1 Y 2 X s
 1759 324 m 1 X -1 Y 3 X 1 -1 d 3 X s 1767 322 m 1 X 1 -1 d 3 X 1 -1 d 3 X s 1776 320 m 1 X -1 Y 4 X -1 Y 4 X -1 Y s 1785 317 m 1 X 1 -1 d 1 Y -1 Y 4 X -1 Y 2 X -1 Y 1 X -1 Y s 1794 313 m 4 X -1 Y 3 X -1 Y 1 Y 1 X -1 Y 1 X s 1803 311 m 1 X -1 Y 5 X
 -1 Y 3 X s 1812 309 m -1 Y 2 X -1 Y 3 X -1 Y 3 X s 1820 306 m 3 X -1 Y 3 X -1 Y 3 X s 1829 304 m -1 Y 4 X -1 Y 2 X -1 Y 3 X s 1838 301 m 1 X -1 Y 4 X -1 Y 4 X s 1847 299 m 4 X -1 Y 5 X s 1856 298 m 2 X -1 Y 3 X -1 Y 3 X -1 Y s 1864 295 m 2 X -1 Y 2
 X -1 Y 3 X -1 Y 2 X s 1873 292 m 1 X -1 Y 4 X -1 Y 1 X -1 Y 2 X 1 -1 d s 1882 288 m 3 X -1 Y 3 X 1 -1 d 2 X s 1891 286 m -1 Y 2 X -1 Y 2 X 1 -1 d 4 X s 1900 283 m 3 X -1 Y 2 X 1 -1 d 1 Y 1 X -1 Y 1 X s 1908 281 m 2 X -1 Y 2 X 1 -1 d 4 X s 1917 279 m
 1 -1 d 2 X -1 Y 2 X -1 Y 4 X s 1926 276 m 4 X 1 -1 d 4 X s 1935 275 m 3 X -1 Y 2 X -1 Y 4 X s 1944 273 m -1 Y 3 X -1 Y 4 X -1 Y 1 X s 1952 270 m 1 X -1 Y 1 X 1 -1 d 1 -1 d 2 X -1 Y 3 X s 1961 266 m 4 X -1 Y 2 X -1 Y 1 X -1 Y 2 X s 1970 263 m 1 -1 d
 2 X -1 Y 2 X -1 Y 2 X -1 Y 2 X s 1979 259 m 1 X -1 Y 1 X 1 -1 d 1 X 1 -1 d 3 X -1 Y 1 X s 1988 255 m 3 X -1 Y 1 X -1 Y 1 X -1 Y 1 X -1 Y 2 X s 1996 251 m 1 X -1 Y 4 X -1 Y 1 X -1 Y 3 X -1 Y s 2005 247 m 2 X -1 Y 2 X -1 Y 2 X -1 Y 2 X -1 Y 1 X -1 Y s
 2014 242 m 1 X -1 Y 2 X -1 Y 1 X -1 Y 1 X -1 Y 2 X -1 Y 1 X 1 -1 d s 2023 236 m 1 -1 d 1 X -1 Y 1 X -2 Y 2 X 1 -1 d 1 -1 d 1 X -1 Y 1 X s 2032 229 m -2 Y 1 X -1 Y 1 X -2 Y 1 X -2 Y 1 X -1 Y 1 -1 d -1 Y 1 X -2 Y 1 X -3 Y 1 -1 d -4 Y s 2040 209 m -1 Y
 1 -2 d -3 Y s black[  ] 0 sd 3 lw 245 201 m 1796 X s 245 241 m -40 Y s 335 221 m -20 Y s 425 221 m -20 Y s 514 221 m -20 Y s 604 241 m -40 Y s 694 221 m -20 Y s 784 221 m -20 Y s 874 221 m -20 Y s 963 241 m -40 Y s 1053 221 m -20 Y s 1143 221 m -20
 Y s 1233 221 m -20 Y s 1323 241 m -40 Y s 1412 221 m -20 Y s 1502 221 m -20 Y s 1592 221 m -20 Y s 1682 241 m -40 Y s 1772 221 m -20 Y s 1861 221 m -20 Y s 1951 221 m -20 Y s 2041 241 m -40 Y s 245 241 m -40 Y s 2041 241 m -40 Y s
 gsave  2268 1676 0 0 C 223.738 128.934 t 0 r /Helvetica-Bold findfont 64.4669 sf 0 0 m (0) show NC gr 
 gsave  2268 1676 0 0 C 557.449 128.934 t 0 r /Helvetica-Bold findfont 64.4669 sf 0 0 m (0.2) show NC gr 
 gsave  2268 1676 0 0 C 917.705 128.934 t 0 r /Helvetica-Bold findfont 64.4669 sf 0 0 m (0.4) show NC gr 
 gsave  2268 1676 0 0 C 1274.17 128.934 t 0 r /Helvetica-Bold findfont 64.4669 sf 0 0 m (0.6) show NC gr 
 gsave  2268 1676 0 0 C 1634.42 128.934 t 0 r /Helvetica-Bold findfont 64.4669 sf 0 0 m (0.8) show NC gr 
 gsave  2268 1676 0 0 C 2025.02 128.934 t 0 r /Helvetica-Bold findfont 64.4669 sf 0 0 m (1) show NC gr 
 gsave  2268 1676 0 0 C 762.226 30.3373 t 0 r /Helvetica-Bold findfont 72.0512 sf 0 0 m (Cut value applied on MLPBNN output) show NC gr  245 201 m 1140 Y s 291 201 m -46 X s 268 253 m -23 X s 268 305 m -23 X s 268 357 m -23 X s 291 408 m -46 X s 268
 460 m -23 X s 268 512 m -23 X s 268 564 m -23 X s 291 616 m -46 X s 268 667 m -23 X s 268 719 m -23 X s 268 771 m -23 X s 291 823 m -46 X s 268 875 m -23 X s 268 926 m -23 X s 268 978 m -23 X s 291 1030 m -46 X s 268 1082 m -23 X s 268 1134 m -23 X
 s 268 1185 m -23 X s 291 1237 m -46 X s 291 1237 m -46 X s 268 1289 m -23 X s 268 1341 m -23 X s
 gsave  2268 1676 0 0 C 182.024 178.232 t 0 r /Helvetica-Bold findfont 64.4669 sf 0 0 m (0) show NC gr 
 gsave  2268 1676 0 0 C 128.934 383.009 t 0 r /Helvetica-Bold findfont 64.4669 sf 0 0 m (0.2) show NC gr 
 gsave  2268 1676 0 0 C 125.142 591.578 t 0 r /Helvetica-Bold findfont 64.4669 sf 0 0 m (0.4) show NC gr 
 gsave  2268 1676 0 0 C 128.934 796.355 t 0 r /Helvetica-Bold findfont 64.4669 sf 0 0 m (0.6) show NC gr 
 gsave  2268 1676 0 0 C 125.142 1004.92 t 0 r /Helvetica-Bold findfont 64.4669 sf 0 0 m (0.8) show NC gr 
 gsave  2268 1676 0 0 C 189.608 1213.49 t 0 r /Helvetica-Bold findfont 64.4669 sf 0 0 m (1) show NC gr 
 gsave  2268 1676 0 0 C 64.4669 731.888 t 90 r /Helvetica-Bold findfont 72.0512 sf 0 0 m (Efficiency \(Purity\)) show NC gr  0 0 0.933333 c[  52 12 ] 0 sd 6 lw 0.49 0.6 0.82 c black 0 0 0.933333 c 245 719 m 173 Y 1 X 1 Y 5 X 1 Y 3 X s 254 894 m 9 X s
 263 894 m 1 X 1 Y 7 X s 271 895 m 9 X s 280 895 m 9 X s 289 895 m 1 X 1 Y 8 X s 298 896 m 9 X s 307 896 m 8 X s 315 896 m 9 X s 324 896 m 1 1 d 8 X s 333 897 m 9 X s 342 897 m 9 X s 351 897 m 8 X s 359 897 m 9 X s 368 897 m 9 X s 377 897 m 9 X s 386
 897 m 9 X s 395 897 m 8 X s 403 897 m 9 X s 412 897 m 9 X s 421 897 m 9 X s 430 897 m 9 X s 439 897 m 8 X s 447 897 m 6 X 1 Y 3 X s 456 898 m 9 X s 465 898 m 9 X s 474 898 m 9 X s 483 898 m 8 X s 491 898 m 9 X s 500 898 m 9 X s 509 898 m 9 X s 518
 898 m 9 X s 527 898 m 8 X s 535 898 m 9 X s 544 898 m 9 X s 553 898 m 5 X 1 Y 4 X s 562 899 m 9 X s 571 899 m 8 X s 579 899 m 9 X s 588 899 m 9 X s 597 899 m 9 X s 606 899 m 9 X s 615 899 m 8 X s 623 899 m 9 X s 632 899 m 9 X s 641 899 m 9 X s 650
 899 m 9 X s 659 899 m 8 X s 667 899 m 9 X s 676 899 m 9 X s 685 899 m 9 X s 694 899 m 9 X s 703 899 m 8 X s 711 899 m 9 X s 720 899 m 9 X s 729 899 m 9 X s 738 899 m 9 X s 747 899 m 8 X s 755 899 m 9 X s 764 899 m 9 X s 773 899 m 9 X s 782 899 m 3 X
 1 Y 6 X s 791 900 m 8 X s 799 900 m 9 X s 808 900 m 9 X s 817 900 m 9 X s 826 900 m 9 X s 835 900 m 8 X s 843 900 m 9 X s 852 900 m 9 X s 861 900 m 8 X 1 Y 1 X s 870 901 m 9 X s 879 901 m 6 X -1 Y 2 X s 887 900 m 2 X 1 Y 7 X s 896 901 m 9 X s 905
 901 m 9 X s 914 901 m 9 X s 923 901 m 8 X s 931 901 m 9 X s 940 901 m 9 X s 949 901 m 2 X -1 Y 7 X s 958 900 m 9 X s 967 900 m 8 X s 975 900 m 9 X s 984 900 m 9 X s 993 900 m 7 X 1 Y 2 X s 1002 901 m 9 X s 1011 901 m 8 X s 1019 901 m 9 X s 1028 901
 m 9 X s 1037 901 m 9 X s 1046 901 m 9 X s 1055 901 m 8 X s 1063 901 m 9 X s 1072 901 m 9 X s 1081 901 m 9 X s 1090 901 m 9 X s 1099 901 m 8 X s 1107 901 m 9 X s 1116 901 m 9 X s 1125 901 m 9 X s 1134 901 m 9 X s 1143 901 m 8 X s 1151 901 m 9 X s
 1160 901 m 9 X s 1169 901 m 9 X s 1178 901 m 9 X s 1187 901 m 8 X 1 Y s 1195 902 m 9 X s 1204 902 m 9 X s 1213 902 m 9 X s 1222 902 m 9 X s 1231 902 m 8 X s 1239 902 m 9 X s 1248 902 m 9 X s 1257 902 m 9 X s 1266 902 m 9 X s 1275 902 m 8 X s 1283
 902 m 9 X s 1292 902 m 9 X s 1301 902 m 9 X s 1310 902 m 9 X s 1319 902 m 8 X s 1327 902 m 9 X s 1336 902 m 2 X -1 Y 1 X -1 Y 2 X 1 -1 d 1 X 1 Y 1 -1 d 2 Y 1 X 2 Y s 1345 903 m -1 Y 1 Y 1 X 1 Y 1 1 d 3 Y 1 X 1 Y 1 1 d 2 Y 1 1 d -1 Y 1 Y 1 1 d 1 Y 1
 1 d 2 Y 1 -1 d 3 Y 1 X 2 Y s 1354 922 m 1 Y 1 X 1 Y -1 Y 2 Y 1 X 1 1 d 1 Y 1 X 1 Y -1 Y 1 X 3 Y 1 X 1 Y 1 X 2 Y 1 X 1 Y 1 X s 1363 934 m 1 Y 1 X 1 Y 1 X -1 Y 1 Y -2 Y 1 Y 1 X 1 Y -1 Y 1 X 2 Y 1 1 d 1 X 2 Y 1 1 d -1 Y 2 Y 1 -1 d 1 Y -1 Y 1 Y s 1371
 942 m 1 X 1 Y 1 X 3 Y 1 -1 d 1 Y 1 X 2 Y 1 X 1 Y 1 1 d 1 Y 1 X 1 Y 1 1 d 2 Y 1 X -1 Y 1 Y s 1380 955 m 1 X -1 Y 1 1 d 1 Y 1 1 d 1 Y 1 1 d 2 Y 1 X 3 Y 1 1 d 1 X 2 Y 1 X 1 1 d s 1389 968 m 1 X 1 Y 2 X 1 Y 1 1 d 1 X 1 1 d 1 Y 1 -1 d 3 Y 1 X -1 Y 1 Y -1
 Y 1 X 1 Y s 1398 975 m 1 Y 1 X 1 Y -1 Y 1 X 1 Y 1 1 d 1 Y 1 X 1 Y 1 X 2 Y 1 1 d 1 Y 1 1 d 1 Y 1 1 d 1 X s 1407 987 m 1 Y 1 X 1 Y 1 1 d 1 Y 1 X 1 Y 1 X 3 Y 1 X 2 Y 1 X 2 Y 1 1 d -1 Y 1 Y -1 Y 1 1 d s 1415 1000 m 1 X 1 Y 1 -1 d 2 Y -1 Y 1 Y 1 -1 d 1 Y
 1 1 d 1 Y 1 1 d 1 Y 1 X -1 Y 1 1 d 2 X s 1424 1006 m 1 X 1 Y 1 1 d 1 X 1 Y 1 X 2 Y 1 X 2 Y 1 1 d 1 Y 1 X 1 Y 1 -1 d 1 Y 1 X s 1433 1016 m 1 1 d -1 Y 1 X 2 Y 1 X 2 Y 1 X 1 Y 1 X 1 Y 1 X 2 Y 1 X -1 Y 1 1 d -1 Y 1 X s 1442 1023 m 1 Y 1 X 1 1 d 1 Y -1 Y
 1 Y 1 1 d 2 X -1 Y 1 Y 1 1 d 1 Y 1 X 2 Y -1 Y 1 X 1 Y 1 X s 1451 1031 m -1 Y 1 1 d 1 Y 1 -1 d 2 Y 2 X 2 Y 1 X -1 Y 2 Y 1 X 1 1 d 1 Y 1 X 1 Y s 1459 1039 m 2 X 1 Y 1 X -1 Y 1 Y 1 -1 d 1 Y -1 Y 1 Y 3 X 2 Y 1 X -1 Y 1 X 1 Y s 1468 1042 m 1 X 1 Y 1 X -1
 Y 1 Y 1 1 d -1 Y 1 Y 1 X 1 Y 2 X -1 Y 1 X 2 Y -1 Y 1 Y 2 X s 1477 1046 m 1 X -1 Y 1 1 d -1 Y 1 Y -1 Y 1 1 d -1 Y 1 Y 1 -1 d 1 Y 1 1 d 1 Y -1 Y 1 Y 1 X -1 Y 1 1 d 1 Y 1 X -1 Y 1 Y 1 X s 1486 1049 m 1 Y 1 X 1 Y 1 X 1 Y 1 X 1 Y 1 X 1 1 d 1 X 2 Y 1 X 2
 Y 1 X 1 Y 1 X s 1495 1059 m 1 Y 1 X 1 Y 1 1 d -1 Y 1 Y 1 1 d -1 Y 1 1 d 1 X 1 Y 1 X -1 Y 1 Y 1 X 1 Y 1 X 1 Y s 1503 1066 m 1 X 1 Y -1 Y 1 X 3 Y 2 X 1 Y 2 X 2 Y 1 X -1 Y 2 Y 1 -1 d 1 Y 1 X 2 Y s 1512 1075 m 2 X -1 Y 2 X 3 Y 1 -1 d 2 Y 2 X 1 Y 1 X 1 Y
 1 X s 1521 1080 m 1 Y 1 -1 d 1 1 d -1 Y 1 X 1 Y 1 X -1 Y 1 X 1 Y -1 Y 1 Y 1 X 1 Y -1 Y 1 X 1 Y 1 X 1 1 d 1 Y s 1530 1084 m 1 X -1 Y 1 1 d 1 Y 1 X 1 Y 3 X -1 Y 1 Y 2 X 1 Y 1 X s 1539 1087 m 1 X -1 Y 2 Y 1 X 1 Y 3 X 1 Y 1 X 2 Y 2 X 1 Y s 1547 1093 m 1
 X 1 Y 1 X -1 Y 3 X 1 1 d 1 X 2 Y 1 X 1 Y 1 X s 1556 1097 m 1 Y 1 -1 d 1 Y 1 1 d 1 X -1 Y 1 1 d 1 X -1 Y 1 Y 1 X 1 Y -1 Y 2 X -1 Y 1 X 1 Y s 1565 1099 m 1 Y 1 X 1 Y 2 X 1 Y 3 X -1 Y 1 Y 1 X 1 1 d 2 Y 1 1 d 1 Y -1 Y s 1574 1106 m 1 1 d 1 X 5 Y 1 X 2 Y
 1 X 1 Y 1 X 2 Y 1 X -1 Y 1 X 1 1 d 1 1 d s 1583 1118 m -1 Y 1 X 1 Y 1 X 1 Y -1 Y 1 X 1 Y 1 X 1 Y 1 X -1 Y 1 X 2 Y 1 X 2 Y 1 1 d -1 Y 1 Y s 1591 1124 m 1 X 2 Y 8 X 3 Y s 1600 1129 m 1 X 1 Y 1 X 1 Y 1 X 1 Y 1 -1 d 1 X 1 Y 1 1 d 1 Y 3 X 1 Y s 1609 1135
 m 2 X 2 Y 1 X 2 Y -1 Y 1 X 1 Y 4 X 1 Y 1 X s 1618 1140 m 1 1 d 1 X -1 Y 1 X 1 Y 2 X 1 1 d 2 X -1 Y 1 X s 1627 1141 m 1 Y 1 X 2 Y 2 X 1 Y -1 Y 4 X -1 Y 1 X s 1635 1143 m 1 X 1 1 d 2 X -1 Y 2 Y 1 X 1 1 d 1 X 2 Y 1 X 1 Y 1 X s 1644 1149 m 1 X -1 Y 1 Y
 8 X s 1653 1149 m 2 X 2 Y 2 X -1 Y 1 1 d 2 X 2 Y 1 -1 d 2 Y 1 X s 1662 1154 m 2 X -1 Y 1 X 1 Y 1 1 d 1 Y 2 X 1 Y 1 X 1 1 d 1 X s 1671 1158 m 1 Y 2 X 4 Y 1 1 d 1 Y 2 X -1 Y 3 X 1 Y s 1679 1165 m 2 X 1 Y 3 X 1 Y 1 X 1 1 d 2 Y 1 X 1 Y 1 X s 1688 1171 m
 2 X -1 Y 1 2 d -1 Y 1 X 1 Y 1 1 d 4 X 1 Y s 1697 1174 m 1 X 1 Y 4 X 1 Y 4 X s 1706 1176 m 1 X -1 Y 1 X 2 Y 1 -1 d 1 X 1 Y 5 X s 1715 1177 m 1 X -1 Y 4 X 1 Y 1 X 1 Y 2 X s 1723 1178 m 1 X -1 Y 1 X 2 Y -1 Y 2 X 1 Y 1 X 1 2 d 1 Y 3 X s 1732 1182 m 2 X
 -1 Y 1 X 1 1 d 2 X 1 Y 3 X s 1741 1183 m 4 X 1 Y 1 X 1 Y 2 X 2 Y 1 X -1 Y 1 X s 1750 1186 m 3 X 1 Y 6 X s 1759 1187 m 1 X -1 Y 6 X 1 Y 1 2 d s 1767 1189 m 2 X 1 -1 d 2 X 2 Y 4 X -1 Y s 1776 1189 m 2 Y 6 X 1 -1 d 1 X 2 Y 1 X s 1785 1192 m 1 X -1 Y 1
 X 2 Y 1 X 1 Y 6 X -1 Y s 1794 1193 m 4 X 1 2 d 1 X 1 -1 d 2 Y 2 X s 1803 1196 m 2 X -1 Y 1 X 1 2 d 2 X 2 Y 3 X s 1812 1199 m -1 Y 1 X 2 Y 4 X -1 Y 3 X s 1820 1199 m 1 X 2 Y 1 X 1 2 d 2 X 1 -1 d 3 X s 1829 1202 m 5 X 1 -1 d 3 X s 1838 1201 m 9 X s
 1847 1201 m 1 Y 6 X 2 Y 2 X 2 Y 1 X s 1856 1206 m 2 Y 2 X 1 2 d 2 X 1 -1 d 2 X s 1864 1209 m 7 X -1 Y 2 X s 1873 1208 m 6 X -1 Y 3 Y 1 X 2 Y 1 X 2 Y 1 X s 1882 1214 m 3 X 2 Y 4 X 1 -1 d 1 X s 1891 1215 m 2 X 2 Y 7 X s 1900 1217 m 2 X 3 Y -1 Y 4 X 3
 Y 2 X s 1908 1222 m 2 X 1 -1 d 3 Y 6 X s 1917 1224 m 4 X 1 -1 d 2 X 3 Y 2 X s 1926 1226 m 9 X s 1935 1226 m 3 X 3 Y 3 X -1 Y 3 X s 1944 1228 m 8 X s 1952 1228 m 9 X s 1961 1228 m -1 Y 9 X s 1970 1227 m 3 Y 9 X s 1979 1230 m 1 X 4 Y 1 X 1 -1 d 6 X s
 1988 1233 m 8 X s 1996 1233 m 9 X s 2005 1233 m 4 X -1 Y 5 X s 2014 1232 m 6 X 1 -1 d 2 X s 2023 1231 m 3 X -1 Y 4 X 7 Y 2 X s 2032 1237 m 8 X s 2040 1237 m 1 X s[  ] 0 sd 9 lw 0.49 0.6 0.82 c black 0 0 0.933333 c 245 1237 m 9 X s 254 1237 m 9 X s
 263 1237 m 8 X s 271 1237 m 9 X s 280 1237 m 9 X s 289 1237 m 9 X s 298 1237 m 9 X s 307 1237 m 8 X s 315 1237 m 9 X s 324 1237 m 9 X s 333 1237 m 9 X s 342 1237 m 9 X s 351 1237 m 8 X s 359 1237 m 9 X s 368 1237 m 9 X s 377 1237 m 9 X s 386 1237 m
 9 X s 395 1237 m 8 X s 403 1237 m 9 X s 412 1237 m 9 X s 421 1237 m 9 X s 430 1237 m 9 X s 439 1237 m 8 X s 447 1237 m 9 X s 456 1237 m 9 X s 465 1237 m 9 X s 474 1237 m 9 X s 483 1237 m 8 X s 491 1237 m 9 X s 500 1237 m 9 X s 509 1237 m 9 X s 518
 1237 m 9 X s 527 1237 m 8 X s 535 1237 m 9 X s 544 1237 m 9 X s 553 1237 m 9 X s 562 1237 m 9 X s 571 1237 m 8 X s 579 1237 m 2 X -1 Y 7 X s 588 1236 m 9 X s 597 1236 m 9 X s 606 1236 m 9 X s 615 1236 m 8 X s 623 1236 m 9 X s 632 1236 m 9 X s 641
 1236 m 9 X s 650 1236 m 9 X s 659 1236 m 8 X s 667 1236 m 9 X s 676 1236 m 9 X s 685 1236 m 9 X s 694 1236 m 9 X s 703 1236 m 8 X s 711 1236 m 9 X s 720 1236 m 9 X s 729 1236 m 9 X s 738 1236 m 9 X s 747 1236 m 8 X s 755 1236 m 9 X s 764 1236 m 9 X
 s 773 1236 m 9 X s 782 1236 m 9 X s 791 1236 m 8 X s 799 1236 m 9 X s 808 1236 m 9 X s 817 1236 m 9 X s 826 1236 m 9 X s 835 1236 m 8 X s 843 1236 m 9 X -1 Y s 852 1235 m 9 X s 861 1235 m 9 X s 870 1235 m 9 X s 879 1235 m 8 X s 887 1235 m 9 X s 896
 1235 m 9 X s 905 1235 m 9 X s 914 1235 m 9 X s 923 1235 m 8 X s 931 1235 m 9 X s 940 1235 m 9 X s 949 1235 m 1 X -1 Y 8 X s 958 1234 m 9 X s 967 1234 m 8 X s 975 1234 m 9 X s 984 1234 m 9 X s 993 1234 m 9 X s 1002 1234 m 9 X s 1011 1234 m 8 X s 1019
 1234 m 9 X s 1028 1234 m 9 X s 1037 1234 m 9 X s 1046 1234 m 9 X s 1055 1234 m 8 X s 1063 1234 m 9 X s 1072 1234 m 3 X -1 Y 6 X s 1081 1233 m 9 X s 1090 1233 m 9 X s 1099 1233 m 8 X s 1107 1233 m 2 X -1 Y 7 X s 1116 1232 m 9 X s 1125 1232 m 9 X s
 1134 1232 m 9 X s 1143 1232 m 8 X s 1151 1232 m 9 X s 1160 1232 m 9 X s 1169 1232 m 9 X s 1178 1232 m 3 X -1 Y 6 X s 1187 1231 m 8 X s 1195 1231 m 9 X s 1204 1231 m 9 X s 1213 1231 m 9 X s 1222 1231 m 3 X -1 Y 6 X s 1231 1230 m 6 X -1 Y 2 X s 1239
 1229 m 9 X s 1248 1229 m 6 X -1 Y 3 X s 1257 1228 m 9 X s 1266 1228 m 7 X -1 Y 2 X s 1275 1227 m 3 X -1 Y 5 X s 1283 1226 m 3 X -1 Y 6 X s 1292 1225 m 1 X -1 Y 8 X s 1301 1224 m 7 X -1 Y 2 X s 1310 1223 m 4 X -1 Y 5 X s 1319 1222 m 6 X -1 Y 2 X s
 1327 1221 m 2 X -1 Y 2 X -1 Y 3 X 1 -1 d -2 Y 1 X -4 Y s 1336 1212 m -1 Y 1 -1 d -4 Y 1 -1 d -6 Y 1 -1 d -7 Y 1 -2 d -7 Y 1 -1 d -12 Y 1 -2 d -8 Y 1 -1 d -11 Y 1 -2 d -8 Y 1 -3 d -5 Y s 1345 1129 m -5 Y 1 -3 d -10 Y 1 -2 d -13 Y 1 -3 d -16 Y 1 -2 d
 -10 Y 1 -3 d -15 Y 1 -2 d -10 Y 1 -2 d -14 Y 1 -5 d -9 Y 1 -2 d -5 Y s 1354 998 m -7 Y 1 -3 d -12 Y 1 -2 d -13 Y 1 -3 d -18 Y 1 -5 d -11 Y 1 -3 d -11 Y 1 -2 d -7 Y 1 -1 d -9 Y 1 -1 d -10 Y 1 -2 d s 1363 878 m -10 Y 1 -2 d -9 Y 1 -2 d -9 Y 1 -2 d -8
 Y 1 -1 d -4 Y 1 -2 d -8 Y 1 -2 d -7 Y 1 -1 d -6 Y 1 -2 d -6 Y s 1371 797 m 1 -2 d -4 Y 1 -2 d -4 Y 1 -1 d -4 Y 1 -2 d -4 Y 1 -2 d -3 Y 1 -1 d -4 Y 1 -1 d -4 Y 1 -1 d -3 Y 1 -1 d -3 Y s 1380 751 m -1 Y 1 -1 d -3 Y 1 X -4 Y 1 -1 d -3 Y 1 -1 d -3 Y 1 X
 -4 Y 1 -1 d -3 Y 1 X -6 Y 1 -2 d -2 Y 1 X -4 Y s 1389 712 m -1 Y 1 -1 d -3 Y 1 -1 d -3 Y 1 -1 d -4 Y 1 -1 d -2 Y 1 -1 d -3 Y 1 X -3 Y 1 -1 d -2 Y 1 X -4 Y 1 -1 d -1 Y s 1398 679 m -2 Y 1 -1 d -4 Y 1 -1 d -2 Y 1 -1 d -2 Y 1 -1 d -3 Y 1 X -3 Y 1 -1 d
 -1 Y 1 -1 d -2 Y 1 X -3 Y 1 -1 d s 1407 650 m -2 Y 1 -1 d -3 Y 1 X -1 Y 1 -1 d -4 Y 1 -1 d -1 Y 1 -2 d -2 Y 1 X -2 Y 1 X -3 Y 1 X -3 Y s 1415 624 m 1 X -2 Y 1 -1 d -1 Y 1 -1 d -2 Y 1 X -2 Y 1 X -2 Y 1 -1 d -2 Y 1 X -2 Y 1 X -2 Y 1 X -2 Y s 1424 604
 m -1 Y 1 X -1 Y 1 -1 d -2 Y 1 -1 d -1 Y 1 X -3 Y 1 X -1 Y 1 X -2 Y 1 X -2 Y 1 -1 d -1 Y 1 -1 d -1 Y s 1433 585 m -1 Y 1 X -2 Y 1 X -1 Y 1 X -2 Y 1 X -3 Y 1 X -2 Y 1 X -2 Y 1 X -2 Y 1 X -2 Y 1 -1 d -1 Y s 1442 566 m -1 Y 1 X -1 Y 1 X -2 Y 1 X -1 Y 1
 X -2 Y 1 X -2 Y 1 X -1 Y 1 -1 d -2 Y 1 -1 d -1 Y 1 X s 1451 551 m -3 Y 1 X -2 Y 1 X -2 Y 1 X -2 Y 1 X -1 Y 1 X -2 Y 1 X -1 Y 1 X -2 Y 1 X -1 Y s 1459 535 m 1 -1 d 1 X -1 Y 1 X -2 Y 1 X -2 Y 1 X -2 Y 1 X -1 Y 1 X 1 -1 d 1 -1 d s 1468 524 m 1 X -1 Y 1
 X -2 Y 1 X -1 Y 1 X -1 Y 1 X -1 Y 1 X -1 Y 1 -1 d -1 Y 1 -1 d 1 X -1 Y s 1477 513 m -1 Y 1 X -2 Y 1 X -2 Y 1 X -1 Y 1 X -1 Y 1 -1 d 1 X -2 Y 1 X -1 Y 1 -1 d 1 -1 d s 1486 500 m -1 Y 1 X -1 Y 1 -1 d -1 Y 1 X -2 Y 1 X -1 Y 1 X -2 Y 1 X -1 Y 1 X 1 -1 d
 -1 Y 1 X s 1495 488 m -2 Y 1 X -1 Y 1 X -1 Y 1 X -1 Y 1 X -1 Y 1 X -2 Y 1 X -1 Y 1 X -1 Y 1 X s 1503 478 m 1 -1 d -1 Y 1 -1 d -1 Y 2 X -1 Y 1 X -1 Y 1 X -1 Y 1 X -1 Y 1 X -1 Y 1 X -1 Y s 1512 468 m -1 Y 1 X -1 Y 1 X -1 Y 1 X 1 -1 d -1 Y 1 X -1 Y 1 X
 -1 Y 1 X 1 -1 d 1 X -1 Y s 1521 459 m -1 Y 1 X -1 Y 1 X -1 Y 1 X -1 Y 1 X -2 Y 1 X -2 Y 1 X -1 Y 2 X -1 Y 1 X s 1530 449 m -1 Y 1 X -1 Y 1 X -1 Y 1 X -1 Y 1 X -1 Y 1 X -1 Y 1 X -1 Y 2 X -1 Y 1 X s 1539 441 m -1 Y 1 X -2 Y 3 X -1 Y 1 -1 d 2 X -1 Y 1
 X -1 Y s 1547 434 m 1 X 1 -1 d -1 Y 4 X -1 Y 1 X -1 Y 1 X -1 Y 1 X s 1556 429 m -1 Y 3 X -1 Y 1 X 1 -1 d 1 X -1 Y 1 X -1 Y 1 X -1 Y 1 X s 1565 423 m 1 X -1 Y 1 X -1 Y 3 X -1 Y 1 X -1 Y 1 X 1 -1 d 1 X s 1574 418 m 1 X -1 Y 2 X -1 Y 1 X -1 Y 2 X 1 -1
 d 2 X s 1583 414 m -1 Y 2 X -1 Y 2 X 1 -1 d 1 X -1 Y 2 X -1 Y s 1591 409 m 2 X -1 Y 2 X -2 Y 2 X -1 Y 2 X -1 Y 1 X s 1600 404 m 1 -1 d 1 -1 d 2 X -1 Y 2 X -1 Y 1 X -1 Y 1 X -1 Y 1 X s 1609 398 m 1 X -1 Y 1 X -1 Y 2 X -1 Y 2 X -1 Y 1 X -1 Y 1 X -1 Y
 1 X s 1618 392 m 1 -1 d 1 X -1 Y 1 X -1 Y 1 X -1 Y 3 X 1 -1 d -1 Y 1 X s 1627 386 m 1 -1 d 2 X -1 Y 2 X -1 Y 1 X 1 -1 d 1 X s 1635 382 m 2 X -1 Y 2 X -1 Y 2 X -1 Y 3 X s 1644 379 m 1 -1 d 1 X -1 Y 3 X -1 Y 3 X -1 Y 1 X -1 Y s 1653 374 m 4 X -1 Y 1 X
 -1 Y 1 X -1 Y 2 X -1 Y 1 X s 1662 370 m -1 Y 2 X -1 Y 2 X -1 Y 2 X -1 Y 3 X s 1671 366 m 1 X -1 Y 2 X 1 -1 d -1 Y 3 X -1 Y 1 X s 1679 362 m 3 X -1 Y 2 X -1 Y 1 X -1 Y 2 X -1 Y 1 X s 1688 358 m 2 X -1 Y 2 X -1 Y 2 X -1 Y 3 X s 1697 355 m -1 Y 4 X -1
 Y 3 X -1 Y 2 X s 1706 352 m 1 X -1 Y 1 X 1 -1 d 1 X -1 Y 1 X -1 Y 4 X s 1715 348 m -1 Y 3 X -1 Y 1 X -1 Y 3 X -1 Y 1 X s 1723 344 m 1 X -1 Y 1 X -1 Y 2 X -1 Y 3 X -1 Y 2 X s 1732 340 m 2 X -1 Y 1 X -1 Y 1 X -1 Y 3 X 1 -1 d 1 X s 1741 336 m 2 X -1 Y
 4 X -1 Y 3 X -1 Y s 1750 333 m 3 X -1 Y 1 X 1 -1 d 3 X -1 Y 1 X s 1759 330 m 2 X -1 Y 3 X -1 Y 3 X s 1767 328 m 1 X 1 -1 d 3 X -1 Y 3 X -1 Y 1 X s 1776 325 m 3 X -1 Y 4 X -1 Y 2 X s 1785 323 m -1 Y 2 X -1 Y 4 X -1 Y 1 X -1 Y 2 X -1 Y s 1794 318 m 4
 X -1 Y 2 X 1 -1 d 2 X s 1803 316 m 1 X -1 Y 1 X -1 Y 5 X -1 Y 2 X s 1812 313 m -1 Y 2 X -1 Y 3 X -1 Y 3 X s 1820 310 m 2 X -1 Y 3 X 1 -1 d 1 X -1 Y 2 X s 1829 307 m 3 X -1 Y 2 X 1 -1 d 2 X -1 Y 1 X s 1838 304 m 5 X -1 Y 2 X -1 Y 2 X s 1847 302 m 4 X
 1 -1 d 4 X s 1856 301 m 1 X -1 Y 3 X -1 Y 2 X 1 -1 d 1 X s 1864 298 m 1 X -1 Y 3 X -1 Y 2 X -1 Y 3 X s 1873 295 m -1 Y 3 X 1 -1 d 2 X -1 Y 1 X -1 Y 1 X 1 -1 d s 1882 290 m 3 X -1 Y 3 X -1 Y 3 X s 1891 288 m -1 Y 2 X -1 Y 2 X -1 Y 4 X -1 Y 1 X s 1900
 284 m 3 X 1 -1 d 3 X -1 Y 1 X s 1908 282 m 2 X 1 -1 d 2 X -1 Y 4 X s 1917 280 m 1 -1 d 2 X -1 Y 2 X -1 Y 4 X s 1926 277 m -1 Y 9 X s 1935 276 m -1 Y 4 X -1 Y 2 X -1 Y 3 X s 1944 273 m 2 X -1 Y 3 X -1 Y 2 X 1 -1 d s 1952 270 m 2 X -1 Y 1 X -1 Y 1 X 1
 -1 d 4 X -1 Y s 1961 266 m 5 X -1 Y 2 X -1 Y 2 X s 1970 264 m 1 -1 d 2 X -1 Y 1 X -1 Y 1 X -1 Y 2 X 1 -1 d 1 X s 1979 259 m 1 X -1 Y 2 X -1 Y 2 X -1 Y 3 X -1 Y 1 X s 1988 255 m 3 X 1 -1 d -1 Y 1 X -1 Y 1 X -1 Y 2 X s 1996 251 m 1 X -1 Y 4 X -1 Y 2 X
 -1 Y 2 X s 2005 248 m -1 Y 4 X -2 Y 2 X 1 -1 d 1 X 1 -1 d s 2014 243 m 1 X -1 Y 1 X -1 Y 1 X -1 Y 1 X -1 Y 1 X -1 Y 3 X -1 Y 1 X -1 Y s 2023 236 m 1 X -1 Y 1 X -1 Y 1 X -2 Y 3 X -1 Y 1 X -1 Y 1 X -1 Y 1 X s 2032 229 m -2 Y 1 X -1 Y 1 X -2 Y 1 X -2 Y
 1 X -1 Y 1 -1 d -1 Y 1 X -2 Y 1 X -3 Y 1 -1 d -4 Y s 2040 209 m -1 Y 1 -2 d -3 Y s 1 0 0 c black 1 0 0 c 245 1237 m -517 Y 1 X -2 Y 2 X -1 Y 1 X -1 Y 2 X -1 Y 3 X s 254 715 m 4 X -1 Y 5 X s 263 714 m 1 X -1 Y 7 X -1 Y s 271 712 m 5 X -1 Y 4 X s 280
 711 m 9 X s 289 711 m 4 X -1 Y 5 X s 298 710 m 9 X s 307 710 m 2 X -1 Y 6 X s 315 709 m 9 X s 324 709 m 9 X s 333 709 m 1 X -1 Y 8 X s 342 708 m 9 X s 351 708 m 8 X s 359 708 m 9 X s 368 708 m 9 X s 377 708 m 5 X -1 Y 4 X s 386 707 m 9 X s 395 707 m
 8 X s 403 707 m 9 X s 412 707 m 9 X s 421 707 m 9 X s 430 707 m 9 X s 439 707 m 8 X s 447 707 m 6 X -1 Y 3 X s 456 706 m 9 X s 465 706 m 9 X s 474 706 m 9 X s 483 706 m 8 X s 491 706 m 9 X s 500 706 m 9 X s 509 706 m 9 X s 518 706 m 9 X s 527 706 m
 -1 Y 8 X s 535 705 m 9 X s 544 705 m 9 X s 553 705 m 1 X -1 Y 8 X s 562 704 m 9 X s 571 704 m 8 X s 579 704 m 9 X s 588 704 m 9 X s 597 704 m 9 X s 606 704 m 9 X s 615 704 m 8 X s 623 704 m 9 X s 632 704 m 9 X s 641 704 m 9 X s 650 704 m 9 X s 659
 704 m 4 X -1 Y 4 X s 667 703 m 9 X s 676 703 m 9 X s 685 703 m 6 X -1 Y 3 X s 694 702 m 9 X s 703 702 m 8 X s 711 702 m 9 X s 720 702 m 9 X s 729 702 m 9 X s 738 702 m 9 X s 747 702 m 8 X s 755 702 m 9 X s 764 702 m 9 X s 773 702 m 9 X s 782 702 m 9
 X s 791 702 m 5 X -1 Y 3 X s 799 701 m 6 X -1 Y 3 X s 808 700 m 9 X s 817 700 m 9 X s 826 700 m 9 X s 835 700 m 8 X s 843 700 m 9 X s 852 700 m 3 X -1 Y 6 X s 861 699 m 9 X s 870 699 m 9 X s 879 699 m 8 X s 887 699 m 9 X s 896 699 m 9 X s 905 699 m
 9 X s 914 699 m 9 X s 923 699 m 8 X s 931 699 m 9 X s 940 699 m 9 X s 949 699 m 9 X s 958 699 m 9 X s 967 699 m 8 X s 975 699 m 9 X s 984 699 m 9 X s 993 699 m 7 X -1 Y 2 X s 1002 698 m 9 X s 1011 698 m 8 X s 1019 698 m 8 X 1 -1 d s 1028 697 m 9 X s
 1037 697 m 9 X s 1046 697 m 9 X s 1055 697 m 8 X s 1063 697 m 9 X s 1072 697 m 9 X s 1081 697 m 9 X s 1090 697 m 9 X s 1099 697 m 8 X -1 Y s 1107 696 m 9 X s 1116 696 m 9 X s 1125 696 m 9 X s 1134 696 m 9 X s 1143 696 m 8 X s 1151 696 m 9 X s 1160
 696 m 9 X s 1169 696 m 9 X s 1178 696 m 3 X -1 Y 6 X s 1187 695 m 8 X s 1195 695 m 9 X s 1204 695 m 7 X -1 Y 2 X s 1213 694 m 9 X s 1222 694 m 7 X -1 Y 2 X s 1231 693 m 8 X -1 Y s 1239 692 m 9 X s 1248 692 m 9 X s 1257 692 m 9 X -1 Y s 1266 691 m 9
 X s 1275 691 m 8 X s 1283 691 m 9 X s 1292 691 m 1 X -1 Y 8 X s 1301 690 m 9 X s 1310 690 m 9 X s 1319 690 m -1 Y 8 X s 1327 689 m 7 X -1 Y 1 X -2 Y 1 X -1 Y s 1336 685 m 1 -1 d -1 Y 1 X -3 Y 1 -1 d -1 Y 1 X -3 Y 1 -2 d -4 Y 1 X -4 Y 1 X -6 Y 1 -1 d
 -7 Y 1 -2 d -5 Y s 1345 644 m -3 Y 1 -2 d -7 Y 1 -2 d -11 Y 1 -3 d -9 Y 1 -2 d -9 Y 1 -2 d -8 Y 1 -1 d -8 Y 1 -1 d -11 Y 1 X -8 Y 1 -2 d -5 Y s 1354 550 m -5 Y 1 -2 d -7 Y 1 -1 d -7 Y 1 -2 d -9 Y 1 -2 d -5 Y 1 -2 d -7 Y 1 -2 d -4 Y 1 X -7 Y 1 X -6 Y
 1 X s 1363 482 m -5 Y 1 -1 d -5 Y 1 -1 d -3 Y 1 -1 d -4 Y 1 X -4 Y 1 -1 d -4 Y 1 X -6 Y 1 -1 d -4 Y 1 X -3 Y s 1371 439 m 1 -1 d -2 Y 1 -2 d -4 Y 1 X -3 Y 1 X -4 Y 1 -1 d -2 Y 1 -1 d -3 Y 1 X -3 Y 1 -1 d -3 Y 1 X -1 Y s 1380 408 m -1 Y 1 X -1 Y 1 X
 -3 Y 1 -2 d -2 Y 1 -1 d -3 Y 1 -1 d -4 Y 1 X -2 Y 1 X -4 Y 1 X -1 Y 1 -1 d -1 Y s 1389 381 m -1 Y 1 -1 d -1 Y 1 -1 d -1 Y 1 X -2 Y 1 -1 d -1 Y 1 X -2 Y 1 X -2 Y 1 X -3 Y 1 X -1 Y 1 X -1 Y s 1398 363 m -2 Y 1 X -1 Y 1 X -2 Y 1 -1 d -2 Y 1 X -2 Y 1 X
 -2 Y 1 -1 d -2 Y 1 X -2 Y 1 -1 d -1 Y 1 X s 1407 344 m -1 Y 1 -1 d -1 Y 1 -1 d -1 Y 1 -1 d -1 Y 1 -1 d -2 Y 1 X -3 Y 1 X -2 Y 1 X -1 Y 1 X -1 Y s 1415 327 m 1 X -1 Y 1 X -2 Y 1 X -1 Y 1 X -2 Y 1 X -1 Y 1 -1 d 1 X -1 Y 1 X -1 Y 1 X s 1424 317 m 1 -1
 d 1 -1 d -1 Y 1 X -1 Y 1 X -2 Y 1 X -1 Y 1 -1 d -1 Y 1 -1 d -1 Y 2 X -1 Y s 1433 305 m 2 X -2 Y 1 X -2 Y 1 X -1 Y 1 X -1 Y 1 X -2 Y 2 X -1 Y 1 X s 1442 296 m 1 X -1 Y 1 X -1 Y 1 -1 d 2 X -1 Y 1 -1 d -1 Y 1 X -1 Y 1 X -1 Y 1 X s 1451 288 m 1 X -1 Y 1
 X -2 Y 2 X -1 Y 1 X -1 Y 1 X -1 Y 1 X -1 Y 1 X -1 Y s 1459 280 m 2 X -1 Y 2 X -1 Y 3 X -1 Y 2 X -1 Y s 1468 276 m 2 X -1 Y 1 X -1 Y 1 X 1 -1 d 2 X -1 Y 2 X s 1477 272 m 1 X -1 Y 3 X -1 Y 1 X -1 Y 2 X -1 Y 1 X 1 -1 d s 1486 267 m 1 X -1 Y 1 X -1 Y 2
 X -1 Y 2 X -2 Y 1 X 1 -1 d 1 X s 1495 261 m -1 Y 1 X -1 Y 2 X -1 Y 2 X -1 Y 2 X -1 Y 1 X s 1503 256 m 1 X -1 Y 1 X -1 Y 2 X 1 -1 d 2 X -1 Y 2 X -1 Y s 1512 251 m 1 X -1 Y 3 X -1 Y 2 X -1 Y 3 X -1 Y s 1521 247 m 3 X -1 Y 2 X 1 -1 d 2 X 1 -1 d s 1530
 244 m 2 X -1 Y 4 X -1 Y 3 X s 1539 242 m 1 X -1 Y 4 X -1 Y 1 X -1 Y 2 X s 1547 239 m 1 X -1 Y 6 X -1 Y 2 X s 1556 237 m 1 X -1 Y 8 X -1 Y s 1565 235 m 3 X -1 Y 4 X 1 -1 d 1 X -1 Y s 1574 232 m 2 X -1 Y 1 X -1 Y 2 X -1 Y 4 X s 1583 229 m 2 X -1 Y 5 X
 -1 Y 1 X s 1591 227 m 1 X -1 Y 8 X -1 Y s 1600 225 m 1 X -1 Y 5 X -1 Y 3 X s 1609 223 m 1 X -1 Y 3 X -1 Y 5 X s 1618 221 m 3 X -1 Y 6 X s 1627 220 m 1 X -1 Y 7 X s 1635 219 m 5 X 1 -1 d 3 X s 1644 218 m 7 X 1 -1 d 1 X s 1653 217 m 7 X -1 Y 2 X s
 1662 216 m 3 X 1 -1 d 5 X s 1671 215 m 2 X -1 Y 1 X -1 Y 5 X s 1679 213 m 7 X -1 Y 2 X s 1688 212 m 4 X -1 Y 5 X s 1697 211 m 9 X s 1706 211 m 2 X -1 Y 7 X s 1715 210 m 8 X s 1723 210 m 4 X -1 Y 5 X s 1732 209 m 9 X s 1741 209 m 4 X -1 Y 5 X s 1750
 208 m 9 X s 1759 208 m 7 X 1 -1 d s 1767 207 m 9 X s 1776 207 m 9 X s 1785 207 m 3 X -1 Y 6 X s 1794 206 m 9 X s 1803 206 m 6 X -1 Y 3 X s 1812 205 m 8 X s 1820 205 m 9 X s 1829 205 m 9 X s 1838 205 m 9 X s 1847 205 m 6 X -1 Y 3 X s 1856 204 m 8 X s
 1864 204 m 9 X s 1873 204 m 7 X -1 Y 2 X s 1882 203 m 9 X s 1891 203 m 9 X s 1900 203 m 6 X -1 Y 2 X s 1908 202 m 9 X s 1917 202 m 9 X s 1926 202 m 9 X s 1935 202 m 9 X s 1944 202 m 8 X s 1952 202 m 9 X s 1961 202 m 9 X s 1970 202 m 9 X s 1979 202 m
 1 X -1 Y 8 X s 1988 201 m 8 X s 1996 201 m 9 X s 2005 201 m 9 X s 2014 201 m 9 X s 2023 201 m 9 X s 2032 201 m 8 X s 2040 201 m 1 X s 0 0.666667 0 c 1 1 1 c black 0 0.666667 0 c 245 1094 m 138 Y 3 X 1 Y 6 X s 254 1233 m 8 X 1 Y 1 X s 263 1234 m 8 X
 s 271 1234 m 9 X s 280 1234 m 9 X s 289 1234 m 3 X 1 Y 6 X s 298 1235 m 9 X s 307 1235 m 8 X s 315 1235 m 9 X s 324 1235 m 9 X s 333 1235 m 9 X s 342 1235 m 9 X s 351 1235 m 8 X s 359 1235 m 9 X s 368 1235 m 9 X s 377 1235 m 9 X s 386 1235 m 9 X s
 395 1235 m 8 X s 403 1235 m 9 X s 412 1235 m 9 X s 421 1235 m 9 X s 430 1235 m 5 X 1 Y 4 X s 439 1236 m 8 X s 447 1236 m 9 X s 456 1236 m 9 X s 465 1236 m 9 X s 474 1236 m 9 X s 483 1236 m 8 X s 491 1236 m 9 X s 500 1236 m 9 X s 509 1236 m 9 X s 518
 1236 m 9 X s 527 1236 m 8 X s 535 1236 m 9 X s 544 1236 m 9 X s 553 1236 m 9 X s 562 1236 m 9 X s 571 1236 m 8 X s 579 1236 m 9 X s 588 1236 m 9 X s 597 1236 m 9 X s 606 1236 m 9 X s 615 1236 m 8 X s 623 1236 m 9 X s 632 1236 m 9 X s 641 1236 m 9 X
 s 650 1236 m 9 X s 659 1236 m 8 X s 667 1236 m 9 X s 676 1236 m 9 X s 685 1236 m 3 X 1 Y 6 X s 694 1237 m 9 X s 703 1237 m 8 X s 711 1237 m 9 X s 720 1237 m 9 X s 729 1237 m 9 X s 738 1237 m 9 X s 747 1237 m 8 X s 755 1237 m 9 X s 764 1237 m 9 X s
 773 1237 m 9 X s 782 1237 m 9 X s 791 1237 m 8 X s 799 1237 m 9 X s 808 1237 m 9 X s 817 1237 m 9 X s 826 1237 m 9 X s 835 1237 m 8 X s 843 1237 m 9 X s 852 1237 m 9 X s 861 1237 m 9 X s 870 1237 m 9 X s 879 1237 m 8 X s 887 1237 m 9 X s 896 1237 m
 9 X s 905 1237 m 9 X s 914 1237 m 9 X s 923 1237 m 8 X s 931 1237 m 9 X s 940 1237 m 9 X s 949 1237 m 9 X s 958 1237 m 9 X s 967 1237 m 8 X s 975 1237 m 9 X s 984 1237 m 6 X -1 Y 3 X s 993 1236 m 7 X 1 Y 2 X s 1002 1237 m 9 X s 1011 1237 m 8 X s
 1019 1237 m 9 X s 1028 1237 m 9 X s 1037 1237 m 9 X s 1046 1237 m 9 X s 1055 1237 m 8 X s 1063 1237 m 9 X s 1072 1237 m 9 X s 1081 1237 m 9 X s 1090 1237 m 1 X -1 Y 8 X s 1099 1236 m 8 X s 1107 1236 m 9 X s 1116 1236 m 9 X s 1125 1236 m 9 X s 1134
 1236 m 9 X s 1143 1236 m 8 X s 1151 1236 m 9 X s 1160 1236 m 9 X s 1169 1236 m 9 X s 1178 1236 m 9 X s 1187 1236 m 8 X s 1195 1236 m 9 X s 1204 1236 m 9 X s 1213 1236 m 9 X s 1222 1236 m 9 X s 1231 1236 m 3 X -1 Y 1 X 1 Y 2 X -1 Y 2 X 1 Y s 1239
 1236 m 1 -1 d 8 X s 1248 1235 m 9 X s 1257 1235 m 9 X s 1266 1235 m 9 X s 1275 1235 m 1 X -1 Y 7 X s 1283 1234 m 3 X -1 Y 6 X s 1292 1233 m 9 X s 1301 1233 m 7 X -1 Y 2 X s 1310 1232 m 9 X s 1319 1232 m 2 X -1 Y 6 X s 1327 1231 m 2 X 1 -1 d 5 X -1 Y
 1 X -2 Y s 1336 1227 m -1 Y 1 -1 d -2 Y 1 X -3 Y 1 -1 d -4 Y 1 -1 d -4 Y 1 -1 d -6 Y 1 -2 d -4 Y 1 -1 d -5 Y 1 -1 d -3 Y 1 -1 d -2 Y s 1345 1184 m -2 Y 1 -2 d -4 Y 1 -2 d 1 Y -5 Y 1 -2 d -8 Y 1 X -4 Y 1 -1 d -8 Y 1 -1 d -5 Y 1 -1 d -6 Y 1 -3 d -4 Y
 1 -1 d -2 Y s 1354 1124 m -3 Y 1 -1 d -7 Y 1 -1 d -7 Y 1 -1 d -11 Y 1 -3 d -6 Y 1 -2 d -5 Y 1 -1 d -5 Y 1 X -4 Y 1 -1 d -5 Y 1 -2 d s 1363 1059 m -6 Y 1 -1 d -5 Y 1 -1 d -7 Y 1 -1 d -5 Y 1 -1 d -2 Y 1 X -5 Y 1 -2 d -4 Y 1 X -3 Y 1 -2 d -4 Y 1 Y s
 1371 1011 m 1 -2 d -2 Y 1 -1 d -2 Y 1 X -3 Y 1 -1 d -3 Y 1 X -2 Y 1 X -3 Y 1 X -2 Y 1 -1 d -1 Y 1 X -2 Y s 1380 986 m -1 Y 1 -1 d -2 Y 1 X -2 Y 1 X -2 Y 1 -1 d -1 Y 1 X -1 Y 1 Y -1 Y 1 X -2 Y 1 X -4 Y 1 -1 d -2 Y 1 X -2 Y s 1389 964 m -2 Y 1 X -1 Y
 1 -1 d -2 Y 1 -1 d -3 Y 1 X -2 Y 1 -1 d -2 Y 1 X -1 Y 1 -1 d 1 -1 d -3 Y 1 X -1 Y s 1398 942 m -1 Y 1 X -4 Y 1 X -2 Y 1 X -2 Y 1 X -2 Y 1 X -1 Y 1 -1 d 1 Y -1 Y 1 X -1 Y 1 X -3 Y 1 X s 1407 925 m -1 Y 1 -1 d -2 Y 1 X 1 -1 d -3 Y 1 X -1 Y 1 Y 1 -2 d
 -1 Y 1 Y 1 -1 d 1 Y -1 Y 1 X -3 Y 1 X -1 Y s 1415 910 m 1 -1 d -1 Y 1 -1 d -1 Y 1 -1 d -1 Y 1 X 1 -1 d -1 Y 1 X -2 Y 1 X -2 Y 1 X -1 Y 1 -1 d -1 Y s 1424 895 m -1 Y 1 X -1 Y 1 X -2 Y 1 X -1 Y 1 X -1 Y 1 -1 d 1 Y -1 Y 2 X -2 Y 1 -1 d -1 Y 1 -1 d 1 Y
 -1 Y s 1433 883 m -1 Y 1 X -2 Y 1 X 1 -1 d 1 Y -1 Y 1 -1 d -1 Y 1 X -2 Y 1 X 1 -1 d -2 Y 1 X -2 Y 1 -1 d s 1442 869 m -1 Y 1 X -1 Y 1 X -1 Y 1 Y -1 Y 1 X -1 Y 1 X -1 Y 1 -1 d -1 Y 1 X -1 Y 1 -1 d 1 Y -2 Y 1 -1 d -1 Y 1 X s 1451 857 m -2 Y 1 -1 d -1
 Y 1 X -1 Y 1 -1 d -1 Y 1 -1 d 1 Y 1 -1 d -1 Y 1 Y -1 Y 1 X -1 Y 1 X -1 Y 1 X -1 Y s 1459 845 m 1 X -1 Y 1 X 1 -1 d -1 Y 1 X -2 Y 1 X -2 Y 1 X -1 Y 1 X 1 Y -1 Y 1 X -1 Y 1 X s 1468 836 m 1 X -1 Y 1 X -1 Y 1 X -1 Y 1 X -1 Y 1 X -1 Y 1 X -2 Y 1 X -1 Y
 1 Y -1 Y 1 X -1 Y 1 X s 1477 827 m -1 Y 1 X -2 Y 1 X -3 Y 1 X -1 Y 1 X -1 Y 2 X -2 Y 1 X 1 -1 d -1 Y 1 X s 1486 815 m -1 Y 1 X -1 Y 1 -1 d 1 -1 d -1 Y 1 X -1 Y 1 X -2 Y 2 X 1 -1 d -1 Y 1 X s 1495 805 m -1 Y 1 X -1 Y 1 Y -1 Y 2 X -2 Y 1 X -1 Y 1 X -1
 Y 1 X -2 Y 2 X -1 Y 1 Y s 1503 797 m 1 X -2 Y 1 -1 d 1 Y -1 Y 1 X 1 Y -1 Y 1 X -1 Y 1 X -1 Y 2 X -2 Y 1 X 1 -1 d 1 Y -1 Y s 1512 789 m -1 Y 1 X -1 Y 1 X -1 Y 1 X -1 Y 1 X 1 -1 d 1 -1 d 1 X -1 Y 1 Y 1 -1 d 1 Y -1 Y 1 X -1 Y s 1521 781 m -1 Y 1 X -1 Y
 1 X -1 Y 1 X -1 Y 1 -1 d -2 Y 1 X -1 Y 1 -1 d 1 X -1 Y 2 X -1 Y s 1530 770 m 1 X -1 Y 1 X -1 Y 1 Y -1 Y 1 X -1 Y 1 X -1 Y 1 X -1 Y 1 X -1 Y 1 X -1 Y 1 X -1 Y 1 X s 1539 762 m 1 -1 d -1 Y 2 X 1 -1 d -1 Y 4 X -2 Y s 1547 756 m 2 X -2 Y 2 X 1 -1 d 1 1
 d -2 Y 1 X 1 Y -1 Y 2 X -1 Y s 1556 751 m 3 X -1 Y 1 X -1 Y 1 X -1 Y 2 X -2 Y 1 X -1 Y 1 X s 1565 745 m 1 X -1 Y 1 X 1 Y -1 Y 1 X -1 Y 2 X -1 Y 1 X -1 Y 1 X -1 Y 1 X 1 1 d s 1574 741 m 1 X -1 Y 1 X 1 Y -1 Y 1 Y 2 X -1 Y 2 X 1 -1 d 2 X s 1583 739 m
 -1 Y 2 X -1 Y 3 X -1 Y 1 X -1 Y 1 X 1 Y -1 Y 1 X -1 Y 1 Y s 1591 735 m 1 -1 d 1 Y 1 X 1 -1 d 1 -1 d -1 Y 1 X -1 Y 1 X 1 -1 d 1 X -1 Y 1 X 1 Y s 1600 730 m -1 Y 1 X -1 Y 2 X -1 Y 2 X -1 Y 1 X 1 Y -1 Y 1 X -1 Y 1 -1 d 1 X s 1609 724 m -1 Y 1 X -1 Y 2
 X -1 Y 2 X -1 Y 2 X -2 Y 1 X -1 Y 1 Y -1 Y 1 X s 1618 717 m 1 -1 d -1 Y 1 X -1 Y 1 X -1 Y 1 X -1 Y 3 X 1 -1 d -2 Y 1 X s 1627 709 m 1 -1 d 1 Y -1 Y 1 Y 1 -1 d 1 X 1 -1 d 1 X -1 Y 1 X -1 Y 1 X -1 Y 1 X -1 Y s 1635 703 m 1 X 1 1 d -2 Y 2 X -1 Y 3 X -1
 Y 1 Y 2 X s 1644 701 m 1 -1 d 1 X -1 Y 2 X -1 Y 1 X -1 Y 3 X -1 Y 1 X -2 Y s 1653 694 m 4 X -2 Y 1 1 d -1 Y 1 X -1 Y 2 X -1 Y 1 X -1 Y s 1662 689 m 1 X -1 Y 1 X -1 Y 2 X -1 Y 1 Y 1 X -2 Y 3 X 1 -1 d s 1671 684 m 1 Y 1 X -1 Y 1 X 1 Y 1 X 1 -1 d -1 Y
 1 X -1 Y 2 X -1 Y 1 X s 1679 681 m 2 X 1 -1 d 1 -1 d 2 X -2 Y 1 1 d -1 Y 1 Y 1 -1 d 1 Y -1 Y 1 X s 1688 677 m 1 X -1 Y 1 X -1 Y 1 1 d -1 Y 1 X -2 Y 2 X -1 Y 3 X s 1697 672 m 2 X 1 -1 d 1 X -1 Y 3 X -1 Y 1 X -1 Y 1 X s 1706 668 m 1 X -1 Y 1 X 1 Y -1
 Y 1 -1 d -2 Y 2 X -1 Y 2 X -1 Y 2 X s 1715 662 m -1 Y 1 X 1 -1 d 1 X -1 Y 1 X -1 Y 2 X -1 Y 1 X -1 Y 1 X -1 Y s 1723 655 m 2 X -1 Y 1 -1 d 1 X -1 Y 1 X 1 1 d 1 -1 d -1 Y 1 X -1 Y 1 X s 1732 650 m 2 X -1 Y 1 X -1 Y 1 X -2 Y 3 X 1 -1 d 1 X -1 Y s 1741
 644 m 2 X -1 Y 4 X -1 Y 1 X 1 Y -1 Y 2 X -1 Y s 1750 641 m -1 Y 2 X -1 Y 2 X -1 Y 1 X -1 Y 2 X -1 Y 2 X s 1759 636 m -1 Y 2 X -1 Y 2 X -1 Y 1 X -1 Y 3 X s 1767 632 m 1 X 1 -1 d 1 -1 d 2 X 1 -1 d 2 X -1 Y 1 X s 1776 628 m 1 X -1 Y 3 X -1 Y 2 X 1 -1 d
 -1 Y 2 X s 1785 624 m -1 Y 1 X 1 -1 d -1 Y 1 X 1 Y 1 -1 d 2 X -1 Y 1 -1 d 1 X -1 Y 1 X -1 Y s 1794 617 m 2 X -1 Y 1 X 1 -1 d -1 Y 2 X 1 -1 d 2 X s 1803 613 m -1 Y 1 X -1 Y 1 X -1 Y 4 X -1 Y 2 X -1 Y 1 X s 1812 608 m -1 Y 1 -1 d 1 Y -1 Y 1 X -1 Y 1 X
 -1 Y 2 X -1 Y 3 X s 1820 603 m 1 X -1 Y 1 Y 1 X -1 Y 3 X -1 Y 1 X -2 Y 2 X 1 -1 d s 1829 598 m 2 X -1 Y 2 X -1 Y 1 X -1 Y 1 X -1 Y 1 -1 d 2 X -1 Y s 1838 592 m 2 X -1 Y 3 X -1 Y 2 X -1 Y 2 X s 1847 589 m 1 X -1 Y 3 X 1 -1 d 4 X s 1856 587 m -1 Y 1 Y
 1 X -1 Y 1 X -1 Y 2 X -1 Y 1 X 1 -1 d 1 -1 d 1 X s 1864 582 m 1 -1 d 1 X -1 Y 1 X -1 Y 1 X -1 Y 1 X 1 -1 d 1 X -1 Y 1 X -1 Y 1 X s 1873 575 m -1 Y 2 X -1 Y 1 X 1 -1 d 1 X -1 Y 1 X -1 Y 1 X -1 Y 1 X -1 Y 1 -1 d s 1882 567 m 1 -1 d 2 X -1 Y 2 X -1 Y 1
 X 1 -1 d 1 -1 d 1 X s 1891 562 m -1 Y 1 X -1 Y 1 X -1 Y 1 X -1 Y 1 X -1 Y 3 X -1 Y 1 X 1 -1 d s 1900 555 m 2 X 1 Y -1 Y 1 X -1 Y 1 X -1 Y 1 X 1 -1 d 1 Y 1 X -1 Y 1 X s 1908 552 m 1 X -1 Y 1 X -1 Y 1 X 1 -1 d 1 -1 d 1 X -1 Y 3 X -1 Y s 1917 546 m 1 X
 1 -1 d -1 Y 2 X -1 Y 1 -1 d -1 Y 1 -1 d 1 X 1 Y 1 X -1 Y 1 X s 1926 540 m -1 Y 5 X -1 Y 4 X s 1935 538 m -1 Y 3 X 1 -1 d -1 Y 1 X -1 Y 1 X -1 Y 3 X s 1944 533 m -1 Y 1 X -1 Y 1 X 1 -1 d 1 -1 d 1 X -1 Y 2 X -2 Y 1 X s 1952 526 m 1 X -2 Y 1 X -1 Y 1
 -1 d -1 Y 1 -1 d -1 Y 2 X -1 Y 1 -1 d 2 X -1 Y s 1961 516 m 4 X -2 Y 2 X -2 Y 1 X -2 Y 1 X 1 -1 d s 1970 509 m 1 Y 1 -2 d 2 X -2 Y 1 X -2 Y 1 X -3 Y 2 X -1 Y 1 -1 d 1 X s 1979 499 m -1 Y 1 X -1 Y 1 -1 d 1 -1 d -1 Y 1 X -1 Y 1 X -1 Y 2 X -1 Y 1 X -1
 Y 1 X s 1988 490 m 1 X -1 Y 1 X -1 Y 1 X -1 Y 1 X -3 Y 1 -1 d -2 Y 1 X -2 Y 1 -1 d 1 X s 1996 478 m -1 Y 1 X -1 Y 2 X -1 Y 1 X -1 Y 1 X -1 Y 1 X -2 Y 1 X -1 Y 1 X -1 Y 1 X -1 Y s 2005 468 m -1 Y 1 -1 d 1 X -1 Y 2 X -4 Y 1 -1 d 1 X -1 Y 1 -1 d 1 X -2
 Y 1 -2 d -1 Y s 2014 453 m 1 X -3 Y 1 X -2 Y 1 -1 d -2 Y 1 X -3 Y 1 -1 d -2 Y 1 X 1 -1 d -1 Y 1 X -2 Y 1 -1 d -1 Y s 2023 433 m -2 Y 1 -1 d -1 Y 1 -1 d -3 Y 1 X -5 Y 1 X -1 Y 1 -1 d 1 -1 d -2 Y 1 -2 d -2 Y 1 X -2 Y 1 -1 d s 2032 408 m -7 Y 1 X -4 Y
 1 -2 d -5 Y 1 -1 d -7 Y 1 -1 d -6 Y 1 -2 d -5 Y 1 -1 d -10 Y 1 -1 d -12 Y 1 -7 d -27 Y s 2040 310 m -9 Y 1 -14 d -32 Y s black 3 lw 245 201 m 1796 X s 245 241 m -40 Y s 335 221 m -20 Y s 425 221 m -20 Y s 514 221 m -20 Y s 604 241 m -40 Y s 694 221
 m -20 Y s 784 221 m -20 Y s 874 221 m -20 Y s 963 241 m -40 Y s 1053 221 m -20 Y s 1143 221 m -20 Y s 1233 221 m -20 Y s 1323 241 m -40 Y s 1412 221 m -20 Y s 1502 221 m -20 Y s 1592 221 m -20 Y s 1682 241 m -40 Y s 1772 221 m -20 Y s 1861 221 m -20
 Y s 1951 221 m -20 Y s 2041 241 m -40 Y s 245 241 m -40 Y s 2041 241 m -40 Y s 245 201 m 1140 Y s 291 201 m -46 X s 268 253 m -23 X s 268 305 m -23 X s 268 357 m -23 X s 291 408 m -46 X s 268 460 m -23 X s 268 512 m -23 X s 268 564 m -23 X s 291 616
 m -46 X s 268 667 m -23 X s 268 719 m -23 X s 268 771 m -23 X s 291 823 m -46 X s 268 875 m -23 X s 268 926 m -23 X s 268 978 m -23 X s 291 1030 m -46 X s 268 1082 m -23 X s 268 1134 m -23 X s 268 1185 m -23 X s 291 1237 m -46 X s 291 1237 m -46 X s
 268 1289 m -23 X s 268 1341 m -23 X s 0.490196 0.545098 0.615686 c 1 1 1 c 0.490196 0.545098 0.615686 c 907 201 245 1341 bl 245 1341 m 907 X s 1152 1341 m 201 Y s 1152 1542 m -907 X s 245 1542 m -201 Y s black
 gsave  2268 1676 0 0 C 515.735 1471.36 t 0 r /Helvetica-Bold findfont 56.8825 sf 0 0 m (Signal efficiency) show NC gr  0 0 0.933333 c 9 lw 286 1492 m 190 X s black
 gsave  2268 1676 0 0 C 515.735 1368.97 t 0 r /Helvetica-Bold findfont 56.8825 sf 0 0 m (Background efficiency) show NC gr  1 0 0 c 286 1391 m 190 X s 0.490196 0.545098 0.615686 c 3 lw 1 1 1 c 0.490196 0.545098 0.615686 c 889 201 1152 1341 bl 1152
 1341 m 889 X s 2041 1341 m 201 Y s 2041 1542 m -889 X s 1152 1542 m -201 Y s black
 gsave  2268 1676 0 0 C 1418.27 1494.11 t 0 r /Helvetica-Bold findfont 56.8825 sf 0 0 m (Signal purity) show NC gr  0 0 0.933333 c[  52 12 ] 0 sd 6 lw 1192 1509 m 187 X s black
 gsave  2268 1676 0 0 C 1418.27 1429.65 t 0 r /Helvetica-Bold findfont 56.8825 sf 0 0 m (Signal efficiency*purity) show NC gr  0 0 0.933333 c[  22 12 ] 0 sd 1192 1441 m 187 X s black
 gsave  2268 1676 0 0 C 1501.7 1361.39 t 0 r /Helvetica-Bold findfont 56.8825 sf 0 0 m (S+B) show NC gr [  ] 0 sd 1483 1407 m 7 -49 d s 3 lw 1490 1358 m 8 64 d s 1498 1422 m 114 X s
 gsave  2268 1676 0 0 C 1418.27 1361.39 t 0 r /Helvetica-Bold findfont 56.8825 sf 0 0 m (S/) show NC gr  0 0.666667 0 c 9 lw 1192 1374 m 187 X s black 3 lw 245 1237 m 1796 X s
 gsave  2268 1676 0 0 C 337.503 386.801 t 0 r /Helvetica-Bold findfont 53.0904 sf 0 0 m (For 1000 signal and 1000 background) show NC gr 
 gsave  2268 1676 0 0 C 1058.01 318.542 t 0 r /Helvetica-Bold findfont 53.0904 sf 0 0 m ( is) show NC gr 
 gsave  2268 1676 0 0 C 955.626 318.542 t 0 r /Helvetica-Bold findfont 53.0904 sf 0 0 m (S+B) show NC gr  6 lw 933 360 m 7 -45 d s 3 lw 940 315 m 8 60 d s 948 375 m 110 X s
 gsave  2268 1676 0 0 C 337.503 318.542 t 0 r /Helvetica-Bold findfont 53.0904 sf 0 0 m (events the maximum S/) show NC gr 
 gsave  2268 1676 0 0 C 337.503 254.075 t 0 r /Helvetica-Bold findfont 53.0904 sf 0 0 m (25.96 when cutting at  0.35) show NC gr  0.490196 0.545098 0.615686 c 0.364706 0.419608 0.490196 c 1471 96 23 1572 bf 0.490196 0.545098 0.615686 c 23 1572 m 1471
 X s 1494 1572 m 96 Y s 1494 1668 m -1471 X s 23 1668 m -96 Y s 1 1 1 c black 1 1 1 c
 gsave  2268 1676 0 0 C 75.8434 1600.29 t 0 r /Helvetica-Bold findfont 75.8434 sf 0 0 m (Cut efficiencies and optimal cut value) show NC gr  0 0.666667 0 c 2041 201 m 1140 Y s 1995 201 m 46 X s 2018 241 m 23 X s 2018 281 m 23 X s 2018 321 m 23 X s
 2018 361 m 23 X s 1995 401 m 46 X s 2018 441 m 23 X s 2018 481 m 23 X s 2018 520 m 23 X s 2018 560 m 23 X s 1995 600 m 46 X s 2018 640 m 23 X s 2018 680 m 23 X s 2018 720 m 23 X s 2018 760 m 23 X s 1995 800 m 46 X s 2018 840 m 23 X s 2018 880 m 23 X
 s 2018 920 m 23 X s 2018 960 m 23 X s 1995 999 m 46 X s 2018 1039 m 23 X s 2018 1079 m 23 X s 2018 1119 m 23 X s 2018 1159 m 23 X s 1995 1199 m 46 X s 1995 1199 m 46 X s 2018 1239 m 23 X s 2018 1279 m 23 X s 2018 1319 m 23 X s black 0 0.666667 0 c
 gsave  2268 1676 0 0 C 2051.56 178.232 t 0 r /Helvetica-Bold findfont 64.4669 sf 0 0 m (0) show NC gr  black 0 0.666667 0 c
 gsave  2268 1676 0 0 C 2051.56 375.425 t 0 r /Helvetica-Bold findfont 64.4669 sf 0 0 m (5) show NC gr  black 0 0.666667 0 c
 gsave  2268 1676 0 0 C 2051.56 576.41 t 0 r /Helvetica-Bold findfont 64.4669 sf 0 0 m (10) show NC gr  black 0 0.666667 0 c
 gsave  2268 1676 0 0 C 2051.56 773.602 t 0 r /Helvetica-Bold findfont 64.4669 sf 0 0 m (15) show NC gr  black 0 0.666667 0 c
 gsave  2268 1676 0 0 C 2051.56 974.587 t 0 r /Helvetica-Bold findfont 64.4669 sf 0 0 m (20) show NC gr  black 0 0.666667 0 c
 gsave  2268 1676 0 0 C 2051.56 1175.57 t 0 r /Helvetica-Bold findfont 64.4669 sf 0 0 m (25) show NC gr  black 0 0.666667 0 c
 gsave  2268 1676 0 0 C 2203.25 963.211 t 90 r /Helvetica-Bold findfont 64.4669 sf 0 0 m (Significance) show NC gr 
 gr  gr showpage
end
%%EOF
