%!PS-Adobe-2.0 EPSF-2.0
%%BoundingBox:  0 0 567 419
%%Title: dataset/plots/mvaeffs_Likelihood.eps: Cut efficiencies for Likelihood classifier
%%Creator: ROOT Version 6.12/06
%%CreationDate: Mon May 21 13:38:14 2018
%%DocumentNeededResources: ProcSet (FontSetInit)
%%EndComments
%%BeginProlog
80 dict begin
/s {stroke} def /l {lineto} def /m {moveto} def /t {translate} def
/r {rotate} def /rl {roll}  def /R {repeat} def
/d {rlineto} def /rm {rmoveto} def /gr {grestore} def /f {eofill} def
/c {setrgbcolor} def /black {0 setgray} def /sd {setdash} def
/cl {closepath} def /sf {scalefont setfont} def /lw {setlinewidth} def
/box {m dup 0 exch d exch 0 d 0 exch neg d cl} def
/NC{systemdict begin initclip end}def/C{NC box clip newpath}def
/bl {box s} def /bf {gsave box gsave f grestore 1 lw [] 0 sd s grestore} def /Y { 0 exch d} def /X { 0 d} def 
/K {{pop pop 0 moveto} exch kshow} bind def
/ita {/ang 15 def gsave [1 0 ang dup sin exch cos div 1 0 0] concat} def 
/mp {newpath /y exch def /x exch def} def
/side {[w .77 mul w .23 mul] .385 w mul sd w 0 l currentpoint t -144 r} def
/mr {mp x y w2 0 360 arc} def /m24 {mr s} def /m20 {mr f} def
/mb {mp x y w2 add m w2 neg 0 d 0 w neg d w 0 d 0 w d cl} def
/mt {mp x y w2 add m w2 neg w neg d w 0 d cl} def
/w4 {w 4 div} def
/w6 {w 6 div} def
/w8 {w 8 div} def
/m21 {mb f} def /m25 {mb s} def /m22 {mt f} def /m26{mt s} def
/m23 {mp x y w2 sub m w2 w d w neg 0 d cl f} def
/m27 {mp x y w2 add m w3 neg w2 neg d w3 w2 neg d w3 w2 d cl s} def
/m28 {mp x w2 sub y w2 sub w3 add m w3 0 d  0 w3 neg d w3 0 d 0 w3 d w3 0 d  0 w3 d w3 neg 0 d 0 w3 d w3 neg 0 d 0 w3 neg d w3 neg 0 d cl s } def
/m29 {mp gsave x w2 sub y w2 add w3 sub m currentpoint t 4 {side} repeat cl fill gr} def
/m30 {mp gsave x w2 sub y w2 add w3 sub m currentpoint t 4 {side} repeat cl s gr} def
/m31 {mp x y w2 sub m 0 w d x w2 sub y m w 0 d x w2 sub y w2 add m w w neg d x w2 sub y w2 sub m w w d s} def
/m32 {mp x y w2 sub m w2 w d w neg 0 d cl s} def
/m33 {mp x y w2 add m w3 neg w2 neg d w3 w2 neg d w3 w2 d cl f} def
/m34 {mp x w2 sub y w2 sub w3 add m w3 0 d  0 w3 neg d w3 0 d 0 w3 d w3 0 d  0 w3 d w3 neg 0 d 0 w3 d w3 neg 0 d 0 w3 neg d w3 neg 0 d cl f } def
/m35 {mp x y w2 add m w2 neg w2 neg d w2 w2 neg d w2 w2 d w2 neg w2 d x y w2 sub m 0 w d x w2 sub y m w 0 d s} def
/m36 {mb x w2 sub y w2 add m w w neg d x w2 sub y w2 sub m w w d s} def
/m37 {mp x y m w4 neg w2 d w4 neg w2 neg d w2 0 d  w4 neg w2 neg d w2 0 d w4 neg w2 d w2 0 d w4 neg w2 d w4 neg w2 neg d cl s} def
/m38 {mp x w4 sub y w2 add m w4 neg w4 neg d 0 w2 neg d w4 w4 neg d w2 0 d w4 w4 d 0 w2 d w4 neg w4 d w2 neg 0 d x y w2 sub m 0 w d x w2 sub y m w 0 d cl s} def
/m39 {mp x y m w4 neg w2 d w4 neg w2 neg d w2 0 d  w4 neg w2 neg d w2 0 d w4 neg w2 d w2 0 d w4 neg w2 d w4 neg w2 neg d cl f} def
/m40 {mp x y m w4 w2 d w4 w4 neg d w2 neg w4 neg d w2 w4 neg d w4 neg w4 neg d w4 neg w2 d w4 neg w2 neg d w4 neg w4 d w2 w4 d w2 neg w4 d w4 w4 d w4 w2 neg d cl s} def
/m41 {mp x y m w4 w2 d w4 w4 neg d w2 neg w4 neg d w2 w4 neg d w4 neg w4 neg d w4 neg w2 d w4 neg w2 neg d w4 neg w4 d w2 w4 d w2 neg w4 d w4 w4 d w4 w2 neg d cl f} def
/m42 {mp x y w2 add m w8 neg w2 -3 4 div mul d w2 -3 4 div mul w8 neg d w2 3 4 div mul w8 neg d w8 w2 -3 4 div mul d w8 w2 3 4 div mul d w2 3 4 div mul w8 d w2 -3 4 div mul w8 d w8 neg w2 3 4 div mul d cl s} def
/m43 {mp x y w2 add m w8 neg w2 -3 4 div mul d w2 -3 4 div mul w8 neg d w2 3 4 div mul w8 neg d w8 w2 -3 4 div mul d w8 w2 3 4 div mul d w2 3 4 div mul w8 d w2 -3 4 div mul w8 d w8 neg w2 3 4 div mul d cl f} def
/m44 {mp x y m w6 neg w2 d w2 2 3 div mul 0 d w6 neg w2 neg d w2 w6 d 0 w2 -2 3 div mul d w2 neg w6 d w6 w2 neg d w2 -2 3 div mul 0 d w6 w2 d w2 neg w6 neg d 0 w2 2 3 div mul d w2 w6 neg d cl s} def
/m45 {mp x y m w6 neg w2 d w2 2 3 div mul 0 d w6 neg w2 neg d w2 w6 d 0 w2 -2 3 div mul d w2 neg w6 d w6 w2 neg d w2 -2 3 div mul 0 d w6 w2 d w2 neg w6 neg d 0 w2 2 3 div mul d w2 w6 neg d cl f} def
/m46 {mp x y w4 add m w4 neg w4 d w4 neg w4 neg d  w4 w4 neg d w4 neg w4 neg d w4 w4 neg d w4 w4 d w4 w4 neg d w4 w4 d w4 neg w4 d w4 w4 d w4 neg w4 d w4 neg w4 neg d cl s} def
/m47 {mp x y w4 add m w4 neg w4 d w4 neg w4 neg d w4 w4 neg d w4 neg w4 neg d  w4 w4 neg d w4 w4 d w4 w4 neg d w4 w4 d w4 neg w4 d w4 w4 d w4 neg w4 d w4 neg w4 neg d cl f} def
/m48 {mp x y w4 add m w4 neg w4 d w4 neg w4 neg d w4 w4 neg d  w4 neg w4 neg d w4 w4 neg d w4 w4 d w4 w4 neg d w4 w4 d w4 neg w4 d w4 w4 d w4 neg w4 d w4 neg w4 neg d  w4 w4 neg d w4 neg w4 neg d w4 neg w4 d w4 w4 d cl f} def
/m49 {mp x w2 sub w3 add y w2 sub w3 add m  0 w3 neg d w3 0 d 0 w3 d w3 0 d 0 w3 d w3 neg 0 d 0 w3 d w3 neg 0 d 0 w3 neg d w3 neg 0 d 0 w3 neg d w3 0 d 0 w3 d w3 0 d 0 w3 neg d w3 neg 0 d cl f } def
/m2 {mp x y w2 sub m 0 w d x w2 sub y m w 0 d s} def
/m5 {mp x w2 sub y w2 sub m w w d x w2 sub y w2 add m w w neg d s} def
%%IncludeResource: ProcSet (FontSetInit)
%%IncludeResource: font Times-Roman
%%IncludeResource: font Times-Italic
%%IncludeResource: font Times-Bold
%%IncludeResource: font Times-BoldItalic
%%IncludeResource: font Helvetica
%%IncludeResource: font Helvetica-Oblique
%%IncludeResource: font Helvetica-Bold
%%IncludeResource: font Helvetica-BoldOblique
%%IncludeResource: font Courier
%%IncludeResource: font Courier-Oblique
%%IncludeResource: font Courier-Bold
%%IncludeResource: font Courier-BoldOblique
%%IncludeResource: font Symbol
%%IncludeResource: font ZapfDingbats
/reEncode {exch findfont dup length dict begin {1 index /FID eq  {pop pop} {def} ifelse } forall /Encoding exch def currentdict end dup /FontName get exch definefont pop } def [/Times-Bold /Times-Italic /Times-BoldItalic /Helvetica /Helvetica-Oblique
 /Helvetica-Bold /Helvetica-BoldOblique /Courier /Courier-Oblique /Courier-Bold /Courier-BoldOblique /Times-Roman /AvantGarde-Book /AvantGarde-BookOblique /AvantGarde-Demi /AvantGarde-DemiOblique /Bookman-Demi /Bookman-DemiItalic /Bookman-Light
 /Bookman-LightItalic /Helvetica-Narrow /Helvetica-Narrow-Bold /Helvetica-Narrow-BoldOblique /Helvetica-Narrow-Oblique /NewCenturySchlbk-Roman /NewCenturySchlbk-Bold /NewCenturySchlbk-BoldItalic /NewCenturySchlbk-Italic /Palatino-Bold
 /Palatino-BoldItalic /Palatino-Italic /Palatino-Roman ] {ISOLatin1Encoding reEncode } forall
%%EndProlog
%%BeginSetup
%%EndSetup
newpath  gsave  .25 .25 scale  gsave  0 0 t 0.490196 0.545098 0.615686 c[  ] 0 sd 3 lw 0.941176 0.941176 0.941176 c 2268 1676 0 0 bf black 1 1 0.992157 c 1796 1140 245 201 bf black 1796 1140 245 201 bl 1 1 0.992157 c 1796 1140 245 201 bf black 1796
 1140 245 201 bl 245 201 m 1796 X s[ 4 8] 0 sd 245 1341 m -1140 Y s 604 1341 m -1140 Y s 963 1341 m -1140 Y s 1323 1341 m -1140 Y s 1682 1341 m -1140 Y s 2041 1341 m -1140 Y s 2041 1341 m -1140 Y s[  ] 0 sd 245 201 m 1140 Y s[ 4 8] 0 sd 2041 201 m
 -1796 X s 2041 408 m -1796 X s 2041 616 m -1796 X s 2041 823 m -1796 X s 2041 1030 m -1796 X s 2041 1237 m -1796 X s 2041 1237 m -1796 X s 0 0 0.933333 c[  22 12 ] 0 sd 6 lw 0.49 0.6 0.82 c black 0 0 0.933333 c 245 719 m 36 Y 1 4 d 15 Y 1 3 d 11 Y 1
 3 d 18 Y 1 3 d 10 Y 1 2 d 4 Y 1 1 d 4 Y 1 1 d 3 Y 1 1 d 3 Y 1 X s 254 841 m 2 Y 1 X 2 Y 1 1 d 2 Y 1 X 2 Y 1 1 d 1 Y 1 X 1 Y 1 X 1 Y 1 X 1 Y 1 X 1 Y 1 X s 263 856 m 1 Y 1 X 1 Y 1 X 1 Y 1 X 1 Y 1 X 1 Y 3 X 1 Y 1 X s 271 862 m 1 X 1 Y 2 X 1 1 d 3 X 1 Y
 2 X s 280 865 m 3 X 1 Y 4 X 1 Y 2 X s 289 867 m 1 X 1 Y 5 X 1 Y 2 X 1 Y 1 X s 298 870 m 5 X 1 1 d 3 X s 307 871 m 3 X 1 Y 1 -1 d 1 Y 4 X s 315 872 m 3 X 1 Y 5 X 1 Y 1 X s 324 874 m 9 X s 333 874 m 1 X 1 1 d 1 X -1 Y 1 X 1 Y 5 X s 342 875 m 6 X 1 1 d
 2 X s 351 876 m 5 X 1 Y 3 X s 359 877 m 9 X s 368 877 m 5 X 1 Y 4 X s 377 878 m 9 X s 386 878 m 9 X s 395 878 m 6 X 1 Y 2 X s 403 879 m 7 X 1 -1 d 1 X s 412 878 m 9 X s 421 878 m 2 X 1 Y 7 X s 430 879 m 9 X s 439 879 m 8 X s 447 879 m 9 X s 456 879
 m 1 X -1 Y 8 X s 465 878 m 9 X s 474 878 m 7 X -1 Y 2 X s 483 877 m 8 X s 491 877 m 9 X s 500 877 m 2 X 1 Y 7 X s 509 878 m 9 X s 518 878 m 9 X s 527 878 m 4 X -1 Y 4 X s 535 877 m 7 X 1 Y 2 X s 544 878 m 6 X -1 Y 3 X s 553 877 m 9 X s 562 877 m 3 X
 1 Y 6 X s 571 878 m 8 X s 579 878 m 3 X 1 Y 4 X -1 Y 2 X s 588 878 m 3 X -1 Y 1 X 1 Y 5 X s 597 878 m 3 X 1 -1 d 5 X s 606 877 m 9 X s 615 877 m 8 X s 623 877 m 9 X s 632 877 m 9 X s 641 877 m 9 X s 650 877 m -1 Y 9 X s 659 876 m 8 X s 667 876 m 9 X
 s 676 876 m 7 X -1 Y 2 X s 685 875 m 5 X -1 Y 4 X s 694 874 m 2 X 1 -1 d 4 X 1 -1 d 1 X s 703 872 m 2 X -1 Y 3 X -1 Y 1 Y -1 Y 2 X 1 -1 d s 711 869 m 9 X s 720 869 m 7 X -1 Y 2 X s 729 868 m 1 Y 1 -1 d 5 X -1 Y 3 X s 738 867 m 5 X -1 Y 1 X 1 Y 3 X s
 747 867 m 3 X -1 Y 5 X s 755 866 m 9 X -1 Y s 764 865 m 9 X s 773 865 m 6 X -1 Y 3 X s 782 864 m 9 X s 791 864 m 8 X -1 Y s 799 863 m 1 X 1 Y 2 X -1 Y 6 X s 808 863 m 1 X 1 1 d 7 X -1 Y s 817 863 m 9 X s 826 863 m 3 X 1 Y 6 X s 835 864 m 3 X -1 Y 5
 X s 843 863 m 9 X s 852 863 m 9 X s 861 863 m 5 X -1 Y 4 X s 870 862 m 9 X s 879 862 m 8 X s 887 862 m 9 X s 896 862 m 9 X s 905 862 m 9 X s 914 862 m -1 Y 9 X s 923 861 m 8 X s 931 861 m 7 X 1 -1 d 1 X s 940 860 m 9 X s 949 860 m 4 X -1 Y 5 X s 958
 859 m 9 X s 967 859 m 5 X -1 Y 3 X s 975 858 m 5 X -1 Y 4 X s 984 857 m 5 X 1 -1 d 3 X s 993 856 m 3 X -1 Y 2 X -1 Y 4 X s 1002 854 m 1 X -1 Y 3 X 1 -1 d 4 X s 1011 852 m -1 Y 8 X -1 Y s 1019 850 m 9 X s 1028 850 m 4 X -1 Y 4 X -1 Y 1 X s 1037 848 m
 6 X -1 Y 3 X s 1046 847 m 8 X -1 Y 1 X s 1055 846 m 8 X -1 Y s 1063 845 m 9 X s 1072 845 m 2 X -1 Y 7 X s 1081 844 m 1 X 1 -1 d 7 X s 1090 843 m 4 X -1 Y 5 X s 1099 842 m 7 X -1 Y 1 X s 1107 841 m 9 X s 1116 841 m 4 X 1 -1 d 2 X -1 Y 2 X s 1125 839
 m 9 X s 1134 839 m 9 X s 1143 839 m 4 X -1 Y 4 X s 1151 838 m 9 X s 1160 838 m 2 X -1 Y 7 X s 1169 837 m 9 X s 1178 837 m 6 X 1 -1 d 2 X s 1187 836 m 8 X s 1195 836 m 5 X 1 -1 d 3 X s 1204 835 m 6 X -1 Y 3 X s 1213 834 m 2 X -1 Y 4 X -1 Y 2 X 1 -1 d
 s 1222 831 m 5 X -1 Y 4 X s 1231 830 m 4 X -1 Y 4 X s 1239 829 m 1 X -1 Y 3 X 1 -1 d 4 X s 1248 827 m 1 X -1 Y 3 X -1 Y 2 X -1 Y 3 X s 1257 824 m -1 Y 5 X -1 Y 4 X s 1266 822 m 2 X -1 Y 5 X 1 -1 d 1 X s 1275 820 m -1 Y 3 X -1 Y 4 X -1 Y 1 Y 1 X -1 Y
 s 1283 817 m 3 X -1 Y 6 X s 1292 816 m 8 X -1 Y 1 X s 1301 815 m 5 X 1 -1 d 3 X s 1310 814 m 1 X -1 Y 2 X -1 Y 4 X 1 Y -1 Y 2 X s 1319 812 m 3 X 1 -1 d 1 X -1 Y 1 Y 1 X -1 Y 2 X s 1327 810 m 3 X -1 Y 4 X 1 -1 d 1 X s 1336 808 m 7 X -1 Y 2 X s 1345
 807 m 1 X -1 Y 1 Y -1 Y 3 X -1 Y 1 X 1 Y 1 -1 d 2 X -1 Y 1 X s 1354 804 m 3 X 1 -1 d 4 X -1 Y 1 X s 1363 802 m 1 X -1 Y 2 X 1 -1 d 2 X -1 Y 1 X -1 Y 1 Y 1 X -1 Y s 1371 798 m 2 X -1 Y 5 X -1 Y 2 X s 1380 796 m 3 X -1 Y 3 X -1 Y 3 X s 1389 794 m 2 X
 -1 Y 1 X 1 -1 d 3 X 1 Y 2 X -1 Y s 1398 792 m 1 X 1 1 d 1 X -1 Y 2 X -1 Y 2 X -1 Y 1 X 1 Y -1 Y 1 X s 1407 790 m 1 X -1 Y 2 X -2 Y 1 X 1 -1 d 1 X 1 Y -1 Y 1 X -1 Y 1 X s 1415 785 m 1 X 1 -1 d 1 -1 d 1 -1 d 1 X -1 Y 1 X 1 Y -1 Y 1 Y 1 -1 d -1 Y 2 X s
 1424 780 m 1 X -1 Y 1 X -1 Y 1 Y -1 Y 3 X -1 Y 2 X 1 1 d -1 Y 1 X s 1433 777 m 1 X 1 -1 d -1 Y 1 X -2 Y 2 X -1 Y 1 X 1 -1 d 1 -1 d 1 -1 d s 1442 769 m 1 X -1 Y 1 X 1 -1 d -1 Y 1 X -1 Y 1 X -1 Y 1 X 1 -1 d 1 X -1 Y 1 X s 1451 762 m -1 Y 1 X -1 Y 1 Y
 1 X -1 Y 1 X -1 Y 1 X -2 Y 1 -1 d -1 Y 1 Y 1 -1 d 1 Y 1 X 1 -1 d 1 Y -1 Y s 1459 755 m 1 X -1 Y 1 X -1 Y 3 X -1 Y 1 X -1 Y 1 X -2 Y 1 X -1 Y 1 X -1 Y s 1468 747 m 1 X -1 Y 1 -1 d 1 -1 d 1 X -1 Y 1 X -1 Y 2 X -1 Y 1 Y -1 Y 1 X -1 Y 1 X -1 Y s 1477
 739 m 1 X -1 Y 1 X -3 Y 1 1 d -2 Y 1 1 d -2 Y 1 X -1 Y 1 X -1 Y 1 X -1 Y 1 X 1 -1 d s 1486 729 m 2 X -1 Y 2 X -1 Y 1 X 1 -1 d -1 Y 2 X -1 Y 1 -1 d s 1495 723 m 1 X 1 -1 d 2 X -1 Y 1 1 d -1 Y 1 X 1 -1 d -1 Y 1 -1 d -1 Y s 1503 717 m 1 X -1 Y 1 -1 d
 -1 Y 1 X -1 Y 1 X -1 Y 1 X -1 Y 1 -1 d 1 Y 1 X -2 Y 1 -1 d 1 X -1 Y 1 Y -1 Y s 1512 707 m 4 X -1 Y 1 X -1 Y 1 X 1 -1 d 2 X -1 Y s 1521 703 m 1 Y 1 X -1 Y 2 X -1 Y 1 X -1 Y 1 -1 d 1 -1 d 1 X -1 Y 1 Y -1 Y 1 X -1 Y 1 -2 d s 1530 695 m 1 -1 d 1 X -2 Y
 1 X 1 Y -1 Y 1 X -1 Y 1 Y 1 -1 d -1 Y 2 X -2 Y 1 X -2 Y 1 X -1 Y s 1539 685 m -1 Y 1 Y 1 -1 d -1 Y 1 X -1 Y 3 X -2 Y 2 X -1 Y 1 Y -1 Y 1 X -1 Y s 1547 678 m 1 X -1 Y 1 X -2 Y 1 X -2 Y 1 X -1 Y 1 X -1 Y 1 X -2 Y 1 -1 d -2 Y 1 X -2 Y 1 X s 1556 664 m
 1 -1 d -1 Y 1 X -1 Y 1 -1 d -1 Y 1 -1 d -1 Y 1 X -2 Y 1 X 1 Y -1 Y 1 X -2 Y 1 X -1 Y 1 X s 1565 652 m -1 Y 1 -1 d -1 Y 1 X -1 Y 1 X -3 Y 1 X -2 Y 1 1 d -2 Y 1 X -2 Y 1 X -2 Y 1 -1 d -2 Y 1 -1 d -1 Y s 1574 633 m -2 Y 1 X -2 Y 1 -1 d -3 Y 1 X -1 Y 1
 X -1 Y 1 X -3 Y 1 -1 d -2 Y 1 X -2 Y 1 -1 d -1 Y 1 -1 d -1 Y s 1583 611 m -2 Y 1 -1 d 1 Y -1 Y 1 X -2 Y 1 X -2 Y 1 X -2 Y 1 -2 d -2 Y 1 X -2 Y 1 X -5 Y 1 X -3 Y s 1591 588 m 1 -1 d -2 Y 1 X -4 Y 1 X -2 Y 1 X -1 Y 1 -1 d 1 -1 d -2 Y 1 -1 d -2 Y 1 X
 -3 Y 1 X -1 Y s 1600 567 m -1 Y 1 X -2 Y 1 X -2 Y 1 X -2 Y 1 -1 d -3 Y 1 X -3 Y 1 -1 d 1 Y -1 Y 1 -1 d -2 Y 1 -2 d -3 Y 1 -1 d -2 Y s 1609 541 m -1 Y 1 -1 d -2 Y 1 -1 d -4 Y 1 X -2 Y 1 X -1 Y 1 X -1 Y 1 X -3 Y 1 -2 d -2 Y 1 X 1 -1 d -2 Y s 1618 518
 m -1 Y 1 X -2 Y 1 1 d -2 Y 1 X -3 Y 1 X -2 Y 1 X -3 Y 1 X -1 Y 1 -1 d -2 Y 1 Y -2 Y 1 X -1 Y 1 -1 d -1 Y s 1627 498 m -1 Y 1 X -2 Y 1 X -3 Y 1 -2 d -1 Y 1 -1 d -3 Y 1 -1 d -3 Y 1 X -2 Y 1 -1 d -1 Y 1 -1 d -1 Y s 1635 475 m 1 -1 d -2 Y 1 X -3 Y 1 -1
 d -3 Y 1 X -2 Y 1 -1 d -2 Y 1 -1 d -3 Y 1 X -2 Y 1 X -1 Y 1 X -3 Y s 1644 450 m 1 X -2 Y 1 X -1 Y 1 Y 1 -1 d -1 Y 1 X -4 Y 1 -1 d -1 Y 1 X -2 Y 1 -1 d -1 Y 1 X -2 Y 1 -1 d -1 Y s 1653 432 m -1 Y 1 X -3 Y 1 X -2 Y 1 X -1 Y 1 -1 d -4 Y 1 X -1 Y 1 -1 d
 -3 Y 1 X -2 Y 1 X -2 Y 1 -1 d -1 Y s 1662 409 m -1 Y 1 X -2 Y 1 X -1 Y 1 -1 d -1 Y 1 -1 d 1 Y -1 Y 1 X -2 Y 1 -1 d 1 Y -1 Y 1 X -1 Y 1 X -2 Y 1 X -1 Y s 1671 395 m -1 Y 1 X -1 Y 1 X -1 Y 1 X -2 Y 1 X -1 Y 1 X -1 Y 1 X 1 Y -1 Y 1 X -1 Y 1 X -1 Y s
 1679 386 m 1 -1 d 1 Y 1 X -1 Y 1 X -1 Y 1 X -2 Y 1 X -1 Y 1 X -1 Y 1 X -1 Y 2 X -1 Y s 1688 378 m 1 X -2 Y 1 1 d -1 Y 2 X -1 Y 1 -1 d 1 X -1 Y 1 -1 d 1 X -1 Y 1 X -1 Y s 1697 370 m 1 X 1 -1 d 1 -1 d 1 X -1 Y 1 -1 d 1 -1 d -1 Y 2 X -1 Y 1 X s 1706
 363 m -1 Y 2 X -1 Y 1 X -1 Y 1 X -1 Y 1 X -1 Y 1 X -1 Y 2 X -1 Y 1 X s 1715 356 m -1 Y 1 X -1 Y 1 X -1 Y 1 X -1 Y 1 X -1 Y 1 X -1 Y 2 X -1 Y 1 X s 1723 349 m 2 X -1 Y 1 X -1 Y 1 X -1 Y 1 X -1 Y 1 -1 d -1 Y 1 Y 1 -1 d -1 Y 1 X -2 Y 1 1 d -3 Y s 1732
 338 m 3 X -1 Y 1 X -1 Y 1 X -1 Y 2 X 1 -1 d 1 X -1 Y s 1741 333 m 1 X -2 Y 1 X -1 Y 1 -1 d -1 Y 1 X -1 Y 1 X -2 Y 1 -1 d 1 -1 d -1 Y 1 -1 d 1 -1 d s 1750 320 m -1 Y 1 X -1 Y 1 X -1 Y 1 X 1 -1 d 1 Y -1 Y 1 X -1 Y 1 -1 d 1 X -1 Y 2 X -1 Y s 1759 312 m
 1 X -1 Y 2 X -2 Y 1 -1 d 1 X -2 Y 2 X -1 Y 1 X -1 Y s 1767 304 m 1 X -1 Y 1 X -1 Y 1 X 1 1 d -3 Y 2 X -1 Y 3 X -1 Y s 1776 298 m 3 X -1 Y 1 X 1 -1 d 1 X -1 Y 1 X -1 Y 1 X 1 1 d -1 Y s 1785 294 m 1 X -1 Y 1 X -1 Y 2 X -1 Y 1 X -1 Y 1 X -1 Y 3 X s
 1794 289 m -1 Y 2 X -1 Y 3 X -1 Y 1 1 d -1 Y 2 X 1 -1 d s 1803 285 m 1 X 1 -1 d 2 X -1 Y 3 X -1 Y 1 Y -1 Y 1 X -1 Y 1 X s 1812 281 m 1 X -1 Y 4 X -1 Y 1 X -1 Y 1 X 1 Y -1 Y 1 X s 1820 278 m 5 X -1 Y 1 Y 1 -1 d 1 X -1 Y 2 X -1 Y s 1829 275 m 3 X -1 Y
 2 X 1 -1 d 1 Y -1 Y 1 X -1 Y 2 X s 1838 272 m 1 X -1 Y 3 X -1 Y 1 Y 1 -1 d 1 X -1 Y 3 X -1 Y s 1847 268 m 2 X -1 Y 1 X -1 Y 1 X 1 Y 1 X 1 -1 d 2 X 1 -1 d s 1856 265 m 3 X -1 Y 4 X -1 Y 1 X s 1864 263 m 2 X -1 Y 2 X -1 Y 1 X -1 Y 4 X -1 Y s 1873 259
 m 5 X 1 -1 d 3 X s 1882 258 m 1 X -1 Y 1 X -1 Y 5 X 1 -1 d 1 X s 1891 255 m -1 Y 1 1 d 1 X -1 Y 1 X 1 Y 1 -1 d 2 X 1 -1 d 2 X s 1900 253 m 4 X -1 Y 3 X -1 Y 1 X s 1908 251 m 3 X -1 Y 1 X -1 Y 3 X -1 Y 2 X -1 Y s 1917 247 m 4 X -1 Y 3 X 1 -1 d 1 X s
 1926 245 m -1 Y 2 X 1 -1 d 1 Y 1 X -1 Y 2 X -1 Y 2 X -1 Y 1 X s 1935 241 m -1 Y 2 X 1 -1 d 1 X -1 Y 2 X -1 Y 1 X 1 -1 d 1 X s 1944 236 m -1 Y 4 X -1 Y 1 X -1 Y 3 X -1 Y s 1952 232 m 2 X -1 Y 2 X -1 Y 2 X -1 Y 3 X s 1961 229 m 1 X -1 Y 3 X -1 Y 3 X
 -1 Y 2 X s 1970 226 m -1 Y 3 X -1 Y 1 X -1 Y 3 X -1 Y 2 X s 1979 222 m 4 X -1 Y 5 X s 1988 221 m 3 X -1 Y 1 X 1 1 d 2 X -1 Y 1 X s 1996 220 m 5 X -1 Y 4 X s 2005 219 m 1 X -1 Y 1 X 1 Y -1 Y 1 Y 2 X -1 Y 4 X 1 Y 1 X s 2014 219 m -1 Y 5 X -1 Y 2 X 1
 -1 d 1 X s 2023 216 m 2 X -1 Y 3 X -1 Y 3 X -1 Y 1 X s 2032 213 m 1 X -1 Y 2 X -1 Y 3 X -1 Y 2 X s 2040 210 m -1 Y 1 X s black[  ] 0 sd 3 lw 245 201 m 1796 X s 245 241 m -40 Y s 335 221 m -20 Y s 425 221 m -20 Y s 514 221 m -20 Y s 604 241 m -40 Y s
 694 221 m -20 Y s 784 221 m -20 Y s 874 221 m -20 Y s 963 241 m -40 Y s 1053 221 m -20 Y s 1143 221 m -20 Y s 1233 221 m -20 Y s 1323 241 m -40 Y s 1412 221 m -20 Y s 1502 221 m -20 Y s 1592 221 m -20 Y s 1682 241 m -40 Y s 1772 221 m -20 Y s 1861
 221 m -20 Y s 1951 221 m -20 Y s 2041 241 m -40 Y s 2041 241 m -40 Y s
 gsave  2268 1676 0 0 C 223.738 128.934 t 0 r /Helvetica-Bold findfont 64.4669 sf 0 0 m (0) show NC gr 
 gsave  2268 1676 0 0 C 557.449 128.934 t 0 r /Helvetica-Bold findfont 64.4669 sf 0 0 m (0.2) show NC gr 
 gsave  2268 1676 0 0 C 917.705 128.934 t 0 r /Helvetica-Bold findfont 64.4669 sf 0 0 m (0.4) show NC gr 
 gsave  2268 1676 0 0 C 1274.17 128.934 t 0 r /Helvetica-Bold findfont 64.4669 sf 0 0 m (0.6) show NC gr 
 gsave  2268 1676 0 0 C 1634.42 128.934 t 0 r /Helvetica-Bold findfont 64.4669 sf 0 0 m (0.8) show NC gr 
 gsave  2268 1676 0 0 C 2025.02 128.934 t 0 r /Helvetica-Bold findfont 64.4669 sf 0 0 m (1) show NC gr 
 gsave  2268 1676 0 0 C 712.928 30.3373 t 0 r /Helvetica-Bold findfont 72.0512 sf 0 0 m (Cut value applied on Likelihood output) show NC gr  245 201 m 1140 Y s 291 201 m -46 X s 268 253 m -23 X s 268 305 m -23 X s 268 357 m -23 X s 291 408 m -46 X s
 268 460 m -23 X s 268 512 m -23 X s 268 564 m -23 X s 291 616 m -46 X s 268 667 m -23 X s 268 719 m -23 X s 268 771 m -23 X s 291 823 m -46 X s 268 875 m -23 X s 268 926 m -23 X s 268 978 m -23 X s 291 1030 m -46 X s 268 1082 m -23 X s 268 1134 m
 -23 X s 268 1185 m -23 X s 291 1237 m -46 X s 291 1237 m -46 X s 268 1289 m -23 X s 268 1341 m -23 X s
 gsave  2268 1676 0 0 C 182.024 178.232 t 0 r /Helvetica-Bold findfont 64.4669 sf 0 0 m (0) show NC gr 
 gsave  2268 1676 0 0 C 128.934 383.009 t 0 r /Helvetica-Bold findfont 64.4669 sf 0 0 m (0.2) show NC gr 
 gsave  2268 1676 0 0 C 125.142 591.578 t 0 r /Helvetica-Bold findfont 64.4669 sf 0 0 m (0.4) show NC gr 
 gsave  2268 1676 0 0 C 128.934 796.355 t 0 r /Helvetica-Bold findfont 64.4669 sf 0 0 m (0.6) show NC gr 
 gsave  2268 1676 0 0 C 125.142 1004.92 t 0 r /Helvetica-Bold findfont 64.4669 sf 0 0 m (0.8) show NC gr 
 gsave  2268 1676 0 0 C 189.608 1213.49 t 0 r /Helvetica-Bold findfont 64.4669 sf 0 0 m (1) show NC gr 
 gsave  2268 1676 0 0 C 64.4669 731.888 t 90 r /Helvetica-Bold findfont 72.0512 sf 0 0 m (Efficiency \(Purity\)) show NC gr  0 0 0.933333 c[  52 12 ] 0 sd 6 lw 0.49 0.6 0.82 c black 0 0 0.933333 c 245 719 m 36 Y 1 4 d 15 Y 1 3 d 11 Y 1 3 d 18 Y 1 3 d
 10 Y 1 2 d 4 Y 1 1 d 5 Y 1 1 d 2 Y 1 1 d 3 Y 1 X 1 Y s 254 842 m 1 Y 1 X 3 Y 1 X 2 Y 1 1 d 1 Y 1 1 d 1 Y 1 X 1 Y 1 X 2 Y 1 X 1 Y 2 X s 263 856 m 1 Y 1 1 d 1 Y 1 X 1 Y 1 X 1 Y 2 X 1 Y 3 X 1 Y s 271 863 m 1 X 1 Y 2 X 1 1 d 3 X 1 Y 2 X s 280 866 m 3 X
 1 Y 4 X 1 1 d 1 X s 289 868 m 2 X 1 Y 4 X 1 Y 3 X s 298 870 m 1 Y 7 X 1 Y 2 X s 307 872 m 3 X 1 Y 5 X s 315 873 m 3 X 1 Y 4 X 1 1 d 1 X s 324 875 m 7 X 1 Y 1 -1 d 1 Y 1 X s 333 876 m 9 X s 342 876 m 1 X 1 Y 8 X s 351 877 m 1 X 1 1 d 4 X 1 Y 2 X s
 359 879 m 9 X s 368 879 m 5 X 1 Y 4 X s 377 880 m 9 X s 386 880 m 3 X 1 1 d 5 X s 395 881 m -1 Y 1 X 1 Y 7 X s 403 881 m 3 X 1 Y 4 X 1 -1 d 1 Y 1 X -1 Y s 412 881 m 1 1 d 8 X s 421 882 m 9 X s 430 882 m 9 X s 439 882 m 2 X 1 Y 6 X s 447 883 m 9 X s
 456 883 m 9 X s 465 883 m 9 X s 474 883 m 9 X s 483 883 m 8 X s 491 883 m 9 X s 500 883 m 9 X s 509 883 m 9 X s 518 883 m 9 X s 527 883 m 1 X 1 Y 3 X -1 Y 1 X 1 Y 3 X s 535 884 m 3 X 1 -1 d 1 Y 5 X s 544 884 m 9 X s 553 884 m 9 X s 562 884 m 8 X 1 Y
 1 X s 571 885 m 8 X s 579 885 m 3 X 1 Y 6 X s 588 886 m 1 X -1 Y 4 X 1 Y 4 X s 597 886 m 5 X -1 Y 4 X s 606 885 m 9 X s 615 885 m 1 Y 1 -1 d 1 Y 7 X s 623 886 m 9 X s 632 886 m 9 X s 641 886 m 9 X s 650 886 m 9 X s 659 886 m 8 X s 667 886 m 9 X s
 676 886 m 9 X s 685 886 m 9 X s 694 886 m 9 X s 703 886 m 3 X -1 Y 2 X 1 Y -1 Y 3 X s 711 885 m 9 X s 720 885 m 6 X 1 Y 1 X -1 Y 2 X s 729 885 m 1 Y 1 -1 d 8 X s 738 885 m 7 X 1 Y 2 X s 747 886 m 8 X s 755 886 m 9 X s 764 886 m 9 X s 773 886 m 9 X s
 782 886 m 9 X s 791 886 m 8 X s 799 886 m 9 X s 808 886 m 9 X s 817 886 m 9 X s 826 886 m 2 X 1 1 d 6 X s 835 887 m 8 X s 843 887 m 9 X s 852 887 m 9 X s 861 887 m 9 X s 870 887 m 9 X s 879 887 m 8 X s 887 887 m 9 X s 896 887 m 9 X s 905 887 m 9 X s
 914 887 m 9 X s 923 887 m 8 X s 931 887 m 9 X s 940 887 m 9 X s 949 887 m 9 X s 958 887 m 9 X s 967 887 m 3 X -1 Y 5 X s 975 886 m 9 X s 984 886 m 9 X s 993 886 m 9 X s 1002 886 m 3 X -1 Y 1 Y 1 X 1 -1 d 1 X 1 Y 1 -1 d 2 X s 1011 885 m 5 X 1 Y 2 X
 -1 Y 1 X s 1019 885 m 4 X 1 Y -1 Y 1 X 1 Y 4 X -1 Y s 1028 885 m 3 X 1 1 d -1 Y 5 X s 1037 885 m 9 X s 1046 885 m 9 X s 1055 885 m 8 X s 1063 885 m 9 X s 1072 885 m 9 X s 1081 885 m 9 X s 1090 885 m 9 X s 1099 885 m 8 X s 1107 885 m 9 X s 1116 885 m
 9 X s 1125 885 m 9 X s 1134 885 m 9 X s 1143 885 m 8 X s 1151 885 m 9 X s 1160 885 m 9 X s 1169 885 m 9 X s 1178 885 m 9 X s 1187 885 m 8 X s 1195 885 m 9 X s 1204 885 m 9 X s 1213 885 m 9 X -1 Y s 1222 884 m 1 1 d 1 X -1 Y 7 X s 1231 884 m 8 X s
 1239 884 m 9 X s 1248 884 m 9 X -1 Y s 1257 883 m 3 X 1 Y 6 X s 1266 884 m 5 X -1 Y 4 X s 1275 883 m 8 X s 1283 883 m 9 X 1 Y s 1292 884 m 1 X -1 Y 1 X 1 Y 7 X s 1301 884 m 9 X s 1310 884 m 8 X 1 Y 1 X s 1319 885 m 1 X -1 Y 7 X s 1327 884 m 1 X 1 Y
 8 X s 1336 885 m 2 X 1 1 d 6 X s 1345 886 m 9 X s 1354 886 m 9 X s 1363 886 m 8 X s 1371 886 m 3 X 1 1 d -1 Y 1 X 1 Y -1 Y 1 1 d 3 X s 1380 887 m 9 X s 1389 887 m 7 X 1 Y 2 X s 1398 888 m 4 X 1 1 d -1 Y 3 X 1 Y 1 X s 1407 889 m 6 X 1 Y 1 -1 d 1 Y 1
 X s 1415 890 m 6 X 1 Y 3 X 1 Y s 1424 892 m 4 X 1 Y 3 X 1 Y -1 Y 1 Y 2 X 1 Y s 1433 895 m 4 X 1 Y 1 X 1 Y 1 -1 d 1 Y 2 X 1 Y 1 -1 d 1 Y s 1442 898 m 1 Y 1 X -1 Y 1 Y 6 X 1 Y 1 -1 d 1 X s 1451 899 m 1 X 1 Y 3 X -1 Y 2 X 1 Y 2 X 1 Y s 1459 901 m 6 X 1
 1 d -1 Y 1 1 d 1 X s 1468 902 m 3 X -1 Y 1 Y 2 X 1 Y 4 X s 1477 903 m 1 1 d 1 -1 d 1 Y -1 Y 1 X 1 Y -1 Y 1 1 d -1 Y 1 Y 1 -1 d 1 1 d -1 Y 1 Y 3 X s 1486 904 m 1 Y -1 Y 1 X 1 Y 3 X 1 1 d -1 Y 1 Y 1 -1 d 1 1 d -1 Y 1 Y 1 X -1 Y 1 X s 1495 905 m 1 X 1
 Y 3 X 1 1 d -1 Y 1 Y 3 X -1 Y s 1503 906 m 4 X -1 Y 5 X s 1512 905 m 2 X 1 Y 7 X s 1521 906 m 1 Y 3 X 1 Y 1 X -1 Y 1 Y 4 X 1 -1 d 1 Y s 1530 908 m -1 Y 1 Y 3 X 1 Y -1 Y 1 Y 4 X 1 Y -1 Y 2 X s 1539 909 m 2 X 1 Y -1 Y 1 Y 1 X 1 Y 2 X -1 Y 1 Y 2 X 1 Y
 -1 Y 1 Y 1 -1 d 1 Y s 1547 912 m 2 X 1 Y -1 Y 2 X 1 Y 2 X 1 -1 d 1 Y -1 Y 1 1 d 1 X 1 Y s 1556 914 m 1 X 1 1 d 1 X 1 Y 3 X 2 Y 1 X 1 Y 1 X 1 Y 1 X 1 Y -1 Y s 1565 920 m 1 X 1 Y -1 Y 1 Y 2 X -1 Y 1 X 1 1 d -1 Y 1 Y 1 X -1 Y 1 Y 1 X 1 -1 d 1 Y -1 Y 1
 X s 1574 920 m 1 X -1 Y 1 Y 1 X -1 Y 1 Y -1 Y 1 Y 2 X 1 Y 1 X -1 Y 1 Y 3 X 1 Y 1 X s 1583 922 m -1 Y 1 X 2 Y -1 Y 1 Y 2 X -1 Y 1 Y 1 X -1 Y 3 X -1 Y 1 X s 1591 921 m 1 X -1 Y 1 X -1 Y 1 Y 1 X 1 Y 1 1 d -1 Y 1 X 2 Y 1 X 1 Y -1 Y 3 X 1 Y s 1600 924 m
 2 X 2 Y 1 -1 d 1 X -1 Y 1 1 d -1 Y 1 X 1 1 d -1 Y 1 X -1 Y 1 X 1 Y s 1609 924 m 1 X -1 Y 1 Y 1 X -1 Y 1 Y 1 X 1 1 d 1 1 d 3 Y 1 1 d -1 Y 1 X 1 1 d 1 Y 1 X -1 Y s 1618 930 m 2 Y 1 1 d 1 2 d 1 Y 1 X 1 1 d 2 Y 1 X 1 Y -1 Y 1 Y 1 X 1 Y 1 1 d 1 X 1 Y 1
 -1 d 1 Y s 1627 943 m 2 Y 1 X 2 Y 1 X -1 Y 1 -1 d 2 Y 1 X -1 Y 1 Y -1 Y 1 X -1 Y 1 X 1 Y 1 1 d 1 X 2 Y s 1635 949 m 1 X 1 Y 1 X -1 Y 1 Y 1 X 2 Y 1 1 d 2 Y 1 X 1 Y -1 Y 1 1 d 1 Y 1 X 2 Y -1 Y 1 Y 1 X 2 Y 1 X -1 Y 1 Y -1 Y s 1644 960 m 1 Y 1 1 d 1 Y 1
 X 3 Y 1 X 1 Y 1 1 d -1 Y 1 Y 1 -1 d 2 Y 1 X 1 Y 1 -1 d 3 Y 1 1 d -1 Y 1 Y 1 X 2 Y s 1653 975 m 1 1 d -1 Y 1 Y 1 X 2 Y 1 1 d 3 Y 1 X -1 Y 1 Y 1 X 2 Y 1 X 1 Y -1 Y 1 X 1 Y -1 Y 2 Y 1 X 3 Y 1 X s 1662 989 m 2 Y 1 1 d 2 Y 1 X -1 Y 2 Y 1 X 1 Y 1 X 3 Y 1
 1 d 2 Y -1 Y 1 X 2 Y -1 Y 1 1 d 3 Y 1 -1 d 2 Y -1 Y 1 X s 1671 1006 m -1 Y 1 X 2 Y -1 Y 2 X -1 Y 1 Y -1 Y 3 X 4 Y 1 X 2 Y 1 X s 1679 1011 m 1 X 2 Y 1 X -1 Y 2 Y 1 X 1 Y 1 X -1 Y 1 Y 1 X -1 Y 1 X -1 Y 1 X 1 Y 1 X 2 Y 1 X 1 Y -1 Y s 1688 1016 m 1 Y 1
 X 1 1 d 1 Y -1 Y 1 X 1 Y 1 X 1 -1 d 1 Y 1 -1 d -1 Y 1 X 2 Y 1 -1 d 1 -1 d 1 Y -1 Y s 1697 1017 m 1 Y 2 X -1 Y 1 Y 1 -1 d 1 Y 1 X -1 Y 1 Y 1 -1 d 1 Y -1 Y 1 Y 1 -1 d 1 X 1 Y 1 X 1 -1 d s 1706 1017 m -1 Y 1 1 d 1 Y 1 X 1 Y 1 X 1 Y -1 Y 1 X 1 Y 1 X -1
 Y 1 X 2 Y 1 X -1 Y 1 X 1 Y -1 Y 1 X s 1715 1020 m -1 Y 1 Y 1 X -1 Y 1 X 1 Y -1 Y 1 X -1 Y 1 Y 1 X 1 Y -1 Y 1 Y 1 X 1 Y 1 X 3 Y -1 Y 1 X 1 Y 1 X 4 Y s 1723 1028 m 1 1 d 1 Y 1 X -1 Y 2 Y 1 X 1 -1 d 1 X -1 Y 1 Y 1 -1 d 2 Y 1 -1 d 1 Y -1 Y 1 X -1 Y 1 2
 d -2 Y s 1732 1029 m 1 X 1 Y 1 1 d 2 Y 1 X -1 Y 1 X 1 Y -1 Y 2 Y 1 -1 d 1 X 2 Y 1 3 d -1 Y 1 Y 1 X 3 Y 1 1 d -1 Y 1 Y s 1741 1042 m 1 Y 1 -1 d 1 Y -1 Y 1 X 2 Y -1 Y 1 -1 d 1 X -1 Y 1 Y 1 X -1 Y 2 Y 1 -1 d 1 -2 d 1 Y 1 -1 d 1 Y 1 X -1 Y s 1750 1040 m
 2 Y -1 Y 1 X -1 Y 1 X -1 Y 1 Y 1 1 d 1 Y 1 -1 d 3 Y 1 -1 d -1 Y 1 -1 d 1 X -1 Y 1 1 d 3 Y 1 X s 1759 1044 m 1 X -1 Y 3 Y 1 X 2 Y 1 X -1 Y 1 Y -1 Y 1 Y 1 -1 d -1 Y 2 Y 1 1 d -2 Y 1 Y 2 X 3 Y -1 Y 1 X -1 Y 1 Y s 1767 1050 m 1 X 2 Y -1 Y 1 -1 d 1 Y 1
 -1 d 2 Y 1 2 d -3 Y 1 X -1 Y 1 X 1 Y 1 -1 d 1 Y 1 X 3 Y -1 Y 2 Y -1 Y 1 3 d -1 Y s 1776 1056 m 3 X -1 Y 1 1 d 2 Y -1 Y 1 2 d 1 Y 1 X -1 Y 1 X -1 Y 1 Y 1 X 1 1 d s 1785 1060 m -1 Y 1 X -1 Y 1 X -1 Y 1 X -1 Y 2 X 2 Y 1 -1 d 1 Y 1 X -1 Y 2 Y -1 Y 1 1 d
 2 Y 1 X s 1794 1061 m -1 Y 1 X 1 Y 1 X -2 Y 2 Y 2 X -1 Y 1 X -1 Y 1 3 d 1 Y 1 X 1 -1 d 2 Y -1 Y 1 X s 1803 1063 m -1 Y 3 Y 1 X -1 Y 1 X -1 Y 1 X 2 Y -1 Y 3 Y 1 X -1 Y 1 X 2 Y 2 X -1 Y 3 Y 1 X -2 Y 1 X s 1812 1068 m 1 Y 1 X -1 Y 1 X 1 -1 d 3 Y 2 X 2
 Y 1 -1 d 1 X 3 Y 1 X -1 Y s 1820 1073 m 1 X 2 Y 1 X 1 2 d 2 Y 1 X 2 Y -1 Y 1 X -1 Y 4 Y 1 X -1 Y 1 X -1 Y 1 X -1 Y 1 X -1 Y s 1829 1079 m 1 X 1 -1 d 1 X 1 -1 d 1 X 2 Y -1 Y 1 X 2 Y -1 Y 1 X -1 Y 1 1 d -1 Y 1 X s 1838 1078 m 1 X -1 Y 1 X 2 Y 1 X -1 Y
 1 X 1 Y 1 X -1 Y 2 Y 1 X -1 Y 1 X 1 -1 d 1 X s 1847 1078 m -2 Y 2 X -1 Y 1 X -1 Y 1 X 4 Y 1 X 1 -1 d 1 -1 d 2 Y 1 X 1 -1 d s 1856 1077 m 4 Y -1 Y 1 X 2 Y 1 X 2 Y -1 Y 1 X -1 Y 1 X 1 2 d 1 2 d -1 Y 1 X -1 Y 1 X -1 Y s 1864 1083 m 1 X 2 Y 1 X -1 Y 1 X
 -1 Y 1 X -1 Y 1 X -1 Y 1 X -1 Y 3 X -1 Y s 1873 1079 m 1 X -1 Y 2 X 1 2 d 1 X -1 Y 1 X -1 Y 1 X -1 Y 2 X s 1882 1077 m 1 X -1 Y 1 -1 d -1 Y 1 X 3 Y -2 Y 4 X 1 -1 d 1 X s 1891 1074 m -2 Y 1 3 d 1 X -1 Y 1 2 d 5 Y 1 X -1 Y 1 X -1 Y 1 X 1 -1 d 1 X 1 -1
 d s 1900 1077 m 3 X 2 Y 1 X -2 Y 1 X 5 Y 2 X -2 Y 1 X -1 Y s 1908 1079 m 3 Y 1 X -1 Y 1 X 3 Y -1 Y 1 3 d 2 Y -2 Y 1 X -1 Y 1 X -1 Y 1 3 d -1 Y 1 X 1 Y 1 -1 d 3 Y -1 Y 1 X s 1917 1088 m 2 X -1 Y 1 -1 d 5 Y 1 X -1 Y 3 Y 1 X 3 Y 1 -1 d 3 Y 1 X -1 Y 3 Y
 1 -1 d 1 X -1 Y s 1926 1098 m 5 Y -1 Y 1 -1 d 1 X 6 Y 1 -1 d 3 Y 1 X -1 Y 1 X 3 Y -1 Y 1 X -1 Y 1 X -1 Y 1 X -1 Y 2 Y 1 X s 1935 1109 m -1 Y 1 X 1 3 d -2 Y 1 -1 d 1 -1 d -3 Y 1 X -1 Y 4 Y 1 X -1 Y 1 -1 d 3 Y 1 -1 d 4 Y 1 2 d s 1944 1113 m -2 Y 1 4 d
 -1 Y 2 X -1 Y 5 Y 1 -1 d 4 Y -2 Y 1 X -1 Y 1 -1 d 1 X -2 Y 1 X -1 Y s 1952 1114 m -1 Y 1 X -1 Y 5 Y 1 -1 d -1 Y 5 Y 2 X -3 Y 1 X -1 Y 1 X -3 Y 1 X -1 Y 1 X -1 Y 1 10 d s 1961 1121 m 5 Y 1 X -2 Y 2 X -2 Y 1 X -1 Y 1 X -2 Y 1 X 6 Y -1 Y 1 X -2 Y 1 X
 -2 Y 1 X s 1970 1120 m -1 Y 2 X -2 Y 1 -1 d -1 Y 1 -2 d -2 Y 1 -1 d -1 Y 1 X -1 Y 1 X -1 Y 6 Y 1 -1 d 1 X s 1979 1112 m -1 Y 1 X -2 Y 1 X 7 Y -1 Y 2 X -1 Y 1 X -1 Y 2 X 1 -1 d 1 X s 1988 1112 m -1 Y 1 X 1 -1 d 1 X -1 Y 1 X 1 7 d 2 X -1 Y 1 X s 1996
 1115 m -1 Y 3 X -1 Y 1 -2 d 8 Y 1 X -2 Y 1 X -1 Y 1 X -1 Y 1 X 1 -1 d s 2005 1114 m 1 X -1 Y 1 X 8 Y -1 Y 9 Y 2 X -1 Y 4 X 9 Y 1 X s 2014 1137 m -1 Y 2 X -1 Y 2 X -2 Y 1 X -3 Y 1 X -1 Y 1 X -2 Y 1 -1 d -3 Y 1 X s 2023 1123 m -2 Y 1 X 1 9 d -1 Y 1 X
 -4 Y 11 Y 1 X -1 Y 1 X -5 Y 1 X -3 Y 2 X -2 Y 1 X s 2032 1125 m 1 -1 d -3 Y 13 Y -3 Y 1 X -5 Y 1 X -8 Y 1 X -2 Y 1 -2 d 1 X -2 Y 1 X -2 Y 1 X -7 Y s 2040 1103 m 12 Y 1 17 d -5 Y s[  ] 0 sd 9 lw 0.49 0.6 0.82 c black 0 0 0.933333 c 245 1237 m 9 X s
 254 1237 m 6 X -1 Y 3 X s 263 1236 m 8 X s 271 1236 m 9 X s 280 1236 m 9 X s 289 1236 m 9 X s 298 1236 m 9 X s 307 1236 m 8 X s 315 1236 m 9 X s 324 1236 m 7 X 1 -1 d 1 X s 333 1235 m 9 X s 342 1235 m 9 X s 351 1235 m 8 X s 359 1235 m 9 X s 368 1235
 m -1 Y 9 X s 377 1234 m 9 X s 386 1234 m 9 X s 395 1234 m -1 Y 8 X s 403 1233 m 8 X -1 Y 1 X s 412 1232 m 9 X s 421 1232 m 9 X s 430 1232 m 9 X s 439 1232 m 8 X s 447 1232 m 1 X -1 Y 8 X s 456 1231 m 5 X -1 Y 4 X s 465 1230 m 6 X -1 Y 3 X s 474 1229
 m 9 X s 483 1229 m 8 X s 491 1229 m 9 X s 500 1229 m 9 X s 509 1229 m 9 X s 518 1229 m 9 X s 527 1229 m 1 X -1 Y 7 X s 535 1228 m 9 X s 544 1228 m 8 X 1 -1 d s 553 1227 m 9 X s 562 1227 m 9 X s 571 1227 m 8 X s 579 1227 m 7 X -1 Y 2 X s 588 1226 m 1
 X 1 -1 d 7 X s 597 1225 m 9 X s 606 1225 m 3 X -1 Y 6 X s 615 1224 m 8 X s 623 1224 m 9 X s 632 1224 m 9 X s 641 1224 m -1 Y 9 X s 650 1223 m 1 X 1 -1 d 7 X s 659 1222 m 8 X s 667 1222 m 9 X s 676 1222 m 4 X -1 Y 5 X s 685 1221 m 2 X 1 -1 d 3 X -1 Y
 3 X s 694 1219 m 2 X 1 -1 d 2 X -1 Y 4 X s 703 1217 m -1 Y 2 X 1 -1 d 2 X -1 Y 2 X -1 Y 1 X s 711 1213 m 7 X -1 Y 2 X s 720 1212 m 9 X s 729 1212 m 1 -1 d 4 X -1 Y 3 X -1 Y 1 X s 738 1209 m 9 X s 747 1209 m 1 X -1 Y 7 X s 755 1208 m 1 X -1 Y 8 X -1
 Y s 764 1206 m 8 X -1 Y 1 X s 773 1205 m 9 X s 782 1205 m 3 X -1 Y 6 X s 791 1204 m 6 X -1 Y 2 X s 799 1203 m 9 X s 808 1203 m 9 X s 817 1203 m 9 X s 826 1203 m 1 X -1 Y 8 X s 835 1202 m 8 X s 843 1202 m 5 X -1 Y 4 X s 852 1201 m 9 X s 861 1201 m 6
 X -1 Y 3 X s 870 1200 m 9 X s 879 1200 m 8 X s 887 1200 m 9 X s 896 1200 m 5 X -1 Y 4 X s 905 1199 m 9 X s 914 1199 m 9 X s 923 1199 m 2 X 1 -1 d 5 X s 931 1198 m 7 X 1 -1 d 1 X s 940 1197 m 8 X 1 -1 d s 949 1196 m 9 X s 958 1196 m 4 X -1 Y 5 X s
 967 1195 m 8 X -1 Y s 975 1194 m 7 X -1 Y 2 X s 984 1193 m 7 X -1 Y 2 X s 993 1192 m 2 X -1 Y 3 X -1 Y 2 X -1 Y 2 X s 1002 1189 m 1 X -1 Y 3 X 1 -1 d 3 X -1 Y 1 X s 1011 1186 m 1 X -1 Y 7 X -1 Y s 1019 1184 m 9 X -1 Y s 1028 1183 m 7 X -1 Y 2 X s
 1037 1182 m -1 Y 9 X s 1046 1181 m -1 Y 5 X -1 Y 4 X s 1055 1179 m -1 Y 8 X -1 Y s 1063 1177 m 7 X -1 Y 2 X s 1072 1176 m 5 X -1 Y 4 X s 1081 1175 m 1 X 1 -1 d 3 X -1 Y 4 X s 1090 1173 m 6 X -1 Y 3 X s 1099 1172 m 5 X -1 Y 3 X s 1107 1171 m 4 X -1 Y
 5 X s 1116 1170 m 5 X -1 Y 2 X -1 Y 2 X s 1125 1168 m 8 X -1 Y 1 X s 1134 1167 m 9 X s 1143 1167 m 4 X -1 Y 4 X s 1151 1166 m 7 X -1 Y 2 X s 1160 1165 m 9 X s 1169 1165 m 1 -1 d 8 X s 1178 1164 m 9 X s 1187 1164 m 1 X -1 Y 7 X s 1195 1163 m 2 X -1 Y
 7 X -1 Y s 1204 1161 m 6 X -1 Y 3 X s 1213 1160 m 2 X -1 Y 4 X -1 Y 2 X -1 Y 1 X s 1222 1157 m 2 X -1 Y 4 X -1 Y 3 X s 1231 1155 m 3 X -1 Y 4 X -1 Y 1 X s 1239 1153 m 2 X -1 Y 2 X 1 -1 d 3 X 1 -1 d s 1248 1150 m 3 X -1 Y 1 X -1 Y 2 X -1 Y 3 X -1 Y s
 1257 1146 m 1 X 1 -1 d 3 X -1 Y 3 X 1 -1 d s 1266 1143 m 4 X -1 Y 4 X -1 Y 1 X s 1275 1141 m -1 Y 1 X -1 Y 3 X -1 Y 2 X -1 Y 2 X -1 Y s 1283 1136 m 5 X -1 Y 4 X s 1292 1135 m 1 X -1 Y 6 X 1 -1 d 1 X s 1301 1133 m 4 X -1 Y 2 X -1 Y 3 X s 1310 1131 m
 1 X -1 Y 2 X -1 Y 1 X -1 Y 5 X s 1319 1128 m 1 X -1 Y 3 X -1 Y 2 X -1 Y 2 X s 1327 1125 m 1 X -1 Y 1 X -1 Y 2 X -1 Y 3 X 1 -1 d 1 X s 1336 1121 m 1 X -1 Y 5 X -1 Y 1 X 1 -1 d 1 X s 1345 1118 m 1 X -1 Y 1 X -1 Y 4 X -1 Y 1 X 1 -1 d 1 X s 1354 1114 m
 1 X -1 Y 2 X -1 Y 4 X -1 Y 2 X s 1363 1111 m -1 Y 1 X -1 Y 2 X -1 Y 1 X -1 Y 2 X -1 Y 1 X -1 Y 1 X -1 Y s 1371 1104 m 1 X 1 -1 d -1 Y 4 X -1 Y 2 X -1 Y 1 X s 1380 1100 m 1 -1 d 2 X -1 Y 3 X -1 Y 2 X -1 Y 1 X s 1389 1096 m 2 X -1 Y 1 X 1 -1 d 5 X -1
 Y s 1398 1093 m 3 X -1 Y 1 X -1 Y 2 X -1 Y 1 X -1 Y 1 X 1 -1 d s 1407 1088 m 1 X -1 Y 1 X -1 Y 1 X -2 Y 1 X -1 Y 1 X -1 Y 1 X -1 Y 1 X -1 Y 1 X -1 Y s 1415 1079 m 1 X -1 Y 1 X -1 Y 1 X -1 Y 1 -1 d 1 -1 d 1 X -1 Y 1 X -3 Y 2 X -1 Y s 1424 1069 m 1 X
 -1 Y 1 X -1 Y 1 X -1 Y 1 X -1 Y 1 X -1 Y 2 X -1 Y 1 X -1 Y 1 X s 1433 1062 m -1 Y 1 X -1 Y 1 X -2 Y 1 X -3 Y 1 X -1 Y 1 X -2 Y 1 X -1 Y 1 -1 d -1 Y 1 -1 d -1 Y 1 -1 d s 1442 1046 m -2 Y 1 X 1 -1 d -1 Y 1 -1 d -1 Y 1 X -1 Y 1 X -2 Y 1 X -1 Y 1 -1 d 1
 -1 d -1 Y 1 X s 1451 1033 m -1 Y 1 X -1 Y 1 X -1 Y 1 X -2 Y 1 X -2 Y 1 -1 d -1 Y 2 X -1 Y 1 X -1 Y s 1459 1022 m 1 X -1 Y 1 -1 d -1 Y 1 X -1 Y 1 X 1 -1 d -1 Y 1 X -1 Y 1 X -3 Y 1 X -2 Y 1 X -2 Y s 1468 1008 m 1 X -1 Y 1 -1 d -1 Y 1 X -1 Y 1 X -1 Y 1
 -1 d -1 Y 1 -1 d 1 X -2 Y 1 X -1 Y 1 -1 d -1 Y s 1477 995 m 1 X -2 Y 1 X -3 Y 1 X -2 Y 1 X -2 Y 1 -1 d -1 Y 1 X -2 Y 1 X -1 Y 1 X -1 Y 1 -1 d s 1486 979 m 1 X -1 Y 1 X -1 Y 1 X -1 Y 1 X -1 Y 1 X -1 Y 1 -1 d 1 -1 d 1 X -2 Y 1 -1 d s 1495 969 m 1 X -1
 Y 1 X -1 Y 1 X -1 Y 2 X -1 Y 1 X -1 Y 1 -1 d -2 Y 1 X -2 Y s 1503 959 m 1 X -1 Y 1 -1 d -2 Y 1 X 1 -1 d -1 Y 1 X -1 Y 1 -1 d 1 X -3 Y 1 X 1 -1 d -1 Y s 1512 946 m 2 X -1 Y 1 X -1 Y 1 X -1 Y 1 X -1 Y 1 X -1 Y 1 X -1 Y 2 X -1 Y s 1521 939 m 1 X -1 Y 1
 X -1 Y 1 X -1 Y 1 -1 d -1 Y 1 -1 d -1 Y 1 X -1 Y 1 X -1 Y 1 -1 d -2 Y 1 -1 d s 1530 926 m -1 Y 1 -1 d 1 X -3 Y 1 X -1 Y 1 X -1 Y 1 X -2 Y 1 X -1 Y 1 X -2 Y 1 -1 d -2 Y 1 -1 d s 1539 910 m -2 Y 1 -1 d -1 Y 1 X -1 Y 1 X -1 Y 1 X 1 -1 d -2 Y 1 X 1 -1 d
 -2 Y 1 X -2 Y s 1547 896 m 1 X -2 Y 1 X -2 Y 1 -1 d -2 Y 1 -1 d -1 Y 1 -1 d 1 -1 d -3 Y 1 -1 d -3 Y 1 X -3 Y 1 X -1 Y s 1556 874 m -1 Y 1 X -3 Y 1 X -2 Y 1 -1 d -2 Y 1 -1 d -2 Y 1 X -3 Y 1 -1 d 1 -1 d -4 Y 1 X -2 Y 1 X -1 Y s 1565 850 m -1 Y 1 -1 d
 -2 Y 1 X -2 Y 1 X -3 Y 1 -1 d -1 Y 1 -1 d -2 Y 1 -1 d -1 Y 1 -1 d -3 Y 1 -1 d -3 Y 1 -1 d -2 Y s 1574 823 m -2 Y 1 -1 d -2 Y 1 -1 d -5 Y 1 X -1 Y 1 -1 d -1 Y 1 -1 d -4 Y 1 X -4 Y 1 -1 d -2 Y 1 -1 d -3 Y 1 -1 d -1 Y s 1583 791 m -3 Y 1 -1 d -1 Y 1 -1
 d -3 Y 1 X -3 Y 1 X -2 Y 1 -2 d -3 Y 1 -1 d -2 Y 1 -1 d -5 Y 1 -1 d -4 Y s 1591 758 m 1 -1 d -3 Y 1 X -5 Y 1 -1 d -2 Y 1 -1 d -2 Y 1 -1 d -2 Y 1 X -4 Y 1 -1 d -3 Y 1 -1 d -3 Y 1 -1 d -2 Y s 1600 725 m 1 -1 d -3 Y 1 X -3 Y 1 -1 d -2 Y 1 -1 d -5 Y 1 X
 -4 Y 1 X -2 Y 1 X -4 Y 1 -1 d -5 Y 1 -1 d -3 Y s 1609 689 m -2 Y 1 -1 d -4 Y 1 -1 d -5 Y 1 X -4 Y 1 X -3 Y 1 X -3 Y 1 X -4 Y 1 -2 d -3 Y 1 -1 d -1 Y 1 -1 d -2 Y s 1618 652 m -3 Y 1 X -4 Y 1 X -3 Y 1 X -4 Y 1 X -4 Y 1 X -5 Y 1 -1 d -2 Y 1 -1 d -4 Y 1
 X -2 Y 1 -2 d -1 Y s 1627 616 m -2 Y 1 -1 d -3 Y 1 -1 d -3 Y 1 -2 d -4 Y 1 X -4 Y 1 -1 d -4 Y 1 -1 d -3 Y 1 X -3 Y 1 X -3 Y s 1635 581 m 1 -1 d -4 Y 1 X -5 Y 1 -1 d -5 Y 1 -1 d -3 Y 1 -1 d -4 Y 1 X -5 Y 1 X -4 Y 1 -1 d -1 Y 1 -1 d -3 Y s 1644 541 m
 1 -1 d -3 Y 1 X -2 Y 1 X -2 Y 1 -1 d -5 Y 1 -1 d -2 Y 1 X -4 Y 1 X -3 Y 1 -1 d -3 Y 1 X -3 Y s 1653 510 m -2 Y 1 X -3 Y 1 -1 d -3 Y 1 -1 d -2 Y 1 -2 d -5 Y 1 X -2 Y 1 -1 d -4 Y 1 X -3 Y 1 -1 d -3 Y 1 -1 d -2 Y s 1662 474 m -2 Y 1 X -3 Y 1 X -2 Y 1
 -1 d -2 Y 1 -1 d -1 Y 1 X -3 Y 1 -1 d -1 Y 1 X -2 Y 1 -1 d -1 Y 1 -1 d -1 Y s 1671 451 m -1 Y 1 X -2 Y 1 X -1 Y 1 X -2 Y 1 X -1 Y 1 X -2 Y 1 X -1 Y 1 X -2 Y 1 X -2 Y s 1679 437 m 2 X -2 Y 1 X -1 Y 1 X -2 Y 1 -1 d -1 Y 1 X 1 -1 d -1 Y 1 X 1 -1 d -1 Y
 s 1688 426 m 1 X -2 Y 1 X -1 Y 1 X -1 Y 1 X -1 Y 1 X -1 Y 1 X -1 Y 1 -1 d 1 X -1 Y 1 -1 d s 1697 416 m -1 Y 2 X -1 Y 1 X -1 Y 1 X -2 Y 1 X -1 Y 1 -1 d -1 Y 2 X -1 Y 1 X -1 Y s 1706 406 m -1 Y 2 X -2 Y 1 X -1 Y 1 X -1 Y 1 X -1 Y 1 X -1 Y 1 X -1 Y 1 X
 -1 Y 1 X s 1715 397 m -1 Y 1 X -1 Y 1 X -1 Y 1 -1 d -1 Y 1 X -1 Y 1 X -1 Y 1 X -1 Y 1 X -2 Y 1 X s 1723 387 m 1 -1 d 1 X -1 Y 1 -1 d 1 -1 d -1 Y 1 X -1 Y 1 -1 d -1 Y 1 X -1 Y 1 -1 d -2 Y 1 X -2 Y s 1732 373 m 1 X -1 Y 1 X -1 Y 2 X -1 Y 1 -1 d -1 Y 1
 X -1 Y 1 X 1 -1 d -1 Y 1 X -1 Y s 1741 364 m -1 Y 1 X -1 Y 1 X -2 Y 1 -1 d -1 Y 1 X -2 Y 1 X -3 Y 1 X -1 Y 1 -1 d -1 Y 1 X -1 Y 1 -1 d s 1750 348 m -1 Y 1 -1 d 1 X -1 Y 1 X -1 Y 1 -1 d 1 -1 d -1 Y 1 X -1 Y 1 X -1 Y 1 X 1 -1 d s 1759 338 m -1 Y 1 X
 -1 Y 1 X -1 Y 1 X -2 Y 1 X -1 Y 1 X -2 Y 1 X -1 Y 1 X -1 Y 1 X -1 Y s 1767 327 m 1 X -1 Y 1 -1 d 1 -1 d 1 X -2 Y 1 X 1 -1 d 2 X -1 Y 1 X -1 Y s 1776 319 m 1 X -1 Y 2 X 1 -1 d 1 -1 d 1 X -1 Y 1 X -1 Y 2 X -1 Y s 1785 313 m 1 X -1 Y 1 X -1 Y 2 X -1 Y
 1 X -1 Y 1 X -1 Y 1 X -1 Y 2 X s 1794 307 m -1 Y 2 X -1 Y 3 X -1 Y 2 X -1 Y 1 X 1 -1 d s 1803 302 m 1 X -1 Y 2 X -1 Y 2 X -1 Y 2 X -1 Y 1 X -2 Y 1 X s 1812 296 m 2 X -1 Y 3 X -1 Y 1 -1 d 2 X s 1820 293 m 3 X -1 Y 1 X 1 -1 d 1 X -1 Y 2 X -1 Y 1 X s
 1829 289 m 1 -1 d 2 X 1 -1 d 2 X -1 Y 1 X -1 Y 2 X s 1838 285 m 1 X -1 Y 2 X -1 Y 2 X -1 Y 2 X -1 Y 2 X s 1847 281 m -1 Y 2 X -1 Y 2 X -1 Y 4 X -1 Y 1 X s 1856 277 m 1 X -1 Y 2 X -1 Y 3 X 1 -1 d 1 X -1 Y s 1864 273 m 3 X -1 Y 2 X -1 Y 4 X -1 Y s
 1873 270 m 5 X -1 Y 1 X -1 Y 3 X s 1882 268 m 1 X -1 Y 2 X -1 Y 5 X -1 Y 1 X s 1891 265 m 2 X -1 Y 3 X -1 Y 3 X 1 -1 d s 1900 262 m 4 X -1 Y 3 X -1 Y 1 X s 1908 260 m 2 X -1 Y 1 X -1 Y 2 X -1 Y 2 X -1 Y 1 X -1 Y 1 X s 1917 255 m 3 X -1 Y 2 X 1 -1 d
 1 X 1 -1 d 1 X s 1926 252 m -1 Y 1 -1 d 3 X -1 Y 1 X 1 -1 d 2 X -1 Y 1 X s 1935 247 m -1 Y 2 X -1 Y 1 X 1 -1 d -1 Y 2 X 1 -1 d 1 X -1 Y 1 X s 1944 241 m -1 Y 1 X -1 Y 3 X -1 Y 1 X 1 -1 d 2 X -1 Y s 1952 236 m 2 X -1 Y 2 X -1 Y 2 X -1 Y 2 X -1 Y 1 X
 s 1961 232 m 3 X -1 Y 2 X -1 Y 2 X -1 Y 2 X s 1970 229 m -1 Y 3 X -1 Y 1 X -1 Y 3 X -1 Y 2 X s 1979 225 m 2 X -1 Y 7 X s 1988 224 m 1 X 1 -1 d 6 X s 1996 223 m 3 X -1 Y 3 X -1 Y 3 X s 2005 221 m 4 X -1 Y 5 X s 2014 220 m 5 X -1 Y 2 X 1 -1 d 1 X s
 2023 218 m 1 X 1 -1 d 1 X -1 Y 2 X -1 Y 4 X s 2032 215 m 1 X -1 Y 1 X -1 Y 1 X -1 Y 4 X -1 Y 1 X s 2040 211 m -1 Y 1 X s 1 0 0 c black 1 0 0 c 245 1237 m -135 Y 1 -13 d -51 Y 1 -8 d -36 Y 1 -10 d -53 Y 1 -8 d -30 Y 1 -3 d -13 Y 1 -2 d -13 Y 1 -3 d
 -7 Y 1 -2 d -7 Y 1 -1 d -1 Y s 254 841 m -3 Y 1 -2 d -6 Y 1 -2 d -5 Y 1 X -5 Y 1 -1 d -3 Y 1 -1 d -2 Y 1 X -3 Y 1 -1 d -2 Y 1 -1 d -1 Y 1 X s 263 803 m -2 Y 1 -1 d -3 Y 1 X -2 Y 1 -1 d -1 Y 1 -1 d -1 Y 1 -1 d 1 X -1 Y 1 X -1 Y 1 X -1 Y s 271 787 m 1
 X -3 Y 2 X -1 Y 1 X -1 Y 1 X -1 Y 2 X -1 Y 2 X s 280 780 m 1 X -1 Y 2 X -1 Y 1 -1 d 2 X 1 -1 d 1 -1 d 1 X s 289 775 m -1 Y 1 X -1 Y 1 X -1 Y 2 X -1 Y 2 X 1 -1 d -1 Y 1 X 1 -1 d s 298 768 m 2 X 1 -1 d 2 X 1 -1 d 1 X -1 Y 2 X s 307 765 m -1 Y 3 X -1 Y
 2 X -1 Y 3 X -1 Y s 315 761 m 3 X 1 -1 d 2 X -1 Y 1 X 1 -1 d 1 X s 324 758 m 1 X -1 Y 5 X -1 Y 3 X s 333 756 m 1 X 1 -1 d 5 X -1 Y 2 X s 342 754 m 1 X -1 Y 5 X -1 Y 3 X s 351 752 m 1 X -1 Y 2 X -1 Y 2 X -1 Y 2 X -1 Y 1 X s 359 748 m 7 X 1 -1 d 1 X s
 368 747 m 4 X -1 Y 5 X s 377 746 m 1 X -1 Y 2 X -1 Y 6 X s 386 744 m 3 X 1 -1 d 5 X s 395 743 m 3 X -1 Y 4 X -1 Y 1 X s 403 741 m 8 X -1 Y 1 X s 412 740 m 9 X s 421 740 m 2 X -1 Y 6 X -1 Y 1 X s 430 738 m 9 X s 439 738 m 4 X -1 Y 4 X s 447 737 m 8 X
 1 -1 d s 456 736 m 9 X s 465 736 m 9 X s 474 736 m 3 X -1 Y 6 X s 483 735 m 8 X s 491 735 m 9 X s 500 735 m 9 X s 509 735 m 3 X -1 Y 6 X s 518 734 m 9 X s 527 734 m 8 X s 535 734 m 4 X -1 Y 5 X s 544 733 m 4 X -1 Y 5 X s 553 732 m 7 X -1 Y 2 X s 562
 731 m 9 X s 571 731 m -1 Y 6 X -1 Y 2 X s 579 729 m 3 X -1 Y 6 X s 588 728 m 9 X -1 Y s 597 727 m 9 X s 606 727 m 9 X s 615 727 m 2 X -1 Y 6 X s 623 726 m 9 X s 632 726 m 5 X -1 Y 4 X s 641 725 m 9 X s 650 725 m 9 X s 659 725 m 3 X -1 Y 5 X s 667
 724 m 9 X s 676 724 m 9 X s 685 724 m 4 X -1 Y 5 X s 694 723 m 9 X s 703 723 m 1 X 1 -1 d 6 X s 711 722 m 5 X -1 Y 4 X s 720 721 m 9 X s 729 721 m -1 Y 9 X s 738 720 m 5 X -1 Y 4 X s 747 719 m 3 X -1 Y 5 X s 755 718 m 6 X -1 Y 3 X s 764 717 m 9 X s
 773 717 m -1 Y 9 X s 782 716 m 9 X s 791 716 m -1 Y 8 X s 799 715 m 2 X -1 Y 7 X s 808 714 m 9 X s 817 714 m 9 X s 826 714 m 3 X -1 Y 6 X s 835 713 m 8 X s 843 713 m 9 X s 852 713 m 1 X -1 Y 8 X s 861 712 m 9 X s 870 712 m 9 X s 879 712 m 8 X s 887
 712 m 9 X s 896 712 m 7 X -1 Y 2 X s 905 711 m 9 X s 914 711 m 9 X s 923 711 m 8 X s 931 711 m 9 X s 940 711 m 7 X -1 Y 2 X s 949 710 m 9 X s 958 710 m 9 X s 967 710 m 8 X s 975 710 m 9 X s 984 710 m 5 X -1 Y 4 X s 993 709 m 8 X -1 Y 1 X s 1002 708
 m 9 X s 1011 708 m 1 -1 d 7 X s 1019 707 m 4 X -1 Y 5 X s 1028 706 m 9 X s 1037 706 m 9 X s 1046 706 m 4 X -1 Y 5 X s 1055 705 m 4 X -1 Y 4 X s 1063 704 m 9 X s 1072 704 m 4 X -1 Y 5 X s 1081 703 m 4 X -1 Y 5 X s 1090 702 m 7 X 1 -1 d 1 X s 1099 701
 m 1 X 1 -1 d 6 X s 1107 700 m 9 X s 1116 700 m 8 X 1 -1 d s 1125 699 m 9 X s 1134 699 m 4 X 1 -1 d 4 X s 1143 698 m 8 X s 1151 698 m 9 X s 1160 698 m 8 X -1 Y 1 X s 1169 697 m 9 X s 1178 697 m 9 X s 1187 697 m 2 X -1 Y 6 X s 1195 696 m 9 X s 1204
 696 m 4 X -1 Y 5 X s 1213 695 m 9 X s 1222 695 m 1 -1 d 8 X s 1231 694 m 5 X -1 Y 3 X s 1239 693 m 7 X -1 Y 2 X s 1248 692 m 3 X -1 Y 6 X s 1257 691 m 3 X -1 Y 5 X -1 Y 1 X s 1266 689 m 9 X s 1275 689 m 1 X -1 Y 4 X -1 Y 2 X -1 Y 1 X s 1283 686 m 7
 X -1 Y 2 X s 1292 685 m 3 X -1 Y 5 X 1 -1 d s 1301 683 m 5 X -1 Y 4 X s 1310 682 m 5 X -1 Y 2 X -1 Y 1 X -1 Y 1 X s 1319 679 m 8 X -1 Y s 1327 678 m 1 X -1 Y 3 X -1 Y 2 X -1 Y 3 X s 1336 675 m 1 X -1 Y 2 X -1 Y 3 X 1 -1 d 2 X s 1345 672 m 3 X -1 Y 4
 X -1 Y 2 X -1 Y s 1354 669 m 2 X -1 Y 7 X s 1363 668 m -1 Y 2 X -1 Y 4 X -1 Y 2 X -1 Y s 1371 664 m 2 X -1 Y 1 X 1 -1 d 2 X -1 Y 2 X 1 -1 d s 1380 660 m 2 X -1 Y 3 X -1 Y 4 X s 1389 658 m 3 X -1 Y 3 X -1 Y 3 X s 1398 656 m -1 Y 1 X 1 -1 d 2 X -1 Y 2
 X -1 Y 2 X -1 Y 1 X s 1407 651 m -1 Y 1 X -1 Y 3 X -1 Y 1 X -1 Y 1 X -1 Y 1 X -1 Y 1 X -1 Y s 1415 644 m 1 -1 d 1 X -1 Y 2 X -1 Y 1 X 1 -1 d -2 Y 1 X 1 -1 d 1 X -1 Y s 1424 636 m -1 Y 2 X -1 Y 1 X -1 Y 1 X -1 Y 1 X -1 Y 1 X -1 Y 1 X -1 Y 1 -1 d -1 Y
 1 X -1 Y s 1433 626 m 1 -1 d -1 Y 1 X 1 -1 d -1 Y 1 X -1 Y 1 -1 d -2 Y 1 X -1 Y 1 X -2 Y 1 X -1 Y 1 X -2 Y s 1442 612 m -2 Y 1 X 1 -1 d 1 X -1 Y 1 -1 d 1 X -1 Y 1 X 1 -1 d -1 Y 2 X s 1451 604 m 1 -1 d -1 Y 1 X -1 Y 3 X -1 Y 1 X -2 Y 2 X -2 Y s 1459
 596 m 1 X -1 Y 1 X 1 -1 d 1 X -1 Y 1 X -1 Y 1 X 1 -1 d -1 Y 1 X -2 Y 1 X s 1468 588 m 1 X -1 Y 1 X -1 Y 2 X -1 Y 1 -1 d -2 Y 2 X -2 Y 1 X 1 -1 d s 1477 579 m 1 -1 d -1 Y 1 X -1 Y 1 X -1 Y 1 X -1 Y 1 X 1 -1 d -1 Y 1 X -1 Y 1 X -1 Y 1 X s 1486 570 m
 -1 Y 1 X 1 -1 d 1 -1 d -1 Y 1 X 1 -1 d 1 X 1 -1 d 1 X -1 Y 1 X s 1495 563 m 1 X -1 Y 1 X -1 Y 1 X -1 Y 2 X -1 Y 1 X -1 Y 1 X -1 Y 1 X s 1503 557 m 2 X -1 Y 4 X -2 Y 3 X -1 Y s 1512 553 m 1 X -1 Y 1 X -1 Y 1 X 1 -1 d 1 X -1 Y 2 X -1 Y 2 X s 1521 548
 m -1 Y 1 X -1 Y 1 X -1 Y 1 X -1 Y 1 X -1 Y 1 X -1 Y 1 X -1 Y 1 X -1 Y 2 X s 1530 540 m -1 Y 1 X -1 Y 1 X -1 Y 1 -1 d -1 Y 1 X -1 Y 1 X -1 Y 1 X 1 -1 d -1 Y 1 X -1 Y 1 X s 1539 530 m -1 Y 1 X -1 Y 1 X -2 Y 1 X -1 Y 1 X -1 Y 1 X -1 Y 2 X -2 Y 1 X -2 Y
 s 1547 519 m 1 X -1 Y 1 X -1 Y 1 X -1 Y 1 -1 d -1 Y 1 X -1 Y 1 X -1 Y 1 X -2 Y 1 X -2 Y 1 X -2 Y s 1556 506 m 1 -1 d -1 Y 1 -1 d -1 Y 1 X -2 Y 1 X -2 Y 1 X -1 Y 1 -1 d -3 Y 1 X -3 Y 1 X -2 Y 1 -1 d s 1565 487 m -1 Y 1 X -1 Y 1 -1 d 1 X -1 Y 1 X -1 Y
 1 X -2 Y 1 X 1 -1 d -1 Y 1 X -1 Y 1 -1 d s 1574 476 m -1 Y 1 -1 d 1 -1 d -2 Y 1 X -1 Y 1 X -2 Y 1 X -1 Y 1 -1 d -1 Y 1 -1 d -1 Y 1 -1 d -2 Y 1 X -1 Y s 1583 459 m 1 -1 d -2 Y 1 X -1 Y 1 X -2 Y 1 X 1 -1 d -1 Y 1 X -1 Y 1 X -2 Y 1 X -2 Y s 1591 446 m
 1 X -1 Y 1 X -2 Y 1 X -2 Y 1 -1 d -1 Y 1 -1 d -2 Y 1 X -3 Y 1 X -1 Y 1 X -1 Y 1 -1 d -2 Y s 1600 428 m 1 X -2 Y 1 X -3 Y 2 X -1 Y 1 -1 d -1 Y 1 X -2 Y 1 X -1 Y 1 -1 d -1 Y 1 X -2 Y s 1609 413 m -1 Y 1 -1 d -1 Y 1 -1 d -2 Y 1 X -2 Y 1 X -2 Y 1 -1 d
 -4 Y 1 -1 d -1 Y 1 X -2 Y 1 -1 d -1 Y 1 -1 d s 1618 391 m -3 Y 1 -1 d -1 Y 1 -1 d -3 Y 1 X -2 Y 1 -1 d -3 Y 1 X -2 Y 1 -1 d -2 Y 1 -1 d -1 Y 1 -1 d -1 Y 1 X -1 Y s 1627 366 m -2 Y 1 -1 d -3 Y 1 X -1 Y 1 X -2 Y 1 -1 d 1 X -2 Y 1 X -2 Y 1 -1 d -1 Y 1
 X -3 Y s 1635 347 m 1 X -2 Y 1 X -2 Y 1 -1 d -2 Y 1 -1 d -3 Y 1 -1 d -1 Y 1 -1 d -2 Y 1 X -3 Y 1 X -1 Y 1 -1 d -1 Y s 1644 325 m 1 -1 d -2 Y 1 X -3 Y 1 X -1 Y 1 -1 d -1 Y 1 X -2 Y 1 X -2 Y 1 X -2 Y 1 -1 d -1 Y 1 X -2 Y s 1653 306 m -1 Y 1 X -2 Y 1 X
 -2 Y 1 -1 d -2 Y 1 X -2 Y 1 X -2 Y 1 X -1 Y 1 -1 d -1 Y 1 -1 d -2 Y 1 X -1 Y s 1662 287 m -1 Y 1 -1 d -1 Y 1 -1 d -1 Y 1 X -1 Y 1 X -2 Y 1 -1 d -1 Y 1 X -1 Y 1 X -2 Y 1 X -1 Y 1 X s 1671 273 m 1 X -1 Y 2 X -1 Y 3 X -2 Y 1 X -1 Y 1 X -1 Y s 1679 267
 m 1 X -1 Y 1 X 1 -1 d 1 X -1 Y 4 X -1 Y 1 -1 d s 1688 262 m 1 X -1 Y 2 X -1 Y 4 X -1 Y 2 X s 1697 259 m 2 X -1 Y 3 X -1 Y 3 X -1 Y 1 X s 1706 256 m 2 X -1 Y 2 X -1 Y 2 X -1 Y 3 X s 1715 253 m 3 X -1 Y 1 X 1 -1 d 1 X -1 Y 1 X -1 Y 1 X -1 Y s 1723 248
 m 1 X -1 Y 3 X -1 Y 2 X -1 Y 2 X 1 -1 d s 1732 244 m 2 X -1 Y 2 X -1 Y 2 X -1 Y 1 X 1 -1 d -1 Y 1 X s 1741 239 m 1 X -1 Y 2 X 1 -1 d 1 X -1 Y 4 X s 1750 236 m -1 Y 3 X -1 Y 4 X -1 Y 2 X -1 Y s 1759 232 m 2 X -1 Y 2 X -1 Y 3 X -1 Y 1 X s 1767 229 m 1
 X -1 Y 5 X -1 Y 2 X 1 -1 d s 1776 226 m 4 X -1 Y 4 X 1 -1 d s 1785 224 m 7 X -1 Y 2 X s 1794 223 m 2 X -1 Y 7 X s 1803 222 m -1 Y 5 X -1 Y 4 X s 1812 220 m 3 X -1 Y 4 X -1 Y 1 X s 1820 218 m 4 X -1 Y 5 X s 1829 217 m 6 X -1 Y 3 X s 1838 216 m 9 X s
 1847 216 m 4 X -1 Y 5 X s 1856 215 m 1 X -1 Y 7 X s 1864 214 m 9 X s 1873 214 m 3 X 1 -1 d 5 X s 1882 213 m 9 X s 1891 213 m 3 X -1 Y 6 X s 1900 212 m 8 X s 1908 212 m -1 Y 7 X -1 Y 2 X s 1917 210 m 5 X -1 Y 4 X s 1926 209 m 2 X -1 Y 7 X s 1935 208
 m 1 X 1 -1 d 7 X s 1944 207 m 1 -1 d 7 X s 1952 206 m 2 X -1 Y 7 X s 1961 205 m 9 X s 1970 205 m 7 X -1 Y 2 X s 1979 204 m 9 X s 1988 204 m 8 X s 1996 204 m 9 X s 2005 204 m 2 X -1 Y 7 X s 2014 203 m 9 X s 2023 203 m 9 X s 2032 203 m 8 X s 2040 203
 m -1 Y 1 X s 0 0.666667 0 c 1 1 1 c black 0 0.666667 0 c 245 1107 m 31 Y 1 3 d 13 Y 1 2 d 9 Y 1 3 d 14 Y 1 3 d 8 Y 1 1 d 3 Y 1 1 d 4 Y 1 1 d 2 Y 1 X 2 Y 1 1 d s 254 1208 m 1 Y 1 X 2 Y 1 1 d 1 Y 1 X 2 Y 1 X 1 Y 1 X 1 Y 1 X 1 Y 1 X 1 Y 2 X s 263 1219
 m 1 Y 1 X 1 Y 1 X 1 Y 1 X 1 1 d 2 X 1 Y 2 X s 271 1224 m 1 X 1 Y 3 X 1 Y 5 X s 280 1226 m 1 X 1 Y 6 X 1 Y 2 X s 289 1228 m 1 X 1 1 d 5 X 1 Y 2 X s 298 1230 m 3 X 1 Y 6 X s 307 1231 m 4 X 1 Y 4 X s 315 1232 m 6 X 1 Y 3 X s 324 1233 m 4 X 1 Y 5 X s
 333 1234 m 9 X s 342 1234 m 6 X 1 1 d 2 X s 351 1235 m 6 X 1 Y 2 X s 359 1236 m 9 X s 368 1236 m 9 X s 377 1236 m 3 X 1 Y 6 X s 386 1237 m 1 X 1 -1 d 1 X 1 Y 6 X s 395 1237 m -1 Y 2 X 1 Y 6 X s 403 1237 m 9 X -1 Y s 412 1236 m 1 1 d 8 X s 421 1237 m
 9 X s 430 1237 m 9 X s 439 1237 m 8 X s 447 1237 m 9 X s 456 1237 m 9 X s 465 1237 m 5 X -1 Y 4 X s 474 1236 m 9 X s 483 1236 m 8 X s 491 1236 m 9 X s 500 1236 m 9 X s 509 1236 m 9 X s 518 1236 m 9 X s 527 1236 m 8 X s 535 1236 m 9 X s 544 1236 m 9
 X s 553 1236 m 9 X s 562 1236 m 9 X s 571 1236 m 6 X 1 Y 1 -1 d 1 X 1 Y s 579 1237 m 9 X s 588 1237 m 1 X -1 Y 8 X s 597 1236 m 9 X s 606 1236 m 9 X s 615 1236 m 8 X s 623 1236 m 9 X s 632 1236 m 9 X s 641 1236 m 5 X -1 Y 4 X s 650 1235 m 9 X s 659
 1235 m 8 X s 667 1235 m 9 X s 676 1235 m 7 X -1 Y 2 X s 685 1234 m 8 X -1 Y 1 X s 694 1233 m 4 X -1 Y 1 Y 1 X -1 Y 4 X s 703 1232 m 2 X -1 Y 3 X -1 Y 3 X s 711 1230 m 2 X 1 -1 d 2 X 1 Y 2 X -1 Y 2 X s 720 1229 m 9 X s 729 1229 m 5 X -1 Y 4 X s 738
 1228 m 9 X s 747 1228 m 3 X -1 Y 5 X s 755 1227 m 9 X s 764 1227 m 1 X -1 Y 8 X s 773 1226 m 9 X s 782 1226 m 8 X -1 Y 1 X s 791 1225 m 8 X s 799 1225 m 9 X s 808 1225 m 9 X s 817 1225 m 9 X s 826 1225 m 9 X s 835 1225 m 8 X s 843 1225 m 9 X s 852
 1225 m 9 X s 861 1225 m 5 X -1 Y 4 X s 870 1224 m 9 X s 879 1224 m 8 X s 887 1224 m 9 X s 896 1224 m 9 X s 905 1224 m 9 X s 914 1224 m 9 X s 923 1224 m 2 X 1 -1 d 5 X s 931 1223 m 9 X s 940 1223 m 6 X -1 Y 3 X s 949 1222 m 9 X s 958 1222 m 9 X s 967
 1222 m 3 X -1 Y 5 X s 975 1221 m 6 X 1 -1 d 2 X s 984 1220 m 9 X s 993 1220 m 2 X -1 Y 3 X -1 Y 4 X s 1002 1218 m 1 X -1 Y 5 X 1 -1 d 2 X s 1011 1216 m 4 X -1 Y 1 X 1 Y 2 X -1 Y 1 X s 1019 1215 m 9 X s 1028 1215 m 4 X -1 Y 5 X -1 Y s 1037 1213 m 9 X
 s 1046 1213 m 2 X -1 Y 2 X 1 Y -1 Y 5 X s 1055 1212 m 6 X -1 Y 2 X s 1063 1211 m 9 X s 1072 1211 m 2 X -1 Y 7 X s 1081 1210 m 2 X -1 Y 7 X s 1090 1209 m 7 X -1 Y 1 1 d 1 X s 1099 1209 m 5 X -1 Y 3 X s 1107 1208 m 7 X -1 Y 1 Y 2 X s 1116 1208 m -1 Y
 7 X -1 Y 1 X 1 1 d s 1125 1207 m 1 X -1 Y 8 X s 1134 1206 m 9 X s 1143 1206 m 8 X s 1151 1206 m 2 X -1 Y 7 X s 1160 1205 m 9 X s 1169 1205 m 1 -1 d 8 X s 1178 1204 m 9 X s 1187 1204 m 8 X s 1195 1204 m 5 X -1 Y 4 X s 1204 1203 m 6 X -1 Y 3 X s 1213
 1202 m 4 X 1 -1 d 3 X 1 -1 d s 1222 1200 m 5 X -1 Y 4 X s 1231 1199 m 4 X -1 Y 1 1 d 1 X -1 Y 2 X s 1239 1198 m 3 X 1 -1 d 1 X -1 Y 2 X 1 Y 2 X -1 Y s 1248 1196 m 4 X -1 Y 2 X -1 Y 1 X 1 Y 1 X 1 -1 d s 1257 1194 m 1 X 1 -1 d 1 X 1 Y -1 Y 6 X s 1266
 1193 m 1 X -1 Y 6 X 1 -1 d 1 X s 1275 1191 m -1 Y 4 X -1 Y 1 X 1 Y -1 Y 3 X s 1283 1189 m 1 X -1 Y 1 X 1 Y 1 -1 d 6 X s 1292 1188 m 8 X -1 Y 1 X s 1301 1187 m 6 X -1 Y 3 X s 1310 1186 m 3 X -1 Y 6 X s 1319 1185 m 3 X -1 Y 2 X -1 Y 1 Y 1 X -1 Y 2 X s
 1327 1183 m 4 X -1 Y 1 Y -1 Y 5 X -1 Y 1 Y -1 Y s 1336 1181 m 2 X 1 Y 3 X 1 -1 d 3 X -1 Y s 1345 1180 m 2 X 1 -1 d 1 Y 1 X -1 Y 4 X -1 Y 1 Y 1 -1 d 1 Y -1 Y s 1354 1178 m 5 X -1 Y 4 X s 1363 1177 m -1 Y 3 X 1 -1 d 2 X -1 Y 2 X -1 Y s 1371 1173 m 2 X
 -1 Y 1 X 1 Y 1 X -1 Y 2 X 1 Y -1 Y 3 X s 1380 1172 m 2 X -1 Y 1 Y 1 -1 d 3 X -1 Y 3 X s 1389 1170 m 2 X -1 Y 7 X s 1398 1169 m 3 X -1 Y 1 1 d -1 Y 2 X -1 Y 1 1 d -1 Y 2 X s 1407 1167 m 1 X -1 Y 2 X -2 Y 3 X -1 Y 2 X s 1415 1163 m 1 X -1 Y 1 X -1 Y 1
 X 1 -1 d 3 X -2 Y 1 1 d 1 X -1 Y s 1424 1158 m 2 X -1 Y 3 X -1 Y 1 Y -1 Y 2 X 1 1 d -1 Y 1 X s 1433 1156 m 2 X -1 Y 1 -1 d -1 Y 2 X -1 Y 1 X 1 -1 d 1 X -1 Y 1 X s 1442 1150 m -1 Y 2 X -1 Y 1 X -1 Y 1 X -1 Y 1 X -1 Y 1 X 1 -1 d 1 X -1 Y 1 X s 1451
 1143 m 1 X -1 Y 2 X -1 Y 1 X -2 Y 1 X -1 Y 3 X s 1459 1138 m 1 X -1 Y 1 X -1 Y 3 X -1 Y 1 X -1 Y 1 X 1 Y -2 Y 1 X -1 Y 1 -1 d s 1468 1131 m 1 X -1 Y 1 X -1 Y 1 Y -1 Y 1 X -1 Y 1 X 1 -1 d -1 Y 1 Y 2 X -1 Y 1 X -1 Y 1 X -1 Y s 1477 1124 m 1 X -1 Y 1 X
 -2 Y 1 X -1 Y 1 X -1 Y 1 -1 d 1 X -1 Y 1 X -1 Y 2 X s 1486 1116 m -1 Y 3 X -1 Y 2 X -1 Y 1 X -1 Y 2 X -1 Y 1 -1 d s 1495 1110 m 3 X -1 Y 2 X -1 Y 1 Y 1 X -1 Y 1 Y -1 Y 1 -1 d -1 Y 1 X -1 Y s 1503 1105 m 1 X -1 Y 1 X -2 Y 2 X -1 Y 1 X -1 Y 1 -1 d 1 X
 -2 Y 2 X -1 Y s 1512 1096 m 4 X -1 Y 1 X -1 Y 2 X -1 Y 1 Y 1 -1 d 1 X s 1521 1093 m 2 X -1 Y 1 X 1 -1 d 1 -1 d 1 -1 d 1 X -1 Y 1 X -1 Y 1 -1 d s 1530 1086 m -1 Y 2 X -2 Y 2 X -1 Y 1 X -1 Y 2 X -1 Y 1 -1 d -2 Y 1 X s 1539 1077 m -1 Y 1 -1 d -1 Y 1 Y
 -1 Y 1 X 1 Y -1 Y 3 X -2 Y 2 X -1 Y 1 Y -1 Y 1 X -1 Y s 1547 1070 m 1 X -1 Y 1 Y -1 Y 1 X -2 Y 1 X -2 Y 1 X 1 -1 d 1 X -1 Y 1 Y -2 Y 1 -1 d -2 Y 1 X -1 Y 1 -1 d s 1556 1057 m 1 X -2 Y 1 X -1 Y 1 Y 1 -1 d -2 Y 1 Y 1 -1 d -1 Y 1 X -2 Y 1 X 1 Y -1 Y 1
 X -2 Y 1 X -1 Y 1 X s 1565 1046 m -1 Y 1 -1 d -1 Y 1 Y 1 -1 d -1 Y 1 X -2 Y 1 -1 d -1 Y 1 X -1 Y 1 Y -1 Y 1 -1 d -1 Y 1 X -2 Y 1 -1 d -2 Y 1 -1 d -1 Y s 1574 1028 m -2 Y 1 X -2 Y 1 -1 d -3 Y 2 X -1 Y 1 -1 d -3 Y 1 X -1 Y 1 Y -2 Y 1 -1 d -1 Y 1 -1 d
 -1 Y 1 -1 d -1 Y s 1583 1007 m -3 Y 1 X 1 Y -1 Y 1 X -2 Y 1 -1 d -1 Y 1 Y -1 Y 1 X -2 Y 1 -2 d -2 Y 1 X -2 Y 1 -1 d -4 Y 1 X -3 Y s 1591 984 m 1 -1 d -2 Y 1 -1 d -3 Y 1 -1 d -1 Y 1 X -2 Y 1 X -1 Y 1 X -3 Y 1 X -2 Y 1 -1 d -2 Y 1 -1 d -1 Y s 1600 962
 m 1 -1 d -2 Y 1 X -2 Y 1 X -2 Y 1 -1 d -4 Y 1 1 d -4 Y 1 X -1 Y 1 X -3 Y 1 -1 d -4 Y 1 -1 d -2 Y s 1609 935 m -1 Y 1 -1 d -3 Y 1 X -5 Y 1 X -2 Y 1 -1 d 1 Y -2 Y 1 1 d -1 Y 1 X -4 Y 1 -2 d -2 Y 1 X -1 Y 1 Y 1 -1 d -2 Y s 1618 910 m -2 Y 1 Y 1 X -3 Y
 1 1 d -2 Y 1 X -3 Y 1 X -2 Y 1 -1 d -3 Y 1 X -1 Y 1 -1 d -3 Y 1 -1 d -1 Y 1 -1 d -1 Y s 1627 887 m -1 Y 1 -1 d -1 Y 1 -1 d -3 Y 1 -2 d -2 Y 1 -1 d -3 Y 1 -1 d -5 Y 1 X -2 Y 1 X -2 Y 1 -1 d -1 Y s 1635 860 m 1 -1 d -3 Y 1 X -4 Y 1 -1 d -4 Y 1 X -2 Y
 1 -1 d -3 Y 1 -1 d -3 Y 1 -1 d -2 Y 1 -1 d 1 -1 d -3 Y s 1644 829 m 1 Y 1 -1 d -3 Y 2 X -2 Y 1 X -5 Y 1 -1 d -2 Y 1 X -3 Y 1 X -2 Y 1 X -3 Y 1 X -3 Y s 1653 805 m -1 Y 1 X -3 Y 1 -1 d -3 Y 1 X -1 Y 1 -1 d -5 Y 1 X -2 Y 1 -1 d -4 Y 1 X -3 Y 1 X -2 Y
 1 -1 d -2 Y s 1662 775 m -2 Y 1 X -2 Y 1 X -2 Y 1 -1 d -2 Y 1 -1 d 1 Y -1 Y 1 X -3 Y 1 -1 d 1 Y -2 Y 1 1 d -1 Y 1 -1 d -2 Y 1 X -1 Y s 1671 756 m -2 Y 1 X -2 Y 1 X -1 Y 1 X -3 Y 1 X -1 Y 1 X -2 Y 1 X 1 Y -1 Y 1 X -1 Y 1 X -3 Y s 1679 741 m 1 X 1 Y 1
 X -2 Y 1 X -1 Y 1 X -2 Y 1 -1 d -2 Y 1 X 1 -1 d -1 Y 1 X 1 Y -1 Y 1 X -1 Y 1 Y -2 Y s 1688 730 m 1 X -2 Y 2 X -1 Y 1 Y -1 Y 1 X -2 Y 1 X -1 Y 1 Y 1 -1 d -2 Y 1 X -1 Y 1 Y 1 -1 d -1 Y 1 -1 d s 1697 719 m -1 Y 1 X 1 -1 d -1 Y 1 X -1 Y 1 Y -1 Y 1 X -2
 Y 1 X -2 Y 1 X -2 Y 1 X 1 Y -1 Y 1 X -1 Y 1 -1 d s 1706 707 m -2 Y 1 X 1 Y -1 Y 1 X -1 Y 1 X -2 Y 1 X -1 Y 1 X -1 Y 1 -1 d -1 Y 2 X -2 Y 1 X s 1715 696 m -1 Y 1 X -2 Y 1 X -1 Y 1 -1 d -1 Y 1 X -1 Y 1 X -2 Y 2 X -2 Y 1 X s 1723 685 m 1 X -1 Y 1 X -1
 Y 1 Y 1 -1 d -1 Y 1 -1 d -1 Y 1 -1 d -1 Y 1 -1 d -1 Y 1 X -2 Y 1 -1 d -2 Y 1 X -4 Y s 1732 667 m 1 X 1 -1 d 1 X -1 Y 1 X -1 Y 1 Y -1 Y 1 -1 d -2 Y 1 X 1 1 d -1 Y 1 -1 d -1 Y 1 Y 1 X -2 Y s 1741 658 m -1 Y 1 Y 1 -1 d -2 Y 1 X -2 Y 1 -1 d -2 Y 1 X -3
 Y 1 X -3 Y 1 -1 d -1 Y 1 -2 d -2 Y 1 -1 d -1 Y 1 X -1 Y s 1750 635 m -1 Y 1 -1 d -2 Y 1 X -1 Y 1 X -1 Y 1 -1 d 1 Y -1 Y 1 -1 d -2 Y 1 -1 d -1 Y 1 X -2 Y 1 X 1 Y 1 -1 d s 1759 621 m -1 Y 1 X -1 Y 1 -1 d 1 X -3 Y 1 -2 d -1 Y 1 X -3 Y 1 X -1 Y 1 X -1 Y
 1 X -2 Y s 1767 605 m 1 X -1 Y 1 -1 d -1 Y 1 Y -1 Y 1 -1 d 1 1 d -4 Y 1 X -2 Y 1 X -1 Y 2 X 1 Y -1 Y 1 X -2 Y s 1776 593 m 1 X 1 -1 d 1 X -1 Y 1 X -1 Y 1 X -1 Y 1 X -2 Y 1 X -2 Y 1 Y 2 X -1 Y s 1785 585 m -1 Y 1 X -1 Y 1 -1 d -2 Y 2 X -2 Y 1 X -1 Y
 1 -1 d -1 Y 1 X -1 Y 1 Y -2 Y 1 1 d 1 X s 1794 574 m -1 Y 1 X -1 Y 1 X -1 Y 1 X -1 Y 2 X -1 Y 1 X 1 -1 d 1 -1 d 1 Y -1 Y 1 -1 d s 1803 566 m 1 X -1 Y 1 -1 d 1 X -1 Y 1 X -1 Y 1 X -1 Y 1 Y -1 Y 1 X 1 -1 d -1 Y 1 X -3 Y 1 X s 1812 556 m 1 Y -1 Y 1 X
 -1 Y 1 X 1 -1 d 2 X -2 Y 1 -1 d 2 X -1 Y s 1820 550 m 2 X 1 1 d 1 X -1 Y 1 -1 d 1 X -1 Y 1 -1 d -1 Y 1 X 1 -1 d -1 Y s 1829 544 m 1 -1 d 1 -1 d 1 X -1 Y 1 X -1 Y 1 X 1 Y -1 Y 1 -1 d 1 Y -1 Y 1 X -2 Y 1 X -1 Y 1 X s 1838 536 m 1 X -2 Y 1 -1 d 1 Y 1 X
 -1 Y 1 X -1 Y 1 Y 1 -1 d -1 Y 1 X -1 Y 1 X -1 Y 1 X -1 Y 1 X s 1847 528 m -2 Y 2 X -1 Y 1 -1 d -1 Y 1 X -1 Y 1 Y 1 X 1 -1 d 1 -1 d 1 Y 1 X -1 Y 1 -1 d s 1856 520 m -1 Y 2 X 1 Y -1 Y 1 X -2 Y 1 X 1 1 d -1 Y 1 X -1 Y 1 X -2 Y 1 X -1 Y s 1864 513 m 2 X
 -1 Y 1 X -1 Y 1 X -2 Y 1 X -1 Y 1 X -2 Y 3 X -1 Y s 1873 505 m 1 X -1 Y 4 X -1 Y 1 -1 d -1 Y 3 X s 1882 501 m -1 Y 1 X -2 Y 1 X -1 Y 1 X -1 Y 4 X -1 Y 1 -1 d 1 X s 1891 494 m -2 Y 2 X -1 Y 1 X 1 Y 1 X -1 Y 1 X -1 Y 1 X 1 -1 d 1 X -1 Y 1 X s 1900 488
 m -1 Y 3 X 1 -1 d -1 Y 1 -1 d 1 Y 2 X -2 Y 1 X -1 Y s 1908 482 m 1 X -1 Y 1 X 1 Y -1 Y 1 X 1 Y -3 Y 1 -1 d 1 -1 d -1 Y 1 1 d -2 Y 1 X -1 Y 1 -1 d 1 Y -2 Y 1 X s 1917 472 m 2 X -1 Y 1 -1 d -1 Y 2 X 1 -1 d 1 Y 1 -1 d -1 Y 1 -1 d 1 X -2 Y s 1926 464 m
 -2 Y 2 X -1 Y 1 -1 d 1 Y 1 X -2 Y 1 X -1 Y 1 -1 d 1 X -2 Y 1 X -2 Y 1 X -1 Y s 1935 452 m -1 Y 2 X -3 Y 1 -1 d 1 -1 d -3 Y 1 X -2 Y 1 X 1 -2 d -1 Y 1 X 1 -2 d s 1944 436 m -3 Y 1 1 d -2 Y 3 X -3 Y 1 X -2 Y 1 -1 d 1 X -2 Y 1 X -1 Y s 1952 423 m -1 Y
 1 X -1 Y 1 -1 d -1 Y 1 Y 2 X -3 Y 1 X -2 Y 1 X -3 Y 1 X -1 Y 1 X -1 Y 1 X s 1961 410 m 1 Y -1 Y 1 X -2 Y 2 X -2 Y 1 X -2 Y 1 X -1 Y 1 X 1 Y -1 Y 1 -1 d -2 Y 1 X -2 Y 1 X s 1970 398 m -1 Y 2 X -2 Y 1 -1 d -1 Y 1 -2 d -2 Y 1 -1 d -1 Y 1 X -1 Y 1 X -1
 Y 1 -1 d 1 X s 1979 384 m -1 Y 1 X -2 Y 1 X 1 Y -1 Y 2 X -1 Y 1 X -1 Y 2 X 1 -1 d 1 X s 1988 378 m 1 X 1 -1 d 1 X -1 Y 5 X s 1996 376 m -1 Y 3 X -1 Y 1 -2 d 1 X -1 Y 1 X -1 Y 1 X -1 Y 1 X 1 -1 d s 2005 368 m 1 X -1 Y 1 X 1 Y -1 Y 2 X -1 Y 4 X 1 Y 1
 X s 2014 367 m -1 Y 2 X -1 Y 2 X -2 Y 1 X -2 Y 1 X -1 Y 1 X -2 Y 1 -1 d -2 Y 1 X s 2023 355 m -2 Y 2 X -1 Y 1 X -4 Y 1 Y 1 X -1 Y 1 X -4 Y 1 X -3 Y 2 X -1 Y 1 X s 2032 340 m 1 -1 d -2 Y 1 Y -3 Y 1 X -4 Y 1 X -5 Y 1 X -1 Y 1 -1 d 1 X -2 Y 1 X -1 Y 1
 X -4 Y s 2040 317 m -2 Y 1 X -3 Y s black 3 lw 245 201 m 1796 X s 245 241 m -40 Y s 335 221 m -20 Y s 425 221 m -20 Y s 514 221 m -20 Y s 604 241 m -40 Y s 694 221 m -20 Y s 784 221 m -20 Y s 874 221 m -20 Y s 963 241 m -40 Y s 1053 221 m -20 Y s
 1143 221 m -20 Y s 1233 221 m -20 Y s 1323 241 m -40 Y s 1412 221 m -20 Y s 1502 221 m -20 Y s 1592 221 m -20 Y s 1682 241 m -40 Y s 1772 221 m -20 Y s 1861 221 m -20 Y s 1951 221 m -20 Y s 2041 241 m -40 Y s 2041 241 m -40 Y s 245 201 m 1140 Y s
 291 201 m -46 X s 268 253 m -23 X s 268 305 m -23 X s 268 357 m -23 X s 291 408 m -46 X s 268 460 m -23 X s 268 512 m -23 X s 268 564 m -23 X s 291 616 m -46 X s 268 667 m -23 X s 268 719 m -23 X s 268 771 m -23 X s 291 823 m -46 X s 268 875 m -23 X
 s 268 926 m -23 X s 268 978 m -23 X s 291 1030 m -46 X s 268 1082 m -23 X s 268 1134 m -23 X s 268 1185 m -23 X s 291 1237 m -46 X s 291 1237 m -46 X s 268 1289 m -23 X s 268 1341 m -23 X s 0.490196 0.545098 0.615686 c 1 1 1 c 0.490196 0.545098
 0.615686 c 907 201 245 1341 bl 245 1341 m 907 X s 1152 1341 m 201 Y s 1152 1542 m -907 X s 245 1542 m -201 Y s black
 gsave  2268 1676 0 0 C 515.735 1471.36 t 0 r /Helvetica-Bold findfont 56.8825 sf 0 0 m (Signal efficiency) show NC gr  0 0 0.933333 c 9 lw 286 1492 m 190 X s black
 gsave  2268 1676 0 0 C 515.735 1368.97 t 0 r /Helvetica-Bold findfont 56.8825 sf 0 0 m (Background efficiency) show NC gr  1 0 0 c 286 1391 m 190 X s 0.490196 0.545098 0.615686 c 3 lw 1 1 1 c 0.490196 0.545098 0.615686 c 889 201 1152 1341 bl 1152
 1341 m 889 X s 2041 1341 m 201 Y s 2041 1542 m -889 X s 1152 1542 m -201 Y s black
 gsave  2268 1676 0 0 C 1418.27 1494.11 t 0 r /Helvetica-Bold findfont 56.8825 sf 0 0 m (Signal purity) show NC gr  0 0 0.933333 c[  52 12 ] 0 sd 6 lw 1192 1509 m 187 X s black
 gsave  2268 1676 0 0 C 1418.27 1429.65 t 0 r /Helvetica-Bold findfont 56.8825 sf 0 0 m (Signal efficiency*purity) show NC gr  0 0 0.933333 c[  22 12 ] 0 sd 1192 1441 m 187 X s black
 gsave  2268 1676 0 0 C 1501.7 1361.39 t 0 r /Helvetica-Bold findfont 56.8825 sf 0 0 m (S+B) show NC gr [  ] 0 sd 1483 1407 m 7 -49 d s 3 lw 1490 1358 m 8 64 d s 1498 1422 m 114 X s
 gsave  2268 1676 0 0 C 1418.27 1361.39 t 0 r /Helvetica-Bold findfont 56.8825 sf 0 0 m (S/) show NC gr  0 0.666667 0 c 9 lw 1192 1374 m 187 X s black 3 lw 245 1237 m 1796 X s
 gsave  2268 1676 0 0 C 337.503 386.801 t 0 r /Helvetica-Bold findfont 53.0904 sf 0 0 m (For 1000 signal and 1000 background) show NC gr 
 gsave  2268 1676 0 0 C 1058.01 318.542 t 0 r /Helvetica-Bold findfont 53.0904 sf 0 0 m ( is) show NC gr 
 gsave  2268 1676 0 0 C 955.626 318.542 t 0 r /Helvetica-Bold findfont 53.0904 sf 0 0 m (S+B) show NC gr  6 lw 933 360 m 7 -45 d s 3 lw 940 315 m 8 60 d s 948 375 m 110 X s
 gsave  2268 1676 0 0 C 337.503 318.542 t 0 r /Helvetica-Bold findfont 53.0904 sf 0 0 m (events the maximum S/) show NC gr 
 gsave  2268 1676 0 0 C 337.503 254.075 t 0 r /Helvetica-Bold findfont 53.0904 sf 0 0 m (25.58 when cutting at  0.11) show NC gr  0.490196 0.545098 0.615686 c 0.364706 0.419608 0.490196 c 1471 96 23 1572 bf 0.490196 0.545098 0.615686 c 23 1572 m 1471
 X s 1494 1572 m 96 Y s 1494 1668 m -1471 X s 23 1668 m -96 Y s 1 1 1 c black 1 1 1 c
 gsave  2268 1676 0 0 C 75.8434 1600.29 t 0 r /Helvetica-Bold findfont 75.8434 sf 0 0 m (Cut efficiencies and optimal cut value) show NC gr  0 0.666667 0 c 2041 201 m 1140 Y s 1995 201 m 46 X s 2018 242 m 23 X s 2018 282 m 23 X s 2018 323 m 23 X s
 2018 363 m 23 X s 1995 404 m 46 X s 2018 444 m 23 X s 2018 485 m 23 X s 2018 525 m 23 X s 2018 566 m 23 X s 1995 606 m 46 X s 2018 647 m 23 X s 2018 687 m 23 X s 2018 728 m 23 X s 2018 768 m 23 X s 1995 809 m 46 X s 2018 849 m 23 X s 2018 890 m 23 X
 s 2018 930 m 23 X s 2018 971 m 23 X s 1995 1011 m 46 X s 2018 1052 m 23 X s 2018 1092 m 23 X s 2018 1133 m 23 X s 2018 1173 m 23 X s 1995 1214 m 46 X s 1995 1214 m 46 X s 2018 1254 m 23 X s 2018 1295 m 23 X s 2018 1335 m 23 X s black 0 0.666667 0 c
 gsave  2268 1676 0 0 C 2051.56 178.232 t 0 r /Helvetica-Bold findfont 64.4669 sf 0 0 m (0) show NC gr  black 0 0.666667 0 c
 gsave  2268 1676 0 0 C 2051.56 379.217 t 0 r /Helvetica-Bold findfont 64.4669 sf 0 0 m (5) show NC gr  black 0 0.666667 0 c
 gsave  2268 1676 0 0 C 2051.56 580.202 t 0 r /Helvetica-Bold findfont 64.4669 sf 0 0 m (10) show NC gr  black 0 0.666667 0 c
 gsave  2268 1676 0 0 C 2051.56 784.979 t 0 r /Helvetica-Bold findfont 64.4669 sf 0 0 m (15) show NC gr  black 0 0.666667 0 c
 gsave  2268 1676 0 0 C 2051.56 985.964 t 0 r /Helvetica-Bold findfont 64.4669 sf 0 0 m (20) show NC gr  black 0 0.666667 0 c
 gsave  2268 1676 0 0 C 2051.56 1190.74 t 0 r /Helvetica-Bold findfont 64.4669 sf 0 0 m (25) show NC gr  black 0 0.666667 0 c
 gsave  2268 1676 0 0 C 2203.25 963.211 t 90 r /Helvetica-Bold findfont 64.4669 sf 0 0 m (Significance) show NC gr 
 gr  gr showpage
end
%%EOF
