%!PS-Adobe-2.0 EPSF-2.0
%%BoundingBox:  0 0 567 419
%%Title: dataset/plots/mvaeffs_SVM.eps: Cut efficiencies for SVM classifier
%%Creator: ROOT Version 6.12/06
%%CreationDate: Mon May 21 13:38:15 2018
%%DocumentNeededResources: ProcSet (FontSetInit)
%%EndComments
%%BeginProlog
80 dict begin
/s {stroke} def /l {lineto} def /m {moveto} def /t {translate} def
/r {rotate} def /rl {roll}  def /R {repeat} def
/d {rlineto} def /rm {rmoveto} def /gr {grestore} def /f {eofill} def
/c {setrgbcolor} def /black {0 setgray} def /sd {setdash} def
/cl {closepath} def /sf {scalefont setfont} def /lw {setlinewidth} def
/box {m dup 0 exch d exch 0 d 0 exch neg d cl} def
/NC{systemdict begin initclip end}def/C{NC box clip newpath}def
/bl {box s} def /bf {gsave box gsave f grestore 1 lw [] 0 sd s grestore} def /Y { 0 exch d} def /X { 0 d} def 
/K {{pop pop 0 moveto} exch kshow} bind def
/ita {/ang 15 def gsave [1 0 ang dup sin exch cos div 1 0 0] concat} def 
/mp {newpath /y exch def /x exch def} def
/side {[w .77 mul w .23 mul] .385 w mul sd w 0 l currentpoint t -144 r} def
/mr {mp x y w2 0 360 arc} def /m24 {mr s} def /m20 {mr f} def
/mb {mp x y w2 add m w2 neg 0 d 0 w neg d w 0 d 0 w d cl} def
/mt {mp x y w2 add m w2 neg w neg d w 0 d cl} def
/w4 {w 4 div} def
/w6 {w 6 div} def
/w8 {w 8 div} def
/m21 {mb f} def /m25 {mb s} def /m22 {mt f} def /m26{mt s} def
/m23 {mp x y w2 sub m w2 w d w neg 0 d cl f} def
/m27 {mp x y w2 add m w3 neg w2 neg d w3 w2 neg d w3 w2 d cl s} def
/m28 {mp x w2 sub y w2 sub w3 add m w3 0 d  0 w3 neg d w3 0 d 0 w3 d w3 0 d  0 w3 d w3 neg 0 d 0 w3 d w3 neg 0 d 0 w3 neg d w3 neg 0 d cl s } def
/m29 {mp gsave x w2 sub y w2 add w3 sub m currentpoint t 4 {side} repeat cl fill gr} def
/m30 {mp gsave x w2 sub y w2 add w3 sub m currentpoint t 4 {side} repeat cl s gr} def
/m31 {mp x y w2 sub m 0 w d x w2 sub y m w 0 d x w2 sub y w2 add m w w neg d x w2 sub y w2 sub m w w d s} def
/m32 {mp x y w2 sub m w2 w d w neg 0 d cl s} def
/m33 {mp x y w2 add m w3 neg w2 neg d w3 w2 neg d w3 w2 d cl f} def
/m34 {mp x w2 sub y w2 sub w3 add m w3 0 d  0 w3 neg d w3 0 d 0 w3 d w3 0 d  0 w3 d w3 neg 0 d 0 w3 d w3 neg 0 d 0 w3 neg d w3 neg 0 d cl f } def
/m35 {mp x y w2 add m w2 neg w2 neg d w2 w2 neg d w2 w2 d w2 neg w2 d x y w2 sub m 0 w d x w2 sub y m w 0 d s} def
/m36 {mb x w2 sub y w2 add m w w neg d x w2 sub y w2 sub m w w d s} def
/m37 {mp x y m w4 neg w2 d w4 neg w2 neg d w2 0 d  w4 neg w2 neg d w2 0 d w4 neg w2 d w2 0 d w4 neg w2 d w4 neg w2 neg d cl s} def
/m38 {mp x w4 sub y w2 add m w4 neg w4 neg d 0 w2 neg d w4 w4 neg d w2 0 d w4 w4 d 0 w2 d w4 neg w4 d w2 neg 0 d x y w2 sub m 0 w d x w2 sub y m w 0 d cl s} def
/m39 {mp x y m w4 neg w2 d w4 neg w2 neg d w2 0 d  w4 neg w2 neg d w2 0 d w4 neg w2 d w2 0 d w4 neg w2 d w4 neg w2 neg d cl f} def
/m40 {mp x y m w4 w2 d w4 w4 neg d w2 neg w4 neg d w2 w4 neg d w4 neg w4 neg d w4 neg w2 d w4 neg w2 neg d w4 neg w4 d w2 w4 d w2 neg w4 d w4 w4 d w4 w2 neg d cl s} def
/m41 {mp x y m w4 w2 d w4 w4 neg d w2 neg w4 neg d w2 w4 neg d w4 neg w4 neg d w4 neg w2 d w4 neg w2 neg d w4 neg w4 d w2 w4 d w2 neg w4 d w4 w4 d w4 w2 neg d cl f} def
/m42 {mp x y w2 add m w8 neg w2 -3 4 div mul d w2 -3 4 div mul w8 neg d w2 3 4 div mul w8 neg d w8 w2 -3 4 div mul d w8 w2 3 4 div mul d w2 3 4 div mul w8 d w2 -3 4 div mul w8 d w8 neg w2 3 4 div mul d cl s} def
/m43 {mp x y w2 add m w8 neg w2 -3 4 div mul d w2 -3 4 div mul w8 neg d w2 3 4 div mul w8 neg d w8 w2 -3 4 div mul d w8 w2 3 4 div mul d w2 3 4 div mul w8 d w2 -3 4 div mul w8 d w8 neg w2 3 4 div mul d cl f} def
/m44 {mp x y m w6 neg w2 d w2 2 3 div mul 0 d w6 neg w2 neg d w2 w6 d 0 w2 -2 3 div mul d w2 neg w6 d w6 w2 neg d w2 -2 3 div mul 0 d w6 w2 d w2 neg w6 neg d 0 w2 2 3 div mul d w2 w6 neg d cl s} def
/m45 {mp x y m w6 neg w2 d w2 2 3 div mul 0 d w6 neg w2 neg d w2 w6 d 0 w2 -2 3 div mul d w2 neg w6 d w6 w2 neg d w2 -2 3 div mul 0 d w6 w2 d w2 neg w6 neg d 0 w2 2 3 div mul d w2 w6 neg d cl f} def
/m46 {mp x y w4 add m w4 neg w4 d w4 neg w4 neg d  w4 w4 neg d w4 neg w4 neg d w4 w4 neg d w4 w4 d w4 w4 neg d w4 w4 d w4 neg w4 d w4 w4 d w4 neg w4 d w4 neg w4 neg d cl s} def
/m47 {mp x y w4 add m w4 neg w4 d w4 neg w4 neg d w4 w4 neg d w4 neg w4 neg d  w4 w4 neg d w4 w4 d w4 w4 neg d w4 w4 d w4 neg w4 d w4 w4 d w4 neg w4 d w4 neg w4 neg d cl f} def
/m48 {mp x y w4 add m w4 neg w4 d w4 neg w4 neg d w4 w4 neg d  w4 neg w4 neg d w4 w4 neg d w4 w4 d w4 w4 neg d w4 w4 d w4 neg w4 d w4 w4 d w4 neg w4 d w4 neg w4 neg d  w4 w4 neg d w4 neg w4 neg d w4 neg w4 d w4 w4 d cl f} def
/m49 {mp x w2 sub w3 add y w2 sub w3 add m  0 w3 neg d w3 0 d 0 w3 d w3 0 d 0 w3 d w3 neg 0 d 0 w3 d w3 neg 0 d 0 w3 neg d w3 neg 0 d 0 w3 neg d w3 0 d 0 w3 d w3 0 d 0 w3 neg d w3 neg 0 d cl f } def
/m2 {mp x y w2 sub m 0 w d x w2 sub y m w 0 d s} def
/m5 {mp x w2 sub y w2 sub m w w d x w2 sub y w2 add m w w neg d s} def
%%IncludeResource: ProcSet (FontSetInit)
%%IncludeResource: font Times-Roman
%%IncludeResource: font Times-Italic
%%IncludeResource: font Times-Bold
%%IncludeResource: font Times-BoldItalic
%%IncludeResource: font Helvetica
%%IncludeResource: font Helvetica-Oblique
%%IncludeResource: font Helvetica-Bold
%%IncludeResource: font Helvetica-BoldOblique
%%IncludeResource: font Courier
%%IncludeResource: font Courier-Oblique
%%IncludeResource: font Courier-Bold
%%IncludeResource: font Courier-BoldOblique
%%IncludeResource: font Symbol
%%IncludeResource: font ZapfDingbats
/reEncode {exch findfont dup length dict begin {1 index /FID eq  {pop pop} {def} ifelse } forall /Encoding exch def currentdict end dup /FontName get exch definefont pop } def [/Times-Bold /Times-Italic /Times-BoldItalic /Helvetica /Helvetica-Oblique
 /Helvetica-Bold /Helvetica-BoldOblique /Courier /Courier-Oblique /Courier-Bold /Courier-BoldOblique /Times-Roman /AvantGarde-Book /AvantGarde-BookOblique /AvantGarde-Demi /AvantGarde-DemiOblique /Bookman-Demi /Bookman-DemiItalic /Bookman-Light
 /Bookman-LightItalic /Helvetica-Narrow /Helvetica-Narrow-Bold /Helvetica-Narrow-BoldOblique /Helvetica-Narrow-Oblique /NewCenturySchlbk-Roman /NewCenturySchlbk-Bold /NewCenturySchlbk-BoldItalic /NewCenturySchlbk-Italic /Palatino-Bold
 /Palatino-BoldItalic /Palatino-Italic /Palatino-Roman ] {ISOLatin1Encoding reEncode } forall
%%EndProlog
%%BeginSetup
%%EndSetup
newpath  gsave  .25 .25 scale  gsave  0 0 t 0.490196 0.545098 0.615686 c[  ] 0 sd 3 lw 0.941176 0.941176 0.941176 c 2268 1676 0 0 bf black 1 1 0.992157 c 1796 1140 245 201 bf black 1796 1140 245 201 bl 1 1 0.992157 c 1796 1140 245 201 bf black 1796
 1140 245 201 bl 245 201 m 1796 X s[ 4 8] 0 sd 245 1341 m -1140 Y s 476 1341 m -1140 Y s 707 1341 m -1140 Y s 938 1341 m -1140 Y s 1169 1341 m -1140 Y s 1400 1341 m -1140 Y s 1631 1341 m -1140 Y s 1862 1341 m -1140 Y s 245 1341 m -1140 Y s 1862 1341
 m -1140 Y s[  ] 0 sd 245 201 m 1140 Y s[ 4 8] 0 sd 2041 201 m -1796 X s 2041 408 m -1796 X s 2041 616 m -1796 X s 2041 823 m -1796 X s 2041 1030 m -1796 X s 2041 1237 m -1796 X s 2041 1237 m -1796 X s 0 0 0.933333 c[  22 12 ] 0 sd 6 lw 0.49 0.6 0.82
 c black 0 0 0.933333 c 245 719 m 2 X 1 Y 7 X s 254 720 m 9 X s 263 720 m 8 X s 271 720 m 9 X s 280 720 m 6 X 1 Y 3 X s 289 721 m 9 X s 298 721 m 9 X s 307 721 m 6 X 1 Y 2 X s 315 722 m 9 X s 324 722 m 8 X 1 1 d s 333 723 m 9 X s 342 723 m 9 X s 351
 723 m 5 X 1 Y 3 X s 359 724 m 9 X s 368 724 m 1 Y 9 X s 377 725 m 4 X 1 Y 5 X s 386 726 m 9 X s 395 726 m 2 X 1 Y 6 X s 403 727 m 5 X 1 Y 4 X s 412 728 m 3 X 1 Y 6 X s 421 729 m 1 X 1 Y 5 X 1 1 d 2 X s 430 731 m 3 X 1 Y 6 X s 439 732 m 1 X 1 Y 5 X 1
 1 d 1 X s 447 734 m 4 X 1 Y 5 X 1 Y s 456 736 m 2 X 1 Y 4 X 1 Y 3 X s 465 738 m 1 X 1 Y 3 X 1 Y 3 X 1 Y 2 X s 474 741 m 1 X 1 Y 2 X 1 Y 3 X 1 Y 3 X s 483 744 m 1 Y 2 X 1 1 d 1 X 1 Y 3 X 1 Y 1 X s 491 748 m 1 X 1 Y 2 X 1 Y 2 X 1 Y 2 X 1 Y 2 X 1 Y s
 500 753 m 2 X 1 Y 2 X 1 Y 2 X 1 Y 2 X 1 Y 1 X s 509 757 m 1 X 1 Y 1 X 1 Y 2 X 1 Y 1 X 1 Y 2 X 1 Y 1 X 1 1 d s 518 763 m 1 X 1 1 d 1 X 1 Y 3 X 1 Y 1 X 1 Y 1 X 1 Y 1 X s 527 768 m 1 X 1 Y 1 X 1 Y 2 X 1 Y 1 X 1 Y 1 X 1 Y 2 X 1 Y s 535 774 m 1 X 1 Y 1 X
 1 1 d 1 X 1 Y 2 X 1 Y 1 X 1 Y 2 X 1 Y s 544 780 m 1 X 1 Y 2 X 2 Y 2 X 1 1 d 1 X 1 Y 1 X 1 Y 1 X s 553 786 m 1 Y 2 X 1 Y 1 X 1 Y 2 X 1 Y 2 X 1 Y 2 X 1 Y s 562 792 m 1 X 1 Y 2 X 1 Y 1 X 1 Y 2 X 1 Y 1 X 1 1 d 1 X s 571 797 m 1 X 1 Y 1 X 1 1 d 2 X 1 Y 1
 X 1 Y 2 X 1 Y s 579 802 m 1 X 1 Y 2 X 1 Y 2 X 1 1 d 1 X 1 Y 2 X 1 Y s 588 807 m 1 X 1 Y 3 X 1 Y 3 X 1 Y 2 X s 597 810 m 1 Y 2 X 1 Y 2 X 1 1 d 2 X 1 Y 1 X 1 1 d s 606 815 m 1 X 1 Y 2 X 1 Y 3 X 1 Y 2 X 1 Y 1 X s 615 819 m 2 X 1 Y 2 X 1 Y 2 X 1 Y 2 X 1
 Y s 623 823 m 3 X 1 Y 2 X 1 1 d 1 X 1 1 d 1 X s 632 826 m 1 X 1 Y 4 X 1 Y 3 X 1 Y 1 X s 641 829 m 1 X 1 Y 3 X 1 Y 2 X 1 Y 3 X s 650 832 m 1 X 1 Y 2 X 1 Y 3 X 1 Y 2 X 1 Y 1 X s 659 836 m 2 X 1 Y 2 X 1 1 d 2 X 1 Y 1 X s 667 839 m 2 X 1 Y 2 X 1 1 d 2 X
 1 Y 2 X s 676 842 m 3 X 1 Y 1 X 1 1 d 3 X 1 Y 1 X s 685 845 m 4 X 1 Y 4 X 1 Y 1 X s 694 847 m 2 X 1 Y 3 X 1 Y 4 X s 703 849 m 1 Y 6 X 1 Y 2 X s 711 851 m 5 X 1 Y 4 X s 720 852 m 2 X 1 Y 7 X s 729 853 m 1 1 d 6 X 1 Y 2 X s 738 855 m 1 X 1 1 d 4 X 1 Y
 3 X s 747 857 m 6 X 1 Y 2 X s 755 858 m 9 X 1 Y s 764 859 m 6 X 1 Y 3 X s 773 860 m 3 X 1 Y 6 X s 782 861 m 4 X 1 1 d 4 X s 791 862 m 7 X 1 Y 1 X s 799 863 m 5 X 1 Y 4 X s 808 864 m 4 X 1 1 d 4 X s 817 865 m 3 X 1 Y 6 X s 826 866 m 5 X 1 Y 4 X s 835
 867 m 7 X 1 Y 1 X s 843 868 m 9 X s 852 868 m 2 X 1 Y 7 X s 861 869 m 4 X 1 Y 5 X s 870 870 m 8 X 1 1 d s 879 871 m 8 X s 887 871 m 9 X 1 Y s 896 872 m 9 X s 905 872 m 2 X 1 Y 7 X s 914 873 m 8 X 1 1 d s 923 874 m 8 X s 931 874 m 9 X s 940 874 m 5 X
 1 Y 4 X s 949 875 m 9 X s 958 875 m 2 X 1 Y 7 X s 967 876 m 6 X 1 1 d 1 X s 975 877 m 9 X s 984 877 m 9 X s 993 877 m 1 X 1 Y 8 X s 1002 878 m 9 X s 1011 878 m 1 1 d 7 X s 1019 879 m 9 X s 1028 879 m 7 X 1 Y 2 X s 1037 880 m 9 X s 1046 880 m 9 X s
 1055 880 m 1 X 1 Y 7 X s 1063 881 m 9 X s 1072 881 m 5 X 1 Y 4 X s 1081 882 m 9 X s 1090 882 m 9 X s 1099 882 m 3 X 1 Y 5 X s 1107 883 m 9 X s 1116 883 m 9 X s 1125 883 m 9 X s 1134 883 m 1 X 1 Y 8 X s 1143 884 m 8 X s 1151 884 m 2 X 1 Y 7 X s 1160
 885 m 9 X s 1169 885 m 4 X 1 1 d 4 X s 1178 886 m 9 X s 1187 886 m 8 X s 1195 886 m 9 X s 1204 886 m 6 X 1 Y 3 X s 1213 887 m 9 X s 1222 887 m 9 X s 1231 887 m 8 X s 1239 887 m 1 X 1 Y 8 X s 1248 888 m 9 X s 1257 888 m 9 X s 1266 888 m 9 X s 1275
 888 m 8 X s 1283 888 m 5 X 1 1 d 3 X s 1292 889 m 9 X s 1301 889 m 9 X s 1310 889 m 9 X s 1319 889 m 8 X 1 Y s 1327 890 m 9 X s 1336 890 m 9 X s 1345 890 m 9 X s 1354 890 m 8 X 1 Y 1 X s 1363 891 m 8 X s 1371 891 m 9 X s 1380 891 m 9 X s 1389 891 m
 2 X 1 Y 7 X s 1398 892 m 9 X s 1407 892 m 8 X s 1415 892 m 6 X 1 Y 3 X s 1424 893 m 9 X s 1433 893 m 9 X s 1442 893 m 9 X s 1451 893 m 1 Y 8 X s 1459 894 m 9 X s 1468 894 m 6 X 1 1 d 2 X s 1477 895 m 9 X s 1486 895 m 9 X s 1495 895 m 1 1 d 7 X s
 1503 896 m 9 X s 1512 896 m 2 X 1 1 d 6 X s 1521 897 m 9 X s 1530 897 m 9 X s 1539 897 m 2 X 1 Y 6 X s 1547 898 m 9 X s 1556 898 m 9 X s 1565 898 m 3 X 1 Y 6 X s 1574 899 m 9 X s 1583 899 m 8 X s 1591 899 m 9 X s 1600 899 m 2 X 1 Y 5 X -1 Y 2 X s
 1609 899 m 1 X 1 1 d 1 X -1 Y 6 X s 1618 899 m 5 X 1 1 d 3 X s 1627 900 m 8 X s 1635 900 m 9 X s 1644 900 m 5 X -1 Y 4 X s 1653 899 m 9 X 1 Y s 1662 900 m 9 X s 1671 900 m 1 -1 d 1 X 1 Y 4 X -1 Y 2 X s 1679 899 m 9 X s 1688 899 m 6 X -1 Y 3 X s 1697
 898 m 9 X s 1706 898 m 4 X 1 -1 d 1 X 1 Y 1 -1 d 2 X s 1715 897 m 2 X -1 Y 6 X s 1723 896 m 1 X -1 Y 1 Y 1 X -1 Y 2 X 1 Y -1 Y 5 X s 1732 895 m 2 X -1 Y 1 1 d 1 -1 d 3 X -1 Y 2 X s 1741 893 m 4 X -1 Y 1 Y 1 X -1 Y 2 X 1 -1 d 1 1 d -1 Y s 1750 891 m
 3 X -1 Y 1 Y 1 X -1 Y 2 X -1 Y 3 X s 1759 889 m 1 X -1 Y 3 X -1 Y 1 Y 1 X -1 Y 3 X s 1767 887 m 1 X -1 Y 1 X 1 Y 1 -1 d 1 Y 1 X -1 Y 3 X -1 Y 1 X -1 Y 1 Y 1 X -1 Y s 1776 884 m 2 X -1 Y 2 X 1 -1 d 2 X -1 Y 2 X s 1785 881 m 1 X -1 Y 1 X -1 Y 2 X -1 Y
 1 Y 1 X -1 Y 1 X -1 Y 1 X 1 Y 1 -1 d 1 X s 1794 877 m -1 Y 3 X -1 Y 1 1 d 1 X -1 Y 2 X -1 Y 1 1 d -1 Y 1 X s 1803 874 m -1 Y 2 X 1 -1 d 1 X -1 Y 2 X -2 Y 1 X -1 Y 2 X s 1812 868 m -1 Y 2 X -1 Y 1 X -1 Y 3 X -1 Y 1 X -1 Y 1 X -1 Y s 1820 862 m 1 X 1
 -1 d -1 Y 1 X -1 Y 1 X -1 Y 1 X -2 Y 1 X -1 Y 1 X -1 Y 1 X -1 Y 1 X -1 Y s 1829 852 m 1 -1 d 1 X -1 Y 1 X -1 Y 1 Y -1 Y 1 X -1 Y 1 -1 d 1 Y -1 Y 1 X -2 Y 1 X -1 Y 1 X -1 Y 1 X s 1838 843 m 1 -1 d 1 X -1 Y 1 -1 d -2 Y 1 X -1 Y 1 -1 d 1 X -1 Y 1 X -1
 Y 1 X -1 Y 1 -1 d 1 Y s 1847 833 m -2 Y 1 X -1 Y 1 X -1 Y 1 X -1 Y 1 X -1 Y 1 -1 d -1 Y 2 X -1 Y 1 -1 d 1 X s 1856 823 m -3 Y 1 -1 d -1 Y 1 X -1 Y 1 X -2 Y 1 X -2 Y 1 -1 d -2 Y 1 -1 d 1 -1 d -3 Y 1 X -1 Y s 1864 804 m 1 X -2 Y 1 X -1 Y 1 X -1 Y 1 -1
 d -2 Y 1 X -1 Y 1 -1 d -2 Y 1 X -2 Y 1 X -2 Y 1 Y -1 Y 1 -1 d -1 Y s 1873 787 m 1 X -1 Y 1 X 1 -1 d 1 -1 d -1 Y 1 -1 d 1 -1 d -2 Y 1 X -3 Y 1 X -4 Y 1 X -1 Y s 1882 771 m -2 Y 1 -1 d -2 Y 1 -1 d -2 Y 1 X -3 Y 1 -1 d -2 Y 1 X -2 Y 1 X -3 Y 1 X -5 Y 1
 X -3 Y 1 -1 d -1 Y s 1891 742 m -4 Y 1 -1 d -2 Y 1 X -3 Y 1 X -3 Y 1 X -3 Y 1 -1 d -2 Y 1 -1 d -2 Y 1 -1 d -2 Y 1 X -3 Y 1 -1 d s 1900 713 m -3 Y 1 -2 d -3 Y 1 -1 d -4 Y 1 -1 d -2 Y 1 -1 d -4 Y 1 -1 d -4 Y 1 X -3 Y 1 -1 d -2 Y 1 -1 d -2 Y s 1908 678
 m -1 Y 1 X -4 Y 1 X -6 Y 1 -1 d -3 Y 1 X -6 Y 1 -1 d -5 Y 1 -1 d -6 Y 1 -1 d -4 Y 1 -1 d -3 Y 1 -1 d -3 Y s 1917 631 m -1 Y 1 -1 d -4 Y 1 -1 d -4 Y 1 -2 d -4 Y 1 -1 d -6 Y 1 -1 d -7 Y 1 -1 d -5 Y 1 -1 d -5 Y 1 -2 d -5 Y 1 -2 d -2 Y s 1926 576 m -3 Y
 1 -1 d -4 Y 1 -1 d -5 Y 1 -1 d -4 Y 1 -2 d -5 Y 1 -2 d -8 Y 1 -1 d -6 Y 1 -2 d -7 Y 1 -2 d -7 Y 1 -1 d -2 Y s 1935 512 m -7 Y 1 -3 d -5 Y 1 -3 d -11 Y 1 -1 d -14 Y 1 -3 d -17 Y 1 -6 d -21 Y 1 -3 d -7 Y 1 -3 d -11 Y 1 -1 d -10 Y 1 -3 d s 1944 383 m
 -8 Y 1 X -9 Y 1 -2 d -4 Y 1 -1 d -6 Y 1 -2 d -4 Y 1 -2 d -8 Y 1 -1 d -5 Y 1 -1 d -6 Y 1 -1 d -3 Y s 1952 320 m -1 Y 1 -1 d -5 Y 1 X -4 Y 1 X -3 Y 1 -1 d -5 Y 1 -2 d -4 Y 1 -1 d -5 Y 1 1 d -2 Y 1 -1 d -1 Y 1 X -4 Y s 1961 281 m 1 -1 d -2 Y 1 -1 d -2
 Y 1 -1 d -4 Y 1 X -4 Y 1 -1 d -3 Y 1 -1 d -1 Y 1 -1 d -4 Y 1 X -3 Y 1 -1 d s 1970 251 m -1 Y 1 X -2 Y 1 X -3 Y 1 X -2 Y 1 -1 d -3 Y 1 X -1 Y 1 -1 d -2 Y 1 X -3 Y 1 -1 d 1 -1 d s 1979 230 m -2 Y 1 X -1 Y 1 X -2 Y 1 X -1 Y 1 X -1 Y 1 X -1 Y 1 X -1 Y 1
 X -1 Y 1 X 1 -1 d s 1988 219 m -1 Y 1 X -1 Y 1 -1 d -1 Y 1 X 1 -1 d 1 X -1 Y 1 X 1 -1 d -1 Y 1 X s 1996 211 m 2 X -1 Y 1 X -1 Y 1 -1 d 2 X -1 Y 1 X -1 Y 2 X s 2005 206 m -1 Y 2 X -1 Y 5 X -1 Y 2 X s 2014 203 m 9 X s 2023 203 m 1 X -1 Y 8 X s 2032
 202 m 1 X -1 Y 7 X s 2040 201 m 1 X s black[  ] 0 sd 3 lw 245 201 m 1796 X s 245 241 m -40 Y s 291 221 m -20 Y s 337 221 m -20 Y s 384 221 m -20 Y s 430 221 m -20 Y s 476 241 m -40 Y s 522 221 m -20 Y s 568 221 m -20 Y s 615 221 m -20 Y s 661 221 m
 -20 Y s 707 241 m -40 Y s 753 221 m -20 Y s 799 221 m -20 Y s 846 221 m -20 Y s 892 221 m -20 Y s 938 241 m -40 Y s 984 221 m -20 Y s 1030 221 m -20 Y s 1077 221 m -20 Y s 1123 221 m -20 Y s 1169 241 m -40 Y s 1215 221 m -20 Y s 1261 221 m -20 Y s
 1308 221 m -20 Y s 1354 221 m -20 Y s 1400 241 m -40 Y s 1446 221 m -20 Y s 1492 221 m -20 Y s 1539 221 m -20 Y s 1585 221 m -20 Y s 1631 241 m -40 Y s 1677 221 m -20 Y s 1723 221 m -20 Y s 1770 221 m -20 Y s 1816 221 m -20 Y s 1862 241 m -40 Y s
 245 241 m -40 Y s 1862 241 m -40 Y s 1908 221 m -20 Y s 1955 221 m -20 Y s 2001 221 m -20 Y s
 gsave  2268 1676 0 0 C 223.738 128.934 t 0 r /Helvetica-Bold findfont 64.4669 sf 0 0 m (0) show NC gr 
 gsave  2268 1676 0 0 C 432.307 128.934 t 0 r /Helvetica-Bold findfont 64.4669 sf 0 0 m (0.1) show NC gr 
 gsave  2268 1676 0 0 C 659.837 128.934 t 0 r /Helvetica-Bold findfont 64.4669 sf 0 0 m (0.2) show NC gr 
 gsave  2268 1676 0 0 C 891.159 128.934 t 0 r /Helvetica-Bold findfont 64.4669 sf 0 0 m (0.3) show NC gr 
 gsave  2268 1676 0 0 C 1122.48 128.934 t 0 r /Helvetica-Bold findfont 64.4669 sf 0 0 m (0.4) show NC gr 
 gsave  2268 1676 0 0 C 1353.8 128.934 t 0 r /Helvetica-Bold findfont 64.4669 sf 0 0 m (0.5) show NC gr 
 gsave  2268 1676 0 0 C 1585.13 128.934 t 0 r /Helvetica-Bold findfont 64.4669 sf 0 0 m (0.6) show NC gr 
 gsave  2268 1676 0 0 C 1816.45 128.934 t 0 r /Helvetica-Bold findfont 64.4669 sf 0 0 m (0.7) show NC gr 
 gsave  2268 1676 0 0 C 913.913 30.3373 t 0 r /Helvetica-Bold findfont 72.0512 sf 0 0 m (Cut value applied on SVM output) show NC gr  245 201 m 1140 Y s 291 201 m -46 X s 268 253 m -23 X s 268 305 m -23 X s 268 357 m -23 X s 291 408 m -46 X s 268 460
 m -23 X s 268 512 m -23 X s 268 564 m -23 X s 291 616 m -46 X s 268 667 m -23 X s 268 719 m -23 X s 268 771 m -23 X s 291 823 m -46 X s 268 875 m -23 X s 268 926 m -23 X s 268 978 m -23 X s 291 1030 m -46 X s 268 1082 m -23 X s 268 1134 m -23 X s
 268 1185 m -23 X s 291 1237 m -46 X s 291 1237 m -46 X s 268 1289 m -23 X s 268 1341 m -23 X s
 gsave  2268 1676 0 0 C 182.024 178.232 t 0 r /Helvetica-Bold findfont 64.4669 sf 0 0 m (0) show NC gr 
 gsave  2268 1676 0 0 C 128.934 383.009 t 0 r /Helvetica-Bold findfont 64.4669 sf 0 0 m (0.2) show NC gr 
 gsave  2268 1676 0 0 C 125.142 591.578 t 0 r /Helvetica-Bold findfont 64.4669 sf 0 0 m (0.4) show NC gr 
 gsave  2268 1676 0 0 C 128.934 796.355 t 0 r /Helvetica-Bold findfont 64.4669 sf 0 0 m (0.6) show NC gr 
 gsave  2268 1676 0 0 C 125.142 1004.92 t 0 r /Helvetica-Bold findfont 64.4669 sf 0 0 m (0.8) show NC gr 
 gsave  2268 1676 0 0 C 189.608 1213.49 t 0 r /Helvetica-Bold findfont 64.4669 sf 0 0 m (1) show NC gr 
 gsave  2268 1676 0 0 C 64.4669 731.888 t 90 r /Helvetica-Bold findfont 72.0512 sf 0 0 m (Efficiency \(Purity\)) show NC gr  0 0 0.933333 c[  52 12 ] 0 sd 6 lw 0.49 0.6 0.82 c black 0 0 0.933333 c 245 719 m 2 X 1 Y 7 X s 254 720 m 9 X s 263 720 m 8 X
 s 271 720 m 9 X s 280 720 m 6 X 1 Y 3 X s 289 721 m 9 X s 298 721 m 9 X s 307 721 m 6 X 1 Y 2 X s 315 722 m 9 X s 324 722 m 8 X 1 1 d s 333 723 m 9 X s 342 723 m 9 X s 351 723 m 5 X 1 Y 3 X s 359 724 m 9 X s 368 724 m 1 Y 9 X s 377 725 m 4 X 1 Y 5 X
 s 386 726 m 9 X s 395 726 m 2 X 1 Y 6 X s 403 727 m 5 X 1 Y 4 X s 412 728 m 3 X 1 Y 6 X s 421 729 m 1 X 1 Y 5 X 1 1 d 2 X s 430 731 m 3 X 1 Y 6 X s 439 732 m 1 X 1 Y 5 X 1 1 d 1 X s 447 734 m 4 X 1 Y 5 X 1 Y s 456 736 m 2 X 1 Y 4 X 1 Y 3 X s 465 738
 m 1 X 1 Y 3 X 1 Y 3 X 1 Y 2 X s 474 741 m 1 X 1 Y 2 X 1 Y 3 X 1 Y 3 X s 483 744 m 1 Y 2 X 1 1 d 1 X 1 Y 3 X 1 Y 1 X s 491 748 m 1 X 1 Y 2 X 1 Y 2 X 1 Y 2 X 1 Y 2 X 1 Y s 500 753 m 2 X 1 Y 2 X 1 Y 2 X 1 Y 2 X 1 Y 1 X s 509 757 m 1 X 1 Y 1 X 1 Y 2 X 1
 Y 1 X 1 Y 2 X 1 Y 1 X 1 1 d s 518 763 m 1 X 1 1 d 1 X 1 Y 3 X 1 Y 1 X 1 Y 1 X 1 Y 1 X s 527 768 m 1 X 1 Y 1 X 1 Y 2 X 1 Y 1 X 1 Y 1 X 1 Y 2 X 1 Y s 535 774 m 1 X 1 Y 1 X 1 1 d 1 X 1 Y 2 X 1 Y 1 X 1 Y 2 X 1 Y s 544 780 m 1 X 1 Y 2 X 2 Y 2 X 1 1 d 1 X
 1 Y 1 X 1 Y 1 X s 553 786 m 1 Y 2 X 1 Y 1 X 1 Y 2 X 1 Y 2 X 1 Y 2 X 1 Y s 562 792 m 1 X 1 Y 2 X 1 Y 1 X 1 Y 2 X 1 Y 1 X 1 1 d 1 X s 571 797 m 1 X 1 Y 1 X 1 1 d 2 X 1 Y 1 X 1 Y 2 X 1 Y s 579 802 m 1 X 1 Y 2 X 1 Y 2 X 1 1 d 1 X 1 Y 2 X 1 Y s 588 807 m
 1 X 1 Y 3 X 1 Y 3 X 1 Y 2 X s 597 810 m 1 Y 2 X 1 Y 2 X 1 1 d 2 X 1 Y 1 X 1 1 d s 606 815 m 1 X 1 Y 2 X 1 Y 3 X 1 Y 2 X 1 Y 1 X s 615 819 m 2 X 1 Y 2 X 1 Y 2 X 1 Y 2 X 1 Y s 623 823 m 3 X 1 Y 2 X 1 1 d 1 X 1 1 d 1 X s 632 826 m 1 X 1 Y 4 X 1 Y 3 X 1
 Y 1 X s 641 829 m 1 X 1 Y 3 X 1 Y 2 X 1 Y 3 X s 650 832 m 1 X 1 Y 2 X 1 Y 3 X 1 Y 2 X 1 Y 1 X s 659 836 m 2 X 1 Y 2 X 1 1 d 2 X 1 Y 1 X s 667 839 m 2 X 1 Y 2 X 1 1 d 2 X 1 Y 2 X s 676 842 m 3 X 1 Y 1 X 1 1 d 3 X 1 Y 1 X s 685 845 m 4 X 1 Y 4 X 1 Y 1
 X s 694 847 m 2 X 1 Y 3 X 1 Y 4 X s 703 849 m 1 Y 6 X 1 Y 2 X s 711 851 m 5 X 1 Y 4 X s 720 852 m 2 X 1 Y 7 X s 729 853 m 1 1 d 6 X 1 Y 2 X s 738 855 m 1 X 1 1 d 4 X 1 Y 3 X s 747 857 m 6 X 1 Y 2 X s 755 858 m 9 X 1 Y s 764 859 m 6 X 1 Y 3 X s 773
 860 m 3 X 1 Y 6 X s 782 861 m 4 X 1 1 d 4 X s 791 862 m 7 X 1 Y 1 X s 799 863 m 5 X 1 Y 4 X s 808 864 m 4 X 1 1 d 4 X s 817 865 m 3 X 1 Y 6 X s 826 866 m 5 X 1 Y 4 X s 835 867 m 7 X 1 Y 1 X s 843 868 m 9 X s 852 868 m 2 X 1 Y 7 X s 861 869 m 4 X 1 Y
 5 X s 870 870 m 8 X 1 1 d s 879 871 m 8 X s 887 871 m 9 X 1 Y s 896 872 m 9 X s 905 872 m 2 X 1 Y 7 X s 914 873 m 8 X 1 1 d s 923 874 m 8 X s 931 874 m 9 X s 940 874 m 5 X 1 Y 4 X s 949 875 m 9 X s 958 875 m 2 X 1 Y 7 X s 967 876 m 6 X 1 1 d 1 X s
 975 877 m 9 X s 984 877 m 9 X s 993 877 m 1 X 1 Y 8 X s 1002 878 m 9 X s 1011 878 m 1 1 d 7 X s 1019 879 m 9 X s 1028 879 m 7 X 1 Y 2 X s 1037 880 m 9 X s 1046 880 m 9 X s 1055 880 m 1 X 1 Y 7 X s 1063 881 m 9 X s 1072 881 m 5 X 1 Y 4 X s 1081 882 m
 9 X s 1090 882 m 9 X s 1099 882 m 3 X 1 Y 5 X s 1107 883 m 9 X s 1116 883 m 9 X s 1125 883 m 9 X s 1134 883 m 1 X 1 Y 8 X s 1143 884 m 8 X s 1151 884 m 2 X 1 Y 7 X s 1160 885 m 9 X s 1169 885 m 4 X 1 1 d 4 X s 1178 886 m 9 X s 1187 886 m 8 X s 1195
 886 m 9 X s 1204 886 m 6 X 1 Y 3 X s 1213 887 m 9 X s 1222 887 m 9 X s 1231 887 m 8 X s 1239 887 m 1 X 1 Y 8 X s 1248 888 m 9 X s 1257 888 m 9 X s 1266 888 m 9 X s 1275 888 m 8 X s 1283 888 m 5 X 1 1 d 3 X s 1292 889 m 9 X s 1301 889 m 9 X s 1310
 889 m 9 X s 1319 889 m 8 X 1 Y s 1327 890 m 9 X s 1336 890 m 9 X s 1345 890 m 9 X s 1354 890 m 8 X 1 Y 1 X s 1363 891 m 8 X s 1371 891 m 9 X s 1380 891 m 9 X s 1389 891 m 2 X 1 Y 7 X s 1398 892 m 9 X s 1407 892 m 8 X s 1415 892 m 6 X 1 Y 3 X s 1424
 893 m 9 X s 1433 893 m 9 X s 1442 893 m 9 X s 1451 893 m 1 Y 8 X s 1459 894 m 9 X s 1468 894 m 6 X 1 1 d 2 X s 1477 895 m 9 X s 1486 895 m 9 X s 1495 895 m 1 1 d 7 X s 1503 896 m 9 X s 1512 896 m 2 X 1 1 d 6 X s 1521 897 m 9 X s 1530 897 m 7 X 1 Y 2
 X s 1539 898 m 8 X s 1547 898 m 9 X s 1556 898 m 4 X 1 1 d 4 X s 1565 899 m 7 X 1 Y 2 X s 1574 900 m 9 X s 1583 900 m 8 X s 1591 900 m 1 X 1 Y 8 X s 1600 901 m 9 X s 1609 901 m 9 X s 1618 901 m 6 X 1 Y 3 X s 1627 902 m 8 X s 1635 902 m 9 X s 1644
 902 m 9 X s 1653 902 m 3 X 1 Y 6 X s 1662 903 m 9 X s 1671 903 m 3 X 1 Y 5 X s 1679 904 m 9 X s 1688 904 m 9 X s 1697 904 m 2 X 1 Y -1 Y 1 X 1 Y 6 X s 1706 905 m 9 X s 1715 905 m 8 X s 1723 905 m 5 X 1 Y 1 X -1 Y 1 X 1 Y 1 -1 d 1 Y 1 X s 1732 906 m
 7 X -1 Y 1 Y 2 X s 1741 906 m 9 X s 1750 906 m 3 X -1 Y 1 Y 1 X -1 Y 5 X s 1759 905 m 8 X s 1767 905 m 2 X 1 Y 5 X -1 Y 2 X 1 Y s 1776 906 m 1 X -1 Y 8 X s 1785 905 m 9 X s 1794 905 m 5 X 1 1 d 1 X -1 Y 1 1 d 1 X s 1803 906 m 2 X 1 -1 d 6 X s 1812
 905 m 8 X s 1820 905 m 5 X -1 Y 3 X -1 Y 1 Y 1 X -1 Y s 1829 903 m 4 X 1 -1 d 1 Y -1 Y 4 X s 1838 902 m 2 X 1 -1 d 2 X -1 Y 4 X s 1847 900 m 4 X -1 Y 5 X s 1856 899 m -1 Y 4 X -1 Y 1 X -1 Y 2 X 1 -1 d 1 Y -1 Y s 1864 895 m 4 X -1 Y 1 Y -1 Y 1 1 d -1
 Y 1 Y 1 -1 d 3 X s 1873 894 m -1 Y 1 1 d 6 X -1 Y 1 X -1 Y 1 X s 1882 892 m -1 Y 2 X 1 -1 d 2 X -1 Y 2 X -2 Y 1 X -1 Y 1 X s 1891 886 m -1 Y 1 X -1 Y 1 1 d -1 Y 2 X -1 Y 2 X -1 Y 1 X -1 Y 1 1 d -1 Y 1 X s 1900 881 m 1 -1 d 1 Y -1 Y 1 X -1 Y 1 -1 d 1
 Y 1 X -1 Y 1 -1 d -1 Y 2 X -1 Y 1 Y -1 Y 1 X s 1908 875 m 1 X -1 Y 1 X -1 Y 2 X -1 Y 1 X -1 Y 1 X -1 Y 1 X -1 Y 1 X 1 Y -1 Y 1 X s 1917 869 m 1 Y 1 -1 d 1 X -1 Y 1 Y 1 -1 d -1 Y 2 X 1 Y -2 Y 1 X -1 Y 1 1 d 2 Y -1 Y 1 X -1 Y 1 Y 1 X 1 Y s 1926 868 m
 1 Y -1 Y 1 Y 1 X 2 Y 1 1 d 3 Y 1 1 d 2 Y 1 X 2 Y 1 X 2 Y 1 1 d 2 Y 1 X 4 Y 1 X 2 Y -1 Y 1 Y 1 2 d 1 Y s 1935 894 m 5 Y 1 X 8 Y 1 X 6 Y 1 3 d 9 Y 1 1 d 6 Y 1 1 d 2 Y -1 Y 3 Y 1 1 d 11 Y 1 1 d -1 Y 3 Y -1 Y 7 Y 1 3 d 4 Y -1 Y 3 Y 1 1 d s 1944 968 m -2
 Y 13 Y -2 Y 1 6 d 12 Y 1 1 d 9 Y 1 4 d 9 Y 1 1 d 11 Y 1 2 d 4 Y -1 Y 1 Y 1 2 d 4 Y -2 Y 2 Y 1 X 8 Y 1 4 d 12 Y s 1952 1066 m 1 1 d 3 Y -1 Y 1 8 d 9 Y 1 2 d 16 Y 1 -2 d 2 Y -2 Y 4 Y 1 1 d 14 Y -3 Y 1 3 d 2 Y -1 Y 9 Y 1 8 d 14 Y -1 Y 2 Y 1 4 d 7 Y 1 1
 d -2 Y 1 Y s 1961 1165 m 2 Y 1 1 d 10 Y 1 4 d 4 Y -1 Y 7 Y 1 X -1 Y 3 Y -2 Y 1 2 d 5 Y -1 Y 2 Y 1 X -1 Y 5 Y 1 X -1 Y 1 3 d -1 Y 4 Y -2 Y 1 X -2 Y 1 X s 1970 1205 m 7 Y 1 X 4 Y -1 Y 1 9 d -1 Y 1 X -1 Y 1 X -1 Y 1 X 5 Y 1 5 d 1 X -1 Y 2 X s 1979 1230
 m 7 Y 9 X s 1988 1237 m 8 X s 1996 1237 m 9 X s 2005 1237 m 9 X s 2014 1237 m 9 X s 2023 1237 m 9 X s 2032 1237 m 8 X s 2040 1237 m 1 X s[  ] 0 sd 9 lw 0.49 0.6 0.82 c black 0 0 0.933333 c 245 1237 m 9 X s 254 1237 m 9 X s 263 1237 m 8 X s 271 1237
 m 9 X s 280 1237 m 9 X s 289 1237 m 9 X s 298 1237 m 9 X s 307 1237 m 8 X s 315 1237 m 9 X s 324 1237 m 9 X s 333 1237 m 9 X s 342 1237 m 9 X s 351 1237 m 8 X s 359 1237 m 9 X s 368 1237 m 9 X s 377 1237 m 9 X s 386 1237 m 9 X s 395 1237 m 8 X s 403
 1237 m 9 X s 412 1237 m 9 X s 421 1237 m 9 X s 430 1237 m 9 X s 439 1237 m 8 X s 447 1237 m 9 X s 456 1237 m 9 X s 465 1237 m 9 X s 474 1237 m 9 X s 483 1237 m 8 X s 491 1237 m 9 X s 500 1237 m 9 X s 509 1237 m 9 X s 518 1237 m 9 X s 527 1237 m 8 X
 s 535 1237 m 9 X s 544 1237 m 9 X s 553 1237 m 9 X s 562 1237 m 9 X s 571 1237 m 8 X s 579 1237 m 9 X s 588 1237 m 9 X s 597 1237 m 9 X s 606 1237 m 9 X s 615 1237 m 8 X s 623 1237 m 9 X s 632 1237 m 9 X s 641 1237 m 9 X s 650 1237 m 9 X s 659 1237
 m 8 X s 667 1237 m 9 X s 676 1237 m 9 X s 685 1237 m 9 X s 694 1237 m 9 X s 703 1237 m 8 X s 711 1237 m 9 X s 720 1237 m 9 X s 729 1237 m 9 X s 738 1237 m 9 X s 747 1237 m 8 X s 755 1237 m 9 X s 764 1237 m 9 X s 773 1237 m 9 X s 782 1237 m 9 X s 791
 1237 m 8 X s 799 1237 m 9 X s 808 1237 m 9 X s 817 1237 m 9 X s 826 1237 m 9 X s 835 1237 m 8 X s 843 1237 m 9 X s 852 1237 m 9 X s 861 1237 m 9 X s 870 1237 m 9 X s 879 1237 m 8 X s 887 1237 m 9 X s 896 1237 m 9 X s 905 1237 m 9 X s 914 1237 m 9 X
 s 923 1237 m 8 X s 931 1237 m 9 X s 940 1237 m 9 X s 949 1237 m 9 X s 958 1237 m 9 X s 967 1237 m 8 X s 975 1237 m 9 X s 984 1237 m 9 X s 993 1237 m 9 X s 1002 1237 m 9 X s 1011 1237 m 8 X s 1019 1237 m 9 X s 1028 1237 m 9 X s 1037 1237 m 9 X s 1046
 1237 m 9 X s 1055 1237 m 8 X s 1063 1237 m 9 X s 1072 1237 m 9 X s 1081 1237 m 9 X s 1090 1237 m 9 X s 1099 1237 m 8 X s 1107 1237 m 9 X s 1116 1237 m 9 X s 1125 1237 m 9 X s 1134 1237 m 9 X s 1143 1237 m 8 X s 1151 1237 m 9 X s 1160 1237 m 9 X s
 1169 1237 m 9 X s 1178 1237 m 9 X s 1187 1237 m 8 X s 1195 1237 m 9 X s 1204 1237 m 9 X s 1213 1237 m 9 X s 1222 1237 m 9 X s 1231 1237 m 8 X s 1239 1237 m 9 X s 1248 1237 m 9 X s 1257 1237 m 9 X s 1266 1237 m 9 X s 1275 1237 m 8 X s 1283 1237 m 9 X
 s 1292 1237 m 9 X s 1301 1237 m 9 X s 1310 1237 m 9 X s 1319 1237 m 8 X s 1327 1237 m 9 X s 1336 1237 m 9 X s 1345 1237 m 9 X s 1354 1237 m 9 X s 1363 1237 m 8 X s 1371 1237 m 9 X s 1380 1237 m 9 X s 1389 1237 m 9 X s 1398 1237 m 9 X s 1407 1237 m 8
 X s 1415 1237 m 9 X s 1424 1237 m 9 X s 1433 1237 m 9 X s 1442 1237 m 9 X s 1451 1237 m 8 X s 1459 1237 m 9 X s 1468 1237 m 9 X s 1477 1237 m 9 X s 1486 1237 m 9 X s 1495 1237 m 8 X s 1503 1237 m 9 X s 1512 1237 m 9 X s 1521 1237 m 9 X s 1530 1237 m
 9 X s 1539 1237 m 8 X s 1547 1237 m 9 X s 1556 1237 m 1 X -1 Y 8 X s 1565 1236 m 9 X s 1574 1236 m 9 X s 1583 1236 m 4 X -1 Y 4 X s 1591 1235 m 9 X s 1600 1235 m 9 X s 1609 1235 m 9 X s 1618 1235 m 9 X s 1627 1235 m 2 X 1 -1 d 5 X s 1635 1234 m 9 X
 s 1644 1234 m 5 X -1 Y 4 X s 1653 1233 m 2 X -1 Y 7 X s 1662 1232 m 9 X s 1671 1232 m 1 -1 d 7 X s 1679 1231 m 2 X 1 -1 d 6 X s 1688 1230 m 1 X -1 Y 8 X -1 Y s 1697 1228 m 5 X -1 Y 4 X s 1706 1227 m 4 X 1 -1 d 4 X -1 Y s 1715 1225 m 2 X -1 Y 6 X -1
 Y s 1723 1223 m 5 X -1 Y 4 X s 1732 1222 m 2 X -1 Y 4 X -1 Y 1 X -1 Y 2 X s 1741 1219 m -1 Y 5 X -1 Y 3 X -1 Y 1 X s 1750 1216 m 3 X -1 Y 1 X -1 Y 3 X 1 -1 d 1 X s 1759 1213 m 1 X -1 Y 2 X -1 Y 3 X -1 Y 2 X s 1767 1210 m 2 X -1 Y 2 X -1 Y 3 X -1 Y 2
 X -1 Y s 1776 1206 m 2 X -1 Y 2 X -1 Y 2 X -1 Y 1 X -1 Y 2 X s 1785 1202 m -1 Y 2 X -2 Y 2 X -1 Y 1 X -1 Y 2 X 1 -1 d 1 -1 d s 1794 1195 m 2 X -1 Y 2 X -1 Y 2 X -1 Y 2 X -1 Y 1 X s 1803 1191 m -1 Y 2 X -1 Y 1 -1 d 1 X -1 Y 1 X -1 Y 1 X -1 Y 1 X -1 Y
 1 -1 d 1 -1 d s 1812 1182 m -1 Y 2 X -2 Y 1 X 1 -1 d 2 X -1 Y 1 X -2 Y 1 X s 1820 1175 m -1 Y 1 X 1 -1 d -2 Y 1 X -1 Y 1 X -2 Y 1 X -1 Y 1 X -1 Y 1 -1 d -1 Y 1 X -1 Y 1 -1 d s 1829 1162 m -1 Y 1 X -1 Y 1 X -1 Y 1 X -1 Y 1 X -2 Y 1 X -1 Y 1 X -2 Y 1
 X -1 Y 1 -1 d -1 Y 1 X s 1838 1150 m 1 -1 d -1 Y 1 X -1 Y 1 -1 d -2 Y 1 X -1 Y 1 -1 d 1 -1 d 1 -1 d -1 Y 1 X -1 Y 1 X s 1847 1138 m -2 Y 1 X -1 Y 1 -1 d -1 Y 1 -1 d -1 Y 1 X -1 Y 1 -1 d -1 Y 1 -1 d 1 -1 d -1 Y 1 X -1 Y 1 X s 1856 1124 m -3 Y 1 -1 d
 -1 Y 1 X -2 Y 1 -1 d -1 Y 1 -1 d -2 Y 1 -1 d -3 Y 1 X -1 Y 1 -1 d -3 Y 1 -1 d -1 Y s 1864 1101 m 1 X -2 Y 1 -1 d -1 Y 1 X -2 Y 1 X -3 Y 1 X -2 Y 1 -1 d -3 Y 1 X -3 Y 1 X -3 Y 1 X -2 Y s 1873 1078 m 1 -1 d -1 Y 1 X -1 Y 1 -1 d -1 Y 1 X -2 Y 1 X -2 Y
 1 -1 d -2 Y 1 -1 d -3 Y 1 X -4 Y 1 -1 d -1 Y s 1882 1056 m -3 Y 1 -1 d -3 Y 1 -1 d -2 Y 1 -1 d -3 Y 1 -2 d -2 Y 1 X -3 Y 1 X -3 Y 1 -1 d -5 Y 1 -1 d -4 Y 1 -1 d -1 Y s 1891 1019 m -4 Y 1 -2 d -2 Y 1 -1 d -4 Y 1 X -4 Y 1 X -3 Y 1 -1 d -4 Y 1 -1 d -3
 Y 1 -1 d -2 Y 1 -1 d -4 Y 1 X s 1900 982 m -5 Y 1 -2 d -5 Y 1 -1 d -5 Y 1 -1 d -4 Y 1 -1 d -4 Y 1 -2 d -6 Y 1 X -3 Y 1 -1 d -3 Y 1 -1 d -4 Y s 1908 934 m -1 Y 1 -1 d -5 Y 1 X -8 Y 1 X -5 Y 1 -1 d -8 Y 1 -2 d -6 Y 1 -1 d -9 Y 1 -2 d -5 Y 1 -2 d -4 Y
 1 -2 d -4 Y s 1917 868 m -2 Y 1 -2 d -6 Y 1 -1 d -6 Y 1 -2 d -6 Y 1 -2 d -9 Y 1 -1 d -10 Y 1 -2 d -7 Y 1 -2 d -9 Y 1 -3 d -7 Y 1 -3 d -4 Y s 1926 784 m -5 Y 1 -2 d -8 Y 1 -2 d -11 Y 1 -2 d -8 Y 1 -2 d -10 Y 1 -3 d -15 Y 1 -1 d -11 Y 1 -3 d -14 Y 1
 -2 d -13 Y 1 -2 d -5 Y s 1935 665 m -12 Y 1 -4 d -14 Y 1 -4 d -20 Y 1 -3 d -24 Y 1 -6 d -27 Y 1 -8 d -32 Y 1 -5 d -13 Y 1 -5 d -18 Y 1 -4 d -15 Y 1 -4 d s 1944 447 m -13 Y 1 -3 d -14 Y 1 -3 d -9 Y 1 -1 d -11 Y 1 -1 d -9 Y 1 -3 d -10 Y 1 -1 d -7 Y 1
 -2 d -9 Y 1 -1 d -6 Y s 1952 344 m -2 Y 1 -1 d -7 Y 1 X -6 Y 1 -1 d -5 Y 1 -2 d -6 Y 1 -2 d -6 Y 1 -2 d -5 Y 1 -1 d -4 Y 1 -1 d -1 Y 1 -1 d -4 Y s 1961 287 m 1 -2 d -2 Y 1 -1 d -3 Y 1 -1 d -4 Y 1 -1 d -5 Y 1 X -4 Y 1 -1 d -1 Y 1 -1 d -4 Y 1 -1 d -3
 Y 1 X -1 Y s 1970 252 m -1 Y 1 X -2 Y 1 -1 d -2 Y 1 -1 d -2 Y 1 X -3 Y 1 X -2 Y 1 X -3 Y 1 X -3 Y 1 X -1 Y 1 -1 d s 1979 230 m -2 Y 1 X -1 Y 1 X -2 Y 1 X -1 Y 1 X -1 Y 1 X -1 Y 1 X -1 Y 1 X -1 Y 1 X 1 -1 d s 1988 219 m -1 Y 1 X -1 Y 1 -1 d -1 Y 1 X
 1 -1 d 1 X -1 Y 1 X 1 -1 d -1 Y 1 X s 1996 211 m 2 X -1 Y 1 X -1 Y 1 -1 d 2 X -1 Y 1 X -1 Y 2 X s 2005 206 m -1 Y 2 X -1 Y 5 X -1 Y 2 X s 2014 203 m 9 X s 2023 203 m 1 X -1 Y 8 X s 2032 202 m 1 X -1 Y 7 X s 2040 201 m 1 X s 1 0 0 c black 1 0 0 c 245
 1237 m 1 X -1 Y 2 X 1 -1 d 5 X s 254 1235 m 4 X -1 Y 5 X s 263 1234 m 5 X -1 Y 3 X s 271 1233 m 9 X s 280 1233 m 1 -1 d 8 X s 289 1232 m 4 X 1 -1 d 4 X s 298 1231 m 1 X -1 Y 8 X s 307 1230 m -1 Y 4 X -1 Y 4 X -1 Y s 315 1227 m 6 X -1 Y 2 X -1 Y 1 X
 s 324 1225 m 2 X -1 Y 7 X s 333 1224 m 9 X s 342 1224 m 1 X -1 Y 5 X -1 Y 3 X s 351 1222 m 1 -1 d 4 X -1 Y 3 X -1 Y s 359 1219 m 3 X -1 Y 3 X -1 Y 3 X s 368 1217 m -1 Y 5 X -1 Y 1 X -1 Y 3 X s 377 1214 m 2 X -1 Y 2 X -1 Y 2 X -1 Y 3 X s 386 1211 m 2
 X -1 Y 5 X -1 Y 2 X s 395 1209 m 2 X -1 Y 4 X -1 Y 2 X -1 Y s 403 1206 m 3 X -1 Y 2 X -1 Y 3 X -1 Y 1 X s 412 1203 m -1 Y 2 X -1 Y 1 X -1 Y 2 X -1 Y 2 X -1 Y 2 X s 421 1198 m 1 -1 d 1 X -1 Y 2 X 1 -1 d 1 X -2 Y 2 X -1 Y 1 X s 430 1192 m -1 Y 1 X -1
 Y 2 X -1 Y 1 X -1 Y 2 X -1 Y 2 X -1 Y 1 X s 439 1186 m 1 X -1 Y 2 X -1 Y 1 X -1 Y 2 X -1 Y 1 X -1 Y 1 X -1 Y s 447 1180 m 2 X -1 Y 1 X -1 Y 2 X -1 Y 1 X 1 -1 d 1 X -1 Y 1 X -1 Y s 456 1174 m -1 Y 1 X -1 Y 1 -1 d -1 Y 1 X -1 Y 1 X 1 -1 d -1 Y 1 X -1
 Y 1 -1 d 1 X 1 -1 d s 465 1164 m -1 Y 1 X -1 Y 1 X -1 Y 1 X -1 Y 1 -1 d -1 Y 1 X -1 Y 1 X -1 Y 1 X -1 Y 1 X -2 Y 1 X s 474 1153 m -1 Y 1 X -2 Y 1 X -1 Y 1 X -1 Y 1 X -1 Y 1 X -2 Y 1 X -1 Y 1 X -1 Y 1 X -2 Y 1 X s 483 1141 m -2 Y 2 X -1 Y 1 -2 d -1 Y
 1 X -2 Y 1 X -1 Y 1 X -1 Y 1 X -2 Y 1 -1 d -1 Y s 491 1127 m 1 X -2 Y 1 X -1 Y 1 X -2 Y 1 X -1 Y 1 X -2 Y 1 X -2 Y 1 X -1 Y 1 X -2 Y 1 X -2 Y s 500 1112 m 1 X -2 Y 1 -1 d -1 Y 1 X -2 Y 1 X -2 Y 1 X -1 Y 1 X -1 Y 1 -1 d -2 Y 1 X -2 Y 1 X s 509 1097 m
 -1 Y 1 X -3 Y 1 -1 d -1 Y 1 X -2 Y 1 X -3 Y 1 X -2 Y 1 X -2 Y 1 X -1 Y 1 -1 d -2 Y 1 -1 d s 518 1077 m -1 Y 1 X -2 Y 1 X -2 Y 1 X -2 Y 1 X -1 Y 1 X -1 Y 1 X -3 Y 1 X -2 Y 1 X -3 Y 1 X s 527 1060 m -2 Y 1 -1 d -1 Y 1 X -3 Y 1 X -2 Y 1 X -2 Y 1 X -3 Y
 1 -1 d -2 Y 1 X -2 Y 1 X -1 Y s 535 1040 m 1 -1 d -2 Y 1 X -3 Y 1 X -2 Y 1 X -2 Y 1 -1 d -1 Y 1 X -1 Y 1 -1 d -2 Y 1 X -2 Y 1 X -1 Y s 544 1021 m -1 Y 1 -1 d -1 Y 1 -1 d -1 Y 1 -1 d -4 Y 1 X -1 Y 1 X -1 Y 1 X -3 Y 1 X -3 Y 1 -1 d -2 Y 1 X -1 Y s 553
 999 m -1 Y 1 X -1 Y 1 -1 d -1 Y 1 -1 d -2 Y 1 X -2 Y 1 X -1 Y 1 X -1 Y 1 X -2 Y 1 -1 d -1 Y 1 X -1 Y s 562 983 m -1 Y 1 X -2 Y 1 X -1 Y 1 X -2 Y 1 X -3 Y 1 -1 d -1 Y 1 X -2 Y 1 X -1 Y 1 -1 d -2 Y 1 X s 571 966 m 1 X -2 Y 1 X -1 Y 1 -1 d -1 Y 1 X -1
 Y 1 -1 d -1 Y 1 -1 d -1 Y 1 -1 d -1 Y 1 X -3 Y s 579 951 m 1 X -2 Y 1 X -1 Y 1 X -2 Y 1 X 1 -1 d -1 Y 1 X -1 Y 1 X -2 Y 1 X -1 Y 1 X -2 Y s 588 938 m -1 Y 1 X -2 Y 1 X -1 Y 1 -1 d 1 X -1 Y 1 X -1 Y 1 X -1 Y 1 X -1 Y 1 -1 d -1 Y 1 X s 597 927 m -1 Y
 1 X -1 Y 1 X -1 Y 1 X -2 Y 1 X -1 Y 1 X -1 Y 1 X -1 Y 1 X -2 Y 1 X -1 Y 1 -1 d s 606 915 m -1 Y 1 X -3 Y 1 X -1 Y 2 X -2 Y 1 X -1 Y 1 X -1 Y 1 X -1 Y 1 X -1 Y 1 X s 615 904 m -1 Y 1 X -1 Y 1 X -1 Y 1 X -1 Y 1 X -2 Y 1 -1 d 1 -1 d -1 Y 1 X -1 Y 1 -1
 d -1 Y s 623 892 m 1 X -1 Y 1 X 1 -1 d -1 Y 2 X -1 Y 1 -1 d 1 -1 d -1 Y 1 -1 d 1 X -1 Y s 632 883 m 1 -1 d -1 Y 1 X -1 Y 2 X -1 Y 1 X -1 Y 1 X -1 Y 2 X -1 Y 1 X -1 Y s 641 875 m -1 Y 1 X -1 Y 1 X 1 -1 d 1 -1 d -1 Y 1 X -1 Y 1 X -1 Y 1 -1 d 1 X 1 -1
 d s 650 866 m 1 X -2 Y 1 X -1 Y 1 X -1 Y 1 X -1 Y 1 X -1 Y 1 X -1 Y 2 X -2 Y 1 X s 659 857 m -1 Y 1 X -1 Y 1 X 1 -1 d -1 Y 1 X -1 Y 1 X -1 Y 1 X 1 -1 d -1 Y 1 X -2 Y s 667 847 m 2 X -1 Y 1 -1 d 1 X -1 Y 1 X -1 Y 1 X -1 Y 1 X -1 Y 1 X -1 Y 1 X s 676
 840 m 1 X -1 Y 2 X -1 Y 1 X -1 Y 1 -1 d 1 -1 d 1 X -1 Y 1 X -1 Y 1 X s 685 833 m 2 X -1 Y 2 X -1 Y 1 X -1 Y 1 X -1 Y 2 X -1 Y 1 X s 694 828 m 1 -1 d -1 Y 2 X -1 Y 1 X -1 Y 1 X -1 Y 1 X -1 Y 1 X -1 Y 2 X s 703 821 m -1 Y 3 X -1 Y 2 X -1 Y 3 X s 711
 818 m 1 X -1 Y 2 X -1 Y 2 X -1 Y 3 X -1 Y 1 X s 720 814 m -1 Y 3 X -1 Y 4 X -1 Y 2 X s 729 811 m 1 X -1 Y 4 X -1 Y 1 X 1 -1 d 1 -1 d 1 X -1 Y s 738 806 m 2 X -1 Y 2 X -1 Y 1 X -1 Y 3 X -1 Y 1 X s 747 802 m 2 X -1 Y 4 X -1 Y 2 X s 755 800 m 4 X -1 Y
 4 X -1 Y 1 X s 764 798 m 2 X 1 -1 d 2 X -1 Y 1 X -1 Y 2 X -1 Y 1 X s 773 794 m 2 X 1 -1 d 5 X -1 Y 1 X s 782 792 m 3 X -1 Y 4 X -1 Y 2 X s 791 790 m 2 X -1 Y 4 X -1 Y 2 X s 799 788 m 2 X -1 Y 2 X -1 Y 4 X -1 Y 1 X s 808 785 m -1 Y 4 X -1 Y 2 X -1 Y
 3 X s 817 782 m 2 X -1 Y 3 X -1 Y 4 X s 826 780 m 3 X -1 Y 2 X -1 Y 3 X -1 Y 1 X s 835 777 m 3 X -1 Y 5 X s 843 776 m 1 X 1 -1 d 3 X 1 -1 d 3 X s 852 774 m 3 X -1 Y 4 X -1 Y 2 X s 861 772 m 3 X -1 Y 4 X -1 Y 2 X s 870 770 m 4 X -1 Y 5 X s 879 769 m
 1 X -1 Y 7 X -1 Y s 887 767 m 9 X -1 Y s 896 766 m 4 X -1 Y 5 X s 905 765 m 1 X -1 Y 3 X -1 Y 5 X s 914 763 m 5 X -1 Y 4 X s 923 762 m 1 X -1 Y 7 X s 931 761 m 2 X -1 Y 7 X s 940 760 m 4 X -1 Y 2 X 1 -1 d 2 X s 949 758 m 9 X s 958 758 m 1 X -1 Y 4 X
 -1 Y 4 X s 967 756 m 1 X -1 Y 6 X -1 Y 1 X s 975 754 m 9 X s 984 754 m -1 Y 9 X s 993 753 m 1 -1 d 5 X -1 Y 3 X s 1002 751 m 7 X -1 Y 2 X s 1011 750 m 6 X -1 Y 2 X s 1019 749 m 8 X -1 Y 1 X s 1028 748 m 9 X s 1037 748 m 3 X -1 Y 5 X -1 Y 1 X s 1046
 746 m 3 X -1 Y 6 X s 1055 745 m 8 X s 1063 745 m 5 X 1 -1 d 3 X s 1072 744 m 2 X -1 Y 7 X s 1081 743 m 3 X 1 -1 d 5 X s 1090 742 m 6 X -1 Y 3 X s 1099 741 m 5 X -1 Y 3 X s 1107 740 m 8 X -1 Y 1 X s 1116 739 m 9 X s 1125 739 m 2 X -1 Y 7 X s 1134 738
 m 6 X 1 -1 d 2 X s 1143 737 m 8 X -1 Y s 1151 736 m 3 X -1 Y 6 X s 1160 735 m 1 X -1 Y 8 X s 1169 734 m 9 X s 1178 734 m 1 X 1 -1 d 7 X s 1187 733 m 3 X 1 -1 d 4 X s 1195 732 m 9 X s 1204 732 m 6 X -1 Y 3 X s 1213 731 m 9 X s 1222 731 m 1 X -1 Y 8 X
 s 1231 730 m 7 X 1 -1 d s 1239 729 m 9 X s 1248 729 m 6 X -1 Y 3 X s 1257 728 m 9 X s 1266 728 m 9 X s 1275 728 m 8 X -1 Y s 1283 727 m 9 X s 1292 727 m 7 X -1 Y 2 X s 1301 726 m 9 X s 1310 726 m 4 X 1 -1 d 4 X s 1319 725 m 8 X s 1327 725 m 7 X -1 Y
 2 X s 1336 724 m 9 X s 1345 724 m 9 X s 1354 724 m 1 X -1 Y 7 X -1 Y 1 X s 1363 722 m 8 X s 1371 722 m 9 X s 1380 722 m 2 X 1 -1 d 6 X s 1389 721 m 1 -1 d 7 X -1 Y 1 X s 1398 719 m 9 X s 1407 719 m 1 -1 d 7 X s 1415 718 m 8 X 1 -1 d s 1424 717 m 9 X
 s 1433 717 m 1 X 1 -1 d 7 X s 1442 716 m 9 X s 1451 716 m -1 Y 8 X s 1459 715 m 1 X -1 Y 8 X s 1468 714 m 3 X -1 Y 6 X s 1477 713 m 9 X s 1486 713 m 2 X -1 Y 6 X -1 Y 1 X s 1495 711 m 8 X s 1503 711 m 2 X -1 Y 5 X 1 -1 d 1 X s 1512 709 m 9 X s 1521
 709 m 6 X -1 Y 3 X s 1530 708 m 2 X -1 Y 5 X -1 Y 2 X s 1539 706 m 8 X s 1547 706 m 2 X 1 -1 d 6 X s 1556 705 m 2 X -1 Y 5 X 1 -1 d 1 X s 1565 703 m 3 X -1 Y 5 X -1 Y 1 X s 1574 701 m 6 X -1 Y 3 X s 1583 700 m 8 X -1 Y s 1591 699 m 9 X s 1600 699 m
 2 X -1 Y 7 X s 1609 698 m 9 X s 1618 698 m 3 X -1 Y 4 X -1 Y 2 X s 1627 696 m 8 X s 1635 696 m 2 X 1 -1 d 6 X s 1644 695 m 4 X -1 Y 5 X s 1653 694 m 3 X -1 Y 4 X 1 -1 d 1 X s 1662 692 m 3 X 1 -1 d 5 X s 1671 691 m 3 X -1 Y 5 X s 1679 690 m 9 X -1 Y
 s 1688 689 m 4 X -1 Y 5 X s 1697 688 m 2 X -1 Y 3 X -1 Y 4 X s 1706 686 m 3 X -1 Y 6 X s 1715 685 m -1 Y 6 X -1 Y 2 X s 1723 683 m 5 X -1 Y 4 X -1 Y s 1732 681 m 7 X -1 Y 2 X s 1741 680 m 6 X -1 Y 3 X s 1750 679 m 7 X -1 Y 2 X s 1759 678 m 3 X -1 Y
 5 X s 1767 677 m 2 X -1 Y 1 X -1 Y 6 X -1 Y s 1776 674 m 8 X -1 Y 1 X s 1785 673 m 2 X -1 Y 5 X -1 Y 2 X -1 Y s 1794 670 m 2 X -1 Y 3 X -1 Y 3 X -1 Y 1 X s 1803 667 m 2 X -1 Y 4 X 1 -1 d 1 X -1 Y 1 X s 1812 664 m 1 X -1 Y 2 X -1 Y 2 X -1 Y 3 X s
 1820 661 m 1 X -1 Y 1 X -1 Y 3 X -1 Y 4 X s 1829 658 m 3 X -1 Y 3 X -1 Y 2 X 1 -1 d s 1838 655 m 3 X -1 Y 6 X -1 Y s 1847 653 m 1 -1 d 1 X -1 Y 2 X 1 -1 d 1 X -1 Y 3 X s 1856 649 m 1 X -1 Y 1 X -1 Y 1 X -1 Y 3 X -1 Y 2 X -1 Y s 1864 644 m 2 X -1 Y 1
 X 1 -1 d 1 X -2 Y 1 X -1 Y 1 X -1 Y 1 X -1 Y 1 X s 1873 637 m -1 Y 1 X -1 Y 1 -1 d 1 -1 d 1 X -1 Y 1 X -1 Y 1 X 1 -1 d 1 -1 d 1 X s 1882 629 m -1 Y 1 X -1 Y 1 X -1 Y 1 X -1 Y 1 X -1 Y 1 -1 d 1 X -1 Y 2 X -1 Y 1 X s 1891 621 m -1 Y 1 X -1 Y 1 X -1 Y
 1 -1 d -1 Y 1 X -1 Y 1 X -2 Y 1 X -1 Y 1 X 1 -1 d -1 Y 1 X s 1900 610 m -2 Y 1 X -2 Y 1 X -1 Y 1 X -3 Y 1 X -1 Y 1 X -1 Y 1 X -1 Y 1 -1 d -1 Y 1 -1 d -1 Y s 1908 595 m 1 X -1 Y 1 -2 d -1 Y 1 -1 d -2 Y 1 -1 d -3 Y 1 -1 d -1 Y 1 -1 d -3 Y 1 -1 d -2 Y
 1 -1 d -3 Y 1 -1 d -1 Y s 1917 569 m -2 Y 1 -1 d -2 Y 1 -1 d -3 Y 1 X -2 Y 1 -1 d -5 Y 1 -1 d -4 Y 1 -1 d -3 Y 1 -1 d -8 Y 1 -1 d -4 Y 1 -2 d -3 Y s 1926 524 m -4 Y 1 -1 d -8 Y 1 -1 d -11 Y 1 -2 d -6 Y 1 -1 d -8 Y 1 -2 d -10 Y 1 -2 d -8 Y 1 -1 d -11
 Y 1 -3 d -7 Y 1 -3 d -4 Y s 1935 431 m -11 Y 1 -2 d -14 Y 1 -2 d -14 Y 1 -4 d -17 Y 1 -4 d -15 Y 1 -5 d -15 Y 1 -3 d -11 Y 1 -3 d -11 Y 1 -3 d -8 Y 1 -2 d s 1944 287 m -8 Y 1 -3 d -9 Y 1 -1 d -6 Y 1 -2 d -5 Y 1 -1 d -5 Y 1 -2 d -3 Y 1 -1 d -3 Y 1 X
 -4 Y 1 -1 d -4 Y s 1952 229 m 1 -1 d -1 Y 1 -2 d -2 Y 1 -1 d -3 Y 1 X -1 Y 1 -1 d -2 Y 1 -1 d -2 Y 1 -1 d -2 Y 1 X -1 Y 1 X s 1961 208 m -1 Y 1 X -1 Y 1 X -1 Y 1 X -1 Y 2 X -1 Y 4 X s 1970 203 m -1 Y 5 X 1 -1 d 3 X s 1979 201 m 9 X s 1988 201 m 8 X
 s 1996 201 m 9 X s 2005 201 m 9 X s 2014 201 m 9 X s 2023 201 m 9 X s 2032 201 m 8 X s 2040 201 m 1 X s 0 0.666667 0 c 1 1 1 c black 0 0.666667 0 c 245 1093 m 1 X 1 Y 8 X s 254 1094 m 9 X s 263 1094 m 8 X s 271 1094 m 9 X s 280 1094 m 9 X s 289 1094
 m 4 X 1 1 d 4 X s 298 1095 m 9 X s 307 1095 m 8 X s 315 1095 m 1 X 1 Y 8 X s 324 1096 m 9 X s 333 1096 m 9 X s 342 1096 m 6 X 1 Y 3 X s 351 1097 m 8 X s 359 1097 m 6 X 1 Y 3 X s 368 1098 m 9 X s 377 1098 m 2 X 1 Y 7 X s 386 1099 m 9 X s 395 1099 m 2
 X 1 Y 6 X s 403 1100 m 6 X 1 1 d 2 X s 412 1101 m 4 X 1 Y 5 X s 421 1102 m 5 X 1 Y 4 X s 430 1103 m 1 X 1 Y 7 X 1 Y 1 X s 439 1105 m 6 X 1 1 d 1 X s 447 1106 m 5 X 1 Y 4 X s 456 1107 m 1 X 1 Y 4 X 1 Y 4 X 1 Y s 465 1110 m 3 X 1 1 d 3 X 1 Y 2 X s 474
 1112 m 1 X 1 Y 4 X 1 Y 3 X 1 Y 1 X s 483 1115 m 2 X 1 Y 2 X 1 Y 3 X 1 Y 1 X s 491 1118 m 1 X 1 1 d 3 X 1 Y 2 X 1 Y 2 X 1 Y s 500 1122 m 2 X 1 1 d 2 X 1 Y 2 X 1 Y 2 X s 509 1125 m 1 X 1 Y 1 X 1 Y 2 X 1 Y 2 X 1 Y 2 X 1 Y 1 X s 518 1130 m 1 X 1 Y 2 X 1
 Y 3 X 1 Y 2 X 1 Y 1 X s 527 1134 m 1 Y 2 X 1 Y 2 X 1 Y 1 X 1 1 d 1 X 1 Y 1 X s 535 1139 m 1 X 1 Y 2 X 1 Y 1 X 1 Y 3 X 1 Y 1 X 1 Y 1 X s 544 1144 m 1 X 1 Y 2 X 1 Y 1 X 1 Y 2 X 1 Y 1 X 1 1 d 1 X s 553 1149 m 1 Y 2 X 1 Y 2 X 1 Y 3 X 1 Y 2 X 1 Y s 562
 1154 m 2 X 1 Y 2 X 1 Y 1 X 1 Y 2 X 1 1 d 1 X s 571 1158 m 1 X 1 Y 3 X 1 Y 1 X 1 1 d 2 X 1 Y s 579 1162 m 1 X 1 Y 3 X 1 Y 3 X 1 Y 2 X 1 Y s 588 1166 m 1 X 1 1 d 4 X 1 Y 2 X 1 Y 1 X s 597 1169 m 2 X 1 Y 3 X 1 Y 3 X 1 Y 1 X s 606 1172 m 1 X 1 Y 3 X 1 Y
 2 X 1 1 d 2 X s 615 1175 m 1 X 1 Y 3 X 1 Y 2 X 1 Y 2 X s 623 1178 m 1 X 1 Y 4 X 1 Y 2 X 1 Y 2 X s 632 1181 m 1 X 1 Y 5 X 1 Y 3 X s 641 1183 m 1 X 1 Y 3 X 1 Y 3 X 1 Y 2 X s 650 1186 m 1 X 1 1 d 4 X 1 Y 2 X 1 Y 1 X s 659 1189 m 3 X 1 Y 4 X 1 Y 1 X s
 667 1191 m 2 X 1 Y 3 X 1 Y 4 X s 676 1193 m 1 Y 4 X 1 1 d 4 X s 685 1195 m 1 1 d 5 X 1 Y 3 X s 694 1197 m 1 X 1 Y 4 X 1 Y 4 X s 703 1199 m 2 X 1 Y 6 X s 711 1200 m 3 X 1 Y 6 X s 720 1201 m 2 X 1 Y 7 X s 729 1202 m 3 X 1 Y 6 X 1 Y s 738 1204 m 6 X 1
 Y 3 X s 747 1205 m 8 X 1 Y s 755 1206 m 9 X s 764 1206 m 5 X 1 Y 4 X s 773 1207 m 2 X 1 1 d 6 X s 782 1208 m 7 X 1 Y 2 X s 791 1209 m 8 X s 799 1209 m 2 X 1 Y 7 X s 808 1210 m 2 X 1 1 d 6 X s 817 1211 m 4 X 1 1 d 4 X s 826 1212 m 8 X 1 Y 1 X s 835
 1213 m 8 X s 843 1213 m 8 X 1 1 d s 852 1214 m 9 X s 861 1214 m 5 X 1 Y 4 X s 870 1215 m 9 X s 879 1215 m 3 X 1 Y 5 X s 887 1216 m 9 X s 896 1216 m 7 X 1 1 d 1 X s 905 1217 m 9 X s 914 1217 m 9 X s 923 1217 m 1 X 1 Y 7 X s 931 1218 m 9 X s 940 1218
 m 6 X 1 1 d 2 X s 949 1219 m 9 X s 958 1219 m 9 X s 967 1219 m 2 X 1 Y 6 X s 975 1220 m 9 X s 984 1220 m 9 X s 993 1220 m 1 X 1 Y 8 X s 1002 1221 m 9 X s 1011 1221 m 8 X s 1019 1221 m 4 X 1 Y 5 X s 1028 1222 m 9 X s 1037 1222 m 9 X s 1046 1222 m 2 X
 1 Y 7 X s 1055 1223 m 8 X s 1063 1223 m 9 X s 1072 1223 m 5 X 1 Y 4 X s 1081 1224 m 9 X s 1090 1224 m 9 X s 1099 1224 m 8 X s 1107 1224 m 2 X 1 Y 7 X s 1116 1225 m 9 X s 1125 1225 m 9 X s 1134 1225 m 9 X s 1143 1225 m 4 X 1 Y 4 X s 1151 1226 m 9 X s
 1160 1226 m 9 X s 1169 1226 m 4 X 1 1 d 4 X s 1178 1227 m 9 X s 1187 1227 m 8 X s 1195 1227 m 9 X s 1204 1227 m 9 X s 1213 1227 m 9 X s 1222 1227 m 1 X 1 Y 8 X s 1231 1228 m 8 X s 1239 1228 m 9 X s 1248 1228 m 9 X s 1257 1228 m 9 X s 1266 1228 m 4 X
 1 Y 5 X s 1275 1229 m 8 X s 1283 1229 m 9 X s 1292 1229 m 9 X s 1301 1229 m 9 X s 1310 1229 m 9 X s 1319 1229 m 8 X 1 Y s 1327 1230 m 9 X s 1336 1230 m 9 X s 1345 1230 m 9 X s 1354 1230 m 9 X s 1363 1230 m 8 X s 1371 1230 m 9 X s 1380 1230 m 2 X 1 1
 d 6 X s 1389 1231 m 9 X s 1398 1231 m 9 X s 1407 1231 m 1 1 d 7 X s 1415 1232 m 9 X s 1424 1232 m 9 X s 1433 1232 m 9 X s 1442 1232 m 9 X s 1451 1232 m 1 Y 8 X s 1459 1233 m 9 X s 1468 1233 m 9 X s 1477 1233 m 9 X s 1486 1233 m 2 X 1 Y 7 X s 1495
 1234 m 8 X s 1503 1234 m 7 X 1 1 d 1 X s 1512 1235 m 9 X s 1521 1235 m 9 X s 1530 1235 m 9 X s 1539 1235 m 2 X 1 Y 6 X s 1547 1236 m 9 X s 1556 1236 m 9 X s 1565 1236 m 7 X 1 Y -1 Y 1 X 1 Y 1 X s 1574 1237 m 1 X -1 Y 1 X 1 Y 7 X s 1583 1237 m 8 X s
 1591 1237 m 9 X s 1600 1237 m 9 X s 1609 1237 m 9 X s 1618 1237 m 9 X s 1627 1237 m 8 X s 1635 1237 m 9 X s 1644 1237 m 9 X s 1653 1237 m 9 X s 1662 1237 m 9 X s 1671 1237 m 8 X s 1679 1237 m 4 X -1 Y 5 X s 1688 1236 m 1 1 d -1 Y 8 X s 1697 1236 m 9
 X s 1706 1236 m 4 X 1 -1 d 1 X 1 Y 1 -1 d 2 X s 1715 1235 m 2 X -1 Y 6 X s 1723 1234 m 9 X s 1732 1234 m 2 X -1 Y 5 X -1 Y 2 X s 1741 1232 m 5 X -1 Y 4 X s 1750 1231 m 3 X -1 Y 3 X -1 Y 3 X s 1759 1229 m 2 X -1 Y 4 X -1 Y 2 X s 1767 1227 m 7 X -1 Y
 2 X s 1776 1226 m 1 X -1 Y 3 X -1 Y 3 X -1 Y 2 X s 1785 1223 m 2 X -1 Y 1 X -1 Y 3 X -1 Y 3 X s 1794 1220 m 1 X -1 Y 1 Y 1 X 1 -1 d 4 X -1 Y 2 X s 1803 1218 m -1 Y 2 X 1 -1 d 2 X -1 Y 1 X -1 Y 2 X -1 Y 1 X s 1812 1213 m -1 Y 2 X -1 Y 1 X 1 Y -1 Y 4
 X -2 Y 1 X s 1820 1209 m 1 X -1 Y 1 Y 1 -1 d -1 Y 2 X -1 Y 1 -1 d 1 X -1 Y 1 -1 d -1 Y 2 X -1 Y s 1829 1201 m 1 -1 d 1 X 1 -1 d 1 X -1 Y 1 X -1 Y 1 X -1 Y 1 X -1 Y 1 X -1 Y 1 X s 1838 1194 m 1 X -1 Y 1 X -1 Y 1 X -2 Y 1 X 1 -1 d 1 X -1 Y 1 X -1 Y 1
 X -1 Y 1 X s 1847 1186 m -1 Y 1 X -1 Y 1 X 1 -1 d 1 -1 d -1 Y 1 X -1 Y 2 X -1 Y 1 X -1 Y 1 X s 1856 1178 m -2 Y 1 X -1 Y 1 X -1 Y 1 X -1 Y 1 -1 d -2 Y 1 X -2 Y 1 X -1 Y 1 X -2 Y 1 -1 d s 1864 1164 m 1 -1 d -1 Y 1 X -1 Y 1 X -1 Y 1 X -2 Y 1 X -1 Y 1
 X -2 Y 1 X -2 Y 1 X -2 Y 1 X -1 Y s 1873 1150 m 1 X -1 Y 1 X 1 -1 d 1 X -1 Y 1 -1 d -1 Y 1 X -2 Y 1 X -2 Y 1 X -3 Y 1 -1 d s 1882 1137 m -2 Y 1 -1 d -2 Y 1 X -2 Y 1 X -2 Y 1 -1 d -2 Y 1 X -1 Y 1 -1 d -2 Y 1 X -4 Y 1 X -3 Y 1 -1 d -1 Y s 1891 1112 m
 -2 Y 1 -2 d -1 Y 1 -1 d -2 Y 1 X -3 Y 1 Y 1 -1 d -1 Y 1 -2 d -2 Y 1 X -2 Y 1 -1 d -2 Y 1 X -2 Y 1 -1 d s 1900 1088 m -3 Y 1 -1 d -3 Y 1 -1 d -3 Y 1 -1 d -2 Y 1 -1 d -3 Y 1 -1 d -4 Y 1 X -2 Y 1 -1 d -2 Y 1 -1 d -2 Y s 1908 1057 m -1 Y 1 X -4 Y 1 X -5
 Y 1 -1 d -3 Y 1 X -5 Y 1 -1 d -4 Y 1 -1 d -6 Y 1 -1 d -4 Y 1 -1 d -3 Y 1 -1 d -2 Y s 1917 1014 m -1 Y 1 -1 d -4 Y 1 -1 d -4 Y 1 -2 d -4 Y 1 -1 d -6 Y 1 X -7 Y 1 -1 d -5 Y 1 -1 d -5 Y 1 -2 d -5 Y 1 -2 d -2 Y s 1926 960 m -3 Y 1 -1 d -4 Y 1 -1 d -5 Y
 1 -1 d -5 Y 1 -1 d -6 Y 1 -2 d -9 Y 1 -1 d -6 Y 1 -2 d -8 Y 1 -1 d -9 Y 1 -1 d -2 Y s 1935 892 m -7 Y 1 -4 d -6 Y 1 -3 d -13 Y 1 -1 d -16 Y 1 -5 d -20 Y 1 -7 d -27 Y 1 -4 d -10 Y 1 -4 d -15 Y 1 -2 d -14 Y 1 -4 d s 1944 730 m -8 Y 1 Y -4 Y 1 -2 d -12
 Y 1 -3 d -7 Y 1 -1 d -10 Y 1 -2 d -8 Y 1 -3 d -13 Y 1 -1 d -9 Y 1 -2 d -11 Y 1 -1 d -5 Y s 1952 629 m -2 Y 1 -3 d -9 Y 1 1 d -7 Y 1 -1 d -3 Y 1 Y -3 Y 1 -3 d -10 Y 1 -3 d -9 Y 1 -2 d -9 Y 1 2 d -6 Y 1 X -2 Y 1 -2 d -7 Y s 1961 552 m -1 Y 1 -2 d -4 Y
 1 -1 d -5 Y 1 -2 d -9 Y 1 -2 d -9 Y 1 -1 d -10 Y 1 -1 d -4 Y 1 -2 d -9 Y 1 -2 d -9 Y 1 X -2 Y s 1970 477 m -2 Y 1 X -6 Y 1 -1 d -7 Y 1 -1 d -7 Y 1 -1 d -8 Y 1 X -6 Y 1 -1 d -9 Y 1 X -8 Y 1 -3 d -3 Y 1 -2 d -2 Y s 1979 410 m -5 Y 1 -1 d -2 Y 1 -1 d
 -8 Y 1 -1 d -3 Y 1 X -3 Y 1 X -4 Y 1 -1 d -4 Y 1 -1 d -5 Y 1 X -2 Y 1 -1 d s 1988 368 m -7 Y 1 X -5 Y 1 -2 d -5 Y 1 X -4 Y 1 -1 d -4 Y 1 X -4 Y 1 X -3 Y 1 -3 d -4 Y 1 X -1 Y s 1996 325 m 1 X -3 Y 1 X -4 Y 1 X -10 Y 1 -1 d 1 X -3 Y 1 X -7 Y 1 -1 d -6
 Y 1 -1 d -2 Y 1 -2 d s 2005 285 m -4 Y 1 -2 d -2 Y 1 -2 d -2 Y 1 X -3 Y 1 -2 d 2 X -5 Y 1 X -3 Y 2 X s 2014 260 m 1 X 1 -2 d -3 Y 2 X -3 Y 4 X -4 Y 1 X s 2023 248 m 1 X -3 Y 1 X -4 Y 1 X -9 Y 3 X 1 -6 d 2 X s 2032 226 m 1 X -7 Y 7 X s 2040 219 m 1 X
 s black 3 lw 245 201 m 1796 X s 245 241 m -40 Y s 291 221 m -20 Y s 337 221 m -20 Y s 384 221 m -20 Y s 430 221 m -20 Y s 476 241 m -40 Y s 522 221 m -20 Y s 568 221 m -20 Y s 615 221 m -20 Y s 661 221 m -20 Y s 707 241 m -40 Y s 753 221 m -20 Y s
 799 221 m -20 Y s 846 221 m -20 Y s 892 221 m -20 Y s 938 241 m -40 Y s 984 221 m -20 Y s 1030 221 m -20 Y s 1077 221 m -20 Y s 1123 221 m -20 Y s 1169 241 m -40 Y s 1215 221 m -20 Y s 1261 221 m -20 Y s 1308 221 m -20 Y s 1354 221 m -20 Y s 1400
 241 m -40 Y s 1446 221 m -20 Y s 1492 221 m -20 Y s 1539 221 m -20 Y s 1585 221 m -20 Y s 1631 241 m -40 Y s 1677 221 m -20 Y s 1723 221 m -20 Y s 1770 221 m -20 Y s 1816 221 m -20 Y s 1862 241 m -40 Y s 245 241 m -40 Y s 1862 241 m -40 Y s 1908 221
 m -20 Y s 1955 221 m -20 Y s 2001 221 m -20 Y s 245 201 m 1140 Y s 291 201 m -46 X s 268 253 m -23 X s 268 305 m -23 X s 268 357 m -23 X s 291 408 m -46 X s 268 460 m -23 X s 268 512 m -23 X s 268 564 m -23 X s 291 616 m -46 X s 268 667 m -23 X s
 268 719 m -23 X s 268 771 m -23 X s 291 823 m -46 X s 268 875 m -23 X s 268 926 m -23 X s 268 978 m -23 X s 291 1030 m -46 X s 268 1082 m -23 X s 268 1134 m -23 X s 268 1185 m -23 X s 291 1237 m -46 X s 291 1237 m -46 X s 268 1289 m -23 X s 268 1341
 m -23 X s 0.490196 0.545098 0.615686 c 1 1 1 c 0.490196 0.545098 0.615686 c 907 201 245 1341 bl 245 1341 m 907 X s 1152 1341 m 201 Y s 1152 1542 m -907 X s 245 1542 m -201 Y s black
 gsave  2268 1676 0 0 C 515.735 1471.36 t 0 r /Helvetica-Bold findfont 56.8825 sf 0 0 m (Signal efficiency) show NC gr  0 0 0.933333 c 9 lw 286 1492 m 190 X s black
 gsave  2268 1676 0 0 C 515.735 1368.97 t 0 r /Helvetica-Bold findfont 56.8825 sf 0 0 m (Background efficiency) show NC gr  1 0 0 c 286 1391 m 190 X s 0.490196 0.545098 0.615686 c 3 lw 1 1 1 c 0.490196 0.545098 0.615686 c 889 201 1152 1341 bl 1152
 1341 m 889 X s 2041 1341 m 201 Y s 2041 1542 m -889 X s 1152 1542 m -201 Y s black
 gsave  2268 1676 0 0 C 1418.27 1494.11 t 0 r /Helvetica-Bold findfont 56.8825 sf 0 0 m (Signal purity) show NC gr  0 0 0.933333 c[  52 12 ] 0 sd 6 lw 1192 1509 m 187 X s black
 gsave  2268 1676 0 0 C 1418.27 1429.65 t 0 r /Helvetica-Bold findfont 56.8825 sf 0 0 m (Signal efficiency*purity) show NC gr  0 0 0.933333 c[  22 12 ] 0 sd 1192 1441 m 187 X s black
 gsave  2268 1676 0 0 C 1501.7 1361.39 t 0 r /Helvetica-Bold findfont 56.8825 sf 0 0 m (S+B) show NC gr [  ] 0 sd 1483 1407 m 7 -49 d s 3 lw 1490 1358 m 8 64 d s 1498 1422 m 114 X s
 gsave  2268 1676 0 0 C 1418.27 1361.39 t 0 r /Helvetica-Bold findfont 56.8825 sf 0 0 m (S/) show NC gr  0 0.666667 0 c 9 lw 1192 1374 m 187 X s black 3 lw 245 1237 m 1796 X s
 gsave  2268 1676 0 0 C 337.503 386.801 t 0 r /Helvetica-Bold findfont 53.0904 sf 0 0 m (For 1000 signal and 1000 background) show NC gr 
 gsave  2268 1676 0 0 C 1058.01 318.542 t 0 r /Helvetica-Bold findfont 53.0904 sf 0 0 m ( is) show NC gr 
 gsave  2268 1676 0 0 C 955.626 318.542 t 0 r /Helvetica-Bold findfont 53.0904 sf 0 0 m (S+B) show NC gr  6 lw 933 360 m 7 -45 d s 3 lw 940 315 m 8 60 d s 948 375 m 110 X s
 gsave  2268 1676 0 0 C 337.503 318.542 t 0 r /Helvetica-Bold findfont 53.0904 sf 0 0 m (events the maximum S/) show NC gr 
 gsave  2268 1676 0 0 C 337.503 254.075 t 0 r /Helvetica-Bold findfont 53.0904 sf 0 0 m (25.97 when cutting at  0.61) show NC gr  0.490196 0.545098 0.615686 c 0.364706 0.419608 0.490196 c 1471 96 23 1572 bf 0.490196 0.545098 0.615686 c 23 1572 m 1471
 X s 1494 1572 m 96 Y s 1494 1668 m -1471 X s 23 1668 m -96 Y s 1 1 1 c black 1 1 1 c
 gsave  2268 1676 0 0 C 75.8434 1600.29 t 0 r /Helvetica-Bold findfont 75.8434 sf 0 0 m (Cut efficiencies and optimal cut value) show NC gr  0 0.666667 0 c 2041 201 m 1140 Y s 1995 201 m 46 X s 2018 241 m 23 X s 2018 281 m 23 X s 2018 321 m 23 X s
 2018 361 m 23 X s 1995 401 m 46 X s 2018 441 m 23 X s 2018 480 m 23 X s 2018 520 m 23 X s 2018 560 m 23 X s 1995 600 m 46 X s 2018 640 m 23 X s 2018 680 m 23 X s 2018 720 m 23 X s 2018 760 m 23 X s 1995 800 m 46 X s 2018 840 m 23 X s 2018 879 m 23 X
 s 2018 919 m 23 X s 2018 959 m 23 X s 1995 999 m 46 X s 2018 1039 m 23 X s 2018 1079 m 23 X s 2018 1119 m 23 X s 2018 1159 m 23 X s 1995 1199 m 46 X s 1995 1199 m 46 X s 2018 1238 m 23 X s 2018 1278 m 23 X s 2018 1318 m 23 X s black 0 0.666667 0 c
 gsave  2268 1676 0 0 C 2051.56 178.232 t 0 r /Helvetica-Bold findfont 64.4669 sf 0 0 m (0) show NC gr  black 0 0.666667 0 c
 gsave  2268 1676 0 0 C 2051.56 375.425 t 0 r /Helvetica-Bold findfont 64.4669 sf 0 0 m (5) show NC gr  black 0 0.666667 0 c
 gsave  2268 1676 0 0 C 2051.56 576.41 t 0 r /Helvetica-Bold findfont 64.4669 sf 0 0 m (10) show NC gr  black 0 0.666667 0 c
 gsave  2268 1676 0 0 C 2051.56 773.602 t 0 r /Helvetica-Bold findfont 64.4669 sf 0 0 m (15) show NC gr  black 0 0.666667 0 c
 gsave  2268 1676 0 0 C 2051.56 974.587 t 0 r /Helvetica-Bold findfont 64.4669 sf 0 0 m (20) show NC gr  black 0 0.666667 0 c
 gsave  2268 1676 0 0 C 2051.56 1175.57 t 0 r /Helvetica-Bold findfont 64.4669 sf 0 0 m (25) show NC gr  black 0 0.666667 0 c
 gsave  2268 1676 0 0 C 2203.25 963.211 t 90 r /Helvetica-Bold findfont 64.4669 sf 0 0 m (Significance) show NC gr 
 gr  gr showpage
end
%%EOF
