%!PS-Adobe-2.0 EPSF-2.0
%%BoundingBox:  0 0 567 419
%%Title: dataset/plots/mvaeffs_LikelihoodPCA.eps: Cut efficiencies for LikelihoodPCA classifier
%%Creator: ROOT Version 6.12/06
%%CreationDate: Mon May 21 13:38:14 2018
%%DocumentNeededResources: ProcSet (FontSetInit)
%%EndComments
%%BeginProlog
80 dict begin
/s {stroke} def /l {lineto} def /m {moveto} def /t {translate} def
/r {rotate} def /rl {roll}  def /R {repeat} def
/d {rlineto} def /rm {rmoveto} def /gr {grestore} def /f {eofill} def
/c {setrgbcolor} def /black {0 setgray} def /sd {setdash} def
/cl {closepath} def /sf {scalefont setfont} def /lw {setlinewidth} def
/box {m dup 0 exch d exch 0 d 0 exch neg d cl} def
/NC{systemdict begin initclip end}def/C{NC box clip newpath}def
/bl {box s} def /bf {gsave box gsave f grestore 1 lw [] 0 sd s grestore} def /Y { 0 exch d} def /X { 0 d} def 
/K {{pop pop 0 moveto} exch kshow} bind def
/ita {/ang 15 def gsave [1 0 ang dup sin exch cos div 1 0 0] concat} def 
/mp {newpath /y exch def /x exch def} def
/side {[w .77 mul w .23 mul] .385 w mul sd w 0 l currentpoint t -144 r} def
/mr {mp x y w2 0 360 arc} def /m24 {mr s} def /m20 {mr f} def
/mb {mp x y w2 add m w2 neg 0 d 0 w neg d w 0 d 0 w d cl} def
/mt {mp x y w2 add m w2 neg w neg d w 0 d cl} def
/w4 {w 4 div} def
/w6 {w 6 div} def
/w8 {w 8 div} def
/m21 {mb f} def /m25 {mb s} def /m22 {mt f} def /m26{mt s} def
/m23 {mp x y w2 sub m w2 w d w neg 0 d cl f} def
/m27 {mp x y w2 add m w3 neg w2 neg d w3 w2 neg d w3 w2 d cl s} def
/m28 {mp x w2 sub y w2 sub w3 add m w3 0 d  0 w3 neg d w3 0 d 0 w3 d w3 0 d  0 w3 d w3 neg 0 d 0 w3 d w3 neg 0 d 0 w3 neg d w3 neg 0 d cl s } def
/m29 {mp gsave x w2 sub y w2 add w3 sub m currentpoint t 4 {side} repeat cl fill gr} def
/m30 {mp gsave x w2 sub y w2 add w3 sub m currentpoint t 4 {side} repeat cl s gr} def
/m31 {mp x y w2 sub m 0 w d x w2 sub y m w 0 d x w2 sub y w2 add m w w neg d x w2 sub y w2 sub m w w d s} def
/m32 {mp x y w2 sub m w2 w d w neg 0 d cl s} def
/m33 {mp x y w2 add m w3 neg w2 neg d w3 w2 neg d w3 w2 d cl f} def
/m34 {mp x w2 sub y w2 sub w3 add m w3 0 d  0 w3 neg d w3 0 d 0 w3 d w3 0 d  0 w3 d w3 neg 0 d 0 w3 d w3 neg 0 d 0 w3 neg d w3 neg 0 d cl f } def
/m35 {mp x y w2 add m w2 neg w2 neg d w2 w2 neg d w2 w2 d w2 neg w2 d x y w2 sub m 0 w d x w2 sub y m w 0 d s} def
/m36 {mb x w2 sub y w2 add m w w neg d x w2 sub y w2 sub m w w d s} def
/m37 {mp x y m w4 neg w2 d w4 neg w2 neg d w2 0 d  w4 neg w2 neg d w2 0 d w4 neg w2 d w2 0 d w4 neg w2 d w4 neg w2 neg d cl s} def
/m38 {mp x w4 sub y w2 add m w4 neg w4 neg d 0 w2 neg d w4 w4 neg d w2 0 d w4 w4 d 0 w2 d w4 neg w4 d w2 neg 0 d x y w2 sub m 0 w d x w2 sub y m w 0 d cl s} def
/m39 {mp x y m w4 neg w2 d w4 neg w2 neg d w2 0 d  w4 neg w2 neg d w2 0 d w4 neg w2 d w2 0 d w4 neg w2 d w4 neg w2 neg d cl f} def
/m40 {mp x y m w4 w2 d w4 w4 neg d w2 neg w4 neg d w2 w4 neg d w4 neg w4 neg d w4 neg w2 d w4 neg w2 neg d w4 neg w4 d w2 w4 d w2 neg w4 d w4 w4 d w4 w2 neg d cl s} def
/m41 {mp x y m w4 w2 d w4 w4 neg d w2 neg w4 neg d w2 w4 neg d w4 neg w4 neg d w4 neg w2 d w4 neg w2 neg d w4 neg w4 d w2 w4 d w2 neg w4 d w4 w4 d w4 w2 neg d cl f} def
/m42 {mp x y w2 add m w8 neg w2 -3 4 div mul d w2 -3 4 div mul w8 neg d w2 3 4 div mul w8 neg d w8 w2 -3 4 div mul d w8 w2 3 4 div mul d w2 3 4 div mul w8 d w2 -3 4 div mul w8 d w8 neg w2 3 4 div mul d cl s} def
/m43 {mp x y w2 add m w8 neg w2 -3 4 div mul d w2 -3 4 div mul w8 neg d w2 3 4 div mul w8 neg d w8 w2 -3 4 div mul d w8 w2 3 4 div mul d w2 3 4 div mul w8 d w2 -3 4 div mul w8 d w8 neg w2 3 4 div mul d cl f} def
/m44 {mp x y m w6 neg w2 d w2 2 3 div mul 0 d w6 neg w2 neg d w2 w6 d 0 w2 -2 3 div mul d w2 neg w6 d w6 w2 neg d w2 -2 3 div mul 0 d w6 w2 d w2 neg w6 neg d 0 w2 2 3 div mul d w2 w6 neg d cl s} def
/m45 {mp x y m w6 neg w2 d w2 2 3 div mul 0 d w6 neg w2 neg d w2 w6 d 0 w2 -2 3 div mul d w2 neg w6 d w6 w2 neg d w2 -2 3 div mul 0 d w6 w2 d w2 neg w6 neg d 0 w2 2 3 div mul d w2 w6 neg d cl f} def
/m46 {mp x y w4 add m w4 neg w4 d w4 neg w4 neg d  w4 w4 neg d w4 neg w4 neg d w4 w4 neg d w4 w4 d w4 w4 neg d w4 w4 d w4 neg w4 d w4 w4 d w4 neg w4 d w4 neg w4 neg d cl s} def
/m47 {mp x y w4 add m w4 neg w4 d w4 neg w4 neg d w4 w4 neg d w4 neg w4 neg d  w4 w4 neg d w4 w4 d w4 w4 neg d w4 w4 d w4 neg w4 d w4 w4 d w4 neg w4 d w4 neg w4 neg d cl f} def
/m48 {mp x y w4 add m w4 neg w4 d w4 neg w4 neg d w4 w4 neg d  w4 neg w4 neg d w4 w4 neg d w4 w4 d w4 w4 neg d w4 w4 d w4 neg w4 d w4 w4 d w4 neg w4 d w4 neg w4 neg d  w4 w4 neg d w4 neg w4 neg d w4 neg w4 d w4 w4 d cl f} def
/m49 {mp x w2 sub w3 add y w2 sub w3 add m  0 w3 neg d w3 0 d 0 w3 d w3 0 d 0 w3 d w3 neg 0 d 0 w3 d w3 neg 0 d 0 w3 neg d w3 neg 0 d 0 w3 neg d w3 0 d 0 w3 d w3 0 d 0 w3 neg d w3 neg 0 d cl f } def
/m2 {mp x y w2 sub m 0 w d x w2 sub y m w 0 d s} def
/m5 {mp x w2 sub y w2 sub m w w d x w2 sub y w2 add m w w neg d s} def
%%IncludeResource: ProcSet (FontSetInit)
%%IncludeResource: font Times-Roman
%%IncludeResource: font Times-Italic
%%IncludeResource: font Times-Bold
%%IncludeResource: font Times-BoldItalic
%%IncludeResource: font Helvetica
%%IncludeResource: font Helvetica-Oblique
%%IncludeResource: font Helvetica-Bold
%%IncludeResource: font Helvetica-BoldOblique
%%IncludeResource: font Courier
%%IncludeResource: font Courier-Oblique
%%IncludeResource: font Courier-Bold
%%IncludeResource: font Courier-BoldOblique
%%IncludeResource: font Symbol
%%IncludeResource: font ZapfDingbats
/reEncode {exch findfont dup length dict begin {1 index /FID eq  {pop pop} {def} ifelse } forall /Encoding exch def currentdict end dup /FontName get exch definefont pop } def [/Times-Bold /Times-Italic /Times-BoldItalic /Helvetica /Helvetica-Oblique
 /Helvetica-Bold /Helvetica-BoldOblique /Courier /Courier-Oblique /Courier-Bold /Courier-BoldOblique /Times-Roman /AvantGarde-Book /AvantGarde-BookOblique /AvantGarde-Demi /AvantGarde-DemiOblique /Bookman-Demi /Bookman-DemiItalic /Bookman-Light
 /Bookman-LightItalic /Helvetica-Narrow /Helvetica-Narrow-Bold /Helvetica-Narrow-BoldOblique /Helvetica-Narrow-Oblique /NewCenturySchlbk-Roman /NewCenturySchlbk-Bold /NewCenturySchlbk-BoldItalic /NewCenturySchlbk-Italic /Palatino-Bold
 /Palatino-BoldItalic /Palatino-Italic /Palatino-Roman ] {ISOLatin1Encoding reEncode } forall
%%EndProlog
%%BeginSetup
%%EndSetup
newpath  gsave  .25 .25 scale  gsave  0 0 t 0.490196 0.545098 0.615686 c[  ] 0 sd 3 lw 0.941176 0.941176 0.941176 c 2268 1676 0 0 bf black 1 1 0.992157 c 1796 1140 245 201 bf black 1796 1140 245 201 bl 1 1 0.992157 c 1796 1140 245 201 bf black 1796
 1140 245 201 bl 245 201 m 1796 X s[ 4 8] 0 sd 245 1341 m -1140 Y s 604 1341 m -1140 Y s 963 1341 m -1140 Y s 1323 1341 m -1140 Y s 1682 1341 m -1140 Y s 2041 1341 m -1140 Y s 245 1341 m -1140 Y s 2041 1341 m -1140 Y s[  ] 0 sd 245 201 m 1140 Y s[ 4
 8] 0 sd 2041 395 m -1796 X s 2041 605 m -1796 X s 2041 816 m -1796 X s 2041 1026 m -1796 X s 2041 1236 m -1796 X s 2041 395 m -1796 X s 2041 1236 m -1796 X s 0 0 0.933333 c[  22 12 ] 0 sd 6 lw 0.49 0.6 0.82 c black 0 0 0.933333 c 245 711 m 176 Y 6 X
 1 Y 3 X s 254 888 m 9 X s 263 888 m 7 X 1 Y 1 X s 271 889 m 9 X s 280 889 m 9 X s 289 889 m 4 X 1 Y 5 X s 298 890 m 9 X s 307 890 m 8 X s 315 890 m 8 X 1 Y 1 X s 324 891 m 9 X s 333 891 m 9 X s 342 891 m 9 X s 351 891 m 8 X s 359 891 m 9 X s 368 891
 m 9 X s 377 891 m 9 X s 386 891 m 5 X 1 Y 4 X s 395 892 m 8 X s 403 892 m 9 X s 412 892 m 9 X s 421 892 m 9 X s 430 892 m 9 X s 439 892 m 4 X 1 Y 1 X -1 Y 1 X 1 Y 2 X s 447 893 m 9 X s 456 893 m 9 X s 465 893 m 9 X s 474 893 m 9 X s 483 893 m 8 X s
 491 893 m 6 X 1 Y 3 X s 500 894 m 9 X s 509 894 m 9 X s 518 894 m 9 X s 527 894 m 8 X s 535 894 m 9 X s 544 894 m 9 X s 553 894 m 9 X s 562 894 m 9 X s 571 894 m 8 X s 579 894 m 9 X s 588 894 m 9 X s 597 894 m 9 X s 606 894 m 9 X s 615 894 m 8 X s
 623 894 m 9 X s 632 894 m 9 X s 641 894 m 3 X 1 Y 6 X s 650 895 m 1 -1 d 8 X s 659 894 m 1 X 1 Y 2 X -1 Y 5 X s 667 894 m 9 X s 676 894 m 9 X s 685 894 m 8 X 1 Y 1 X s 694 895 m 9 X s 703 895 m 8 X s 711 895 m 9 X s 720 895 m 9 X s 729 895 m 9 X s
 738 895 m 4 X -1 Y 5 X s 747 894 m 8 X s 755 894 m 1 X 1 Y 8 X s 764 895 m 9 X s 773 895 m 9 X s 782 895 m 5 X 1 -1 d 1 Y 3 X s 791 895 m 8 X s 799 895 m 8 X -1 Y 1 X s 808 894 m 9 X s 817 894 m 6 X 1 Y 3 X s 826 895 m 9 X s 835 895 m 8 X s 843 895
 m 9 X s 852 895 m 8 X -1 Y 1 X s 861 894 m 9 X s 870 894 m 1 X 1 Y 1 X -1 Y 7 X s 879 894 m 8 X s 887 894 m 9 X s 896 894 m 9 X s 905 894 m 9 X s 914 894 m 9 X s 923 894 m 8 X s 931 894 m 9 X s 940 894 m 9 X s 949 894 m 9 X s 958 894 m 9 X s 967 894
 m 8 X s 975 894 m 9 X s 984 894 m 9 X s 993 894 m 9 X s 1002 894 m 9 X s 1011 894 m 8 X s 1019 894 m 7 X 1 Y 2 X s 1028 895 m 9 X s 1037 895 m 9 X s 1046 895 m 9 X s 1055 895 m 8 X s 1063 895 m 9 X s 1072 895 m 9 X s 1081 895 m 9 X s 1090 895 m 9 X
 s 1099 895 m 8 X s 1107 895 m 9 X s 1116 895 m 9 X s 1125 895 m 9 X s 1134 895 m 9 X s 1143 895 m 8 X -1 Y s 1151 894 m 9 X s 1160 894 m 8 X 1 -1 d s 1169 893 m 9 X s 1178 893 m 9 X s 1187 893 m 8 X s 1195 893 m 9 X s 1204 893 m 9 X s 1213 893 m 9 X
 s 1222 893 m 9 X s 1231 893 m 3 X -1 Y 1 Y 1 X -1 Y 1 X -1 Y 1 X -1 Y 1 Y -1 Y 1 X -1 Y 1 X s 1239 889 m 1 X -1 Y 1 1 d -1 Y 1 X -1 Y 1 X 1 Y -1 Y 1 X 1 Y 1 -1 d 1 X -1 Y 1 -1 d -1 Y 1 X -2 Y s 1248 882 m 1 X -1 Y 1 1 d -1 Y 1 X -1 Y 1 X -1 Y 1 X -1
 Y 1 X -1 Y 1 X 1 Y 1 X -1 Y 1 Y -1 Y 1 X s 1257 877 m 1 X -1 Y 1 X -1 Y 1 X -1 Y 1 Y 1 X 1 -1 d 1 Y -1 Y 1 X 1 1 d -1 Y 1 X -1 Y 1 X -1 Y s 1266 872 m -1 Y 1 X -1 Y 1 -1 d 1 X -1 Y 1 X 1 -1 d 2 X 1 Y -1 Y 2 X s 1275 867 m 1 X -1 Y 2 X -1 Y 1 X -1 Y
 1 X -1 Y 1 X -1 Y 1 X -1 Y 1 X s 1283 861 m 1 X -1 Y 1 X -1 Y 1 1 d 1 X -1 Y 1 X -1 Y 1 Y -1 Y 1 X 1 -1 d -1 Y 1 Y 1 -1 d 1 -1 d 1 Y -1 Y s 1292 855 m -1 Y 1 1 d -2 Y 1 X -1 Y 1 -1 d 1 Y -1 Y 1 X -1 Y 1 X 1 Y -1 Y 1 X 1 -1 d -1 Y 2 X -1 Y s 1301 847
 m 1 1 d -1 Y 1 X -1 Y 1 Y 1 -1 d -1 Y 1 Y 1 -1 d -1 Y 1 X -1 Y 1 1 d -1 Y 1 -1 d -1 Y 1 X -1 Y 1 -1 d s 1310 839 m -1 Y 1 X -1 Y 1 X -1 Y 2 X -1 Y 1 X -1 Y 1 X 1 Y -1 Y 1 X -1 Y 1 X 1 Y -2 Y 1 X s 1319 832 m -2 Y 1 X 1 -1 d -1 Y 1 X -2 Y 1 X -1 Y 1
 Y -1 Y 1 -1 d -2 Y 1 -1 d -4 Y 1 X -1 Y 1 X -1 Y 1 Y -1 Y s 1327 815 m 2 X -2 Y 1 X -1 Y 1 X -1 Y 1 X -3 Y 1 X -1 Y 1 X -2 Y 1 Y -1 Y 1 X -2 Y 1 X -1 Y s 1336 802 m 1 X -5 Y 1 X -2 Y 1 -1 d -2 Y 1 -1 d -5 Y 1 X -3 Y 1 X -2 Y 1 -1 d -4 Y 1 -1 d -2 Y
 1 -1 d -2 Y s 1345 770 m -1 Y 1 X -3 Y 1 -1 d 1 Y -1 Y 1 -1 d -2 Y 1 X -3 Y 1 X -2 Y 1 -1 d -2 Y 1 X -2 Y 1 -1 d -1 Y 1 X -2 Y s 1354 748 m -2 Y 1 -1 d 1 Y -2 Y 1 -1 d 1 Y -1 Y 1 X -3 Y 1 X -2 Y 1 -1 d -2 Y 1 X -3 Y 1 -1 d -1 Y 1 Y 1 -1 d -3 Y 1 -1
 d s 1363 726 m -2 Y 1 X -1 Y 1 X -2 Y 1 1 d -3 Y 1 X 1 -1 d -2 Y 1 X -2 Y 1 -1 d -1 Y 1 X -1 Y s 1371 711 m 1 -1 d -2 Y 1 X -2 Y 1 X -1 Y 1 X -2 Y 1 -1 d -1 Y 1 X -3 Y 1 -1 d -3 Y 1 X -3 Y 1 X -1 Y 1 Y -1 Y s 1380 690 m -1 Y 1 X -1 Y 1 -1 d 1 Y -2 Y
 1 X -1 Y 1 -1 d -2 Y 1 X -1 Y 1 -2 d -1 Y 1 X -3 Y 1 Y 2 X -2 Y s 1389 674 m -1 Y 1 Y 1 X -2 Y 1 X -3 Y 1 X -1 Y 1 X -1 Y 1 -1 d 1 -1 d -1 Y 1 X -1 Y 1 -1 d -2 Y 1 X -1 Y s 1398 659 m -1 Y 1 -1 d 1 X -1 Y 1 X -2 Y 1 X -1 Y 1 Y 1 X -1 Y 1 -1 d 1 X -1
 Y 1 X -2 Y 1 X s 1407 649 m -1 Y 1 X -2 Y 1 X -2 Y 1 X -2 Y 1 Y 1 -1 d -1 Y 1 -1 d 1 Y -2 Y 1 X -1 Y 1 X -2 Y 1 X -2 Y s 1415 634 m 1 X -3 Y 1 X -2 Y 1 X -1 Y 1 X -1 Y 1 X -1 Y 1 X -1 Y 1 X -1 Y 1 -1 d 1 X s 1424 623 m 1 -1 d -1 Y 1 Y 1 -1 d -1 Y 1
 X -1 Y 1 X -1 Y 1 X -2 Y 1 -1 d -1 Y 2 X -2 Y 1 X s 1433 612 m -1 Y 1 X -1 Y 1 X -2 Y 1 X -1 Y 1 -1 d 1 Y -1 Y 1 -1 d 1 -1 d -1 Y 1 X -3 Y 1 X -1 Y 1 X -1 Y 1 Y s 1442 599 m -1 Y 1 1 d -2 Y 1 Y 1 X -1 Y 1 X -3 Y 1 X -1 Y 1 X -2 Y 1 X -1 Y 1 X -1 Y 1
 X -1 Y 1 X s 1451 588 m -1 Y 1 X -2 Y 1 -1 d -1 Y 1 X -3 Y 1 X -1 Y 1 Y 1 -1 d 1 X -1 Y 1 -1 d 1 X -2 Y s 1459 575 m 1 X -1 Y 1 Y -1 Y 1 X -1 Y 1 X 1 -1 d 1 -1 d -1 Y 1 X -1 Y 1 X -1 Y 1 X -1 Y 1 X -1 Y s 1468 566 m 1 X -1 Y 1 -1 d 1 Y -2 Y 1 X -1 Y
 1 X 1 -1 d 1 Y 1 -1 d -1 Y 1 X -2 Y 1 X -2 Y 1 X s 1477 556 m 1 X -1 Y 1 X -2 Y 1 1 d -2 Y 2 X -1 Y 1 X -2 Y 1 X -1 Y 1 Y 1 X -3 Y 1 X -1 Y s 1486 545 m -1 Y 2 X -1 Y 1 -1 d 1 X -1 Y 1 X -1 Y 1 X -1 Y 1 -1 d -1 Y 1 -1 d 1 X s 1495 536 m -2 Y 1 X -2
 Y 1 X -2 Y 1 X 1 Y -2 Y 1 X -1 Y 1 X -2 Y 2 X -1 Y 1 X -1 Y s 1503 524 m 1 -1 d -1 Y 1 Y 1 -1 d -1 Y 1 X -1 Y 1 Y -1 Y 2 X -1 Y 1 X 1 -1 d 1 X -1 Y 1 -1 d -1 Y s 1512 515 m 1 X 1 -1 d 1 X -1 Y 1 X 1 -1 d -1 Y 1 X -1 Y 1 X -1 Y 1 -1 d -1 Y 1 -1 d s
 1521 506 m 1 X -1 Y 1 X -1 Y 1 X -2 Y 1 X -2 Y 1 X -1 Y 1 X -1 Y 1 X -2 Y 1 X -1 Y 1 X s 1530 495 m -1 Y 1 -1 d 1 X -1 Y 1 X -1 Y 2 X -1 Y 1 X -1 Y 1 X -1 Y 1 X -1 Y 1 X s 1539 487 m 1 X -1 Y 2 X -2 Y 1 X -1 Y 1 Y 1 X -2 Y 1 X -2 Y 1 X -1 Y 1 X -2 Y
 s 1547 477 m 1 X -1 Y 1 X 1 -1 d 1 X -1 Y 1 X -1 Y 1 X -2 Y 1 Y 1 -1 d -1 Y 1 X -1 Y 1 -1 d 1 Y s 1556 469 m -1 Y 1 X -1 Y 1 X -2 Y 1 X -2 Y 1 X -1 Y 1 -1 d -1 Y 2 X -2 Y 1 X -1 Y 1 X -1 Y s 1565 456 m 1 X -1 Y 1 -1 d -1 Y 2 X -1 Y 1 X -2 Y 2 X -1 Y
 2 X -1 Y s 1574 448 m -1 Y 2 X -1 Y 2 X -1 Y 1 X -2 Y 1 X -1 Y 1 -1 d -1 Y 1 X -1 Y 1 X s 1583 439 m -1 Y 1 X -1 Y 1 Y -1 Y 1 X 1 -1 d -1 Y 1 X -1 Y 2 X 1 -1 d 1 X -1 Y s 1591 432 m 3 X -1 Y 1 X -1 Y 2 X -1 Y 1 -1 d 1 Y -1 Y 2 X s 1600 428 m 1 -1 d
 1 X -2 Y 1 X -1 Y 2 X -1 Y 1 X -1 Y 1 X -2 Y 2 X -1 Y 1 Y s 1609 420 m -1 Y 1 X -1 Y 1 X -2 Y 1 X -1 Y 1 X -1 Y 1 X 1 Y 1 -1 d -1 Y 1 X -1 Y 1 X -1 Y 1 X s 1618 411 m 1 X -1 Y 1 X 1 -1 d 2 X -1 Y 1 X -1 Y 2 X -1 Y 1 X s 1627 406 m -1 Y 1 X -1 Y 2 X
 -1 Y 1 -1 d 2 X -1 Y 1 X -1 Y 1 X -1 Y s 1635 399 m 2 X -1 Y 1 X 1 Y -1 Y 1 X -1 Y 1 X -2 Y 1 X 1 Y 1 -1 d 1 -1 d 1 X s 1644 394 m 1 X -2 Y 2 X -1 Y 2 X -1 Y 2 X -1 Y 1 X -1 Y 1 X -1 Y s 1653 387 m 1 X -1 Y 1 X -2 Y 1 X -1 Y 2 X -3 Y 1 X 1 -1 d 1 X
 -1 Y 1 X s 1662 378 m -1 Y 1 X -1 Y 1 X -1 Y 1 X -3 Y 1 -1 d -1 Y 1 X -1 Y 1 -1 d 2 X -1 Y 1 X s 1671 367 m 3 X -1 Y 2 X -1 Y 2 X -1 Y 1 X -1 Y s 1679 363 m 2 X -1 Y 2 X -1 Y 1 X -1 Y 2 X -1 Y 1 X 1 -1 d s 1688 358 m 3 X -1 Y 2 X -1 Y 1 X 1 Y -1 Y 3
 X s 1697 356 m 1 -1 d 4 X -1 Y 3 X -1 Y 1 X s 1706 353 m 1 X -1 Y 3 X -1 Y 1 -1 d 1 Y 1 X 1 -1 d 2 X -1 Y s 1715 349 m 3 X 1 -1 d 3 X -1 Y 1 X s 1723 347 m 1 X -1 Y 1 X 1 -1 d 2 X -1 Y 1 X -1 Y 1 X 1 Y -1 Y 2 X s 1732 343 m 1 X -1 Y 2 X -1 Y 1 X 1
 -1 d 2 X 1 -1 d 1 X -1 Y s 1741 338 m 3 X -1 Y 2 X 1 -1 d 2 X -1 Y 1 X s 1750 335 m -1 Y 3 X -1 Y 2 X -1 Y 3 X 1 -1 d s 1759 331 m 2 X 1 -1 d 1 X 1 -1 d 1 X -1 Y 2 X s 1767 328 m 2 X 1 -1 d 1 X -1 Y 2 X -1 Y 3 X -1 Y s 1776 324 m 3 X -1 Y 1 X 1 -1 d
 3 X 1 -1 d s 1785 321 m 2 X -1 Y 2 X 1 -1 d 1 X -1 Y 2 X 1 -1 d s 1794 317 m 1 X 1 -1 d 1 Y 1 X -1 Y 1 X 1 -1 d 2 X -1 Y 2 X s 1803 314 m 5 X -1 Y 1 X 1 Y 1 X -1 Y 2 X s 1812 313 m 1 -1 d 5 X -1 Y 2 X s 1820 311 m 5 X -1 Y 4 X s 1829 310 m 1 -1 d 4
 X -1 Y 4 X s 1838 308 m 2 X -1 Y 5 X -1 Y 2 X s 1847 306 m 2 X -1 Y 7 X s 1856 305 m 5 X -1 Y 1 Y 1 X 1 -1 d 1 X s 1864 304 m 3 X 1 -1 d 5 X s 1873 303 m 1 X -1 Y 2 X -1 Y 3 X -1 Y 3 X s 1882 300 m 5 X -1 Y 4 X s 1891 299 m 2 X 1 -1 d 3 X -1 Y 2 X 1
 -1 d s 1900 296 m 2 X -1 Y 6 X s 1908 295 m 1 X -1 Y 5 X -1 Y 3 X s 1917 293 m 2 X -1 Y 5 X -1 Y 2 X s 1926 291 m 6 X -1 Y 1 X 1 -1 d 1 X s 1935 289 m 1 X -1 Y 7 X -1 Y 1 X s 1944 287 m 4 X -1 Y 3 X -1 Y 1 X s 1952 285 m 3 X -1 Y 1 X -1 Y 5 X s 1961
 283 m 1 -1 d 2 X 1 -1 d 5 X s 1970 281 m 1 -1 d 5 X 1 Y 1 X -1 Y 1 X 1 Y -1 Y 1 X s 1979 280 m 3 X -1 Y 2 X -1 Y 2 X -1 Y 2 X s 1988 277 m 6 X -1 Y 2 X s 1996 276 m 6 X -1 Y 2 X 1 -1 d s 2005 274 m -1 Y 7 X -1 Y 2 X s 2014 272 m 3 X -1 Y 1 X -1 Y 3
 X -1 Y 2 X s 2023 269 m 1 X -1 Y 3 X -1 Y 2 X 1 -1 d 2 X s 2032 266 m -1 Y 1 X -1 Y 1 -1 d 1 X -1 Y 1 X 1 -1 d -2 Y 1 X -1 Y 1 X -1 Y 1 X -1 Y s 2040 256 m 1 X -1 Y s black[  ] 0 sd 3 lw 245 201 m 1796 X s 245 241 m -40 Y s 335 221 m -20 Y s 425 221
 m -20 Y s 514 221 m -20 Y s 604 241 m -40 Y s 694 221 m -20 Y s 784 221 m -20 Y s 874 221 m -20 Y s 963 241 m -40 Y s 1053 221 m -20 Y s 1143 221 m -20 Y s 1233 221 m -20 Y s 1323 241 m -40 Y s 1412 221 m -20 Y s 1502 221 m -20 Y s 1592 221 m -20 Y
 s 1682 241 m -40 Y s 1772 221 m -20 Y s 1861 221 m -20 Y s 1951 221 m -20 Y s 2041 241 m -40 Y s 245 241 m -40 Y s 2041 241 m -40 Y s
 gsave  2268 1676 0 0 C 223.738 128.934 t 0 r /Helvetica-Bold findfont 64.4669 sf 0 0 m (0) show NC gr 
 gsave  2268 1676 0 0 C 557.449 128.934 t 0 r /Helvetica-Bold findfont 64.4669 sf 0 0 m (0.2) show NC gr 
 gsave  2268 1676 0 0 C 917.705 128.934 t 0 r /Helvetica-Bold findfont 64.4669 sf 0 0 m (0.4) show NC gr 
 gsave  2268 1676 0 0 C 1274.17 128.934 t 0 r /Helvetica-Bold findfont 64.4669 sf 0 0 m (0.6) show NC gr 
 gsave  2268 1676 0 0 C 1634.42 128.934 t 0 r /Helvetica-Bold findfont 64.4669 sf 0 0 m (0.8) show NC gr 
 gsave  2268 1676 0 0 C 2025.02 128.934 t 0 r /Helvetica-Bold findfont 64.4669 sf 0 0 m (1) show NC gr 
 gsave  2268 1676 0 0 C 557.449 30.3373 t 0 r /Helvetica-Bold findfont 72.0512 sf 0 0 m (Cut value applied on LikelihoodPCA output) show NC gr  245 201 m 1140 Y s 291 395 m -46 X s 268 448 m -23 X s 268 500 m -23 X s 268 553 m -23 X s 291 605 m -46 X
 s 268 658 m -23 X s 268 711 m -23 X s 268 763 m -23 X s 291 816 m -46 X s 268 868 m -23 X s 268 921 m -23 X s 268 973 m -23 X s 291 1026 m -46 X s 268 1078 m -23 X s 268 1131 m -23 X s 268 1183 m -23 X s 291 1236 m -46 X s 291 395 m -46 X s 268 343
 m -23 X s 268 290 m -23 X s 268 238 m -23 X s 291 1236 m -46 X s 268 1288 m -23 X s
 gsave  2268 1676 0 0 C 128.934 371.632 t 0 r /Helvetica-Bold findfont 64.4669 sf 0 0 m (0.2) show NC gr 
 gsave  2268 1676 0 0 C 125.142 580.202 t 0 r /Helvetica-Bold findfont 64.4669 sf 0 0 m (0.4) show NC gr 
 gsave  2268 1676 0 0 C 128.934 792.563 t 0 r /Helvetica-Bold findfont 64.4669 sf 0 0 m (0.6) show NC gr 
 gsave  2268 1676 0 0 C 125.142 1001.13 t 0 r /Helvetica-Bold findfont 64.4669 sf 0 0 m (0.8) show NC gr 
 gsave  2268 1676 0 0 C 189.608 1209.7 t 0 r /Helvetica-Bold findfont 64.4669 sf 0 0 m (1) show NC gr 
 gsave  2268 1676 0 0 C 64.4669 731.888 t 90 r /Helvetica-Bold findfont 72.0512 sf 0 0 m (Efficiency \(Purity\)) show NC gr  0 0 0.933333 c[  52 12 ] 0 sd 6 lw 0.49 0.6 0.82 c black 0 0 0.933333 c 245 711 m 176 Y 6 X 1 Y 3 X s 254 888 m 7 X 1 Y 2 X s
 263 889 m 8 X s 271 889 m 9 X s 280 889 m 9 X s 289 889 m 1 Y 9 X s 298 890 m 9 X s 307 890 m 6 X 1 1 d 1 X s 315 891 m 9 X s 324 891 m 9 X s 333 891 m 9 X s 342 891 m 9 X s 351 891 m 8 X s 359 891 m 8 X 1 Y 1 X s 368 892 m 9 X s 377 892 m 9 X s 386
 892 m 9 X s 395 892 m 8 X s 403 892 m 9 X s 412 892 m 9 X s 421 892 m 9 X s 430 892 m 9 X s 439 892 m 2 X 1 Y 6 X s 447 893 m 9 X s 456 893 m 9 X s 465 893 m 4 X 1 Y 5 X s 474 894 m 9 X s 483 894 m 8 X s 491 894 m 9 X s 500 894 m 6 X 1 Y 3 X s 509
 895 m 9 X s 518 895 m 9 X s 527 895 m 8 X s 535 895 m 9 X s 544 895 m 9 X s 553 895 m 9 X s 562 895 m 9 X s 571 895 m 8 X s 579 895 m 9 X s 588 895 m 9 X s 597 895 m 9 X s 606 895 m 9 X s 615 895 m 1 X 1 Y 7 X s 623 896 m 9 X s 632 896 m 9 X s 641
 896 m 9 X s 650 896 m 9 X s 659 896 m 8 X s 667 896 m 9 X s 676 896 m 9 X s 685 896 m 8 X 1 Y 1 X s 694 897 m 9 X s 703 897 m 8 X s 711 897 m 9 X s 720 897 m 9 X s 729 897 m 9 X s 738 897 m 9 X s 747 897 m 8 X s 755 897 m 9 X s 764 897 m 9 X s 773
 897 m 9 X s 782 897 m 9 X s 791 897 m 8 X s 799 897 m 9 X s 808 897 m 9 X s 817 897 m 6 X 1 Y 3 X s 826 898 m 9 X s 835 898 m 8 X s 843 898 m 9 X s 852 898 m 9 X s 861 898 m 9 X s 870 898 m 9 X s 879 898 m 8 X s 887 898 m 9 X s 896 898 m 9 X s 905
 898 m 9 X s 914 898 m 9 X s 923 898 m 8 X s 931 898 m 9 X s 940 898 m 7 X 1 1 d 1 X s 949 899 m 9 X s 958 899 m 9 X s 967 899 m 8 X s 975 899 m 6 X -1 Y 1 X 1 Y 2 X s 984 899 m 9 X s 993 899 m 9 X s 1002 899 m 9 X s 1011 899 m 8 X s 1019 899 m 9 X s
 1028 899 m 9 X s 1037 899 m 1 X 1 Y 8 X s 1046 900 m 9 X s 1055 900 m 8 X s 1063 900 m 9 X s 1072 900 m 9 X s 1081 900 m 9 X s 1090 900 m 9 X s 1099 900 m 8 X s 1107 900 m 9 X s 1116 900 m 9 X s 1125 900 m 1 X 1 Y 8 X s 1134 901 m 9 X s 1143 901 m 8
 X s 1151 901 m 1 X -1 Y 8 X s 1160 900 m 9 X s 1169 900 m 9 X s 1178 900 m 9 X s 1187 900 m 8 X s 1195 900 m 9 X s 1204 900 m 9 X s 1213 900 m 9 X s 1222 900 m 1 X 1 Y 8 X s 1231 901 m 2 X 1 Y -1 Y 1 Y 3 X 1 Y 2 X 1 Y 1 X 1 Y s 1239 905 m 2 X 1 Y 2
 X 1 Y 2 X 1 Y 3 X s 1248 908 m 1 X 1 Y 2 X 1 Y 2 X 1 Y 1 X -1 Y 1 Y 1 X 1 Y 2 X 1 Y s 1257 913 m 2 X 1 Y 3 X 1 Y 1 X 1 Y 1 X 1 Y 2 X s 1266 917 m 1 X 1 -1 d 1 Y 1 X 1 Y 2 X 1 Y 2 X 1 Y 1 X 1 Y 1 X s 1275 921 m 2 X 1 Y 2 X 1 Y -1 Y 1 1 d 3 X 1 Y s
 1283 924 m 3 X 1 Y 2 X 1 Y 3 X 1 Y 1 X s 1292 927 m 2 X 1 Y -1 Y 1 X 1 Y 1 X -1 Y 1 Y 1 X 1 Y 3 X 1 Y 1 X s 1301 930 m 1 Y 2 X 1 Y 5 X 1 Y 1 X -1 Y 1 Y 1 -1 d s 1310 932 m 1 Y 1 X -1 Y 1 Y 2 X 1 Y 1 X -1 Y 1 Y 1 X 1 Y 2 X 1 Y -1 Y 1 1 d 1 X s 1319
 936 m 1 Y 1 X 1 Y 1 X 1 Y 1 X 1 Y 1 X 1 Y 2 X 1 Y -1 Y 1 X 1 Y 1 X 1 Y s 1327 943 m 1 1 d 2 Y 1 X 1 Y 1 X 1 Y 1 X 1 Y 1 1 d -1 Y 1 Y 1 X 2 Y 1 X 1 Y 1 1 d 1 Y 1 X 1 Y s 1336 956 m 1 Y 1 1 d -1 Y 1 Y 1 X 1 Y 1 X 2 Y 1 X 1 Y 1 X 2 Y 1 X 2 Y 1 X 1 Y 1
 1 d 1 Y 1 1 d 3 Y s 1345 973 m 1 Y 1 X 2 Y 1 X 4 Y 1 X 2 Y 1 X 2 Y 1 X 2 Y 1 1 d 1 Y 1 1 d 2 Y 1 X 2 Y -1 Y 1 1 d -1 Y 1 Y s 1354 993 m -1 Y 1 Y 1 X 2 Y 1 X 2 Y 1 X 1 Y -1 Y 1 1 d -1 Y 1 Y 1 X 2 Y 2 X 3 Y 1 -1 d 2 Y 1 X s 1363 1004 m 2 Y 1 X 1 Y 1 X
 1 Y 1 2 d 1 X 2 Y 1 X 1 Y 1 X 1 Y 1 X 1 Y 1 X 1 Y s 1371 1016 m 1 X 1 Y 2 X 2 Y 1 X 1 Y 1 X 1 Y 3 X 1 Y -1 Y 1 1 d 1 Y s 1380 1023 m 1 X 1 Y 1 X 1 Y 1 X 1 Y 3 X 1 Y 1 X 1 Y -1 Y 1 Y 1 X 1 Y 1 X s 1389 1029 m 1 1 d 1 Y 3 X 1 1 d 1 Y 1 1 d -1 Y 1 1 d
 1 Y 1 X -1 Y 1 Y 1 X s 1398 1035 m 1 X 2 Y 3 X 2 Y 1 X 1 Y 2 X 2 Y -1 Y 1 X 1 Y 1 X s 1407 1042 m 1 1 d 4 X 1 Y 1 X 1 Y 2 X 1 Y -1 Y 1 Y s 1415 1046 m 1 X -1 Y 1 X 1 Y -1 Y 1 X 1 Y 1 X 1 Y 2 X 1 Y -1 Y 1 X 1 Y 1 -1 d 1 Y 1 X 1 Y s 1424 1049 m 1 X 1
 Y 2 X 1 Y -1 Y 1 X 1 Y 1 X -1 Y 1 X 1 Y 1 -1 d 1 Y 1 1 d -1 Y 1 X 1 Y s 1433 1052 m 1 1 d 2 X 1 Y 3 X 1 Y 1 -1 d 1 Y -1 Y 2 X 1 Y s 1442 1055 m 1 2 d -1 Y 1 Y 1 X 1 Y 1 X -1 Y 1 Y 1 X -1 Y 1 Y -1 Y 1 X 1 Y -1 Y 4 X s 1451 1057 m 1 Y -1 Y 1 Y 1 X -1
 Y 2 X -1 Y 1 X 1 Y 1 X 1 Y 2 X -1 Y 1 X s 1459 1057 m 3 X 1 Y 2 X 1 Y 2 X 1 Y -1 Y 1 1 d -1 Y 1 X s 1468 1059 m 1 1 d 1 X 2 Y -1 Y 2 X 2 Y 1 X 2 Y 1 -1 d 1 Y 1 X -1 Y 1 Y 1 -1 d 1 X s 1477 1064 m 1 X 1 Y 1 -1 d 1 Y 1 X 1 Y -1 Y 1 Y 2 X 1 Y 1 -1 d 1
 1 d 1 1 d -1 Y 1 X s 1486 1067 m 4 X 1 Y 1 -1 d 1 Y 1 X -1 Y 3 X s 1495 1067 m -1 Y 1 1 d -1 Y 1 X -1 Y 1 X 1 Y -1 Y 1 Y 1 -1 d 1 Y -1 Y 1 Y 1 X -1 Y 1 X 1 Y 1 X 1 Y 1 X s 1503 1067 m 1 X 1 Y 1 X -1 Y 3 X 1 Y 2 X 1 Y 1 X 1 Y 1 X s 1512 1070 m 2 X 1
 Y 1 -1 d 1 Y 4 X 1 Y 1 -1 d 1 Y -1 Y 1 X s 1521 1071 m 2 X 1 Y 2 X -1 Y 1 Y -1 Y 1 1 d -1 Y 1 Y 3 X 1 Y -1 Y 1 Y 1 X -1 Y s 1530 1072 m 3 X 1 Y 2 X 1 Y 1 X -1 Y 1 X 1 Y -1 Y 1 X 1 Y -1 Y 1 X s 1539 1073 m 1 Y 3 X -1 Y 1 Y 1 X -1 Y 1 Y 1 X 1 Y 1 -1 d
 1 X -1 Y 1 X -1 Y s 1547 1072 m 1 1 d 1 Y 1 X 1 Y 1 X 1 Y 1 X 2 Y 1 -1 d 1 1 d 1 X 1 -1 d 1 Y -1 Y 1 X 2 Y s 1556 1079 m 1 X 1 Y -1 Y 1 1 d -1 Y 1 X 1 1 d -1 Y 2 X 1 Y 1 1 d -1 Y 1 X 1 Y 1 X s 1565 1081 m 4 X 1 Y 3 X 1 Y 1 X 1 Y 1 X 1 Y s 1574 1085
 m -1 Y 1 Y 1 X -1 Y 2 Y 1 1 d -1 Y 1 X 3 Y 1 X 1 Y -1 Y 1 Y 2 X 1 1 d -1 Y 1 X 1 1 d -1 Y s 1583 1090 m 1 Y 1 X 1 Y 1 X 1 Y 1 X -1 Y 1 Y 1 X 1 Y 1 X 1 Y 1 1 d 2 Y 1 X 2 Y 1 X 1 Y s 1591 1101 m 2 X 1 Y 2 X 1 Y 1 X 2 Y 1 X 1 -1 d 3 Y 1 X 1 Y 1 -1 d 2
 Y s 1600 1109 m 1 X 1 Y 1 X 1 Y -1 Y 2 X 1 1 d 1 X 1 Y 1 X -1 Y 1 X 1 Y -1 Y 1 1 d 1 Y s 1609 1113 m 2 X -1 Y 1 X 1 Y 1 X 1 Y 1 X 1 Y -1 Y 2 Y 1 -1 d 1 Y 1 X 1 Y 1 X 1 Y -1 Y 1 X s 1618 1117 m 1 X 1 1 d 1 Y 2 X 1 Y 1 X 2 Y -1 Y 2 X 1 Y 1 X -1 Y 1 2
 d s 1627 1123 m -1 Y 3 X -1 Y 1 Y 1 X 2 Y 1 X 1 Y 1 X 1 Y -1 Y 2 Y 2 X 2 Y s 1635 1129 m 1 X -1 Y 3 Y 1 -1 d 1 Y 1 1 d 1 X 1 Y 1 X 1 Y 1 X 1 Y 1 X 1 Y 1 X 1 Y 1 X s 1644 1137 m 1 Y 1 X -1 Y 3 X 2 Y 1 X -1 Y 1 X 1 1 d 2 Y 1 X -1 Y 1 X s 1653 1140 m 1
 X 1 Y 1 -1 d 1 Y 2 X 1 1 d -1 Y 1 X 1 Y 1 X -1 Y 1 1 d 1 Y 1 X s 1662 1143 m 1 Y 1 1 d -1 Y 1 X 1 Y 2 X -1 Y 2 Y 1 X -1 Y 1 X 1 Y 1 X 1 Y 2 X -1 Y s 1671 1146 m 1 Y 1 X 1 Y 1 X 1 Y 2 X -1 Y 1 X 1 Y 1 X 1 1 d 1 X -1 Y s 1679 1149 m 2 X 2 Y 1 -1 d 4 X
 -1 Y 2 X 1 Y s 1688 1150 m 1 X 1 Y 1 1 d 1 -1 d 1 Y 1 X 1 Y 2 X 1 Y 2 X 1 Y 1 X s 1697 1155 m 3 X 1 1 d 3 X -1 Y 2 X 1 Y s 1706 1156 m 3 X 1 -1 d 1 X 2 Y 4 X s 1715 1157 m -1 Y 3 X 1 Y 1 X 1 Y 1 1 d 1 Y 1 X 1 Y 2 X -1 Y s 1723 1160 m 6 X -1 Y 1 X 1
 Y 1 X 1 Y 1 X s 1732 1161 m 2 X 3 Y 1 X -1 Y 4 X 1 Y 2 X -1 Y s 1741 1163 m 1 X 1 Y 1 X 1 Y 1 X 1 Y 1 X 1 Y 2 X 1 Y 3 X -1 Y s 1750 1167 m 1 Y 2 X 1 Y 1 X 2 Y -1 Y 2 X 1 Y 1 X 1 Y 1 1 d 1 Y 2 X s 1759 1174 m 1 1 d 4 X -1 Y 2 X 1 Y 1 X 2 Y s 1767
 1177 m 1 X 1 Y 2 X -1 Y 2 Y 1 X 1 Y 2 X -1 Y 2 Y 1 X 1 1 d 1 1 d s 1776 1183 m 2 X 2 Y 1 X 1 Y 3 X 1 Y 1 X 2 Y 1 X 1 Y 1 X s 1785 1190 m 2 X 1 Y 3 X 1 -1 d 2 Y 2 X 1 Y 1 X s 1794 1193 m 2 X 1 Y 5 X -1 Y 2 X s 1803 1193 m 1 X 1 2 d 1 X 1 Y 3 X 2 Y 1
 X -1 Y 2 X s 1812 1197 m 1 X 2 Y 5 X -1 Y 2 X s 1820 1198 m 2 X 2 Y 7 X s 1829 1200 m -1 Y 8 X 2 Y 1 X s 1838 1201 m 2 X -1 Y 5 X 2 Y 2 X 1 Y s 1847 1203 m 5 X 2 Y 4 X s 1856 1205 m 1 X 1 Y 4 X 2 Y 3 X s 1864 1208 m 4 X -1 Y 2 X 2 Y 3 X s 1873 1209
 m 8 X -1 Y 1 X s 1882 1208 m 2 X 2 Y 7 X s 1891 1210 m 7 X -1 Y 2 X s 1900 1209 m 5 X 2 Y 3 X s 1908 1211 m 6 X 1 Y 3 X s 1917 1212 m 9 X s 1926 1212 m 4 X 1 2 d 2 Y 2 X 1 -1 d 1 X s 1935 1215 m 3 X 2 Y 1 X 2 Y 5 X s 1944 1219 m 8 X s 1952 1219 m 4
 X -1 Y 5 X s 1961 1218 m 9 X s 1970 1218 m 6 X 2 Y 2 X 2 Y 1 X s 1979 1222 m 2 X 2 Y 7 X s 1988 1224 m 2 X 5 Y 6 X s 1996 1229 m 1 X 2 Y 8 X s 2005 1231 m 2 X 1 2 d 6 X s 2014 1233 m 9 X s 2023 1233 m 9 X s 2032 1233 m 8 X s 2040 1233 m 1 X s[  ] 0
 sd 9 lw 0.49 0.6 0.82 c black 0 0 0.933333 c 245 1236 m 9 X s 254 1236 m 9 X s 263 1236 m 8 X s 271 1236 m 4 X -1 Y 5 X s 280 1235 m 9 X s 289 1235 m 9 X s 298 1235 m 9 X s 307 1235 m 8 X s 315 1235 m 9 X s 324 1235 m 9 X s 333 1235 m 9 X s 342 1235
 m 9 X s 351 1235 m 8 X s 359 1235 m 9 X s 368 1235 m 9 X s 377 1235 m 9 X s 386 1235 m 9 X s 395 1235 m 8 X s 403 1235 m 9 X s 412 1235 m 9 X s 421 1235 m 9 X s 430 1235 m 9 X s 439 1235 m 8 X s 447 1235 m 9 X s 456 1235 m 9 X s 465 1235 m 9 X s 474
 1235 m 9 X s 483 1235 m 8 X s 491 1235 m 9 X s 500 1235 m 9 X s 509 1235 m 9 X s 518 1235 m 9 X s 527 1235 m 8 X s 535 1235 m 4 X -1 Y 5 X s 544 1234 m 9 X s 553 1234 m 9 X s 562 1234 m 9 X s 571 1234 m 8 X s 579 1234 m 9 X s 588 1234 m 9 X s 597
 1234 m 9 X s 606 1234 m 9 X s 615 1234 m 8 X s 623 1234 m 9 X s 632 1234 m 9 X s 641 1234 m 9 X s 650 1234 m 1 X -1 Y 8 X s 659 1233 m 8 X s 667 1233 m 9 X s 676 1233 m 9 X s 685 1233 m 9 X s 694 1233 m 9 X s 703 1233 m 8 X s 711 1233 m 9 X s 720
 1233 m 8 X -1 Y 1 X s 729 1232 m 9 X s 738 1232 m 9 X s 747 1232 m 8 X s 755 1232 m 9 X s 764 1232 m 9 X s 773 1232 m 9 X s 782 1232 m 9 X s 791 1232 m 8 X s 799 1232 m 8 X -1 Y 1 X s 808 1231 m 9 X s 817 1231 m 9 X s 826 1231 m 9 X s 835 1231 m 8 X
 s 843 1231 m 9 X s 852 1231 m 9 X s 861 1231 m 9 X s 870 1231 m 2 X -1 Y 7 X s 879 1230 m 8 X s 887 1230 m 9 X s 896 1230 m 9 X s 905 1230 m 9 X s 914 1230 m 9 X s 923 1230 m 8 X s 931 1230 m 9 X s 940 1230 m 9 X s 949 1230 m 9 X s 958 1230 m 9 X s
 967 1230 m 7 X -1 Y 1 X s 975 1229 m 9 X s 984 1229 m 9 X s 993 1229 m 9 X s 1002 1229 m 9 X s 1011 1229 m 8 X s 1019 1229 m 9 X s 1028 1229 m 9 X s 1037 1229 m 9 X s 1046 1229 m 9 X s 1055 1229 m 2 X -1 Y 6 X s 1063 1228 m 9 X s 1072 1228 m 9 X s
 1081 1228 m 9 X s 1090 1228 m 9 X s 1099 1228 m 8 X s 1107 1228 m 9 X s 1116 1228 m 9 X s 1125 1228 m 9 X s 1134 1228 m 5 X -1 Y 4 X s 1143 1227 m 8 X s 1151 1227 m 3 X -1 Y 6 X s 1160 1226 m 9 X s 1169 1226 m 6 X -1 Y 3 X s 1178 1225 m 9 X s 1187
 1225 m 8 X s 1195 1225 m 9 X s 1204 1225 m 9 X s 1213 1225 m 9 X s 1222 1225 m 5 X -1 Y 4 X s 1231 1224 m 2 X -1 Y 1 X -1 Y 1 X -1 Y 1 -1 d -2 Y 1 X -2 Y 1 X -2 Y 1 X -1 Y s 1239 1213 m 1 X -1 Y 1 -1 d -1 Y 1 X -1 Y 1 X -2 Y 2 X -2 Y 1 X -2 Y 1 X -2
 Y 1 -1 d -2 Y s 1248 1198 m 1 X -2 Y 1 X -2 Y 1 X -1 Y 1 -1 d -1 Y 1 X -2 Y 1 X -2 Y 1 X -1 Y 1 X -1 Y 1 X -1 Y s 1257 1184 m 1 X -2 Y 1 X -1 Y 1 -1 d -1 Y 1 X -1 Y 1 X -1 Y 1 X -1 Y 1 X -1 Y 1 X -2 Y 1 X -1 Y s 1266 1172 m -2 Y 1 X -1 Y 1 -1 d -1 Y
 1 X -2 Y 1 X -1 Y 1 -1 d -1 Y 1 X -1 Y 1 X 1 -1 d 1 -1 d s 1275 1159 m -1 Y 1 X -2 Y 2 X -1 Y 1 -1 d -1 Y 1 -1 d -1 Y 1 X -2 Y 1 -1 d 1 -1 d s 1283 1147 m 1 -1 d -1 Y 1 X -1 Y 1 X -1 Y 1 X -1 Y 1 -1 d -1 Y 1 X -1 Y 1 -1 d -1 Y 1 -1 d -1 Y 1 X -2 Y s
 1292 1133 m 1 X -2 Y 1 X -2 Y 1 -1 d 1 X -2 Y 1 X -1 Y 1 X -1 Y 1 -1 d -2 Y 1 X -1 Y 1 X -1 Y s 1301 1119 m -1 Y 1 X -1 Y 1 X -1 Y 1 X -2 Y 1 -1 d 1 X -2 Y 1 X -1 Y 1 -1 d -2 Y 1 X -1 Y 1 -1 d -1 Y s 1310 1104 m -1 Y 1 X -2 Y 1 X -1 Y 1 X -1 Y 1 X
 -2 Y 1 X -2 Y 1 X -1 Y 1 X -1 Y 1 X -2 Y 1 -1 d s 1319 1090 m -3 Y 1 X -2 Y 1 -1 d -3 Y 1 X -4 Y 1 X -3 Y 1 X -4 Y 1 -1 d -6 Y 1 -1 d -1 Y 1 X -3 Y s 1327 1058 m 1 X -3 Y 1 X -4 Y 1 X -2 Y 1 X -4 Y 1 X -4 Y 1 -1 d -3 Y 1 X -4 Y 1 -1 d -3 Y 1 -1 d -3
 Y s 1336 1025 m -1 Y 1 X -6 Y 1 -1 d -5 Y 1 -1 d -4 Y 1 -1 d -7 Y 1 -1 d -6 Y 1 -1 d -4 Y 1 -1 d -8 Y 1 -1 d -4 Y 1 -2 d -5 Y s 1345 966 m -2 Y 1 -1 d -6 Y 1 -1 d -4 Y 1 -1 d -4 Y 1 -2 d -5 Y 1 -1 d -4 Y 1 -2 d -4 Y 1 X -4 Y 1 -1 d -4 Y 1 X -2 Y s
 1354 918 m -3 Y 1 -1 d -3 Y 1 -2 d -2 Y 1 X -4 Y 1 X -3 Y 1 -1 d -4 Y 1 -2 d -3 Y 1 -1 d -2 Y 1 -1 d -6 Y 1 -1 d s 1363 879 m -3 Y 1 -1 d -2 Y 1 X -3 Y 1 -1 d -3 Y 1 -1 d -2 Y 1 -1 d -3 Y 1 -1 d -2 Y 1 -1 d -3 Y 1 X -2 Y s 1371 850 m 1 -1 d -3 Y 1 X
 -3 Y 1 X -2 Y 1 -1 d -3 Y 1 -2 d -2 Y 1 X -4 Y 1 X -4 Y 1 -1 d -3 Y 1 -1 d -2 Y s 1380 818 m -1 Y 1 X -2 Y 1 X -3 Y 1 X -2 Y 1 -1 d -2 Y 1 -1 d -2 Y 1 -1 d -2 Y 1 -1 d -3 Y 1 X -1 Y 1 X -3 Y s 1389 793 m 1 X -3 Y 1 X -3 Y 1 -1 d -1 Y 1 -1 d -1 Y 1 X
 -3 Y 1 X -2 Y 1 -1 d -1 Y 1 -1 d -2 Y 1 -1 d -1 Y s 1398 771 m -2 Y 1 X -2 Y 1 X -1 Y 1 X -2 Y 1 X -2 Y 1 X -2 Y 1 -1 d -1 Y 1 X -2 Y 1 X -2 Y 1 X s 1407 754 m -2 Y 1 X -3 Y 1 X -2 Y 1 X -2 Y 1 X -2 Y 1 X -3 Y 1 X -2 Y 1 X -2 Y 1 X -3 Y s 1415 733 m
 1 X -3 Y 1 X -3 Y 1 X -2 Y 1 X -1 Y 1 X -1 Y 1 X -2 Y 1 X -1 Y 1 -1 d 1 -1 d -1 Y s 1424 717 m 1 X -1 Y 1 -1 d -1 Y 1 -1 d -1 Y 1 X -2 Y 1 X -2 Y 1 X -2 Y 1 X -1 Y 1 X -2 Y 1 X -1 Y s 1433 702 m 1 -1 d -1 Y 1 -1 d -2 Y 1 X -2 Y 1 X -1 Y 1 -1 d 1 -1
 d -2 Y 1 X -3 Y 1 X -2 Y 1 X s 1442 685 m -1 Y 1 X -2 Y 1 X -1 Y 1 -1 d -2 Y 1 X -2 Y 1 X -2 Y 1 X -1 Y 1 X -1 Y 1 X -2 Y 1 X s 1451 670 m -1 Y 1 X -2 Y 1 -1 d -1 Y 1 X -4 Y 1 X 1 -1 d -1 Y 1 X -1 Y 1 X -1 Y 1 X -2 Y s 1459 655 m 1 X -1 Y 1 X -1 Y 1
 -1 d -1 Y 1 X -1 Y 1 X -2 Y 1 X -1 Y 1 X -1 Y 1 -1 d -1 Y 1 X -2 Y s 1468 642 m 1 X -1 Y 1 X -3 Y 1 X -1 Y 1 X -1 Y 1 X -1 Y 1 -1 d -1 Y 1 X -2 Y 1 -1 d -1 Y 1 X -1 Y s 1477 628 m 1 X -1 Y 1 X -2 Y 1 X -2 Y 1 X -1 Y 1 X 1 -1 d -2 Y 1 X -1 Y 1 X -3 Y
 1 X -1 Y s 1486 614 m -1 Y 1 X 1 -1 d -1 Y 1 X -1 Y 1 X -1 Y 1 X -1 Y 1 X -2 Y 1 X -2 Y 1 X -1 Y 1 X s 1495 603 m -2 Y 1 X -2 Y 1 X -2 Y 1 X -1 Y 1 -1 d -1 Y 1 X -2 Y 2 X -2 Y 1 X -2 Y s 1503 588 m 1 X -1 Y 1 X -2 Y 1 X -1 Y 2 X -1 Y 1 X -1 Y 1 X -2
 Y 1 X -1 Y 1 -1 d -1 Y s 1512 577 m 1 X -1 Y 1 X 1 -1 d 1 X -1 Y 1 -1 d -1 Y 1 X -2 Y 1 X -2 Y 1 X -2 Y 1 X s 1521 566 m 1 -1 d -1 Y 1 X -2 Y 1 X -1 Y 1 X -2 Y 1 X -2 Y 1 X -2 Y 1 X -1 Y 1 -1 d -1 Y 1 X -1 Y s 1530 551 m 1 -1 d 1 X -1 Y 1 -1 d -1 Y
 2 X -1 Y 1 X -1 Y 1 X -2 Y 1 X 1 -1 d s 1539 542 m 1 X -1 Y 1 X -1 Y 1 X -1 Y 1 -1 d 1 X -2 Y 1 X -2 Y 1 X -1 Y 1 -1 d -2 Y s 1547 530 m 1 X -1 Y 1 X -1 Y 1 X -1 Y 1 -1 d -1 Y 1 X -1 Y 1 X -2 Y 1 -1 d -1 Y 1 X -1 Y 1 X -1 Y s 1556 518 m 1 -1 d 1 -1
 d -2 Y 1 X -2 Y 1 X -2 Y 1 X -1 Y 1 -1 d 1 X -3 Y 1 X -1 Y 1 X -1 Y s 1565 503 m 1 X -2 Y 1 X -2 Y 2 X -1 Y 1 -1 d -1 Y 1 X -1 Y 1 X -1 Y 1 -1 d 1 X -1 Y s 1574 492 m -1 Y 1 X 1 -1 d -1 Y 1 X 1 -1 d -1 Y 1 -1 d -1 Y 1 X -2 Y 1 X -1 Y 1 -1 d -1 Y 1 X
 s 1583 480 m -1 Y 1 -1 d 1 -1 d -1 Y 1 X -2 Y 1 X -1 Y 1 X -1 Y 1 X -1 Y 1 X -1 Y 1 X -1 Y s 1591 469 m 1 -1 d 2 X -1 Y 1 X -1 Y 1 X -1 Y 1 X -1 Y 1 -1 d 1 -1 d 1 -1 d s 1600 461 m 1 X -1 Y 1 -1 d -2 Y 2 X -1 Y 1 X -1 Y 1 X -1 Y 1 X -2 Y 1 X -1 Y 1
 X s 1609 451 m -1 Y 1 X -1 Y 1 X -2 Y 1 X -2 Y 2 X -1 Y 1 -1 d -1 Y 1 X -1 Y 1 X -1 Y 1 X s 1618 440 m -1 Y 1 X -1 Y 1 X 1 -1 d 2 X -1 Y 1 -1 d -1 Y 2 X -1 Y 1 X -1 Y s 1627 432 m 1 X -2 Y 2 X -1 Y 1 -1 d 1 X -1 Y 1 X -1 Y 1 X -1 Y 1 X -1 Y s 1635
 424 m 1 X -1 Y 1 X -1 Y 1 X -1 Y 1 X -1 Y 1 X -2 Y 2 X -1 Y 1 -1 d 1 X s 1644 416 m 1 X -2 Y 1 X -1 Y 1 X 1 -1 d 1 X -1 Y 1 X -1 Y 1 X 1 -1 d -1 Y 1 X -1 Y s 1653 407 m 1 X -1 Y 1 X -2 Y 1 X -1 Y 1 -1 d 1 X -2 Y 1 -1 d 1 X -1 Y 1 X -1 Y 1 X -1 Y s
 1662 396 m 1 X -2 Y 1 X -1 Y 1 -1 d -2 Y 1 -1 d -2 Y 1 X -1 Y 1 -1 d 2 X -1 Y 1 X s 1671 384 m 2 X -1 Y 1 X 1 -1 d 1 X -1 Y 2 X -1 Y 1 X -1 Y s 1679 379 m 2 X -1 Y 1 X -1 Y 1 X -1 Y 3 X -1 Y 1 X -1 Y 1 X s 1688 374 m 2 X -1 Y 1 X -1 Y 1 X 1 -1 d 2 X
 -1 Y 2 X s 1697 370 m 1 X -1 Y 4 X -1 Y 3 X -1 Y 1 X s 1706 367 m -1 Y 3 X 1 -1 d 1 -1 d 2 X 1 -1 d 1 X s 1715 363 m 1 -1 d 3 X -1 Y 2 X 1 -1 d 1 X -1 Y s 1723 359 m 2 X -1 Y 2 X 1 -1 d 1 X -1 Y 1 X -1 Y 2 X s 1732 355 m 1 X 1 -1 d 1 -1 d -1 Y 2 X
 -1 Y 3 X 1 -1 d s 1741 350 m 1 X -1 Y 1 X -1 Y 3 X -1 Y 1 X -1 Y 2 X -1 Y 1 X s 1750 345 m 1 X 1 -1 d 1 X -1 Y 1 X 1 -1 d 1 X -1 Y 2 X 1 -1 d s 1759 340 m 2 X -1 Y 2 X -1 Y 2 X -1 Y 2 X -1 Y s 1767 336 m 2 X 1 -1 d 1 X -1 Y 2 X -1 Y 2 X -1 Y 1 X -1
 Y s 1776 331 m 3 X -1 Y 1 X 1 -1 d 2 X 1 -1 d 1 X -1 Y s 1785 327 m 2 X -1 Y 2 X 1 -1 d 1 X -1 Y 2 X 1 -1 d s 1794 323 m 1 X -1 Y 3 X -1 Y 3 X -1 Y 2 X s 1803 320 m -1 Y 5 X -1 Y 4 X s 1812 318 m -1 Y 5 X -1 Y 3 X s 1820 316 m 1 X -1 Y 5 X 1 -1 d 2
 X s 1829 314 m 1 X 1 -1 d 7 X s 1838 313 m -1 Y 3 X -1 Y 4 X -1 Y 2 X s 1847 310 m 2 X -1 Y 7 X s 1856 309 m 3 X -1 Y 5 X s 1864 308 m -1 Y 4 X -1 Y 5 X s 1873 306 m 1 X -1 Y 2 X -1 Y 4 X -1 Y 2 X s 1882 303 m 4 X -1 Y 5 X s 1891 302 m -1 Y 5 X 1 -1
 d 2 X 1 -1 d s 1900 299 m 2 X -1 Y 5 X -1 Y 1 X s 1908 297 m 5 X -1 Y 4 X -1 Y s 1917 295 m 3 X -1 Y 6 X s 1926 294 m -1 Y 6 X -1 Y 3 X s 1935 292 m -1 Y 1 X 1 -1 d 3 X -1 Y 4 X s 1944 289 m 3 X -1 Y 4 X -1 Y 1 X s 1952 287 m 2 X -1 Y 1 X 1 -1 d 4 X
 -1 Y 1 X s 1961 284 m 3 X -1 Y 4 X -1 Y 2 X s 1970 282 m 9 X s 1979 282 m 1 X -1 Y 2 X -1 Y 2 X -1 Y 3 X -1 Y 1 X s 1988 278 m 3 X -1 Y 5 X s 1996 277 m 4 X -1 Y 3 X -1 Y 2 X -1 Y s 2005 274 m 2 X -1 Y 7 X s 2014 273 m 1 X -1 Y 2 X -1 Y 3 X -1 Y 2 X
 -1 Y 1 X s 2023 269 m 1 X -1 Y 5 X -1 Y 1 X -1 Y 2 X s 2032 266 m 1 -1 d -1 Y 1 X -1 Y 2 X -1 Y 1 X -3 Y 1 X -1 Y 1 X -1 Y 1 X -1 Y s 2040 256 m 1 X s 1 0 0 c black 1 0 0 c 245 1236 m -528 Y 1 X -1 Y 5 X -1 Y 3 X s 254 706 m -1 Y 3 X 1 -1 d 5 X s
 263 704 m 8 X s 271 704 m 1 X -1 Y 8 X s 280 703 m 2 X -1 Y 7 X s 289 702 m 1 X -1 Y 6 X -1 Y 2 X s 298 700 m 9 X s 307 700 m 6 X 1 -1 d 1 X s 315 699 m 9 X s 324 699 m 9 X s 333 699 m 4 X -1 Y 5 X s 342 698 m 9 X s 351 698 m 8 X s 359 698 m 7 X -1
 Y 2 X s 368 697 m 9 X s 377 697 m 9 X s 386 697 m 5 X -1 Y 4 X s 395 696 m 8 X s 403 696 m 9 X s 412 696 m 1 X -1 Y 8 X s 421 695 m 9 X s 430 695 m 9 X s 439 695 m 3 X -1 Y 5 X s 447 694 m 9 X -1 Y s 456 693 m 9 X s 465 693 m 4 X -1 Y 5 X s 474 692
 m 9 X s 483 692 m 8 X s 491 692 m 5 X -1 Y 4 X s 500 691 m 6 X -1 Y 3 X s 509 690 m 9 X s 518 690 m 9 X s 527 690 m 8 X s 535 690 m 2 X 1 -1 d 6 X s 544 689 m 9 X s 553 689 m 9 X s 562 689 m 9 X s 571 689 m 8 X s 579 689 m 9 X s 588 689 m 4 X -1 Y 5
 X s 597 688 m 9 X s 606 688 m 9 X s 615 688 m 8 X s 623 688 m 2 X -1 Y 7 X s 632 687 m 9 X s 641 687 m 5 X -1 Y 4 X s 650 686 m 9 X s 659 686 m 8 X s 667 686 m 9 X s 676 686 m 9 X s 685 686 m 2 X -1 Y 7 X s 694 685 m 6 X -1 Y 3 X s 703 684 m 8 X s
 711 684 m 9 X s 720 684 m 9 X s 729 684 m 9 X s 738 684 m 9 X s 747 684 m 8 X s 755 684 m 9 X s 764 684 m 3 X -1 Y 6 X s 773 683 m 9 X s 782 683 m 9 X s 791 683 m 8 X s 799 683 m 9 X s 808 683 m 5 X -1 Y 4 X s 817 682 m 9 X s 826 682 m 9 X s 835 682
 m 8 X s 843 682 m 9 X s 852 682 m 9 X s 861 682 m 8 X -1 Y 1 X s 870 681 m 9 X s 879 681 m -1 Y 8 X s 887 680 m 9 X s 896 680 m 9 X s 905 680 m 9 X s 914 680 m 9 X s 923 680 m 8 X s 931 680 m 9 X s 940 680 m 5 X -1 Y 4 X s 949 679 m 9 X s 958 679 m
 9 X s 967 679 m 8 X s 975 679 m 9 X s 984 679 m 1 -1 d 8 X s 993 678 m 9 X s 1002 678 m 9 X s 1011 678 m 8 X s 1019 678 m 6 X -1 Y 3 X s 1028 677 m 9 X s 1037 677 m 1 X -1 Y 8 X s 1046 676 m 3 X -1 Y 6 X s 1055 675 m 8 X s 1063 675 m 9 X s 1072 675
 m 3 X -1 Y 6 X s 1081 674 m 9 X s 1090 674 m 9 X s 1099 674 m 8 X s 1107 674 m 9 X s 1116 674 m 9 X s 1125 674 m 9 X s 1134 674 m 9 X s 1143 674 m 8 X s 1151 674 m 9 X s 1160 674 m 9 X s 1169 674 m 3 X -1 Y 6 X s 1178 673 m 9 X s 1187 673 m 8 X s
 1195 673 m 9 X s 1204 673 m 9 X s 1213 673 m 9 X s 1222 673 m 1 X -1 Y 8 X s 1231 672 m 1 X -1 Y 1 -1 d 1 X -2 Y 1 X -1 Y 1 -1 d -1 Y 1 -1 d -2 Y 1 X -1 Y 1 -1 d -1 Y s 1239 659 m 1 -1 d -1 Y 1 -1 d -1 Y 1 -1 d 1 -1 d -1 Y 1 -1 d -1 Y 1 X -2 Y 1 X
 -2 Y 1 X -1 Y 1 X -1 Y s 1248 644 m 1 X -2 Y 1 X -2 Y 1 X -2 Y 1 X -1 Y 1 X -1 Y 1 -1 d -1 Y 1 -1 d -2 Y 1 X -1 Y 1 X -1 Y s 1257 629 m 1 X -2 Y 1 X -1 Y 1 -1 d -1 Y 1 X -1 Y 1 X -2 Y 1 X -1 Y 1 -1 d -2 Y 1 X -1 Y 1 X s 1266 616 m -1 Y 1 X -1 Y 1 X
 -2 Y 1 X -2 Y 1 X 1 -1 d -1 Y 1 X -2 Y 1 X -1 Y 1 X -2 Y 1 X s 1275 603 m -1 Y 1 X -2 Y 1 X -1 Y 1 X -1 Y 1 -1 d -1 Y 1 X -1 Y 1 X -1 Y 1 X 1 -1 d -1 Y s 1283 592 m 1 -1 d 1 X -1 Y 1 X -2 Y 1 X -1 Y 1 -1 d -1 Y 1 X -1 Y 1 X -1 Y 1 -1 d -1 Y 1 X -1 Y
 s 1292 580 m 1 X -1 Y 1 X -1 Y 1 X -1 Y 1 X -1 Y 1 -1 d -2 Y 1 X -1 Y 1 X -1 Y 1 -1 d -1 Y 1 X -1 Y s 1301 568 m -1 Y 1 -1 d 1 -1 d -1 Y 1 X -1 Y 2 X -1 Y 1 -1 d 1 -1 d -1 Y 2 X -1 Y s 1310 558 m 1 X -1 Y 1 X -1 Y 1 -1 d -1 Y 1 X -2 Y 1 X -1 Y 1 X
 -1 Y 1 -1 d 1 -1 d -1 Y 1 X s 1319 547 m -3 Y 1 -1 d -2 Y 1 -1 d -2 Y 1 X -2 Y 1 -1 d -2 Y 1 -1 d -2 Y 1 X -3 Y 1 X -2 Y 1 X -3 Y s 1327 522 m 1 -1 d -4 Y 1 X -4 Y 1 X -1 Y 1 -1 d -3 Y 1 -1 d -2 Y 1 X -4 Y 1 X -4 Y 1 -1 d -3 Y 1 X -3 Y s 1336 490 m
 -2 Y 1 -1 d -2 Y 1 X -4 Y 1 -1 d -3 Y 1 -1 d -4 Y 1 -1 d -4 Y 1 -1 d -3 Y 1 X -6 Y 1 -1 d -3 Y 1 -1 d -6 Y s 1345 446 m -2 Y 1 -1 d -4 Y 1 -1 d -6 Y 1 X -4 Y 1 X -5 Y 1 -1 d -3 Y 1 -1 d -3 Y 1 -1 d -4 Y 1 X -3 Y 1 -1 d s 1354 406 m -1 Y 1 X -4 Y 1
 -1 d -2 Y 1 -1 d -1 Y 1 X -2 Y 1 X -3 Y 1 -1 d -1 Y 1 X -4 Y 1 X -3 Y 1 X s 1363 382 m -3 Y 1 X -2 Y 1 X -2 Y 1 -2 d -1 Y 1 -1 d -2 Y 1 -1 d -1 Y 1 -1 d -1 Y 1 -1 d -1 Y 1 X -2 Y s 1371 361 m 1 X -2 Y 1 X -1 Y 1 X -2 Y 1 X -3 Y 1 X -1 Y 1 X -1 Y 1 X
 -2 Y 1 X -1 Y 1 X -2 Y s 1380 346 m 1 X -1 Y 1 X -2 Y 1 -1 d -1 Y 1 X -1 Y 1 X -1 Y 1 X -1 Y 1 X -1 Y 1 -1 d -1 Y 1 X -1 Y s 1389 334 m 1 -1 d -1 Y 1 X -1 Y 1 X -1 Y 1 X 1 -1 d -2 Y 1 X 1 -1 d -1 Y 1 X -1 Y 1 X s 1398 324 m -1 Y 1 X -2 Y 2 X 1 -1 d
 -1 Y 1 -1 d -1 Y 1 X -1 Y 1 X -1 Y 1 X -1 Y 1 X s 1407 314 m -1 Y 1 X -1 Y 1 X 1 -1 d 1 X -1 Y 1 X -1 Y 1 X -1 Y 1 X 1 -1 d -1 Y s 1415 306 m 2 X -1 Y 1 X -1 Y 2 X -1 Y 1 X -1 Y 2 X -1 Y 1 X -1 Y s 1424 300 m 1 X -1 Y 1 X -1 Y 2 X -1 Y 3 X -1 Y 2 X
 -1 Y s 1433 295 m 1 -1 d 1 X -1 Y 1 X -1 Y 2 X 1 -1 d 1 X -1 Y 2 X -1 Y s 1442 289 m 1 -1 d -1 Y 1 X -1 Y 3 X -1 Y 4 X s 1451 285 m -1 Y 2 X -1 Y 3 X -1 Y 3 X s 1459 282 m 1 X -1 Y 2 X -1 Y 2 X -1 Y 2 X -1 Y 2 X s 1468 278 m -1 Y 2 X -1 Y 1 -1 d 1 X
 -1 Y 1 X -1 Y 1 X -1 Y 3 X s 1477 272 m 1 X -1 Y 2 X -1 Y 1 X -1 Y 3 X -1 Y 1 -1 d 1 X s 1486 267 m 4 X -1 Y 3 X -1 Y 2 X s 1495 265 m 4 X -1 Y 3 X -1 Y 1 X -1 Y s 1503 262 m 3 X 1 -1 d 3 X -1 Y 1 X -1 Y 1 X s 1512 259 m 1 -1 d 3 X -1 Y 3 X -1 Y 2 X
 s 1521 256 m 2 X -1 Y 2 X 1 -1 d 2 X -1 Y 2 X s 1530 253 m 1 X 1 -1 d 2 X -1 Y 5 X s 1539 251 m -1 Y 4 X -1 Y 4 X s 1547 249 m 1 -1 d 1 X -1 Y 1 X -1 Y 2 X 1 -1 d 2 X -1 Y 1 X s 1556 244 m -1 Y 3 X 1 -1 d 2 X -1 Y 2 X -1 Y 1 X s 1565 240 m 3 X -1 Y
 2 X -1 Y 3 X -1 Y 1 X s 1574 237 m 1 X -1 Y 2 X -1 Y 1 -1 d 2 X -1 Y 3 X s 1583 233 m -1 Y 2 X -1 Y 2 X -1 Y 1 X 1 -1 d 1 X -2 Y 1 X s 1591 227 m 2 X -1 Y 3 X -1 Y 2 X -1 Y 2 X -1 Y s 1600 223 m 2 X -1 Y 4 X -1 Y 3 X -1 Y s 1609 220 m 4 X -1 Y 2 X
 -1 Y 3 X s 1618 218 m 1 X -1 Y 3 X -1 Y 3 X -1 Y 2 X s 1627 215 m 4 X -1 Y 2 X -1 Y 2 X -1 Y s 1635 212 m 2 X -1 Y 3 X -1 Y 3 X -1 Y 1 X s 1644 209 m 4 X -1 Y 5 X s 1653 208 m 1 X -1 Y 3 X 1 -1 d 4 X s 1662 206 m -1 Y 4 X -1 Y 5 X s 1671 204 m 1 X
 -1 Y 7 X s 1679 203 m 2 X -1 Y 7 X s 1688 202 m 3 X -1 Y 3 X s 0 0.666667 0 c 1 1 1 c black 0 0.666667 0 c 245 1089 m 141 Y 9 X s 254 1230 m 3 X 1 Y 6 X s 263 1231 m 8 X s 271 1231 m 9 X s 280 1231 m 9 X s 289 1231 m 7 X 1 Y 2 X s 298 1232 m 9 X s
 307 1232 m 8 X s 315 1232 m 9 X s 324 1232 m 9 X s 333 1232 m 9 X s 342 1232 m 9 X s 351 1232 m 6 X 1 Y 2 X s 359 1233 m 9 X s 368 1233 m 9 X s 377 1233 m 9 X s 386 1233 m 9 X s 395 1233 m 8 X s 403 1233 m 9 X s 412 1233 m 9 X s 421 1233 m 9 X s 430
 1233 m 9 X s 439 1233 m 3 X 1 Y 5 X s 447 1234 m 9 X s 456 1234 m 9 X s 465 1234 m 9 X s 474 1234 m 9 X s 483 1234 m 8 X s 491 1234 m 8 X 1 1 d s 500 1235 m 9 X s 509 1235 m 9 X s 518 1235 m 9 X s 527 1235 m 8 X s 535 1235 m 9 X s 544 1235 m 9 X s
 553 1235 m 9 X s 562 1235 m 9 X s 571 1235 m 8 X s 579 1235 m 9 X s 588 1235 m 9 X s 597 1235 m 9 X s 606 1235 m 9 X s 615 1235 m 8 X s 623 1235 m 9 X s 632 1235 m 9 X s 641 1235 m 9 X s 650 1235 m 9 X s 659 1235 m 8 X s 667 1235 m 9 X s 676 1235 m
 9 X s 685 1235 m 9 X s 694 1235 m 9 X s 703 1235 m 8 X s 711 1235 m 9 X s 720 1235 m 9 X s 729 1235 m 9 X s 738 1235 m 9 X s 747 1235 m 8 X s 755 1235 m 9 X s 764 1235 m 9 X s 773 1235 m 9 X s 782 1235 m 9 X s 791 1235 m 8 X s 799 1235 m 9 X s 808
 1235 m 9 X s 817 1235 m 9 X s 826 1235 m 9 X s 835 1235 m 8 X s 843 1235 m 9 X s 852 1235 m 9 X s 861 1235 m 9 X s 870 1235 m 9 X s 879 1235 m 8 X s 887 1235 m 9 X s 896 1235 m 9 X s 905 1235 m 9 X s 914 1235 m 9 X s 923 1235 m 8 X s 931 1235 m 9 X
 s 940 1235 m 9 X s 949 1235 m 9 X s 958 1235 m 9 X s 967 1235 m 8 X s 975 1235 m 9 X s 984 1235 m 9 X s 993 1235 m 9 X s 1002 1235 m 9 X s 1011 1235 m 8 X s 1019 1235 m 9 X s 1028 1235 m 9 X s 1037 1235 m 5 X 1 1 d 3 X s 1046 1236 m 9 X s 1055 1236
 m 8 X s 1063 1236 m 9 X s 1072 1236 m 9 X s 1081 1236 m 9 X s 1090 1236 m 9 X s 1099 1236 m 8 X s 1107 1236 m 9 X s 1116 1236 m 6 X -1 Y 1 X 1 Y 2 X s 1125 1236 m 9 X s 1134 1236 m 5 X -1 Y 4 X s 1143 1235 m 8 X s 1151 1235 m 9 X s 1160 1235 m 1 X
 -1 Y 8 X s 1169 1234 m 9 X s 1178 1234 m 9 X s 1187 1234 m 8 X s 1195 1234 m 9 X s 1204 1234 m 9 X s 1213 1234 m 9 X s 1222 1234 m 9 X s 1231 1234 m 4 X -1 Y 1 X -1 Y 2 X -1 Y 1 X s 1239 1231 m 2 X -1 Y 1 Y -1 Y 4 X -1 Y 1 X 1 -1 d -1 Y 1 X -1 Y s
 1248 1226 m 1 X -1 Y 1 1 d -1 Y 1 X -1 Y 1 Y 1 -1 d 1 X -1 Y 1 X -1 Y 1 X 1 Y 1 -1 d 1 Y -1 Y 1 X s 1257 1222 m 1 X 1 -1 d 1 Y -1 Y 1 X -1 Y 1 1 d -1 Y 4 X -1 Y 1 X s 1266 1219 m -1 Y 1 -1 d 1 -1 d 2 X -1 Y 1 X -1 Y 1 Y 1 X -1 Y 1 Y 1 X 1 -1 d 1 Y
 -1 Y 1 Y 1 X s 1275 1215 m -1 Y 2 X 1 -1 d 1 Y -1 Y 1 X -1 Y 2 X -1 Y 1 -1 d 1 X s 1283 1210 m 1 X -1 Y 3 X -1 Y 1 Y -1 Y 2 X -1 Y 1 X -1 Y 1 Y 1 -1 d 1 X -1 Y s 1292 1205 m 1 X -1 Y 1 X -1 Y 2 X -1 Y 2 X 1 -1 d -1 Y 2 X s 1301 1200 m 1 X -1 Y 2 X
 -1 Y 1 X -1 Y 2 X -1 Y 1 X -1 Y 1 X -1 Y 1 -1 d s 1310 1193 m 1 X -2 Y 1 X 1 Y -1 Y 2 X -1 Y 3 X -1 Y 1 X -1 Y 1 X s 1319 1188 m -1 Y 1 -1 d 1 Y -1 Y 1 -1 d 1 X -2 Y 1 X -1 Y 1 X -2 Y 1 -1 d -3 Y 1 X -1 Y 1 X -1 Y 1 Y s 1327 1175 m 1 X -1 Y 1 X -1 Y
 1 X -1 Y 1 X -1 Y 1 X -2 Y 1 X -1 Y 1 X -1 Y 1 -1 d -1 Y 1 X -1 Y s 1336 1164 m 1 X -3 Y 1 -1 d -2 Y 1 X -2 Y 1 -1 d -3 Y 1 -1 d -2 Y 1 X -2 Y 1 X -4 Y 1 X -2 Y 1 -1 d -1 Y s 1345 1139 m -1 Y 1 X -2 Y 1 -1 d 1 -1 d -2 Y 1 X -2 Y 1 -1 d -1 Y 1 -1 d
 -2 Y 1 X -1 Y 1 Y -1 Y 1 -1 d -1 Y 1 X -1 Y s 1354 1121 m -2 Y 1 -1 d -1 Y 1 X -1 Y 1 Y -1 Y 1 X -2 Y 1 X -2 Y 1 -1 d -1 Y 1 -1 d -2 Y 1 X -1 Y 1 -1 d -2 Y 1 -1 d s 1363 1102 m -1 Y 1 X -2 Y 1 X -1 Y 1 1 d -3 Y 1 X 1 -1 d -1 Y 1 -1 d -1 Y 1 -1 d -1
 Y 1 X -1 Y s 1371 1089 m 1 -1 d -1 Y 1 X -2 Y 1 X -1 Y 1 X -2 Y 1 -1 d -1 Y 1 X -2 Y 1 -1 d -2 Y 1 -1 d -2 Y 1 X -1 Y 1 Y -1 Y s 1380 1071 m -1 Y 1 X -1 Y 1 X -1 Y 1 X -2 Y 1 X -2 Y 1 X -1 Y 1 -1 d -2 Y 1 Y 1 -1 d -1 Y 1 Y -2 Y 1 X 1 Y 1 -1 d -2 Y s
 1389 1056 m 1 1 d -2 Y 1 X -2 Y 1 -1 d -1 Y 1 X -1 Y 1 X -1 Y 1 X -1 Y 1 -1 d 1 -1 d -1 Y 1 -1 d -1 Y s 1398 1043 m -1 Y 1 X 1 -1 d 1 -1 d -1 Y 1 X -1 Y 1 Y 1 X -1 Y 1 -1 d 1 X -1 Y 1 X -2 Y 1 X s 1407 1034 m -1 Y 1 X -2 Y 1 X -1 Y 1 X -2 Y 1 X -1 Y
 1 -1 d -1 Y 1 X -1 Y 1 X -2 Y 1 X -2 Y s 1415 1020 m 1 X -2 Y 1 -1 d -1 Y 1 -1 d 1 X -1 Y 1 X -1 Y 1 X -1 Y 1 X -1 Y 1 -1 d 1 X s 1424 1010 m 1 -1 d -1 Y 1 Y 1 X -1 Y 1 -1 d -1 Y 1 X -1 Y 1 X -2 Y 1 X -1 Y 1 -1 d 1 Y -1 Y 1 X -1 Y 1 X -1 Y s 1433
 999 m 1 X -1 Y 1 -1 d -1 Y 1 X -2 Y 1 X 1 Y -1 Y 1 -1 d 1 -1 d -1 Y 1 X -3 Y 1 X -1 Y 1 X s 1442 987 m -1 Y 1 1 d -1 Y 1 X -1 Y 1 X -2 Y 1 -1 d -1 Y 1 X -1 Y 1 Y -2 Y 1 X -1 Y 1 X -1 Y 1 X -1 Y 1 X s 1451 976 m -1 Y 1 X -2 Y 1 X -1 Y 1 X -3 Y 1 X -1
 Y 1 X -1 Y 1 X -1 Y 1 X -1 Y 1 X -2 Y s 1459 963 m 1 X 1 -1 d 1 -1 d 1 Y -1 Y 1 -1 d 1 X -2 Y 1 X -1 Y 1 1 d -1 Y 1 X -2 Y 1 X -1 Y s 1468 954 m 1 X -1 Y 1 X -2 Y 1 X -1 Y 2 X 1 Y -1 Y 1 -1 d 1 X -2 Y 1 -1 d -1 Y 1 X -1 Y s 1477 944 m 1 X 1 -1 d -1
 Y 1 X -1 Y 1 -1 d 1 X 1 -1 d -2 Y 1 1 d -2 Y 1 Y 1 X -3 Y 1 X -1 Y s 1486 933 m -1 Y 2 X -2 Y 1 X 1 -1 d 1 X -1 Y 1 X -2 Y 1 X -2 Y 1 X -1 Y 1 X s 1495 923 m -2 Y 1 X -1 Y 1 -1 d -1 Y 1 X -1 Y 1 -1 d -1 Y 1 X -2 Y 2 X -1 Y 1 X -2 Y s 1503 910 m 1 X
 -1 Y 1 X -1 Y 1 -1 d 1 -1 d 2 X -1 Y 1 X -1 Y 1 X -1 Y 1 -1 d -1 Y s 1512 901 m 2 X -1 Y 1 X -1 Y 1 X 1 -1 d -1 Y 1 X -1 Y 1 -1 d -1 Y 1 Y -1 Y 1 X -2 Y 1 X -1 Y s 1521 891 m 1 Y -1 Y 1 X -1 Y 1 X -1 Y 1 X -2 Y 1 X -2 Y 1 X -1 Y 1 -1 d -1 Y 1 X -1 Y
 1 -1 d -1 Y 1 X s 1530 879 m -1 Y 1 -1 d 1 X -1 Y 1 -1 d -1 Y 1 Y 1 X -1 Y 1 X -1 Y 1 X -1 Y 1 X -1 Y 1 X 1 -1 d s 1539 870 m 1 X -1 Y 1 X -1 Y 1 X -1 Y 1 -1 d 1 X -1 Y 1 -1 d -1 Y 1 -1 d -1 Y 1 -1 d -2 Y s 1547 858 m 1 X -1 Y 2 X -1 Y 1 X -1 Y 1 X
 -1 Y 1 X -2 Y 1 -1 d -1 Y 1 X -1 Y 1 X s 1556 849 m 1 -1 d -1 Y 1 X -2 Y 1 -1 d -2 Y 1 X -1 Y 1 -1 d -1 Y 1 X -1 Y 1 Y 1 X -3 Y 1 X -1 Y 1 X -1 Y s 1565 834 m 1 X -2 Y 1 X -2 Y 2 X -1 Y 1 Y 1 -1 d -2 Y 1 X -1 Y 1 X -1 Y 2 X -1 Y s 1574 824 m -1 Y 2
 X -1 Y 2 X -1 Y 1 -1 d -1 Y 1 -1 d -1 Y 1 -1 d -1 Y 1 -1 d -1 Y 1 X s 1583 813 m -1 Y 1 X -1 Y 1 Y -1 Y 1 X -1 Y 1 X -2 Y 1 X -1 Y 2 X -1 Y 1 Y 1 -1 d 1 X -1 Y s 1591 805 m 1 X 1 -1 d 1 Y 1 -1 d -1 Y 1 X -1 Y 2 X -1 Y 1 -1 d 1 X -1 Y 1 X s 1600 799
 m 1 X -1 Y 1 X -3 Y 2 X -1 Y 1 Y -1 Y 1 X -1 Y 1 X -1 Y 1 X -2 Y 1 -1 d 1 X s 1609 789 m -1 Y 1 X -1 Y 1 -1 d -2 Y 1 X -1 Y 1 X -1 Y 1 Y -1 Y 1 X 1 -1 d -1 Y 1 X -1 Y 1 X -1 Y 1 X s 1618 778 m -1 Y 1 X -1 Y 1 X 1 -1 d 1 X 1 Y -1 Y 1 X -1 Y 1 X -2 Y
 2 X -1 Y 1 X s 1627 771 m -1 Y 1 X -2 Y 2 X -2 Y 1 X -1 Y 3 X -2 Y 1 X -1 Y s 1635 762 m 1 X -1 Y 1 Y 1 -1 d 1 X -1 Y 1 X -1 Y 1 -1 d -1 Y 2 X -1 Y 1 -1 d 1 Y -1 Y 1 X s 1644 755 m 1 X -2 Y 1 X -1 Y 1 X -1 Y 1 X 1 -1 d -1 Y 2 X -1 Y 1 X -2 Y 1 X -1
 Y s 1653 745 m 1 X -1 Y 1 X -2 Y 1 -1 d -1 Y 1 -1 d 1 X -3 Y 1 -1 d 1 X -2 Y 1 1 d -2 Y 1 Y 1 X -1 Y s 1662 732 m -1 Y 1 Y -1 Y 1 1 d -2 Y 1 X -2 Y 1 X -4 Y 1 -1 d -2 Y 1 X -2 Y 1 -1 d 1 Y 1 -1 d 1 Y -1 Y 1 X -1 Y 1 X s 1671 717 m 2 X -1 Y 1 Y 1 -1
 d -1 Y 2 X -1 Y 2 X -2 Y 1 X -1 Y s 1679 711 m 1 X -1 Y 1 X 1 -1 d 1 X -1 Y 1 X -1 Y 1 -1 d 1 X -1 Y 1 X -1 Y 1 X s 1688 704 m 2 X -1 Y 1 X -1 Y 1 X 1 -1 d 2 X -1 Y 2 X s 1697 700 m 1 -1 d 4 X -1 Y 2 X -1 Y 1 X -1 Y 1 X s 1706 696 m -1 Y 2 X -1 Y 2
 X -1 Y 1 -1 d 1 Y 1 -1 d 1 X 1 -1 d 1 X -1 Y s 1715 690 m 1 -1 d 3 X -1 Y 1 1 d 1 X -1 Y 1 X -1 Y 1 X -1 Y s 1723 686 m 2 X -1 Y 1 -1 d 1 X 1 -1 d 1 X -2 Y 3 X s 1732 681 m -1 Y 1 X 1 -1 d 1 -1 d -1 Y 1 X 1 -1 d 2 X -1 Y 1 X -1 Y 1 X -1 Y s 1741 673
 m 2 X -1 Y 1 X -1 Y 1 Y 1 -1 d 1 X -1 Y 1 X -1 Y 2 X -1 Y 1 X -1 Y s 1750 667 m 1 X 1 -1 d 1 X -1 Y 1 X -1 Y 1 X -1 Y 1 X -1 Y 1 1 d -1 Y 1 Y 1 X -1 Y 1 X s 1759 662 m -1 Y 2 X -1 Y 2 X -1 Y 1 -1 d -1 Y 1 X -1 Y 2 X s 1767 656 m 2 X 1 -1 d -1 Y 1 Y
 -1 Y 1 X 1 -1 d 1 X -1 Y 1 X -1 Y 1 1 d -1 Y 1 -1 d s 1776 650 m -1 Y 3 X -1 Y 1 X 1 -1 d -1 Y 2 X 1 Y -1 Y 1 X 1 -1 d s 1785 645 m 2 X -2 Y 1 X 1 -1 d 1 X -1 Y 1 X -1 Y 1 X -1 Y 1 X 1 Y 1 -2 d s 1794 638 m 1 X -1 Y 2 X -1 Y 1 X 1 -1 d 2 X -2 Y 2 X
 s 1803 633 m 1 -1 d 1 1 d 2 X -1 Y 3 X -1 Y 2 X s 1812 631 m -1 Y 1 X -1 Y 1 Y 1 X -1 Y 4 X -1 Y 2 X -1 Y s 1820 627 m 5 X -1 Y 4 X -1 Y s 1829 625 m 1 -1 d 1 X -1 Y 3 X -1 Y 3 X 1 Y 1 X s 1838 623 m -1 Y 2 X -1 Y 1 X -1 Y 4 X -1 Y 1 X 1 -1 d s 1847
 618 m 2 X -1 Y 6 X -1 Y 1 X s 1856 616 m 1 X 1 Y 2 X -1 Y 4 X -1 Y 1 X s 1864 615 m 3 X 1 -1 d -1 Y 2 X -1 Y 3 X s 1873 612 m 1 X -1 Y 2 X -1 Y 2 X -1 Y 1 X -1 Y 3 X s 1882 608 m 1 X -1 Y 1 X 1 Y -1 Y 3 X -1 Y 3 X 1 -1 d s 1891 605 m 3 X -1 Y 2 X -1
 Y 1 X -1 Y 1 X -1 Y 2 X s 1900 601 m 1 X -1 Y 1 X -1 Y 2 X -1 Y 3 X -1 Y 1 X s 1908 597 m 4 X -1 Y 1 X -1 Y 4 X -1 Y s 1917 594 m 2 X -1 Y 2 X -1 Y 3 X -1 Y 2 X s 1926 591 m 4 X -1 Y 1 1 d -1 Y 1 X -1 Y 1 X -1 Y 2 X s 1935 588 m -1 Y 1 -1 d 1 -1 d 3
 X -1 Y 3 X -1 Y 1 X s 1944 583 m 3 X -1 Y 2 X -1 Y 2 X -1 Y 1 X s 1952 580 m 1 X -1 Y 1 X -1 Y 1 X -1 Y 1 X -1 Y 1 X -1 Y 4 X s 1961 575 m -1 Y 1 X -1 Y 2 X -1 Y 2 X -1 Y 2 X -1 Y 2 X s 1970 570 m 9 X s 1979 570 m 1 X -1 Y 2 X -1 Y 1 X -2 Y 1 X -1 Y
 1 X -1 Y 2 X -1 Y 1 X s 1988 563 m 2 X 1 Y 1 -1 d 2 X -1 Y 3 X s 1996 562 m -1 Y 1 X 1 Y 1 -1 d 2 X -1 Y 2 X 1 -1 d 1 -1 d 1 -1 d -1 Y s 2005 556 m 1 X -1 Y 4 X -1 Y 2 X -1 Y 2 X s 2014 553 m 1 X -1 Y 2 X -2 Y 1 X -1 Y 2 X -1 Y 1 X -1 Y 2 X -1 Y s
 2023 546 m 1 -1 d -1 Y 1 X -1 Y 4 X -1 Y 1 -2 d 1 X -1 Y 1 X s 2032 539 m -1 Y 1 X -4 Y 1 X -2 Y 1 X -1 Y 1 X -1 Y 1 -1 d -5 Y 1 X -2 Y 1 X -3 Y 1 -1 d -1 Y s 2040 517 m -1 Y 1 X -1 Y s black 3 lw 245 201 m 1796 X s 245 241 m -40 Y s 335 221 m -20 Y
 s 425 221 m -20 Y s 514 221 m -20 Y s 604 241 m -40 Y s 694 221 m -20 Y s 784 221 m -20 Y s 874 221 m -20 Y s 963 241 m -40 Y s 1053 221 m -20 Y s 1143 221 m -20 Y s 1233 221 m -20 Y s 1323 241 m -40 Y s 1412 221 m -20 Y s 1502 221 m -20 Y s 1592
 221 m -20 Y s 1682 241 m -40 Y s 1772 221 m -20 Y s 1861 221 m -20 Y s 1951 221 m -20 Y s 2041 241 m -40 Y s 245 241 m -40 Y s 2041 241 m -40 Y s 245 201 m 1140 Y s 291 395 m -46 X s 268 448 m -23 X s 268 500 m -23 X s 268 553 m -23 X s 291 605 m
 -46 X s 268 658 m -23 X s 268 711 m -23 X s 268 763 m -23 X s 291 816 m -46 X s 268 868 m -23 X s 268 921 m -23 X s 268 973 m -23 X s 291 1026 m -46 X s 268 1078 m -23 X s 268 1131 m -23 X s 268 1183 m -23 X s 291 1236 m -46 X s 291 395 m -46 X s
 268 343 m -23 X s 268 290 m -23 X s 268 238 m -23 X s 291 1236 m -46 X s 268 1288 m -23 X s 0.490196 0.545098 0.615686 c 1 1 1 c 0.490196 0.545098 0.615686 c 907 201 245 1341 bl 245 1341 m 907 X s 1152 1341 m 201 Y s 1152 1542 m -907 X s 245 1542 m
 -201 Y s black
 gsave  2268 1676 0 0 C 515.735 1471.36 t 0 r /Helvetica-Bold findfont 56.8825 sf 0 0 m (Signal efficiency) show NC gr  0 0 0.933333 c 9 lw 286 1492 m 190 X s black
 gsave  2268 1676 0 0 C 515.735 1368.97 t 0 r /Helvetica-Bold findfont 56.8825 sf 0 0 m (Background efficiency) show NC gr  1 0 0 c 286 1391 m 190 X s 0.490196 0.545098 0.615686 c 3 lw 1 1 1 c 0.490196 0.545098 0.615686 c 889 201 1152 1341 bl 1152
 1341 m 889 X s 2041 1341 m 201 Y s 2041 1542 m -889 X s 1152 1542 m -201 Y s black
 gsave  2268 1676 0 0 C 1418.27 1494.11 t 0 r /Helvetica-Bold findfont 56.8825 sf 0 0 m (Signal purity) show NC gr  0 0 0.933333 c[  52 12 ] 0 sd 6 lw 1192 1509 m 187 X s black
 gsave  2268 1676 0 0 C 1418.27 1429.65 t 0 r /Helvetica-Bold findfont 56.8825 sf 0 0 m (Signal efficiency*purity) show NC gr  0 0 0.933333 c[  22 12 ] 0 sd 1192 1441 m 187 X s black
 gsave  2268 1676 0 0 C 1501.7 1361.39 t 0 r /Helvetica-Bold findfont 56.8825 sf 0 0 m (S+B) show NC gr [  ] 0 sd 1483 1407 m 7 -49 d s 3 lw 1490 1358 m 8 64 d s 1498 1422 m 114 X s
 gsave  2268 1676 0 0 C 1418.27 1361.39 t 0 r /Helvetica-Bold findfont 56.8825 sf 0 0 m (S/) show NC gr  0 0.666667 0 c 9 lw 1192 1374 m 187 X s black 3 lw 245 1236 m 1796 X s
 gsave  2268 1676 0 0 C 337.503 386.801 t 0 r /Helvetica-Bold findfont 53.0904 sf 0 0 m (For 1000 signal and 1000 background) show NC gr 
 gsave  2268 1676 0 0 C 1058.01 318.542 t 0 r /Helvetica-Bold findfont 53.0904 sf 0 0 m ( is) show NC gr 
 gsave  2268 1676 0 0 C 955.626 318.542 t 0 r /Helvetica-Bold findfont 53.0904 sf 0 0 m (S+B) show NC gr  6 lw 933 360 m 7 -45 d s 3 lw 940 315 m 8 60 d s 948 375 m 110 X s
 gsave  2268 1676 0 0 C 337.503 318.542 t 0 r /Helvetica-Bold findfont 53.0904 sf 0 0 m (events the maximum S/) show NC gr 
 gsave  2268 1676 0 0 C 337.503 254.075 t 0 r /Helvetica-Bold findfont 53.0904 sf 0 0 m (26.00 when cutting at  0.46) show NC gr  0.490196 0.545098 0.615686 c 0.364706 0.419608 0.490196 c 1471 96 23 1572 bf 0.490196 0.545098 0.615686 c 23 1572 m 1471
 X s 1494 1572 m 96 Y s 1494 1668 m -1471 X s 23 1668 m -96 Y s 1 1 1 c black 1 1 1 c
 gsave  2268 1676 0 0 C 75.8434 1600.29 t 0 r /Helvetica-Bold findfont 75.8434 sf 0 0 m (Cut efficiencies and optimal cut value) show NC gr  0 0.666667 0 c 2041 201 m 1140 Y s 1995 201 m 46 X s 2018 241 m 23 X s 2018 281 m 23 X s 2018 321 m 23 X s
 2018 361 m 23 X s 1995 400 m 46 X s 2018 440 m 23 X s 2018 480 m 23 X s 2018 520 m 23 X s 2018 560 m 23 X s 1995 600 m 46 X s 2018 640 m 23 X s 2018 679 m 23 X s 2018 719 m 23 X s 2018 759 m 23 X s 1995 799 m 46 X s 2018 839 m 23 X s 2018 879 m 23 X
 s 2018 918 m 23 X s 2018 958 m 23 X s 1995 998 m 46 X s 2018 1038 m 23 X s 2018 1078 m 23 X s 2018 1118 m 23 X s 2018 1158 m 23 X s 1995 1197 m 46 X s 1995 1197 m 46 X s 2018 1237 m 23 X s 2018 1277 m 23 X s 2018 1317 m 23 X s black 0 0.666667 0 c
 gsave  2268 1676 0 0 C 2051.56 178.232 t 0 r /Helvetica-Bold findfont 64.4669 sf 0 0 m (0) show NC gr  black 0 0.666667 0 c
 gsave  2268 1676 0 0 C 2051.56 375.425 t 0 r /Helvetica-Bold findfont 64.4669 sf 0 0 m (5) show NC gr  black 0 0.666667 0 c
 gsave  2268 1676 0 0 C 2051.56 576.41 t 0 r /Helvetica-Bold findfont 64.4669 sf 0 0 m (10) show NC gr  black 0 0.666667 0 c
 gsave  2268 1676 0 0 C 2051.56 773.602 t 0 r /Helvetica-Bold findfont 64.4669 sf 0 0 m (15) show NC gr  black 0 0.666667 0 c
 gsave  2268 1676 0 0 C 2051.56 974.587 t 0 r /Helvetica-Bold findfont 64.4669 sf 0 0 m (20) show NC gr  black 0 0.666667 0 c
 gsave  2268 1676 0 0 C 2051.56 1171.78 t 0 r /Helvetica-Bold findfont 64.4669 sf 0 0 m (25) show NC gr  black 0 0.666667 0 c
 gsave  2268 1676 0 0 C 2203.25 963.211 t 90 r /Helvetica-Bold findfont 64.4669 sf 0 0 m (Significance) show NC gr 
 gr  gr showpage
end
%%EOF
