%!PS-Adobe-2.0 EPSF-2.0
%%BoundingBox:  0 0 567 419
%%Title: dataset/plots/mvaeffs_MLP.eps: Cut efficiencies for MLP classifier
%%Creator: ROOT Version 6.12/06
%%CreationDate: Mon May 21 13:38:13 2018
%%DocumentNeededResources: ProcSet (FontSetInit)
%%EndComments
%%BeginProlog
80 dict begin
/s {stroke} def /l {lineto} def /m {moveto} def /t {translate} def
/r {rotate} def /rl {roll}  def /R {repeat} def
/d {rlineto} def /rm {rmoveto} def /gr {grestore} def /f {eofill} def
/c {setrgbcolor} def /black {0 setgray} def /sd {setdash} def
/cl {closepath} def /sf {scalefont setfont} def /lw {setlinewidth} def
/box {m dup 0 exch d exch 0 d 0 exch neg d cl} def
/NC{systemdict begin initclip end}def/C{NC box clip newpath}def
/bl {box s} def /bf {gsave box gsave f grestore 1 lw [] 0 sd s grestore} def /Y { 0 exch d} def /X { 0 d} def 
/K {{pop pop 0 moveto} exch kshow} bind def
/ita {/ang 15 def gsave [1 0 ang dup sin exch cos div 1 0 0] concat} def 
/mp {newpath /y exch def /x exch def} def
/side {[w .77 mul w .23 mul] .385 w mul sd w 0 l currentpoint t -144 r} def
/mr {mp x y w2 0 360 arc} def /m24 {mr s} def /m20 {mr f} def
/mb {mp x y w2 add m w2 neg 0 d 0 w neg d w 0 d 0 w d cl} def
/mt {mp x y w2 add m w2 neg w neg d w 0 d cl} def
/w4 {w 4 div} def
/w6 {w 6 div} def
/w8 {w 8 div} def
/m21 {mb f} def /m25 {mb s} def /m22 {mt f} def /m26{mt s} def
/m23 {mp x y w2 sub m w2 w d w neg 0 d cl f} def
/m27 {mp x y w2 add m w3 neg w2 neg d w3 w2 neg d w3 w2 d cl s} def
/m28 {mp x w2 sub y w2 sub w3 add m w3 0 d  0 w3 neg d w3 0 d 0 w3 d w3 0 d  0 w3 d w3 neg 0 d 0 w3 d w3 neg 0 d 0 w3 neg d w3 neg 0 d cl s } def
/m29 {mp gsave x w2 sub y w2 add w3 sub m currentpoint t 4 {side} repeat cl fill gr} def
/m30 {mp gsave x w2 sub y w2 add w3 sub m currentpoint t 4 {side} repeat cl s gr} def
/m31 {mp x y w2 sub m 0 w d x w2 sub y m w 0 d x w2 sub y w2 add m w w neg d x w2 sub y w2 sub m w w d s} def
/m32 {mp x y w2 sub m w2 w d w neg 0 d cl s} def
/m33 {mp x y w2 add m w3 neg w2 neg d w3 w2 neg d w3 w2 d cl f} def
/m34 {mp x w2 sub y w2 sub w3 add m w3 0 d  0 w3 neg d w3 0 d 0 w3 d w3 0 d  0 w3 d w3 neg 0 d 0 w3 d w3 neg 0 d 0 w3 neg d w3 neg 0 d cl f } def
/m35 {mp x y w2 add m w2 neg w2 neg d w2 w2 neg d w2 w2 d w2 neg w2 d x y w2 sub m 0 w d x w2 sub y m w 0 d s} def
/m36 {mb x w2 sub y w2 add m w w neg d x w2 sub y w2 sub m w w d s} def
/m37 {mp x y m w4 neg w2 d w4 neg w2 neg d w2 0 d  w4 neg w2 neg d w2 0 d w4 neg w2 d w2 0 d w4 neg w2 d w4 neg w2 neg d cl s} def
/m38 {mp x w4 sub y w2 add m w4 neg w4 neg d 0 w2 neg d w4 w4 neg d w2 0 d w4 w4 d 0 w2 d w4 neg w4 d w2 neg 0 d x y w2 sub m 0 w d x w2 sub y m w 0 d cl s} def
/m39 {mp x y m w4 neg w2 d w4 neg w2 neg d w2 0 d  w4 neg w2 neg d w2 0 d w4 neg w2 d w2 0 d w4 neg w2 d w4 neg w2 neg d cl f} def
/m40 {mp x y m w4 w2 d w4 w4 neg d w2 neg w4 neg d w2 w4 neg d w4 neg w4 neg d w4 neg w2 d w4 neg w2 neg d w4 neg w4 d w2 w4 d w2 neg w4 d w4 w4 d w4 w2 neg d cl s} def
/m41 {mp x y m w4 w2 d w4 w4 neg d w2 neg w4 neg d w2 w4 neg d w4 neg w4 neg d w4 neg w2 d w4 neg w2 neg d w4 neg w4 d w2 w4 d w2 neg w4 d w4 w4 d w4 w2 neg d cl f} def
/m42 {mp x y w2 add m w8 neg w2 -3 4 div mul d w2 -3 4 div mul w8 neg d w2 3 4 div mul w8 neg d w8 w2 -3 4 div mul d w8 w2 3 4 div mul d w2 3 4 div mul w8 d w2 -3 4 div mul w8 d w8 neg w2 3 4 div mul d cl s} def
/m43 {mp x y w2 add m w8 neg w2 -3 4 div mul d w2 -3 4 div mul w8 neg d w2 3 4 div mul w8 neg d w8 w2 -3 4 div mul d w8 w2 3 4 div mul d w2 3 4 div mul w8 d w2 -3 4 div mul w8 d w8 neg w2 3 4 div mul d cl f} def
/m44 {mp x y m w6 neg w2 d w2 2 3 div mul 0 d w6 neg w2 neg d w2 w6 d 0 w2 -2 3 div mul d w2 neg w6 d w6 w2 neg d w2 -2 3 div mul 0 d w6 w2 d w2 neg w6 neg d 0 w2 2 3 div mul d w2 w6 neg d cl s} def
/m45 {mp x y m w6 neg w2 d w2 2 3 div mul 0 d w6 neg w2 neg d w2 w6 d 0 w2 -2 3 div mul d w2 neg w6 d w6 w2 neg d w2 -2 3 div mul 0 d w6 w2 d w2 neg w6 neg d 0 w2 2 3 div mul d w2 w6 neg d cl f} def
/m46 {mp x y w4 add m w4 neg w4 d w4 neg w4 neg d  w4 w4 neg d w4 neg w4 neg d w4 w4 neg d w4 w4 d w4 w4 neg d w4 w4 d w4 neg w4 d w4 w4 d w4 neg w4 d w4 neg w4 neg d cl s} def
/m47 {mp x y w4 add m w4 neg w4 d w4 neg w4 neg d w4 w4 neg d w4 neg w4 neg d  w4 w4 neg d w4 w4 d w4 w4 neg d w4 w4 d w4 neg w4 d w4 w4 d w4 neg w4 d w4 neg w4 neg d cl f} def
/m48 {mp x y w4 add m w4 neg w4 d w4 neg w4 neg d w4 w4 neg d  w4 neg w4 neg d w4 w4 neg d w4 w4 d w4 w4 neg d w4 w4 d w4 neg w4 d w4 w4 d w4 neg w4 d w4 neg w4 neg d  w4 w4 neg d w4 neg w4 neg d w4 neg w4 d w4 w4 d cl f} def
/m49 {mp x w2 sub w3 add y w2 sub w3 add m  0 w3 neg d w3 0 d 0 w3 d w3 0 d 0 w3 d w3 neg 0 d 0 w3 d w3 neg 0 d 0 w3 neg d w3 neg 0 d 0 w3 neg d w3 0 d 0 w3 d w3 0 d 0 w3 neg d w3 neg 0 d cl f } def
/m2 {mp x y w2 sub m 0 w d x w2 sub y m w 0 d s} def
/m5 {mp x w2 sub y w2 sub m w w d x w2 sub y w2 add m w w neg d s} def
%%IncludeResource: ProcSet (FontSetInit)
%%IncludeResource: font Times-Roman
%%IncludeResource: font Times-Italic
%%IncludeResource: font Times-Bold
%%IncludeResource: font Times-BoldItalic
%%IncludeResource: font Helvetica
%%IncludeResource: font Helvetica-Oblique
%%IncludeResource: font Helvetica-Bold
%%IncludeResource: font Helvetica-BoldOblique
%%IncludeResource: font Courier
%%IncludeResource: font Courier-Oblique
%%IncludeResource: font Courier-Bold
%%IncludeResource: font Courier-BoldOblique
%%IncludeResource: font Symbol
%%IncludeResource: font ZapfDingbats
/reEncode {exch findfont dup length dict begin {1 index /FID eq  {pop pop} {def} ifelse } forall /Encoding exch def currentdict end dup /FontName get exch definefont pop } def [/Times-Bold /Times-Italic /Times-BoldItalic /Helvetica /Helvetica-Oblique
 /Helvetica-Bold /Helvetica-BoldOblique /Courier /Courier-Oblique /Courier-Bold /Courier-BoldOblique /Times-Roman /AvantGarde-Book /AvantGarde-BookOblique /AvantGarde-Demi /AvantGarde-DemiOblique /Bookman-Demi /Bookman-DemiItalic /Bookman-Light
 /Bookman-LightItalic /Helvetica-Narrow /Helvetica-Narrow-Bold /Helvetica-Narrow-BoldOblique /Helvetica-Narrow-Oblique /NewCenturySchlbk-Roman /NewCenturySchlbk-Bold /NewCenturySchlbk-BoldItalic /NewCenturySchlbk-Italic /Palatino-Bold
 /Palatino-BoldItalic /Palatino-Italic /Palatino-Roman ] {ISOLatin1Encoding reEncode } forall
%%EndProlog
%%BeginSetup
%%EndSetup
newpath  gsave  .25 .25 scale  gsave  0 0 t 0.490196 0.545098 0.615686 c[  ] 0 sd 3 lw 0.941176 0.941176 0.941176 c 2268 1676 0 0 bf black 1 1 0.992157 c 1796 1140 245 201 bf black 1796 1140 245 201 bl 1 1 0.992157 c 1796 1140 245 201 bf black 1796
 1140 245 201 bl 245 201 m 1796 X s[ 4 8] 0 sd 425 1341 m -1140 Y s 604 1341 m -1140 Y s 784 1341 m -1140 Y s 964 1341 m -1140 Y s 1143 1341 m -1140 Y s 1323 1341 m -1140 Y s 1503 1341 m -1140 Y s 1682 1341 m -1140 Y s 1862 1341 m -1140 Y s 425 1341
 m -1140 Y s 1862 1341 m -1140 Y s[  ] 0 sd 245 201 m 1140 Y s[ 4 8] 0 sd 2041 201 m -1796 X s 2041 408 m -1796 X s 2041 616 m -1796 X s 2041 823 m -1796 X s 2041 1030 m -1796 X s 2041 1237 m -1796 X s 2041 1237 m -1796 X s 0 0 0.933333 c[  22 12 ] 0
 sd 6 lw 0.49 0.6 0.82 c black 0 0 0.933333 c 245 719 m 99 Y 1 13 d 32 Y 1 3 d 9 Y 1 2 d 6 Y 1 1 d 3 Y 2 X 1 Y 3 X s 254 888 m 1 X 1 Y 6 X 1 Y 2 X s 263 890 m 8 X 1 Y s 271 891 m 9 X s 280 891 m 9 X s 289 891 m 1 X 1 Y 8 X s 298 892 m 9 X s 307 892 m
 3 X 1 Y 5 X s 315 893 m 9 X s 324 893 m 9 X s 333 893 m 9 X s 342 893 m 9 X s 351 893 m 8 X s 359 893 m 4 X 1 1 d 4 X s 368 894 m 9 X s 377 894 m 9 X s 386 894 m 9 X s 395 894 m 2 X 1 1 d 5 X -1 Y s 403 894 m 4 X 1 Y 5 X s 412 895 m 9 X s 421 895 m
 9 X s 430 895 m 9 X s 439 895 m 8 X s 447 895 m 9 X s 456 895 m 9 X s 465 895 m 2 X 1 Y 7 X s 474 896 m 9 X s 483 896 m 8 X s 491 896 m 9 X s 500 896 m 9 X s 509 896 m 9 X s 518 896 m 9 X s 527 896 m 6 X 1 Y 2 X s 535 897 m 9 X s 544 897 m 9 X s 553
 897 m 9 X s 562 897 m 9 X s 571 897 m 8 X 1 Y s 579 898 m 9 X s 588 898 m 2 X -1 Y 7 X s 597 897 m 9 X s 606 897 m 9 X s 615 897 m 8 X s 623 897 m 3 X 1 Y 6 X s 632 898 m 9 X s 641 898 m 9 X s 650 898 m 9 X s 659 898 m 8 X s 667 898 m 9 X s 676 898
 m 9 X s 685 898 m 9 X s 694 898 m 9 X s 703 898 m 8 X s 711 898 m 9 X s 720 898 m 9 X s 729 898 m 9 X s 738 898 m 9 X s 747 898 m 8 X s 755 898 m 9 X s 764 898 m 9 X s 773 898 m 9 X s 782 898 m 1 X 1 Y 8 X s 791 899 m 3 X -1 Y 5 X s 799 898 m 3 X 1
 Y 6 X s 808 899 m 2 X -1 Y 7 X s 817 898 m 9 X s 826 898 m 9 X s 835 898 m 8 X s 843 898 m 9 X s 852 898 m 4 X 1 1 d 4 X s 861 899 m 9 X s 870 899 m 3 X -1 Y 6 X s 879 898 m 8 X s 887 898 m 5 X 1 Y 4 X s 896 899 m 8 X -1 Y 1 X s 905 898 m 1 X 1 1 d
 7 X s 914 899 m 9 X s 923 899 m 8 X s 931 899 m 9 X s 940 899 m 9 X s 949 899 m 9 X s 958 899 m 9 X s 967 899 m 8 X s 975 899 m 9 X s 984 899 m 9 X s 993 899 m 2 X -1 Y 4 X 1 Y 3 X s 1002 899 m 9 X s 1011 899 m 8 X s 1019 899 m 9 X s 1028 899 m 9 X
 s 1037 899 m 9 X s 1046 899 m -1 Y 9 X s 1055 898 m 8 X s 1063 898 m 9 X s 1072 898 m 9 X s 1081 898 m 9 X s 1090 898 m 9 X s 1099 898 m 8 X s 1107 898 m 9 X s 1116 898 m 9 X s 1125 898 m 9 X s 1134 898 m 2 X -1 Y 3 X 1 Y 4 X s 1143 898 m 3 X 1 -1 d
 2 X 1 Y 2 X s 1151 898 m 9 X s 1160 898 m 9 X s 1169 898 m 4 X 1 Y 4 X -1 Y 1 X s 1178 898 m 9 X s 1187 898 m 8 X s 1195 898 m 5 X 1 Y 2 X -1 Y 1 X 1 1 d -1 Y s 1204 898 m 1 X 1 Y 2 X -1 Y 2 X 1 Y -1 Y 1 1 d -1 Y 3 X s 1213 898 m 3 X 1 1 d 5 X s
 1222 899 m 1 X -1 Y 1 X 1 Y 1 X -1 Y 5 X -1 Y 1 X s 1231 897 m 6 X 1 -1 d 1 X s 1239 896 m 2 X -1 Y 3 X -1 Y 3 X -1 Y 1 X s 1248 893 m 1 -1 d 1 X -1 Y 1 Y 1 X 1 -1 d 1 X -1 Y 1 X -1 Y 2 X -1 Y 1 X s 1257 888 m 3 X -2 Y 1 X -1 Y 1 X -1 Y 1 X -1 Y 1 X
 -1 Y 2 X s 1266 882 m -1 Y 2 X -1 Y 2 X -1 Y 1 X -1 Y 1 X -1 Y 1 X -1 Y 1 -1 d 1 X s 1275 875 m -1 Y 1 X -1 Y 1 X -1 Y 1 X -1 Y 1 X -1 Y 1 -1 d 1 X -1 Y 1 X -2 Y 1 X -1 Y s 1283 865 m 1 -1 d -1 Y 1 X -2 Y 2 X -2 Y 1 X -1 Y 1 X -1 Y 1 X -1 Y 1 X 1 -1
 d -1 Y s 1292 854 m 1 X -2 Y 1 X -1 Y 1 X -1 Y 1 -1 d -1 Y 2 X -2 Y 1 X -1 Y 1 -1 d -1 Y 1 -1 d s 1301 842 m -1 Y 1 -1 d -1 Y 1 X -2 Y 1 X -2 Y 1 -1 d -1 Y 1 X -1 Y 1 -1 d -2 Y 1 X -2 Y 1 X -2 Y 1 X -1 Y s 1310 824 m 1 X -1 Y 1 X -2 Y 1 X -1 Y 1 -1
 d -1 Y 1 X -1 Y 1 -1 d -1 Y 1 X -2 Y 1 X -3 Y 1 -1 d s 1319 809 m 1 X -1 Y 1 X -3 Y 1 -1 d -1 Y 1 -1 d -1 Y 1 X -1 Y 1 X -2 Y 1 X -1 Y 1 X -2 Y s 1327 795 m 1 -1 d -1 Y 1 Y -2 Y 1 -1 d -2 Y 1 X -2 Y 1 -1 d -3 Y 1 X -2 Y 1 X -1 Y 1 Y -2 Y 1 X -2 Y 1
 -1 d -2 Y 1 -1 d -1 Y s 1336 772 m -1 Y 1 X -1 Y 1 -1 d -3 Y 1 X -2 Y 1 X -2 Y 1 1 d -3 Y 1 X -2 Y 1 X -2 Y 1 X -2 Y 1 -1 d -2 Y s 1345 751 m -1 Y 1 -1 d -2 Y 1 X -2 Y 1 X -3 Y 1 -1 d -3 Y 1 -1 d -2 Y 1 1 d -3 Y 1 -1 d -2 Y 1 X -3 Y 1 X -2 Y s 1354
 725 m -1 Y 1 X -4 Y 1 1 d -2 Y 1 X -3 Y 1 -1 d -3 Y 1 X -3 Y 1 -1 d -2 Y 1 -1 d -4 Y 1 -1 d -3 Y 1 -1 d s 1363 696 m -2 Y 1 -1 d -3 Y 1 -2 d -3 Y 1 -1 d -8 Y 1 -1 d -4 Y 1 -2 d -6 Y 1 X -1 Y 1 Y -1 Y 1 -1 d -2 Y 1 X -4 Y s 1371 655 m 1 -1 d -3 Y 1 X
 -4 Y 1 1 d -3 Y 1 -1 d -1 Y 1 Y -2 Y 1 -1 d -1 Y 1 X -4 Y 1 -1 d -3 Y 1 X -3 Y 1 -1 d -1 Y s 1380 627 m -1 Y 1 -1 d -2 Y 1 -1 d -4 Y 1 X -2 Y 1 X -3 Y 1 X -2 Y 1 X -2 Y 1 X -3 Y 1 X -2 Y 1 -1 d -1 Y s 1389 602 m -2 Y 1 X -1 Y 1 X -2 Y 1 X -1 Y 1 X
 -2 Y 1 X -2 Y 1 X -1 Y 1 X -1 Y 1 -1 d -1 Y 1 Y 1 -1 d -1 Y s 1398 587 m -1 Y 1 Y 1 -1 d 1 Y -2 Y 1 -1 d -2 Y 1 -1 d -1 Y 1 X -2 Y 1 -1 d -1 Y 1 X -1 Y 1 -1 d 1 Y -1 Y 1 -1 d 1 X s 1407 573 m -2 Y 1 X -2 Y 1 X 1 Y -1 Y 1 -1 d -1 Y 1 -1 d -1 Y 1 Y -1
 Y 1 X -2 Y 1 X -3 Y 1 -1 d 1 Y -2 Y 1 X -1 Y s 1415 557 m 1 X -1 Y 1 X -1 Y 1 Y -1 Y 1 X -2 Y 1 X -1 Y 1 X -2 Y 1 X -2 Y 1 X -1 Y 1 -1 d 1 -1 d -1 Y s 1424 544 m 1 -1 d 1 Y 1 X -2 Y 1 -1 d -1 Y 1 X 1 Y -1 Y 1 X -3 Y 1 X -1 Y 1 X -1 Y 1 X -2 Y 1 Y 1
 X -1 Y s 1433 533 m 1 X -1 Y 2 X -1 Y 1 X -1 Y 1 -1 d -1 Y 1 X -1 Y 1 X -1 Y 1 X -1 Y 1 Y 1 -1 d s 1442 525 m -1 Y 1 -1 d -1 Y 1 -1 d -1 Y 1 X -1 Y 2 X 1 -1 d 1 X -1 Y 1 -1 d -1 Y 1 X s 1451 515 m -1 Y 1 X -1 Y 1 X -1 Y 1 X -2 Y 1 X -1 Y 1 Y 1 X -1
 Y 1 -1 d -1 Y 1 X 1 -1 d -1 Y s 1459 505 m 1 X -1 Y 1 X -1 Y 1 X -1 Y 1 X -2 Y 1 X -1 Y 1 X 1 -1 d -1 Y 2 X -1 Y s 1468 496 m 1 X 1 Y -1 Y 2 X -2 Y 2 X -2 Y 2 X -2 Y 2 X -1 Y s 1477 489 m 1 X -1 Y 1 X -2 Y 1 X -1 Y 1 Y -1 Y 1 X -1 Y 1 X -1 Y 1 X -1
 Y 1 -1 d -1 Y 1 -1 d 1 Y -1 Y 1 X s 1486 479 m 1 -1 d -2 Y 1 X 1 -1 d -1 Y 1 1 d -1 Y 1 X -1 Y 1 X -1 Y 1 X -2 Y 1 X -1 Y 1 X s 1495 469 m 1 X -1 Y 1 X 1 -1 d -1 Y 1 X 1 Y -1 Y 1 X -1 Y 1 -1 d 1 X -1 Y 1 X s 1503 463 m 1 -1 d 1 -1 d -1 Y 1 X 1 -1 d
 1 Y 1 -1 d -1 Y 2 X -2 Y 1 X -1 Y 1 X 1 Y -1 Y s 1512 455 m 1 X -1 Y 1 X -1 Y 1 X -2 Y 1 X -2 Y 1 X -1 Y 1 Y -1 Y 1 1 d -1 Y 1 X -1 Y 2 X s 1521 447 m 3 X -2 Y 2 X -1 Y 1 X -1 Y 1 X -1 Y 2 X -1 Y 1 Y s 1530 442 m -1 Y 1 X -1 Y 2 X -1 Y 1 X 1 Y -1 Y
 1 X -1 Y 3 X -1 Y 1 X s 1539 437 m -1 Y 2 X 1 -1 d 2 X -1 Y 2 X -1 Y 1 -1 d -1 Y s 1547 431 m 1 X -1 Y 3 X -1 Y 2 X -1 Y 1 -1 d -1 Y 1 X -1 Y 1 X -1 Y 1 Y -1 Y s 1556 424 m 1 X 1 -1 d 1 Y -1 Y 1 X -1 Y 1 X -1 Y 1 X -1 Y 1 X -1 Y 1 X -2 Y 1 1 d -1 Y
 1 X s 1565 417 m 1 X -1 Y 1 X -1 Y 1 X 1 Y -2 Y 1 X -1 Y 1 X -2 Y 1 X 1 -1 d 1 Y 2 X -1 Y s 1574 410 m 1 1 d -1 Y 2 X 1 -1 d 2 X -1 Y 1 X -1 Y 1 X 1 1 d -1 Y s 1583 407 m 3 X 1 -1 d 2 X -1 Y 2 X s 1591 405 m 2 X -1 Y 1 X -1 Y 1 X -1 Y 1 X -1 Y 1 X
 -1 Y 3 X -1 Y s 1600 399 m 4 X -1 Y 2 X -1 Y 1 X -1 Y 2 X s 1609 396 m 1 X -1 Y 1 Y 1 -1 d 2 X -1 Y 1 X -1 Y 2 X 1 -1 d 1 X -1 Y s 1618 391 m 2 X -1 Y 1 Y 1 X -1 Y 2 X -1 Y 1 X 1 -1 d -1 Y 2 X s 1627 387 m -1 Y 1 -1 d 1 X -1 Y 1 X -1 Y 2 X -1 Y 1 Y
 1 X -1 Y 2 X -1 Y s 1635 381 m 1 X -1 Y 2 X -1 Y 1 X 1 -1 d 1 X -1 Y 2 X -1 Y 1 X s 1644 376 m 1 X -1 Y 2 X -1 Y 1 X -1 Y 1 -1 d -1 Y 2 X 1 -1 d 1 Y -1 Y 1 X s 1653 370 m 1 X 1 -1 d -1 Y 1 X 1 Y -1 Y 1 Y 1 -1 d 1 X -1 Y 4 X -1 Y s 1662 366 m 1 X -1
 Y 2 X -1 Y 1 X 1 -1 d 3 X -1 Y 1 X s 1671 362 m 2 X -1 Y 1 X 1 -1 d 1 Y -1 Y 4 X -1 Y s 1679 359 m 3 X -1 Y 1 X -1 Y 1 X -1 Y 4 X s 1688 356 m 2 X -1 Y 6 X -1 Y 1 X -1 Y s 1697 353 m 1 X 1 -1 d 2 X -1 Y 2 X -1 Y 1 X 1 -1 d 1 X s 1706 349 m 1 X -1 Y
 4 X -1 Y 1 X -1 Y 3 X -1 Y s 1715 345 m 1 X -1 Y 2 X 1 1 d -1 Y 1 X 1 -1 d 1 X -1 Y 1 X s 1723 342 m 2 X -1 Y 2 X -1 Y 3 X -1 Y 1 X -1 Y 1 X -1 Y s 1732 337 m 2 X -1 Y 1 X -1 Y 2 X 1 -1 d 3 X s 1741 334 m 1 X -1 Y 1 -1 d 1 Y -1 Y 1 X -1 Y 1 X -1 Y 1
 X -1 Y 2 X -1 Y 2 X s 1750 328 m -1 Y 1 Y 1 X -1 Y 1 X -1 Y 4 X -1 Y 2 X -1 Y 1 X s 1759 324 m 3 X -1 Y 5 X -1 Y s 1767 322 m 1 X -1 Y 4 X -1 Y 3 X -1 Y 1 X s 1776 319 m 3 X -1 Y 1 X -1 Y 2 X -1 Y 2 X -1 Y 1 X s 1785 315 m 2 X 1 -1 d 1 -1 d 3 X 1 -1
 d 1 X -1 Y s 1794 311 m 1 -1 d 3 X 1 -1 d 2 X 1 -1 d 1 Y 1 X s 1803 309 m -1 Y 2 X -1 Y 4 X 1 -1 d 2 X s 1812 306 m 1 X -1 Y 4 X -1 Y 3 X -1 Y s 1820 303 m 2 X -1 Y 3 X 1 -1 d 3 X -1 Y s 1829 300 m 5 X -1 Y 1 X -1 Y 1 X -1 Y 2 X s 1838 297 m 1 X -1
 Y 2 X -1 Y 3 X -1 Y 3 X s 1847 294 m -1 Y 2 X -1 Y 1 -1 d 1 X -1 Y 2 X -1 Y 1 -1 d 2 X s 1856 288 m 2 X -1 Y 5 X -1 Y 1 X s 1864 286 m 3 X -1 Y 2 X -1 Y 1 X -1 Y 3 X -1 Y s 1873 282 m 1 -1 d 4 X -1 Y 4 X s 1882 280 m 1 X -1 Y 1 X -1 Y 6 X 1 -1 d s
 1891 277 m 1 X -1 Y 4 X -1 Y 2 X -1 Y 2 X s 1900 274 m -1 Y 5 X -1 Y 2 X 1 -1 d s 1908 271 m 2 X -1 Y 5 X -1 Y 2 X s 1917 269 m 1 X 1 -1 d 1 X -1 Y 4 X -1 Y 2 X s 1926 266 m -1 Y 2 X -1 Y 1 X 1 -1 d 2 X -1 Y 2 X -1 Y 1 X s 1935 261 m 1 X -1 Y 2 X -1
 Y 3 X -1 Y 1 X 1 -1 d 1 X s 1944 257 m 1 -1 d 4 X 1 -1 d 1 X -1 Y 1 X s 1952 254 m 1 X -1 Y 1 X 1 -1 d -1 Y 3 X -1 Y 1 X -1 Y 1 X 1 -1 d s 1961 248 m 2 X -1 Y 3 X -1 Y 2 X -1 Y 2 X s 1970 245 m -1 Y 2 X -1 Y 2 X -1 Y 2 X -1 Y 3 X s 1979 241 m -1 Y 1
 -1 d 1 -1 d 1 X -1 Y 3 X 1 -1 d 2 X s 1988 236 m -1 Y 2 X -1 Y 1 X -1 Y 4 X -1 Y 1 X s 1996 232 m 1 -1 d 1 Y -1 Y 3 X -1 Y 1 X -1 Y 4 X s 2005 229 m 1 X -1 Y 3 X -1 Y 1 X -1 Y 2 X -1 Y 1 X -1 Y 1 X -1 Y s 2014 223 m -1 Y 2 X -1 Y 2 X -2 Y 2 X -1 Y 3
 X s 2023 218 m -1 Y 2 X -1 Y 1 X -1 Y 1 X -1 Y 1 X -1 Y 2 X -1 Y 2 X s 2032 212 m -1 Y 1 X -1 Y 1 -1 d 1 X -1 Y 1 -1 d -1 Y 1 X -1 Y 1 X 1 -1 d 1 -1 d -1 Y s 2040 202 m 1 X -1 Y s black[  ] 0 sd 3 lw 245 201 m 1796 X s 425 241 m -40 Y s 460 221 m
 -20 Y s 496 221 m -20 Y s 532 221 m -20 Y s 568 221 m -20 Y s 604 241 m -40 Y s 640 221 m -20 Y s 676 221 m -20 Y s 712 221 m -20 Y s 748 221 m -20 Y s 784 241 m -40 Y s 820 221 m -20 Y s 856 221 m -20 Y s 892 221 m -20 Y s 928 221 m -20 Y s 964 241
 m -40 Y s 1000 221 m -20 Y s 1035 221 m -20 Y s 1071 221 m -20 Y s 1107 221 m -20 Y s 1143 241 m -40 Y s 1179 221 m -20 Y s 1215 221 m -20 Y s 1251 221 m -20 Y s 1287 221 m -20 Y s 1323 241 m -40 Y s 1359 221 m -20 Y s 1395 221 m -20 Y s 1431 221 m
 -20 Y s 1467 221 m -20 Y s 1503 241 m -40 Y s 1539 221 m -20 Y s 1575 221 m -20 Y s 1610 221 m -20 Y s 1646 221 m -20 Y s 1682 241 m -40 Y s 1718 221 m -20 Y s 1754 221 m -20 Y s 1790 221 m -20 Y s 1826 221 m -20 Y s 1862 241 m -40 Y s 425 241 m -40
 Y s 389 221 m -20 Y s 353 221 m -20 Y s 317 221 m -20 Y s 281 221 m -20 Y s 1862 241 m -40 Y s 1898 221 m -20 Y s 1934 221 m -20 Y s 1970 221 m -20 Y s 2006 221 m -20 Y s
 gsave  2268 1676 0 0 C 379.217 128.934 t 0 r /Helvetica-Bold findfont 64.4669 sf 0 0 m (0.1) show NC gr 
 gsave  2268 1676 0 0 C 557.449 128.934 t 0 r /Helvetica-Bold findfont 64.4669 sf 0 0 m (0.2) show NC gr 
 gsave  2268 1676 0 0 C 735.681 128.934 t 0 r /Helvetica-Bold findfont 64.4669 sf 0 0 m (0.3) show NC gr 
 gsave  2268 1676 0 0 C 917.705 128.934 t 0 r /Helvetica-Bold findfont 64.4669 sf 0 0 m (0.4) show NC gr 
 gsave  2268 1676 0 0 C 1095.94 128.934 t 0 r /Helvetica-Bold findfont 64.4669 sf 0 0 m (0.5) show NC gr 
 gsave  2268 1676 0 0 C 1274.17 128.934 t 0 r /Helvetica-Bold findfont 64.4669 sf 0 0 m (0.6) show NC gr 
 gsave  2268 1676 0 0 C 1456.19 128.934 t 0 r /Helvetica-Bold findfont 64.4669 sf 0 0 m (0.7) show NC gr 
 gsave  2268 1676 0 0 C 1634.42 128.934 t 0 r /Helvetica-Bold findfont 64.4669 sf 0 0 m (0.8) show NC gr 
 gsave  2268 1676 0 0 C 1816.45 128.934 t 0 r /Helvetica-Bold findfont 64.4669 sf 0 0 m (0.9) show NC gr 
 gsave  2268 1676 0 0 C 917.705 30.3373 t 0 r /Helvetica-Bold findfont 72.0512 sf 0 0 m (Cut value applied on MLP output) show NC gr  245 201 m 1140 Y s 291 201 m -46 X s 268 253 m -23 X s 268 305 m -23 X s 268 357 m -23 X s 291 408 m -46 X s 268 460
 m -23 X s 268 512 m -23 X s 268 564 m -23 X s 291 616 m -46 X s 268 667 m -23 X s 268 719 m -23 X s 268 771 m -23 X s 291 823 m -46 X s 268 875 m -23 X s 268 926 m -23 X s 268 978 m -23 X s 291 1030 m -46 X s 268 1082 m -23 X s 268 1134 m -23 X s
 268 1185 m -23 X s 291 1237 m -46 X s 291 1237 m -46 X s 268 1289 m -23 X s 268 1341 m -23 X s
 gsave  2268 1676 0 0 C 182.024 178.232 t 0 r /Helvetica-Bold findfont 64.4669 sf 0 0 m (0) show NC gr 
 gsave  2268 1676 0 0 C 128.934 383.009 t 0 r /Helvetica-Bold findfont 64.4669 sf 0 0 m (0.2) show NC gr 
 gsave  2268 1676 0 0 C 125.142 591.578 t 0 r /Helvetica-Bold findfont 64.4669 sf 0 0 m (0.4) show NC gr 
 gsave  2268 1676 0 0 C 128.934 796.355 t 0 r /Helvetica-Bold findfont 64.4669 sf 0 0 m (0.6) show NC gr 
 gsave  2268 1676 0 0 C 125.142 1004.92 t 0 r /Helvetica-Bold findfont 64.4669 sf 0 0 m (0.8) show NC gr 
 gsave  2268 1676 0 0 C 189.608 1213.49 t 0 r /Helvetica-Bold findfont 64.4669 sf 0 0 m (1) show NC gr 
 gsave  2268 1676 0 0 C 64.4669 731.888 t 90 r /Helvetica-Bold findfont 72.0512 sf 0 0 m (Efficiency \(Purity\)) show NC gr  0 0 0.933333 c[  52 12 ] 0 sd 6 lw 0.49 0.6 0.82 c black 0 0 0.933333 c 245 719 m 99 Y 1 13 d 32 Y 1 3 d 9 Y 1 2 d 6 Y 1 1 d
 3 Y 2 X 1 Y 3 X s 254 888 m 1 X 1 Y 6 X 1 Y 2 X s 263 890 m 8 X 1 Y s 271 891 m 9 X s 280 891 m 9 X s 289 891 m 1 X 1 Y 8 X s 298 892 m 9 X s 307 892 m 3 X 1 Y 5 X s 315 893 m 9 X s 324 893 m 9 X s 333 893 m 9 X s 342 893 m 9 X s 351 893 m 8 X s 359
 893 m 4 X 1 1 d 4 X s 368 894 m 9 X s 377 894 m 9 X s 386 894 m 9 X s 395 894 m 2 X 1 1 d 5 X s 403 895 m 9 X s 412 895 m 9 X s 421 895 m 9 X s 430 895 m 9 X s 439 895 m 8 X s 447 895 m 9 X s 456 895 m 1 1 d 8 X s 465 896 m 9 X s 474 896 m 9 X s 483
 896 m 8 X s 491 896 m 9 X s 500 896 m 9 X s 509 896 m 9 X s 518 896 m 9 X s 527 896 m 5 X 1 Y 3 X s 535 897 m 9 X s 544 897 m 9 X s 553 897 m 9 X s 562 897 m 9 X s 571 897 m 5 X 1 Y 3 X s 579 898 m 9 X s 588 898 m 9 X s 597 898 m 9 X s 606 898 m 9 X
 s 615 898 m 8 X s 623 898 m 9 X s 632 898 m 9 X s 641 898 m 9 X s 650 898 m 9 X s 659 898 m 8 X s 667 898 m 9 X s 676 898 m 9 X s 685 898 m 9 X s 694 898 m 9 X s 703 898 m 8 X s 711 898 m 6 X 1 1 d 2 X s 720 899 m 9 X s 729 899 m 9 X s 738 899 m 9 X
 s 747 899 m 8 X s 755 899 m 9 X s 764 899 m 9 X s 773 899 m 9 X s 782 899 m 9 X s 791 899 m 8 X s 799 899 m 9 X s 808 899 m 9 X s 817 899 m 9 X s 826 899 m 9 X s 835 899 m 1 1 d 7 X s 843 900 m 9 X s 852 900 m 9 X s 861 900 m 9 X s 870 900 m 9 X s
 879 900 m 8 X s 887 900 m 9 X s 896 900 m 9 X s 905 900 m 9 X s 914 900 m 4 X 1 Y 5 X s 923 901 m 8 X s 931 901 m 9 X s 940 901 m 9 X s 949 901 m 9 X s 958 901 m 9 X s 967 901 m 8 X s 975 901 m 9 X s 984 901 m 9 X s 993 901 m 9 X s 1002 901 m 9 X s
 1011 901 m 8 X s 1019 901 m 9 X s 1028 901 m 9 X s 1037 901 m 9 X s 1046 901 m 9 X s 1055 901 m 1 Y 6 X -1 Y 2 X s 1063 901 m 4 X 1 Y 5 X s 1072 902 m 9 X s 1081 902 m 9 X s 1090 902 m 9 X s 1099 902 m 7 X 1 Y 1 X s 1107 903 m 1 -1 d 2 X 1 1 d 5 X s
 1116 903 m 9 X s 1125 903 m 9 X s 1134 903 m 9 X s 1143 903 m 8 X s 1151 903 m 9 X 1 Y s 1160 904 m 9 X s 1169 904 m 9 X s 1178 904 m 2 X 1 Y 5 X -1 Y 2 X s 1187 904 m 7 X 1 Y 1 X s 1195 905 m 9 X s 1204 905 m 5 X 1 Y 4 X s 1213 906 m 7 X 1 1 d 1 X
 s 1222 907 m 9 X s 1231 907 m 8 X s 1239 907 m 9 X s 1248 907 m 2 X -1 Y 1 Y 3 X -1 Y 4 X s 1257 906 m 5 X -1 Y 1 Y -1 Y 4 X s 1266 905 m 7 X 1 -1 d 1 Y 1 X s 1275 905 m -1 Y 7 X -1 Y 1 1 d -1 Y s 1283 903 m 2 X -1 Y 7 X s 1292 902 m 1 X -1 Y 1 X 1
 Y -1 Y 1 Y 2 X -1 Y 1 Y 1 X -1 Y 1 Y 1 X -1 Y 1 X 1 Y 1 X -1 Y 1 X s 1301 901 m 5 X -1 Y 1 Y 1 -1 d 3 X s 1310 900 m 1 X 1 Y 1 X -1 Y 3 X 1 Y -1 Y 1 Y 3 X 1 Y 1 -1 d s 1319 901 m 1 Y 1 X 1 Y 4 X 1 Y 1 X 1 Y -1 Y 1 X 1 Y 1 X 1 Y s 1327 906 m 3 X 1 Y
 1 X 1 1 d 1 X 1 Y 1 X 1 Y 2 X 1 Y s 1336 911 m 1 X 1 Y 1 X -1 Y 1 Y 1 X 1 Y 1 X 1 Y 1 1 d 1 1 d 1 X 1 Y 1 1 d 1 Y 1 X s 1345 919 m 1 X 1 Y 1 X 1 Y 1 X 1 Y 2 X 2 Y 1 1 d 1 X 2 Y 2 X 1 Y s 1354 928 m 1 Y 1 X 1 1 d 1 Y 1 X 1 Y 2 X 1 Y 1 X 1 1 d 1 X 2 Y
 -1 Y 1 1 d s 1363 936 m 1 Y 1 X 1 Y 1 -1 d 1 Y 2 X -1 Y 1 Y 1 -1 d 1 Y -2 Y 1 Y 1 1 d 2 Y 1 X 1 Y 1 X s 1371 941 m 1 1 d 1 X -1 Y 1 Y 1 X 1 Y 1 X 1 Y 2 X 1 Y -1 Y 1 X 1 1 d -1 Y 1 X 1 Y s 1380 945 m 2 X -1 Y 1 1 d 1 Y -1 Y 1 X 1 Y 1 1 d 1 1 d 1 Y 1
 X 1 Y 1 X -1 Y 1 Y 1 X -1 Y 2 Y s 1389 951 m -1 Y 1 1 d 1 1 d 2 Y 1 X 1 Y -1 Y 2 Y 2 X 1 Y 1 X 2 Y 1 X 2 Y 1 X 1 Y 1 X s 1398 962 m 1 Y 1 X 1 Y -1 Y 1 Y 3 X 1 Y 1 X 1 Y 1 X 1 Y 1 X 1 Y 1 X -1 Y 2 Y 1 2 d s 1407 971 m -1 Y 1 Y 1 X 1 Y -1 Y 1 Y 1 X 2
 Y 1 X -1 Y 1 Y 2 X 1 Y -1 Y 1 Y -1 Y 1 X 1 -1 d 1 Y -1 Y 1 1 d 1 Y s 1415 975 m 1 X 1 Y -1 Y 1 X 2 Y 2 X 2 Y 3 X 1 Y 1 X 1 Y 1 X s 1424 981 m 1 X 1 Y 2 X 1 Y -1 Y 2 Y 1 X 2 Y -1 Y 2 X 1 Y 1 -1 d 1 Y 1 X -1 Y 1 Y 1 1 d 1 Y s 1433 988 m 1 X 1 Y 1 1 d
 1 Y 1 X 1 Y 2 X 1 1 d 1 Y 1 X 1 Y 1 X 1 Y 1 -1 d 1 Y s 1442 996 m 1 -1 d 1 Y 1 X -1 Y 1 1 d 1 X 1 Y 1 X 1 Y 1 1 d 1 Y -1 Y 1 1 d 1 Y 1 -1 d 2 Y -1 Y 1 Y 1 X s 1451 1002 m 1 1 d 1 X 1 1 d -1 Y 1 Y 1 X 1 Y 1 1 d 1 X -1 Y 1 Y 1 1 d 2 Y 1 X 1 Y s 1459
 1010 m 1 1 d 1 Y 1 1 d 2 Y 1 X 1 1 d -1 Y 1 X 2 Y 1 X 1 Y 1 X 1 Y 1 X 1 Y 1 1 d s 1468 1021 m 1 X 2 Y 1 X 2 Y 1 X -1 Y 1 Y 1 X 2 Y 1 X 2 Y 1 -1 d 2 Y 1 1 d -1 Y 1 Y -1 Y 1 1 d 1 Y 1 X -1 Y s 1477 1031 m 1 Y 1 X 1 Y 1 X -1 Y 1 Y 1 X 1 Y -1 Y 1 X 1 1
 d 1 X 1 Y -1 Y 1 Y -1 Y 1 X -1 Y 1 X 2 Y 1 X s 1486 1035 m 1 Y 1 -1 d 1 Y -1 Y 1 Y 1 X 1 Y 1 -1 d 1 Y 1 X 1 Y 1 X 1 1 d 2 X -1 Y 1 1 d s 1495 1039 m 1 Y -1 Y 1 1 d 1 Y 2 X 1 Y -1 Y 1 1 d 1 Y -1 Y 1 X 1 Y -1 Y 1 Y 1 -1 d 1 Y 1 X 1 Y 1 X 1 Y s 1503
 1045 m 3 X 1 -1 d 2 Y 1 X -1 Y 1 Y 1 X 2 Y -1 Y 1 X 1 Y -1 Y 1 1 d 1 1 d s 1512 1049 m 1 X -1 Y 1 1 d 1 Y 1 X -1 Y 1 Y -1 Y 1 X -1 Y 1 X 1 Y 1 2 d -1 Y 1 1 d 1 X 2 Y 1 X s 1521 1053 m 2 Y 1 X 2 Y 2 X -1 Y 1 1 d 1 1 d 1 Y 1 X 1 Y 1 -1 d 1 Y -1 Y 1 Y
 1 X 2 Y 1 -1 d 2 Y s 1530 1063 m 2 X 1 Y 1 X -1 Y 1 X 1 Y 2 X 1 Y 1 1 d 1 X 1 Y 1 X s 1539 1067 m 1 1 d 2 Y 1 X 1 -1 d 2 Y 2 X 1 1 d -1 Y 2 Y 1 X 1 -1 d 1 Y s 1547 1073 m 1 X -1 Y 1 Y 1 X 1 Y 1 X -1 Y 1 X 2 Y 1 X 1 Y 2 X 1 Y 2 X 2 Y s 1556 1079 m 2
 X 1 Y -1 Y 1 1 d -1 Y 1 X 2 Y 2 X 2 Y -1 Y 2 X 1 1 d 1 Y s 1565 1084 m 1 Y 2 X -1 Y 1 1 d 1 Y -1 Y 2 X -1 Y 1 X 1 Y 1 X 2 Y 1 1 d 1 1 d -1 Y s 1574 1088 m 1 Y 1 1 d -1 Y 1 X 1 Y 1 2 d 1 X 2 Y 2 X 1 -1 d 1 Y -1 Y 1 1 d 1 Y 1 X s 1583 1095 m 1 Y 2 X 2
 Y 1 X -1 Y 1 X 1 Y 1 -1 d 3 Y 1 X 1 Y 2 X 2 Y s 1591 1103 m 1 X 1 Y 1 X -1 Y 1 X 1 Y 1 -1 d 1 Y 2 X 1 Y 1 -1 d 2 Y 1 X 1 Y 1 X 1 Y s 1600 1108 m 2 X 2 Y 1 X -1 Y 1 X 1 Y 1 X 1 Y 1 1 d -1 Y 1 Y 1 X 1 Y 1 X 1 Y 1 X -1 Y 2 Y s 1609 1115 m 1 1 d 2 Y 1 X
 3 Y 1 X 1 -1 d 1 X 1 1 d 1 Y 1 X 1 Y 1 X 1 Y 1 X s 1618 1124 m -1 Y 1 1 d 1 Y 1 X 1 Y -1 Y 1 Y 1 X 1 Y 1 X -1 Y 2 Y 1 X 1 Y -1 Y 1 1 d 1 Y 1 -1 d 1 1 d 1 Y 1 X s 1627 1131 m -1 Y 1 X -1 Y 1 Y 2 X 2 Y 1 X 1 Y -1 Y 1 1 d 2 Y 1 X -1 Y 1 X 1 Y 1 X 1 Y
 -1 Y s 1635 1135 m 1 X 1 1 d 2 Y 1 2 d 1 X 1 Y 2 X 1 1 d 2 Y 1 -1 d 1 X s 1644 1143 m 2 X 2 Y 2 X -1 Y 1 Y 1 X -1 Y 1 X 1 Y 1 X 1 1 d 2 Y 1 X s 1653 1148 m 1 X 1 Y 1 X -1 Y 1 X 3 Y 1 X 1 Y 1 X -1 Y 1 X 1 Y 1 X 1 Y 1 1 d 1 Y 1 X s 1662 1155 m 1 Y 1 X
 -1 Y 1 X 1 Y 2 X 1 Y -1 Y 1 X 1 Y 1 X 1 Y 2 X 1 Y 1 X s 1671 1159 m 1 Y 1 X 1 Y -1 Y 3 X 1 Y 3 X 1 Y 1 X s 1679 1162 m 1 -1 d 2 Y -1 Y 1 X 2 Y -1 Y 3 X -1 Y 1 X 1 Y 3 X 1 Y s 1688 1164 m 2 Y 1 1 d 1 X 1 Y 1 X 1 Y 3 X 1 Y 1 X 2 Y 1 X 2 Y 1 X s 1697
 1174 m 1 X 1 Y 2 X -1 Y 2 Y -1 Y 2 X 3 Y 1 X -1 Y 2 X 1 Y 1 X s 1706 1178 m 1 1 d 1 X 1 Y 4 X -1 Y 3 X s 1715 1179 m 1 X -1 Y 2 Y 1 X 1 1 d 1 Y 1 1 d 1 X 1 Y 2 X 1 Y 1 X 1 Y s 1723 1186 m 4 X 1 Y 1 X 2 Y 3 X 2 Y -1 Y 1 X 1 Y s 1732 1191 m 4 X -1 Y 1
 2 d 1 Y 1 X 1 Y 1 X 2 Y 2 X 1 Y s 1741 1197 m 2 X 1 Y 2 X -1 Y 5 X s 1750 1197 m -1 Y 2 Y 4 X 1 -1 d 1 2 d 2 X -1 Y 2 Y 1 X s 1759 1200 m 1 X 1 Y 1 X 2 Y 6 X -1 Y s 1767 1202 m 3 X 2 Y 3 X 1 -1 d 2 X s 1776 1203 m 1 X 2 Y 1 2 d -1 Y 2 Y 3 X -1 Y 4 X
 s 1785 1207 m 1 X 2 Y 2 X -1 Y 5 X 2 Y 1 X s 1794 1210 m 1 -1 d 3 X 2 Y 4 X 2 Y 1 X s 1803 1213 m -1 Y 2 X 2 Y 2 X 2 Y 1 X 2 Y 4 X s 1812 1218 m 1 X -1 Y 7 X s 1820 1217 m 1 X 2 Y 6 X 2 Y 2 X s 1829 1221 m 2 X -1 Y 7 X s 1838 1220 m 7 X -1 Y 2 X s
 1847 1219 m 2 X 2 Y 3 X 2 Y 3 X 2 Y 1 X s 1856 1225 m 8 X 2 Y s 1864 1227 m 9 X s 1873 1227 m 5 X 2 Y 1 3 d 3 X s 1882 1232 m 4 X 3 Y 4 X 1 -1 d s 1891 1234 m 9 X s 1900 1234 m 8 X s 1908 1234 m 9 X s 1917 1234 m 9 X s 1926 1234 m 9 X s 1935 1234 m
 7 X 1 -1 d 1 X s 1944 1233 m 8 X s 1952 1233 m 9 X s 1961 1233 m 7 X -1 Y 2 X s 1970 1232 m 9 X s 1979 1232 m 2 X -1 Y 7 X s 1988 1231 m 7 X -1 Y 1 X s 1996 1230 m 1 X 7 Y 8 X s 2005 1237 m 9 X s 2014 1237 m 9 X s 2023 1237 m 9 X s 2032 1237 m 8 X s
 2040 1237 m 1 X s[  ] 0 sd 9 lw 0.49 0.6 0.82 c black 0 0 0.933333 c 245 1237 m 9 X s 254 1237 m 9 X s 263 1237 m 8 X s 271 1237 m 9 X s 280 1237 m 9 X s 289 1237 m 9 X s 298 1237 m 9 X s 307 1237 m 8 X s 315 1237 m 9 X s 324 1237 m 9 X s 333 1237 m
 9 X s 342 1237 m 9 X s 351 1237 m 8 X s 359 1237 m 9 X s 368 1237 m 9 X s 377 1237 m 9 X s 386 1237 m 9 X s 395 1237 m 8 X s 403 1237 m 9 X s 412 1237 m 9 X s 421 1237 m 9 X s 430 1237 m 9 X s 439 1237 m 8 X s 447 1237 m 9 X s 456 1237 m 9 X s 465
 1237 m 9 X s 474 1237 m 9 X s 483 1237 m 8 X s 491 1237 m 9 X s 500 1237 m 9 X s 509 1237 m 9 X s 518 1237 m 9 X s 527 1237 m 8 X s 535 1237 m 9 X s 544 1237 m 9 X s 553 1237 m 9 X s 562 1237 m 9 X s 571 1237 m 8 X s 579 1237 m 9 X s 588 1237 m 9 X
 s 597 1237 m 9 X s 606 1237 m 9 X s 615 1237 m 8 X s 623 1237 m 9 X s 632 1237 m 9 X s 641 1237 m 9 X s 650 1237 m 9 X s 659 1237 m 8 X s 667 1237 m 9 X s 676 1237 m 9 X s 685 1237 m 9 X s 694 1237 m 9 X s 703 1237 m 8 X s 711 1237 m 9 X s 720 1237
 m 4 X -1 Y 5 X s 729 1236 m 9 X s 738 1236 m 9 X s 747 1236 m 8 X s 755 1236 m 9 X s 764 1236 m 9 X s 773 1236 m 9 X s 782 1236 m 9 X s 791 1236 m 8 X s 799 1236 m 9 X s 808 1236 m 9 X s 817 1236 m 5 X -1 Y 4 X s 826 1235 m 9 X s 835 1235 m 8 X s
 843 1235 m 9 X s 852 1235 m 9 X s 861 1235 m 9 X s 870 1235 m 9 X s 879 1235 m 8 X s 887 1235 m 9 X s 896 1235 m 9 X s 905 1235 m 9 X s 914 1235 m 9 X s 923 1235 m 8 X s 931 1235 m 3 X -1 Y 6 X s 940 1234 m 9 X s 949 1234 m 9 X s 958 1234 m 9 X s
 967 1234 m 8 X s 975 1234 m 9 X s 984 1234 m 9 X s 993 1234 m 9 X s 1002 1234 m 9 X s 1011 1234 m 8 X s 1019 1234 m 9 X -1 Y s 1028 1233 m 9 X s 1037 1233 m 9 X s 1046 1233 m 8 X -1 Y 1 X s 1055 1232 m 8 X s 1063 1232 m 9 X s 1072 1232 m 6 X 1 -1 d
 2 X s 1081 1231 m 9 X s 1090 1231 m 9 X s 1099 1231 m 8 X s 1107 1231 m 1 -1 d 8 X s 1116 1230 m 9 X s 1125 1230 m 9 X s 1134 1230 m 2 X -1 Y 7 X s 1143 1229 m 8 X s 1151 1229 m 9 X s 1160 1229 m 9 X s 1169 1229 m 8 X -1 Y 1 X s 1178 1228 m 9 X s
 1187 1228 m 8 X s 1195 1228 m 9 X -1 Y s 1204 1227 m 9 X -1 Y s 1213 1226 m 9 X s 1222 1226 m -1 Y 5 X 1 -1 d 2 X -1 Y 1 X s 1231 1223 m 3 X -1 Y 5 X -1 Y s 1239 1221 m 2 X -1 Y 2 X 1 -1 d 2 X -1 Y 1 X -1 Y 1 X s 1248 1217 m 1 -1 d 1 X -1 Y 2 X -1 Y
 1 X -1 Y 2 X -1 Y 1 X -1 Y 1 X s 1257 1211 m 2 X 1 -1 d -1 Y 1 -1 d -1 Y 1 X -2 Y 1 X -1 Y 2 X -1 Y 1 X s 1266 1203 m -1 Y 2 X -1 Y 1 X -1 Y 1 X -2 Y 1 X 1 -1 d 1 X -2 Y 1 -1 d -1 Y 1 X s 1275 1193 m 1 X -1 Y 1 -1 d -1 Y 1 -1 d -1 Y 1 X -1 Y 1 -1 d
 1 X -2 Y 1 X -1 Y 1 -1 d -1 Y s 1283 1181 m 1 -1 d -1 Y 1 -1 d -2 Y 2 X -2 Y 1 -1 d -1 Y 1 X -1 Y 1 X -2 Y 1 X 1 -1 d -1 Y s 1292 1167 m 1 X -3 Y 1 X -2 Y 1 X -2 Y 1 X -1 Y 1 -1 d 1 X -2 Y 1 -1 d -2 Y 1 X -2 Y 1 -1 d -1 Y s 1301 1149 m -1 Y 1 -1 d
 -1 Y 1 -1 d -2 Y 1 X -3 Y 1 -1 d -1 Y 1 -1 d -2 Y 1 -1 d -2 Y 1 X -2 Y 1 -1 d -2 Y 1 X -2 Y s 1310 1125 m 1 -1 d -1 Y 1 -1 d -2 Y 1 X -2 Y 1 -1 d -1 Y 1 -1 d -2 Y 1 X -3 Y 1 -1 d -3 Y 1 X -4 Y 1 -1 d s 1319 1101 m -2 Y 1 X -2 Y 1 X -4 Y 1 -1 d -2 Y
 1 -1 d -2 Y 1 -1 d -2 Y 1 -1 d -3 Y 1 X -2 Y 1 X -4 Y s 1327 1074 m 1 -1 d -3 Y 1 -1 d -4 Y 1 -1 d -3 Y 1 -1 d -6 Y 1 X -3 Y 1 -1 d -3 Y 1 -1 d -3 Y 1 -1 d -4 Y 1 -1 d -3 Y s 1336 1034 m -1 Y 1 -1 d -2 Y 1 X -5 Y 1 X -4 Y 1 -1 d -4 Y 1 X -4 Y 1 X -4
 Y 1 -1 d -3 Y 1 -1 d -4 Y 1 -1 d -3 Y s 1345 995 m -2 Y 1 -1 d -3 Y 1 -1 d -4 Y 1 X -6 Y 1 X -6 Y 1 -1 d -4 Y 1 X -4 Y 1 -3 d -3 Y 1 X -5 Y 1 -1 d -2 Y s 1354 949 m -3 Y 1 X -6 Y 1 X -3 Y 1 X -6 Y 1 -2 d -3 Y 1 -2 d -4 Y 1 -1 d -4 Y 1 -2 d -5 Y 1 -1
 d -7 Y 1 X s 1363 900 m -5 Y 1 -1 d -6 Y 1 -2 d -5 Y 1 -1 d -11 Y 1 -2 d -5 Y 1 -2 d -9 Y 1 X -3 Y 1 -2 d -3 Y 1 -1 d -6 Y s 1371 836 m 1 -1 d -4 Y 1 -1 d -4 Y 1 -1 d -4 Y 1 -1 d -4 Y 1 -1 d -2 Y 1 -1 d -5 Y 1 -1 d -4 Y 1 -1 d -3 Y 1 -1 d -3 Y s
 1380 794 m 1 -1 d -5 Y 1 X -5 Y 1 -1 d -3 Y 1 -1 d -4 Y 1 X -4 Y 1 X -4 Y 1 X -4 Y 1 -1 d -2 Y 1 -2 d -2 Y s 1389 755 m -2 Y 1 X -2 Y 1 -1 d -4 Y 1 X -3 Y 1 X -3 Y 1 X -3 Y 1 -1 d -1 Y 1 -1 d -3 Y 1 -1 d -1 Y 1 -1 d -1 Y s 1398 727 m -2 Y 1 X -2 Y 1
 -1 d -4 Y 1 X -3 Y 1 X -3 Y 1 -1 d -2 Y 1 -1 d -1 Y 1 -1 d -1 Y 1 X -3 Y 1 X s 1407 702 m -3 Y 1 X -3 Y 1 X -1 Y 1 -1 d -3 Y 1 X -2 Y 1 -1 d -2 Y 1 -1 d -2 Y 1 -1 d -2 Y 1 -1 d -1 Y s 1415 678 m 1 X -2 Y 1 -1 d -1 Y 1 X -3 Y 1 X -3 Y 1 X -2 Y 1 -1 d
 -1 Y 1 -1 d -2 Y 1 -1 d -1 Y 1 X -2 Y s 1424 657 m 1 -1 d 1 -1 d -2 Y 1 -1 d -2 Y 1 X -1 Y 1 X -4 Y 1 X -2 Y 1 X -1 Y 1 -1 d -1 Y 1 -1 d -1 Y s 1433 638 m 1 X -1 Y 1 -1 d -1 Y 1 X -1 Y 1 -1 d -1 Y 1 -1 d -2 Y 1 X -1 Y 1 -1 d -1 Y 1 -1 d -1 Y 1 X -1
 Y s 1442 623 m -1 Y 1 -1 d -2 Y 1 X -2 Y 1 X -1 Y 1 -1 d 1 X -1 Y 1 -1 d -1 Y 1 X -2 Y 1 -1 d -1 Y 1 -1 d s 1451 607 m -1 Y 1 -1 d -1 Y 1 X -2 Y 1 X -2 Y 1 -1 d 1 -1 d -1 Y 1 -1 d -2 Y 1 X -1 Y 1 X -2 Y s 1459 591 m 1 -1 d -2 Y 1 X -3 Y 1 X 1 -1 d
 -3 Y 1 X -1 Y 1 X -2 Y 1 X -2 Y 1 X -1 Y 1 X -1 Y s 1468 574 m 1 X -1 Y 1 X -1 Y 1 X -2 Y 1 X -1 Y 1 -1 d -2 Y 1 X -1 Y 1 -1 d -1 Y 1 -1 d 1 -1 d s 1477 561 m -1 Y 1 X -2 Y 1 X -2 Y 1 X -1 Y 1 X -1 Y 1 X -2 Y 1 X -2 Y 1 -1 d -1 Y 1 X -1 Y 1 X s 1486
 547 m -1 Y 1 X -4 Y 1 X -1 Y 1 X -1 Y 1 X -1 Y 1 X -2 Y 1 X -1 Y 1 X -2 Y 1 X -1 Y 1 X -1 Y s 1495 532 m 1 X -1 Y 1 X -1 Y 1 -1 d -1 Y 2 X -2 Y 1 -1 d 1 X -2 Y 1 X -1 Y s 1503 522 m 1 X -1 Y 1 X -2 Y 1 X 1 -1 d 1 X -1 Y 1 -1 d -1 Y 1 X -2 Y 1 X -1 Y
 1 X -1 Y s 1512 511 m 1 X -1 Y 1 X -1 Y 1 -1 d -1 Y 1 -1 d -2 Y 1 X -1 Y 1 X -1 Y 1 X -1 Y 1 X -1 Y 1 X s 1521 500 m 1 X -1 Y 1 X -1 Y 1 X -1 Y 1 X -1 Y 1 X -1 Y 1 X -2 Y 1 X -1 Y 1 -1 d 1 X -1 Y s 1530 490 m 1 X -1 Y 1 X 1 -1 d 1 X -1 Y 1 X -2 Y 2
 X -1 Y 2 X -1 Y s 1539 483 m 1 X -2 Y 1 X 1 -1 d 1 X -1 Y 2 X -1 Y 1 X -2 Y 1 X -1 Y s 1547 475 m 1 -1 d -1 Y 3 X -1 Y 1 -1 d 1 X -2 Y 1 X -2 Y 1 X -1 Y 1 X -1 Y s 1556 465 m 1 -1 d 1 -1 d 1 X -1 Y 1 -1 d -1 Y 1 X -1 Y 1 X -2 Y 1 X -1 Y 1 X -1 Y 1 X
 s 1565 455 m 1 X -2 Y 1 X 1 -1 d -1 Y 1 X -1 Y 1 -1 d -1 Y 1 X -1 Y 1 -1 d 2 X -1 Y s 1574 445 m 2 X 1 -1 d 1 -1 d 1 X -1 Y 2 X -2 Y 2 X s 1583 440 m -1 Y 3 X 1 -1 d 1 X -1 Y 1 X -1 Y 2 X s 1591 436 m 1 X -1 Y 1 X -1 Y 1 X -1 Y 1 X -1 Y 1 X -1 Y 1 X
 -1 Y 1 X -1 Y 1 X -1 Y 1 X s 1600 428 m 1 X -1 Y 2 X -1 Y 1 X -1 Y 2 X -1 Y 1 -1 d 2 X -1 Y s 1609 422 m 1 X -1 Y 1 X -1 Y 1 X 1 -1 d 1 X -1 Y 1 -1 d 1 X -1 Y 1 X -1 Y 1 X s 1618 415 m -1 Y 2 X -1 Y 1 X 1 -1 d 1 X -1 Y 1 X -1 Y 1 X -1 Y 2 X s 1627
 409 m -2 Y 1 X -1 Y 1 X 1 -1 d -1 Y 1 X -1 Y 2 X -1 Y 1 X -1 Y 1 X s 1635 401 m 1 -1 d 1 X -1 Y 1 -1 d -1 Y 2 X -1 Y 1 X -1 Y 2 X -1 Y 1 X -1 Y s 1644 393 m 1 X -1 Y 2 X -1 Y 1 X -1 Y 1 -1 d -1 Y 1 X -1 Y 2 X -1 Y 1 X s 1653 386 m 1 X 1 -1 d -1 Y 3
 X -2 Y 2 X -1 Y 2 X s 1662 381 m 1 -1 d 1 -1 d 1 X -1 Y 1 X -1 Y 1 X 1 -1 d 2 X -1 Y 1 X s 1671 375 m 1 X -1 Y 2 X 1 -1 d 3 X -1 Y 1 X s 1679 372 m 1 X -1 Y 2 X -1 Y 1 X -1 Y 2 X -1 Y 3 X s 1688 368 m -1 Y 2 X 1 -1 d 3 X -1 Y 2 X -1 Y 1 X -1 Y s
 1697 363 m 1 X -1 Y 2 X -1 Y 2 X -1 Y 1 X -1 Y 1 X 1 -1 d 1 X s 1706 358 m 1 -1 d 2 X -1 Y 3 X -1 Y 2 X 1 -1 d s 1715 354 m -1 Y 2 X 1 -1 d 2 X -1 Y 2 X -1 Y 1 X -1 Y s 1723 349 m 2 X -1 Y 2 X -1 Y 2 X 1 -1 d 1 X -1 Y 1 X -1 Y s 1732 344 m 1 X -1 Y
 1 X -1 Y 2 X -1 Y 1 X 1 -1 d 1 X -1 Y 2 X s 1741 339 m 1 X -1 Y 1 X -1 Y 1 X -1 Y 1 X -1 Y 1 X -1 Y 3 X -1 Y 1 X s 1750 333 m 1 X -1 Y 1 X -1 Y 4 X -1 Y 2 X -1 Y 1 X s 1759 329 m -1 Y 5 X -1 Y 3 X -1 Y s 1767 326 m 2 X -1 Y 3 X -1 Y 3 X -1 Y 1 X s
 1776 323 m 2 X -1 Y 2 X -1 Y 1 X -1 Y 1 X -1 Y 3 X s 1785 319 m -1 Y 2 X 1 -1 d 1 X -1 Y 3 X 1 -1 d 1 X -1 Y s 1794 314 m 1 -1 d 3 X 1 -1 d 2 X -1 Y 2 X s 1803 311 m 1 -1 d 3 X -1 Y 2 X 1 -1 d 2 X s 1812 308 m 1 X -1 Y 4 X -1 Y 3 X -1 Y s 1820 305 m
 1 X -1 Y 4 X 1 -1 d 2 X -1 Y 1 X s 1829 302 m 3 X -1 Y 2 X -1 Y 2 X -1 Y 2 X s 1838 299 m 1 X -1 Y 2 X -1 Y 2 X -1 Y 3 X -1 Y 1 X s 1847 295 m 1 X 1 -1 d -1 Y 1 X -1 Y 1 X -1 Y 2 X -1 Y 1 X -1 Y 2 X s 1856 289 m 2 X -1 Y 5 X -1 Y 1 X s 1864 287 m 3
 X -1 Y 2 X -1 Y 1 X -1 Y 2 X 1 -1 d s 1873 283 m -1 Y 4 X -1 Y 3 X -1 Y 2 X s 1882 280 m 1 X 1 -1 d 2 X -1 Y 4 X 1 -1 d s 1891 277 m 1 X -1 Y 4 X 1 -1 d 1 X 1 -1 d 1 X s 1900 274 m -1 Y 6 X -1 Y 2 X -1 Y s 1908 271 m 2 X 1 -1 d 6 X s 1917 270 m 1 X
 -1 Y 1 X -1 Y 2 X 1 -1 d 2 X -1 Y 2 X s 1926 266 m -1 Y 2 X 1 -1 d 1 X -1 Y 3 X -1 Y 2 X s 1935 262 m -1 Y 2 X -1 Y 1 X -1 Y 3 X -1 Y 2 X -1 Y 1 X s 1944 257 m 1 X -1 Y 5 X -1 Y 2 X -1 Y s 1952 254 m 1 X -1 Y 2 X -1 Y 1 -1 d 2 X -1 Y 1 X 1 -1 d 1 X
 -1 Y s 1961 248 m 3 X -1 Y 2 X -1 Y 2 X -1 Y 2 X s 1970 245 m 1 X -1 Y 1 X -1 Y 2 X -1 Y 2 X -1 Y 3 X s 1979 241 m -1 Y 1 X -1 Y 1 X -1 Y 1 X 1 -1 d 3 X 1 -1 d 1 X s 1988 236 m -1 Y 2 X -1 Y 2 X -1 Y 3 X -1 Y 1 X s 1996 232 m 1 X -1 Y 3 X -1 Y 1 X
 -1 Y 4 X s 2005 229 m 1 X -1 Y 3 X -1 Y 1 X -1 Y 2 X -1 Y 1 X -1 Y 1 X -1 Y s 2014 223 m -1 Y 2 X -1 Y 2 X -2 Y 2 X -1 Y 3 X s 2023 218 m -1 Y 2 X -1 Y 1 X -1 Y 1 X -1 Y 1 X -1 Y 2 X -1 Y 2 X s 2032 212 m -1 Y 1 X -1 Y 1 -1 d 1 X -1 Y 1 -1 d -1 Y 1
 X -1 Y 1 X 1 -1 d 1 -1 d -1 Y s 2040 202 m 1 X -1 Y s 1 0 0 c black 1 0 0 c 245 1237 m -331 Y 1 -35 d -83 Y 1 -9 d -22 Y 1 -4 d -15 Y 1 -2 d -5 Y 1 -1 d 1 -1 d 1 X -1 Y 2 X s 254 728 m 1 -1 d 1 X 1 -1 d 3 X -1 Y 2 X -1 Y 1 X s 263 724 m 3 X 1 -1 d 4
 X -1 Y s 271 722 m 5 X 1 -1 d 3 X s 280 721 m 1 X -1 Y 8 X s 289 720 m 7 X -1 Y 2 X s 298 719 m 9 X s 307 719 m 1 X -1 Y 7 X s 315 718 m 9 X s 324 718 m 1 X -1 Y 8 X s 333 717 m 9 X s 342 717 m 9 X s 351 717 m 1 X -1 Y 7 X s 359 716 m 4 X 1 -1 d 4 X
 s 368 715 m 8 X -1 Y 1 X s 377 714 m 9 X s 386 714 m 9 X s 395 714 m -1 Y 8 X s 403 713 m 8 X -1 Y 1 X s 412 712 m 9 X s 421 712 m 9 X s 430 712 m 9 X s 439 712 m 1 X 1 -1 d 6 X s 447 711 m 9 X s 456 711 m 9 X s 465 711 m 9 X s 474 711 m 6 X -1 Y 3
 X s 483 710 m 8 X s 491 710 m 9 X s 500 710 m 9 X s 509 710 m 8 X -1 Y 1 X s 518 709 m 9 X s 527 709 m 6 X -1 Y 2 X s 535 708 m 9 X s 544 708 m 5 X 1 -1 d 3 X s 553 707 m 9 X s 562 707 m 9 X s 571 707 m 7 X -1 Y 1 X s 579 706 m 9 X s 588 706 m 9 X s
 597 706 m 9 X s 606 706 m 9 X s 615 706 m 8 X s 623 706 m 3 X -1 Y 6 X s 632 705 m 9 X s 641 705 m 9 X s 650 705 m 9 X s 659 705 m 8 X s 667 705 m 9 X s 676 705 m 1 X -1 Y 8 X s 685 704 m 9 X s 694 704 m 9 X s 703 704 m 8 X s 711 704 m 9 X s 720 704
 m 9 X s 729 704 m 9 X s 738 704 m 3 X -1 Y 6 X s 747 703 m 8 X s 755 703 m 9 X s 764 703 m 9 X s 773 703 m 9 X s 782 703 m 1 X -1 Y 8 X s 791 702 m 8 X s 799 702 m 9 X s 808 702 m 9 X s 817 702 m 9 X s 826 702 m 9 X s 835 702 m 1 -1 d 7 X s 843 701
 m 9 X s 852 701 m 9 X s 861 701 m 4 X -1 Y 5 X s 870 700 m 9 X s 879 700 m 8 X s 887 700 m 9 X s 896 700 m 9 X s 905 700 m 1 -1 d 8 X s 914 699 m 9 X s 923 699 m 8 X -1 Y s 931 698 m 9 X s 940 698 m 9 X s 949 698 m 9 X s 958 698 m 9 X s 967 698 m 8
 X s 975 698 m 9 X s 984 698 m 9 X s 993 698 m 6 X -1 Y 3 X s 1002 697 m 9 X s 1011 697 m 8 X s 1019 697 m 9 X s 1028 697 m 2 X -1 Y 7 X s 1037 696 m 9 X s 1046 696 m 9 X s 1055 696 m -1 Y 8 X s 1063 695 m 9 X s 1072 695 m 7 X -1 Y 2 X s 1081 694 m 9
 X s 1090 694 m 5 X -1 Y 4 X s 1099 693 m 7 X -1 Y 1 X s 1107 692 m 9 X s 1116 692 m 9 X s 1125 692 m 9 X s 1134 692 m 3 X 1 -1 d 5 X s 1143 691 m 8 X s 1151 691 m 2 X -1 Y 7 X s 1160 690 m -1 Y 9 X -1 Y s 1169 688 m 4 X -1 Y 5 X s 1178 687 m 9 X s
 1187 687 m 7 X -1 Y 1 X s 1195 686 m 8 X 1 -1 d s 1204 685 m 3 X 1 -1 d 5 X -1 Y s 1213 683 m 5 X -1 Y 3 X -1 Y 1 X s 1222 681 m 4 X -1 Y 5 X s 1231 680 m 1 -1 d 5 X -1 Y 2 X s 1239 678 m 7 X 1 -1 d 1 X s 1248 677 m 2 X -1 Y 7 X s 1257 676 m 1 X 1
 -1 d 2 X -1 Y 5 X s 1266 674 m 1 X -1 Y 3 X -1 Y 3 X -1 Y 2 X s 1275 671 m -1 Y 2 X -1 Y 2 X -1 Y 3 X 1 -1 d s 1283 667 m 3 X 1 -1 d 1 X -1 Y 3 X -1 Y 1 X s 1292 664 m 1 X -1 Y 1 X -2 Y 2 X -1 Y 2 X -1 Y 1 X -2 Y 1 X -1 Y 1 X s 1301 656 m 1 X -1 Y 1
 X -1 Y 1 X -1 Y 1 X -1 Y 1 X -1 Y 1 X -1 Y 1 X -1 Y 1 X -1 Y 1 X s 1310 648 m -1 Y 1 X -2 Y 1 -1 d 1 X -1 Y 1 X -1 Y 1 X -2 Y 1 X -2 Y 1 X -2 Y 1 -1 d -2 Y 1 X s 1319 633 m -3 Y 1 X -2 Y 1 X -2 Y 1 X -1 Y 1 X -2 Y 1 -1 d -3 Y 1 X -1 Y 1 -1 d -2 Y 1
 -1 d -3 Y s 1327 611 m 1 X -1 Y 1 -1 d -2 Y 1 -1 d -2 Y 1 -1 d -3 Y 1 -1 d -2 Y 1 -1 d -3 Y 1 X -3 Y 1 X -2 Y 1 -1 d -2 Y s 1336 585 m -1 Y 1 -1 d -2 Y 1 X -2 Y 1 X -4 Y 1 -1 d -3 Y 1 -2 d -2 Y 1 -1 d -2 Y 1 -1 d -3 Y 1 -2 d -2 Y 1 -1 d -2 Y s 1345
 553 m -1 Y 1 -1 d -2 Y 1 X -3 Y 1 -1 d -4 Y 1 X -3 Y 1 -1 d -4 Y 1 -1 d -3 Y 1 X -4 Y 1 -1 d -2 Y 1 -1 d -1 Y s 1354 520 m -3 Y 1 X -3 Y 1 -2 d -1 Y 1 -1 d -4 Y 1 -1 d -2 Y 1 X -3 Y 1 X -3 Y 1 -1 d -2 Y 1 -1 d -4 Y 1 -1 d s 1363 488 m -4 Y 1 -1 d -3
 Y 1 X -3 Y 1 -1 d -4 Y 1 X -2 Y 1 -1 d -2 Y 1 -1 d -4 Y 1 -1 d -3 Y 1 X -3 Y s 1371 455 m 1 -1 d -1 Y 1 -1 d -1 Y 1 -1 d -3 Y 1 X -3 Y 1 X -1 Y 1 -1 d -1 Y 1 -1 d -2 Y 1 -1 d -1 Y 1 X -2 Y s 1380 434 m 1 X -2 Y 1 X -2 Y 1 -1 d -1 Y 1 -1 d -2 Y 1 -1
 d -2 Y 1 -1 d -2 Y 1 X -2 Y 1 -1 d -1 Y 1 X -2 Y s 1389 413 m -1 Y 1 X -2 Y 1 X -3 Y 1 -1 d -3 Y 1 X -1 Y 1 X -2 Y 1 -1 d -2 Y 1 -1 d -2 Y 1 X -2 Y 1 X -1 Y s 1398 391 m -1 Y 1 X -2 Y 1 X -2 Y 1 X -1 Y 1 X -2 Y 1 X -2 Y 1 X -1 Y 1 X -2 Y 1 X -2 Y 1
 -1 d s 1407 375 m -1 Y 1 -1 d -1 Y 1 -1 d -2 Y 1 X -1 Y 1 X -1 Y 1 X -1 Y 1 X 1 -1 d 1 -1 d -1 Y s 1415 363 m 1 X -1 Y 1 X -2 Y 1 X -1 Y 1 X -3 Y 1 X -1 Y 2 X -2 Y 1 X -1 Y 1 X -1 Y s 1424 351 m 1 X -1 Y 1 X -2 Y 1 X -1 Y 1 X -2 Y 1 X -1 Y 1 X -1 Y
 1 X -1 Y 1 X -1 Y 1 X -1 Y s 1433 340 m -1 Y 1 X -1 Y 1 X -1 Y 1 -1 d 1 -1 d 1 X -1 Y 1 -1 d -1 Y 1 X -1 Y 1 X -1 Y 1 X -1 Y s 1442 329 m 1 X -1 Y 2 X -1 Y 1 X -1 Y 1 X -1 Y 1 -1 d 1 -1 d -1 Y 1 X -1 Y 1 -1 d s 1451 320 m 1 -1 d 1 -1 d 1 X -1 Y 1 X
 -1 Y 1 X -1 Y 1 X -1 Y 1 -1 d -1 Y 1 X -1 Y s 1459 311 m 1 -1 d -2 Y 1 X -2 Y 1 X 1 -1 d 1 X -1 Y 1 X -2 Y 1 X -1 Y 1 X -1 Y 1 X s 1468 300 m 1 -1 d -1 Y 1 X -1 Y 1 X -1 Y 1 X -1 Y 1 X -2 Y 1 X -1 Y 1 X -1 Y 1 X -1 Y 1 X s 1477 290 m 1 X -1 Y 1 X -1
 Y 2 X 1 -1 d 1 X -1 Y 2 X -1 Y 1 X s 1486 285 m -1 Y 1 X 1 -1 d 1 X -1 Y 1 X 1 -1 d 1 X -1 Y 3 X -1 Y s 1495 279 m 1 X -1 Y 2 X -1 Y 2 X -1 Y 2 X -1 Y 1 X -1 Y s 1503 274 m 4 X -1 Y 1 X -1 Y 2 X -1 Y 1 X 1 -1 d s 1512 270 m 2 X -1 Y 3 X -1 Y 1 -1 d
 2 X -1 Y 1 X s 1521 266 m -1 Y 1 X -1 Y 3 X -1 Y 1 X -1 Y 2 X -1 Y 1 X -1 Y 1 X s 1530 260 m -1 Y 4 X 1 -1 d 1 X 1 -1 d 2 X -1 Y s 1539 256 m 1 X -1 Y 3 X -1 Y 2 X -1 Y 2 X s 1547 253 m 2 X -1 Y 2 X -1 Y 2 X -1 Y 3 X -1 Y s 1556 249 m 1 X -1 Y 3 X
 -1 Y 2 X -1 Y 2 X 1 -1 d s 1565 245 m 2 X 1 -1 d 3 X -1 Y 2 X -1 Y 1 X s 1574 242 m 2 X -1 Y 2 X -1 Y 3 X 1 -1 d 1 X s 1583 239 m 2 X -1 Y 3 X -1 Y 3 X -1 Y s 1591 236 m 4 X -1 Y 3 X -1 Y 2 X -1 Y s 1600 233 m 4 X -1 Y 3 X -1 Y 2 X s 1609 231 m 1 -1
 d 1 X -1 Y 3 X 1 -1 d 2 X -1 Y 1 X s 1618 227 m 3 X -1 Y 3 X -1 Y 3 X s 1627 225 m 3 X -1 Y 2 X -1 Y 3 X s 1635 223 m 2 X -1 Y 1 X -1 Y 4 X -1 Y 2 X s 1644 220 m 6 X -1 Y 3 X s 1653 219 m 1 X -1 Y 5 X -1 Y 3 X s 1662 217 m -1 Y 8 X -1 Y 1 X s 1671
 215 m 8 X s 1679 215 m 1 X -1 Y 8 X s 1688 214 m -1 Y 7 X -1 Y 2 X s 1697 212 m 1 X -1 Y 8 X s 1706 211 m 1 -1 d 8 X s 1715 210 m 3 X 1 -1 d 4 X s 1723 209 m 5 X -1 Y 4 X s 1732 208 m 5 X -1 Y 4 X s 1741 207 m 9 X s 1750 207 m -1 Y 9 X s 1759 206 m
 2 X -1 Y 6 X s 1767 205 m 9 X s 1776 205 m 9 X s 1785 205 m 1 X -1 Y 8 X s 1794 204 m 9 X s 1803 204 m 4 X -1 Y 5 X s 1812 203 m 8 X s 1820 203 m 9 X s 1829 203 m 9 X s 1838 203 m 9 X s 1847 203 m 5 X -1 Y 4 X s 1856 202 m 8 X s 1864 202 m 9 X s
 1873 202 m 9 X s 1882 202 m 4 X -1 Y 5 X s 1891 201 m 9 X s 1900 201 m 8 X s 1908 201 m 9 X s 1917 201 m 9 X s 1926 201 m 9 X s 1935 201 m 9 X s 1944 201 m 8 X s 1952 201 m 9 X s 1961 201 m 9 X s 1970 201 m 9 X s 1979 201 m 9 X s 1988 201 m 8 X s
 1996 201 m 9 X s 2005 201 m 9 X s 2014 201 m 9 X s 2023 201 m 9 X s 2032 201 m 8 X s 2040 201 m 1 X s 0 0.666667 0 c 1 1 1 c black 0 0.666667 0 c 245 1094 m 81 Y 1 10 d 25 Y 1 3 d 7 Y 1 1 d 5 Y 1 X 2 Y 1 X 1 1 d 3 X s 254 1229 m 2 X 1 1 d 6 X s 263
 1230 m 3 X 1 1 d 4 X s 271 1231 m 9 X s 280 1231 m 1 X 1 Y 8 X s 289 1232 m 9 X s 298 1232 m 9 X s 307 1232 m 8 X s 315 1232 m 9 X s 324 1232 m 1 X 1 Y 8 X s 333 1233 m 9 X s 342 1233 m 9 X s 351 1233 m 8 X s 359 1233 m 9 X s 368 1233 m 8 X 1 Y 1 X
 s 377 1234 m 9 X s 386 1234 m 9 X s 395 1234 m 8 X s 403 1234 m 9 X s 412 1234 m 9 X s 421 1234 m 9 X s 430 1234 m 9 X s 439 1234 m 8 X s 447 1234 m 9 X s 456 1234 m 1 1 d 8 X s 465 1235 m 9 X s 474 1235 m 9 X s 483 1235 m 8 X s 491 1235 m 9 X s 500
 1235 m 9 X s 509 1235 m 9 X s 518 1235 m 9 X s 527 1235 m 8 X s 535 1235 m 5 X 1 Y 4 X s 544 1236 m 9 X s 553 1236 m 9 X s 562 1236 m 9 X s 571 1236 m 8 X s 579 1236 m 9 X s 588 1236 m 9 X s 597 1236 m 9 X s 606 1236 m 9 X s 615 1236 m 8 X s 623
 1236 m 9 X s 632 1236 m 9 X s 641 1236 m 9 X s 650 1236 m 9 X s 659 1236 m 8 X s 667 1236 m 9 X s 676 1236 m 9 X s 685 1236 m 9 X s 694 1236 m 9 X s 703 1236 m 8 X s 711 1236 m 6 X 1 1 d 2 X s 720 1237 m 4 X -1 Y 5 X s 729 1236 m 7 X 1 Y 1 X -1 Y 1
 X s 738 1236 m 5 X 1 Y 4 X s 747 1237 m 8 X s 755 1237 m 9 X s 764 1237 m 9 X s 773 1237 m 9 X s 782 1237 m 9 X s 791 1237 m 8 X s 799 1237 m 9 X s 808 1237 m 9 X s 817 1237 m 9 X s 826 1237 m 9 X s 835 1237 m 8 X s 843 1237 m 9 X s 852 1237 m 9 X s
 861 1237 m 9 X s 870 1237 m 9 X s 879 1237 m 8 X s 887 1237 m 9 X s 896 1237 m 9 X s 905 1237 m 9 X s 914 1237 m 9 X s 923 1237 m 8 X s 931 1237 m 9 X s 940 1237 m 9 X s 949 1237 m 9 X s 958 1237 m 9 X s 967 1237 m 8 X s 975 1237 m 9 X s 984 1237 m
 9 X s 993 1237 m 9 X s 1002 1237 m 9 X s 1011 1237 m 8 X s 1019 1237 m 9 X s 1028 1237 m 9 X s 1037 1237 m 9 X s 1046 1237 m 8 X -1 Y 1 X s 1055 1236 m 1 Y 4 X -1 Y 4 X s 1063 1236 m 9 X s 1072 1236 m 9 X s 1081 1236 m 9 X s 1090 1236 m 9 X s 1099
 1236 m 5 X 1 Y 3 X s 1107 1237 m 1 -1 d 8 X s 1116 1236 m 9 X s 1125 1236 m 9 X s 1134 1236 m 9 X s 1143 1236 m 8 X s 1151 1236 m 9 X 1 Y s 1160 1237 m -1 Y 2 X 1 Y -1 Y 7 X 1 Y s 1169 1237 m 9 X s 1178 1237 m 9 X s 1187 1237 m 1 X -1 Y 6 X 1 Y 1 X
 s 1195 1237 m 9 X s 1204 1237 m 9 X s 1213 1237 m 9 X s 1222 1237 m 3 X -1 Y 1 X 1 Y 2 X -1 Y 3 X s 1231 1236 m 3 X -1 Y 2 X 1 Y 1 X 1 -1 d 1 X s 1239 1235 m 2 X -1 Y 5 X -1 Y 1 Y -1 Y 1 X 1 -1 d 1 Y s 1248 1233 m -1 Y 4 X -1 Y 1 X -1 Y 3 X -1 Y 1 X
 s 1257 1229 m 3 X -1 Y 1 X -1 Y 1 X -1 Y 1 X -1 Y 2 X -1 Y 1 X s 1266 1224 m 2 X -1 Y 2 X -1 Y 1 X 1 -1 d 1 X -1 Y 1 -1 d 1 Y -1 Y 1 X s 1275 1219 m 1 X -1 Y 1 X -1 Y 1 X -1 Y 1 X -1 Y 2 X -1 Y 1 X -1 Y 1 X -1 Y s 1283 1212 m 1 -1 d -1 Y 1 X -1 Y 1
 -1 d 1 Y 1 -1 d -1 Y 1 X -1 Y 1 X 1 -1 d 1 Y -1 Y 1 X 1 -1 d -1 Y s 1292 1203 m 1 X -1 Y 1 X -1 Y 1 X -1 Y 1 -1 d 1 X -1 Y 1 Y -1 Y 1 X -1 Y 1 X -1 Y 1 X -1 Y 1 -1 d s 1301 1194 m -1 Y 1 X -1 Y 1 X -2 Y 1 X -2 Y 1 X -1 Y 1 X -1 Y 1 -1 d -1 Y 1 X -2
 Y 1 X -1 Y 1 X -1 Y s 1310 1180 m 1 X -1 Y 1 Y -1 Y 1 X -1 Y 1 X -2 Y 1 X -1 Y 1 X -1 Y 1 X -1 Y 1 X -2 Y 1 X -2 Y 1 -1 d s 1319 1168 m 1 X -1 Y 1 X -2 Y 1 -1 d -1 Y 1 X -1 Y 1 X -1 Y 1 Y -1 Y 1 X -2 Y 1 X -1 Y 1 Y -1 Y 1 X -1 Y s 1327 1157 m 1 -1 d
 -2 Y 1 X -2 Y 1 X -2 Y 1 X -3 Y 1 X -1 Y 1 -1 d -1 Y 1 X -2 Y 1 X -3 Y 1 X -1 Y s 1336 1138 m 1 -1 d -1 Y 1 X -2 Y 1 -1 d -2 Y 1 X -1 Y 1 Y -1 Y 1 X -2 Y 1 1 d -3 Y 1 X -1 Y 1 X -2 Y 1 X -2 Y s 1345 1121 m -1 Y 1 -1 d -1 Y 1 -1 d -1 Y 1 X -3 Y 1 X
 -4 Y 1 X -1 Y 1 X -2 Y 1 -2 d -1 Y 1 X -2 Y 1 -1 d -1 Y s 1354 1099 m -1 Y 1 X -3 Y 1 X -1 Y 1 X -3 Y 1 -1 d -2 Y 1 -1 d -2 Y 1 -1 d -2 Y 1 -1 d -3 Y 1 -1 d -3 Y 1 X s 1363 1074 m -2 Y 1 -1 d -3 Y 1 -2 d -2 Y 1 -1 d -7 Y 1 -1 d -4 Y 1 -1 d -6 Y 1 X
 -1 Y 1 -1 d -1 Y 1 -1 d -4 Y s 1371 1036 m 1 X -3 Y 1 X -3 Y 1 X -3 Y 1 X -2 Y 1 Y -1 Y 1 -1 d -2 Y 1 X -3 Y 1 -1 d -3 Y 1 X -3 Y 1 -1 d -1 Y s 1380 1010 m 1 -1 d -2 Y 1 -1 d -4 Y 1 X -2 Y 1 X -3 Y 1 X -2 Y 1 X -2 Y 1 X -2 Y 1 -1 d -2 Y 1 -1 d -1 Y
 1 Y -1 Y s 1389 986 m -2 Y 1 1 d -2 Y 1 X -1 Y 1 Y -2 Y 1 X 1 -1 d -2 Y 1 X -1 Y 1 -1 d 1 Y -1 Y 1 -1 d -1 Y 1 X -1 Y 1 -1 d s 1398 972 m -1 Y 1 X -2 Y 1 Y 1 -1 d -2 Y 1 -1 d -2 Y 1 X -2 Y 1 -1 d 1 -1 d -1 Y 1 X -1 Y 1 X -1 Y 1 X s 1407 957 m -1 Y 1
 X -2 Y 1 -1 d 1 Y -1 Y 1 X -2 Y 1 X -2 Y 1 X -2 Y 1 X -2 Y 1 -1 d -2 Y 1 X -1 Y s 1415 941 m 1 X -1 Y 1 X -1 Y 1 X -2 Y 1 X -2 Y 1 1 d -2 Y 1 -1 d -1 Y 1 X -2 Y 1 X -1 Y 1 X -1 Y s 1424 928 m 1 -1 d 1 X -2 Y 1 X -2 Y 1 Y 1 -1 d 1 Y -1 Y 1 X -3 Y 1 X
 -1 Y 1 X -2 Y 1 X -1 Y 1 X -1 Y 1 Y s 1433 916 m 1 X -1 Y 1 X -1 Y 1 Y -1 Y 1 X 1 -1 d -1 Y 1 -1 d -1 Y 1 1 d -1 Y 1 -1 d -1 Y 1 X -1 Y 1 Y 1 -1 d s 1442 907 m -2 Y 1 X -2 Y 1 X -2 Y 1 X -1 Y 2 X 1 Y -1 Y 1 -1 d 1 Y -1 Y 1 X -1 Y 1 -1 d -1 Y 1 X s
 1451 896 m -1 Y 1 X -1 Y 1 -1 d -1 Y 1 X -2 Y 2 X -1 Y 1 -1 d -1 Y 1 X 1 -1 d -1 Y s 1459 885 m 1 X -1 Y 1 X -1 Y 1 X -1 Y 1 -1 d -2 Y 1 X -1 Y 1 X 1 -1 d -1 Y 1 X -1 Y 1 Y 1 -1 d s 1468 875 m 1 X -1 Y 1 1 d -1 Y 1 Y 1 -1 d -2 Y 1 Y 1 X -1 Y 1 Y -1
 Y 1 X -2 Y 1 X 1 Y 1 -1 d -2 Y 2 X -1 Y s 1477 867 m -1 Y 1 Y 1 -1 d -1 Y 1 X -2 Y 1 X -1 Y 1 Y -1 Y 1 X -1 Y 1 X -1 Y 1 -1 d -1 Y 1 -1 d -1 Y 1 -1 d 1 Y -1 Y 1 X s 1486 855 m 1 -1 d -3 Y 1 X 1 -1 d 1 X -1 Y 1 X -1 Y 1 X -1 Y 1 X -3 Y 1 X -1 Y 1 X s
 1495 843 m 1 X -1 Y 1 X -1 Y 1 X -1 Y 2 X -2 Y 1 -1 d 1 X -1 Y 1 X -1 Y 1 Y -1 Y s 1503 835 m 1 X -1 Y 1 X -1 Y 1 X -1 Y 1 -1 d 1 Y 1 -1 d -1 Y 1 X -1 Y 1 Y -1 Y 1 Y -1 Y 1 X -1 Y 1 X -1 Y 1 -1 d 1 Y -1 Y s 1512 826 m 1 -1 d 1 X -1 Y 1 -1 d -2 Y 1 X
 -2 Y 1 X -1 Y 1 X -1 Y 1 X -1 Y 1 X 1 Y -1 Y 1 X s 1521 816 m 1 X 1 Y 1 X -1 Y 1 X -2 Y 1 X -1 Y 1 X -1 Y 1 Y 1 -1 d -1 Y 1 X -1 Y 1 X -1 Y 1 Y 1 -1 d s 1530 809 m 1 Y -1 Y 1 X -1 Y 1 X -1 Y 1 Y 1 X -1 Y 1 X -1 Y 1 Y -1 Y 1 X -1 Y 2 X -1 Y 2 X -1 Y
 s 1539 803 m 1 X -1 Y 1 X 1 -1 d 2 X -1 Y 1 X 1 -1 d -1 Y 1 X -2 Y s 1547 796 m 1 X -1 Y 1 -1 d 1 Y 1 X -1 Y 1 X -1 Y 2 X -2 Y 1 Y -1 Y 1 X -2 Y 1 X -1 Y 1 X -1 Y s 1556 787 m 1 X -1 Y 1 X -1 Y 1 X -1 Y 1 X -1 Y 1 X -1 Y 1 X -2 Y 1 X -2 Y 2 X s 1565
 778 m 1 X -2 Y 1 X -1 Y 1 X -2 Y 1 X -1 Y 1 X -2 Y 1 X -1 Y 1 Y -1 Y 3 X -1 Y s 1574 768 m 1 Y 1 X 1 -1 d 1 X -1 Y 2 X -1 Y 1 X 1 -1 d -1 Y 1 Y -1 Y 1 X 1 1 d -1 Y s 1583 764 m 3 X -1 Y 1 X -1 Y 1 Y -1 Y 2 X 1 -1 d 1 X s 1591 761 m 2 X -2 Y 1 X 1 -1
 d -1 Y 1 X -1 Y 1 X -1 Y 1 X -1 Y 2 X -1 Y s 1600 753 m 3 X -1 Y 1 X -1 Y 2 X -1 Y 1 -1 d 1 Y -1 Y 2 X -1 Y s 1609 748 m 1 Y 1 X -1 Y 1 X -1 Y 1 Y 1 X -1 Y 1 X -1 Y 1 X -2 Y 1 Y 2 X -1 Y 1 -1 d 1 X -1 Y s 1618 742 m -1 Y 1 X 1 Y -1 Y 2 X -1 Y 1 Y -1
 Y 1 X -1 Y 1 Y 1 X -1 Y 1 X -1 Y 1 -1 d 1 -1 d 1 X s 1627 736 m -2 Y 1 -1 d 1 X -1 Y 1 X -1 Y 1 X -1 Y 1 Y -1 Y 1 X -1 Y 2 X -1 Y 1 X -1 Y s 1635 727 m 1 X -1 Y 1 X 1 -1 d -1 Y 1 X 1 -1 d 1 X -1 Y 1 X 1 -1 d -1 Y 1 X -1 Y s 1644 719 m 1 X -1 Y 1 X 1
 Y -1 Y 1 X -1 Y 1 -1 d -1 Y 1 -1 d -1 Y 1 X -1 Y 1 Y -1 Y 1 X 1 -1 d 1 Y 1 X -1 Y s 1653 711 m 1 X 1 -1 d -2 Y 1 X 1 Y -1 Y 1 Y 1 -1 d 1 X -1 Y 1 X -1 Y 3 X -1 Y s 1662 705 m 1 X -1 Y 1 X -1 Y 1 X -1 Y 1 X -1 Y 1 X -1 Y 1 Y -1 Y 3 X -1 Y 1 -1 d s
 1671 698 m 3 X -1 Y 1 -1 d 1 Y -1 Y 3 X -1 Y 1 X s 1679 695 m 1 -1 d 1 Y -1 Y 1 X 1 -1 d -1 Y 1 X -1 Y 1 X -1 Y 2 X 1 -1 d 1 X s 1688 689 m 2 X -1 Y 2 X 1 -1 d 2 X 1 Y -1 Y 1 X -1 Y 1 X -1 Y s 1697 685 m 1 -1 d 1 X -1 Y 1 X -1 Y 2 X -1 Y 1 Y 1 -1 d
 -1 Y 1 X -1 Y 1 -1 d 1 X -1 Y s 1706 677 m 3 X -1 Y 2 X -1 Y 1 X -1 Y 2 X -1 Y 1 X -1 Y s 1715 672 m -1 Y 1 X -1 Y 2 X 1 Y 1 X -1 Y 1 X -1 Y 1 X -1 Y 1 X -1 Y 1 X -1 Y s 1723 666 m 2 X -1 Y 1 X -1 Y 1 X -1 Y 3 X -1 Y 1 X -2 Y 1 X -1 Y s 1732 659 m 1
 X -1 Y 1 X -2 Y 1 X -1 Y 1 X -1 Y 2 X -1 Y 3 X s 1741 653 m 1 X -2 Y 1 -1 d 1 Y -1 Y 1 -1 d -1 Y 1 X -2 Y 1 X -1 Y 1 X 1 -1 d 1 X -1 Y 1 -1 d s 1750 642 m 1 X -1 Y 1 X -1 Y 2 X -1 Y 2 X -1 Y 2 X -2 Y 1 X s 1759 636 m -1 Y 5 X -1 Y 1 X -1 Y 2 X -1 Y
 s 1767 632 m 1 X -1 Y 1 X 1 -1 d 2 X -1 Y 2 X -1 Y 1 X 1 -1 d s 1776 627 m 1 X 1 Y 1 X -2 Y 1 Y -1 Y 2 X -2 Y 1 -1 d 1 X -1 Y 1 X -1 Y 1 X -1 Y 1 X s 1785 620 m -1 Y 2 X 1 -1 d -1 Y 1 X -1 Y 1 X 1 -1 d 1 X 1 -1 d 1 Y -1 Y 1 X -1 Y s 1794 613 m -1 Y
 1 -1 d 1 -1 d 2 X 1 -1 d -1 Y 2 X 1 -1 d 1 Y 1 X s 1803 608 m -2 Y 2 X -1 Y 2 X 1 -1 d 2 X -1 Y 1 X -1 Y 1 X s 1812 602 m 2 X -1 Y 2 X -1 Y 2 X -1 Y 1 X 1 -1 d -1 Y s 1820 597 m 1 X -1 Y 1 X -1 Y 2 X -1 Y 2 X -1 Y 2 X -1 Y 1 X s 1829 592 m 2 X -1 Y
 2 X -1 Y 1 X -1 Y 1 X -1 Y 1 X -2 Y 2 X s 1838 586 m -1 Y 1 X -1 Y 1 X -1 Y 1 X -1 Y 2 X -2 Y 3 X -1 Y 1 -1 d s 1847 578 m 1 -1 d 1 -1 d -2 Y 1 -1 d -1 Y 1 X -1 Y 1 -1 d 1 Y -1 Y 1 X -2 Y 1 X -1 Y 1 X -1 Y 1 Y 1 X s 1856 567 m -1 Y 2 X -1 Y 1 X -1 Y
 4 X -1 Y 1 -1 d 1 Y s 1864 563 m 1 X -1 Y 2 X -1 Y 1 X -1 Y 1 X -1 Y 1 X -2 Y 1 X -1 Y 1 X 1 -1 d -2 Y s 1873 553 m 1 -1 d 1 X -1 Y 3 X -1 Y 2 X -1 Y 2 X s 1882 549 m 1 X -1 Y 1 -1 d -2 Y 6 X -1 Y 1 -1 d -1 Y s 1891 542 m 1 X -2 Y 3 X -1 Y 1 X 1 -1
 d 1 X -1 Y 1 X -2 Y 1 X s 1900 535 m -1 Y 1 X -1 Y 4 X -1 Y 1 X -1 Y 1 X -1 Y 1 X -1 Y s 1908 529 m 1 X -1 Y 1 X -1 Y 2 X -1 Y 3 X -1 Y 2 X s 1917 525 m 1 X -1 Y 1 -1 d -1 Y 1 -1 d 1 X 1 -1 d 2 X -2 Y 1 X -1 Y 1 -1 d s 1926 516 m -1 Y 1 -1 d -1 Y 1
 X 1 -1 d -1 Y 1 -1 d -1 Y 2 X -1 Y 1 X -2 Y 2 X s 1935 506 m -1 Y 1 X -2 Y 1 X -1 Y 1 X -2 Y 1 X -1 Y 1 X 1 -1 d -2 Y 1 X 1 -1 d -2 Y 1 X s 1944 493 m 1 X -1 Y 1 X -1 Y 3 X 1 -1 d -1 Y 1 X -2 Y 1 X -1 Y s 1952 486 m 1 X -2 Y 1 X -2 Y 1 X -3 Y 1 -1 d
 -1 Y 2 X -1 Y 1 X -2 Y 1 -1 d -2 Y 1 X -1 Y s 1961 470 m 1 X 1 -2 d 1 X -1 Y 1 X -2 Y 1 X -1 Y 1 X -1 Y 1 X -1 Y 1 -1 d -1 Y 1 X s 1970 460 m -1 Y 1 X -1 Y 1 -1 d -1 Y 1 X -1 Y 1 -1 d -2 Y 1 X -2 Y 1 X -1 Y 2 X -2 Y 1 X s 1979 447 m -2 Y 1 -1 d -3 Y
 1 X -3 Y 1 X -1 Y 2 X -1 Y 1 -1 d 1 -1 d 1 -1 d -1 Y 1 X s 1988 432 m -3 Y 1 -1 d 1 X -2 Y 1 X -2 Y 1 X -1 Y 1 X 1 -1 d -1 Y 1 X -1 Y 1 -1 d -1 Y s 1996 418 m 1 -1 d 1 Y -1 Y 1 X -2 Y 2 X -3 Y 1 X -3 Y 4 X -1 Y s 2005 408 m -1 Y 1 X -1 Y 1 -1 d 1 X
 1 -1 d -4 Y 1 -1 d -1 Y 1 X -1 Y 1 X -4 Y 1 X -5 Y 1 X -2 Y s 2014 386 m -4 Y 1 -1 d -2 Y 1 X -1 Y 1 X -2 Y 1 -1 d -6 Y 1 X -3 Y 1 -1 d -1 Y 1 X 1 -1 d -2 Y 1 X -1 Y s 2023 360 m -1 Y 1 X -1 Y 1 -1 d -3 Y 1 -3 d -5 Y 1 X -3 Y 1 -1 d -5 Y 1 X -1 Y 1
 X -4 Y 1 -1 d -1 Y 1 -1 d s 2032 329 m -4 Y 1 X -10 Y 1 -1 d -4 Y 1 X -9 Y 1 -2 d -10 Y 1 X -8 Y 1 -2 d -4 Y 1 -2 d -5 Y 1 -8 d -15 Y s 2040 245 m -8 Y 1 -5 d -13 Y s black 3 lw 245 201 m 1796 X s 425 241 m -40 Y s 460 221 m -20 Y s 496 221 m -20 Y
 s 532 221 m -20 Y s 568 221 m -20 Y s 604 241 m -40 Y s 640 221 m -20 Y s 676 221 m -20 Y s 712 221 m -20 Y s 748 221 m -20 Y s 784 241 m -40 Y s 820 221 m -20 Y s 856 221 m -20 Y s 892 221 m -20 Y s 928 221 m -20 Y s 964 241 m -40 Y s 1000 221 m
 -20 Y s 1035 221 m -20 Y s 1071 221 m -20 Y s 1107 221 m -20 Y s 1143 241 m -40 Y s 1179 221 m -20 Y s 1215 221 m -20 Y s 1251 221 m -20 Y s 1287 221 m -20 Y s 1323 241 m -40 Y s 1359 221 m -20 Y s 1395 221 m -20 Y s 1431 221 m -20 Y s 1467 221 m
 -20 Y s 1503 241 m -40 Y s 1539 221 m -20 Y s 1575 221 m -20 Y s 1610 221 m -20 Y s 1646 221 m -20 Y s 1682 241 m -40 Y s 1718 221 m -20 Y s 1754 221 m -20 Y s 1790 221 m -20 Y s 1826 221 m -20 Y s 1862 241 m -40 Y s 425 241 m -40 Y s 389 221 m -20
 Y s 353 221 m -20 Y s 317 221 m -20 Y s 281 221 m -20 Y s 1862 241 m -40 Y s 1898 221 m -20 Y s 1934 221 m -20 Y s 1970 221 m -20 Y s 2006 221 m -20 Y s 245 201 m 1140 Y s 291 201 m -46 X s 268 253 m -23 X s 268 305 m -23 X s 268 357 m -23 X s 291
 408 m -46 X s 268 460 m -23 X s 268 512 m -23 X s 268 564 m -23 X s 291 616 m -46 X s 268 667 m -23 X s 268 719 m -23 X s 268 771 m -23 X s 291 823 m -46 X s 268 875 m -23 X s 268 926 m -23 X s 268 978 m -23 X s 291 1030 m -46 X s 268 1082 m -23 X s
 268 1134 m -23 X s 268 1185 m -23 X s 291 1237 m -46 X s 291 1237 m -46 X s 268 1289 m -23 X s 268 1341 m -23 X s 0.490196 0.545098 0.615686 c 1 1 1 c 0.490196 0.545098 0.615686 c 907 201 245 1341 bl 245 1341 m 907 X s 1152 1341 m 201 Y s 1152 1542
 m -907 X s 245 1542 m -201 Y s black
 gsave  2268 1676 0 0 C 515.735 1471.36 t 0 r /Helvetica-Bold findfont 56.8825 sf 0 0 m (Signal efficiency) show NC gr  0 0 0.933333 c 9 lw 286 1492 m 190 X s black
 gsave  2268 1676 0 0 C 515.735 1368.97 t 0 r /Helvetica-Bold findfont 56.8825 sf 0 0 m (Background efficiency) show NC gr  1 0 0 c 286 1391 m 190 X s 0.490196 0.545098 0.615686 c 3 lw 1 1 1 c 0.490196 0.545098 0.615686 c 889 201 1152 1341 bl 1152
 1341 m 889 X s 2041 1341 m 201 Y s 2041 1542 m -889 X s 1152 1542 m -201 Y s black
 gsave  2268 1676 0 0 C 1418.27 1494.11 t 0 r /Helvetica-Bold findfont 56.8825 sf 0 0 m (Signal purity) show NC gr  0 0 0.933333 c[  52 12 ] 0 sd 6 lw 1192 1509 m 187 X s black
 gsave  2268 1676 0 0 C 1418.27 1429.65 t 0 r /Helvetica-Bold findfont 56.8825 sf 0 0 m (Signal efficiency*purity) show NC gr  0 0 0.933333 c[  22 12 ] 0 sd 1192 1441 m 187 X s black
 gsave  2268 1676 0 0 C 1501.7 1361.39 t 0 r /Helvetica-Bold findfont 56.8825 sf 0 0 m (S+B) show NC gr [  ] 0 sd 1483 1407 m 7 -49 d s 3 lw 1490 1358 m 8 64 d s 1498 1422 m 114 X s
 gsave  2268 1676 0 0 C 1418.27 1361.39 t 0 r /Helvetica-Bold findfont 56.8825 sf 0 0 m (S/) show NC gr  0 0.666667 0 c 9 lw 1192 1374 m 187 X s black 3 lw 245 1237 m 1796 X s
 gsave  2268 1676 0 0 C 337.503 386.801 t 0 r /Helvetica-Bold findfont 53.0904 sf 0 0 m (For 1000 signal and 1000 background) show NC gr 
 gsave  2268 1676 0 0 C 1058.01 318.542 t 0 r /Helvetica-Bold findfont 53.0904 sf 0 0 m ( is) show NC gr 
 gsave  2268 1676 0 0 C 955.626 318.542 t 0 r /Helvetica-Bold findfont 53.0904 sf 0 0 m (S+B) show NC gr  6 lw 933 360 m 7 -45 d s 3 lw 940 315 m 8 60 d s 948 375 m 110 X s
 gsave  2268 1676 0 0 C 337.503 318.542 t 0 r /Helvetica-Bold findfont 53.0904 sf 0 0 m (events the maximum S/) show NC gr 
 gsave  2268 1676 0 0 C 337.503 254.075 t 0 r /Helvetica-Bold findfont 53.0904 sf 0 0 m (25.95 when cutting at  0.54) show NC gr  0.490196 0.545098 0.615686 c 0.364706 0.419608 0.490196 c 1471 96 23 1572 bf 0.490196 0.545098 0.615686 c 23 1572 m 1471
 X s 1494 1572 m 96 Y s 1494 1668 m -1471 X s 23 1668 m -96 Y s 1 1 1 c black 1 1 1 c
 gsave  2268 1676 0 0 C 75.8434 1600.29 t 0 r /Helvetica-Bold findfont 75.8434 sf 0 0 m (Cut efficiencies and optimal cut value) show NC gr  0 0.666667 0 c 2041 201 m 1140 Y s 1995 201 m 46 X s 2018 241 m 23 X s 2018 281 m 23 X s 2018 321 m 23 X s
 2018 361 m 23 X s 1995 401 m 46 X s 2018 441 m 23 X s 2018 481 m 23 X s 2018 521 m 23 X s 2018 560 m 23 X s 1995 600 m 46 X s 2018 640 m 23 X s 2018 680 m 23 X s 2018 720 m 23 X s 2018 760 m 23 X s 1995 800 m 46 X s 2018 840 m 23 X s 2018 880 m 23 X
 s 2018 920 m 23 X s 2018 960 m 23 X s 1995 1000 m 46 X s 2018 1040 m 23 X s 2018 1079 m 23 X s 2018 1119 m 23 X s 2018 1159 m 23 X s 1995 1199 m 46 X s 1995 1199 m 46 X s 2018 1239 m 23 X s 2018 1279 m 23 X s 2018 1319 m 23 X s black 0 0.666667 0 c
 gsave  2268 1676 0 0 C 2051.56 178.232 t 0 r /Helvetica-Bold findfont 64.4669 sf 0 0 m (0) show NC gr  black 0 0.666667 0 c
 gsave  2268 1676 0 0 C 2051.56 375.425 t 0 r /Helvetica-Bold findfont 64.4669 sf 0 0 m (5) show NC gr  black 0 0.666667 0 c
 gsave  2268 1676 0 0 C 2051.56 576.41 t 0 r /Helvetica-Bold findfont 64.4669 sf 0 0 m (10) show NC gr  black 0 0.666667 0 c
 gsave  2268 1676 0 0 C 2051.56 773.602 t 0 r /Helvetica-Bold findfont 64.4669 sf 0 0 m (15) show NC gr  black 0 0.666667 0 c
 gsave  2268 1676 0 0 C 2051.56 974.587 t 0 r /Helvetica-Bold findfont 64.4669 sf 0 0 m (20) show NC gr  black 0 0.666667 0 c
 gsave  2268 1676 0 0 C 2051.56 1175.57 t 0 r /Helvetica-Bold findfont 64.4669 sf 0 0 m (25) show NC gr  black 0 0.666667 0 c
 gsave  2268 1676 0 0 C 2203.25 963.211 t 90 r /Helvetica-Bold findfont 64.4669 sf 0 0 m (Significance) show NC gr 
 gr  gr showpage
end
%%EOF
