%!PS-Adobe-2.0 EPSF-2.0
%%BoundingBox:  0 0 567 419
%%Title: dataset/plots/mvaeffs_Fisher.eps: Cut efficiencies for Fisher classifier
%%Creator: ROOT Version 6.12/06
%%CreationDate: Mon May 21 13:38:13 2018
%%DocumentNeededResources: ProcSet (FontSetInit)
%%EndComments
%%BeginProlog
80 dict begin
/s {stroke} def /l {lineto} def /m {moveto} def /t {translate} def
/r {rotate} def /rl {roll}  def /R {repeat} def
/d {rlineto} def /rm {rmoveto} def /gr {grestore} def /f {eofill} def
/c {setrgbcolor} def /black {0 setgray} def /sd {setdash} def
/cl {closepath} def /sf {scalefont setfont} def /lw {setlinewidth} def
/box {m dup 0 exch d exch 0 d 0 exch neg d cl} def
/NC{systemdict begin initclip end}def/C{NC box clip newpath}def
/bl {box s} def /bf {gsave box gsave f grestore 1 lw [] 0 sd s grestore} def /Y { 0 exch d} def /X { 0 d} def 
/K {{pop pop 0 moveto} exch kshow} bind def
/ita {/ang 15 def gsave [1 0 ang dup sin exch cos div 1 0 0] concat} def 
/mp {newpath /y exch def /x exch def} def
/side {[w .77 mul w .23 mul] .385 w mul sd w 0 l currentpoint t -144 r} def
/mr {mp x y w2 0 360 arc} def /m24 {mr s} def /m20 {mr f} def
/mb {mp x y w2 add m w2 neg 0 d 0 w neg d w 0 d 0 w d cl} def
/mt {mp x y w2 add m w2 neg w neg d w 0 d cl} def
/w4 {w 4 div} def
/w6 {w 6 div} def
/w8 {w 8 div} def
/m21 {mb f} def /m25 {mb s} def /m22 {mt f} def /m26{mt s} def
/m23 {mp x y w2 sub m w2 w d w neg 0 d cl f} def
/m27 {mp x y w2 add m w3 neg w2 neg d w3 w2 neg d w3 w2 d cl s} def
/m28 {mp x w2 sub y w2 sub w3 add m w3 0 d  0 w3 neg d w3 0 d 0 w3 d w3 0 d  0 w3 d w3 neg 0 d 0 w3 d w3 neg 0 d 0 w3 neg d w3 neg 0 d cl s } def
/m29 {mp gsave x w2 sub y w2 add w3 sub m currentpoint t 4 {side} repeat cl fill gr} def
/m30 {mp gsave x w2 sub y w2 add w3 sub m currentpoint t 4 {side} repeat cl s gr} def
/m31 {mp x y w2 sub m 0 w d x w2 sub y m w 0 d x w2 sub y w2 add m w w neg d x w2 sub y w2 sub m w w d s} def
/m32 {mp x y w2 sub m w2 w d w neg 0 d cl s} def
/m33 {mp x y w2 add m w3 neg w2 neg d w3 w2 neg d w3 w2 d cl f} def
/m34 {mp x w2 sub y w2 sub w3 add m w3 0 d  0 w3 neg d w3 0 d 0 w3 d w3 0 d  0 w3 d w3 neg 0 d 0 w3 d w3 neg 0 d 0 w3 neg d w3 neg 0 d cl f } def
/m35 {mp x y w2 add m w2 neg w2 neg d w2 w2 neg d w2 w2 d w2 neg w2 d x y w2 sub m 0 w d x w2 sub y m w 0 d s} def
/m36 {mb x w2 sub y w2 add m w w neg d x w2 sub y w2 sub m w w d s} def
/m37 {mp x y m w4 neg w2 d w4 neg w2 neg d w2 0 d  w4 neg w2 neg d w2 0 d w4 neg w2 d w2 0 d w4 neg w2 d w4 neg w2 neg d cl s} def
/m38 {mp x w4 sub y w2 add m w4 neg w4 neg d 0 w2 neg d w4 w4 neg d w2 0 d w4 w4 d 0 w2 d w4 neg w4 d w2 neg 0 d x y w2 sub m 0 w d x w2 sub y m w 0 d cl s} def
/m39 {mp x y m w4 neg w2 d w4 neg w2 neg d w2 0 d  w4 neg w2 neg d w2 0 d w4 neg w2 d w2 0 d w4 neg w2 d w4 neg w2 neg d cl f} def
/m40 {mp x y m w4 w2 d w4 w4 neg d w2 neg w4 neg d w2 w4 neg d w4 neg w4 neg d w4 neg w2 d w4 neg w2 neg d w4 neg w4 d w2 w4 d w2 neg w4 d w4 w4 d w4 w2 neg d cl s} def
/m41 {mp x y m w4 w2 d w4 w4 neg d w2 neg w4 neg d w2 w4 neg d w4 neg w4 neg d w4 neg w2 d w4 neg w2 neg d w4 neg w4 d w2 w4 d w2 neg w4 d w4 w4 d w4 w2 neg d cl f} def
/m42 {mp x y w2 add m w8 neg w2 -3 4 div mul d w2 -3 4 div mul w8 neg d w2 3 4 div mul w8 neg d w8 w2 -3 4 div mul d w8 w2 3 4 div mul d w2 3 4 div mul w8 d w2 -3 4 div mul w8 d w8 neg w2 3 4 div mul d cl s} def
/m43 {mp x y w2 add m w8 neg w2 -3 4 div mul d w2 -3 4 div mul w8 neg d w2 3 4 div mul w8 neg d w8 w2 -3 4 div mul d w8 w2 3 4 div mul d w2 3 4 div mul w8 d w2 -3 4 div mul w8 d w8 neg w2 3 4 div mul d cl f} def
/m44 {mp x y m w6 neg w2 d w2 2 3 div mul 0 d w6 neg w2 neg d w2 w6 d 0 w2 -2 3 div mul d w2 neg w6 d w6 w2 neg d w2 -2 3 div mul 0 d w6 w2 d w2 neg w6 neg d 0 w2 2 3 div mul d w2 w6 neg d cl s} def
/m45 {mp x y m w6 neg w2 d w2 2 3 div mul 0 d w6 neg w2 neg d w2 w6 d 0 w2 -2 3 div mul d w2 neg w6 d w6 w2 neg d w2 -2 3 div mul 0 d w6 w2 d w2 neg w6 neg d 0 w2 2 3 div mul d w2 w6 neg d cl f} def
/m46 {mp x y w4 add m w4 neg w4 d w4 neg w4 neg d  w4 w4 neg d w4 neg w4 neg d w4 w4 neg d w4 w4 d w4 w4 neg d w4 w4 d w4 neg w4 d w4 w4 d w4 neg w4 d w4 neg w4 neg d cl s} def
/m47 {mp x y w4 add m w4 neg w4 d w4 neg w4 neg d w4 w4 neg d w4 neg w4 neg d  w4 w4 neg d w4 w4 d w4 w4 neg d w4 w4 d w4 neg w4 d w4 w4 d w4 neg w4 d w4 neg w4 neg d cl f} def
/m48 {mp x y w4 add m w4 neg w4 d w4 neg w4 neg d w4 w4 neg d  w4 neg w4 neg d w4 w4 neg d w4 w4 d w4 w4 neg d w4 w4 d w4 neg w4 d w4 w4 d w4 neg w4 d w4 neg w4 neg d  w4 w4 neg d w4 neg w4 neg d w4 neg w4 d w4 w4 d cl f} def
/m49 {mp x w2 sub w3 add y w2 sub w3 add m  0 w3 neg d w3 0 d 0 w3 d w3 0 d 0 w3 d w3 neg 0 d 0 w3 d w3 neg 0 d 0 w3 neg d w3 neg 0 d 0 w3 neg d w3 0 d 0 w3 d w3 0 d 0 w3 neg d w3 neg 0 d cl f } def
/m2 {mp x y w2 sub m 0 w d x w2 sub y m w 0 d s} def
/m5 {mp x w2 sub y w2 sub m w w d x w2 sub y w2 add m w w neg d s} def
%%IncludeResource: ProcSet (FontSetInit)
%%IncludeResource: font Times-Roman
%%IncludeResource: font Times-Italic
%%IncludeResource: font Times-Bold
%%IncludeResource: font Times-BoldItalic
%%IncludeResource: font Helvetica
%%IncludeResource: font Helvetica-Oblique
%%IncludeResource: font Helvetica-Bold
%%IncludeResource: font Helvetica-BoldOblique
%%IncludeResource: font Courier
%%IncludeResource: font Courier-Oblique
%%IncludeResource: font Courier-Bold
%%IncludeResource: font Courier-BoldOblique
%%IncludeResource: font Symbol
%%IncludeResource: font ZapfDingbats
/reEncode {exch findfont dup length dict begin {1 index /FID eq  {pop pop} {def} ifelse } forall /Encoding exch def currentdict end dup /FontName get exch definefont pop } def [/Times-Bold /Times-Italic /Times-BoldItalic /Helvetica /Helvetica-Oblique
 /Helvetica-Bold /Helvetica-BoldOblique /Courier /Courier-Oblique /Courier-Bold /Courier-BoldOblique /Times-Roman /AvantGarde-Book /AvantGarde-BookOblique /AvantGarde-Demi /AvantGarde-DemiOblique /Bookman-Demi /Bookman-DemiItalic /Bookman-Light
 /Bookman-LightItalic /Helvetica-Narrow /Helvetica-Narrow-Bold /Helvetica-Narrow-BoldOblique /Helvetica-Narrow-Oblique /NewCenturySchlbk-Roman /NewCenturySchlbk-Bold /NewCenturySchlbk-BoldItalic /NewCenturySchlbk-Italic /Palatino-Bold
 /Palatino-BoldItalic /Palatino-Italic /Palatino-Roman ] {ISOLatin1Encoding reEncode } forall
%%EndProlog
%%BeginSetup
%%EndSetup
newpath  gsave  .25 .25 scale  gsave  0 0 t 0.490196 0.545098 0.615686 c[  ] 0 sd 3 lw 0.941176 0.941176 0.941176 c 2268 1676 0 0 bf black 1 1 0.992157 c 1796 1140 245 201 bf black 1796 1140 245 201 bl 1 1 0.992157 c 1796 1140 245 201 bf black 1796
 1140 245 201 bl 245 201 m 1796 X s[ 4 8] 0 sd 481 1341 m -1140 Y s 811 1341 m -1140 Y s 1141 1341 m -1140 Y s 1471 1341 m -1140 Y s 1801 1341 m -1140 Y s 481 1341 m -1140 Y s 1801 1341 m -1140 Y s[  ] 0 sd 245 201 m 1140 Y s[ 4 8] 0 sd 2041 201 m
 -1796 X s 2041 408 m -1796 X s 2041 616 m -1796 X s 2041 823 m -1796 X s 2041 1030 m -1796 X s 2041 1237 m -1796 X s 2041 1237 m -1796 X s 0 0 0.933333 c[  22 12 ] 0 sd 6 lw 0.49 0.6 0.82 c black 0 0 0.933333 c 245 719 m 9 X s 254 719 m 9 X s 263
 719 m 8 X s 271 719 m 9 X s 280 719 m 9 X s 289 719 m 9 X s 298 719 m 9 X s 307 719 m 8 X s 315 719 m 9 X s 324 719 m 9 X s 333 719 m 9 X s 342 719 m 9 X s 351 719 m 8 X s 359 719 m 9 X s 368 719 m 9 X s 377 719 m 9 X s 386 719 m 9 X s 395 719 m 8 X
 s 403 719 m 9 X s 412 719 m 9 X s 421 719 m 9 X s 430 719 m 9 X s 439 719 m 8 X s 447 719 m 9 X s 456 719 m 9 X s 465 719 m 9 X s 474 719 m 9 X s 483 719 m 8 X s 491 719 m 9 X s 500 719 m 9 X s 509 719 m 9 X s 518 719 m 9 X s 527 719 m 8 X s 535 719
 m 9 X s 544 719 m 9 X s 553 719 m 9 X s 562 719 m 9 X s 571 719 m 8 X s 579 719 m 9 X s 588 719 m 9 X s 597 719 m 9 X s 606 719 m 9 X s 615 719 m 8 X s 623 719 m 9 X s 632 719 m 9 X s 641 719 m 9 X s 650 719 m 9 X s 659 719 m 8 X s 667 719 m 9 X s
 676 719 m 7 X 1 Y 2 X s 685 720 m 9 X s 694 720 m 9 X s 703 720 m 8 X s 711 720 m 9 X s 720 720 m 9 X s 729 720 m 9 X s 738 720 m 9 X s 747 720 m 8 X s 755 720 m 9 X s 764 720 m 9 X s 773 720 m 9 X s 782 720 m 9 X s 791 720 m 8 X s 799 720 m 9 X s
 808 720 m 6 X 1 Y 3 X s 817 721 m 9 X s 826 721 m 6 X 1 Y 3 X s 835 722 m 8 X s 843 722 m 2 X 1 Y 7 X s 852 723 m 6 X 1 1 d 2 X s 861 724 m 4 X 1 Y 5 X s 870 725 m 2 X 1 Y 3 X 1 Y 4 X s 879 727 m 1 Y 4 X 1 Y 2 X 1 Y 2 X 1 Y s 887 731 m 2 X 1 Y 2 X 1
 Y 1 X 1 Y 1 X 1 Y 1 X 1 Y 2 X 1 Y s 896 737 m 1 X 1 Y 1 X 1 Y 1 X 1 Y 1 X 1 Y 1 X 1 Y 1 X 1 Y 1 X 1 Y 1 X 1 Y 1 X 2 Y s 905 747 m 1 X 2 Y 1 X 2 Y 1 X 2 Y 1 X 1 Y 1 1 d 1 Y 1 1 d 1 Y 1 X 2 Y 1 1 d 1 Y 1 1 d s 914 763 m 1 Y 1 X 2 Y 1 1 d 1 Y 1 1 d 2 Y
 1 X 2 Y 1 1 d 2 Y 1 X 2 Y 1 1 d 2 Y 1 1 d 2 Y 1 1 d s 923 785 m 2 Y 1 X 3 Y 1 X 2 Y 1 X 2 Y 1 1 d 2 Y 1 1 d 1 Y 1 X 3 Y 1 X 2 Y 1 1 d 1 Y s 931 806 m 1 1 d 1 Y 1 1 d 1 Y 1 1 d 1 Y 1 1 d 1 Y 1 1 d 2 Y 1 X 2 Y 1 X 3 Y 1 X 1 Y 1 1 d 1 Y s 940 825 m 1 Y
 1 X 2 Y 1 X 2 Y 1 X 1 Y 1 1 d 1 Y 1 X 2 Y 1 X 2 Y 1 X 2 Y 1 X 2 Y 1 X 1 Y s 949 842 m 1 Y 1 X 2 Y 1 X 1 Y 1 X 1 Y 1 X 1 Y 1 1 d 1 Y 1 X 1 Y 1 X 1 Y 1 1 d 1 1 d s 958 854 m 1 X 1 Y 2 X 1 Y 1 1 d 1 Y 1 X 1 Y 2 X 1 Y 1 X 1 Y 1 X s 967 861 m 1 Y 2 X 1 Y
 1 X 1 Y 1 X 1 Y 2 X 1 Y 1 X 1 Y 1 X 1 Y s 975 868 m 2 X 1 Y 2 X 1 1 d 2 X 1 Y 2 X s 984 871 m 1 X 1 Y 2 X 1 Y 1 X 1 Y 3 X 1 Y 2 X s 993 875 m 1 X 1 Y 3 X 1 Y 3 X 1 Y 2 X s 1002 878 m 2 X 1 Y 3 X 1 Y 2 X 1 Y 2 X s 1011 881 m 2 X 1 Y 2 X 1 1 d 3 X s
 1019 883 m 1 X 1 Y 3 X 1 Y 5 X 1 Y s 1028 886 m 4 X 1 Y 5 X s 1037 887 m 2 X 1 Y 7 X s 1046 888 m 1 X 1 Y 4 X 1 Y 4 X s 1055 890 m 1 1 d 4 X 1 Y 3 X s 1063 892 m 1 X 1 Y 5 X 1 Y 3 X s 1072 894 m 1 X 1 1 d 7 X s 1081 895 m 3 X 1 Y -1 Y 1 1 d 5 X s
 1090 896 m 1 1 d 4 X -1 Y 1 1 d -1 Y 3 X s 1099 896 m 1 Y 1 -1 d 2 X -1 Y 1 Y 3 X -1 Y 2 X s 1107 895 m 2 X 1 1 d -1 Y 2 X -1 Y 2 X -1 Y 1 X 1 -1 d s 1116 892 m 2 X -1 Y 1 X -1 Y 1 X 1 -1 d 1 X -1 Y 1 X -1 Y 1 Y -1 Y 1 X -1 Y 1 X s 1125 886 m 1 X -2
 Y 1 X 1 -1 d -2 Y 1 X -1 Y 1 X -2 Y 1 X -1 Y 1 X -1 Y 1 X -1 Y 1 X -1 Y s 1134 874 m -1 Y 1 X -1 Y 1 X -2 Y 1 X -2 Y 1 X -1 Y 1 -1 d -2 Y 1 X -1 Y 1 -2 d 1 -1 d 1 -1 d s 1143 859 m -2 Y 1 X -1 Y 1 -1 d -1 Y 1 -1 d -2 Y 1 X -2 Y 1 -1 d -3 Y 1 X -2 Y
 1 -1 d -1 Y 1 X -2 Y s 1151 839 m 1 X -3 Y 1 X -3 Y 1 -2 d -2 Y 1 X -4 Y 1 -1 d -2 Y 1 -1 d -2 Y 1 -1 d -3 Y 1 X -2 Y 1 -1 d -2 Y s 1160 810 m -1 Y 1 X -3 Y 1 X -3 Y 1 X -4 Y 1 -1 d -2 Y 1 -1 d -2 Y 1 -1 d -2 Y 1 -1 d -4 Y 1 X -3 Y 1 X -3 Y s 1169
 779 m -3 Y 1 X -4 Y 1 -1 d -3 Y 1 -1 d -5 Y 1 X -3 Y 1 -1 d -5 Y 1 -1 d -3 Y 1 X -4 Y 1 -2 d -4 Y 1 -1 d -2 Y s 1178 736 m -4 Y 1 -1 d -5 Y 1 -2 d -3 Y 1 -1 d -4 Y 1 -1 d -3 Y 1 -2 d -5 Y 1 -2 d -4 Y 1 -1 d -6 Y 1 -2 d -2 Y 1 -2 d s 1187 686 m -6 Y
 1 -2 d -5 Y 1 -1 d -3 Y 1 X -5 Y 1 -1 d -5 Y 1 -1 d -5 Y 1 -2 d -9 Y 1 -1 d -3 Y 1 -1 d -3 Y s 1195 633 m 1 X -3 Y 1 -1 d -5 Y 1 X -5 Y 1 -2 d -5 Y 1 -1 d -4 Y 1 X -4 Y 1 -1 d -7 Y 1 -1 d -3 Y 1 1 d -4 Y s 1204 588 m -2 Y 1 -1 d -4 Y 1 -1 d -5 Y 1
 -1 d -6 Y 1 -2 d -3 Y 1 -1 d -4 Y 1 -3 d -2 Y 1 -1 d -8 Y 1 -1 d -3 Y 1 -2 d -1 Y s 1213 537 m -2 Y 1 X -5 Y 1 -1 d -5 Y 1 -2 d -4 Y 1 -3 d -5 Y 1 -1 d -4 Y 1 -1 d -4 Y 1 X -6 Y 1 -1 d -7 Y 1 -1 d s 1222 485 m -4 Y 1 X -4 Y 1 -1 d -3 Y 1 -2 d -3 Y 1
 -2 d -3 Y 1 X -4 Y 1 -1 d -4 Y 1 -1 d -2 Y 1 -1 d -4 Y 1 -2 d s 1231 444 m -2 Y 1 X -5 Y 1 -3 d -4 Y 1 -1 d -4 Y 1 -2 d -2 Y 1 -1 d -2 Y 1 -1 d -2 Y 1 -2 d -4 Y 1 X -6 Y s 1239 403 m 1 -1 d -4 Y 1 -2 d -4 Y 1 -1 d -2 Y 1 -1 d -4 Y 1 -1 d -5 Y 1 -1 d
 -5 Y 1 -1 d -3 Y 1 X -5 Y 1 X -4 Y s 1248 359 m -2 Y 1 -1 d -3 Y 1 -1 d -5 Y 1 -1 d -3 Y 1 Y -1 Y 1 X -4 Y 1 -1 d -3 Y 1 -2 d -3 Y 1 X -2 Y 1 X -3 Y 1 X -2 Y s 1257 323 m -2 Y 1 -1 d -4 Y 1 X -4 Y 1 X -3 Y 1 -1 d -2 Y 1 -1 d -5 Y 1 X -3 Y 1 -1 d -5
 Y 1 X -4 Y 1 X -1 Y s 1266 286 m -3 Y 1 X -2 Y 1 X -2 Y 1 -1 d -3 Y 1 -1 d -1 Y 1 X -3 Y 1 -1 d -2 Y 1 X -3 Y 1 -1 d -3 Y 1 X s 1275 260 m -2 Y 1 -1 d -3 Y 1 X -3 Y 1 X -2 Y 1 -1 d -1 Y 1 X -1 Y 1 -1 d -1 Y 1 X -2 Y 1 X -3 Y s 1283 239 m 1 X -2 Y 1
 X -2 Y 1 -1 d -1 Y 1 X -2 Y 1 X -2 Y 1 X -2 Y 1 X -2 Y 1 X 1 -1 d s 1292 224 m -1 Y 1 X -2 Y 1 X -2 Y 1 X -2 Y 1 X -1 Y 1 X -1 Y 1 X -1 Y 1 X -1 Y 2 X -1 Y 1 Y -1 Y s 1301 212 m 1 Y 1 -1 d 1 -1 d 1 X -1 Y 1 -1 d 1 X -1 Y 3 X -1 Y 1 X s 1310 207 m 2
 X -1 Y 1 X 1 Y -1 Y 2 X -1 Y 2 X -1 Y 2 X s 1319 204 m 5 X -1 Y 3 X -1 Y s 1327 202 m 9 X s 1336 202 m 1 X 1 -1 d 7 X s 1345 201 m 9 X s 1354 201 m 9 X s 1363 201 m 8 X s 1371 201 m 9 X s 1380 201 m 9 X s 1389 201 m 9 X s 1398 201 m 9 X s 1407 201 m
 8 X s 1415 201 m 9 X s 1424 201 m 9 X s 1433 201 m 9 X s 1442 201 m 9 X s 1451 201 m 8 X s 1459 201 m 9 X s 1468 201 m 9 X s 1477 201 m 9 X s 1486 201 m 9 X s 1495 201 m 8 X s 1503 201 m 9 X s 1512 201 m 9 X s 1521 201 m 9 X s 1530 201 m 9 X s 1539
 201 m 8 X s 1547 201 m 9 X s 1556 201 m 9 X s 1565 201 m 9 X s 1574 201 m 9 X s 1583 201 m 8 X s 1591 201 m 9 X s 1600 201 m 9 X s 1609 201 m 9 X s 1618 201 m 9 X s 1627 201 m 8 X s 1635 201 m 9 X s 1644 201 m 9 X s 1653 201 m 9 X s 1662 201 m 9 X s
 1671 201 m 8 X s 1679 201 m 9 X s 1688 201 m 9 X s 1697 201 m 9 X s 1706 201 m 9 X s 1715 201 m 8 X s 1723 201 m 9 X s 1732 201 m 9 X s 1741 201 m 9 X s 1750 201 m 9 X s 1759 201 m 8 X s 1767 201 m 9 X s 1776 201 m 9 X s 1785 201 m 9 X s 1794 201 m
 9 X s 1803 201 m 9 X s 1812 201 m 8 X s 1820 201 m 9 X s 1829 201 m 9 X s 1838 201 m 9 X s 1847 201 m 9 X s 1856 201 m 8 X s 1864 201 m 9 X s 1873 201 m 9 X s 1882 201 m 9 X s 1891 201 m 9 X s 1900 201 m 8 X s 1908 201 m 9 X s 1917 201 m 9 X s 1926
 201 m 9 X s 1935 201 m 9 X s 1944 201 m 8 X s 1952 201 m 9 X s 1961 201 m 9 X s 1970 201 m 9 X s 1979 201 m 9 X s 1988 201 m 8 X s 1996 201 m 9 X s 2005 201 m 9 X s 2014 201 m 9 X s 2023 201 m 9 X s 2032 201 m 8 X s 2040 201 m 1 X s black[  ] 0 sd 3
 lw 245 201 m 1796 X s 481 241 m -40 Y s 547 221 m -20 Y s 613 221 m -20 Y s 679 221 m -20 Y s 745 221 m -20 Y s 811 241 m -40 Y s 877 221 m -20 Y s 943 221 m -20 Y s 1009 221 m -20 Y s 1075 221 m -20 Y s 1141 241 m -40 Y s 1207 221 m -20 Y s 1273
 221 m -20 Y s 1339 221 m -20 Y s 1405 221 m -20 Y s 1471 241 m -40 Y s 1537 221 m -20 Y s 1603 221 m -20 Y s 1669 221 m -20 Y s 1735 221 m -20 Y s 1801 241 m -40 Y s 481 241 m -40 Y s 415 221 m -20 Y s 349 221 m -20 Y s 283 221 m -20 Y s 1801 241 m
 -40 Y s 1867 221 m -20 Y s 1933 221 m -20 Y s 1999 221 m -20 Y s
 gsave  2268 1676 0 0 C 474.021 128.934 t 0 r /Helvetica-Bold findfont 64.4669 sf 0 0 m (2) show NC gr 
 gsave  2268 1676 0 0 C 443.684 128.934 t 0 r /Symbol findfont 64.4669 sf 0 0 m (-) show NC gr 
 gsave  2268 1676 0 0 C 807.732 128.934 t 0 r /Helvetica-Bold findfont 64.4669 sf 0 0 m (1) show NC gr 
 gsave  2268 1676 0 0 C 777.394 128.934 t 0 r /Symbol findfont 64.4669 sf 0 0 m (-) show NC gr 
 gsave  2268 1676 0 0 C 1118.69 128.934 t 0 r /Helvetica-Bold findfont 64.4669 sf 0 0 m (0) show NC gr 
 gsave  2268 1676 0 0 C 1452.4 128.934 t 0 r /Helvetica-Bold findfont 64.4669 sf 0 0 m (1) show NC gr 
 gsave  2268 1676 0 0 C 1778.53 128.934 t 0 r /Helvetica-Bold findfont 64.4669 sf 0 0 m (2) show NC gr 
 gsave  2268 1676 0 0 C 857.03 30.3373 t 0 r /Helvetica-Bold findfont 72.0512 sf 0 0 m (Cut value applied on Fisher output) show NC gr  245 201 m 1140 Y s 291 201 m -46 X s 268 253 m -23 X s 268 305 m -23 X s 268 357 m -23 X s 291 408 m -46 X s 268
 460 m -23 X s 268 512 m -23 X s 268 564 m -23 X s 291 616 m -46 X s 268 667 m -23 X s 268 719 m -23 X s 268 771 m -23 X s 291 823 m -46 X s 268 875 m -23 X s 268 926 m -23 X s 268 978 m -23 X s 291 1030 m -46 X s 268 1082 m -23 X s 268 1134 m -23 X
 s 268 1185 m -23 X s 291 1237 m -46 X s 291 1237 m -46 X s 268 1289 m -23 X s 268 1341 m -23 X s
 gsave  2268 1676 0 0 C 182.024 178.232 t 0 r /Helvetica-Bold findfont 64.4669 sf 0 0 m (0) show NC gr 
 gsave  2268 1676 0 0 C 128.934 383.009 t 0 r /Helvetica-Bold findfont 64.4669 sf 0 0 m (0.2) show NC gr 
 gsave  2268 1676 0 0 C 125.142 591.578 t 0 r /Helvetica-Bold findfont 64.4669 sf 0 0 m (0.4) show NC gr 
 gsave  2268 1676 0 0 C 128.934 796.355 t 0 r /Helvetica-Bold findfont 64.4669 sf 0 0 m (0.6) show NC gr 
 gsave  2268 1676 0 0 C 125.142 1004.92 t 0 r /Helvetica-Bold findfont 64.4669 sf 0 0 m (0.8) show NC gr 
 gsave  2268 1676 0 0 C 189.608 1213.49 t 0 r /Helvetica-Bold findfont 64.4669 sf 0 0 m (1) show NC gr 
 gsave  2268 1676 0 0 C 64.4669 731.888 t 90 r /Helvetica-Bold findfont 72.0512 sf 0 0 m (Efficiency \(Purity\)) show NC gr  0 0 0.933333 c[  52 12 ] 0 sd 6 lw 0.49 0.6 0.82 c black 0 0 0.933333 c 245 719 m 9 X s 254 719 m 9 X s 263 719 m 8 X s 271
 719 m 9 X s 280 719 m 9 X s 289 719 m 9 X s 298 719 m 9 X s 307 719 m 8 X s 315 719 m 9 X s 324 719 m 9 X s 333 719 m 9 X s 342 719 m 9 X s 351 719 m 8 X s 359 719 m 9 X s 368 719 m 9 X s 377 719 m 9 X s 386 719 m 9 X s 395 719 m 8 X s 403 719 m 9 X
 s 412 719 m 9 X s 421 719 m 9 X s 430 719 m 9 X s 439 719 m 8 X s 447 719 m 9 X s 456 719 m 9 X s 465 719 m 9 X s 474 719 m 9 X s 483 719 m 8 X s 491 719 m 9 X s 500 719 m 9 X s 509 719 m 9 X s 518 719 m 9 X s 527 719 m 8 X s 535 719 m 9 X s 544 719
 m 9 X s 553 719 m 9 X s 562 719 m 9 X s 571 719 m 8 X s 579 719 m 9 X s 588 719 m 9 X s 597 719 m 9 X s 606 719 m 9 X s 615 719 m 8 X s 623 719 m 9 X s 632 719 m 9 X s 641 719 m 9 X s 650 719 m 9 X s 659 719 m 8 X s 667 719 m 9 X s 676 719 m 7 X 1 Y
 2 X s 685 720 m 9 X s 694 720 m 9 X s 703 720 m 8 X s 711 720 m 9 X s 720 720 m 9 X s 729 720 m 9 X s 738 720 m 9 X s 747 720 m 8 X s 755 720 m 9 X s 764 720 m 9 X s 773 720 m 9 X s 782 720 m 9 X s 791 720 m 8 X s 799 720 m 9 X s 808 720 m 6 X 1 Y 3
 X s 817 721 m 9 X s 826 721 m 6 X 1 Y 3 X s 835 722 m 8 X s 843 722 m 2 X 1 Y 7 X s 852 723 m 6 X 1 1 d 2 X s 861 724 m 4 X 1 Y 5 X s 870 725 m 2 X 1 Y 3 X 1 Y 4 X s 879 727 m 1 Y 4 X 1 Y 2 X 1 Y 2 X 1 Y s 887 731 m 2 X 1 Y 2 X 1 Y 1 X 1 Y 1 X 1 Y 1
 X 1 Y 2 X 1 Y s 896 737 m 1 X 1 Y 1 X 1 Y 1 X 1 Y 1 X 1 Y 1 X 1 Y 1 X 1 Y 1 X 1 Y 1 X 1 Y 1 X 2 Y s 905 747 m 1 X 2 Y 1 X 2 Y 1 X 2 Y 1 X 1 Y 1 1 d 1 Y 1 1 d 1 Y 1 X 2 Y 1 1 d 1 Y 1 1 d s 914 763 m 1 Y 1 X 2 Y 1 1 d 1 Y 1 1 d 2 Y 1 X 2 Y 1 1 d 2 Y 1
 X 2 Y 1 1 d 2 Y 1 1 d 2 Y 1 1 d s 923 785 m 2 Y 1 X 3 Y 1 X 2 Y 1 X 2 Y 1 1 d 2 Y 1 1 d 1 Y 1 X 3 Y 1 X 2 Y 1 1 d 1 Y s 931 806 m 1 1 d 1 Y 1 1 d 1 Y 1 1 d 1 Y 1 1 d 1 Y 1 1 d 2 Y 1 X 2 Y 1 X 3 Y 1 X 1 Y 1 1 d 1 Y s 940 825 m 1 Y 1 X 2 Y 1 X 2 Y 1 X
 1 Y 1 1 d 1 Y 1 X 2 Y 1 X 2 Y 1 X 2 Y 1 X 2 Y 1 X 1 Y s 949 842 m 1 Y 1 X 2 Y 1 X 1 Y 1 X 1 Y 1 X 1 Y 1 1 d 1 Y 1 X 1 Y 1 X 1 Y 1 1 d 1 1 d s 958 854 m 1 X 1 Y 2 X 1 Y 1 1 d 1 Y 1 X 1 Y 2 X 1 Y 1 X 1 Y 1 X s 967 861 m 1 Y 2 X 1 Y 1 X 1 Y 1 X 1 Y 2 X
 1 Y 1 X 1 Y 1 X 1 Y s 975 868 m 2 X 1 Y 2 X 1 1 d 2 X 1 Y 2 X s 984 871 m 1 X 1 Y 2 X 1 Y 1 X 1 Y 3 X 1 Y 2 X s 993 875 m 1 X 1 Y 3 X 1 Y 3 X 1 Y 2 X s 1002 878 m 2 X 1 Y 3 X 1 Y 2 X 1 Y 2 X s 1011 881 m 2 X 1 Y 2 X 1 1 d 3 X s 1019 883 m 1 X 1 Y 3
 X 1 Y 5 X 1 Y s 1028 886 m 4 X 1 Y 5 X s 1037 887 m 2 X 1 Y 7 X s 1046 888 m 1 X 1 Y 4 X 1 Y 4 X s 1055 890 m 1 1 d 4 X 1 Y 3 X s 1063 892 m 1 X 1 Y 5 X 1 Y 3 X s 1072 894 m 1 X 1 1 d 4 X 1 Y 3 X s 1081 896 m 2 X 1 Y 4 X 1 Y 3 X s 1090 898 m 1 1 d 8
 X s 1099 899 m 1 Y 5 X 1 Y 3 X s 1107 901 m 1 X 1 1 d 7 X s 1116 902 m 1 1 d -1 Y 1 1 d -1 Y 1 Y -1 Y 1 1 d -1 Y 1 Y -1 Y 1 Y 1 -1 d 5 X s 1125 902 m 4 X -1 Y 5 X s 1134 901 m -1 Y 1 X 1 Y -1 Y 1 X 1 Y -1 Y 3 X -1 Y 4 X s 1143 899 m 3 X -1 Y 2 X -1
 Y 3 X -1 Y s 1151 896 m 2 X -1 Y 1 X -1 Y 1 X 1 -1 d 2 X -1 Y 1 Y -1 Y 2 X s 1160 892 m 1 -1 d 2 X -1 Y 2 X -1 Y 2 X -1 Y 1 X -1 Y 1 X -1 Y s 1169 886 m 1 X -1 Y 1 X -1 Y 1 Y -1 Y 1 X -1 Y 2 X -1 Y 2 X -1 Y 1 X -1 Y 1 X -1 Y s 1178 879 m 1 -1 d -1 Y
 1 X -1 Y 2 X -1 Y 1 X -1 Y 1 X -1 Y 1 -1 d 1 -1 d 1 X s 1187 871 m -2 Y 1 X -2 Y 2 X -1 Y 1 X -1 Y 1 X 1 -1 d -1 Y 1 -1 d 1 X 1 Y s 1195 863 m 1 1 d -1 Y 1 Y 1 X 1 Y -1 Y 1 1 d -1 Y 2 X 2 Y 3 X 1 Y 1 1 d 1 Y -1 Y s 1204 868 m 1 X -1 Y 1 Y -1 Y 1 Y 1
 X 1 Y -1 Y 2 Y 1 X 1 Y -1 Y 1 X 2 Y 1 X 2 Y 1 -1 d 2 Y 1 X -1 Y 1 Y 1 X 2 Y 1 X 2 Y s 1213 879 m 1 Y 1 2 d 1 X 4 Y 1 X 3 Y 1 -1 d 1 Y -1 Y 1 2 d 3 Y 1 1 d 2 Y -1 Y 1 1 d 1 Y -1 Y 3 Y -1 Y 1 1 d -3 Y 1 Y 1 1 d 2 Y s 1222 900 m 3 Y 1 1 d 4 Y 1 1 d 2 Y
 1 X 6 Y 1 1 d 3 Y 1 X 6 Y 1 X 2 Y 1 1 d 7 Y 1 -1 d 5 Y 1 X s 1231 941 m 4 Y 1 1 d 3 Y 1 -1 d 1 Y 1 X 3 Y -1 Y 2 Y 1 X 6 Y 1 2 d 7 Y 1 1 d 5 Y 1 -1 d 2 Y -1 Y 1 1 d 4 Y s 1239 979 m 1 X -1 Y 4 Y 1 -1 d 4 Y -1 Y 3 Y 1 1 d 5 Y 1 -1 d 4 Y -1 Y 3 Y 1 X
 -1 Y 1 1 d -1 Y 1 X 5 Y 1 1 d -2 Y 1 Y -1 Y 1 2 d 1 Y -2 Y s 1248 1002 m -1 Y 1 1 d -2 Y 1 2 d -1 Y 1 Y -2 Y 1 -1 d -1 Y 4 Y 1 1 d 1 1 d -2 Y 3 Y 1 -1 d 3 Y -2 Y 1 2 d 1 Y -1 Y 3 Y 1 1 d -1 Y 1 X 1 Y s 1257 1011 m 1 Y -1 Y 1 -2 d 2 Y -1 Y 1 1 d -2 Y
 2 Y -1 Y 1 Y 1 X 3 Y -1 Y 1 -1 d 1 Y 1 -1 d -4 Y 1 1 d -3 Y 1 Y 1 -1 d -3 Y 2 Y -2 Y 1 3 d -4 Y 1 X -1 Y s 1266 1001 m -2 Y 1 Y -1 Y 1 1 d 2 Y -1 Y 4 Y 1 X 2 Y -1 Y 1 -2 d 1 Y -4 Y 2 Y 1 X -1 Y 2 Y 1 X -3 Y 2 Y -2 Y 1 -1 d -1 Y 3 Y -2 Y 1 1 d -4 Y 1
 -1 d -3 Y 1 Y -5 Y 1 X s 1275 989 m -6 Y 1 1 d -4 Y 1 Y -4 Y 1 X -9 Y 1 1 d -2 Y 1 Y 1 X -2 Y 1 Y -2 Y 1 5 d -3 Y 1 -2 d -1 Y 3 Y -2 Y 1 -2 d 1 Y -4 Y 1 -1 d -7 Y 1 Y -3 Y s 1283 950 m 1 -2 d -1 Y 2 Y -2 Y 1 -1 d -8 Y 1 1 d -5 Y 1 X -3 Y 1 Y -2 Y 1
 X -11 Y 1 -2 d -7 Y 1 -3 d 2 Y -9 Y 1 1 d -5 Y 1 -3 d 2 Y -3 Y s 1292 892 m -2 Y 1 2 d -15 Y 1 -8 d -15 Y 1 -2 d -15 Y 1 1 d -2 Y 3 Y -8 Y 1 X -4 Y 1 Y -12 Y 1 -2 d -2 Y 1 Y 1 X -12 Y 1 Y 1 -5 d -3 Y 1 -5 d 4 Y -2 Y s 1301 791 m 10 Y 1 -2 d -14 Y 1
 -3 d -8 Y 1 X 4 Y -12 Y 1 -14 d -7 Y 8 Y 1 -7 d -11 Y 1 -4 d -8 Y 1 5 d 4 Y -4 Y 4 Y 1 4 d -8 Y 1 -9 d 5 Y -5 Y s 1310 719 m -4 Y 1 X 4 Y -9 Y 1 X -5 Y 9 Y 1 X 5 Y -5 Y 1 X -16 Y 1 X -28 Y 1 -6 d -14 Y 1 X -8 Y 1 5 d 5 Y -7 Y 1 -7 d s 1319 638 m 1 X
 -7 Y 1 -8 d -15 Y 1 X 1 -8 d 1 X -9 Y 11 Y 1 5 d -36 Y 1 -9 d -21 Y 1 X -21 Y s 1327 520 m 1 -23 d -12 Y 1 X -8 Y 2 X -26 Y 2 X -28 Y 2 X -11 Y 1 X 4 Y s 1336 416 m 1 X 4 Y -16 Y 1 -16 d 3 Y 2 X 4 Y 1 X -10 Y 1 -19 d -20 Y 1 X 3 Y 1 X -22 Y 1 X 4 Y
 s 1345 331 m 3 X -24 Y 3 Y 1 X 3 Y 1 X 3 Y 1 X 4 Y 1 3 d 2 X 4 Y s 1354 327 m 1 4 d 1 X -30 Y 2 X -31 Y 1 X -33 Y 1 Y 4 X s 1363 238 m 2 X 2 Y 3 X 4 Y 1 X 1 2 d 1 X s 1371 246 m 1 X 2 Y 3 X 2 Y 2 X 3 Y 1 X 1 3 d 1 X s 1380 256 m 6 X -55 Y 3 X s 1389
 201 m 9 X s 1398 201 m 9 X s 1407 201 m 8 X s 1415 201 m 9 X s 1424 201 m 9 X s 1433 201 m 9 X s 1442 201 m 9 X s 1451 201 m 8 X s 1459 201 m 9 X s 1468 201 m 9 X s 1477 201 m 9 X s 1486 201 m 9 X s 1495 201 m 8 X s 1503 201 m 9 X s 1512 201 m 9 X s
 1521 201 m 9 X s 1530 201 m 9 X s 1539 201 m 8 X s 1547 201 m 9 X s 1556 201 m 9 X s 1565 201 m 9 X s 1574 201 m 9 X s 1583 201 m 8 X s 1591 201 m 9 X s 1600 201 m 9 X s 1609 201 m 9 X s 1618 201 m 9 X s 1627 201 m 8 X s 1635 201 m 9 X s 1644 201 m
 9 X s 1653 201 m 9 X s 1662 201 m 9 X s 1671 201 m 8 X s 1679 201 m 9 X s 1688 201 m 9 X s 1697 201 m 9 X s 1706 201 m 9 X s 1715 201 m 8 X s 1723 201 m 9 X s 1732 201 m 9 X s 1741 201 m 9 X s 1750 201 m 9 X s 1759 201 m 8 X s 1767 201 m 9 X s 1776
 201 m 9 X s 1785 201 m 9 X s 1794 201 m 9 X s 1803 201 m 9 X s 1812 201 m 8 X s 1820 201 m 9 X s 1829 201 m 9 X s 1838 201 m 9 X s 1847 201 m 9 X s 1856 201 m 8 X s 1864 201 m 9 X s 1873 201 m 9 X s 1882 201 m 9 X s 1891 201 m 9 X s 1900 201 m 8 X s
 1908 201 m 9 X s 1917 201 m 9 X s 1926 201 m 9 X s 1935 201 m 9 X s 1944 201 m 8 X s 1952 201 m 9 X s 1961 201 m 9 X s 1970 201 m 9 X s 1979 201 m 9 X s 1988 201 m 8 X s 1996 201 m 9 X s 2005 201 m 9 X s 2014 201 m 9 X s 2023 201 m 9 X s 2032 201 m
 8 X s 2040 201 m 1 X s[  ] 0 sd 9 lw 0.49 0.6 0.82 c black 0 0 0.933333 c 245 1237 m 9 X s 254 1237 m 9 X s 263 1237 m 8 X s 271 1237 m 9 X s 280 1237 m 9 X s 289 1237 m 9 X s 298 1237 m 9 X s 307 1237 m 8 X s 315 1237 m 9 X s 324 1237 m 9 X s 333
 1237 m 9 X s 342 1237 m 9 X s 351 1237 m 8 X s 359 1237 m 9 X s 368 1237 m 9 X s 377 1237 m 9 X s 386 1237 m 9 X s 395 1237 m 8 X s 403 1237 m 9 X s 412 1237 m 9 X s 421 1237 m 9 X s 430 1237 m 9 X s 439 1237 m 8 X s 447 1237 m 9 X s 456 1237 m 9 X
 s 465 1237 m 9 X s 474 1237 m 9 X s 483 1237 m 8 X s 491 1237 m 9 X s 500 1237 m 9 X s 509 1237 m 9 X s 518 1237 m 9 X s 527 1237 m 8 X s 535 1237 m 9 X s 544 1237 m 9 X s 553 1237 m 9 X s 562 1237 m 9 X s 571 1237 m 8 X s 579 1237 m 9 X s 588 1237
 m 9 X s 597 1237 m 9 X s 606 1237 m 9 X s 615 1237 m 8 X s 623 1237 m 9 X s 632 1237 m 9 X s 641 1237 m 9 X s 650 1237 m 9 X s 659 1237 m 8 X s 667 1237 m 9 X s 676 1237 m 9 X s 685 1237 m 9 X s 694 1237 m 9 X s 703 1237 m 8 X s 711 1237 m 9 X s 720
 1237 m 9 X s 729 1237 m 9 X s 738 1237 m 9 X s 747 1237 m 8 X s 755 1237 m 9 X s 764 1237 m 9 X s 773 1237 m 9 X s 782 1237 m 9 X s 791 1237 m 8 X s 799 1237 m 9 X s 808 1237 m 9 X s 817 1237 m 9 X s 826 1237 m 9 X s 835 1237 m 8 X s 843 1237 m 9 X
 s 852 1237 m 9 X s 861 1237 m 9 X s 870 1237 m 9 X s 879 1237 m 8 X s 887 1237 m 9 X s 896 1237 m 9 X s 905 1237 m 9 X s 914 1237 m 9 X s 923 1237 m 8 X s 931 1237 m 9 X s 940 1237 m 9 X s 949 1237 m 9 X s 958 1237 m 9 X s 967 1237 m 8 X s 975 1237
 m 9 X s 984 1237 m 9 X s 993 1237 m 9 X s 1002 1237 m 9 X s 1011 1237 m 8 X s 1019 1237 m 9 X s 1028 1237 m 9 X s 1037 1237 m 9 X s 1046 1237 m 9 X s 1055 1237 m 8 X s 1063 1237 m 9 X s 1072 1237 m 5 X -1 Y 4 X s 1081 1236 m 1 -1 d 6 X 1 -1 d 1 X s
 1090 1234 m 5 X -1 Y 4 X s 1099 1233 m 1 -1 d -1 Y 3 X -1 Y 2 X -1 Y 2 X -1 Y s 1107 1228 m 3 X -1 Y 2 X -1 Y 1 X -1 Y 1 X -1 Y 1 -1 d 1 X -1 Y s 1116 1222 m 2 X -2 Y 1 X -1 Y 1 X 1 -1 d 1 X -1 Y 1 X -2 Y 1 X -1 Y 1 X -1 Y s 1125 1213 m 1 X -2 Y 1 X
 -1 Y 1 X -3 Y 1 X -1 Y 1 X -2 Y 1 -1 d -1 Y 1 X -1 Y 1 -1 d -1 Y 1 -1 d s 1134 1198 m -1 Y 1 X -2 Y 1 X -2 Y 1 -1 d -2 Y 1 X -1 Y 1 -1 d -3 Y 1 X -2 Y 1 -1 d -2 Y 1 -1 d -1 Y 1 X s 1143 1178 m -3 Y 1 X -2 Y 1 -1 d -1 Y 1 -1 d -3 Y 1 -1 d -2 Y 1 X -4
 Y 1 -1 d -2 Y 1 -1 d -2 Y 1 X -2 Y s 1151 1152 m 1 -1 d -3 Y 1 X -4 Y 1 -2 d -3 Y 1 X -4 Y 1 -1 d -3 Y 1 -1 d -3 Y 1 -1 d -5 Y 1 X -2 Y 1 -1 d -4 Y s 1160 1114 m 1 -1 d -3 Y 1 -1 d -3 Y 1 -1 d -4 Y 1 -2 d -3 Y 1 -1 d -3 Y 1 -1 d -4 Y 1 X -5 Y 1 X -3
 Y 1 -1 d -4 Y s 1169 1074 m -3 Y 1 X -5 Y 1 -1 d -4 Y 1 -1 d -6 Y 1 -1 d -4 Y 1 -1 d -7 Y 1 -1 d -4 Y 1 -1 d -6 Y 1 -1 d -6 Y 1 -2 d -2 Y s 1178 1018 m -5 Y 1 -1 d -7 Y 1 -2 d -5 Y 1 -1 d -5 Y 1 -2 d -4 Y 1 -2 d -7 Y 1 -2 d -5 Y 1 -2 d -8 Y 1 -2 d
 -5 Y 1 -1 d s 1187 952 m -8 Y 1 -2 d -7 Y 1 -2 d -4 Y 1 -1 d -7 Y 1 -1 d -6 Y 1 -2 d -7 Y 1 -3 d -11 Y 1 -2 d -5 Y 1 -1 d -6 Y s 1195 877 m 1 X -6 Y 1 -1 d -8 Y 1 -1 d -7 Y 1 -3 d -7 Y 1 -2 d -8 Y 1 -1 d -6 Y 1 -1 d -10 Y 1 -2 d -6 Y 1 X -6 Y s 1204
 802 m -2 Y 1 -2 d -7 Y 1 -2 d -8 Y 1 -2 d -10 Y 1 -3 d -6 Y 1 -1 d -8 Y 1 -3 d -6 Y 1 -2 d -11 Y 1 -2 d -7 Y 1 -2 d -4 Y s 1213 714 m -3 Y 1 -2 d -7 Y 1 -3 d -10 Y 1 -2 d -9 Y 1 -3 d -8 Y 1 -2 d -9 Y 1 -2 d -7 Y 1 -1 d -10 Y 1 -1 d -10 Y 1 -2 d -2 Y
 s 1222 621 m -6 Y 1 -1 d -8 Y 1 -2 d -6 Y 1 -3 d -8 Y 1 -2 d -7 Y 1 X -9 Y 1 -1 d -7 Y 1 -2 d -5 Y 1 -2 d -9 Y 1 -1 d s 1231 542 m -6 Y 1 -1 d -7 Y 1 -4 d -6 Y 1 -1 d -8 Y 1 -2 d -5 Y 1 -2 d -6 Y 1 -1 d -5 Y 1 -3 d -5 Y 1 -1 d -9 Y s 1239 470 m 1 -1
 d -7 Y 1 -2 d -7 Y 1 -1 d -5 Y 1 -2 d -7 Y 1 -1 d -6 Y 1 -1 d -7 Y 1 -1 d -5 Y 1 X -6 Y 1 X -6 Y s 1248 405 m -2 Y 1 -1 d -4 Y 1 -1 d -6 Y 1 -1 d -6 Y 1 X -4 Y 1 -2 d -5 Y 1 -1 d -5 Y 1 X -3 Y 1 X -4 Y 1 -1 d -2 Y s 1257 357 m -2 Y 1 -2 d -5 Y 1 X
 -5 Y 1 X -4 Y 1 -2 d -2 Y 1 -1 d -6 Y 1 -1 d -3 Y 1 -1 d -6 Y 1 X -4 Y 1 -1 d -1 Y s 1266 311 m -3 Y 1 -1 d -3 Y 1 X -3 Y 1 -1 d -4 Y 1 X -2 Y 1 -1 d -3 Y 1 -1 d -2 Y 1 X -4 Y 1 -1 d -3 Y 1 X s 1275 279 m -3 Y 1 -1 d -3 Y 1 X -4 Y 1 X -2 Y 1 -1 d -2
 Y 1 X -1 Y 1 -1 d -2 Y 1 X -2 Y 1 X -3 Y s 1283 254 m 1 -1 d -2 Y 1 X -3 Y 1 X -2 Y 1 X -3 Y 1 X -2 Y 1 X -1 Y 1 -1 d -2 Y 1 X -1 Y 1 X -1 Y s 1292 235 m 1 -1 d -2 Y 1 -1 d -2 Y 1 X -2 Y 1 X -1 Y 1 X -2 Y 2 X -2 Y 1 X 1 -1 d s 1301 221 m 1 X -1 Y 1
 -1 d 1 X -1 Y 1 -1 d -1 Y 1 X -1 Y 1 X -1 Y 2 X 1 -1 d s 1310 213 m 1 X -1 Y 3 X -1 Y 1 X -1 Y 1 X -1 Y 2 X 1 -1 d s 1319 208 m 3 X 1 -1 d 2 X -1 Y 2 X -1 Y s 1327 205 m 2 X -1 Y 6 X -1 Y 1 X s 1336 203 m 6 X -1 Y 3 X s 1345 202 m 9 X s 1354 202 m 5
 X -1 Y 4 X s 1363 201 m 8 X s 1371 201 m 9 X s 1380 201 m 9 X s 1389 201 m 9 X s 1398 201 m 9 X s 1407 201 m 8 X s 1415 201 m 9 X s 1424 201 m 9 X s 1433 201 m 9 X s 1442 201 m 9 X s 1451 201 m 8 X s 1459 201 m 9 X s 1468 201 m 9 X s 1477 201 m 9 X
 s 1486 201 m 9 X s 1495 201 m 8 X s 1503 201 m 9 X s 1512 201 m 9 X s 1521 201 m 9 X s 1530 201 m 9 X s 1539 201 m 8 X s 1547 201 m 9 X s 1556 201 m 9 X s 1565 201 m 9 X s 1574 201 m 9 X s 1583 201 m 8 X s 1591 201 m 9 X s 1600 201 m 9 X s 1609 201
 m 9 X s 1618 201 m 9 X s 1627 201 m 8 X s 1635 201 m 9 X s 1644 201 m 9 X s 1653 201 m 9 X s 1662 201 m 9 X s 1671 201 m 8 X s 1679 201 m 9 X s 1688 201 m 9 X s 1697 201 m 9 X s 1706 201 m 9 X s 1715 201 m 8 X s 1723 201 m 9 X s 1732 201 m 9 X s
 1741 201 m 9 X s 1750 201 m 9 X s 1759 201 m 8 X s 1767 201 m 9 X s 1776 201 m 9 X s 1785 201 m 9 X s 1794 201 m 9 X s 1803 201 m 9 X s 1812 201 m 8 X s 1820 201 m 9 X s 1829 201 m 9 X s 1838 201 m 9 X s 1847 201 m 9 X s 1856 201 m 8 X s 1864 201 m
 9 X s 1873 201 m 9 X s 1882 201 m 9 X s 1891 201 m 9 X s 1900 201 m 8 X s 1908 201 m 9 X s 1917 201 m 9 X s 1926 201 m 9 X s 1935 201 m 9 X s 1944 201 m 8 X s 1952 201 m 9 X s 1961 201 m 9 X s 1970 201 m 9 X s 1979 201 m 9 X s 1988 201 m 8 X s 1996
 201 m 9 X s 2005 201 m 9 X s 2014 201 m 9 X s 2023 201 m 9 X s 2032 201 m 8 X s 2040 201 m 1 X s 1 0 0 c black 1 0 0 c 245 1237 m 9 X s 254 1237 m 9 X s 263 1237 m 8 X s 271 1237 m 9 X s 280 1237 m 9 X s 289 1237 m 9 X s 298 1237 m 9 X s 307 1237 m
 8 X s 315 1237 m 9 X s 324 1237 m 9 X s 333 1237 m 9 X s 342 1237 m 9 X s 351 1237 m 8 X s 359 1237 m 9 X s 368 1237 m 9 X s 377 1237 m 9 X s 386 1237 m 9 X s 395 1237 m 8 X s 403 1237 m 9 X s 412 1237 m 9 X s 421 1237 m 9 X s 430 1237 m 9 X s 439
 1237 m 8 X s 447 1237 m 9 X s 456 1237 m 9 X s 465 1237 m 9 X s 474 1237 m 9 X s 483 1237 m 8 X s 491 1237 m 9 X s 500 1237 m 9 X s 509 1237 m 9 X s 518 1237 m 9 X s 527 1237 m 8 X s 535 1237 m 9 X s 544 1237 m 9 X s 553 1237 m 9 X s 562 1237 m 9 X
 s 571 1237 m 8 X s 579 1237 m 9 X s 588 1237 m 9 X s 597 1237 m 9 X s 606 1237 m 9 X s 615 1237 m 8 X s 623 1237 m 9 X s 632 1237 m 9 X s 641 1237 m 9 X s 650 1237 m -1 Y 9 X s 659 1236 m 8 X s 667 1236 m 9 X s 676 1236 m 9 X s 685 1236 m 9 X s 694
 1236 m 9 X s 703 1236 m 8 X s 711 1236 m 9 X s 720 1236 m 9 X s 729 1236 m 9 X s 738 1236 m 1 -1 d 8 X s 747 1235 m 8 X s 755 1235 m 4 X -1 Y 5 X s 764 1234 m 9 X s 773 1234 m 9 X s 782 1234 m 6 X -1 Y 3 X s 791 1233 m 8 X s 799 1233 m 9 X s 808
 1233 m 6 X -1 Y 3 X s 817 1232 m 2 X -1 Y 6 X 1 -1 d s 826 1230 m 4 X -1 Y 2 X -1 Y 1 X 1 -1 d 1 X s 835 1227 m 3 X -1 Y 4 X -1 Y 1 X s 843 1225 m 2 X -1 Y 4 X -1 Y 3 X s 852 1223 m -1 Y 5 X -1 Y 1 X -1 Y 1 X -1 Y 2 X s 861 1219 m 1 X -1 Y 1 X 1 -1
 d 1 X -1 Y 1 X -1 Y 2 X -1 Y 1 X 1 -1 d s 870 1213 m 2 X -1 Y 1 X -1 Y 2 X -3 Y 1 X -1 Y 2 X -2 Y 1 X s 879 1205 m -1 Y 1 X -1 Y 1 X -1 Y 1 X -1 Y 1 X -1 Y 1 -1 d -1 Y 1 X -2 Y 1 X -2 Y 1 -1 d -1 Y s 887 1192 m 1 X -1 Y 1 -1 d -1 Y 1 -1 d -1 Y 1 X
 -2 Y 1 -1 d -2 Y 1 -1 d -4 Y 1 X -3 Y 1 -1 d -1 Y 1 X -3 Y s 896 1169 m 1 -1 d -2 Y 1 X -4 Y 1 X -4 Y 1 -1 d -3 Y 1 X -4 Y 1 -1 d -3 Y 1 -1 d -3 Y 1 X -4 Y 1 -1 d -4 Y s 905 1133 m -1 Y 1 -1 d -5 Y 1 -1 d -6 Y 1 -1 d -6 Y 1 -1 d -5 Y 1 -1 d -6 Y 1
 -1 d -5 Y 1 -1 d -6 Y 1 -2 d -5 Y 1 -2 d -1 Y s 914 1076 m -4 Y 1 -1 d -7 Y 1 -1 d -5 Y 1 -1 d -7 Y 1 -1 d -7 Y 1 -2 d -6 Y 1 -1 d -8 Y 1 -2 d -8 Y 1 -2 d -7 Y 1 -1 d s 923 1005 m -7 Y 1 -1 d -7 Y 1 -1 d -6 Y 1 -1 d -6 Y 1 -2 d -8 Y 1 -1 d -5 Y 1 -1
 d -7 Y 1 -1 d -6 Y 1 -1 d -4 Y s 931 940 m 1 -2 d -5 Y 1 -2 d -4 Y 1 -1 d -5 Y 1 -1 d -5 Y 1 -1 d -5 Y 1 -1 d -5 Y 1 X -7 Y 1 -2 d -4 Y 1 -1 d -4 Y s 940 885 m -1 Y 1 -1 d -5 Y 1 X -5 Y 1 X -3 Y 1 -2 d -4 Y 1 -1 d -3 Y 1 -1 d -4 Y 1 -2 d -4 Y 1 X -5
 Y 1 -2 d -3 Y s 949 839 m -1 Y 1 -1 d -4 Y 1 X -2 Y 1 -1 d -3 Y 1 X -3 Y 1 -1 d -4 Y 1 -1 d -2 Y 1 X -3 Y 1 X -2 Y 1 X -1 Y s 958 810 m -1 Y 1 X -1 Y 1 X -1 Y 1 -1 d -2 Y 1 -2 d -2 Y 1 -1 d -1 Y 1 X -1 Y 1 -1 d -2 Y 1 -1 d -1 Y 1 X s 967 792 m -2 Y
 1 X -1 Y 1 -1 d -2 Y 1 X -1 Y 1 -1 d -1 Y 1 -1 d 1 X -2 Y 1 X -2 Y 1 X -2 Y s 975 776 m 1 X -2 Y 1 X 1 -1 d -1 Y 1 X -1 Y 1 X -1 Y 2 X -2 Y 2 X -1 Y s 984 767 m 1 X -2 Y 1 X 1 -1 d -1 Y 1 X -2 Y 2 X -1 Y 1 X -1 Y 2 X -1 Y s 993 758 m 1 X -1 Y 1 X -2
 Y 2 X -1 Y 2 X -1 Y 1 X -1 Y 1 X 1 -1 d s 1002 751 m 1 X -1 Y 1 X -1 Y 1 X -1 Y 2 X -1 Y 1 X -1 Y 1 X -1 Y 1 X -1 Y 1 X s 1011 744 m -1 Y 3 X -1 Y 1 -1 d 1 -1 d 2 X -1 Y 1 X s 1019 739 m 1 X -1 Y 1 X -1 Y 1 X 1 -1 d -1 Y 3 X -1 Y 2 X -1 Y s 1028 733
 m 3 X -1 Y 1 X -1 Y 3 X -1 Y 2 X s 1037 730 m 1 X -1 Y 4 X -1 Y 2 X -1 Y 2 X s 1046 727 m 1 X 1 -1 d 1 X 1 -1 d 2 X -1 Y 2 X -1 Y 1 X s 1055 723 m 1 -1 d -1 Y 4 X -1 Y 1 X -1 Y 2 X -1 Y s 1063 718 m 3 X -1 Y 1 X 1 -1 d 1 X -1 Y 1 X 1 -1 d 1 X s 1072
 714 m 1 X 1 -1 d 1 X -1 Y 1 X 1 -1 d 2 X -1 Y 2 X -1 Y s 1081 709 m 1 X -1 Y 2 X -1 Y 1 X -1 Y 2 X -1 Y 1 X -1 Y 1 X -1 Y 1 X s 1090 703 m 1 X -1 Y 2 X -1 Y 5 X -1 Y 1 X s 1099 700 m 1 -1 d 1 X 1 -1 d -1 Y 2 X -1 Y 2 X -1 Y 1 X s 1107 695 m 1 X -1 Y
 1 -1 d -1 Y 2 X -1 Y 2 X 1 -1 d 2 X -1 Y s 1116 689 m 1 -1 d 2 X -1 Y 3 X 1 -1 d 1 X -1 Y 1 X s 1125 685 m 1 X -1 Y 2 X -1 Y 3 X -1 Y 2 X -1 Y 1 X s 1134 681 m 1 X -1 Y 1 X -1 Y 2 X 1 -1 d 1 X -1 Y 1 X -2 Y 1 X -1 Y 1 X s 1143 674 m -1 Y 1 X -1 Y 2
 X -1 Y 2 X -1 Y 1 X -1 Y 1 X -1 Y 1 X -1 Y s 1151 667 m 2 X -1 Y 1 X -1 Y 2 X -2 Y 1 X -1 Y 1 X -2 Y 2 X -2 Y s 1160 658 m 1 X -1 Y 1 X -1 Y 1 X -2 Y 1 X -1 Y 1 -1 d -1 Y 1 X -1 Y 1 X -1 Y 2 X -1 Y s 1169 648 m 1 X -1 Y 1 X -2 Y 1 X -2 Y 1 X -2 Y 1
 X -1 Y 1 -1 d -2 Y 1 -1 d -1 Y 1 X -2 Y 1 -1 d s 1178 632 m -1 Y 1 X -2 Y 1 X -2 Y 1 -1 d -2 Y 1 -1 d -1 Y 1 X -2 Y 1 X -1 Y 1 -1 d -3 Y 1 X -3 Y 1 X s 1187 612 m -1 Y 1 X -2 Y 1 -1 d -2 Y 1 -1 d -2 Y 1 -1 d -2 Y 1 -1 d -3 Y 1 -1 d -3 Y 1 X -4 Y 1 X
 -5 Y s 1195 583 m 1 -1 d -4 Y 1 -1 d -4 Y 1 -1 d -4 Y 1 X -5 Y 1 X -8 Y 1 -2 d -2 Y 1 -1 d -6 Y 1 -1 d -4 Y 1 -3 d -2 Y s 1204 534 m -1 Y 1 X -5 Y 1 -2 d -6 Y 1 -2 d -5 Y 1 -2 d -5 Y 1 -1 d -6 Y 1 -1 d -6 Y 1 -1 d -6 Y 1 -2 d -5 Y 1 -2 d -4 Y s 1213
 472 m -3 Y 1 -3 d -3 Y 1 -2 d -10 Y 1 -1 d -7 Y 1 -1 d -5 Y 1 -2 d -8 Y 1 -1 d -5 Y 1 -1 d -7 Y 1 -1 d -4 Y 1 -1 d -3 Y s 1222 404 m -6 Y 1 -1 d -7 Y 1 -2 d -5 Y 1 -1 d -8 Y 1 -2 d -5 Y 1 X -8 Y 1 -1 d -5 Y 1 -1 d -7 Y 1 X -7 Y 1 -1 d s 1231 337 m
 -4 Y 1 -1 d -5 Y 1 -1 d -3 Y 1 X -5 Y 1 -1 d -5 Y 1 -2 d -6 Y 1 -1 d -4 Y 1 -1 d -2 Y 1 -1 d -4 Y s 1239 291 m 1 -1 d -3 Y 1 -1 d -4 Y 1 -1 d -4 Y 1 X -5 Y 1 X -2 Y 1 X -2 Y 1 X -3 Y 1 -1 d -1 Y 1 -1 d -1 Y s 1248 261 m 1 -1 d 1 -1 d -2 Y 1 X -2 Y 1
 X -2 Y 1 X -2 Y 1 X -2 Y 1 X -2 Y 1 X -1 Y 1 X -1 Y s 1257 245 m -1 Y 1 X -1 Y 1 -1 d -1 Y 1 X -2 Y 1 X -1 Y 1 X -1 Y 1 X -1 Y 1 X -1 Y 1 -1 d 1 X -1 Y s 1266 233 m 1 X -2 Y 1 X -1 Y 1 X -1 Y 1 X -1 Y 1 X -1 Y 1 X 1 -1 d 2 X s 1275 226 m 1 -1 d 2 X
 -1 Y 1 X -1 Y 1 X -1 Y 3 X -1 Y s 1283 221 m 2 X -1 Y 2 X -1 Y 3 X 1 -1 d 1 X s 1292 218 m 4 X -1 Y 3 X -1 Y 2 X s 1301 216 m -1 Y 4 X -1 Y 3 X -1 Y 2 X s 1310 213 m 2 X -1 Y 5 X -1 Y 2 X s 1319 211 m 5 X 1 -1 d 2 X s 1327 210 m 9 X s 1336 210 m 2 X
 -1 Y 7 X -1 Y s 1345 208 m 6 X 1 -1 d 2 X s 1354 207 m 9 X s 1363 207 m 5 X -1 Y 3 X s 1371 206 m 1 X -1 Y 8 X s 1380 205 m 9 X s 1389 205 m 9 X s 1398 205 m 3 X 1 -1 d 5 X s 1407 204 m 8 X s 1415 204 m 9 X s 1424 204 m 8 X 1 -1 d s 1433 203 m 9 X s
 1442 203 m 9 X s 1451 203 m 8 X s 1459 203 m 9 X s 1468 203 m 9 X s 1477 203 m 9 X s 1486 203 m 9 X s 1495 203 m 8 X s 1503 203 m 9 X s 1512 203 m 9 X s 1521 203 m 9 X s 1530 203 m 9 X s 1539 203 m 8 X s 1547 203 m 5 X -1 Y 4 X s 1556 202 m 9 X s
 1565 202 m 9 X s 1574 202 m 9 X s 1583 202 m 8 X s 1591 202 m 9 X s 1600 202 m 9 X s 1609 202 m 9 X s 1618 202 m 9 X s 1627 202 m 8 X s 1635 202 m 9 X s 1644 202 m 9 X s 1653 202 m 9 X s 1662 202 m 9 X s 1671 202 m 8 X s 1679 202 m 9 X s 1688 202 m
 9 X s 1697 202 m 9 X s 1706 202 m 9 X s 1715 202 m 8 X s 1723 202 m 9 X s 1732 202 m 9 X s 1741 202 m 9 X s 1750 202 m 9 X s 1759 202 m 8 X s 1767 202 m 9 X s 1776 202 m 9 X s 1785 202 m 9 X s 1794 202 m 9 X s 1803 202 m 9 X s 1812 202 m 8 X s 1820
 202 m 9 X s 1829 202 m 9 X s 1838 202 m 9 X s 1847 202 m 9 X s 1856 202 m 8 X s 1864 202 m 9 X s 1873 202 m 9 X s 1882 202 m 9 X s 1891 202 m 9 X s 1900 202 m 8 X s 1908 202 m 9 X s 1917 202 m 9 X s 1926 202 m 9 X s 1935 202 m 9 X s 1944 202 m 8 X s
 1952 202 m 9 X s 1961 202 m 9 X s 1970 202 m 9 X s 1979 202 m 9 X s 1988 202 m 8 X s 1996 202 m 9 X s 2005 202 m 9 X s 2014 202 m 9 X s 2023 202 m 1 X -1 Y 8 X s 2032 201 m 8 X s 2040 201 m 1 X s 0 0.666667 0 c 1 1 1 c black 0 0.666667 0 c 245 1095
 m 9 X s 254 1095 m 9 X s 263 1095 m 8 X s 271 1095 m 9 X s 280 1095 m 9 X s 289 1095 m 9 X s 298 1095 m 9 X s 307 1095 m 8 X s 315 1095 m 9 X s 324 1095 m 9 X s 333 1095 m 9 X s 342 1095 m 9 X s 351 1095 m 8 X s 359 1095 m 9 X s 368 1095 m 9 X s 377
 1095 m 9 X s 386 1095 m 9 X s 395 1095 m 8 X s 403 1095 m 9 X s 412 1095 m 9 X s 421 1095 m 9 X s 430 1095 m 9 X s 439 1095 m 8 X s 447 1095 m 9 X s 456 1095 m 9 X s 465 1095 m 9 X s 474 1095 m 9 X s 483 1095 m 8 X s 491 1095 m 9 X s 500 1095 m 9 X
 s 509 1095 m 9 X s 518 1095 m 9 X s 527 1095 m 8 X s 535 1095 m 9 X s 544 1095 m 9 X s 553 1095 m 9 X s 562 1095 m 9 X s 571 1095 m 8 X s 579 1095 m 9 X s 588 1095 m 9 X s 597 1095 m 9 X s 606 1095 m 9 X s 615 1095 m 8 X s 623 1095 m 9 X s 632 1095
 m 9 X s 641 1095 m 9 X s 650 1095 m 9 X s 659 1095 m 8 X s 667 1095 m 9 X s 676 1095 m 9 X s 685 1095 m 9 X s 694 1095 m 9 X s 703 1095 m 8 X s 711 1095 m 9 X s 720 1095 m 9 X s 729 1095 m 9 X s 738 1095 m 3 X 1 Y 6 X s 747 1096 m 8 X s 755 1096 m 9
 X s 764 1096 m 9 X s 773 1096 m 9 X s 782 1096 m 9 X s 791 1096 m 8 X s 799 1096 m 9 X s 808 1096 m 9 X s 817 1096 m 7 X 1 1 d 1 X s 826 1097 m 9 X s 835 1097 m 4 X 1 1 d 3 X s 843 1098 m 9 X s 852 1098 m 4 X 1 Y 5 X s 861 1099 m 3 X 1 Y 6 X s 870
 1100 m 2 X 1 Y 4 X 1 Y 3 X s 879 1102 m 1 X 1 Y 4 X 1 Y 2 X 1 Y 1 X s 887 1105 m 2 X 1 Y 2 X 1 Y 1 X 1 1 d 1 X 1 Y 1 X 1 Y 1 X s 896 1110 m 1 X 1 Y 1 X 1 Y 1 X 1 Y 1 X 1 Y 1 X 1 Y 1 X 1 1 d 1 X 1 Y 1 X 1 Y s 905 1118 m 1 Y 1 X 1 Y 1 X 2 Y 1 X 1 Y 1
 1 d 1 Y 1 X 1 Y 1 1 d 1 Y 1 X 2 Y 1 X 1 Y 1 1 d s 914 1132 m 1 Y 1 X 2 Y 1 X 2 Y 1 X 1 Y 1 1 d 1 Y 1 1 d 1 Y 1 1 d 2 Y 1 X 2 Y 1 1 d 2 Y 1 X s 923 1150 m 2 Y 1 X 2 Y 1 X 2 Y 1 X 1 Y 1 1 d 2 Y 1 X 2 Y 1 X 2 Y 1 X 2 Y 1 X 1 Y s 931 1167 m 1 1 d 1 Y 1
 X 2 Y 1 X 1 Y 1 X 2 Y 1 X 2 Y 1 X 1 Y 1 X 2 Y 1 1 d 1 Y 1 X 1 Y s 940 1182 m 1 Y 1 X 1 Y 1 1 d 1 Y 1 X 1 Y 1 X 1 Y 1 1 d 1 Y 1 X 1 Y 1 1 d 1 Y 1 X 1 Y 1 1 d 1 Y s 949 1196 m 1 X 1 Y 1 1 d 1 X 1 Y 1 X 1 Y 1 1 d 1 Y 1 X 1 Y 1 X 1 1 d 1 X 1 Y s 958
 1205 m 2 X 1 1 d 1 1 d 1 Y 2 X 1 Y 1 X 1 1 d 1 X s 967 1210 m 1 Y 2 X 1 Y 2 X 1 Y 2 X 1 Y 1 X 1 1 d s 975 1215 m 1 X 1 Y 3 X 1 1 d 2 X 1 Y 2 X s 984 1218 m 2 X 1 Y 2 X 1 Y 4 X 1 1 d s 993 1221 m 2 X 1 Y 5 X 1 Y 2 X s 1002 1223 m 2 X 1 Y 4 X 1 Y 3 X
 s 1011 1225 m 1 X 1 Y 3 X 1 1 d 3 X s 1019 1227 m 3 X 1 Y 4 X 1 1 d 1 X s 1028 1229 m 6 X 1 Y 3 X s 1037 1230 m 5 X 1 Y 4 X s 1046 1231 m 5 X 1 Y 4 X s 1055 1232 m 1 X 1 Y 7 X 1 Y s 1063 1234 m 5 X 1 1 d 3 X s 1072 1235 m 2 X 1 Y 6 X -1 Y 1 Y 1 X -1
 Y 1 Y s 1081 1236 m 7 X 1 Y 2 X s 1090 1237 m 7 X -1 Y 1 X 1 Y 1 X s 1099 1237 m 1 X -1 Y 7 X s 1107 1236 m 5 X -1 Y 2 X -1 Y 2 X -1 Y 1 Y s 1116 1234 m 1 X -1 Y 2 X -1 Y 2 X -1 Y 2 X -1 Y 1 X -1 Y 1 X s 1125 1229 m 1 X -1 Y 1 X -1 Y 1 X -2 Y 1 1 d
 -1 Y 1 -1 d -1 Y 1 X -1 Y 1 X -1 Y 1 X -1 Y 1 X s 1134 1220 m -1 Y 1 X -1 Y 1 X -1 Y 1 X -1 Y 1 -1 d 1 -1 d -1 Y 1 -1 d -1 Y 1 -1 d 1 -1 d 1 X s 1143 1209 m -2 Y 1 X -1 Y 1 X -1 Y 1 -1 d -2 Y 1 X -1 Y 1 -1 d -2 Y 1 -1 d -1 Y 1 X -1 Y 1 X -2 Y s 1151
 1193 m 1 X -2 Y 1 X -3 Y 1 -1 d -2 Y 1 X -3 Y 1 X -2 Y 1 -1 d -2 Y 1 X -3 Y 1 X -2 Y 1 X -2 Y s 1160 1170 m 1 -1 d -2 Y 1 X -2 Y 1 X -3 Y 1 -1 d -2 Y 1 X -3 Y 1 X -2 Y 1 -1 d -3 Y 1 X -2 Y 1 -1 d -2 Y s 1169 1145 m -2 Y 1 X -4 Y 1 X -3 Y 1 X -4 Y 1
 -1 d -2 Y 1 -1 d -4 Y 1 -1 d -2 Y 1 -1 d -3 Y 1 -1 d -4 Y 1 -1 d -2 Y s 1178 1109 m -3 Y 1 -1 d -4 Y 1 -2 d -3 Y 1 X -4 Y 1 -1 d -2 Y 1 -2 d -4 Y 1 -2 d -3 Y 1 -2 d -5 Y 1 -1 d -3 Y 1 -1 d s 1187 1066 m -5 Y 1 -2 d -5 Y 1 -1 d -2 Y 1 -1 d -4 Y 1 -1
 d -4 Y 1 -1 d -5 Y 1 -2 d -8 Y 1 -1 d -3 Y 1 -1 d -3 Y s 1195 1017 m 1 X -3 Y 1 X -5 Y 1 X -5 Y 1 -2 d -5 Y 1 -1 d -4 Y 1 X -4 Y 1 -1 d -6 Y 1 -1 d -3 Y 1 X -3 Y s 1204 974 m -2 Y 1 -1 d -5 Y 1 -1 d -5 Y 1 X -7 Y 1 -2 d -3 Y 1 -1 d -4 Y 1 -3 d -2 Y
 1 -2 d -7 Y 1 -2 d -3 Y 1 -1 d -2 Y s 1213 921 m -2 Y 1 X -5 Y 1 -2 d -6 Y 1 -1 d -5 Y 1 -3 d -6 Y 1 -1 d 1 Y -6 Y 1 X -5 Y 1 X -7 Y 1 -1 d -8 Y 1 -1 d s 1222 863 m -4 Y 1 -1 d -5 Y 1 X -4 Y 1 -3 d -4 Y 1 -1 d -4 Y 1 -1 d -4 Y 1 -2 d -4 Y 1 -2 d -2
 Y 1 -2 d -5 Y 1 -1 d s 1231 814 m -4 Y 1 X -6 Y 1 -3 d -6 Y 1 -1 d -5 Y 1 -2 d -3 Y 1 -1 d -4 Y 1 -1 d -3 Y 1 -2 d -5 Y 1 -1 d -8 Y s 1239 759 m 1 -1 d -6 Y 1 -3 d -5 Y 1 -1 d -3 Y 1 -3 d 1 Y -6 Y 1 -2 d -7 Y 1 -1 d -8 Y 1 -1 d -4 Y 1 X -8 Y 1 X -7
 Y s 1248 694 m -2 Y 1 -2 d -5 Y 1 -1 d -8 Y 1 -2 d -5 Y 1 Y -2 Y 1 X -5 Y 1 -2 d -6 Y 1 -2 d -6 Y 1 X -3 Y 1 X -6 Y 1 X -4 Y s 1257 634 m -2 Y 1 -3 d -7 Y 1 -1 d -6 Y 1 -1 d -5 Y 1 -2 d -4 Y 1 -1 d -10 Y 1 -1 d -6 Y 1 -1 d -11 Y 1 X -7 Y 1 -2 d -1 Y
 s 1266 563 m -5 Y 1 -2 d -4 Y 1 -1 d -1 Y 1 Y -3 Y 1 -2 d -8 Y 1 -1 d -3 Y 1 -1 d -5 Y 1 Y -3 Y 1 -2 d -3 Y 1 -1 d -7 Y 1 -2 d -8 Y 1 X s 1275 503 m -6 Y 1 -2 d -8 Y 1 X -9 Y 1 X -5 Y 1 -2 d -4 Y 1 X -3 Y 1 -2 d -4 Y 1 -1 d -4 Y 1 -1 d -9 Y s 1283
 443 m 1 -1 d -5 Y 1 -1 d -8 Y 1 -1 d -4 Y 1 X -8 Y 1 X -7 Y 1 -1 d -4 Y 1 -2 d -6 Y 1 -1 d -3 Y 1 -1 d -2 Y s 1292 388 m -2 Y 1 X -8 Y 1 -4 d -7 Y 1 -1 d -7 Y 1 -1 d -4 Y 1 X -8 Y 1 -1 d -1 Y 1 X -5 Y 1 -2 d -1 Y 1 -2 d -1 Y 1 Y -1 Y s 1301 333 m 1
 Y 1 -1 d -5 Y 1 -1 d -4 Y 1 X -5 Y 1 -4 d -2 Y 1 Y 1 -3 d -4 Y 1 -1 d -2 Y 1 -1 d 1 Y -2 Y 1 Y 1 X -2 Y 1 -3 d 1 Y -1 Y s 1310 297 m -2 Y 1 X 1 Y -3 Y 1 X -2 Y 1 Y 1 X -1 Y 1 X -4 Y 1 X -7 Y 1 -1 d -4 Y 1 X -3 Y 1 X 1 Y -2 Y 1 -1 d s 1319 270 m 1 X
 -2 Y 1 -1 d -4 Y 1 X 1 -1 d 1 X -2 Y 1 Y 1 X -6 Y 1 -2 d -4 Y 1 X -4 Y s 1327 245 m 1 -3 d -2 Y 1 X -2 Y 2 X -4 Y 2 X -4 Y 2 X -2 Y 1 X s 1336 228 m 1 X -2 Y 1 -2 d 3 X -2 Y 1 -2 d -3 Y 1 X 1 Y 1 X -3 Y 1 X s 1345 215 m 3 X -2 Y 6 X 1 Y s 1354 214 m
 2 X -3 Y 2 X -3 Y 1 X -4 Y 1 Y 4 X s 1363 205 m 8 X s 1371 205 m 9 X s 1380 205 m 6 X -4 Y 3 X s 1389 201 m 9 X s 1398 201 m 9 X s 1407 201 m 8 X s 1415 201 m 9 X s 1424 201 m 9 X s 1433 201 m 9 X s 1442 201 m 9 X s 1451 201 m 8 X s 1459 201 m 9 X s
 1468 201 m 9 X s 1477 201 m 9 X s 1486 201 m 9 X s 1495 201 m 8 X s 1503 201 m 9 X s 1512 201 m 9 X s 1521 201 m 9 X s 1530 201 m 9 X s 1539 201 m 8 X s 1547 201 m 9 X s 1556 201 m 9 X s 1565 201 m 9 X s 1574 201 m 9 X s 1583 201 m 8 X s 1591 201 m
 9 X s 1600 201 m 9 X s 1609 201 m 9 X s 1618 201 m 9 X s 1627 201 m 8 X s 1635 201 m 9 X s 1644 201 m 9 X s 1653 201 m 9 X s 1662 201 m 9 X s 1671 201 m 8 X s 1679 201 m 9 X s 1688 201 m 9 X s 1697 201 m 9 X s 1706 201 m 9 X s 1715 201 m 8 X s 1723
 201 m 9 X s 1732 201 m 9 X s 1741 201 m 9 X s 1750 201 m 9 X s 1759 201 m 8 X s 1767 201 m 9 X s 1776 201 m 9 X s 1785 201 m 9 X s 1794 201 m 9 X s 1803 201 m 9 X s 1812 201 m 8 X s 1820 201 m 9 X s 1829 201 m 9 X s 1838 201 m 9 X s 1847 201 m 9 X s
 1856 201 m 8 X s 1864 201 m 9 X s 1873 201 m 9 X s 1882 201 m 9 X s 1891 201 m 9 X s 1900 201 m 8 X s 1908 201 m 9 X s 1917 201 m 9 X s 1926 201 m 9 X s 1935 201 m 9 X s 1944 201 m 8 X s 1952 201 m 9 X s 1961 201 m 9 X s 1970 201 m 9 X s 1979 201 m
 9 X s 1988 201 m 8 X s 1996 201 m 9 X s 2005 201 m 9 X s 2014 201 m 9 X s 2023 201 m 9 X s 2032 201 m 8 X s 2040 201 m 1 X s black 3 lw 245 201 m 1796 X s 481 241 m -40 Y s 547 221 m -20 Y s 613 221 m -20 Y s 679 221 m -20 Y s 745 221 m -20 Y s 811
 241 m -40 Y s 877 221 m -20 Y s 943 221 m -20 Y s 1009 221 m -20 Y s 1075 221 m -20 Y s 1141 241 m -40 Y s 1207 221 m -20 Y s 1273 221 m -20 Y s 1339 221 m -20 Y s 1405 221 m -20 Y s 1471 241 m -40 Y s 1537 221 m -20 Y s 1603 221 m -20 Y s 1669 221
 m -20 Y s 1735 221 m -20 Y s 1801 241 m -40 Y s 481 241 m -40 Y s 415 221 m -20 Y s 349 221 m -20 Y s 283 221 m -20 Y s 1801 241 m -40 Y s 1867 221 m -20 Y s 1933 221 m -20 Y s 1999 221 m -20 Y s 245 201 m 1140 Y s 291 201 m -46 X s 268 253 m -23 X
 s 268 305 m -23 X s 268 357 m -23 X s 291 408 m -46 X s 268 460 m -23 X s 268 512 m -23 X s 268 564 m -23 X s 291 616 m -46 X s 268 667 m -23 X s 268 719 m -23 X s 268 771 m -23 X s 291 823 m -46 X s 268 875 m -23 X s 268 926 m -23 X s 268 978 m -23
 X s 291 1030 m -46 X s 268 1082 m -23 X s 268 1134 m -23 X s 268 1185 m -23 X s 291 1237 m -46 X s 291 1237 m -46 X s 268 1289 m -23 X s 268 1341 m -23 X s 0.490196 0.545098 0.615686 c 1 1 1 c 0.490196 0.545098 0.615686 c 907 201 245 1341 bl 245
 1341 m 907 X s 1152 1341 m 201 Y s 1152 1542 m -907 X s 245 1542 m -201 Y s black
 gsave  2268 1676 0 0 C 515.735 1471.36 t 0 r /Helvetica-Bold findfont 56.8825 sf 0 0 m (Signal efficiency) show NC gr  0 0 0.933333 c 9 lw 286 1492 m 190 X s black
 gsave  2268 1676 0 0 C 515.735 1368.97 t 0 r /Helvetica-Bold findfont 56.8825 sf 0 0 m (Background efficiency) show NC gr  1 0 0 c 286 1391 m 190 X s 0.490196 0.545098 0.615686 c 3 lw 1 1 1 c 0.490196 0.545098 0.615686 c 889 201 1152 1341 bl 1152
 1341 m 889 X s 2041 1341 m 201 Y s 2041 1542 m -889 X s 1152 1542 m -201 Y s black
 gsave  2268 1676 0 0 C 1418.27 1494.11 t 0 r /Helvetica-Bold findfont 56.8825 sf 0 0 m (Signal purity) show NC gr  0 0 0.933333 c[  52 12 ] 0 sd 6 lw 1192 1509 m 187 X s black
 gsave  2268 1676 0 0 C 1418.27 1429.65 t 0 r /Helvetica-Bold findfont 56.8825 sf 0 0 m (Signal efficiency*purity) show NC gr  0 0 0.933333 c[  22 12 ] 0 sd 1192 1441 m 187 X s black
 gsave  2268 1676 0 0 C 1501.7 1361.39 t 0 r /Helvetica-Bold findfont 56.8825 sf 0 0 m (S+B) show NC gr [  ] 0 sd 1483 1407 m 7 -49 d s 3 lw 1490 1358 m 8 64 d s 1498 1422 m 114 X s
 gsave  2268 1676 0 0 C 1418.27 1361.39 t 0 r /Helvetica-Bold findfont 56.8825 sf 0 0 m (S/) show NC gr  0 0.666667 0 c 9 lw 1192 1374 m 187 X s black 3 lw 245 1237 m 1796 X s
 gsave  2268 1676 0 0 C 337.503 386.801 t 0 r /Helvetica-Bold findfont 53.0904 sf 0 0 m (For 1000 signal and 1000 background) show NC gr 
 gsave  2268 1676 0 0 C 1058.01 318.542 t 0 r /Helvetica-Bold findfont 53.0904 sf 0 0 m ( is) show NC gr 
 gsave  2268 1676 0 0 C 955.626 318.542 t 0 r /Helvetica-Bold findfont 53.0904 sf 0 0 m (S+B) show NC gr  6 lw 933 360 m 7 -45 d s 3 lw 940 315 m 8 60 d s 948 375 m 110 X s
 gsave  2268 1676 0 0 C 337.503 318.542 t 0 r /Helvetica-Bold findfont 53.0904 sf 0 0 m (events the maximum S/) show NC gr 
 gsave  2268 1676 0 0 C 337.503 254.075 t 0 r /Helvetica-Bold findfont 53.0904 sf 0 0 m (25.92 when cutting at \2550.14) show NC gr  0.490196 0.545098 0.615686 c 0.364706 0.419608 0.490196 c 1471 96 23 1572 bf 0.490196 0.545098 0.615686 c 23 1572 m
 1471 X s 1494 1572 m 96 Y s 1494 1668 m -1471 X s 23 1668 m -96 Y s 1 1 1 c black 1 1 1 c
 gsave  2268 1676 0 0 C 75.8434 1600.29 t 0 r /Helvetica-Bold findfont 75.8434 sf 0 0 m (Cut efficiencies and optimal cut value) show NC gr  0 0.666667 0 c 2041 201 m 1140 Y s 1995 201 m 46 X s 2018 241 m 23 X s 2018 281 m 23 X s 2018 321 m 23 X s
 2018 361 m 23 X s 1995 401 m 46 X s 2018 441 m 23 X s 2018 481 m 23 X s 2018 521 m 23 X s 2018 561 m 23 X s 1995 601 m 46 X s 2018 641 m 23 X s 2018 681 m 23 X s 2018 721 m 23 X s 2018 761 m 23 X s 1995 801 m 46 X s 2018 841 m 23 X s 2018 881 m 23 X
 s 2018 921 m 23 X s 2018 961 m 23 X s 1995 1001 m 46 X s 2018 1041 m 23 X s 2018 1081 m 23 X s 2018 1121 m 23 X s 2018 1161 m 23 X s 1995 1201 m 46 X s 1995 1201 m 46 X s 2018 1241 m 23 X s 2018 1281 m 23 X s 2018 1321 m 23 X s black 0 0.666667 0 c
 gsave  2268 1676 0 0 C 2051.56 178.232 t 0 r /Helvetica-Bold findfont 64.4669 sf 0 0 m (0) show NC gr  black 0 0.666667 0 c
 gsave  2268 1676 0 0 C 2051.56 375.425 t 0 r /Helvetica-Bold findfont 64.4669 sf 0 0 m (5) show NC gr  black 0 0.666667 0 c
 gsave  2268 1676 0 0 C 2051.56 576.41 t 0 r /Helvetica-Bold findfont 64.4669 sf 0 0 m (10) show NC gr  black 0 0.666667 0 c
 gsave  2268 1676 0 0 C 2051.56 777.394 t 0 r /Helvetica-Bold findfont 64.4669 sf 0 0 m (15) show NC gr  black 0 0.666667 0 c
 gsave  2268 1676 0 0 C 2051.56 974.587 t 0 r /Helvetica-Bold findfont 64.4669 sf 0 0 m (20) show NC gr  black 0 0.666667 0 c
 gsave  2268 1676 0 0 C 2051.56 1175.57 t 0 r /Helvetica-Bold findfont 64.4669 sf 0 0 m (25) show NC gr  black 0 0.666667 0 c
 gsave  2268 1676 0 0 C 2203.25 963.211 t 90 r /Helvetica-Bold findfont 64.4669 sf 0 0 m (Significance) show NC gr 
 gr  gr showpage
end
%%EOF
