%!PS-Adobe-2.0 EPSF-2.0
%%BoundingBox:  0 0 567 419
%%Title: dataset/plots/mvaeffs_BDT.eps: Cut efficiencies for BDT classifier
%%Creator: ROOT Version 6.12/06
%%CreationDate: Mon May 21 13:38:15 2018
%%DocumentNeededResources: ProcSet (FontSetInit)
%%EndComments
%%BeginProlog
80 dict begin
/s {stroke} def /l {lineto} def /m {moveto} def /t {translate} def
/r {rotate} def /rl {roll}  def /R {repeat} def
/d {rlineto} def /rm {rmoveto} def /gr {grestore} def /f {eofill} def
/c {setrgbcolor} def /black {0 setgray} def /sd {setdash} def
/cl {closepath} def /sf {scalefont setfont} def /lw {setlinewidth} def
/box {m dup 0 exch d exch 0 d 0 exch neg d cl} def
/NC{systemdict begin initclip end}def/C{NC box clip newpath}def
/bl {box s} def /bf {gsave box gsave f grestore 1 lw [] 0 sd s grestore} def /Y { 0 exch d} def /X { 0 d} def 
/K {{pop pop 0 moveto} exch kshow} bind def
/ita {/ang 15 def gsave [1 0 ang dup sin exch cos div 1 0 0] concat} def 
/mp {newpath /y exch def /x exch def} def
/side {[w .77 mul w .23 mul] .385 w mul sd w 0 l currentpoint t -144 r} def
/mr {mp x y w2 0 360 arc} def /m24 {mr s} def /m20 {mr f} def
/mb {mp x y w2 add m w2 neg 0 d 0 w neg d w 0 d 0 w d cl} def
/mt {mp x y w2 add m w2 neg w neg d w 0 d cl} def
/w4 {w 4 div} def
/w6 {w 6 div} def
/w8 {w 8 div} def
/m21 {mb f} def /m25 {mb s} def /m22 {mt f} def /m26{mt s} def
/m23 {mp x y w2 sub m w2 w d w neg 0 d cl f} def
/m27 {mp x y w2 add m w3 neg w2 neg d w3 w2 neg d w3 w2 d cl s} def
/m28 {mp x w2 sub y w2 sub w3 add m w3 0 d  0 w3 neg d w3 0 d 0 w3 d w3 0 d  0 w3 d w3 neg 0 d 0 w3 d w3 neg 0 d 0 w3 neg d w3 neg 0 d cl s } def
/m29 {mp gsave x w2 sub y w2 add w3 sub m currentpoint t 4 {side} repeat cl fill gr} def
/m30 {mp gsave x w2 sub y w2 add w3 sub m currentpoint t 4 {side} repeat cl s gr} def
/m31 {mp x y w2 sub m 0 w d x w2 sub y m w 0 d x w2 sub y w2 add m w w neg d x w2 sub y w2 sub m w w d s} def
/m32 {mp x y w2 sub m w2 w d w neg 0 d cl s} def
/m33 {mp x y w2 add m w3 neg w2 neg d w3 w2 neg d w3 w2 d cl f} def
/m34 {mp x w2 sub y w2 sub w3 add m w3 0 d  0 w3 neg d w3 0 d 0 w3 d w3 0 d  0 w3 d w3 neg 0 d 0 w3 d w3 neg 0 d 0 w3 neg d w3 neg 0 d cl f } def
/m35 {mp x y w2 add m w2 neg w2 neg d w2 w2 neg d w2 w2 d w2 neg w2 d x y w2 sub m 0 w d x w2 sub y m w 0 d s} def
/m36 {mb x w2 sub y w2 add m w w neg d x w2 sub y w2 sub m w w d s} def
/m37 {mp x y m w4 neg w2 d w4 neg w2 neg d w2 0 d  w4 neg w2 neg d w2 0 d w4 neg w2 d w2 0 d w4 neg w2 d w4 neg w2 neg d cl s} def
/m38 {mp x w4 sub y w2 add m w4 neg w4 neg d 0 w2 neg d w4 w4 neg d w2 0 d w4 w4 d 0 w2 d w4 neg w4 d w2 neg 0 d x y w2 sub m 0 w d x w2 sub y m w 0 d cl s} def
/m39 {mp x y m w4 neg w2 d w4 neg w2 neg d w2 0 d  w4 neg w2 neg d w2 0 d w4 neg w2 d w2 0 d w4 neg w2 d w4 neg w2 neg d cl f} def
/m40 {mp x y m w4 w2 d w4 w4 neg d w2 neg w4 neg d w2 w4 neg d w4 neg w4 neg d w4 neg w2 d w4 neg w2 neg d w4 neg w4 d w2 w4 d w2 neg w4 d w4 w4 d w4 w2 neg d cl s} def
/m41 {mp x y m w4 w2 d w4 w4 neg d w2 neg w4 neg d w2 w4 neg d w4 neg w4 neg d w4 neg w2 d w4 neg w2 neg d w4 neg w4 d w2 w4 d w2 neg w4 d w4 w4 d w4 w2 neg d cl f} def
/m42 {mp x y w2 add m w8 neg w2 -3 4 div mul d w2 -3 4 div mul w8 neg d w2 3 4 div mul w8 neg d w8 w2 -3 4 div mul d w8 w2 3 4 div mul d w2 3 4 div mul w8 d w2 -3 4 div mul w8 d w8 neg w2 3 4 div mul d cl s} def
/m43 {mp x y w2 add m w8 neg w2 -3 4 div mul d w2 -3 4 div mul w8 neg d w2 3 4 div mul w8 neg d w8 w2 -3 4 div mul d w8 w2 3 4 div mul d w2 3 4 div mul w8 d w2 -3 4 div mul w8 d w8 neg w2 3 4 div mul d cl f} def
/m44 {mp x y m w6 neg w2 d w2 2 3 div mul 0 d w6 neg w2 neg d w2 w6 d 0 w2 -2 3 div mul d w2 neg w6 d w6 w2 neg d w2 -2 3 div mul 0 d w6 w2 d w2 neg w6 neg d 0 w2 2 3 div mul d w2 w6 neg d cl s} def
/m45 {mp x y m w6 neg w2 d w2 2 3 div mul 0 d w6 neg w2 neg d w2 w6 d 0 w2 -2 3 div mul d w2 neg w6 d w6 w2 neg d w2 -2 3 div mul 0 d w6 w2 d w2 neg w6 neg d 0 w2 2 3 div mul d w2 w6 neg d cl f} def
/m46 {mp x y w4 add m w4 neg w4 d w4 neg w4 neg d  w4 w4 neg d w4 neg w4 neg d w4 w4 neg d w4 w4 d w4 w4 neg d w4 w4 d w4 neg w4 d w4 w4 d w4 neg w4 d w4 neg w4 neg d cl s} def
/m47 {mp x y w4 add m w4 neg w4 d w4 neg w4 neg d w4 w4 neg d w4 neg w4 neg d  w4 w4 neg d w4 w4 d w4 w4 neg d w4 w4 d w4 neg w4 d w4 w4 d w4 neg w4 d w4 neg w4 neg d cl f} def
/m48 {mp x y w4 add m w4 neg w4 d w4 neg w4 neg d w4 w4 neg d  w4 neg w4 neg d w4 w4 neg d w4 w4 d w4 w4 neg d w4 w4 d w4 neg w4 d w4 w4 d w4 neg w4 d w4 neg w4 neg d  w4 w4 neg d w4 neg w4 neg d w4 neg w4 d w4 w4 d cl f} def
/m49 {mp x w2 sub w3 add y w2 sub w3 add m  0 w3 neg d w3 0 d 0 w3 d w3 0 d 0 w3 d w3 neg 0 d 0 w3 d w3 neg 0 d 0 w3 neg d w3 neg 0 d 0 w3 neg d w3 0 d 0 w3 d w3 0 d 0 w3 neg d w3 neg 0 d cl f } def
/m2 {mp x y w2 sub m 0 w d x w2 sub y m w 0 d s} def
/m5 {mp x w2 sub y w2 sub m w w d x w2 sub y w2 add m w w neg d s} def
%%IncludeResource: ProcSet (FontSetInit)
%%IncludeResource: font Times-Roman
%%IncludeResource: font Times-Italic
%%IncludeResource: font Times-Bold
%%IncludeResource: font Times-BoldItalic
%%IncludeResource: font Helvetica
%%IncludeResource: font Helvetica-Oblique
%%IncludeResource: font Helvetica-Bold
%%IncludeResource: font Helvetica-BoldOblique
%%IncludeResource: font Courier
%%IncludeResource: font Courier-Oblique
%%IncludeResource: font Courier-Bold
%%IncludeResource: font Courier-BoldOblique
%%IncludeResource: font Symbol
%%IncludeResource: font ZapfDingbats
/reEncode {exch findfont dup length dict begin {1 index /FID eq  {pop pop} {def} ifelse } forall /Encoding exch def currentdict end dup /FontName get exch definefont pop } def [/Times-Bold /Times-Italic /Times-BoldItalic /Helvetica /Helvetica-Oblique
 /Helvetica-Bold /Helvetica-BoldOblique /Courier /Courier-Oblique /Courier-Bold /Courier-BoldOblique /Times-Roman /AvantGarde-Book /AvantGarde-BookOblique /AvantGarde-Demi /AvantGarde-DemiOblique /Bookman-Demi /Bookman-DemiItalic /Bookman-Light
 /Bookman-LightItalic /Helvetica-Narrow /Helvetica-Narrow-Bold /Helvetica-Narrow-BoldOblique /Helvetica-Narrow-Oblique /NewCenturySchlbk-Roman /NewCenturySchlbk-Bold /NewCenturySchlbk-BoldItalic /NewCenturySchlbk-Italic /Palatino-Bold
 /Palatino-BoldItalic /Palatino-Italic /Palatino-Roman ] {ISOLatin1Encoding reEncode } forall
%%EndProlog
%%BeginSetup
%%EndSetup
newpath  gsave  .25 .25 scale  gsave  0 0 t 0.490196 0.545098 0.615686 c[  ] 0 sd 3 lw 0.941176 0.941176 0.941176 c 2268 1676 0 0 bf black 1 1 0.992157 c 1796 1140 245 201 bf black 1796 1140 245 201 bl 1 1 0.992157 c 1796 1140 245 201 bf black 1796
 1140 245 201 bl 245 201 m 1796 X s[ 4 8] 0 sd 433 1341 m -1140 Y s 788 1341 m -1140 Y s 1142 1341 m -1140 Y s 1496 1341 m -1140 Y s 1851 1341 m -1140 Y s 433 1341 m -1140 Y s 1851 1341 m -1140 Y s[  ] 0 sd 245 201 m 1140 Y s[ 4 8] 0 sd 2041 201 m
 -1796 X s 2041 408 m -1796 X s 2041 616 m -1796 X s 2041 823 m -1796 X s 2041 1030 m -1796 X s 2041 1237 m -1796 X s 2041 1237 m -1796 X s 0 0 0.933333 c[  22 12 ] 0 sd 6 lw 0.49 0.6 0.82 c black 0 0 0.933333 c 245 719 m 9 X s 254 719 m 2 X 108 Y 7
 X s 263 827 m 8 X s 271 827 m 4 X 29 Y 5 X s 280 856 m 9 X s 289 856 m 9 X s 298 856 m 9 X s 307 856 m 8 X s 315 856 m 7 X 2 Y 2 X s 324 858 m 9 X s 333 858 m 7 X 1 Y 2 X s 342 859 m 9 X s 351 859 m 8 X s 359 859 m 3 X 4 Y 6 X s 368 863 m 9 X s 377
 863 m 9 X s 386 863 m 9 X s 395 863 m 6 X 1 Y 2 X s 403 864 m 9 X s 412 864 m 3 X 1 Y 6 X s 421 865 m 6 X 1 Y 3 X s 430 866 m 8 X 1 Y 1 X s 439 867 m 8 X s 447 867 m 6 X 1 Y 3 X s 456 868 m 9 X s 465 868 m 9 X s 474 868 m 7 X 1 Y 2 X s 483 869 m 8 X
 s 491 869 m 9 X s 500 869 m 9 X s 509 869 m 9 X s 518 869 m 9 X s 527 869 m 8 X s 535 869 m 9 X s 544 869 m 9 X s 553 869 m 9 X s 562 869 m 9 X s 571 869 m 8 X s 579 869 m 4 X 1 Y 5 X s 588 870 m 9 X s 597 870 m 9 X s 606 870 m 9 X s 615 870 m 5 X 1
 Y 3 X s 623 871 m 9 X s 632 871 m 9 X s 641 871 m 9 X s 650 871 m 9 X s 659 871 m 8 X s 667 871 m 9 X s 676 871 m 9 X s 685 871 m 9 X s 694 871 m 6 X 1 Y 2 X 2 Y 1 X s 703 874 m 8 X s 711 874 m 2 X 2 Y 6 X 2 Y 1 X s 720 878 m 9 X s 729 878 m 2 X 1 Y
 7 X s 738 879 m 9 X s 747 879 m 8 X s 755 879 m 6 X 1 Y 3 X s 764 880 m 2 X 1 Y 7 X s 773 881 m 9 X s 782 881 m 9 X s 791 881 m 8 X s 799 881 m 6 X 1 Y 3 X s 808 882 m 9 X s 817 882 m 9 X s 826 882 m 9 X s 835 882 m 8 X s 843 882 m 4 X 1 1 d 4 X 1 Y
 s 852 884 m 9 X s 861 884 m 3 X 1 1 d 5 X s 870 885 m 7 X 1 Y 2 X s 879 886 m 8 X s 887 886 m 9 X s 896 886 m 9 X s 905 886 m 9 X s 914 886 m 9 X s 923 886 m 6 X 1 1 d 1 X s 931 887 m 9 X s 940 887 m 8 X 1 Y 1 X s 949 888 m 9 X s 958 888 m 9 X s 967
 888 m 8 X s 975 888 m 9 X s 984 888 m 9 X s 993 888 m 3 X 1 Y 6 X s 1002 889 m 9 X s 1011 889 m 8 X s 1019 889 m 9 X s 1028 889 m 9 X s 1037 889 m 9 X s 1046 889 m 3 X 1 Y 6 X s 1055 890 m 8 X s 1063 890 m 6 X 1 Y 3 X s 1072 891 m 3 X 1 Y 6 X s 1081
 892 m 9 X s 1090 892 m 9 X s 1099 892 m 8 X s 1107 892 m 9 X s 1116 892 m 9 X s 1125 892 m 9 X s 1134 892 m 4 X 1 Y 5 X s 1143 893 m 8 X s 1151 893 m 9 X s 1160 893 m 9 X s 1169 893 m 9 X s 1178 893 m 2 X 1 1 d 6 X s 1187 894 m 8 X s 1195 894 m 9 X
 s 1204 894 m 5 X 1 1 d 3 X s 1213 895 m 9 X s 1222 895 m 9 X s 1231 895 m 8 X s 1239 895 m 9 X s 1248 895 m 4 X 1 1 d 4 X s 1257 896 m 9 X s 1266 896 m 6 X 1 Y 3 X s 1275 897 m -1 Y 1 X 1 Y 7 X s 1283 897 m 6 X -1 Y 3 X s 1292 896 m 9 X s 1301 896 m
 9 X s 1310 896 m 9 X s 1319 896 m 8 X s 1327 896 m 3 X 1 -1 d 1 Y 5 X s 1336 896 m 3 X -1 Y 6 X s 1345 895 m 9 X s 1354 895 m 6 X -1 Y 3 X s 1363 894 m 8 X s 1371 894 m 2 X 1 -1 d 1 1 d 3 X 1 -1 d 1 X s 1380 893 m 9 X s 1389 893 m 1 X 1 Y 1 X -1 Y 1
 Y 3 X -1 Y 4 X s 1398 893 m 1 X 1 Y 1 X -1 Y 7 X s 1407 893 m 1 1 d 1 X 1 -1 d 4 X -1 Y 1 X s 1415 892 m 4 X -1 Y 2 X 1 Y 3 X s 1424 892 m 1 -1 d 1 Y -1 Y 5 X -1 Y 1 X 1 Y -1 Y 2 X s 1433 890 m -1 Y 7 X 1 -1 d 1 1 d s 1442 889 m -1 Y 2 X 1 Y 1 X -5
 Y 2 X -1 Y 2 X -1 Y 2 X s 1451 882 m -1 Y 1 X -1 Y 1 Y 1 X -1 Y 1 X 1 Y 1 X 1 -1 d 1 X 1 -1 d 1 Y -2 Y 1 X s 1459 878 m 1 -1 d -1 Y 1 X 1 Y -1 Y 1 1 d -1 Y 1 X -1 Y 1 X -1 Y 1 X -1 Y 1 X -1 Y 1 X -1 Y 1 X -1 Y s 1468 870 m 1 Y 1 X -1 Y 1 X -1 Y 1 X
 -1 Y 1 X -1 Y 1 X -1 Y 1 X -1 Y 1 -1 d -1 Y 2 X s 1477 863 m 1 X -2 Y 1 -1 d 1 Y -1 Y 1 -1 d 1 X -1 Y 1 X -1 Y 1 1 d -1 Y 1 X -2 Y 1 X -1 Y 1 X -2 Y s 1486 852 m 1 X -1 Y 2 X -1 Y 1 X -1 Y 1 -1 d 1 Y -1 Y 1 X -2 Y 1 -1 d 1 -1 d -1 Y 1 X s 1495 843 m
 1 X -1 Y 1 Y 1 X -1 Y 1 X -1 Y 1 1 d -1 Y 1 X -2 Y 1 Y 1 -1 d -1 Y 1 X -1 Y 1 -1 d -2 Y s 1503 834 m 1 -1 d 1 Y -1 Y 1 X -3 Y 1 X 1 Y 1 -1 d -2 Y 1 -1 d -2 Y 1 X -1 Y 1 X -1 Y 1 X -2 Y 1 X s 1512 821 m 1 -1 d -1 Y 1 X -1 Y 1 X -2 Y 1 X -1 Y 1 X -2 Y
 1 1 d -1 Y 1 X -1 Y 1 X -2 Y 1 -1 d -2 Y s 1521 807 m -1 Y 1 X -1 Y 1 -1 d -1 Y 2 X -2 Y 1 X -3 Y 1 -1 d -2 Y 1 X -2 Y 1 X -1 Y 1 -1 d 1 Y -2 Y s 1530 790 m 1 X -1 Y 1 X -2 Y 1 X -1 Y 1 X -1 Y 1 -1 d -1 Y 1 -1 d 1 X -1 Y 1 X -2 Y 1 X s 1539 779 m -3
 Y 1 X -3 Y 1 X -3 Y 1 X -6 Y 2 X -2 Y 1 X -1 Y 2 X -1 Y s 1547 760 m 1 X -1 Y 1 -2 d -1 Y 1 -1 d -1 Y 1 -1 d -3 Y 1 X 1 -2 d -6 Y 1 X -1 Y 1 Y -2 Y 1 -1 d -2 Y 1 X -1 Y s 1556 736 m 1 1 d -2 Y 1 X -2 Y 1 X -4 Y 1 X -2 Y 1 -1 d -1 Y 1 X -3 Y 1 -1 d
 -1 Y 1 X -3 Y 1 -1 d -2 Y s 1565 714 m -1 Y 1 X -3 Y 1 X 1 Y -1 Y 1 -1 d -2 Y 1 X -2 Y 1 X -5 Y 1 -1 d -2 Y 1 -1 d -4 Y 1 X -2 Y 1 -1 d -1 Y s 1574 688 m -1 Y 1 -1 d -2 Y 1 X -3 Y 1 -1 d -1 Y 1 X -1 Y 1 Y -1 Y 1 X -1 Y 1 X -2 Y 1 X -4 Y 1 -1 d -3 Y
 1 -1 d -2 Y s 1583 664 m -1 Y 1 -1 d -1 Y 1 X -2 Y 1 -1 d -2 Y 1 X -1 Y 1 X -1 Y 1 X -2 Y 1 -1 d -4 Y 1 X -5 Y s 1591 642 m 1 X -2 Y 1 X -3 Y 1 -1 d -2 Y 1 X -3 Y 1 X -2 Y 1 X -1 Y 1 -1 d -1 Y 1 -1 d -2 Y 1 X -3 Y s 1600 620 m 1 X -2 Y 1 X -1 Y 1 Y
 -1 Y 1 X -1 Y 1 -1 d -5 Y 1 X -2 Y 1 X -2 Y 1 -2 d -2 Y 1 X -2 Y 1 -1 d -2 Y s 1609 597 m -1 Y 1 -1 d -3 Y 1 X -6 Y 1 X -4 Y 1 X -4 Y 1 -1 d -3 Y 1 X -3 Y 1 -2 d -4 Y 1 X -2 Y 1 -1 d s 1618 562 m -3 Y 1 X -3 Y 1 X -3 Y 1 X -4 Y 1 X -4 Y 2 X -2 Y 1
 -1 d -3 Y 1 -1 d -5 Y 1 X -1 Y s 1627 532 m -1 Y 1 -1 d -2 Y 1 -1 d -2 Y 1 -1 d 1 Y -4 Y 1 X -1 Y 1 X -2 Y 1 X -1 Y 1 -1 d -1 Y 1 X -2 Y 1 Y -1 Y s 1635 513 m 1 -1 d -1 Y 1 -1 d -5 Y 1 X -3 Y 1 Y -1 Y 1 -1 d 1 Y -3 Y 1 -1 d -2 Y 1 X -1 Y 1 Y -1 Y 1
 X -2 Y 1 X -1 Y 1 X -2 Y s 1644 490 m 1 -2 d -2 Y 1 -1 d -2 Y 1 Y -1 Y 1 X -2 Y 1 X -6 Y 1 -1 d -2 Y 1 -1 d -1 Y 1 -1 d -1 Y 1 -1 d -2 Y 1 -1 d s 1653 464 m -2 Y 1 X -1 Y 1 X -2 Y 1 -1 d -1 Y 1 Y -2 Y 1 X -3 Y 1 -1 d -4 Y 1 -1 d -1 Y 1 -1 d -1 Y 1 X
 -2 Y 1 X -2 Y s 1662 440 m -1 Y 1 X -4 Y 1 X -4 Y 1 -1 d -2 Y 1 X -1 Y 1 X -5 Y 1 -1 d -1 Y 1 X -1 Y 1 -2 d 1 Y -2 Y 1 X s 1671 416 m -2 Y 1 X -2 Y 1 1 d -3 Y 1 X -2 Y 1 -1 d 1 X -2 Y 1 X -2 Y 1 X -1 Y 1 X -3 Y s 1679 399 m 1 X -2 Y 1 X -5 Y 1 X -4
 Y 1 X -2 Y 1 X -13 Y 1 Y -2 Y 1 -1 d -1 Y 1 X -1 Y 1 X -3 Y 1 X -2 Y s 1688 364 m -1 Y 1 -1 d -1 Y 1 -1 d -1 Y 1 X -1 Y 1 -3 d -1 Y 1 -1 d -3 Y 1 X -1 Y 1 -1 d -1 Y 1 -1 d -1 Y 1 X -1 Y s 1697 344 m -2 Y 1 X -1 Y 1 X -3 Y 1 Y 1 X -2 Y 1 X -1 Y 1 -1
 d -1 Y 1 -1 d 1 X -2 Y 2 X s 1706 331 m -1 Y 2 X 1 -1 d -2 Y 1 X -1 Y 2 X -1 Y 3 X s 1715 325 m -1 Y 4 X -1 Y 1 X -1 Y 1 X 1 -1 d -1 Y 1 -1 d s 1723 319 m 1 X -1 Y 1 X 1 -1 d -1 Y 2 X -1 Y 1 X 1 -1 d 2 X s 1732 314 m 2 X 1 -1 d 1 X -1 Y 2 X 1 -1 d 2
 X s 1741 311 m 1 X -1 Y 4 X -1 Y 4 X -8 Y s 1750 301 m 2 X -1 Y 1 X 1 Y 1 X 1 -4 d -1 Y 4 X s 1759 296 m 4 X -1 Y 3 X -1 Y 1 X s 1767 294 m 2 X -1 Y 1 1 d 2 X -1 Y 1 1 d -2 Y 3 X s 1776 292 m 3 X -1 Y 2 X -1 Y 3 X -1 Y 1 X s 1785 289 m 1 X -1 Y 1 X
 -1 Y 1 X 1 Y 2 X 1 -1 d 3 X s 1794 287 m 5 X -1 Y 2 X 1 Y 1 X -1 Y 1 Y 1 X s 1803 287 m -1 Y 1 X -1 Y 4 X -1 Y 4 X s 1812 284 m 5 X 1 -14 d 2 X s 1820 270 m 4 X -1 Y 1 X 1 -1 d 1 X -1 Y 2 X s 1829 267 m 4 X -2 Y 3 X -1 Y 2 X s 1838 264 m 1 X 1 -1 d
 7 X s 1847 263 m -1 Y 6 X -1 Y 3 X s 1856 261 m 1 -2 d -1 Y 7 X s 1864 258 m 2 X -2 Y 6 X -1 Y 1 X s 1873 255 m 2 X -1 Y 4 X -1 Y 1 X -1 Y 2 X s 1882 252 m 4 X -1 Y 2 X 1 Y 1 X 1 -1 d 1 X s 1891 251 m -1 Y 1 -1 d 4 X -1 Y 4 X s 1900 248 m 8 X s 1908
 248 m 9 X s 1917 248 m 7 X -1 Y 2 X s 1926 247 m 5 X -1 Y 4 X s 1935 246 m -21 Y 9 X s 1944 225 m 8 X s 1952 225 m 9 X s 1961 225 m 3 X -1 Y 6 X s 1970 224 m -1 Y 9 X s 1979 223 m 1 X -1 Y 8 X s 1988 222 m 2 X -1 Y 5 X -1 Y 1 X s 1996 220 m 6 X -6 Y
 3 X s 2005 214 m 9 X s 2014 214 m 2 X -2 Y 7 X s 2023 212 m 9 X s 2032 212 m 8 X s 2040 212 m 1 X s black[  ] 0 sd 3 lw 245 201 m 1796 X s 433 241 m -40 Y s 522 221 m -20 Y s 611 221 m -20 Y s 699 221 m -20 Y s 788 241 m -40 Y s 876 221 m -20 Y s
 965 221 m -20 Y s 1053 221 m -20 Y s 1142 241 m -40 Y s 1231 221 m -20 Y s 1319 221 m -20 Y s 1408 221 m -20 Y s 1496 241 m -40 Y s 1585 221 m -20 Y s 1674 221 m -20 Y s 1762 221 m -20 Y s 1851 241 m -40 Y s 433 241 m -40 Y s 345 221 m -20 Y s 256
 221 m -20 Y s 1851 241 m -40 Y s 1939 221 m -20 Y s 2028 221 m -20 Y s
 gsave  2268 1676 0 0 C 401.97 128.934 t 0 r /Helvetica-Bold findfont 64.4669 sf 0 0 m (0.6) show NC gr 
 gsave  2268 1676 0 0 C 371.632 128.934 t 0 r /Symbol findfont 64.4669 sf 0 0 m (-) show NC gr 
 gsave  2268 1676 0 0 C 754.641 128.934 t 0 r /Helvetica-Bold findfont 64.4669 sf 0 0 m (0.4) show NC gr 
 gsave  2268 1676 0 0 C 720.512 128.934 t 0 r /Symbol findfont 64.4669 sf 0 0 m (-) show NC gr 
 gsave  2268 1676 0 0 C 1111.11 128.934 t 0 r /Helvetica-Bold findfont 64.4669 sf 0 0 m (0.2) show NC gr 
 gsave  2268 1676 0 0 C 1080.77 128.934 t 0 r /Symbol findfont 64.4669 sf 0 0 m (-) show NC gr 
 gsave  2268 1676 0 0 C 1475.15 128.934 t 0 r /Helvetica-Bold findfont 64.4669 sf 0 0 m (0) show NC gr 
 gsave  2268 1676 0 0 C 1805.07 128.934 t 0 r /Helvetica-Bold findfont 64.4669 sf 0 0 m (0.2) show NC gr 
 gsave  2268 1676 0 0 C 925.289 30.3373 t 0 r /Helvetica-Bold findfont 72.0512 sf 0 0 m (Cut value applied on BDT output) show NC gr  245 201 m 1140 Y s 291 201 m -46 X s 268 253 m -23 X s 268 305 m -23 X s 268 357 m -23 X s 291 408 m -46 X s 268 460
 m -23 X s 268 512 m -23 X s 268 564 m -23 X s 291 616 m -46 X s 268 667 m -23 X s 268 719 m -23 X s 268 771 m -23 X s 291 823 m -46 X s 268 875 m -23 X s 268 926 m -23 X s 268 978 m -23 X s 291 1030 m -46 X s 268 1082 m -23 X s 268 1134 m -23 X s
 268 1185 m -23 X s 291 1237 m -46 X s 291 1237 m -46 X s 268 1289 m -23 X s 268 1341 m -23 X s
 gsave  2268 1676 0 0 C 182.024 178.232 t 0 r /Helvetica-Bold findfont 64.4669 sf 0 0 m (0) show NC gr 
 gsave  2268 1676 0 0 C 128.934 383.009 t 0 r /Helvetica-Bold findfont 64.4669 sf 0 0 m (0.2) show NC gr 
 gsave  2268 1676 0 0 C 125.142 591.578 t 0 r /Helvetica-Bold findfont 64.4669 sf 0 0 m (0.4) show NC gr 
 gsave  2268 1676 0 0 C 128.934 796.355 t 0 r /Helvetica-Bold findfont 64.4669 sf 0 0 m (0.6) show NC gr 
 gsave  2268 1676 0 0 C 125.142 1004.92 t 0 r /Helvetica-Bold findfont 64.4669 sf 0 0 m (0.8) show NC gr 
 gsave  2268 1676 0 0 C 189.608 1213.49 t 0 r /Helvetica-Bold findfont 64.4669 sf 0 0 m (1) show NC gr 
 gsave  2268 1676 0 0 C 64.4669 731.888 t 90 r /Helvetica-Bold findfont 72.0512 sf 0 0 m (Efficiency \(Purity\)) show NC gr  0 0 0.933333 c[  52 12 ] 0 sd 6 lw 0.49 0.6 0.82 c black 0 0 0.933333 c 245 719 m 9 X s 254 719 m 2 X 108 Y 7 X s 263 827 m 8
 X s 271 827 m 4 X 29 Y 5 X s 280 856 m 9 X s 289 856 m 9 X s 298 856 m 9 X s 307 856 m 8 X s 315 856 m 7 X 2 Y 2 X s 324 858 m 9 X s 333 858 m 7 X 1 Y 2 X s 342 859 m 9 X s 351 859 m 8 X s 359 859 m 3 X 4 Y 6 X s 368 863 m 9 X s 377 863 m 9 X s 386
 863 m 9 X s 395 863 m 6 X 1 Y 2 X s 403 864 m 9 X s 412 864 m 3 X 1 Y 6 X s 421 865 m 6 X 1 Y 3 X s 430 866 m 8 X 1 Y 1 X s 439 867 m 8 X s 447 867 m 6 X 1 Y 3 X s 456 868 m 9 X s 465 868 m 9 X s 474 868 m 7 X 1 Y 2 X s 483 869 m 8 X s 491 869 m 9 X
 s 500 869 m 9 X s 509 869 m 9 X s 518 869 m 9 X s 527 869 m 8 X s 535 869 m 9 X s 544 869 m 9 X s 553 869 m 9 X s 562 869 m 9 X s 571 869 m 8 X s 579 869 m 4 X 1 Y 5 X s 588 870 m 9 X s 597 870 m 9 X s 606 870 m 9 X s 615 870 m 5 X 1 Y 3 X s 623 871
 m 9 X s 632 871 m 9 X s 641 871 m 9 X s 650 871 m 9 X s 659 871 m 8 X s 667 871 m 9 X s 676 871 m 9 X s 685 871 m 9 X s 694 871 m 6 X 1 Y 2 X 2 Y 1 X s 703 874 m 8 X s 711 874 m 2 X 2 Y 6 X 2 Y 1 X s 720 878 m 9 X s 729 878 m 2 X 1 Y 7 X s 738 879 m
 9 X s 747 879 m 8 X s 755 879 m 6 X 1 Y 3 X s 764 880 m 2 X 1 Y 7 X s 773 881 m 9 X s 782 881 m 9 X s 791 881 m 8 X s 799 881 m 6 X 1 Y 3 X s 808 882 m 9 X s 817 882 m 9 X s 826 882 m 9 X s 835 882 m 8 X s 843 882 m 4 X 1 1 d 4 X 1 Y s 852 884 m 9 X
 s 861 884 m 3 X 1 1 d 5 X s 870 885 m 7 X 1 Y 2 X s 879 886 m 8 X s 887 886 m 9 X s 896 886 m 9 X s 905 886 m 9 X s 914 886 m 9 X s 923 886 m 6 X 1 1 d 1 X s 931 887 m 9 X s 940 887 m 8 X 1 Y 1 X s 949 888 m 9 X s 958 888 m 9 X s 967 888 m 8 X s 975
 888 m 9 X s 984 888 m 9 X s 993 888 m 3 X 1 Y 6 X s 1002 889 m 9 X s 1011 889 m 8 X s 1019 889 m 9 X s 1028 889 m 9 X s 1037 889 m 9 X s 1046 889 m 3 X 1 Y 6 X s 1055 890 m 8 X s 1063 890 m 6 X 1 Y 3 X s 1072 891 m 3 X 1 Y 6 X s 1081 892 m 9 X s
 1090 892 m 9 X s 1099 892 m 8 X s 1107 892 m 9 X s 1116 892 m 9 X s 1125 892 m 9 X s 1134 892 m 4 X 1 Y 5 X s 1143 893 m 8 X s 1151 893 m 9 X s 1160 893 m 9 X s 1169 893 m 9 X s 1178 893 m 2 X 1 1 d 6 X s 1187 894 m 8 X s 1195 894 m 9 X s 1204 894 m
 3 X 1 Y 6 X s 1213 895 m 9 X s 1222 895 m 9 X s 1231 895 m 4 X 1 Y 4 X s 1239 896 m 9 X s 1248 896 m 4 X 1 1 d 4 X s 1257 897 m 9 X s 1266 897 m 6 X 1 Y 3 X s 1275 898 m 8 X s 1283 898 m 9 X s 1292 898 m 9 X s 1301 898 m 9 X s 1310 898 m 4 X 1 Y 1 X
 -1 Y 1 X 1 Y 3 X s 1319 899 m 8 X s 1327 899 m 9 X s 1336 899 m 9 X s 1345 899 m 9 X s 1354 899 m 9 X s 1363 899 m 8 X s 1371 899 m 3 X 1 1 d 5 X s 1380 900 m 8 X 1 Y 1 X s 1389 901 m 9 X s 1398 901 m 2 X 1 Y 1 X -1 Y 4 X 1 Y 2 X s 1407 902 m 2 X 1
 1 d -1 Y 1 1 d 3 X -1 Y 1 Y 1 X s 1415 903 m 1 X 1 -1 d 1 Y 2 X -1 Y 1 Y 2 X 1 Y 3 X 1 Y s 1424 905 m 4 X 1 Y 1 X -1 Y 1 Y 4 X s 1433 906 m 1 Y 5 X 1 Y 3 X 1 Y 1 X s 1442 909 m 2 X 1 Y 1 X -1 Y 1 1 d 2 X 1 1 d 1 X 1 Y -1 Y 1 X s 1451 911 m 1 X 1 Y 1
 X 1 Y -1 Y 1 X 2 Y 2 X 1 Y 2 X 1 Y -1 Y 1 Y 1 X s 1459 916 m 1 1 d 1 X 1 Y 2 X 1 Y 1 X 1 1 d 1 X 1 1 d 1 X s 1468 921 m 1 Y 1 X 1 Y 1 X 1 1 d 1 X 1 Y 1 X -1 Y 1 Y 1 X -1 Y 1 Y 1 -1 d 1 Y 1 X 1 Y 1 X 1 Y s 1477 927 m 3 X 1 Y 1 X 1 Y 1 X 1 Y 1 1 d 1 Y
 1 X -1 Y 1 X 1 Y 1 X 1 Y -1 Y s 1486 932 m 1 Y 1 X 1 Y 1 X 1 Y 1 1 d -1 Y 1 Y 1 X 1 Y 1 X 1 Y 1 X 1 1 d 2 X s 1495 939 m 1 Y 1 X 2 Y 1 X 1 Y 1 1 d 1 1 d 1 Y 1 X 1 Y 1 X 1 Y 1 X 1 Y 1 X s 1503 949 m 1 X 1 Y 1 X 1 Y 1 X 2 Y 1 X 1 Y 1 X 1 1 d 1 1 d 1 Y
 1 1 d 1 Y 1 X 1 Y s 1512 960 m 1 1 d -1 Y 2 Y 1 -1 d 1 Y 1 X 1 Y 2 X 1 1 d 1 1 d -1 Y 1 Y 1 X 1 Y 1 X s 1521 966 m 1 1 d 1 X 1 Y 1 1 d 1 Y 2 X 1 Y 1 X 1 Y 1 X 1 1 d 1 X 1 Y -1 Y s 1530 973 m 1 1 d 1 Y 1 X 1 Y 1 X 2 Y 1 X 1 Y -1 Y 1 Y 1 X 1 Y 1 1 d 2
 Y 1 X 2 Y 1 X 1 1 d s 1539 986 m 1 Y -1 Y 1 X 2 Y 1 -1 d 1 Y 2 X 1 Y 2 X 1 Y 1 X 1 Y 1 X 1 Y s 1547 992 m 1 X 1 Y 1 X 1 Y 2 X 1 Y 1 X 1 1 d 1 Y -1 Y 1 Y 1 X 1 Y 2 X 1 Y s 1556 999 m 1 Y 1 X 1 Y 1 X 1 Y -1 Y 1 Y 1 X 1 Y 1 1 d 2 Y 1 X 1 Y 2 X -1 Y 2 Y
 1 X 1 Y 1 X s 1565 1009 m 1 Y 1 1 d 1 X 1 Y 1 X 3 Y 2 X 1 Y -1 Y 2 X 1 Y -1 Y 1 Y 1 X -1 Y 1 X 1 Y s 1574 1016 m 1 X 1 Y 1 -1 d 2 Y 1 X 2 Y 1 X 1 Y -1 Y 1 1 d 1 X 1 Y 1 X 1 Y -1 Y 1 X 1 Y 1 X -1 Y s 1583 1022 m 1 X 1 Y 1 X 1 1 d 1 Y 1 X 3 Y 1 X 1 Y
 1 1 d 1 X 1 Y 1 X s 1591 1031 m 2 X 1 Y -1 Y 2 X 1 1 d 1 Y 1 X 3 Y 1 -1 d 1 Y 1 -1 d 1 X s 1600 1035 m 1 X 1 Y 1 X 1 Y 1 X 1 Y 1 X -1 Y 1 X 2 Y 2 X 1 Y 1 X 2 Y 1 X 1 Y s 1609 1043 m 3 X -1 Y 2 Y -1 Y 1 Y 1 X 1 Y 1 X -1 Y 2 Y -1 Y 1 1 d -1 Y 1 X 1 Y
 -1 Y 1 1 d 1 Y -1 Y 2 Y 1 1 d 1 Y s 1618 1050 m 1 1 d -1 Y 1 Y -1 Y 1 X 1 Y 1 X 2 Y 1 X -1 Y 1 Y -1 Y 1 X 3 Y 1 X 1 Y 1 1 d 1 Y 1 -1 d -1 Y 1 X s 1627 1056 m 1 X -1 Y 2 X 1 Y 1 X 1 1 d 1 Y 2 X 2 Y 1 1 d 1 Y -1 Y 2 Y s 1635 1063 m 1 X 3 Y 1 1 d -2 Y
 1 Y 1 X -1 Y 1 Y 1 X 2 Y -1 Y 2 X 2 Y -1 Y 1 1 d 1 X 3 Y 1 1 d -1 Y 1 Y -1 Y s 1644 1072 m 1 X 1 Y 1 X -1 Y 2 Y 1 X -1 Y 1 Y 1 X 1 Y -3 Y 1 1 d 2 Y 1 X 2 Y 1 X -1 Y 3 Y -1 Y 1 1 d -1 Y 1 X -1 Y 2 Y s 1653 1079 m 1 X 2 Y 1 X 1 Y 1 -1 d 2 Y 2 X 1 Y -1
 Y 1 X 1 Y -1 Y 1 X 2 Y 1 X 1 Y 1 -1 d s 1662 1085 m 1 Y 1 1 d -1 Y 1 1 d -1 Y 1 Y -1 Y 1 -1 d 1 Y 2 X 1 Y -2 Y 2 X 1 Y 1 -1 d 1 Y 1 1 d 2 Y s 1671 1089 m 3 Y -1 Y 1 X -1 Y 1 2 d -1 Y 1 1 d 1 Y -1 Y 1 X 2 Y 1 X -1 Y 1 3 d -1 Y 1 Y 1 X 1 Y 1 X 3 Y s
 1679 1100 m 1 2 d 2 Y 1 2 d 1 Y -1 Y 1 X -1 Y 1 Y -1 Y 1 1 d -1 Y 1 2 d 1 Y -7 Y 1 Y 1 -1 d 5 Y 1 -1 d 1 Y 1 -1 d 1 1 d s 1688 1106 m 1 -1 d 1 Y 1 X 1 Y 1 X -1 Y 1 -1 d 3 Y 1 X -1 Y 1 2 d 2 Y -1 Y 1 X -2 Y 1 X 3 Y 1 X -1 Y 2 Y s 1697 1112 m 1 Y 1 1
 d 1 Y -1 Y 1 X -1 Y 5 Y 1 X -1 Y 2 Y 1 -1 d 2 Y 1 -1 d -1 Y 1 1 d -1 Y 2 Y 2 X 3 Y 1 -1 d s 1706 1122 m 1 X -1 Y 2 X -2 Y 2 X 1 Y 1 X -1 Y 2 X 3 Y 1 X s 1715 1122 m 2 X 1 Y 1 -1 d 2 X 2 Y 1 X -1 Y 1 X -1 Y 1 X 2 Y s 1723 1124 m 1 X -1 Y 1 Y 1 X 1 Y
 1 -1 d -1 Y 1 X 1 2 d 1 Y 1 X 1 Y 3 X 1 Y s 1732 1128 m 1 X -1 Y 3 X 1 Y 1 -1 d 4 X -1 Y s 1741 1126 m 1 X 1 Y 3 X 2 Y 1 -1 d 1 1 d 3 Y -1 Y 3 X -7 Y s 1750 1124 m 2 Y 2 X 1 Y 1 X 1 Y 2 X 2 Y 1 X 1 Y 3 X s 1759 1131 m 1 2 d 2 X 1 Y 2 X -1 Y 2 X 2 Y
 1 X 1 Y s 1767 1136 m 1 2 d -1 Y 1 X 1 1 d 2 X 1 2 d -1 Y 3 X s 1776 1139 m 3 X 1 Y -1 Y 3 X 1 -1 d 1 X 1 Y 1 2 d s 1785 1141 m 1 X 1 Y -1 Y 2 X 4 Y 2 X 1 -1 d 3 X 4 Y s 1794 1148 m 3 X 3 Y 4 X 2 Y 1 X -1 Y 2 Y 1 X s 1803 1154 m 2 Y 1 X -1 Y 2 Y 1 X
 -1 Y 5 X 1 2 d 1 X s 1812 1158 m 5 X 1 34 d 5 Y 2 X s 1820 1197 m 5 X -1 Y 2 X -1 Y 2 X 3 Y s 1829 1198 m 4 X -1 Y 3 X 2 Y 2 X s 1838 1199 m 9 X s 1847 1199 m -1 Y 6 X -1 Y 4 Y 3 X s 1856 1201 m 1 -2 d 1 X 3 Y 6 X s 1864 1202 m 2 X 2 Y 7 X s 1873
 1204 m 2 X -1 Y 4 X -1 Y 3 X s 1882 1202 m 4 X -1 Y 2 X 4 Y 3 X s 1891 1205 m 1 -1 d 3 X 1 -1 d 4 X s 1900 1203 m 4 X 4 Y 4 X s 1908 1207 m 9 X s 1917 1207 m 7 X -1 Y 5 Y 1 X -1 Y 1 X s 1926 1210 m 8 X 4 Y 1 X s 1935 1214 m -10 Y 9 X s 1944 1204 m 8
 X s 1952 1204 m 6 X -1 Y 3 X s 1961 1203 m 3 X -1 Y 6 X s 1970 1202 m -1 Y 9 X s 1979 1201 m 1 X 17 Y 5 X 1 -1 d 2 X s 1988 1217 m 7 X -2 Y 1 X s 1996 1215 m 6 X 6 Y 3 X s 2005 1221 m 9 X s 2014 1221 m 2 X -4 Y 7 X s 2023 1217 m 9 X s 2032 1217 m 8
 X s 2040 1217 m 1 X s[  ] 0 sd 9 lw 0.49 0.6 0.82 c black 0 0 0.933333 c 245 1237 m 9 X s 254 1237 m 9 X s 263 1237 m 8 X s 271 1237 m 9 X s 280 1237 m 9 X s 289 1237 m 9 X s 298 1237 m 9 X s 307 1237 m 8 X s 315 1237 m 9 X s 324 1237 m 9 X s 333
 1237 m 9 X s 342 1237 m 9 X s 351 1237 m 8 X s 359 1237 m 9 X s 368 1237 m 9 X s 377 1237 m 9 X s 386 1237 m 9 X s 395 1237 m 8 X s 403 1237 m 9 X s 412 1237 m 9 X s 421 1237 m 9 X s 430 1237 m 9 X s 439 1237 m 8 X s 447 1237 m 9 X s 456 1237 m 9 X
 s 465 1237 m 9 X s 474 1237 m 9 X s 483 1237 m 8 X s 491 1237 m 9 X s 500 1237 m 9 X s 509 1237 m 9 X s 518 1237 m 9 X s 527 1237 m 8 X s 535 1237 m 9 X s 544 1237 m 9 X s 553 1237 m 9 X s 562 1237 m 9 X s 571 1237 m 8 X s 579 1237 m 9 X s 588 1237
 m 9 X s 597 1237 m 9 X s 606 1237 m 9 X s 615 1237 m 8 X s 623 1237 m 9 X s 632 1237 m 9 X s 641 1237 m 9 X s 650 1237 m 9 X s 659 1237 m 8 X s 667 1237 m 9 X s 676 1237 m 9 X s 685 1237 m 9 X s 694 1237 m 9 X s 703 1237 m 8 X s 711 1237 m 9 X s 720
 1237 m 9 X s 729 1237 m 9 X s 738 1237 m 9 X s 747 1237 m 8 X s 755 1237 m 9 X s 764 1237 m 9 X s 773 1237 m 9 X s 782 1237 m 9 X s 791 1237 m 8 X s 799 1237 m 9 X s 808 1237 m 9 X s 817 1237 m 9 X s 826 1237 m 9 X s 835 1237 m 8 X s 843 1237 m 9 X
 s 852 1237 m 9 X s 861 1237 m 9 X s 870 1237 m 9 X s 879 1237 m 8 X s 887 1237 m 9 X s 896 1237 m 9 X s 905 1237 m 9 X s 914 1237 m 9 X s 923 1237 m 8 X s 931 1237 m 9 X s 940 1237 m 9 X s 949 1237 m 9 X s 958 1237 m 9 X s 967 1237 m 8 X s 975 1237
 m 9 X s 984 1237 m 9 X s 993 1237 m 9 X s 1002 1237 m 9 X s 1011 1237 m 8 X s 1019 1237 m 9 X s 1028 1237 m 9 X s 1037 1237 m 9 X s 1046 1237 m 9 X s 1055 1237 m 8 X s 1063 1237 m 9 X s 1072 1237 m 9 X s 1081 1237 m 9 X s 1090 1237 m 9 X s 1099 1237
 m 8 X s 1107 1237 m 9 X s 1116 1237 m 9 X s 1125 1237 m 9 X s 1134 1237 m 9 X s 1143 1237 m 8 X s 1151 1237 m 9 X s 1160 1237 m 9 X s 1169 1237 m 9 X s 1178 1237 m 9 X s 1187 1237 m 8 X s 1195 1237 m 9 X s 1204 1237 m 9 X s 1213 1237 m 9 X s 1222
 1237 m 9 X s 1231 1237 m 2 X -1 Y 6 X s 1239 1236 m 9 X s 1248 1236 m 9 X s 1257 1236 m 9 X s 1266 1236 m 9 X s 1275 1236 m 6 X -1 Y 2 X s 1283 1235 m 9 X s 1292 1235 m 9 X s 1301 1235 m 3 X -1 Y 6 X s 1310 1234 m 5 X -1 Y 4 X s 1319 1233 m 8 X s
 1327 1233 m 9 X s 1336 1233 m 3 X -1 Y 6 X s 1345 1232 m -1 Y 9 X s 1354 1231 m 6 X -1 Y 3 X s 1363 1230 m 6 X -1 Y 2 X s 1371 1229 m 5 X -1 Y 4 X -1 Y s 1380 1227 m 9 X s 1389 1227 m 2 X -1 Y 5 X -1 Y 2 X s 1398 1225 m 7 X -1 Y 2 X s 1407 1224 m 2
 X 1 -1 d 4 X -1 Y 1 X s 1415 1222 m 1 X 1 -1 d 2 X -1 Y 2 X -1 Y 3 X -1 Y s 1424 1218 m 1 X -1 Y 3 X -1 Y 2 X -1 Y 1 X -1 Y 1 X -1 Y 1 X s 1433 1213 m -1 Y 2 X -1 Y 3 X -1 Y 2 X -1 Y 1 -1 d 1 X s 1442 1208 m -1 Y 1 X -1 Y 2 X -6 Y 1 X -1 Y 1 X -1 Y
 1 X -1 Y 1 X -2 Y 1 X -1 Y 1 X s 1451 1194 m -1 Y 1 X -1 Y 1 X -2 Y 2 X -1 Y 1 -1 d -1 Y 1 -1 d 1 -1 d -2 Y 1 X -2 Y s 1459 1181 m 1 -1 d -2 Y 1 X -1 Y 1 X -1 Y 1 X -1 Y 1 -1 d -2 Y 1 X -2 Y 1 X -2 Y 1 X -3 Y 1 X -1 Y s 1468 1164 m 1 -1 d -2 Y 1 X
 -2 Y 1 X -2 Y 1 X -3 Y 1 X -1 Y 1 X -1 Y 1 -1 d -2 Y 1 -1 d 1 X -1 Y s 1477 1147 m 1 -1 d -3 Y 1 X -2 Y 1 -1 d -1 Y 1 -1 d -2 Y 1 X -2 Y 1 -1 d -1 Y 1 -1 d -2 Y 1 X -3 Y 1 X -2 Y s 1486 1124 m -1 Y 1 X -4 Y 2 X -4 Y 1 X -2 Y 1 -1 d -2 Y 1 X -3 Y 1
 -1 d -1 Y 1 -1 d -1 Y 1 X s 1495 1103 m -2 Y 1 X -2 Y 1 -1 d -2 Y 1 X -2 Y 1 X -3 Y 1 X -3 Y 1 -1 d -2 Y 1 -1 d -2 Y 1 -1 d -3 Y s 1503 1078 m 1 -1 d -2 Y 1 X -5 Y 1 X -1 Y 1 -1 d -4 Y 1 -1 d -3 Y 1 -1 d -2 Y 1 -1 d -3 Y 1 -1 d -2 Y 1 -1 d -1 Y s
 1512 1048 m -1 Y 1 -1 d -2 Y 1 -1 d -2 Y 1 X -3 Y 1 X -1 Y 1 -1 d -3 Y 1 X -1 Y 1 X -2 Y 1 -1 d -4 Y 1 -1 d -3 Y s 1521 1021 m 1 -1 d -2 Y 1 -1 d -3 Y 1 -1 d -1 Y 1 X -3 Y 1 X -4 Y 1 -1 d -4 Y 1 X -3 Y 1 -1 d -2 Y 1 X -2 Y s 1530 992 m -1 Y 1 X -2 Y
 1 -1 d -3 Y 1 X -3 Y 1 -1 d -2 Y 1 -2 d -2 Y 1 -1 d -3 Y 1 X -3 Y 1 -1 d -2 Y 1 -1 d s 1539 964 m -4 Y 1 X -5 Y 1 -1 d -3 Y 1 -1 d -8 Y 2 X -3 Y 1 -1 d -1 Y 1 X -1 Y 1 X -3 Y s 1547 933 m 1 X -3 Y 1 -1 d -4 Y 1 X -2 Y 1 -1 d -4 Y 1 -1 d 1 -3 d -8 Y
 1 -1 d -3 Y 1 -1 d -3 Y 1 X -2 Y s 1556 896 m 1 X -3 Y 1 -1 d -3 Y 1 X -6 Y 1 -1 d -4 Y 1 -1 d -2 Y 1 -1 d -3 Y 1 -1 d -2 Y 1 X -6 Y 1 -1 d -2 Y s 1565 859 m -3 Y 1 X -3 Y 1 -1 d -1 Y 1 -1 d -4 Y 1 -1 d -2 Y 1 -1 d -6 Y 1 -1 d -3 Y 1 -1 d -5 Y 1 X
 -2 Y 1 -2 d -1 Y s 1574 821 m -2 Y 1 -1 d -3 Y 1 -1 d -5 Y 1 X -3 Y 1 -1 d -1 Y 1 X -1 Y 1 -1 d -3 Y 1 X -5 Y 1 -1 d -5 Y 1 -1 d -2 Y s 1583 785 m -1 Y 1 -1 d -2 Y 1 X -2 Y 1 -3 d -2 Y 1 -1 d -3 Y 1 X -2 Y 1 X -3 Y 1 -2 d -5 Y 1 X -6 Y s 1591 752 m
 1 -1 d -3 Y 1 X -3 Y 1 -1 d -2 Y 1 -1 d -4 Y 1 X -2 Y 1 -1 d -3 Y 1 -1 d -2 Y 1 X -3 Y 1 X -3 Y s 1600 722 m 1 X -3 Y 1 X -2 Y 1 X -3 Y 1 X -6 Y 1 X -3 Y 1 -1 d -3 Y 1 -2 d -3 Y 1 X -4 Y 1 -1 d -3 Y s 1609 688 m -1 Y 1 -1 d -4 Y 1 -1 d -6 Y 1 X -5 Y
 1 -1 d -5 Y 1 -1 d -4 Y 1 -1 d -3 Y 1 -2 d -6 Y 1 X -3 Y 1 -2 d s 1618 642 m -3 Y 1 -1 d -4 Y 1 X -3 Y 1 -1 d -5 Y 1 -1 d -4 Y 1 X -1 Y 1 -1 d -3 Y 1 -1 d -4 Y 1 -1 d -5 Y 1 -1 d s 1627 603 m -2 Y 1 -1 d -2 Y 1 -1 d -3 Y 1 -1 d -4 Y 1 X -2 Y 1 X -2
 Y 1 -1 d -2 Y 1 X -3 Y 1 X -3 Y s 1635 576 m 1 -1 d -3 Y 1 -1 d -6 Y 1 X -4 Y 1 X -4 Y 1 X -3 Y 1 -1 d -1 Y 1 X -3 Y 1 X -2 Y 1 X -2 Y s 1644 545 m 1 -3 d -2 Y 1 -1 d -3 Y 1 -1 d -2 Y 1 X -7 Y 1 -1 d -3 Y 1 X -3 Y 1 -1 d -2 Y 1 -1 d -2 Y 1 -1 d -1 Y
 s 1653 511 m -2 Y 1 X -2 Y 1 X -3 Y 1 -1 d -2 Y 1 X -4 Y 1 -1 d -5 Y 1 -1 d -1 Y 1 -2 d -1 Y 1 X -2 Y 1 -1 d -2 Y s 1662 481 m -1 Y 1 -1 d -4 Y 1 -1 d -4 Y 1 -1 d -2 Y 1 X -2 Y 1 X -5 Y 1 -1 d -1 Y 1 X -2 Y 1 -1 d -2 Y 1 -1 d s 1671 452 m -3 Y 1 X
 -2 Y 1 X -3 Y 1 X -3 Y 2 X -3 Y 1 -1 d -2 Y 1 -1 d -1 Y 1 X -3 Y s 1679 430 m 1 -2 d -2 Y 1 -1 d -5 Y 1 X -4 Y 1 -1 d -2 Y 1 -1 d -14 Y 1 -1 d -2 Y 1 -1 d 1 -1 d -3 Y 1 X -3 Y s 1688 387 m -1 Y 1 -1 d -1 Y 1 -1 d -1 Y 1 X -2 Y 1 -3 d -2 Y 1 X -4 Y 1
 X -1 Y 1 -1 d -1 Y 1 -1 d -2 Y 1 X -1 Y s 1697 364 m -3 Y 1 X -2 Y 1 X -2 Y 1 X -2 Y 1 -1 d -1 Y 1 -1 d -1 Y 1 X -1 Y 1 -1 d -1 Y 1 X 1 -1 d s 1706 347 m 1 -1 d 2 X -3 Y 1 X -1 Y 2 X -1 Y 2 X -1 Y 1 X s 1715 340 m 2 X -1 Y 3 X -2 Y 1 X 1 -1 d -1 Y 1
 -1 d s 1723 334 m 1 X -2 Y 1 X 1 -1 d -1 Y 2 X -1 Y 1 X -1 Y 3 X -1 Y s 1732 327 m 4 X -2 Y 3 X -1 Y 2 X s 1741 324 m 1 X -1 Y 4 X -1 Y 1 X -1 Y 3 X -8 Y s 1750 313 m 2 X -1 Y 2 X 1 -4 d -1 Y 3 X -1 Y 1 X s 1759 306 m 5 X -1 Y 3 X -1 Y s 1767 304 m
 2 X -1 Y 4 X -1 Y 3 X s 1776 302 m 2 X -1 Y 1 X -1 Y 3 X 1 -1 d 1 X -1 Y 1 X s 1785 298 m 1 X -2 Y 8 X s 1794 296 m 1 -1 d 3 X -1 Y 5 X s 1803 294 m 1 X -2 Y 4 X -1 Y 4 X s 1812 291 m 5 X 1 -17 d -1 Y 2 X s 1820 273 m 4 X -1 Y 1 X -1 Y 2 X -1 Y 2 X
 s 1829 270 m -1 Y 4 X -1 Y 3 X -1 Y 2 X s 1838 267 m 1 X 1 -1 d 1 -1 d 6 X s 1847 265 m 4 X -1 Y 2 X -1 Y 3 X s 1856 263 m 1 -2 d -1 Y 7 X s 1864 260 m 2 X -2 Y 6 X -1 Y 1 X s 1873 257 m 2 X -1 Y 4 X -1 Y 1 X -1 Y 2 X s 1882 254 m 4 X -1 Y 4 X -1 Y
 1 X s 1891 252 m 1 -1 d 3 X 1 -1 d 4 X s 1900 250 m 8 X s 1908 250 m 9 X s 1917 250 m 7 X -2 Y 2 X s 1926 248 m 5 X -1 Y 4 X s 1935 247 m -21 Y 9 X s 1944 226 m 8 X s 1952 226 m 9 X s 1961 226 m 3 X -2 Y 6 X s 1970 224 m 9 X s 1979 224 m 1 X -2 Y 8
 X s 1988 222 m 3 X -1 Y 4 X -1 Y 1 X s 1996 220 m 6 X -6 Y 3 X s 2005 214 m 9 X s 2014 214 m 2 X -2 Y 7 X s 2023 212 m 9 X s 2032 212 m 8 X s 2040 212 m 1 X s 1 0 0 c black 1 0 0 c 245 1237 m 9 X s 254 1237 m 2 X -356 Y 7 X s 263 881 m 8 X s 271 881
 m 4 X -77 Y 5 X s 280 804 m 9 X s 289 804 m 9 X s 298 804 m 9 X s 307 804 m 8 X s 315 804 m 7 X -4 Y 2 X s 324 800 m 9 X s 333 800 m 7 X -2 Y 2 X s 342 798 m 9 X s 351 798 m 8 X s 359 798 m 3 X -10 Y 6 X s 368 788 m 9 X s 377 788 m 9 X s 386 788 m 1
 X -1 Y 8 X s 395 787 m 6 X -3 Y 2 X s 403 784 m 9 X s 412 784 m 3 X -1 Y 6 X s 421 783 m 6 X -2 Y 3 X s 430 781 m 8 X -5 Y 1 X s 439 776 m 8 X s 447 776 m 9 X s 456 776 m 9 X s 465 776 m 9 X s 474 776 m 1 X -2 Y 8 X s 483 774 m 8 X s 491 774 m 9 X s
 500 774 m 9 X s 509 774 m 9 X s 518 774 m 9 X s 527 774 m 8 X s 535 774 m 6 X -1 Y 3 X -1 Y s 544 772 m 9 X s 553 772 m 9 X s 562 772 m 9 X s 571 772 m 8 X s 579 772 m 4 X -1 Y 5 X s 588 771 m 9 X s 597 771 m 9 X s 606 771 m 9 X s 615 771 m 1 X -1 Y
 3 X -1 Y 1 X -2 Y 3 X s 623 767 m 9 X s 632 767 m 9 X s 641 767 m 9 X s 650 767 m 9 X s 659 767 m 8 X s 667 767 m 9 X s 676 767 m 9 X s 685 767 m 9 X s 694 767 m 6 X -1 Y 2 X -5 Y 1 X s 703 761 m 8 X s 711 761 m 2 X -6 Y 6 X -3 Y 1 X s 720 752 m 9 X
 s 729 752 m 2 X -3 Y 7 X s 738 749 m 9 X s 747 749 m 8 X s 755 749 m 6 X -3 Y 3 X s 764 746 m 2 X -2 Y 7 X s 773 744 m 9 X s 782 744 m 9 X s 791 744 m 8 X s 799 744 m 6 X -1 Y 3 X s 808 743 m 5 X -1 Y 4 X s 817 742 m 9 X s 826 742 m 9 X s 835 742 m
 8 X s 843 742 m 4 X 1 -4 d 4 X s 852 738 m 9 X s 861 738 m 3 X -1 Y 1 -2 d 2 X -1 Y 3 X s 870 734 m 7 X -1 Y 2 X s 879 733 m 8 X s 887 733 m 9 X s 896 733 m 9 X s 905 733 m 9 X s 914 733 m 6 X -1 Y 3 X s 923 732 m 6 X 1 -1 d 1 X s 931 731 m 3 X -1 Y
 3 X 1 -1 d 2 X s 940 729 m 9 X s 949 729 m 1 X -1 Y 8 X s 958 728 m 9 X s 967 728 m 1 X -1 Y 7 X s 975 727 m 9 X s 984 727 m 9 X s 993 727 m 9 X s 1002 727 m 9 X s 1011 727 m 3 X 1 -1 d 4 X s 1019 726 m 9 X -1 Y s 1028 725 m 9 X s 1037 725 m 9 X s
 1046 725 m 3 X -1 Y 6 X s 1055 724 m 7 X -1 Y 1 X s 1063 723 m 6 X -2 Y 3 X s 1072 721 m 3 X -1 Y 6 X s 1081 720 m 3 X -1 Y 6 X s 1090 719 m 9 X s 1099 719 m 8 X s 1107 719 m 9 X s 1116 719 m 9 X s 1125 719 m 5 X -1 Y 4 X s 1134 718 m 7 X 1 -1 d 1 X
 s 1143 717 m 8 X s 1151 717 m 9 X s 1160 717 m 1 X -1 Y 8 X s 1169 716 m 9 X s 1178 716 m 2 X 1 -1 d 6 X s 1187 715 m 8 X -1 Y s 1195 714 m 2 X -1 Y 7 X s 1204 713 m 8 X -1 Y 1 X s 1213 712 m 9 X s 1222 712 m 7 X -1 Y 2 X s 1231 711 m 4 X -1 Y 4 X s
 1239 710 m 1 X -1 Y 8 X s 1248 709 m 3 X -1 Y 6 X s 1257 708 m 5 X -1 Y 4 X s 1266 707 m 3 X -1 Y 6 X s 1275 706 m 1 X -1 Y 5 X -1 Y 2 X s 1283 704 m 9 X s 1292 704 m 9 X s 1301 704 m 8 X -1 Y 1 X s 1310 703 m 6 X -1 Y 3 X s 1319 702 m 8 X s 1327
 702 m 9 X s 1336 702 m 6 X -1 Y 3 X s 1345 701 m 9 X s 1354 701 m 2 X -1 Y 7 X s 1363 700 m 4 X -1 Y 4 X s 1371 699 m 3 X 1 -1 d 5 X -1 Y s 1380 697 m 2 X -1 Y 5 X -1 Y 2 X s 1389 695 m 1 X -1 Y 8 X -1 Y s 1398 693 m 1 X -1 Y 6 X -1 Y 2 X s 1407 691
 m -1 Y 2 X 1 -1 d 4 X -1 Y 1 X s 1415 688 m 4 X -1 Y 2 X -4 Y 3 X -1 Y s 1424 682 m 1 X -1 Y 2 X -1 Y 1 X -1 Y 2 X -1 Y 1 X -1 Y 1 X 1 -1 d s 1433 676 m -1 Y 2 X -1 Y 2 X -1 Y 1 X -1 Y 2 X -1 Y 1 -1 d -1 Y 1 -1 d s 1442 668 m -1 Y 1 X -1 Y 1 X -1 Y
 1 X -1 Y 1 -1 d -1 Y 1 X -1 Y 1 X -1 Y 1 X -2 Y 1 X -1 Y 1 X s 1451 657 m 1 X -3 Y 1 X -1 Y 1 X -2 Y 1 -1 d -1 Y 1 -1 d -1 Y 1 -1 d -1 Y 1 X -2 Y 1 X -2 Y s 1459 641 m 1 -2 d -1 Y 1 X -2 Y 1 -1 d 1 X -2 Y 1 X -2 Y 1 X -2 Y 1 X -2 Y 1 -1 d -2 Y 1 X s
 1468 624 m -2 Y 1 X -3 Y 1 -1 d -1 Y 1 X -2 Y 1 X -2 Y 1 X -1 Y 2 X -3 Y 1 X -1 Y 1 X -2 Y s 1477 606 m 1 X -2 Y 1 X -1 Y 1 -1 d -2 Y 1 X -3 Y 1 X -3 Y 1 -1 d -2 Y 1 -1 d 1 X -3 Y 1 X -1 Y s 1486 586 m -1 Y 1 X -4 Y 1 X -3 Y 1 X -3 Y 1 X -2 Y 1 -1 d
 -2 Y 1 -1 d 1 -1 d -2 Y 1 X -1 Y 1 X s 1495 565 m -2 Y 1 -1 d -3 Y 1 -1 d -2 Y 1 -1 d -2 Y 1 X -4 Y 1 X -2 Y 1 -1 d -2 Y 1 X -3 Y 1 -1 d -1 Y s 1503 539 m 1 X -3 Y 1 X -3 Y 1 X -4 Y 1 X -3 Y 1 X -2 Y 1 -1 d -2 Y 1 -1 d -3 Y 1 -1 d -3 Y 1 -1 d -1 Y s
 1512 511 m -1 Y 1 -1 d -2 Y 1 X -2 Y 1 X -2 Y 1 X -1 Y 1 X -2 Y 1 -1 d -1 Y 1 X -1 Y 1 -1 d -3 Y 1 X -2 Y s 1521 491 m 1 X -2 Y 1 X -3 Y 1 -1 d -2 Y 1 X -1 Y 1 -1 d -1 Y 1 -1 d -2 Y 1 X -2 Y 1 -1 d -1 Y 1 X -1 Y s 1530 472 m -1 Y 1 X -2 Y 1 -1 d -2
 Y 1 -1 d -3 Y 1 -1 d -1 Y 1 -1 d -2 Y 1 -1 d -5 Y 1 X -3 Y 1 X -2 Y 1 -1 d s 1539 445 m -1 Y 1 X -4 Y 1 X -1 Y 1 X -3 Y 1 X -1 Y 1 X -2 Y 1 X -1 Y 1 X -2 Y 1 X -2 Y s 1547 428 m 1 X -2 Y 1 X -3 Y 1 X -1 Y 1 X -2 Y 1 X -1 Y 1 -1 d -4 Y 1 X -2 Y 1 X
 -1 Y 1 X -2 Y s 1556 409 m -1 Y 1 -1 d -2 Y 1 X -2 Y 1 X -3 Y 1 -1 d -3 Y 1 X -2 Y 1 -1 d 1 X -2 Y 1 X -3 Y 1 -1 d s 1565 387 m -2 Y 1 -1 d -1 Y 1 X -1 Y 1 -1 d -3 Y 1 -1 d -1 Y 1 X -2 Y 1 X -1 Y 1 X -2 Y 1 X 1 -1 d s 1574 370 m -1 Y 1 X -2 Y 1 X -3
 Y 1 X -2 Y 1 X -1 Y 1 -1 d -1 Y 1 X -1 Y 1 -1 d -1 Y 1 X -2 Y 1 X s 1583 354 m 1 X -1 Y 1 X -1 Y 1 -2 d -1 Y 1 -1 d -3 Y 1 X -1 Y 1 -1 d -1 Y 1 X -2 Y 1 X -2 Y s 1591 338 m 1 X -1 Y 1 X -1 Y 1 X 1 -1 d -1 Y 1 X -2 Y 1 X -3 Y 2 X -1 Y 1 X -1 Y s 1600
 327 m 1 X -1 Y 1 X -2 Y 2 X -1 Y 1 -1 d -1 Y 1 X -1 Y 1 -1 d -2 Y 1 X -2 Y 1 X -2 Y s 1609 313 m 1 X -1 Y 1 X -1 Y 1 X -2 Y 1 X -2 Y 1 X -2 Y 1 X -1 Y 1 X -1 Y 1 -1 d -2 Y 1 -1 d s 1618 299 m -1 Y 1 -1 d -1 Y 1 X -1 Y 1 X -2 Y 1 X -1 Y 1 X -2 Y 1 X
 -1 Y 1 -1 d -1 Y 2 X -1 Y s 1627 286 m 1 X 1 -1 d 1 X -1 Y 1 X -1 Y 1 X -2 Y 2 X -2 Y 1 -1 d -1 Y s 1635 277 m 1 X -3 Y 1 X -1 Y 2 X -2 Y 1 X -1 Y 1 X 1 -1 d 1 -1 d -1 Y 1 X -1 Y s 1644 266 m 1 X -1 Y 1 X -1 Y 1 X -1 Y 1 X 1 -1 d -1 Y 1 X -2 Y 1 X
 -1 Y 2 X -1 Y s 1653 257 m 1 X -2 Y 2 X -1 Y 1 X -1 Y 1 X -1 Y 1 X -1 Y 1 X -1 Y 2 X -1 Y s 1662 249 m 1 -1 d 1 X -1 Y 2 X -1 Y 2 X -1 Y 2 X -1 Y 1 X -1 Y s 1671 243 m -1 Y 1 X 1 -1 d 1 X -1 Y 2 X -1 Y 1 -1 d 1 X -1 Y 1 X -1 Y s 1679 236 m 1 -1 d -1
 Y 1 X -1 Y 1 X -1 Y 1 X 1 -1 d 1 X -2 Y 2 X 1 -1 d s 1688 228 m 1 X 1 -1 d 2 X -1 Y 1 X 1 -1 d 2 X -1 Y 1 X s 1697 224 m -1 Y 1 X -1 Y 1 X -1 Y 3 X 1 -1 d 2 X -1 Y 1 X s 1706 219 m 9 X s 1715 219 m 2 X -1 Y 6 X s 1723 218 m 1 X -1 Y 4 X -1 Y 4 X s
 1732 216 m 9 X s 1741 216 m 4 X -1 Y 5 X s 1750 215 m 2 X -1 Y 3 X -1 Y 4 X s 1759 213 m 8 X -1 Y s 1767 212 m 9 X s 1776 212 m 3 X -1 Y 6 X s 1785 211 m 3 X -1 Y 6 X s 1794 210 m 7 X -1 Y 2 X s 1803 209 m 9 X s 1812 209 m 5 X 1 -5 d 2 X s 1820 204
 m 9 X s 1829 204 m 9 X s 1838 204 m 9 X s 1847 204 m 6 X -1 Y 3 X s 1856 203 m 8 X s 1864 203 m 9 X s 1873 203 m 9 X s 1882 203 m 9 X s 1891 203 m 9 X s 1900 203 m 8 X s 1908 203 m 9 X s 1917 203 m 7 X -1 Y 2 X s 1926 202 m 9 X s 1935 202 m 9 X s
 1944 202 m 8 X s 1952 202 m 9 X s 1961 202 m 9 X s 1970 202 m 9 X s 1979 202 m 9 X s 1988 202 m 8 X s 1996 202 m 6 X -1 Y 3 X s 2005 201 m 9 X s 2014 201 m 9 X s 2023 201 m 9 X s 2032 201 m 8 X s 2040 201 m 1 X s 0 0.666667 0 c 1 1 1 c black 0
 0.666667 0 c 245 1095 m 9 X s 254 1095 m 2 X 89 Y 7 X s 263 1184 m 8 X s 271 1184 m 4 X 23 Y 5 X s 280 1207 m 9 X s 289 1207 m 9 X s 298 1207 m 9 X s 307 1207 m 8 X s 315 1207 m 7 X 1 Y 2 X s 324 1208 m 9 X s 333 1208 m 9 X s 342 1208 m 9 X s 351
 1208 m 8 X s 359 1208 m 3 X 3 Y 6 X s 368 1211 m 9 X s 377 1211 m 9 X s 386 1211 m 1 X 1 Y 8 X s 395 1212 m 6 X 1 Y 2 X s 403 1213 m 9 X s 412 1213 m 9 X s 421 1213 m 6 X 1 Y 3 X s 430 1214 m 8 X 1 Y 1 X s 439 1215 m 8 X s 447 1215 m 9 X s 456 1215
 m 9 X s 465 1215 m 9 X s 474 1215 m 1 X 1 Y 8 X s 483 1216 m 8 X s 491 1216 m 9 X s 500 1216 m 9 X s 509 1216 m 9 X s 518 1216 m 9 X s 527 1216 m 8 X s 535 1216 m 9 X s 544 1216 m 9 X s 553 1216 m 9 X s 562 1216 m 9 X s 571 1216 m 8 X s 579 1216 m 4
 X 1 Y 5 X s 588 1217 m 9 X s 597 1217 m 9 X s 606 1217 m 9 X s 615 1217 m 5 X 1 Y 3 X s 623 1218 m 9 X s 632 1218 m 9 X s 641 1218 m 9 X s 650 1218 m 9 X s 659 1218 m 8 X s 667 1218 m 9 X s 676 1218 m 9 X s 685 1218 m 9 X s 694 1218 m 8 X 2 Y 1 X s
 703 1220 m 8 X s 711 1220 m 2 X 2 Y 6 X 1 Y 1 X s 720 1223 m 9 X s 729 1223 m 2 X 1 Y 7 X s 738 1224 m 9 X s 747 1224 m 8 X s 755 1224 m 6 X 1 Y 3 X s 764 1225 m 9 X s 773 1225 m 9 X s 782 1225 m 9 X s 791 1225 m 8 X s 799 1225 m 6 X 1 Y 3 X s 808
 1226 m 9 X s 817 1226 m 9 X s 826 1226 m 9 X s 835 1226 m 8 X s 843 1226 m 4 X 1 1 d 4 X s 852 1227 m 9 X s 861 1227 m 1 X 1 Y 2 X 1 1 d 5 X s 870 1229 m 9 X s 879 1229 m 8 X s 887 1229 m 9 X s 896 1229 m 9 X s 905 1229 m 9 X s 914 1229 m 9 X s 923
 1229 m 4 X 1 Y 4 X s 931 1230 m 9 X s 940 1230 m 9 X s 949 1230 m 1 X 1 Y 8 X s 958 1231 m 9 X s 967 1231 m 8 X s 975 1231 m 9 X s 984 1231 m 9 X s 993 1231 m 9 X s 1002 1231 m 9 X s 1011 1231 m 8 X s 1019 1231 m 9 X 1 Y s 1028 1232 m 9 X s 1037
 1232 m 9 X s 1046 1232 m 9 X s 1055 1232 m 8 X s 1063 1232 m 6 X 1 Y 3 X s 1072 1233 m 9 X s 1081 1233 m 3 X 1 Y 6 X s 1090 1234 m 9 X s 1099 1234 m 8 X s 1107 1234 m 9 X s 1116 1234 m 9 X s 1125 1234 m 9 X s 1134 1234 m 9 X s 1143 1234 m 8 X s 1151
 1234 m 9 X 1 Y s 1160 1235 m 9 X s 1169 1235 m 9 X s 1178 1235 m 9 X s 1187 1235 m 8 X s 1195 1235 m 9 X s 1204 1235 m 5 X 1 1 d 3 X s 1213 1236 m 9 X s 1222 1236 m 9 X s 1231 1236 m 8 X s 1239 1236 m 9 X s 1248 1236 m 8 X 1 Y 1 X s 1257 1237 m 9 X
 s 1266 1237 m 9 X s 1275 1237 m 8 X s 1283 1237 m 9 X s 1292 1237 m 9 X s 1301 1237 m 7 X 1 -1 d 1 Y 1 X s 1310 1237 m 9 X s 1319 1237 m 8 X s 1327 1237 m 3 X 1 -1 d 5 X s 1336 1236 m 9 X s 1345 1236 m 9 X s 1354 1236 m 8 X -1 Y 1 X s 1363 1235 m 8
 X s 1371 1235 m 9 X -1 Y s 1380 1234 m 1 X 1 1 d 1 X -1 Y 2 X 1 Y 4 X s 1389 1235 m 7 X -1 Y 2 X 1 Y s 1398 1235 m 3 X -1 Y 4 X 1 Y -1 Y 2 X s 1407 1234 m 1 Y 3 X -1 Y 5 X s 1415 1234 m 1 X 1 -1 d 4 X 1 Y 1 -1 d 1 X 1 Y 1 X -1 Y 1 Y s 1424 1234 m 1
 -1 d 5 X -1 Y 1 X 1 Y -1 Y 2 X s 1433 1232 m 2 X -1 Y 1 Y -1 Y 1 1 d -1 Y 2 X 1 Y 1 -1 d 3 X s 1442 1231 m 3 X -4 Y 1 Y 2 X -1 Y 2 X -1 Y 1 X 1 Y -1 Y 1 X s 1451 1226 m -1 Y 2 X 1 Y -1 Y 1 X 1 1 d -1 Y 1 X -1 Y 1 X 1 Y -1 Y 1 Y 1 -1 d -1 Y 1 X s
 1459 1223 m 1 X -1 Y 3 X -1 Y 1 X -1 Y 1 X -1 Y 1 X 1 Y -1 Y 1 X -1 Y 1 X -1 Y s 1468 1217 m 1 Y 1 X -1 Y 1 X -1 Y 2 X -1 Y 1 X -1 Y 1 X -1 Y 1 X -1 Y 1 Y -1 Y 2 X s 1477 1212 m 1 X -2 Y 1 X 1 -1 d 1 -1 d 1 Y -1 Y 1 X -1 Y 1 Y -1 Y 1 1 d -1 Y 1 X -1
 Y 1 X -1 Y 1 X -1 Y s 1486 1204 m -1 Y 1 X -1 Y 1 X 1 Y 1 X -1 Y 1 -1 d 1 X -1 Y 1 X -1 Y 1 -1 d 1 -1 d 1 X s 1495 1197 m -1 Y 2 X -1 Y 1 1 d -1 Y 2 X -2 Y 1 Y 1 -1 d 1 -1 d 1 -1 d -2 Y s 1503 1189 m 1 X 1 -1 d -2 Y 1 1 d -1 Y 1 Y 1 X -3 Y 1 Y 1 -1
 d -1 Y 1 -1 d 1 Y -1 Y 1 -1 d 1 -1 d -1 Y 1 1 d -1 Y 1 Y -1 Y s 1512 1179 m 1 X -1 Y 1 X -1 Y 1 X -1 Y 1 -1 d 1 -1 d 1 Y -2 Y 1 X 1 Y -1 Y 1 X -1 Y 1 X -2 Y 1 -1 d -1 Y s 1521 1168 m -1 Y 1 X 1 -1 d -1 Y 1 X 1 -1 d -1 Y 1 X -2 Y 1 -1 d -1 Y 1 -1 d
 -1 Y 1 X -1 Y 1 X -1 Y s 1530 1155 m -1 Y 1 X 1 Y -1 Y 1 -1 d 1 Y -2 Y 1 X -1 Y 1 X -1 Y 1 -1 d 1 Y -1 Y 1 -1 d 1 X -1 Y 1 X -2 Y 1 X s 1539 1145 m -2 Y 1 X -2 Y 1 -1 d -2 Y 1 X -5 Y 2 X -1 Y 1 -1 d 2 X -1 Y s 1547 1130 m 1 X -1 Y 1 -1 d -2 Y 1 X -2
 Y 1 X -3 Y 1 Y 1 -1 d 1 -1 d -5 Y 1 X -2 Y 1 -1 d -1 Y 1 X -1 Y s 1556 1110 m 1 X -1 Y 1 X -2 Y 1 X -3 Y 1 X -2 Y 1 -1 d -1 Y 1 X -2 Y 1 -1 d -1 Y 1 X -3 Y 1 X -2 Y s 1565 1091 m -1 Y 1 X -2 Y 1 X -1 Y 1 -1 d -1 Y 1 -1 d -1 Y 1 X -5 Y 1 X -2 Y 1 -1
 d -3 Y 1 X -2 Y 1 -1 d -1 Y s 1574 1068 m -1 Y 1 X -2 Y 1 -1 d -2 Y 1 -1 d -1 Y 1 X -1 Y 1 Y -1 Y 1 X -1 Y 1 X -1 Y 1 -1 d -3 Y 1 -1 d -3 Y 1 -1 d -2 Y s 1583 1046 m -1 Y 1 X -2 Y 1 X -1 Y 1 -1 d -2 Y 1 X -1 Y 1 X -1 Y 1 X -1 Y 1 -2 d -3 Y 1 X -5 Y
 s 1591 1026 m 1 X -2 Y 1 X -3 Y 1 -1 d -1 Y 1 -1 d -3 Y 1 X -1 Y 1 X -2 Y 1 Y 1 -1 d -2 Y 1 Y 1 -1 d -2 Y 1 X -2 Y s 1600 1006 m -1 Y 1 X -2 Y 2 X -2 Y 1 -1 d -4 Y 1 -1 d -1 Y 1 -1 d -2 Y 1 -1 d -2 Y 1 -1 d -2 Y 1 X -2 Y s 1609 983 m -1 Y 1 -1 d -3
 Y 1 -1 d -5 Y 1 -1 d -3 Y 1 X -5 Y 1 X -3 Y 1 X -4 Y 1 -1 d -5 Y 1 1 d -3 Y 1 -1 d s 1618 947 m -2 Y 1 X -4 Y 1 X -3 Y 1 X -4 Y 1 X -4 Y 1 X 1 -1 d -2 Y 1 -1 d -3 Y 1 -1 d -5 Y 1 -1 d s 1627 916 m -2 Y 1 X -3 Y 1 X -3 Y 1 -1 d 1 Y -4 Y 1 X -2 Y 1 X
 -1 Y 1 -1 d -1 Y 1 X -2 Y 1 X -2 Y 1 Y -2 Y s 1635 894 m 1 X -2 Y 1 -1 d -5 Y 1 X -4 Y 1 X -3 Y 1 -1 d -2 Y 1 -1 d 1 X -3 Y 1 X -1 Y 1 1 d -3 Y s 1644 869 m 1 -3 d -2 Y 1 -1 d -2 Y 1 Y -1 Y 1 -1 d -2 Y 1 X -7 Y 1 -1 d -3 Y 1 X -2 Y 1 -1 d -2 Y 1 X
 -3 Y 1 -1 d -1 Y 1 Y s 1653 838 m -2 Y 1 X -2 Y 1 X -2 Y 1 -2 d -1 Y 1 -1 d -3 Y 1 -1 d -6 Y 1 X -2 Y 1 -2 d 1 X -3 Y 1 -1 d -2 Y s 1662 808 m -1 Y 1 -1 d -4 Y 1 X -5 Y 1 -2 d -2 Y 1 X -2 Y 1 X -6 Y 1 -1 d -1 Y 1 X -2 Y 1 -2 d -2 Y 1 X s 1671 777 m
 -3 Y 1 X -2 Y 1 X -3 Y 1 X -3 Y 1 -1 d 1 X -3 Y 1 -1 d -2 Y 1 X -1 Y 1 X -4 Y s 1679 754 m 1 -1 d -2 Y 1 -1 d -5 Y 1 -1 d -5 Y 1 X -4 Y 1 X -20 Y 1 -1 d -2 Y 1 -1 d -1 Y 1 X -5 Y 1 X -3 Y s 1688 702 m -1 Y 1 -2 d -2 Y 1 X -2 Y 1 X -3 Y 1 -4 d -2 Y 1
 X -6 Y 1 X -1 Y 1 -1 d -3 Y 1 X -3 Y 1 X -1 Y s 1697 671 m -3 Y 1 -1 d -2 Y 1 X -4 Y 1 Y 1 X -2 Y 1 -1 d -2 Y 1 -1 d -2 Y 1 -1 d -1 Y 1 X -3 Y 1 X 1 Y 1 -1 d -1 Y s 1706 648 m 1 -1 d 1 X -1 Y 1 X -5 Y 2 X -1 Y 1 X -2 Y 3 X s 1715 638 m -1 Y 2 X 1 -1
 d 2 X -2 Y 1 X -1 Y 1 -2 d -1 Y 1 -2 d s 1723 628 m 1 X -2 Y 1 X 1 -2 d -1 Y 1 -1 d 1 1 d -2 Y 1 X -1 Y 1 -1 d 2 X -1 Y s 1732 618 m 2 X 1 -1 d 1 X -2 Y 2 X -1 Y 1 X -1 Y 2 X -1 Y s 1741 612 m 2 X -1 Y 2 X 1 Y 1 -1 d -1 Y 1 -1 d 1 Y -1 Y 3 X -16 Y s
 1750 593 m 2 X -1 Y 1 X 1 Y 1 X 1 -7 d -1 Y 1 X -2 Y 3 X s 1759 583 m 4 X -1 Y 1 X 1 -1 d 1 X -1 Y 1 Y 1 X -1 Y s 1767 580 m 1 1 d -2 Y 1 X -1 Y 1 1 d 2 X -1 Y 1 1 d -2 Y 1 X -1 Y 2 X s 1776 576 m 2 X -1 Y 1 X -1 Y 2 X -2 Y 1 X 1 -1 d 1 X -1 Y 1 X s
 1785 570 m 1 X -4 Y 6 X 1 -1 d 1 X 1 Y s 1794 566 m 1 X -1 Y 2 X 1 Y 1 X -2 Y 5 X s 1803 564 m 1 X -3 Y 1 X -1 Y 4 X -1 Y 1 X 1 1 d 1 X s 1812 560 m 5 X 1 -32 d 2 X -1 Y s 1820 527 m 4 X -2 Y 1 X -1 Y 1 -1 d -1 Y 1 X -2 Y 2 X 1 Y s 1829 521 m -2 Y 4
 X -3 Y 2 X -1 Y 1 X -2 Y 2 X s 1838 513 m 1 X 1 -2 d 1 -1 d 6 X s 1847 510 m -1 Y 3 X -1 Y 1 X -1 Y 1 X -1 Y 1 X -1 Y 3 X s 1856 505 m 1 -6 d -1 Y 1 X -1 Y 3 X -1 Y 3 X s 1864 496 m 2 X -3 Y 5 X -1 Y 1 X -2 Y 1 X s 1873 490 m 2 X -3 Y 4 X -4 Y 1 X
 -1 Y 2 X s 1882 482 m 4 X -2 Y 3 X 1 -1 d -1 Y 1 X s 1891 478 m -1 Y 1 -4 d 3 X 1 -1 d -1 Y 4 X s 1900 471 m 8 X s 1908 471 m 9 X s 1917 471 m 7 X -4 Y 1 Y 1 X -2 Y 1 X s 1926 466 m 5 X -2 Y 3 X 1 Y 1 X s 1935 465 m -70 Y 9 X s 1944 395 m 8 X s 1952
 395 m 1 X -1 Y 3 X -1 Y 2 X -1 Y 3 X s 1961 392 m 3 X -5 Y 6 X s 1970 387 m -2 Y 9 X s 1979 385 m 1 X -4 Y 5 X 1 -1 d 2 X s 1988 380 m 2 X -3 Y 1 X -1 Y 4 X -4 Y 1 X s 1996 372 m 1 X -1 Y 1 X -1 Y 4 X -27 Y 3 X s 2005 343 m 9 X s 2014 343 m 2 X -15
 Y 7 X s 2023 328 m 9 X s 2032 328 m 8 X s 2040 328 m 1 X s black 3 lw 245 201 m 1796 X s 433 241 m -40 Y s 522 221 m -20 Y s 611 221 m -20 Y s 699 221 m -20 Y s 788 241 m -40 Y s 876 221 m -20 Y s 965 221 m -20 Y s 1053 221 m -20 Y s 1142 241 m -40
 Y s 1231 221 m -20 Y s 1319 221 m -20 Y s 1408 221 m -20 Y s 1496 241 m -40 Y s 1585 221 m -20 Y s 1674 221 m -20 Y s 1762 221 m -20 Y s 1851 241 m -40 Y s 433 241 m -40 Y s 345 221 m -20 Y s 256 221 m -20 Y s 1851 241 m -40 Y s 1939 221 m -20 Y s
 2028 221 m -20 Y s 245 201 m 1140 Y s 291 201 m -46 X s 268 253 m -23 X s 268 305 m -23 X s 268 357 m -23 X s 291 408 m -46 X s 268 460 m -23 X s 268 512 m -23 X s 268 564 m -23 X s 291 616 m -46 X s 268 667 m -23 X s 268 719 m -23 X s 268 771 m -23
 X s 291 823 m -46 X s 268 875 m -23 X s 268 926 m -23 X s 268 978 m -23 X s 291 1030 m -46 X s 268 1082 m -23 X s 268 1134 m -23 X s 268 1185 m -23 X s 291 1237 m -46 X s 291 1237 m -46 X s 268 1289 m -23 X s 268 1341 m -23 X s 0.490196 0.545098
 0.615686 c 1 1 1 c 0.490196 0.545098 0.615686 c 907 201 245 1341 bl 245 1341 m 907 X s 1152 1341 m 201 Y s 1152 1542 m -907 X s 245 1542 m -201 Y s black
 gsave  2268 1676 0 0 C 515.735 1471.36 t 0 r /Helvetica-Bold findfont 56.8825 sf 0 0 m (Signal efficiency) show NC gr  0 0 0.933333 c 9 lw 286 1492 m 190 X s black
 gsave  2268 1676 0 0 C 515.735 1368.97 t 0 r /Helvetica-Bold findfont 56.8825 sf 0 0 m (Background efficiency) show NC gr  1 0 0 c 286 1391 m 190 X s 0.490196 0.545098 0.615686 c 3 lw 1 1 1 c 0.490196 0.545098 0.615686 c 889 201 1152 1341 bl 1152
 1341 m 889 X s 2041 1341 m 201 Y s 2041 1542 m -889 X s 1152 1542 m -201 Y s black
 gsave  2268 1676 0 0 C 1418.27 1494.11 t 0 r /Helvetica-Bold findfont 56.8825 sf 0 0 m (Signal purity) show NC gr  0 0 0.933333 c[  52 12 ] 0 sd 6 lw 1192 1509 m 187 X s black
 gsave  2268 1676 0 0 C 1418.27 1429.65 t 0 r /Helvetica-Bold findfont 56.8825 sf 0 0 m (Signal efficiency*purity) show NC gr  0 0 0.933333 c[  22 12 ] 0 sd 1192 1441 m 187 X s black
 gsave  2268 1676 0 0 C 1501.7 1361.39 t 0 r /Helvetica-Bold findfont 56.8825 sf 0 0 m (S+B) show NC gr [  ] 0 sd 1483 1407 m 7 -49 d s 3 lw 1490 1358 m 8 64 d s 1498 1422 m 114 X s
 gsave  2268 1676 0 0 C 1418.27 1361.39 t 0 r /Helvetica-Bold findfont 56.8825 sf 0 0 m (S/) show NC gr  0 0.666667 0 c 9 lw 1192 1374 m 187 X s black 3 lw 245 1237 m 1796 X s
 gsave  2268 1676 0 0 C 337.503 386.801 t 0 r /Helvetica-Bold findfont 53.0904 sf 0 0 m (For 1000 signal and 1000 background) show NC gr 
 gsave  2268 1676 0 0 C 1058.01 318.542 t 0 r /Helvetica-Bold findfont 53.0904 sf 0 0 m ( is) show NC gr 
 gsave  2268 1676 0 0 C 955.626 318.542 t 0 r /Helvetica-Bold findfont 53.0904 sf 0 0 m (S+B) show NC gr  6 lw 933 360 m 7 -45 d s 3 lw 940 315 m 8 60 d s 948 375 m 110 X s
 gsave  2268 1676 0 0 C 337.503 318.542 t 0 r /Helvetica-Bold findfont 53.0904 sf 0 0 m (events the maximum S/) show NC gr 
 gsave  2268 1676 0 0 C 337.503 254.075 t 0 r /Helvetica-Bold findfont 53.0904 sf 0 0 m (25.91 when cutting at \2550.12) show NC gr  0.490196 0.545098 0.615686 c 0.364706 0.419608 0.490196 c 1471 96 23 1572 bf 0.490196 0.545098 0.615686 c 23 1572 m
 1471 X s 1494 1572 m 96 Y s 1494 1668 m -1471 X s 23 1668 m -96 Y s 1 1 1 c black 1 1 1 c
 gsave  2268 1676 0 0 C 75.8434 1600.29 t 0 r /Helvetica-Bold findfont 75.8434 sf 0 0 m (Cut efficiencies and optimal cut value) show NC gr  0 0.666667 0 c 2041 201 m 1140 Y s 1995 201 m 46 X s 2018 241 m 23 X s 2018 281 m 23 X s 2018 321 m 23 X s
 2018 361 m 23 X s 1995 401 m 46 X s 2018 441 m 23 X s 2018 481 m 23 X s 2018 521 m 23 X s 2018 561 m 23 X s 1995 601 m 46 X s 2018 641 m 23 X s 2018 681 m 23 X s 2018 721 m 23 X s 2018 761 m 23 X s 1995 801 m 46 X s 2018 841 m 23 X s 2018 881 m 23 X
 s 2018 921 m 23 X s 2018 961 m 23 X s 1995 1001 m 46 X s 2018 1041 m 23 X s 2018 1081 m 23 X s 2018 1121 m 23 X s 2018 1161 m 23 X s 1995 1201 m 46 X s 1995 1201 m 46 X s 2018 1241 m 23 X s 2018 1281 m 23 X s 2018 1321 m 23 X s black 0 0.666667 0 c
 gsave  2268 1676 0 0 C 2051.56 178.232 t 0 r /Helvetica-Bold findfont 64.4669 sf 0 0 m (0) show NC gr  black 0 0.666667 0 c
 gsave  2268 1676 0 0 C 2051.56 375.425 t 0 r /Helvetica-Bold findfont 64.4669 sf 0 0 m (5) show NC gr  black 0 0.666667 0 c
 gsave  2268 1676 0 0 C 2051.56 576.41 t 0 r /Helvetica-Bold findfont 64.4669 sf 0 0 m (10) show NC gr  black 0 0.666667 0 c
 gsave  2268 1676 0 0 C 2051.56 777.394 t 0 r /Helvetica-Bold findfont 64.4669 sf 0 0 m (15) show NC gr  black 0 0.666667 0 c
 gsave  2268 1676 0 0 C 2051.56 974.587 t 0 r /Helvetica-Bold findfont 64.4669 sf 0 0 m (20) show NC gr  black 0 0.666667 0 c
 gsave  2268 1676 0 0 C 2051.56 1175.57 t 0 r /Helvetica-Bold findfont 64.4669 sf 0 0 m (25) show NC gr  black 0 0.666667 0 c
 gsave  2268 1676 0 0 C 2203.25 963.211 t 90 r /Helvetica-Bold findfont 64.4669 sf 0 0 m (Significance) show NC gr 
 gr  gr showpage
end
%%EOF
