%!PS-Adobe-2.0 EPSF-2.0
%%BoundingBox:  0 0 567 419
%%Title: dataset/plots/overtrain_BDT.eps: TMVA comparison BDT
%%Creator: ROOT Version 6.12/06
%%CreationDate: Mon May 21 12:06:57 2018
%%DocumentNeededResources: ProcSet (FontSetInit)
%%EndComments
%%BeginProlog
80 dict begin
/s {stroke} def /l {lineto} def /m {moveto} def /t {translate} def
/r {rotate} def /rl {roll}  def /R {repeat} def
/d {rlineto} def /rm {rmoveto} def /gr {grestore} def /f {eofill} def
/c {setrgbcolor} def /black {0 setgray} def /sd {setdash} def
/cl {closepath} def /sf {scalefont setfont} def /lw {setlinewidth} def
/box {m dup 0 exch d exch 0 d 0 exch neg d cl} def
/NC{systemdict begin initclip end}def/C{NC box clip newpath}def
/bl {box s} def /bf {gsave box gsave f grestore 1 lw [] 0 sd s grestore} def /Y { 0 exch d} def /X { 0 d} def 
/K {{pop pop 0 moveto} exch kshow} bind def
/ita {/ang 15 def gsave [1 0 ang dup sin exch cos div 1 0 0] concat} def 
/mp {newpath /y exch def /x exch def} def
/side {[w .77 mul w .23 mul] .385 w mul sd w 0 l currentpoint t -144 r} def
/mr {mp x y w2 0 360 arc} def /m24 {mr s} def /m20 {mr f} def
/mb {mp x y w2 add m w2 neg 0 d 0 w neg d w 0 d 0 w d cl} def
/mt {mp x y w2 add m w2 neg w neg d w 0 d cl} def
/w4 {w 4 div} def
/w6 {w 6 div} def
/w8 {w 8 div} def
/m21 {mb f} def /m25 {mb s} def /m22 {mt f} def /m26{mt s} def
/m23 {mp x y w2 sub m w2 w d w neg 0 d cl f} def
/m27 {mp x y w2 add m w3 neg w2 neg d w3 w2 neg d w3 w2 d cl s} def
/m28 {mp x w2 sub y w2 sub w3 add m w3 0 d  0 w3 neg d w3 0 d 0 w3 d w3 0 d  0 w3 d w3 neg 0 d 0 w3 d w3 neg 0 d 0 w3 neg d w3 neg 0 d cl s } def
/m29 {mp gsave x w2 sub y w2 add w3 sub m currentpoint t 4 {side} repeat cl fill gr} def
/m30 {mp gsave x w2 sub y w2 add w3 sub m currentpoint t 4 {side} repeat cl s gr} def
/m31 {mp x y w2 sub m 0 w d x w2 sub y m w 0 d x w2 sub y w2 add m w w neg d x w2 sub y w2 sub m w w d s} def
/m32 {mp x y w2 sub m w2 w d w neg 0 d cl s} def
/m33 {mp x y w2 add m w3 neg w2 neg d w3 w2 neg d w3 w2 d cl f} def
/m34 {mp x w2 sub y w2 sub w3 add m w3 0 d  0 w3 neg d w3 0 d 0 w3 d w3 0 d  0 w3 d w3 neg 0 d 0 w3 d w3 neg 0 d 0 w3 neg d w3 neg 0 d cl f } def
/m35 {mp x y w2 add m w2 neg w2 neg d w2 w2 neg d w2 w2 d w2 neg w2 d x y w2 sub m 0 w d x w2 sub y m w 0 d s} def
/m36 {mb x w2 sub y w2 add m w w neg d x w2 sub y w2 sub m w w d s} def
/m37 {mp x y m w4 neg w2 d w4 neg w2 neg d w2 0 d  w4 neg w2 neg d w2 0 d w4 neg w2 d w2 0 d w4 neg w2 d w4 neg w2 neg d cl s} def
/m38 {mp x w4 sub y w2 add m w4 neg w4 neg d 0 w2 neg d w4 w4 neg d w2 0 d w4 w4 d 0 w2 d w4 neg w4 d w2 neg 0 d x y w2 sub m 0 w d x w2 sub y m w 0 d cl s} def
/m39 {mp x y m w4 neg w2 d w4 neg w2 neg d w2 0 d  w4 neg w2 neg d w2 0 d w4 neg w2 d w2 0 d w4 neg w2 d w4 neg w2 neg d cl f} def
/m40 {mp x y m w4 w2 d w4 w4 neg d w2 neg w4 neg d w2 w4 neg d w4 neg w4 neg d w4 neg w2 d w4 neg w2 neg d w4 neg w4 d w2 w4 d w2 neg w4 d w4 w4 d w4 w2 neg d cl s} def
/m41 {mp x y m w4 w2 d w4 w4 neg d w2 neg w4 neg d w2 w4 neg d w4 neg w4 neg d w4 neg w2 d w4 neg w2 neg d w4 neg w4 d w2 w4 d w2 neg w4 d w4 w4 d w4 w2 neg d cl f} def
/m42 {mp x y w2 add m w8 neg w2 -3 4 div mul d w2 -3 4 div mul w8 neg d w2 3 4 div mul w8 neg d w8 w2 -3 4 div mul d w8 w2 3 4 div mul d w2 3 4 div mul w8 d w2 -3 4 div mul w8 d w8 neg w2 3 4 div mul d cl s} def
/m43 {mp x y w2 add m w8 neg w2 -3 4 div mul d w2 -3 4 div mul w8 neg d w2 3 4 div mul w8 neg d w8 w2 -3 4 div mul d w8 w2 3 4 div mul d w2 3 4 div mul w8 d w2 -3 4 div mul w8 d w8 neg w2 3 4 div mul d cl f} def
/m44 {mp x y m w6 neg w2 d w2 2 3 div mul 0 d w6 neg w2 neg d w2 w6 d 0 w2 -2 3 div mul d w2 neg w6 d w6 w2 neg d w2 -2 3 div mul 0 d w6 w2 d w2 neg w6 neg d 0 w2 2 3 div mul d w2 w6 neg d cl s} def
/m45 {mp x y m w6 neg w2 d w2 2 3 div mul 0 d w6 neg w2 neg d w2 w6 d 0 w2 -2 3 div mul d w2 neg w6 d w6 w2 neg d w2 -2 3 div mul 0 d w6 w2 d w2 neg w6 neg d 0 w2 2 3 div mul d w2 w6 neg d cl f} def
/m46 {mp x y w4 add m w4 neg w4 d w4 neg w4 neg d  w4 w4 neg d w4 neg w4 neg d w4 w4 neg d w4 w4 d w4 w4 neg d w4 w4 d w4 neg w4 d w4 w4 d w4 neg w4 d w4 neg w4 neg d cl s} def
/m47 {mp x y w4 add m w4 neg w4 d w4 neg w4 neg d w4 w4 neg d w4 neg w4 neg d  w4 w4 neg d w4 w4 d w4 w4 neg d w4 w4 d w4 neg w4 d w4 w4 d w4 neg w4 d w4 neg w4 neg d cl f} def
/m48 {mp x y w4 add m w4 neg w4 d w4 neg w4 neg d w4 w4 neg d  w4 neg w4 neg d w4 w4 neg d w4 w4 d w4 w4 neg d w4 w4 d w4 neg w4 d w4 w4 d w4 neg w4 d w4 neg w4 neg d  w4 w4 neg d w4 neg w4 neg d w4 neg w4 d w4 w4 d cl f} def
/m49 {mp x w2 sub w3 add y w2 sub w3 add m  0 w3 neg d w3 0 d 0 w3 d w3 0 d 0 w3 d w3 neg 0 d 0 w3 d w3 neg 0 d 0 w3 neg d w3 neg 0 d 0 w3 neg d w3 0 d 0 w3 d w3 0 d 0 w3 neg d w3 neg 0 d cl f } def
/m2 {mp x y w2 sub m 0 w d x w2 sub y m w 0 d s} def
/m5 {mp x w2 sub y w2 sub m w w d x w2 sub y w2 add m w w neg d s} def
%%IncludeResource: ProcSet (FontSetInit)
%%IncludeResource: font Times-Roman
%%IncludeResource: font Times-Italic
%%IncludeResource: font Times-Bold
%%IncludeResource: font Times-BoldItalic
%%IncludeResource: font Helvetica
%%IncludeResource: font Helvetica-Oblique
%%IncludeResource: font Helvetica-Bold
%%IncludeResource: font Helvetica-BoldOblique
%%IncludeResource: font Courier
%%IncludeResource: font Courier-Oblique
%%IncludeResource: font Courier-Bold
%%IncludeResource: font Courier-BoldOblique
%%IncludeResource: font Symbol
%%IncludeResource: font ZapfDingbats
/reEncode {exch findfont dup length dict begin {1 index /FID eq  {pop pop} {def} ifelse } forall /Encoding exch def currentdict end dup /FontName get exch definefont pop } def [/Times-Bold /Times-Italic /Times-BoldItalic /Helvetica /Helvetica-Oblique
 /Helvetica-Bold /Helvetica-BoldOblique /Courier /Courier-Oblique /Courier-Bold /Courier-BoldOblique /Times-Roman /AvantGarde-Book /AvantGarde-BookOblique /AvantGarde-Demi /AvantGarde-DemiOblique /Bookman-Demi /Bookman-DemiItalic /Bookman-Light
 /Bookman-LightItalic /Helvetica-Narrow /Helvetica-Narrow-Bold /Helvetica-Narrow-BoldOblique /Helvetica-Narrow-Oblique /NewCenturySchlbk-Roman /NewCenturySchlbk-Bold /NewCenturySchlbk-BoldItalic /NewCenturySchlbk-Italic /Palatino-Bold
 /Palatino-BoldItalic /Palatino-Italic /Palatino-Roman ] {ISOLatin1Encoding reEncode } forall
%%EndProlog
%%BeginSetup
%%EndSetup
newpath  gsave  .25 .25 scale  gsave  0 0 t 0.490196 0.545098 0.615686 c[  ] 0 sd 3 lw 0.941176 0.941176 0.941176 c 2268 1676 0 0 bf black 1 1 0.992157 c 1916 1308 238 201 bf black 1916 1308 238 201 bl 1 1 0.992157 c 1916 1308 238 201 bf black 1916
 1308 238 201 bl 238 201 m 1916 X s 439 244 m -43 Y s 534 222 m -21 Y s 628 222 m -21 Y s 723 222 m -21 Y s 817 244 m -43 Y s 912 222 m -21 Y s 1006 222 m -21 Y s 1101 222 m -21 Y s 1195 244 m -43 Y s 1290 222 m -21 Y s 1384 222 m -21 Y s 1479 222 m
 -21 Y s 1573 244 m -43 Y s 1668 222 m -21 Y s 1762 222 m -21 Y s 1857 222 m -21 Y s 1951 244 m -43 Y s 439 244 m -43 Y s 345 222 m -21 Y s 250 222 m -21 Y s 1951 244 m -43 Y s 2046 222 m -21 Y s 2140 222 m -21 Y s
 gsave  2268 1676 0 0 C 405.762 128.934 t 0 r /Helvetica-Bold findfont 64.4669 sf 0 0 m (0.6) show NC gr 
 gsave  2268 1676 0 0 C 375.425 128.934 t 0 r /Symbol findfont 64.4669 sf 0 0 m (-) show NC gr 
 gsave  2268 1676 0 0 C 784.979 128.934 t 0 r /Helvetica-Bold findfont 64.4669 sf 0 0 m (0.4) show NC gr 
 gsave  2268 1676 0 0 C 750.849 128.934 t 0 r /Symbol findfont 64.4669 sf 0 0 m (-) show NC gr 
 gsave  2268 1676 0 0 C 1164.2 128.934 t 0 r /Helvetica-Bold findfont 64.4669 sf 0 0 m (0.2) show NC gr 
 gsave  2268 1676 0 0 C 1133.86 128.934 t 0 r /Symbol findfont 64.4669 sf 0 0 m (-) show NC gr 
 gsave  2268 1676 0 0 C 1551 128.934 t 0 r /Helvetica-Bold findfont 64.4669 sf 0 0 m (0) show NC gr 
 gsave  2268 1676 0 0 C 1903.67 128.934 t 0 r /Helvetica-Bold findfont 64.4669 sf 0 0 m (0.2) show NC gr 
 gsave  2268 1676 0 0 C 1664.76 34.1295 t 0 r /Helvetica-Bold findfont 72.0512 sf 0 0 m (BDT response) show NC gr  238 1509 m 1916 X s 439 1466 m 43 Y s 534 1487 m 22 Y s 628 1487 m 22 Y s 723 1487 m 22 Y s 817 1466 m 43 Y s 912 1487 m 22 Y s 1006
 1487 m 22 Y s 1101 1487 m 22 Y s 1195 1466 m 43 Y s 1290 1487 m 22 Y s 1384 1487 m 22 Y s 1479 1487 m 22 Y s 1573 1466 m 43 Y s 1668 1487 m 22 Y s 1762 1487 m 22 Y s 1857 1487 m 22 Y s 1951 1466 m 43 Y s 439 1466 m 43 Y s 345 1487 m 22 Y s 250 1487
 m 22 Y s 1951 1466 m 43 Y s 2046 1487 m 22 Y s 2140 1487 m 22 Y s 238 201 m 1308 Y s 291 201 m -53 X s 265 232 m -27 X s 265 262 m -27 X s 265 292 m -27 X s 291 323 m -53 X s 265 353 m -27 X s 265 384 m -27 X s 265 414 m -27 X s 291 445 m -53 X s
 265 475 m -27 X s 265 506 m -27 X s 265 536 m -27 X s 291 566 m -53 X s 265 597 m -27 X s 265 627 m -27 X s 265 658 m -27 X s 291 688 m -53 X s 265 719 m -27 X s 265 749 m -27 X s 265 780 m -27 X s 291 810 m -53 X s 265 840 m -27 X s 265 871 m -27 X
 s 265 901 m -27 X s 291 932 m -53 X s 265 962 m -27 X s 265 993 m -27 X s 265 1023 m -27 X s 291 1054 m -53 X s 265 1084 m -27 X s 265 1114 m -27 X s 265 1145 m -27 X s 291 1175 m -53 X s 265 1206 m -27 X s 265 1236 m -27 X s 265 1267 m -27 X s 291
 1297 m -53 X s 265 1328 m -27 X s 265 1358 m -27 X s 265 1388 m -27 X s 291 1419 m -53 X s 291 1419 m -53 X s 265 1449 m -27 X s 265 1480 m -27 X s
 gsave  2268 1676 0 0 C 174.44 178.232 t 0 r /Helvetica-Bold findfont 64.4669 sf 0 0 m (0) show NC gr 
 gsave  2268 1676 0 0 C 174.44 299.581 t 0 r /Helvetica-Bold findfont 64.4669 sf 0 0 m (2) show NC gr 
 gsave  2268 1676 0 0 C 174.44 420.931 t 0 r /Helvetica-Bold findfont 64.4669 sf 0 0 m (4) show NC gr 
 gsave  2268 1676 0 0 C 174.44 542.28 t 0 r /Helvetica-Bold findfont 64.4669 sf 0 0 m (6) show NC gr 
 gsave  2268 1676 0 0 C 174.44 663.629 t 0 r /Helvetica-Bold findfont 64.4669 sf 0 0 m (8) show NC gr 
 gsave  2268 1676 0 0 C 136.518 784.979 t 0 r /Helvetica-Bold findfont 64.4669 sf 0 0 m (10) show NC gr 
 gsave  2268 1676 0 0 C 136.518 906.328 t 0 r /Helvetica-Bold findfont 64.4669 sf 0 0 m (12) show NC gr 
 gsave  2268 1676 0 0 C 136.518 1027.68 t 0 r /Helvetica-Bold findfont 64.4669 sf 0 0 m (14) show NC gr 
 gsave  2268 1676 0 0 C 136.518 1149.03 t 0 r /Helvetica-Bold findfont 64.4669 sf 0 0 m (16) show NC gr 
 gsave  2268 1676 0 0 C 136.518 1274.17 t 0 r /Helvetica-Bold findfont 64.4669 sf 0 0 m (18) show NC gr 
 gsave  2268 1676 0 0 C 136.518 1395.52 t 0 r /Helvetica-Bold findfont 64.4669 sf 0 0 m (20) show NC gr 
 gsave  2268 1676 0 0 C 64.4669 1425.86 t 90 r /Helvetica-Bold findfont 72.0512 sf 0 0 m (dx) show NC gr 
 gsave  2268 1676 0 0 C 30.3373 1406.89 t 90 r /Helvetica-Bold findfont 45.506 sf 0 0 m ( ) show NC gr 
 gsave  2268 1676 0 0 C 64.4669 1384.14 t 90 r /Helvetica-Bold findfont 72.0512 sf 0 0 m (/) show NC gr 
 gsave  2268 1676 0 0 C 30.3373 1365.18 t 90 r /Helvetica-Bold findfont 45.506 sf 0 0 m ( ) show NC gr 
 gsave  2268 1676 0 0 C 60.6747 1092.14 t 90 r /Helvetica-Bold findfont 72.0512 sf 0 0 m (\(1/N\) dN) show NC gr  2154 201 m 1308 Y s 2101 201 m 53 X s 2128 232 m 26 X s 2128 262 m 26 X s 2128 292 m 26 X s 2101 323 m 53 X s 2128 353 m 26 X s 2128 384
 m 26 X s 2128 414 m 26 X s 2101 445 m 53 X s 2128 475 m 26 X s 2128 506 m 26 X s 2128 536 m 26 X s 2101 566 m 53 X s 2128 597 m 26 X s 2128 627 m 26 X s 2128 658 m 26 X s 2101 688 m 53 X s 2128 719 m 26 X s 2128 749 m 26 X s 2128 780 m 26 X s 2101
 810 m 53 X s 2128 840 m 26 X s 2128 871 m 26 X s 2128 901 m 26 X s 2101 932 m 53 X s 2128 962 m 26 X s 2128 993 m 26 X s 2128 1023 m 26 X s 2101 1054 m 53 X s 2128 1084 m 26 X s 2128 1114 m 26 X s 2128 1145 m 26 X s 2101 1175 m 53 X s 2128 1206 m 26
 X s 2128 1236 m 26 X s 2128 1267 m 26 X s 2101 1297 m 53 X s 2128 1328 m 26 X s 2128 1358 m 26 X s 2128 1388 m 26 X s 2101 1419 m 53 X s 2101 1419 m 53 X s 2128 1449 m 26 X s 2128 1480 m 26 X s 0.490196 0.545098 0.615686 c 1 1 1 c 0.490196 0.545098
 0.615686 c 907 202 238 1307 bl 238 1307 m 907 X s 1145 1307 m 202 Y s 1145 1509 m -907 X s 238 1509 m -202 Y s black
 gsave  2268 1676 0 0 C 417.138 1437.23 t 0 r /Helvetica-Bold findfont 56.8825 sf 0 0 m (Signal \(test sample\)) show NC gr  0.49 0.6 0.82 c 265 1423 m 127 X 70 Y -127 X f 0 0 0.933333 c 265 1493 m 127 X s 265 1423 m 127 X s 392 1423 m 70 Y s 265
 1423 m 70 Y s black
 gsave  2268 1676 0 0 C 417.138 1338.64 t 0 r /Helvetica-Bold findfont 56.8825 sf 0 0 m (Background \(test sample\)) show NC gr  1 0 0 c 392 1354 m -32 -32 d s 383 1393 m -71 -71 d s 335 1393 m -70 -69 d s 286 1393 m -21 -21 d s 0 0 0.933333 c 1 0 0
 c 265 1393 m 127 X s 265 1322 m 127 X s 392 1322 m 71 Y s 265 1322 m 71 Y s 0 0 0.933333 c 0.49 0.6 0.82 c black 0.49 0.6 0.82 c 238 201 m 958 X 1 Y 48 X 1 Y 96 X 3 Y 48 X 4 Y 48 X 7 Y 48 X 70 Y 48 X 154 Y 47 X 103 Y 48 X 85 Y 48 X -10 Y 48 X -65 Y
 48 X -151 Y 48 X -139 Y 48 X -35 Y 48 X 46 Y 48 X -51 Y 48 X 32 Y 48 X -41 Y 47 X 31 Y 48 X -45 Y f 0 0 0.933333 c 0.49 0.6 0.82 c 0 0 0.933333 c 238 201 m 958 X 1 Y 48 X 1 Y 96 X 3 Y 48 X 4 Y 48 X 7 Y 48 X 70 Y 48 X 154 Y 47 X 103 Y 48 X 85 Y 48 X
 -10 Y 48 X -65 Y 48 X -151 Y 48 X -139 Y 48 X -35 Y 48 X 46 Y 48 X -51 Y 48 X 32 Y 48 X -41 Y 47 X 31 Y 48 X -45 Y s 1 0 0 c black 1 0 0 c 2126 202 m -1 -1 d s 2078 202 m -1 -1 d s 2031 203 m -2 -2 d s 1982 203 m -1 -2 d s 1945 214 m -12 -13 d s
 1893 209 m -8 -8 d s 1849 213 m -12 -12 d s 1819 232 m -30 -31 d s 1777 237 m -36 -36 d s 1771 280 m -79 -79 d s 1739 296 m -95 -95 d s 1723 328 m -127 -127 d s 1696 349 m -148 -148 d s 1675 376 m -175 -175 d s 1664 414 m -180 -181 d s 1477 226 m
 -25 -25 d s 1627 425 m -95 -96 d s 1505 303 m -21 -22 d s 1411 208 m -7 -7 d s 1615 461 m -83 -84 d s 1362 208 m -6 -7 d s 1548 442 m -16 -17 d s 1321 215 m -13 -14 d s 1269 210 m -10 -9 d s 1217 206 m -6 -5 d s 1168 205 m -5 -4 d s 1126 212 m -11
 -11 d s 1074 208 m -7 -7 d s 1023 205 m -4 -4 d s 981 211 m -10 -10 d s 926 205 m -3 -4 d s 893 219 m -18 -18 d s 832 207 m -5 -6 d s 789 212 m -11 -11 d s 765 236 m -35 -35 d s 723 242 m -6 -6 d s 683 202 m -1 -1 d s 643 210 m -9 -9 d s 589 205 m
 -3 -4 d s 541 204 m -3 -3 d s 495 206 m -5 -5 d s 458 217 m -16 -16 d s 406 214 m -12 -13 d s 373 229 m -28 -28 d s 306 210 m -9 -9 d s 286 238 m -37 -37 d s 286 286 m -48 -48 d s 286 334 m -48 -48 d s 286 382 m -48 -48 d s 286 430 m -48 -48 d s 286
 478 m -48 -47 d s 286 527 m -48 -48 d s 286 575 m -48 -48 d s 286 623 m -48 -48 d s 286 671 m -48 -48 d s 286 719 m -48 -48 d s 286 767 m -48 -48 d s 286 815 m -48 -48 d s 286 863 m -48 -48 d s 286 911 m -48 -48 d s 286 959 m -48 -47 d s 286 1008 m
 -48 -48 d s 286 1056 m -48 -48 d s 286 1104 m -48 -48 d s 286 1152 m -48 -48 d s 286 1200 m -48 -48 d s 245 1207 m -7 -7 d s 238 1207 m 48 X -997 Y 48 X 19 Y 48 X -15 Y 48 X 3 Y 48 X -11 Y 48 X -2 Y 47 X 1 Y 48 X 5 Y 48 X -8 Y 48 X 40 Y 48 X -30 Y
 48 X -5 Y 48 X 12 Y 48 X -14 Y 48 X 6 Y 48 X -6 Y 48 X 3 Y 47 X 4 Y 48 X -7 Y 48 X 1 Y 48 X 4 Y 48 X 5 Y 48 X -7 Y 96 X 18 Y 48 X 77 Y 48 X 139 Y 47 X 19 Y 48 X -47 Y 48 X -65 Y 48 X -53 Y 48 X -59 Y 48 X -24 Y 48 X -4 Y 48 X 5 Y 48 X -11 Y 96 X -1
 Y 95 X -1 Y s 0.490196 0.545098 0.615686 c 1 1 1 c 0.490196 0.545098 0.615686 c 952 202 1202 1307 bl 1202 1307 m 952 X s 2154 1307 m 202 Y s 2154 1509 m -952 X s 1202 1509 m -202 Y s black
 gsave  2268 1676 0 0 C 1296.92 1437.23 t 0 r /Helvetica-Bold findfont 56.8825 sf 0 0 m (Signal \(training sample\)) show NC gr  0 0 0.933333 c /w 21 def /w2 {w 2 div} def /w3 {w 3 div} def 1250 1458 m20 black
 gsave  2268 1676 0 0 C 1296.92 1338.64 t 0 r /Helvetica-Bold findfont 56.8825 sf 0 0 m (Background \(training sample\)) show NC gr  1 0 0 c 1250 1358 m20 0 0 0.933333 c 1 1 1 c 0 0 0.933333 c 1148 202 m 17 X s 1180 202 m 16 X s 1148 194 m 15 Y s
 1196 194 m 15 Y s 1172 202 m20 1196 203 m 17 X s 1228 203 m 16 X s 1196 195 m 15 Y s 1244 195 m 15 Y s 1220 203 m20 1292 202 m 16 X s 1324 202 m 16 X s 1292 195 m 15 Y s 1340 195 m 15 Y s 1316 202 m20 1340 205 m 16 X s 1371 205 m 17 X s 1340 197 m
 15 Y s 1388 197 m 15 Y s 1364 205 m20 1388 207 m 16 X s 1419 207 m 17 X s 1388 199 m 15 Y s 1436 199 m 15 Y s 1412 207 m20 1436 213 m 16 X s 1467 213 m 17 X s 1436 206 m 15 Y s 1484 206 m 15 Y s 1460 213 m20 1484 267 m 16 X s 1515 267 m 17 X s 1484
 260 m 15 Y s 1532 260 m 15 Y s 1508 267 m20 1556 412 m 3 Y s 1556 430 m 3 Y s 1532 423 m 16 X s 1563 423 m 16 X s 1548 412 m 15 X s 1548 433 m 15 X s 1532 415 m 15 Y s 1579 415 m 15 Y s 1556 423 m20 1603 532 m 6 Y s 1603 553 m 5 Y s 1579 545 m 17 X
 s 1611 545 m 16 X s 1596 532 m 15 X s 1596 558 m 15 X s 1579 538 m 15 Y s 1627 538 m 15 Y s 1603 545 m20 1651 596 m 6 Y s 1651 618 m 6 Y s 1627 610 m 17 X s 1659 610 m 16 X s 1644 596 m 15 X s 1644 624 m 15 X s 1627 602 m 16 Y s 1675 602 m 16 Y s
 1651 610 m20 1699 639 m 7 Y s 1699 661 m 7 Y s 1675 653 m 17 X s 1707 653 m 16 X s 1692 639 m 15 X s 1692 668 m 15 X s 1675 646 m 15 Y s 1723 646 m 15 Y s 1699 653 m20 1747 552 m 5 Y s 1747 572 m 6 Y s 1723 565 m 17 X s 1755 565 m 16 X s 1740 552 m
 15 X s 1740 578 m 15 X s 1723 557 m 15 Y s 1771 557 m 15 Y s 1747 565 m20 1795 400 m 3 Y s 1795 418 m 2 Y s 1771 410 m 16 X s 1803 410 m 16 X s 1787 400 m 16 X s 1787 420 m 16 X s 1771 403 m 15 Y s 1819 403 m 15 Y s 1795 410 m20 1819 279 m 16 X s
 1851 279 m 16 X s 1819 272 m 15 Y s 1867 272 m 15 Y s 1843 279 m20 1867 231 m 16 X s 1898 231 m 17 X s 1867 223 m 16 Y s 1915 223 m 16 Y s 1891 231 m20 1915 272 m 16 X s 1946 272 m 17 X s 1915 264 m 15 Y s 1963 264 m 15 Y s 1939 272 m20 1963 218 m
 16 X s 1994 218 m 17 X s 1963 210 m 16 Y s 2011 210 m 16 Y s 1987 218 m20 2011 260 m 16 X s 2042 260 m 17 X s 2011 253 m 15 Y s 2059 253 m 15 Y s 2035 260 m20 2059 210 m 16 X s 2090 210 m 16 X s 2059 203 m 15 Y s 2106 203 m 15 Y s 2082 210 m20 2106
 250 m 17 X s 2138 250 m 16 X s 2106 243 m 15 Y s 2154 243 m 15 Y s 2130 250 m20 1 0 0 c 1 1 1 c 1 0 0 c 262 1177 m 14 Y s 262 1206 m 14 Y s 238 1198 m 16 X s 270 1198 m 16 X s 254 1177 m 16 X s 254 1220 m 16 X s 238 1191 m 15 Y s 286 1191 m 15 Y s
 262 1198 m20 286 214 m 16 X s 318 214 m 16 X s 286 206 m 15 Y s 334 206 m 15 Y s 310 214 m20 334 231 m 16 X s 365 231 m 17 X s 334 223 m 16 Y s 382 223 m 16 Y s 358 231 m20 382 213 m 16 X s 413 213 m 17 X s 382 206 m 15 Y s 430 206 m 15 Y s 406 213
 m20 430 215 m 16 X s 461 215 m 17 X s 430 207 m 15 Y s 478 207 m 15 Y s 454 215 m20 478 206 m 16 X s 509 206 m 17 X s 478 198 m 16 Y s 526 198 m 16 Y s 502 206 m20 526 205 m 16 X s 557 205 m 16 X s 526 197 m 16 Y s 573 197 m 16 Y s 549 205 m20 573
 204 m 17 X s 605 204 m 16 X s 573 196 m 16 Y s 621 196 m 16 Y s 597 204 m20 621 208 m 17 X s 653 208 m 16 X s 621 200 m 15 Y s 669 200 m 15 Y s 645 208 m20 669 203 m 17 X s 701 203 m 16 X s 669 195 m 15 Y s 717 195 m 15 Y s 693 203 m20 717 255 m 17
 X s 749 255 m 16 X s 717 247 m 15 Y s 765 247 m 15 Y s 741 255 m20 765 209 m 16 X s 797 209 m 16 X s 765 202 m 15 Y s 813 202 m 15 Y s 789 209 m20 813 208 m 16 X s 845 208 m 16 X s 813 201 m 15 Y s 861 201 m 15 Y s 837 208 m20 861 213 m 16 X s 892
 213 m 17 X s 861 205 m 15 Y s 909 205 m 15 Y s 885 213 m20 909 204 m 16 X s 940 204 m 17 X s 909 196 m 15 Y s 957 196 m 15 Y s 933 204 m20 957 210 m 16 X s 988 210 m 17 X s 957 202 m 15 Y s 1005 202 m 15 Y s 981 210 m20 1005 202 m 16 X s 1036 202 m
 17 X s 1005 194 m 15 Y s 1053 194 m 15 Y s 1029 202 m20 1053 209 m 16 X s 1084 209 m 16 X s 1053 201 m 15 Y s 1100 201 m 15 Y s 1076 209 m20 1100 213 m 17 X s 1132 213 m 16 X s 1100 206 m 15 Y s 1148 206 m 15 Y s 1124 213 m20 1148 208 m 17 X s 1180
 208 m 16 X s 1148 200 m 15 Y s 1196 200 m 15 Y s 1172 208 m20 1196 205 m 17 X s 1228 205 m 16 X s 1196 197 m 16 Y s 1244 197 m 16 Y s 1220 205 m20 1244 211 m 16 X s 1276 211 m 16 X s 1244 203 m 15 Y s 1292 203 m 15 Y s 1268 211 m20 1292 211 m 16 X s
 1324 211 m 16 X s 1292 204 m 15 Y s 1340 204 m 15 Y s 1316 211 m20 1340 211 m 16 X s 1371 211 m 17 X s 1340 204 m 15 Y s 1388 204 m 15 Y s 1364 211 m20 1388 210 m 16 X s 1419 210 m 17 X s 1388 203 m 15 Y s 1436 203 m 15 Y s 1412 210 m20 1436 222 m
 16 X s 1467 222 m 17 X s 1436 215 m 15 Y s 1484 215 m 15 Y s 1460 222 m20 1484 299 m 16 X s 1515 299 m 17 X s 1484 292 m 15 Y s 1532 292 m 15 Y s 1508 299 m20 1556 447 m 3 Y s 1556 466 m 3 Y s 1532 458 m 16 X s 1563 458 m 16 X s 1548 447 m 15 X s
 1548 469 m 15 X s 1532 450 m 16 Y s 1579 450 m 16 Y s 1556 458 m20 1603 460 m 4 Y s 1603 479 m 4 Y s 1579 472 m 17 X s 1611 472 m 16 X s 1596 460 m 15 X s 1596 483 m 15 X s 1579 464 m 15 Y s 1627 464 m 15 Y s 1603 472 m20 1651 399 m 2 Y s 1651 416 m
 3 Y s 1627 409 m 17 X s 1659 409 m 16 X s 1644 399 m 15 X s 1644 419 m 15 X s 1627 401 m 15 Y s 1675 401 m 15 Y s 1651 409 m20 1699 346 m 1 Y s 1699 363 m 1 Y s 1675 355 m 17 X s 1707 355 m 16 X s 1692 346 m 15 X s 1692 364 m 15 X s 1675 347 m 16 Y
 s 1723 347 m 16 Y s 1699 355 m20 1723 290 m 17 X s 1755 290 m 16 X s 1723 282 m 15 Y s 1771 282 m 15 Y s 1747 290 m20 1771 236 m 16 X s 1803 236 m 16 X s 1771 229 m 15 Y s 1819 229 m 15 Y s 1795 236 m20 1819 207 m 16 X s 1851 207 m 16 X s 1819 199 m
 15 Y s 1867 199 m 15 Y s 1843 207 m20 1867 205 m 16 X s 1898 205 m 17 X s 1867 197 m 15 Y s 1915 197 m 15 Y s 1891 205 m20 1915 214 m 16 X s 1946 214 m 17 X s 1915 206 m 15 Y s 1963 206 m 15 Y s 1939 214 m20 1963 202 m 16 X s 1994 202 m 17 X s 1963
 195 m 15 Y s 2011 195 m 15 Y s 1987 202 m20 2011 202 m 16 X s 2042 202 m 17 X s 2011 195 m 15 Y s 2059 195 m 15 Y s 2035 202 m20 2059 202 m 16 X s 2090 202 m 16 X s 2059 195 m 15 Y s 2106 195 m 15 Y s 2082 202 m20 black
 gsave  2268 1676 0 0 C 272.126 1240.34 t 0 r /Helvetica-Bold findfont 49.2982 sf 0 0 m (Kolmogorov\255Smirnov test: signal \(background\) probability = 0.001 \(0.567\)) show NC gr  238 201 m 1916 X s 439 244 m -43 Y s 534 222 m -21 Y s 628 222 m -21
 Y s 723 222 m -21 Y s 817 244 m -43 Y s 912 222 m -21 Y s 1006 222 m -21 Y s 1101 222 m -21 Y s 1195 244 m -43 Y s 1290 222 m -21 Y s 1384 222 m -21 Y s 1479 222 m -21 Y s 1573 244 m -43 Y s 1668 222 m -21 Y s 1762 222 m -21 Y s 1857 222 m -21 Y s
 1951 244 m -43 Y s 439 244 m -43 Y s 345 222 m -21 Y s 250 222 m -21 Y s 1951 244 m -43 Y s 2046 222 m -21 Y s 2140 222 m -21 Y s 238 1509 m 1916 X s 439 1466 m 43 Y s 534 1487 m 22 Y s 628 1487 m 22 Y s 723 1487 m 22 Y s 817 1466 m 43 Y s 912 1487
 m 22 Y s 1006 1487 m 22 Y s 1101 1487 m 22 Y s 1195 1466 m 43 Y s 1290 1487 m 22 Y s 1384 1487 m 22 Y s 1479 1487 m 22 Y s 1573 1466 m 43 Y s 1668 1487 m 22 Y s 1762 1487 m 22 Y s 1857 1487 m 22 Y s 1951 1466 m 43 Y s 439 1466 m 43 Y s 345 1487 m 22
 Y s 250 1487 m 22 Y s 1951 1466 m 43 Y s 2046 1487 m 22 Y s 2140 1487 m 22 Y s 238 201 m 1308 Y s 291 201 m -53 X s 265 232 m -27 X s 265 262 m -27 X s 265 292 m -27 X s 291 323 m -53 X s 265 353 m -27 X s 265 384 m -27 X s 265 414 m -27 X s 291 445
 m -53 X s 265 475 m -27 X s 265 506 m -27 X s 265 536 m -27 X s 291 566 m -53 X s 265 597 m -27 X s 265 627 m -27 X s 265 658 m -27 X s 291 688 m -53 X s 265 719 m -27 X s 265 749 m -27 X s 265 780 m -27 X s 291 810 m -53 X s 265 840 m -27 X s 265
 871 m -27 X s 265 901 m -27 X s 291 932 m -53 X s 265 962 m -27 X s 265 993 m -27 X s 265 1023 m -27 X s 291 1054 m -53 X s 265 1084 m -27 X s 265 1114 m -27 X s 265 1145 m -27 X s 291 1175 m -53 X s 265 1206 m -27 X s 265 1236 m -27 X s 265 1267 m
 -27 X s 291 1297 m -53 X s 265 1328 m -27 X s 265 1358 m -27 X s 265 1388 m -27 X s 291 1419 m -53 X s 291 1419 m -53 X s 265 1449 m -27 X s 265 1480 m -27 X s 2154 201 m 1308 Y s 2101 201 m 53 X s 2128 232 m 26 X s 2128 262 m 26 X s 2128 292 m 26 X
 s 2101 323 m 53 X s 2128 353 m 26 X s 2128 384 m 26 X s 2128 414 m 26 X s 2101 445 m 53 X s 2128 475 m 26 X s 2128 506 m 26 X s 2128 536 m 26 X s 2101 566 m 53 X s 2128 597 m 26 X s 2128 627 m 26 X s 2128 658 m 26 X s 2101 688 m 53 X s 2128 719 m 26
 X s 2128 749 m 26 X s 2128 780 m 26 X s 2101 810 m 53 X s 2128 840 m 26 X s 2128 871 m 26 X s 2128 901 m 26 X s 2101 932 m 53 X s 2128 962 m 26 X s 2128 993 m 26 X s 2128 1023 m 26 X s 2101 1054 m 53 X s 2128 1084 m 26 X s 2128 1114 m 26 X s 2128
 1145 m 26 X s 2101 1175 m 53 X s 2128 1206 m 26 X s 2128 1236 m 26 X s 2128 1267 m 26 X s 2101 1297 m 53 X s 2128 1328 m 26 X s 2128 1358 m 26 X s 2128 1388 m 26 X s 2101 1419 m 53 X s 2101 1419 m 53 X s 2128 1449 m 26 X s 2128 1480 m 26 X s
 gsave  2268 1676 0 0 C 2211.02 192.756 t 90 r /Helvetica-Bold findfont 45.506 sf 0 0 m (U/O\255flow \(S,B\): \(0.0, 0.0\)% / \(0.0, 0.0\)%) show NC gr  0.490196 0.545098 0.615686 c 0.364706 0.419608 0.490196 c 1587 96 23 1572 bf 0.490196 0.545098
 0.615686 c 23 1572 m 1587 X s 1610 1572 m 96 Y s 1610 1668 m -1587 X s 23 1668 m -96 Y s 1 1 1 c black 1 1 1 c
 gsave  2268 1676 0 0 C 102.389 1600.29 t 0 r /Helvetica-Bold findfont 68.259 sf 0 0 m (TMVA overtraining check for classifier: BDT) show NC gr 
 gr  gr showpage
end
%%EOF
