%!PS-Adobe-2.0 EPSF-2.0
%%BoundingBox:  0 0 567 419
%%Title: dataset/plots/overtrain_LikelihoodPCA.eps: TMVA comparison LikelihoodPCA
%%Creator: ROOT Version 6.12/06
%%CreationDate: Mon May 21 12:06:57 2018
%%DocumentNeededResources: ProcSet (FontSetInit)
%%EndComments
%%BeginProlog
80 dict begin
/s {stroke} def /l {lineto} def /m {moveto} def /t {translate} def
/r {rotate} def /rl {roll}  def /R {repeat} def
/d {rlineto} def /rm {rmoveto} def /gr {grestore} def /f {eofill} def
/c {setrgbcolor} def /black {0 setgray} def /sd {setdash} def
/cl {closepath} def /sf {scalefont setfont} def /lw {setlinewidth} def
/box {m dup 0 exch d exch 0 d 0 exch neg d cl} def
/NC{systemdict begin initclip end}def/C{NC box clip newpath}def
/bl {box s} def /bf {gsave box gsave f grestore 1 lw [] 0 sd s grestore} def /Y { 0 exch d} def /X { 0 d} def 
/K {{pop pop 0 moveto} exch kshow} bind def
/ita {/ang 15 def gsave [1 0 ang dup sin exch cos div 1 0 0] concat} def 
/mp {newpath /y exch def /x exch def} def
/side {[w .77 mul w .23 mul] .385 w mul sd w 0 l currentpoint t -144 r} def
/mr {mp x y w2 0 360 arc} def /m24 {mr s} def /m20 {mr f} def
/mb {mp x y w2 add m w2 neg 0 d 0 w neg d w 0 d 0 w d cl} def
/mt {mp x y w2 add m w2 neg w neg d w 0 d cl} def
/w4 {w 4 div} def
/w6 {w 6 div} def
/w8 {w 8 div} def
/m21 {mb f} def /m25 {mb s} def /m22 {mt f} def /m26{mt s} def
/m23 {mp x y w2 sub m w2 w d w neg 0 d cl f} def
/m27 {mp x y w2 add m w3 neg w2 neg d w3 w2 neg d w3 w2 d cl s} def
/m28 {mp x w2 sub y w2 sub w3 add m w3 0 d  0 w3 neg d w3 0 d 0 w3 d w3 0 d  0 w3 d w3 neg 0 d 0 w3 d w3 neg 0 d 0 w3 neg d w3 neg 0 d cl s } def
/m29 {mp gsave x w2 sub y w2 add w3 sub m currentpoint t 4 {side} repeat cl fill gr} def
/m30 {mp gsave x w2 sub y w2 add w3 sub m currentpoint t 4 {side} repeat cl s gr} def
/m31 {mp x y w2 sub m 0 w d x w2 sub y m w 0 d x w2 sub y w2 add m w w neg d x w2 sub y w2 sub m w w d s} def
/m32 {mp x y w2 sub m w2 w d w neg 0 d cl s} def
/m33 {mp x y w2 add m w3 neg w2 neg d w3 w2 neg d w3 w2 d cl f} def
/m34 {mp x w2 sub y w2 sub w3 add m w3 0 d  0 w3 neg d w3 0 d 0 w3 d w3 0 d  0 w3 d w3 neg 0 d 0 w3 d w3 neg 0 d 0 w3 neg d w3 neg 0 d cl f } def
/m35 {mp x y w2 add m w2 neg w2 neg d w2 w2 neg d w2 w2 d w2 neg w2 d x y w2 sub m 0 w d x w2 sub y m w 0 d s} def
/m36 {mb x w2 sub y w2 add m w w neg d x w2 sub y w2 sub m w w d s} def
/m37 {mp x y m w4 neg w2 d w4 neg w2 neg d w2 0 d  w4 neg w2 neg d w2 0 d w4 neg w2 d w2 0 d w4 neg w2 d w4 neg w2 neg d cl s} def
/m38 {mp x w4 sub y w2 add m w4 neg w4 neg d 0 w2 neg d w4 w4 neg d w2 0 d w4 w4 d 0 w2 d w4 neg w4 d w2 neg 0 d x y w2 sub m 0 w d x w2 sub y m w 0 d cl s} def
/m39 {mp x y m w4 neg w2 d w4 neg w2 neg d w2 0 d  w4 neg w2 neg d w2 0 d w4 neg w2 d w2 0 d w4 neg w2 d w4 neg w2 neg d cl f} def
/m40 {mp x y m w4 w2 d w4 w4 neg d w2 neg w4 neg d w2 w4 neg d w4 neg w4 neg d w4 neg w2 d w4 neg w2 neg d w4 neg w4 d w2 w4 d w2 neg w4 d w4 w4 d w4 w2 neg d cl s} def
/m41 {mp x y m w4 w2 d w4 w4 neg d w2 neg w4 neg d w2 w4 neg d w4 neg w4 neg d w4 neg w2 d w4 neg w2 neg d w4 neg w4 d w2 w4 d w2 neg w4 d w4 w4 d w4 w2 neg d cl f} def
/m42 {mp x y w2 add m w8 neg w2 -3 4 div mul d w2 -3 4 div mul w8 neg d w2 3 4 div mul w8 neg d w8 w2 -3 4 div mul d w8 w2 3 4 div mul d w2 3 4 div mul w8 d w2 -3 4 div mul w8 d w8 neg w2 3 4 div mul d cl s} def
/m43 {mp x y w2 add m w8 neg w2 -3 4 div mul d w2 -3 4 div mul w8 neg d w2 3 4 div mul w8 neg d w8 w2 -3 4 div mul d w8 w2 3 4 div mul d w2 3 4 div mul w8 d w2 -3 4 div mul w8 d w8 neg w2 3 4 div mul d cl f} def
/m44 {mp x y m w6 neg w2 d w2 2 3 div mul 0 d w6 neg w2 neg d w2 w6 d 0 w2 -2 3 div mul d w2 neg w6 d w6 w2 neg d w2 -2 3 div mul 0 d w6 w2 d w2 neg w6 neg d 0 w2 2 3 div mul d w2 w6 neg d cl s} def
/m45 {mp x y m w6 neg w2 d w2 2 3 div mul 0 d w6 neg w2 neg d w2 w6 d 0 w2 -2 3 div mul d w2 neg w6 d w6 w2 neg d w2 -2 3 div mul 0 d w6 w2 d w2 neg w6 neg d 0 w2 2 3 div mul d w2 w6 neg d cl f} def
/m46 {mp x y w4 add m w4 neg w4 d w4 neg w4 neg d  w4 w4 neg d w4 neg w4 neg d w4 w4 neg d w4 w4 d w4 w4 neg d w4 w4 d w4 neg w4 d w4 w4 d w4 neg w4 d w4 neg w4 neg d cl s} def
/m47 {mp x y w4 add m w4 neg w4 d w4 neg w4 neg d w4 w4 neg d w4 neg w4 neg d  w4 w4 neg d w4 w4 d w4 w4 neg d w4 w4 d w4 neg w4 d w4 w4 d w4 neg w4 d w4 neg w4 neg d cl f} def
/m48 {mp x y w4 add m w4 neg w4 d w4 neg w4 neg d w4 w4 neg d  w4 neg w4 neg d w4 w4 neg d w4 w4 d w4 w4 neg d w4 w4 d w4 neg w4 d w4 w4 d w4 neg w4 d w4 neg w4 neg d  w4 w4 neg d w4 neg w4 neg d w4 neg w4 d w4 w4 d cl f} def
/m49 {mp x w2 sub w3 add y w2 sub w3 add m  0 w3 neg d w3 0 d 0 w3 d w3 0 d 0 w3 d w3 neg 0 d 0 w3 d w3 neg 0 d 0 w3 neg d w3 neg 0 d 0 w3 neg d w3 0 d 0 w3 d w3 0 d 0 w3 neg d w3 neg 0 d cl f } def
/m2 {mp x y w2 sub m 0 w d x w2 sub y m w 0 d s} def
/m5 {mp x w2 sub y w2 sub m w w d x w2 sub y w2 add m w w neg d s} def
%%IncludeResource: ProcSet (FontSetInit)
%%IncludeResource: font Times-Roman
%%IncludeResource: font Times-Italic
%%IncludeResource: font Times-Bold
%%IncludeResource: font Times-BoldItalic
%%IncludeResource: font Helvetica
%%IncludeResource: font Helvetica-Oblique
%%IncludeResource: font Helvetica-Bold
%%IncludeResource: font Helvetica-BoldOblique
%%IncludeResource: font Courier
%%IncludeResource: font Courier-Oblique
%%IncludeResource: font Courier-Bold
%%IncludeResource: font Courier-BoldOblique
%%IncludeResource: font Symbol
%%IncludeResource: font ZapfDingbats
/reEncode {exch findfont dup length dict begin {1 index /FID eq  {pop pop} {def} ifelse } forall /Encoding exch def currentdict end dup /FontName get exch definefont pop } def [/Times-Bold /Times-Italic /Times-BoldItalic /Helvetica /Helvetica-Oblique
 /Helvetica-Bold /Helvetica-BoldOblique /Courier /Courier-Oblique /Courier-Bold /Courier-BoldOblique /Times-Roman /AvantGarde-Book /AvantGarde-BookOblique /AvantGarde-Demi /AvantGarde-DemiOblique /Bookman-Demi /Bookman-DemiItalic /Bookman-Light
 /Bookman-LightItalic /Helvetica-Narrow /Helvetica-Narrow-Bold /Helvetica-Narrow-BoldOblique /Helvetica-Narrow-Oblique /NewCenturySchlbk-Roman /NewCenturySchlbk-Bold /NewCenturySchlbk-BoldItalic /NewCenturySchlbk-Italic /Palatino-Bold
 /Palatino-BoldItalic /Palatino-Italic /Palatino-Roman ] {ISOLatin1Encoding reEncode } forall
%%EndProlog
%%BeginSetup
%%EndSetup
newpath  gsave  .25 .25 scale  gsave  0 0 t 0.490196 0.545098 0.615686 c[  ] 0 sd 3 lw 0.941176 0.941176 0.941176 c 2268 1676 0 0 bf black 1 1 0.992157 c 1916 1308 238 201 bf black 1916 1308 238 201 bl 1 1 0.992157 c 1916 1308 238 201 bf black 1916
 1308 238 201 bl 238 201 m 1916 X s 238 244 m -43 Y s 334 222 m -21 Y s 430 222 m -21 Y s 526 222 m -21 Y s 621 244 m -43 Y s 717 222 m -21 Y s 813 222 m -21 Y s 909 222 m -21 Y s 1005 244 m -43 Y s 1100 222 m -21 Y s 1196 222 m -21 Y s 1292 222 m
 -21 Y s 1388 244 m -43 Y s 1484 222 m -21 Y s 1579 222 m -21 Y s 1675 222 m -21 Y s 1771 244 m -43 Y s 1867 222 m -21 Y s 1963 222 m -21 Y s 2059 222 m -21 Y s 2154 244 m -43 Y s 238 244 m -43 Y s 2154 244 m -43 Y s
 gsave  2268 1676 0 0 C 216.154 128.934 t 0 r /Helvetica-Bold findfont 64.4669 sf 0 0 m (0) show NC gr 
 gsave  2268 1676 0 0 C 572.617 128.934 t 0 r /Helvetica-Bold findfont 64.4669 sf 0 0 m (0.2) show NC gr 
 gsave  2268 1676 0 0 C 955.626 128.934 t 0 r /Helvetica-Bold findfont 64.4669 sf 0 0 m (0.4) show NC gr 
 gsave  2268 1676 0 0 C 1338.64 128.934 t 0 r /Helvetica-Bold findfont 64.4669 sf 0 0 m (0.6) show NC gr 
 gsave  2268 1676 0 0 C 1725.44 128.934 t 0 r /Helvetica-Bold findfont 64.4669 sf 0 0 m (0.8) show NC gr 
 gsave  2268 1676 0 0 C 2138.78 128.934 t 0 r /Helvetica-Bold findfont 64.4669 sf 0 0 m (1) show NC gr 
 gsave  2268 1676 0 0 C 1300.71 30.3373 t 0 r /Helvetica-Bold findfont 72.0512 sf 0 0 m (LikelihoodPCA response) show NC gr  238 1509 m 1916 X s 238 1466 m 43 Y s 334 1487 m 22 Y s 430 1487 m 22 Y s 526 1487 m 22 Y s 621 1466 m 43 Y s 717 1487 m 22 Y
 s 813 1487 m 22 Y s 909 1487 m 22 Y s 1005 1466 m 43 Y s 1100 1487 m 22 Y s 1196 1487 m 22 Y s 1292 1487 m 22 Y s 1388 1466 m 43 Y s 1484 1487 m 22 Y s 1579 1487 m 22 Y s 1675 1487 m 22 Y s 1771 1466 m 43 Y s 1867 1487 m 22 Y s 1963 1487 m 22 Y s
 2059 1487 m 22 Y s 2154 1466 m 43 Y s 238 1466 m 43 Y s 2154 1466 m 43 Y s 238 201 m 1308 Y s 291 201 m -53 X s 265 251 m -27 X s 265 300 m -27 X s 265 349 m -27 X s 265 399 m -27 X s 291 448 m -53 X s 265 498 m -27 X s 265 547 m -27 X s 265 597 m
 -27 X s 265 646 m -27 X s 291 695 m -53 X s 265 745 m -27 X s 265 794 m -27 X s 265 844 m -27 X s 265 893 m -27 X s 291 943 m -53 X s 265 992 m -27 X s 265 1042 m -27 X s 265 1091 m -27 X s 265 1140 m -27 X s 291 1190 m -53 X s 265 1239 m -27 X s
 265 1289 m -27 X s 265 1338 m -27 X s 265 1388 m -27 X s 291 1437 m -53 X s 291 1437 m -53 X s 265 1486 m -27 X s
 gsave  2268 1676 0 0 C 174.44 178.232 t 0 r /Helvetica-Bold findfont 64.4669 sf 0 0 m (0) show NC gr 
 gsave  2268 1676 0 0 C 174.44 424.723 t 0 r /Helvetica-Bold findfont 64.4669 sf 0 0 m (5) show NC gr 
 gsave  2268 1676 0 0 C 136.518 671.214 t 0 r /Helvetica-Bold findfont 64.4669 sf 0 0 m (10) show NC gr 
 gsave  2268 1676 0 0 C 136.518 917.705 t 0 r /Helvetica-Bold findfont 64.4669 sf 0 0 m (15) show NC gr 
 gsave  2268 1676 0 0 C 136.518 1164.2 t 0 r /Helvetica-Bold findfont 64.4669 sf 0 0 m (20) show NC gr 
 gsave  2268 1676 0 0 C 136.518 1410.69 t 0 r /Helvetica-Bold findfont 64.4669 sf 0 0 m (25) show NC gr 
 gsave  2268 1676 0 0 C 64.4669 1425.86 t 90 r /Helvetica-Bold findfont 72.0512 sf 0 0 m (dx) show NC gr 
 gsave  2268 1676 0 0 C 30.3373 1406.89 t 90 r /Helvetica-Bold findfont 45.506 sf 0 0 m ( ) show NC gr 
 gsave  2268 1676 0 0 C 64.4669 1384.14 t 90 r /Helvetica-Bold findfont 72.0512 sf 0 0 m (/) show NC gr 
 gsave  2268 1676 0 0 C 30.3373 1365.18 t 90 r /Helvetica-Bold findfont 45.506 sf 0 0 m ( ) show NC gr 
 gsave  2268 1676 0 0 C 60.6747 1092.14 t 90 r /Helvetica-Bold findfont 72.0512 sf 0 0 m (\(1/N\) dN) show NC gr  2154 201 m 1308 Y s 2101 201 m 53 X s 2128 251 m 26 X s 2128 300 m 26 X s 2128 349 m 26 X s 2128 399 m 26 X s 2101 448 m 53 X s 2128 498
 m 26 X s 2128 547 m 26 X s 2128 597 m 26 X s 2128 646 m 26 X s 2101 695 m 53 X s 2128 745 m 26 X s 2128 794 m 26 X s 2128 844 m 26 X s 2128 893 m 26 X s 2101 943 m 53 X s 2128 992 m 26 X s 2128 1042 m 26 X s 2128 1091 m 26 X s 2128 1140 m 26 X s
 2101 1190 m 53 X s 2128 1239 m 26 X s 2128 1289 m 26 X s 2128 1338 m 26 X s 2128 1388 m 26 X s 2101 1437 m 53 X s 2101 1437 m 53 X s 2128 1486 m 26 X s 0.490196 0.545098 0.615686 c 1 1 1 c 0.490196 0.545098 0.615686 c 907 202 238 1307 bl 238 1307 m
 907 X s 1145 1307 m 202 Y s 1145 1509 m -907 X s 238 1509 m -202 Y s black
 gsave  2268 1676 0 0 C 417.138 1437.23 t 0 r /Helvetica-Bold findfont 56.8825 sf 0 0 m (Signal \(test sample\)) show NC gr  0.49 0.6 0.82 c 265 1423 m 127 X 70 Y -127 X f 0 0 0.933333 c 265 1493 m 127 X s 265 1423 m 127 X s 392 1423 m 70 Y s 265
 1423 m 70 Y s black
 gsave  2268 1676 0 0 C 417.138 1338.64 t 0 r /Helvetica-Bold findfont 56.8825 sf 0 0 m (Background \(test sample\)) show NC gr  1 0 0 c 392 1354 m -32 -32 d s 383 1393 m -71 -71 d s 335 1393 m -70 -69 d s 286 1393 m -21 -21 d s 0 0 0.933333 c 1 0 0
 c 265 1393 m 127 X s 265 1322 m 127 X s 392 1322 m 71 Y s 265 1322 m 71 Y s 0 0 0.933333 c 0.49 0.6 0.82 c black 0.49 0.6 0.82 c 238 201 m 1 Y 48 X -1 Y 144 X 1 Y 48 X -1 Y 48 X 2 Y 47 X -1 Y 96 X 1 Y 48 X -1 Y 144 X 1 Y 48 X -1 Y 96 X 1 Y 48 X -1 Y
 95 X 2 Y 48 X 1 Y 48 X -2 Y 48 X 127 Y 48 X 19 Y 48 X 257 Y 48 X -176 Y 48 X -73 Y 48 X -29 Y 47 X -15 Y 48 X 6 Y 48 X -31 Y 48 X -2 Y 48 X -48 Y 48 X 7 Y 48 X -11 Y 48 X -17 Y 48 X 4 Y 96 X -1 Y 47 X 154 Y 48 X -173 Y f 0 0 0.933333 c 0.49 0.6 0.82
 c 0 0 0.933333 c 238 202 m 48 X -1 Y 144 X 1 Y 48 X -1 Y 48 X 2 Y 47 X -1 Y 96 X 1 Y 48 X -1 Y 144 X 1 Y 48 X -1 Y 96 X 1 Y 48 X -1 Y 95 X 2 Y 48 X 1 Y 48 X -2 Y 48 X 127 Y 48 X 19 Y 48 X 257 Y 48 X -176 Y 48 X -73 Y 48 X -29 Y 47 X -15 Y 48 X 6 Y
 48 X -31 Y 48 X -2 Y 48 X -48 Y 48 X 7 Y 48 X -11 Y 48 X -17 Y 48 X 4 Y 96 X -1 Y 47 X 154 Y 48 X -173 Y s 1 0 0 c black 1 0 0 c 2127 202 m -2 -1 d s 2079 203 m -2 -2 d s 2031 203 m -2 -2 d s 1982 202 m -1 -1 d s 1936 204 m -3 -3 d s 1892 208 m -7
 -7 d s 1846 211 m -9 -10 d s 1795 208 m -6 -7 d s 1758 219 m -17 -18 d s 1722 230 m -30 -29 d s 1675 232 m -31 -31 d s 1637 242 m -10 -10 d s 1623 228 m -27 -27 d s 1579 233 m -31 -32 d s 1535 236 m -35 -35 d s 1504 253 m -52 -52 d s 1484 281 m -80
 -80 d s 1467 312 m -111 -111 d s 1436 329 m -128 -128 d s 1436 377 m -48 -47 d s 1378 320 m -86 -86 d s 1265 207 m -6 -6 d s 1436 426 m -48 -48 d s 1340 330 m -48 -48 d s 1213 202 m -2 -1 d s 1436 474 m -48 -48 d s 1298 336 m -6 -6 d s 1165 203 m -2
 -2 d s 1428 514 m -40 -40 d s 1117 203 m -2 -2 d s 1072 206 m -5 -5 d s 1021 204 m -2 -3 d s 972 203 m -1 -2 d s 924 203 m -1 -2 d s 877 203 m -2 -2 d s 829 204 m -2 -3 d s 780 203 m -2 -2 d s 732 203 m -2 -2 d s 685 204 m -3 -3 d s 637 204 m -3 -3
 d s 588 204 m -2 -3 d s 539 202 m -1 -1 d s 495 206 m -5 -5 d s 447 207 m -5 -6 d s 396 204 m -2 -3 d s 349 205 m -4 -4 d s 303 207 m -6 -6 d s 286 238 m -37 -37 d s 286 286 m -48 -48 d s 286 334 m -48 -48 d s 286 382 m -48 -48 d s 286 430 m -48 -48
 d s 286 478 m -48 -47 d s 286 527 m -48 -48 d s 286 575 m -48 -48 d s 286 623 m -48 -48 d s 286 671 m -48 -48 d s 286 719 m -48 -48 d s 286 767 m -48 -48 d s 286 815 m -48 -48 d s 286 863 m -48 -48 d s 286 911 m -48 -48 d s 286 959 m -48 -47 d s 286
 1008 m -48 -48 d s 286 1056 m -48 -48 d s 286 1104 m -48 -48 d s 286 1152 m -48 -48 d s 286 1200 m -48 -48 d s 245 1207 m -7 -7 d s 238 1207 m 48 X -1000 Y 48 X -2 Y 48 X -1 Y 48 X 3 Y 48 X -1 Y 48 X -4 Y 47 X 2 Y 144 X -1 Y 96 X 1 Y 48 X -1 Y 144 X
 1 Y 48 X 2 Y 47 X -3 Y 96 X -1 Y 48 X 5 Y 48 X 129 Y 48 X -16 Y 48 X 194 Y 48 X -202 Y 48 X -59 Y 48 X -17 Y 47 X -8 Y 48 X 14 Y 48 X -12 Y 48 X -11 Y 48 X -11 Y 48 X 3 Y 48 X -3 Y 48 X -4 Y 48 X -2 Y 48 X 1 Y 95 X -1 Y 48 X -1 Y s 0.490196 0.545098
 0.615686 c 1 1 1 c 0.490196 0.545098 0.615686 c 952 202 1202 1307 bl 1202 1307 m 952 X s 2154 1307 m 202 Y s 2154 1509 m -952 X s 1202 1509 m -202 Y s black
 gsave  2268 1676 0 0 C 1296.92 1437.23 t 0 r /Helvetica-Bold findfont 56.8825 sf 0 0 m (Signal \(training sample\)) show NC gr  0 0 0.933333 c /w 21 def /w2 {w 2 div} def /w3 {w 3 div} def 1250 1458 m20 black
 gsave  2268 1676 0 0 C 1296.92 1338.64 t 0 r /Helvetica-Bold findfont 56.8825 sf 0 0 m (Background \(training sample\)) show NC gr  1 0 0 c 1250 1358 m20 0 0 0.933333 c 1 1 1 c 0 0 0.933333 c 238 202 m 16 X s 270 202 m 16 X s 238 194 m 16 Y s 286
 194 m 16 Y s 262 202 m20 430 203 m 16 X s 461 203 m 17 X s 430 195 m 15 Y s 478 195 m 15 Y s 454 203 m20 478 202 m 16 X s 509 202 m 17 X s 478 194 m 16 Y s 526 194 m 16 Y s 502 202 m20 526 202 m 16 X s 557 202 m 16 X s 526 194 m 15 Y s 573 194 m 15
 Y s 549 202 m20 621 202 m 17 X s 653 202 m 16 X s 621 194 m 16 Y s 669 194 m 16 Y s 645 202 m20 717 202 m 17 X s 749 202 m 16 X s 717 194 m 15 Y s 765 194 m 15 Y s 741 202 m20 765 202 m 16 X s 797 202 m 16 X s 765 194 m 16 Y s 813 194 m 16 Y s 789
 202 m20 813 203 m 16 X s 845 203 m 16 X s 813 195 m 15 Y s 861 195 m 15 Y s 837 203 m20 861 202 m 16 X s 892 202 m 17 X s 861 194 m 16 Y s 909 194 m 16 Y s 885 202 m20 909 204 m 16 X s 940 204 m 17 X s 909 196 m 15 Y s 957 196 m 15 Y s 933 204 m20
 957 203 m 16 X s 988 203 m 17 X s 957 195 m 15 Y s 1005 195 m 15 Y s 981 203 m20 1005 202 m 16 X s 1036 202 m 17 X s 1005 194 m 16 Y s 1053 194 m 16 Y s 1029 202 m20 1053 202 m 16 X s 1084 202 m 16 X s 1053 194 m 15 Y s 1100 194 m 15 Y s 1076 202
 m20 1100 204 m 17 X s 1132 204 m 16 X s 1100 196 m 15 Y s 1148 196 m 15 Y s 1124 204 m20 1148 204 m 17 X s 1180 204 m 16 X s 1148 196 m 15 Y s 1196 196 m 15 Y s 1172 204 m20 1196 203 m 17 X s 1228 203 m 16 X s 1196 196 m 15 Y s 1244 196 m 15 Y s
 1220 203 m20 1244 204 m 16 X s 1276 204 m 16 X s 1244 197 m 15 Y s 1292 197 m 15 Y s 1268 204 m20 1292 319 m 16 X s 1324 319 m 16 X s 1292 311 m 16 Y s 1340 311 m 16 Y s 1316 319 m20 1364 340 m s 1364 355 m s 1340 348 m 16 X s 1371 348 m 17 X s 1356
 340 m 15 X s 1356 355 m 15 X s 1340 340 m 15 Y s 1388 340 m 15 Y s 1364 348 m20 1412 597 m 5 Y s 1412 617 m 5 Y s 1388 610 m 16 X s 1419 610 m 17 X s 1404 597 m 15 X s 1404 622 m 15 X s 1388 602 m 15 Y s 1436 602 m 15 Y s 1412 610 m20 1460 438 m 3 Y
 s 1460 456 m 2 Y s 1436 448 m 16 X s 1467 448 m 17 X s 1452 438 m 15 X s 1452 458 m 15 X s 1436 441 m 15 Y s 1484 441 m 15 Y s 1460 448 m20 1508 356 m s 1508 372 m s 1484 364 m 16 X s 1515 364 m 17 X s 1500 356 m 15 X s 1500 372 m 15 X s 1484 356 m
 16 Y s 1532 356 m 16 Y s 1508 364 m20 1532 325 m 16 X s 1563 325 m 16 X s 1532 318 m 15 Y s 1579 318 m 15 Y s 1556 325 m20 1579 306 m 17 X s 1611 306 m 16 X s 1579 299 m 15 Y s 1627 299 m 15 Y s 1603 306 m20 1627 302 m 17 X s 1659 302 m 16 X s 1627
 294 m 16 Y s 1675 294 m 16 Y s 1651 302 m20 1675 293 m 17 X s 1707 293 m 16 X s 1675 285 m 15 Y s 1723 285 m 15 Y s 1699 293 m20 1723 285 m 17 X s 1755 285 m 16 X s 1723 277 m 15 Y s 1771 277 m 15 Y s 1747 285 m20 1771 243 m 16 X s 1803 243 m 16 X s
 1771 236 m 15 Y s 1819 236 m 15 Y s 1795 243 m20 1819 238 m 16 X s 1851 238 m 16 X s 1819 230 m 15 Y s 1867 230 m 15 Y s 1843 238 m20 1867 231 m 16 X s 1898 231 m 17 X s 1867 223 m 15 Y s 1915 223 m 15 Y s 1891 231 m20 1915 219 m 16 X s 1946 219 m
 17 X s 1915 211 m 15 Y s 1963 211 m 15 Y s 1939 219 m20 1963 222 m 16 X s 1994 222 m 17 X s 1963 215 m 15 Y s 2011 215 m 15 Y s 1987 222 m20 2011 220 m 16 X s 2042 220 m 17 X s 2011 213 m 15 Y s 2059 213 m 15 Y s 2035 220 m20 2059 220 m 16 X s 2090
 220 m 16 X s 2059 213 m 15 Y s 2106 213 m 15 Y s 2082 220 m20 2130 373 m 1 Y s 2130 389 m 1 Y s 2106 382 m 17 X s 2138 382 m 16 X s 2123 373 m 15 X s 2123 390 m 15 X s 2106 374 m 15 Y s 2154 374 m 15 Y s 2130 382 m20 1 0 0 c 1 1 1 c 1 0 0 c 262 1184
 m 12 Y s 262 1211 m 13 Y s 238 1204 m 16 X s 270 1204 m 16 X s 254 1184 m 16 X s 254 1224 m 16 X s 238 1196 m 15 Y s 286 1196 m 15 Y s 262 1204 m20 286 204 m 16 X s 318 204 m 16 X s 286 196 m 15 Y s 334 196 m 15 Y s 310 204 m20 334 204 m 16 X s 365
 204 m 17 X s 334 196 m 15 Y s 382 196 m 15 Y s 358 204 m20 382 205 m 16 X s 413 205 m 17 X s 382 197 m 15 Y s 430 197 m 15 Y s 406 205 m20 430 203 m 16 X s 461 203 m 17 X s 430 195 m 15 Y s 478 195 m 15 Y s 454 203 m20 478 204 m 16 X s 509 204 m 17
 X s 478 196 m 15 Y s 526 196 m 15 Y s 502 204 m20 526 203 m 16 X s 557 203 m 16 X s 526 195 m 15 Y s 573 195 m 15 Y s 549 203 m20 573 205 m 17 X s 605 205 m 16 X s 573 198 m 15 Y s 621 198 m 15 Y s 597 205 m20 621 202 m 17 X s 653 202 m 16 X s 621
 194 m 16 Y s 669 194 m 16 Y s 645 202 m20 669 204 m 17 X s 701 204 m 16 X s 669 197 m 15 Y s 717 197 m 15 Y s 693 204 m20 717 205 m 17 X s 749 205 m 16 X s 717 198 m 15 Y s 765 198 m 15 Y s 741 205 m20 765 203 m 16 X s 797 203 m 16 X s 765 196 m 15
 Y s 813 196 m 15 Y s 789 203 m20 813 204 m 16 X s 845 204 m 16 X s 813 197 m 15 Y s 861 197 m 15 Y s 837 204 m20 861 203 m 16 X s 892 203 m 17 X s 861 195 m 15 Y s 909 195 m 15 Y s 885 203 m20 909 204 m 16 X s 940 204 m 17 X s 909 196 m 15 Y s 957
 196 m 15 Y s 933 204 m20 957 205 m 16 X s 988 205 m 17 X s 957 198 m 15 Y s 1005 198 m 15 Y s 981 205 m20 1005 204 m 16 X s 1036 204 m 17 X s 1005 196 m 15 Y s 1053 196 m 15 Y s 1029 204 m20 1053 205 m 16 X s 1084 205 m 16 X s 1053 197 m 15 Y s 1100
 197 m 15 Y s 1076 205 m20 1100 203 m 17 X s 1132 203 m 16 X s 1100 196 m 15 Y s 1148 196 m 15 Y s 1124 203 m20 1148 203 m 17 X s 1180 203 m 16 X s 1148 195 m 15 Y s 1196 195 m 15 Y s 1172 203 m20 1196 202 m 17 X s 1228 202 m 16 X s 1196 194 m 16 Y s
 1244 194 m 16 Y s 1220 202 m20 1244 204 m 16 X s 1276 204 m 16 X s 1244 196 m 15 Y s 1292 196 m 15 Y s 1268 204 m20 1292 334 m 16 X s 1324 334 m 16 X s 1292 326 m 16 Y s 1340 326 m 16 Y s 1316 334 m20 1340 320 m 16 X s 1371 320 m 17 X s 1340 313 m
 15 Y s 1388 313 m 15 Y s 1364 320 m20 1412 510 m 4 Y s 1412 529 m 3 Y s 1388 521 m 16 X s 1419 521 m 17 X s 1404 510 m 15 X s 1404 532 m 15 X s 1388 514 m 15 Y s 1436 514 m 15 Y s 1412 521 m20 1436 308 m 16 X s 1467 308 m 17 X s 1436 300 m 16 Y s
 1484 300 m 16 Y s 1460 308 m20 1484 262 m 16 X s 1515 262 m 17 X s 1484 254 m 16 Y s 1532 254 m 16 Y s 1508 262 m20 1532 241 m 16 X s 1563 241 m 16 X s 1532 234 m 15 Y s 1579 234 m 15 Y s 1556 241 m20 1579 230 m 17 X s 1611 230 m 16 X s 1579 222 m
 16 Y s 1627 222 m 16 Y s 1603 230 m20 1627 234 m 17 X s 1659 234 m 16 X s 1627 227 m 15 Y s 1675 227 m 15 Y s 1651 234 m20 1675 231 m 17 X s 1707 231 m 16 X s 1675 224 m 15 Y s 1723 224 m 15 Y s 1699 231 m20 1723 222 m 17 X s 1755 222 m 16 X s 1723
 215 m 15 Y s 1771 215 m 15 Y s 1747 222 m20 1771 210 m 16 X s 1803 210 m 16 X s 1771 202 m 15 Y s 1819 202 m 15 Y s 1795 210 m20 1819 208 m 16 X s 1851 208 m 16 X s 1819 201 m 15 Y s 1867 201 m 15 Y s 1843 208 m20 1867 209 m 16 X s 1898 209 m 17 X s
 1867 202 m 15 Y s 1915 202 m 15 Y s 1891 209 m20 1915 203 m 16 X s 1946 203 m 17 X s 1915 195 m 15 Y s 1963 195 m 15 Y s 1939 203 m20 1963 202 m 16 X s 1994 202 m 17 X s 1963 194 m 16 Y s 2011 194 m 16 Y s 1987 202 m20 2011 203 m 16 X s 2042 203 m
 17 X s 2011 195 m 15 Y s 2059 195 m 15 Y s 2035 203 m20 2059 203 m 16 X s 2090 203 m 16 X s 2059 195 m 15 Y s 2106 195 m 15 Y s 2082 203 m20 black
 gsave  2268 1676 0 0 C 272.126 1240.34 t 0 r /Helvetica-Bold findfont 49.2982 sf 0 0 m (Kolmogorov\255Smirnov test: signal \(background\) probability = 0.516 \(0.733\)) show NC gr  238 201 m 1916 X s 238 244 m -43 Y s 334 222 m -21 Y s 430 222 m -21
 Y s 526 222 m -21 Y s 621 244 m -43 Y s 717 222 m -21 Y s 813 222 m -21 Y s 909 222 m -21 Y s 1005 244 m -43 Y s 1100 222 m -21 Y s 1196 222 m -21 Y s 1292 222 m -21 Y s 1388 244 m -43 Y s 1484 222 m -21 Y s 1579 222 m -21 Y s 1675 222 m -21 Y s
 1771 244 m -43 Y s 1867 222 m -21 Y s 1963 222 m -21 Y s 2059 222 m -21 Y s 2154 244 m -43 Y s 238 244 m -43 Y s 2154 244 m -43 Y s 238 1509 m 1916 X s 238 1466 m 43 Y s 334 1487 m 22 Y s 430 1487 m 22 Y s 526 1487 m 22 Y s 621 1466 m 43 Y s 717
 1487 m 22 Y s 813 1487 m 22 Y s 909 1487 m 22 Y s 1005 1466 m 43 Y s 1100 1487 m 22 Y s 1196 1487 m 22 Y s 1292 1487 m 22 Y s 1388 1466 m 43 Y s 1484 1487 m 22 Y s 1579 1487 m 22 Y s 1675 1487 m 22 Y s 1771 1466 m 43 Y s 1867 1487 m 22 Y s 1963 1487
 m 22 Y s 2059 1487 m 22 Y s 2154 1466 m 43 Y s 238 1466 m 43 Y s 2154 1466 m 43 Y s 238 201 m 1308 Y s 291 201 m -53 X s 265 251 m -27 X s 265 300 m -27 X s 265 349 m -27 X s 265 399 m -27 X s 291 448 m -53 X s 265 498 m -27 X s 265 547 m -27 X s
 265 597 m -27 X s 265 646 m -27 X s 291 695 m -53 X s 265 745 m -27 X s 265 794 m -27 X s 265 844 m -27 X s 265 893 m -27 X s 291 943 m -53 X s 265 992 m -27 X s 265 1042 m -27 X s 265 1091 m -27 X s 265 1140 m -27 X s 291 1190 m -53 X s 265 1239 m
 -27 X s 265 1289 m -27 X s 265 1338 m -27 X s 265 1388 m -27 X s 291 1437 m -53 X s 291 1437 m -53 X s 265 1486 m -27 X s 2154 201 m 1308 Y s 2101 201 m 53 X s 2128 251 m 26 X s 2128 300 m 26 X s 2128 349 m 26 X s 2128 399 m 26 X s 2101 448 m 53 X s
 2128 498 m 26 X s 2128 547 m 26 X s 2128 597 m 26 X s 2128 646 m 26 X s 2101 695 m 53 X s 2128 745 m 26 X s 2128 794 m 26 X s 2128 844 m 26 X s 2128 893 m 26 X s 2101 943 m 53 X s 2128 992 m 26 X s 2128 1042 m 26 X s 2128 1091 m 26 X s 2128 1140 m
 26 X s 2101 1190 m 53 X s 2128 1239 m 26 X s 2128 1289 m 26 X s 2128 1338 m 26 X s 2128 1388 m 26 X s 2101 1437 m 53 X s 2101 1437 m 53 X s 2128 1486 m 26 X s
 gsave  2268 1676 0 0 C 2211.02 192.756 t 90 r /Helvetica-Bold findfont 45.506 sf 0 0 m (U/O\255flow \(S,B\): \(0.0, 0.0\)% / \(0.0, 0.0\)%) show NC gr  0.490196 0.545098 0.615686 c 0.364706 0.419608 0.490196 c 1587 96 23 1572 bf 0.490196 0.545098
 0.615686 c 23 1572 m 1587 X s 1610 1572 m 96 Y s 1610 1668 m -1587 X s 23 1668 m -96 Y s 1 1 1 c black 1 1 1 c
 gsave  2268 1676 0 0 C 75.8434 1604.09 t 0 r /Helvetica-Bold findfont 56.8825 sf 0 0 m (TMVA overtraining check for classifier: LikelihoodPCA) show NC gr 
 gr  gr showpage
end
%%EOF
