%!PS-Adobe-2.0 EPSF-2.0
%%BoundingBox:  0 0 567 419
%%Title: dataset/plots/overtrain_Fisher.eps: TMVA comparison Fisher
%%Creator: ROOT Version 6.12/06
%%CreationDate: Mon May 21 12:06:55 2018
%%DocumentNeededResources: ProcSet (FontSetInit)
%%EndComments
%%BeginProlog
80 dict begin
/s {stroke} def /l {lineto} def /m {moveto} def /t {translate} def
/r {rotate} def /rl {roll}  def /R {repeat} def
/d {rlineto} def /rm {rmoveto} def /gr {grestore} def /f {eofill} def
/c {setrgbcolor} def /black {0 setgray} def /sd {setdash} def
/cl {closepath} def /sf {scalefont setfont} def /lw {setlinewidth} def
/box {m dup 0 exch d exch 0 d 0 exch neg d cl} def
/NC{systemdict begin initclip end}def/C{NC box clip newpath}def
/bl {box s} def /bf {gsave box gsave f grestore 1 lw [] 0 sd s grestore} def /Y { 0 exch d} def /X { 0 d} def 
/K {{pop pop 0 moveto} exch kshow} bind def
/ita {/ang 15 def gsave [1 0 ang dup sin exch cos div 1 0 0] concat} def 
/mp {newpath /y exch def /x exch def} def
/side {[w .77 mul w .23 mul] .385 w mul sd w 0 l currentpoint t -144 r} def
/mr {mp x y w2 0 360 arc} def /m24 {mr s} def /m20 {mr f} def
/mb {mp x y w2 add m w2 neg 0 d 0 w neg d w 0 d 0 w d cl} def
/mt {mp x y w2 add m w2 neg w neg d w 0 d cl} def
/w4 {w 4 div} def
/w6 {w 6 div} def
/w8 {w 8 div} def
/m21 {mb f} def /m25 {mb s} def /m22 {mt f} def /m26{mt s} def
/m23 {mp x y w2 sub m w2 w d w neg 0 d cl f} def
/m27 {mp x y w2 add m w3 neg w2 neg d w3 w2 neg d w3 w2 d cl s} def
/m28 {mp x w2 sub y w2 sub w3 add m w3 0 d  0 w3 neg d w3 0 d 0 w3 d w3 0 d  0 w3 d w3 neg 0 d 0 w3 d w3 neg 0 d 0 w3 neg d w3 neg 0 d cl s } def
/m29 {mp gsave x w2 sub y w2 add w3 sub m currentpoint t 4 {side} repeat cl fill gr} def
/m30 {mp gsave x w2 sub y w2 add w3 sub m currentpoint t 4 {side} repeat cl s gr} def
/m31 {mp x y w2 sub m 0 w d x w2 sub y m w 0 d x w2 sub y w2 add m w w neg d x w2 sub y w2 sub m w w d s} def
/m32 {mp x y w2 sub m w2 w d w neg 0 d cl s} def
/m33 {mp x y w2 add m w3 neg w2 neg d w3 w2 neg d w3 w2 d cl f} def
/m34 {mp x w2 sub y w2 sub w3 add m w3 0 d  0 w3 neg d w3 0 d 0 w3 d w3 0 d  0 w3 d w3 neg 0 d 0 w3 d w3 neg 0 d 0 w3 neg d w3 neg 0 d cl f } def
/m35 {mp x y w2 add m w2 neg w2 neg d w2 w2 neg d w2 w2 d w2 neg w2 d x y w2 sub m 0 w d x w2 sub y m w 0 d s} def
/m36 {mb x w2 sub y w2 add m w w neg d x w2 sub y w2 sub m w w d s} def
/m37 {mp x y m w4 neg w2 d w4 neg w2 neg d w2 0 d  w4 neg w2 neg d w2 0 d w4 neg w2 d w2 0 d w4 neg w2 d w4 neg w2 neg d cl s} def
/m38 {mp x w4 sub y w2 add m w4 neg w4 neg d 0 w2 neg d w4 w4 neg d w2 0 d w4 w4 d 0 w2 d w4 neg w4 d w2 neg 0 d x y w2 sub m 0 w d x w2 sub y m w 0 d cl s} def
/m39 {mp x y m w4 neg w2 d w4 neg w2 neg d w2 0 d  w4 neg w2 neg d w2 0 d w4 neg w2 d w2 0 d w4 neg w2 d w4 neg w2 neg d cl f} def
/m40 {mp x y m w4 w2 d w4 w4 neg d w2 neg w4 neg d w2 w4 neg d w4 neg w4 neg d w4 neg w2 d w4 neg w2 neg d w4 neg w4 d w2 w4 d w2 neg w4 d w4 w4 d w4 w2 neg d cl s} def
/m41 {mp x y m w4 w2 d w4 w4 neg d w2 neg w4 neg d w2 w4 neg d w4 neg w4 neg d w4 neg w2 d w4 neg w2 neg d w4 neg w4 d w2 w4 d w2 neg w4 d w4 w4 d w4 w2 neg d cl f} def
/m42 {mp x y w2 add m w8 neg w2 -3 4 div mul d w2 -3 4 div mul w8 neg d w2 3 4 div mul w8 neg d w8 w2 -3 4 div mul d w8 w2 3 4 div mul d w2 3 4 div mul w8 d w2 -3 4 div mul w8 d w8 neg w2 3 4 div mul d cl s} def
/m43 {mp x y w2 add m w8 neg w2 -3 4 div mul d w2 -3 4 div mul w8 neg d w2 3 4 div mul w8 neg d w8 w2 -3 4 div mul d w8 w2 3 4 div mul d w2 3 4 div mul w8 d w2 -3 4 div mul w8 d w8 neg w2 3 4 div mul d cl f} def
/m44 {mp x y m w6 neg w2 d w2 2 3 div mul 0 d w6 neg w2 neg d w2 w6 d 0 w2 -2 3 div mul d w2 neg w6 d w6 w2 neg d w2 -2 3 div mul 0 d w6 w2 d w2 neg w6 neg d 0 w2 2 3 div mul d w2 w6 neg d cl s} def
/m45 {mp x y m w6 neg w2 d w2 2 3 div mul 0 d w6 neg w2 neg d w2 w6 d 0 w2 -2 3 div mul d w2 neg w6 d w6 w2 neg d w2 -2 3 div mul 0 d w6 w2 d w2 neg w6 neg d 0 w2 2 3 div mul d w2 w6 neg d cl f} def
/m46 {mp x y w4 add m w4 neg w4 d w4 neg w4 neg d  w4 w4 neg d w4 neg w4 neg d w4 w4 neg d w4 w4 d w4 w4 neg d w4 w4 d w4 neg w4 d w4 w4 d w4 neg w4 d w4 neg w4 neg d cl s} def
/m47 {mp x y w4 add m w4 neg w4 d w4 neg w4 neg d w4 w4 neg d w4 neg w4 neg d  w4 w4 neg d w4 w4 d w4 w4 neg d w4 w4 d w4 neg w4 d w4 w4 d w4 neg w4 d w4 neg w4 neg d cl f} def
/m48 {mp x y w4 add m w4 neg w4 d w4 neg w4 neg d w4 w4 neg d  w4 neg w4 neg d w4 w4 neg d w4 w4 d w4 w4 neg d w4 w4 d w4 neg w4 d w4 w4 d w4 neg w4 d w4 neg w4 neg d  w4 w4 neg d w4 neg w4 neg d w4 neg w4 d w4 w4 d cl f} def
/m49 {mp x w2 sub w3 add y w2 sub w3 add m  0 w3 neg d w3 0 d 0 w3 d w3 0 d 0 w3 d w3 neg 0 d 0 w3 d w3 neg 0 d 0 w3 neg d w3 neg 0 d 0 w3 neg d w3 0 d 0 w3 d w3 0 d 0 w3 neg d w3 neg 0 d cl f } def
/m2 {mp x y w2 sub m 0 w d x w2 sub y m w 0 d s} def
/m5 {mp x w2 sub y w2 sub m w w d x w2 sub y w2 add m w w neg d s} def
%%IncludeResource: ProcSet (FontSetInit)
%%IncludeResource: font Times-Roman
%%IncludeResource: font Times-Italic
%%IncludeResource: font Times-Bold
%%IncludeResource: font Times-BoldItalic
%%IncludeResource: font Helvetica
%%IncludeResource: font Helvetica-Oblique
%%IncludeResource: font Helvetica-Bold
%%IncludeResource: font Helvetica-BoldOblique
%%IncludeResource: font Courier
%%IncludeResource: font Courier-Oblique
%%IncludeResource: font Courier-Bold
%%IncludeResource: font Courier-BoldOblique
%%IncludeResource: font Symbol
%%IncludeResource: font ZapfDingbats
/reEncode {exch findfont dup length dict begin {1 index /FID eq  {pop pop} {def} ifelse } forall /Encoding exch def currentdict end dup /FontName get exch definefont pop } def [/Times-Bold /Times-Italic /Times-BoldItalic /Helvetica /Helvetica-Oblique
 /Helvetica-Bold /Helvetica-BoldOblique /Courier /Courier-Oblique /Courier-Bold /Courier-BoldOblique /Times-Roman /AvantGarde-Book /AvantGarde-BookOblique /AvantGarde-Demi /AvantGarde-DemiOblique /Bookman-Demi /Bookman-DemiItalic /Bookman-Light
 /Bookman-LightItalic /Helvetica-Narrow /Helvetica-Narrow-Bold /Helvetica-Narrow-BoldOblique /Helvetica-Narrow-Oblique /NewCenturySchlbk-Roman /NewCenturySchlbk-Bold /NewCenturySchlbk-BoldItalic /NewCenturySchlbk-Italic /Palatino-Bold
 /Palatino-BoldItalic /Palatino-Italic /Palatino-Roman ] {ISOLatin1Encoding reEncode } forall
%%EndProlog
%%BeginSetup
%%EndSetup
newpath  gsave  .25 .25 scale  gsave  0 0 t 0.490196 0.545098 0.615686 c[  ] 0 sd 3 lw 0.941176 0.941176 0.941176 c 2268 1676 0 0 bf black 1 1 0.992157 c 1916 1308 238 201 bf black 1916 1308 238 201 bl 1 1 0.992157 c 1916 1308 238 201 bf black 1916
 1308 238 201 bl 238 201 m 1916 X s 490 244 m -43 Y s 560 222 m -21 Y s 631 222 m -21 Y s 701 222 m -21 Y s 771 222 m -21 Y s 842 244 m -43 Y s 912 222 m -21 Y s 983 222 m -21 Y s 1053 222 m -21 Y s 1124 222 m -21 Y s 1194 244 m -43 Y s 1264 222 m
 -21 Y s 1335 222 m -21 Y s 1405 222 m -21 Y s 1476 222 m -21 Y s 1546 244 m -43 Y s 1616 222 m -21 Y s 1687 222 m -21 Y s 1757 222 m -21 Y s 1828 222 m -21 Y s 1898 244 m -43 Y s 490 244 m -43 Y s 419 222 m -21 Y s 349 222 m -21 Y s 279 222 m -21 Y
 s 1898 244 m -43 Y s 1968 222 m -21 Y s 2039 222 m -21 Y s 2109 222 m -21 Y s
 gsave  2268 1676 0 0 C 485.398 128.934 t 0 r /Helvetica-Bold findfont 64.4669 sf 0 0 m (2) show NC gr 
 gsave  2268 1676 0 0 C 455.06 128.934 t 0 r /Symbol findfont 64.4669 sf 0 0 m (-) show NC gr 
 gsave  2268 1676 0 0 C 841.861 128.934 t 0 r /Helvetica-Bold findfont 64.4669 sf 0 0 m (1) show NC gr 
 gsave  2268 1676 0 0 C 811.524 128.934 t 0 r /Symbol findfont 64.4669 sf 0 0 m (-) show NC gr 
 gsave  2268 1676 0 0 C 1171.78 128.934 t 0 r /Helvetica-Bold findfont 64.4669 sf 0 0 m (0) show NC gr 
 gsave  2268 1676 0 0 C 1528.24 128.934 t 0 r /Helvetica-Bold findfont 64.4669 sf 0 0 m (1) show NC gr 
 gsave  2268 1676 0 0 C 1877.12 128.934 t 0 r /Helvetica-Bold findfont 64.4669 sf 0 0 m (2) show NC gr 
 gsave  2268 1676 0 0 C 1596.5 34.1295 t 0 r /Helvetica-Bold findfont 72.0512 sf 0 0 m (Fisher response) show NC gr  238 1509 m 1916 X s 490 1466 m 43 Y s 560 1487 m 22 Y s 631 1487 m 22 Y s 701 1487 m 22 Y s 771 1487 m 22 Y s 842 1466 m 43 Y s 912
 1487 m 22 Y s 983 1487 m 22 Y s 1053 1487 m 22 Y s 1124 1487 m 22 Y s 1194 1466 m 43 Y s 1264 1487 m 22 Y s 1335 1487 m 22 Y s 1405 1487 m 22 Y s 1476 1487 m 22 Y s 1546 1466 m 43 Y s 1616 1487 m 22 Y s 1687 1487 m 22 Y s 1757 1487 m 22 Y s 1828
 1487 m 22 Y s 1898 1466 m 43 Y s 490 1466 m 43 Y s 419 1487 m 22 Y s 349 1487 m 22 Y s 279 1487 m 22 Y s 1898 1466 m 43 Y s 1968 1487 m 22 Y s 2039 1487 m 22 Y s 2109 1487 m 22 Y s 238 201 m 1308 Y s 291 201 m -53 X s 265 235 m -27 X s 265 269 m -27
 X s 265 304 m -27 X s 265 338 m -27 X s 291 372 m -53 X s 265 406 m -27 X s 265 440 m -27 X s 265 474 m -27 X s 265 508 m -27 X s 291 543 m -53 X s 265 577 m -27 X s 265 611 m -27 X s 265 645 m -27 X s 265 679 m -27 X s 291 713 m -53 X s 265 747 m
 -27 X s 265 782 m -27 X s 265 816 m -27 X s 265 850 m -27 X s 291 884 m -53 X s 265 918 m -27 X s 265 952 m -27 X s 265 986 m -27 X s 265 1021 m -27 X s 291 1055 m -53 X s 265 1089 m -27 X s 265 1123 m -27 X s 265 1157 m -27 X s 265 1191 m -27 X s
 291 1225 m -53 X s 265 1260 m -27 X s 265 1294 m -27 X s 265 1328 m -27 X s 265 1362 m -27 X s 291 1396 m -53 X s 291 1396 m -53 X s 265 1430 m -27 X s 265 1464 m -27 X s 265 1499 m -27 X s
 gsave  2268 1676 0 0 C 174.44 178.232 t 0 r /Helvetica-Bold findfont 64.4669 sf 0 0 m (0) show NC gr 
 gsave  2268 1676 0 0 C 121.349 348.879 t 0 r /Helvetica-Bold findfont 64.4669 sf 0 0 m (0.5) show NC gr 
 gsave  2268 1676 0 0 C 182.024 519.527 t 0 r /Helvetica-Bold findfont 64.4669 sf 0 0 m (1) show NC gr 
 gsave  2268 1676 0 0 C 121.349 690.175 t 0 r /Helvetica-Bold findfont 64.4669 sf 0 0 m (1.5) show NC gr 
 gsave  2268 1676 0 0 C 174.44 860.822 t 0 r /Helvetica-Bold findfont 64.4669 sf 0 0 m (2) show NC gr 
 gsave  2268 1676 0 0 C 121.349 1031.47 t 0 r /Helvetica-Bold findfont 64.4669 sf 0 0 m (2.5) show NC gr 
 gsave  2268 1676 0 0 C 174.44 1202.12 t 0 r /Helvetica-Bold findfont 64.4669 sf 0 0 m (3) show NC gr 
 gsave  2268 1676 0 0 C 121.349 1372.76 t 0 r /Helvetica-Bold findfont 64.4669 sf 0 0 m (3.5) show NC gr 
 gsave  2268 1676 0 0 C 64.4669 1425.86 t 90 r /Helvetica-Bold findfont 72.0512 sf 0 0 m (dx) show NC gr 
 gsave  2268 1676 0 0 C 30.3373 1406.89 t 90 r /Helvetica-Bold findfont 45.506 sf 0 0 m ( ) show NC gr 
 gsave  2268 1676 0 0 C 64.4669 1384.14 t 90 r /Helvetica-Bold findfont 72.0512 sf 0 0 m (/) show NC gr 
 gsave  2268 1676 0 0 C 30.3373 1365.18 t 90 r /Helvetica-Bold findfont 45.506 sf 0 0 m ( ) show NC gr 
 gsave  2268 1676 0 0 C 60.6747 1092.14 t 90 r /Helvetica-Bold findfont 72.0512 sf 0 0 m (\(1/N\) dN) show NC gr  2154 201 m 1308 Y s 2101 201 m 53 X s 2128 235 m 26 X s 2128 269 m 26 X s 2128 304 m 26 X s 2128 338 m 26 X s 2101 372 m 53 X s 2128 406
 m 26 X s 2128 440 m 26 X s 2128 474 m 26 X s 2128 508 m 26 X s 2101 543 m 53 X s 2128 577 m 26 X s 2128 611 m 26 X s 2128 645 m 26 X s 2128 679 m 26 X s 2101 713 m 53 X s 2128 747 m 26 X s 2128 782 m 26 X s 2128 816 m 26 X s 2128 850 m 26 X s 2101
 884 m 53 X s 2128 918 m 26 X s 2128 952 m 26 X s 2128 986 m 26 X s 2128 1021 m 26 X s 2101 1055 m 53 X s 2128 1089 m 26 X s 2128 1123 m 26 X s 2128 1157 m 26 X s 2128 1191 m 26 X s 2101 1225 m 53 X s 2128 1260 m 26 X s 2128 1294 m 26 X s 2128 1328 m
 26 X s 2128 1362 m 26 X s 2101 1396 m 53 X s 2101 1396 m 53 X s 2128 1430 m 26 X s 2128 1464 m 26 X s 2128 1499 m 26 X s 0.490196 0.545098 0.615686 c 1 1 1 c 0.490196 0.545098 0.615686 c 907 202 238 1307 bl 238 1307 m 907 X s 1145 1307 m 202 Y s
 1145 1509 m -907 X s 238 1509 m -202 Y s black
 gsave  2268 1676 0 0 C 417.138 1437.23 t 0 r /Helvetica-Bold findfont 56.8825 sf 0 0 m (Signal \(test sample\)) show NC gr  0.49 0.6 0.82 c 265 1423 m 127 X 70 Y -127 X f 0 0 0.933333 c 265 1493 m 127 X s 265 1423 m 127 X s 392 1423 m 70 Y s 265
 1423 m 70 Y s black
 gsave  2268 1676 0 0 C 417.138 1338.64 t 0 r /Helvetica-Bold findfont 56.8825 sf 0 0 m (Background \(test sample\)) show NC gr  1 0 0 c 392 1354 m -32 -32 d s 383 1393 m -71 -71 d s 335 1393 m -70 -69 d s 286 1393 m -21 -21 d s 0 0 0.933333 c 1 0 0
 c 265 1393 m 127 X s 265 1322 m 127 X s 392 1322 m 71 Y s 265 1322 m 71 Y s 0 0 0.933333 c 0.49 0.6 0.82 c black 0.49 0.6 0.82 c 238 201 m 862 X 12 Y 48 X 123 Y 48 X 443 Y 48 X 428 Y 48 X -388 Y 48 X -472 Y 48 X -131 Y 48 X -14 Y 48 X -1 Y 670 X f 0
 0 0.933333 c 0.49 0.6 0.82 c 0 0 0.933333 c 238 201 m 862 X 12 Y 48 X 123 Y 48 X 443 Y 48 X 428 Y 48 X -388 Y 48 X -472 Y 48 X -131 Y 48 X -14 Y 48 X -1 Y 670 X s 1 0 0 c black 1 0 0 c 2126 202 m -1 -1 d s 2077 201 m s 2030 202 m -1 -1 d s 1981 201
 m s 1933 201 m cl s 1885 201 m s 1837 201 m s 1789 201 m s 1741 202 m -1 Y s 1693 202 m -1 -1 d s 1645 202 m -1 -1 d s 1598 203 m -2 -2 d s 1549 202 m -1 -1 d s 1501 202 m -1 -1 d s 1458 208 m -6 -7 d s 1415 212 m -11 -11 d s 1388 233 m -32 -32 d s
 1340 234 m -32 -33 d s 1340 282 m -81 -81 d s 1340 330 m -129 -129 d s 1340 378 m -177 -177 d s 1340 426 m -144 -144 d s 1180 266 m -65 -65 d s 1312 446 m -68 -68 d s 1222 356 m -26 -26 d s 1124 258 m -57 -57 d s 1292 474 m -48 -48 d s 1073 255 m
 -54 -54 d s 1292 522 m -48 -48 d s 1053 283 m -82 -82 d s 1292 570 m -48 -47 d s 1048 327 m -125 -126 d s 1292 619 m -48 -48 d s 1005 331 m -130 -130 d s 1292 667 m -48 -48 d s 1005 379 m -96 -96 d s 871 246 m -10 -10 d s 837 211 m -10 -10 d s 1292
 715 m -48 -48 d s 1005 427 m -96 -95 d s 782 205 m -4 -4 d s 1292 763 m -48 -48 d s 1005 475 m -96 -95 d s 732 203 m -2 -2 d s 1292 811 m -48 -48 d s 1005 524 m -96 -96 d s 684 203 m -2 -2 d s 1292 859 m -48 -48 d s 1005 572 m -96 -96 d s 634 201 m
 s 1274 889 m -30 -30 d s 1005 620 m -96 -96 d s 586 202 m -1 Y s 1005 668 m -48 -48 d s 951 615 m -42 -43 d s 538 202 m -1 Y s 1005 716 m -48 -48 d s 490 201 m cl s 1005 764 m -48 -48 d s 442 201 m s 981 788 m -24 -24 d s 394 201 m s 345 201 m s 297
 201 m cl s 250 202 m -1 -1 d s 238 202 m 48 X -1 Y 240 X 1 Y 95 X -1 Y 48 X 2 Y 96 X 2 Y 48 X 6 Y 48 X 35 Y 48 X 369 Y 48 X 173 Y 48 X -461 Y 48 X -72 Y 47 X 3 Y 48 X 8 Y 48 X 90 Y 48 X 533 Y 48 X -443 Y 48 X -213 Y 48 X -21 Y 48 X -4 Y 48 X -6 Y 95
 X 1 Y 48 X -1 Y 144 X -1 Y 240 X 1 Y 48 X -1 Y 47 X 1 Y 48 X -1 Y s 0.490196 0.545098 0.615686 c 1 1 1 c 0.490196 0.545098 0.615686 c 952 202 1202 1307 bl 1202 1307 m 952 X s 2154 1307 m 202 Y s 2154 1509 m -952 X s 1202 1509 m -202 Y s black
 gsave  2268 1676 0 0 C 1296.92 1437.23 t 0 r /Helvetica-Bold findfont 56.8825 sf 0 0 m (Signal \(training sample\)) show NC gr  0 0 0.933333 c /w 21 def /w2 {w 2 div} def /w3 {w 3 div} def 1250 1458 m20 black
 gsave  2268 1676 0 0 C 1296.92 1338.64 t 0 r /Helvetica-Bold findfont 56.8825 sf 0 0 m (Background \(training sample\)) show NC gr  1 0 0 c 1250 1358 m20 0 0 0.933333 c 1 1 1 c 0 0 0.933333 c 1053 202 m 16 X s 1084 202 m 16 X s 1053 194 m 15 Y s
 1100 194 m 15 Y s 1076 202 m20 1100 211 m 17 X s 1132 211 m 16 X s 1100 204 m 15 Y s 1148 204 m 15 Y s 1124 211 m20 1172 313 m s 1172 329 m s 1148 321 m 17 X s 1180 321 m 16 X s 1165 313 m 15 X s 1165 329 m 15 X s 1148 313 m 16 Y s 1196 313 m 16 Y s
 1172 321 m20 1220 775 m 10 Y s 1220 800 m 10 Y s 1196 792 m 17 X s 1228 792 m 16 X s 1213 775 m 15 X s 1213 810 m 15 X s 1196 785 m 15 Y s 1244 785 m 15 Y s 1220 792 m20 1268 1173 m 15 Y s 1268 1203 m 15 Y s 1244 1195 m 16 X s 1276 1195 m 16 X s
 1260 1173 m 16 X s 1260 1218 m 16 X s 1244 1188 m 15 Y s 1292 1188 m 15 Y s 1268 1195 m20 1316 812 m 10 Y s 1316 838 m 10 Y s 1292 830 m 16 X s 1324 830 m 16 X s 1308 812 m 16 X s 1308 848 m 16 X s 1292 822 m 16 Y s 1340 822 m 16 Y s 1316 830 m20
 1364 344 m 1 Y s 1364 360 m 1 Y s 1340 353 m 16 X s 1371 353 m 17 X s 1356 344 m 15 X s 1356 361 m 15 X s 1340 345 m 15 Y s 1388 345 m 15 Y s 1364 353 m20 1388 214 m 16 X s 1419 214 m 17 X s 1388 207 m 15 Y s 1436 207 m 15 Y s 1412 214 m20 1 0 0 c 1
 1 1 c 1 0 0 c 334 202 m 16 X s 365 202 m 17 X s 334 194 m 15 Y s 382 194 m 15 Y s 358 202 m20 526 202 m 16 X s 557 202 m 16 X s 526 194 m 15 Y s 573 194 m 15 Y s 549 202 m20 573 203 m 17 X s 605 203 m 16 X s 573 196 m 15 Y s 621 196 m 15 Y s 597 203
 m20 621 202 m 17 X s 653 202 m 16 X s 621 194 m 15 Y s 669 194 m 15 Y s 645 202 m20 669 203 m 17 X s 701 203 m 16 X s 669 196 m 15 Y s 717 196 m 15 Y s 693 203 m20 717 204 m 17 X s 749 204 m 16 X s 717 197 m 15 Y s 765 197 m 15 Y s 741 204 m20 765
 204 m 16 X s 797 204 m 16 X s 765 196 m 15 Y s 813 196 m 15 Y s 789 204 m20 813 210 m 16 X s 845 210 m 16 X s 813 203 m 15 Y s 861 203 m 15 Y s 837 210 m20 861 238 m 16 X s 892 238 m 17 X s 861 230 m 15 Y s 909 230 m 15 Y s 885 238 m20 933 576 m 6 Y
 s 933 598 m 6 Y s 909 590 m 16 X s 940 590 m 17 X s 925 576 m 15 X s 925 604 m 15 X s 909 582 m 16 Y s 957 582 m 16 Y s 933 590 m20 981 803 m 10 Y s 981 828 m 10 Y s 957 820 m 16 X s 988 820 m 17 X s 973 803 m 15 X s 973 838 m 15 X s 957 813 m 15 Y
 s 1005 813 m 15 Y s 981 820 m20 1029 321 m s 1029 336 m 1 Y s 1005 329 m 16 X s 1036 329 m 17 X s 1021 321 m 15 X s 1021 337 m 15 X s 1005 321 m 15 Y s 1053 321 m 15 Y s 1029 329 m20 1053 252 m 16 X s 1084 252 m 16 X s 1053 244 m 15 Y s 1100 244 m
 15 Y s 1076 252 m20 1100 256 m 17 X s 1132 256 m 16 X s 1100 249 m 15 Y s 1148 249 m 15 Y s 1124 256 m20 1148 260 m 17 X s 1180 260 m 16 X s 1148 253 m 15 Y s 1196 253 m 15 Y s 1172 260 m20 1220 351 m 1 Y s 1220 367 m 2 Y s 1196 360 m 17 X s 1228
 360 m 16 X s 1213 351 m 15 X s 1213 369 m 15 X s 1196 352 m 15 Y s 1244 352 m 15 Y s 1220 360 m20 1268 888 m 11 Y s 1268 914 m 12 Y s 1244 907 m 16 X s 1276 907 m 16 X s 1260 888 m 16 X s 1260 926 m 16 X s 1244 899 m 15 Y s 1292 899 m 15 Y s 1268
 907 m20 1316 428 m 3 Y s 1316 446 m 3 Y s 1292 439 m 16 X s 1324 439 m 16 X s 1308 428 m 16 X s 1308 449 m 16 X s 1292 431 m 15 Y s 1340 431 m 15 Y s 1316 439 m20 1340 235 m 16 X s 1371 235 m 17 X s 1340 227 m 15 Y s 1388 227 m 15 Y s 1364 235 m20
 1388 211 m 16 X s 1419 211 m 17 X s 1388 203 m 15 Y s 1436 203 m 15 Y s 1412 211 m20 1436 204 m 16 X s 1467 204 m 17 X s 1436 197 m 15 Y s 1484 197 m 15 Y s 1460 204 m20 1484 204 m 16 X s 1515 204 m 17 X s 1484 196 m 15 Y s 1532 196 m 15 Y s 1508
 204 m20 1532 202 m 16 X s 1563 202 m 16 X s 1532 194 m 15 Y s 1579 194 m 15 Y s 1556 202 m20 1579 202 m 17 X s 1611 202 m 16 X s 1579 194 m 15 Y s 1627 194 m 15 Y s 1603 202 m20 1627 202 m 17 X s 1659 202 m 16 X s 1627 194 m 15 Y s 1675 194 m 15 Y s
 1651 202 m20 black
 gsave  2268 1676 0 0 C 272.126 1240.34 t 0 r /Helvetica-Bold findfont 49.2982 sf 0 0 m (Kolmogorov\255Smirnov test: signal \(background\) probability =  0.56 \(0.197\)) show NC gr  238 201 m 1916 X s 490 244 m -43 Y s 560 222 m -21 Y s 631 222 m -21
 Y s 701 222 m -21 Y s 771 222 m -21 Y s 842 244 m -43 Y s 912 222 m -21 Y s 983 222 m -21 Y s 1053 222 m -21 Y s 1124 222 m -21 Y s 1194 244 m -43 Y s 1264 222 m -21 Y s 1335 222 m -21 Y s 1405 222 m -21 Y s 1476 222 m -21 Y s 1546 244 m -43 Y s
 1616 222 m -21 Y s 1687 222 m -21 Y s 1757 222 m -21 Y s 1828 222 m -21 Y s 1898 244 m -43 Y s 490 244 m -43 Y s 419 222 m -21 Y s 349 222 m -21 Y s 279 222 m -21 Y s 1898 244 m -43 Y s 1968 222 m -21 Y s 2039 222 m -21 Y s 2109 222 m -21 Y s 238
 1509 m 1916 X s 490 1466 m 43 Y s 560 1487 m 22 Y s 631 1487 m 22 Y s 701 1487 m 22 Y s 771 1487 m 22 Y s 842 1466 m 43 Y s 912 1487 m 22 Y s 983 1487 m 22 Y s 1053 1487 m 22 Y s 1124 1487 m 22 Y s 1194 1466 m 43 Y s 1264 1487 m 22 Y s 1335 1487 m
 22 Y s 1405 1487 m 22 Y s 1476 1487 m 22 Y s 1546 1466 m 43 Y s 1616 1487 m 22 Y s 1687 1487 m 22 Y s 1757 1487 m 22 Y s 1828 1487 m 22 Y s 1898 1466 m 43 Y s 490 1466 m 43 Y s 419 1487 m 22 Y s 349 1487 m 22 Y s 279 1487 m 22 Y s 1898 1466 m 43 Y s
 1968 1487 m 22 Y s 2039 1487 m 22 Y s 2109 1487 m 22 Y s 238 201 m 1308 Y s 291 201 m -53 X s 265 235 m -27 X s 265 269 m -27 X s 265 304 m -27 X s 265 338 m -27 X s 291 372 m -53 X s 265 406 m -27 X s 265 440 m -27 X s 265 474 m -27 X s 265 508 m
 -27 X s 291 543 m -53 X s 265 577 m -27 X s 265 611 m -27 X s 265 645 m -27 X s 265 679 m -27 X s 291 713 m -53 X s 265 747 m -27 X s 265 782 m -27 X s 265 816 m -27 X s 265 850 m -27 X s 291 884 m -53 X s 265 918 m -27 X s 265 952 m -27 X s 265 986
 m -27 X s 265 1021 m -27 X s 291 1055 m -53 X s 265 1089 m -27 X s 265 1123 m -27 X s 265 1157 m -27 X s 265 1191 m -27 X s 291 1225 m -53 X s 265 1260 m -27 X s 265 1294 m -27 X s 265 1328 m -27 X s 265 1362 m -27 X s 291 1396 m -53 X s 291 1396 m
 -53 X s 265 1430 m -27 X s 265 1464 m -27 X s 265 1499 m -27 X s 2154 201 m 1308 Y s 2101 201 m 53 X s 2128 235 m 26 X s 2128 269 m 26 X s 2128 304 m 26 X s 2128 338 m 26 X s 2101 372 m 53 X s 2128 406 m 26 X s 2128 440 m 26 X s 2128 474 m 26 X s
 2128 508 m 26 X s 2101 543 m 53 X s 2128 577 m 26 X s 2128 611 m 26 X s 2128 645 m 26 X s 2128 679 m 26 X s 2101 713 m 53 X s 2128 747 m 26 X s 2128 782 m 26 X s 2128 816 m 26 X s 2128 850 m 26 X s 2101 884 m 53 X s 2128 918 m 26 X s 2128 952 m 26 X
 s 2128 986 m 26 X s 2128 1021 m 26 X s 2101 1055 m 53 X s 2128 1089 m 26 X s 2128 1123 m 26 X s 2128 1157 m 26 X s 2128 1191 m 26 X s 2101 1225 m 53 X s 2128 1260 m 26 X s 2128 1294 m 26 X s 2128 1328 m 26 X s 2128 1362 m 26 X s 2101 1396 m 53 X s
 2101 1396 m 53 X s 2128 1430 m 26 X s 2128 1464 m 26 X s 2128 1499 m 26 X s
 gsave  2268 1676 0 0 C 2211.02 192.756 t 90 r /Helvetica-Bold findfont 45.506 sf 0 0 m (U/O\255flow \(S,B\): \(0.0, 0.0\)% / \(0.0, 0.0\)%) show NC gr  0.490196 0.545098 0.615686 c 0.364706 0.419608 0.490196 c 1587 96 23 1572 bf 0.490196 0.545098
 0.615686 c 23 1572 m 1587 X s 1610 1572 m 96 Y s 1610 1668 m -1587 X s 23 1668 m -96 Y s 1 1 1 c black 1 1 1 c
 gsave  2268 1676 0 0 C 68.259 1600.29 t 0 r /Helvetica-Bold findfont 68.259 sf 0 0 m (TMVA overtraining check for classifier: Fisher) show NC gr 
 gr  gr showpage
end
%%EOF
