%!PS-Adobe-2.0 EPSF-2.0
%%BoundingBox:  0 0 567 419
%%Title: dataset/plots/overtrain_MLPBNN.eps: TMVA comparison MLPBNN
%%Creator: ROOT Version 6.12/06
%%CreationDate: Mon May 21 12:06:56 2018
%%DocumentNeededResources: ProcSet (FontSetInit)
%%EndComments
%%BeginProlog
80 dict begin
/s {stroke} def /l {lineto} def /m {moveto} def /t {translate} def
/r {rotate} def /rl {roll}  def /R {repeat} def
/d {rlineto} def /rm {rmoveto} def /gr {grestore} def /f {eofill} def
/c {setrgbcolor} def /black {0 setgray} def /sd {setdash} def
/cl {closepath} def /sf {scalefont setfont} def /lw {setlinewidth} def
/box {m dup 0 exch d exch 0 d 0 exch neg d cl} def
/NC{systemdict begin initclip end}def/C{NC box clip newpath}def
/bl {box s} def /bf {gsave box gsave f grestore 1 lw [] 0 sd s grestore} def /Y { 0 exch d} def /X { 0 d} def 
/K {{pop pop 0 moveto} exch kshow} bind def
/ita {/ang 15 def gsave [1 0 ang dup sin exch cos div 1 0 0] concat} def 
/mp {newpath /y exch def /x exch def} def
/side {[w .77 mul w .23 mul] .385 w mul sd w 0 l currentpoint t -144 r} def
/mr {mp x y w2 0 360 arc} def /m24 {mr s} def /m20 {mr f} def
/mb {mp x y w2 add m w2 neg 0 d 0 w neg d w 0 d 0 w d cl} def
/mt {mp x y w2 add m w2 neg w neg d w 0 d cl} def
/w4 {w 4 div} def
/w6 {w 6 div} def
/w8 {w 8 div} def
/m21 {mb f} def /m25 {mb s} def /m22 {mt f} def /m26{mt s} def
/m23 {mp x y w2 sub m w2 w d w neg 0 d cl f} def
/m27 {mp x y w2 add m w3 neg w2 neg d w3 w2 neg d w3 w2 d cl s} def
/m28 {mp x w2 sub y w2 sub w3 add m w3 0 d  0 w3 neg d w3 0 d 0 w3 d w3 0 d  0 w3 d w3 neg 0 d 0 w3 d w3 neg 0 d 0 w3 neg d w3 neg 0 d cl s } def
/m29 {mp gsave x w2 sub y w2 add w3 sub m currentpoint t 4 {side} repeat cl fill gr} def
/m30 {mp gsave x w2 sub y w2 add w3 sub m currentpoint t 4 {side} repeat cl s gr} def
/m31 {mp x y w2 sub m 0 w d x w2 sub y m w 0 d x w2 sub y w2 add m w w neg d x w2 sub y w2 sub m w w d s} def
/m32 {mp x y w2 sub m w2 w d w neg 0 d cl s} def
/m33 {mp x y w2 add m w3 neg w2 neg d w3 w2 neg d w3 w2 d cl f} def
/m34 {mp x w2 sub y w2 sub w3 add m w3 0 d  0 w3 neg d w3 0 d 0 w3 d w3 0 d  0 w3 d w3 neg 0 d 0 w3 d w3 neg 0 d 0 w3 neg d w3 neg 0 d cl f } def
/m35 {mp x y w2 add m w2 neg w2 neg d w2 w2 neg d w2 w2 d w2 neg w2 d x y w2 sub m 0 w d x w2 sub y m w 0 d s} def
/m36 {mb x w2 sub y w2 add m w w neg d x w2 sub y w2 sub m w w d s} def
/m37 {mp x y m w4 neg w2 d w4 neg w2 neg d w2 0 d  w4 neg w2 neg d w2 0 d w4 neg w2 d w2 0 d w4 neg w2 d w4 neg w2 neg d cl s} def
/m38 {mp x w4 sub y w2 add m w4 neg w4 neg d 0 w2 neg d w4 w4 neg d w2 0 d w4 w4 d 0 w2 d w4 neg w4 d w2 neg 0 d x y w2 sub m 0 w d x w2 sub y m w 0 d cl s} def
/m39 {mp x y m w4 neg w2 d w4 neg w2 neg d w2 0 d  w4 neg w2 neg d w2 0 d w4 neg w2 d w2 0 d w4 neg w2 d w4 neg w2 neg d cl f} def
/m40 {mp x y m w4 w2 d w4 w4 neg d w2 neg w4 neg d w2 w4 neg d w4 neg w4 neg d w4 neg w2 d w4 neg w2 neg d w4 neg w4 d w2 w4 d w2 neg w4 d w4 w4 d w4 w2 neg d cl s} def
/m41 {mp x y m w4 w2 d w4 w4 neg d w2 neg w4 neg d w2 w4 neg d w4 neg w4 neg d w4 neg w2 d w4 neg w2 neg d w4 neg w4 d w2 w4 d w2 neg w4 d w4 w4 d w4 w2 neg d cl f} def
/m42 {mp x y w2 add m w8 neg w2 -3 4 div mul d w2 -3 4 div mul w8 neg d w2 3 4 div mul w8 neg d w8 w2 -3 4 div mul d w8 w2 3 4 div mul d w2 3 4 div mul w8 d w2 -3 4 div mul w8 d w8 neg w2 3 4 div mul d cl s} def
/m43 {mp x y w2 add m w8 neg w2 -3 4 div mul d w2 -3 4 div mul w8 neg d w2 3 4 div mul w8 neg d w8 w2 -3 4 div mul d w8 w2 3 4 div mul d w2 3 4 div mul w8 d w2 -3 4 div mul w8 d w8 neg w2 3 4 div mul d cl f} def
/m44 {mp x y m w6 neg w2 d w2 2 3 div mul 0 d w6 neg w2 neg d w2 w6 d 0 w2 -2 3 div mul d w2 neg w6 d w6 w2 neg d w2 -2 3 div mul 0 d w6 w2 d w2 neg w6 neg d 0 w2 2 3 div mul d w2 w6 neg d cl s} def
/m45 {mp x y m w6 neg w2 d w2 2 3 div mul 0 d w6 neg w2 neg d w2 w6 d 0 w2 -2 3 div mul d w2 neg w6 d w6 w2 neg d w2 -2 3 div mul 0 d w6 w2 d w2 neg w6 neg d 0 w2 2 3 div mul d w2 w6 neg d cl f} def
/m46 {mp x y w4 add m w4 neg w4 d w4 neg w4 neg d  w4 w4 neg d w4 neg w4 neg d w4 w4 neg d w4 w4 d w4 w4 neg d w4 w4 d w4 neg w4 d w4 w4 d w4 neg w4 d w4 neg w4 neg d cl s} def
/m47 {mp x y w4 add m w4 neg w4 d w4 neg w4 neg d w4 w4 neg d w4 neg w4 neg d  w4 w4 neg d w4 w4 d w4 w4 neg d w4 w4 d w4 neg w4 d w4 w4 d w4 neg w4 d w4 neg w4 neg d cl f} def
/m48 {mp x y w4 add m w4 neg w4 d w4 neg w4 neg d w4 w4 neg d  w4 neg w4 neg d w4 w4 neg d w4 w4 d w4 w4 neg d w4 w4 d w4 neg w4 d w4 w4 d w4 neg w4 d w4 neg w4 neg d  w4 w4 neg d w4 neg w4 neg d w4 neg w4 d w4 w4 d cl f} def
/m49 {mp x w2 sub w3 add y w2 sub w3 add m  0 w3 neg d w3 0 d 0 w3 d w3 0 d 0 w3 d w3 neg 0 d 0 w3 d w3 neg 0 d 0 w3 neg d w3 neg 0 d 0 w3 neg d w3 0 d 0 w3 d w3 0 d 0 w3 neg d w3 neg 0 d cl f } def
/m2 {mp x y w2 sub m 0 w d x w2 sub y m w 0 d s} def
/m5 {mp x w2 sub y w2 sub m w w d x w2 sub y w2 add m w w neg d s} def
%%IncludeResource: ProcSet (FontSetInit)
%%IncludeResource: font Times-Roman
%%IncludeResource: font Times-Italic
%%IncludeResource: font Times-Bold
%%IncludeResource: font Times-BoldItalic
%%IncludeResource: font Helvetica
%%IncludeResource: font Helvetica-Oblique
%%IncludeResource: font Helvetica-Bold
%%IncludeResource: font Helvetica-BoldOblique
%%IncludeResource: font Courier
%%IncludeResource: font Courier-Oblique
%%IncludeResource: font Courier-Bold
%%IncludeResource: font Courier-BoldOblique
%%IncludeResource: font Symbol
%%IncludeResource: font ZapfDingbats
/reEncode {exch findfont dup length dict begin {1 index /FID eq  {pop pop} {def} ifelse } forall /Encoding exch def currentdict end dup /FontName get exch definefont pop } def [/Times-Bold /Times-Italic /Times-BoldItalic /Helvetica /Helvetica-Oblique
 /Helvetica-Bold /Helvetica-BoldOblique /Courier /Courier-Oblique /Courier-Bold /Courier-BoldOblique /Times-Roman /AvantGarde-Book /AvantGarde-BookOblique /AvantGarde-Demi /AvantGarde-DemiOblique /Bookman-Demi /Bookman-DemiItalic /Bookman-Light
 /Bookman-LightItalic /Helvetica-Narrow /Helvetica-Narrow-Bold /Helvetica-Narrow-BoldOblique /Helvetica-Narrow-Oblique /NewCenturySchlbk-Roman /NewCenturySchlbk-Bold /NewCenturySchlbk-BoldItalic /NewCenturySchlbk-Italic /Palatino-Bold
 /Palatino-BoldItalic /Palatino-Italic /Palatino-Roman ] {ISOLatin1Encoding reEncode } forall
%%EndProlog
%%BeginSetup
%%EndSetup
newpath  gsave  .25 .25 scale  gsave  0 0 t 0.490196 0.545098 0.615686 c[  ] 0 sd 3 lw 0.941176 0.941176 0.941176 c 2268 1676 0 0 bf black 1 1 0.992157 c 1916 1308 238 201 bf black 1916 1308 238 201 bl 1 1 0.992157 c 1916 1308 238 201 bf black 1916
 1308 238 201 bl 238 201 m 1916 X s 238 244 m -43 Y s 334 222 m -21 Y s 430 222 m -21 Y s 526 222 m -21 Y s 621 244 m -43 Y s 717 222 m -21 Y s 813 222 m -21 Y s 909 222 m -21 Y s 1005 244 m -43 Y s 1100 222 m -21 Y s 1196 222 m -21 Y s 1292 222 m
 -21 Y s 1388 244 m -43 Y s 1484 222 m -21 Y s 1579 222 m -21 Y s 1675 222 m -21 Y s 1771 244 m -43 Y s 1867 222 m -21 Y s 1963 222 m -21 Y s 2059 222 m -21 Y s 2154 244 m -43 Y s 238 244 m -43 Y s 2154 244 m -43 Y s
 gsave  2268 1676 0 0 C 216.154 128.934 t 0 r /Helvetica-Bold findfont 64.4669 sf 0 0 m (0) show NC gr 
 gsave  2268 1676 0 0 C 572.617 128.934 t 0 r /Helvetica-Bold findfont 64.4669 sf 0 0 m (0.2) show NC gr 
 gsave  2268 1676 0 0 C 955.626 128.934 t 0 r /Helvetica-Bold findfont 64.4669 sf 0 0 m (0.4) show NC gr 
 gsave  2268 1676 0 0 C 1338.64 128.934 t 0 r /Helvetica-Bold findfont 64.4669 sf 0 0 m (0.6) show NC gr 
 gsave  2268 1676 0 0 C 1725.44 128.934 t 0 r /Helvetica-Bold findfont 64.4669 sf 0 0 m (0.8) show NC gr 
 gsave  2268 1676 0 0 C 2138.78 128.934 t 0 r /Helvetica-Bold findfont 64.4669 sf 0 0 m (1) show NC gr 
 gsave  2268 1676 0 0 C 1505.49 34.1295 t 0 r /Helvetica-Bold findfont 72.0512 sf 0 0 m (MLPBNN response) show NC gr  238 1509 m 1916 X s 238 1466 m 43 Y s 334 1487 m 22 Y s 430 1487 m 22 Y s 526 1487 m 22 Y s 621 1466 m 43 Y s 717 1487 m 22 Y s 813
 1487 m 22 Y s 909 1487 m 22 Y s 1005 1466 m 43 Y s 1100 1487 m 22 Y s 1196 1487 m 22 Y s 1292 1487 m 22 Y s 1388 1466 m 43 Y s 1484 1487 m 22 Y s 1579 1487 m 22 Y s 1675 1487 m 22 Y s 1771 1466 m 43 Y s 1867 1487 m 22 Y s 1963 1487 m 22 Y s 2059
 1487 m 22 Y s 2154 1466 m 43 Y s 238 1466 m 43 Y s 2154 1466 m 43 Y s 238 201 m 1308 Y s 291 201 m -53 X s 265 251 m -27 X s 265 300 m -27 X s 265 350 m -27 X s 265 399 m -27 X s 291 449 m -53 X s 265 498 m -27 X s 265 548 m -27 X s 265 597 m -27 X
 s 265 647 m -27 X s 291 696 m -53 X s 265 746 m -27 X s 265 795 m -27 X s 265 845 m -27 X s 265 894 m -27 X s 291 944 m -53 X s 265 993 m -27 X s 265 1043 m -27 X s 265 1092 m -27 X s 265 1141 m -27 X s 291 1191 m -53 X s 265 1240 m -27 X s 265 1290
 m -27 X s 265 1339 m -27 X s 265 1389 m -27 X s 291 1438 m -53 X s 291 1438 m -53 X s 265 1488 m -27 X s
 gsave  2268 1676 0 0 C 174.44 178.232 t 0 r /Helvetica-Bold findfont 64.4669 sf 0 0 m (0) show NC gr 
 gsave  2268 1676 0 0 C 174.44 424.723 t 0 r /Helvetica-Bold findfont 64.4669 sf 0 0 m (5) show NC gr 
 gsave  2268 1676 0 0 C 136.518 671.214 t 0 r /Helvetica-Bold findfont 64.4669 sf 0 0 m (10) show NC gr 
 gsave  2268 1676 0 0 C 136.518 917.705 t 0 r /Helvetica-Bold findfont 64.4669 sf 0 0 m (15) show NC gr 
 gsave  2268 1676 0 0 C 136.518 1167.99 t 0 r /Helvetica-Bold findfont 64.4669 sf 0 0 m (20) show NC gr 
 gsave  2268 1676 0 0 C 136.518 1414.48 t 0 r /Helvetica-Bold findfont 64.4669 sf 0 0 m (25) show NC gr 
 gsave  2268 1676 0 0 C 64.4669 1425.86 t 90 r /Helvetica-Bold findfont 72.0512 sf 0 0 m (dx) show NC gr 
 gsave  2268 1676 0 0 C 30.3373 1406.89 t 90 r /Helvetica-Bold findfont 45.506 sf 0 0 m ( ) show NC gr 
 gsave  2268 1676 0 0 C 64.4669 1384.14 t 90 r /Helvetica-Bold findfont 72.0512 sf 0 0 m (/) show NC gr 
 gsave  2268 1676 0 0 C 30.3373 1365.18 t 90 r /Helvetica-Bold findfont 45.506 sf 0 0 m ( ) show NC gr 
 gsave  2268 1676 0 0 C 60.6747 1092.14 t 90 r /Helvetica-Bold findfont 72.0512 sf 0 0 m (\(1/N\) dN) show NC gr  2154 201 m 1308 Y s 2101 201 m 53 X s 2128 251 m 26 X s 2128 300 m 26 X s 2128 350 m 26 X s 2128 399 m 26 X s 2101 449 m 53 X s 2128 498
 m 26 X s 2128 548 m 26 X s 2128 597 m 26 X s 2128 647 m 26 X s 2101 696 m 53 X s 2128 746 m 26 X s 2128 795 m 26 X s 2128 845 m 26 X s 2128 894 m 26 X s 2101 944 m 53 X s 2128 993 m 26 X s 2128 1043 m 26 X s 2128 1092 m 26 X s 2128 1141 m 26 X s
 2101 1191 m 53 X s 2128 1240 m 26 X s 2128 1290 m 26 X s 2128 1339 m 26 X s 2128 1389 m 26 X s 2101 1438 m 53 X s 2101 1438 m 53 X s 2128 1488 m 26 X s 0.490196 0.545098 0.615686 c 1 1 1 c 0.490196 0.545098 0.615686 c 907 202 238 1307 bl 238 1307 m
 907 X s 1145 1307 m 202 Y s 1145 1509 m -907 X s 238 1509 m -202 Y s black
 gsave  2268 1676 0 0 C 417.138 1437.23 t 0 r /Helvetica-Bold findfont 56.8825 sf 0 0 m (Signal \(test sample\)) show NC gr  0.49 0.6 0.82 c 265 1423 m 127 X 70 Y -127 X f 0 0 0.933333 c 265 1493 m 127 X s 265 1423 m 127 X s 392 1423 m 70 Y s 265
 1423 m 70 Y s black
 gsave  2268 1676 0 0 C 417.138 1338.64 t 0 r /Helvetica-Bold findfont 56.8825 sf 0 0 m (Background \(test sample\)) show NC gr  1 0 0 c 392 1354 m -32 -32 d s 383 1393 m -71 -71 d s 335 1393 m -70 -69 d s 286 1393 m -21 -21 d s 0 0 0.933333 c 1 0 0
 c 265 1393 m 127 X s 265 1322 m 127 X s 392 1322 m 71 Y s 265 1322 m 71 Y s 0 0 0.933333 c 0.49 0.6 0.82 c black 0.49 0.6 0.82 c 2154 201 m -1916 X 1 Y 48 X -1 Y 48 X 1 Y 48 X -1 Y 191 X 1 Y 144 X -1 Y 48 X 1 Y 48 X -1 Y 48 X 1 Y 48 X 1 Y 48 X -1 Y
 143 X 1 Y 144 X 1 Y 48 X 4 Y 48 X 2 Y 48 X 741 Y 48 X -374 Y 48 X -195 Y 48 X -67 Y 47 X -30 Y 48 X -36 Y 48 X 5 Y 48 X -15 Y 48 X 1 Y 48 X -10 Y 48 X 1 Y 48 X -7 Y 48 X 8 Y 48 X -8 Y 48 X 15 Y 47 X 58 Y 48 X f 0 0 0.933333 c 0.49 0.6 0.82 c 0 0
 0.933333 c 238 202 m 48 X -1 Y 48 X 1 Y 48 X -1 Y 191 X 1 Y 144 X -1 Y 48 X 1 Y 48 X -1 Y 48 X 1 Y 48 X 1 Y 48 X -1 Y 143 X 1 Y 144 X 1 Y 48 X 4 Y 48 X 2 Y 48 X 741 Y 48 X -374 Y 48 X -195 Y 48 X -67 Y 47 X -30 Y 48 X -36 Y 48 X 5 Y 48 X -15 Y 48 X
 1 Y 48 X -10 Y 48 X 1 Y 48 X -7 Y 48 X 8 Y 48 X -8 Y 48 X 15 Y 47 X 58 Y 48 X s 1 0 0 c black 1 0 0 c 2126 202 m -1 -1 d s 2078 202 m -1 -1 d s 2030 202 m -1 -1 d s 1984 204 m -3 -3 d s 1936 204 m -3 -3 d s 1889 205 m -4 -4 d s 1841 205 m -4 -4 d s
 1795 207 m -6 -6 d s 1752 213 m -11 -12 d s 1707 215 m -15 -14 d s 1668 225 m -24 -24 d s 1627 232 m -31 -31 d s 1582 235 m -34 -34 d s 1549 251 m -49 -50 d s 1532 281 m -80 -80 d s 1498 295 m -94 -94 d s 1484 329 m -96 -96 d s 1359 205 m -3 -4 d s
 1484 377 m -96 -96 d s 1312 205 m -4 -4 d s 1484 425 m -96 -95 d s 1263 205 m -4 -4 d s 1450 440 m -62 -62 d s 1213 203 m -2 -2 d s 1436 474 m -48 -48 d s 1164 202 m -1 -1 d s 1436 522 m -48 -48 d s 1116 202 m -1 -1 d s 1436 570 m -48 -48 d s 1069
 204 m -2 -3 d s 1436 618 m -48 -48 d s 1020 202 m -1 -1 d s 1415 646 m -27 -28 d s 971 201 m s 924 202 m -1 -1 d s 877 203 m -2 -2 d s 830 204 m -3 -3 d s 778 201 m cl s 731 202 m -1 -1 d s 685 204 m -3 -3 d s 634 201 m s 586 202 m -1 Y s 541 204 m
 -3 -3 d s 491 202 m -1 -1 d s 444 203 m -2 -2 d s 394 202 m -1 Y s 347 202 m -2 -1 d s 302 206 m -5 -5 d s 286 238 m -37 -37 d s 286 286 m -48 -48 d s 286 334 m -48 -48 d s 286 382 m -48 -48 d s 286 430 m -48 -48 d s 286 478 m -48 -47 d s 286 527 m
 -48 -48 d s 286 575 m -48 -48 d s 286 623 m -48 -48 d s 286 671 m -48 -48 d s 286 719 m -48 -48 d s 286 767 m -48 -48 d s 286 815 m -48 -48 d s 286 863 m -48 -48 d s 286 911 m -48 -48 d s 286 959 m -48 -47 d s 286 1008 m -48 -48 d s 286 1056 m -48
 -48 d s 286 1104 m -48 -48 d s 286 1152 m -48 -48 d s 286 1200 m -48 -48 d s 245 1207 m -7 -7 d s 238 1207 m 48 X -1001 Y 48 X -4 Y 96 X 1 Y 48 X -1 Y 48 X 2 Y 47 X -2 Y 48 X -1 Y 48 X 3 Y 48 X -2 Y 48 X -1 Y 48 X 3 Y 48 X -1 Y 48 X -1 Y 48 X -1 Y
 48 X 1 Y 48 X 2 Y 47 X -2 Y 96 X 1 Y 48 X 2 Y 144 X 441 Y 48 X -206 Y 48 X -145 Y 48 X -44 Y 47 X -16 Y 48 X -10 Y 48 X -10 Y 48 X -2 Y 48 X -6 Y 48 X -2 Y 96 X -1 Y 96 X -2 Y 143 X s 0.490196 0.545098 0.615686 c 1 1 1 c 0.490196 0.545098 0.615686 c
 952 202 1202 1307 bl 1202 1307 m 952 X s 2154 1307 m 202 Y s 2154 1509 m -952 X s 1202 1509 m -202 Y s black
 gsave  2268 1676 0 0 C 1296.92 1437.23 t 0 r /Helvetica-Bold findfont 56.8825 sf 0 0 m (Signal \(training sample\)) show NC gr  0 0 0.933333 c /w 21 def /w2 {w 2 div} def /w3 {w 3 div} def 1250 1458 m20 black
 gsave  2268 1676 0 0 C 1296.92 1338.64 t 0 r /Helvetica-Bold findfont 56.8825 sf 0 0 m (Background \(training sample\)) show NC gr  1 0 0 c 1250 1358 m20 0 0 0.933333 c 1 1 1 c 0 0 0.933333 c 238 202 m 16 X s 270 202 m 16 X s 238 194 m 16 Y s 286
 194 m 16 Y s 262 202 m20 334 202 m 16 X s 365 202 m 17 X s 334 194 m 15 Y s 382 194 m 15 Y s 358 202 m20 430 202 m 16 X s 461 202 m 17 X s 430 194 m 15 Y s 478 194 m 15 Y s 454 202 m20 573 202 m 17 X s 605 202 m 16 X s 573 194 m 15 Y s 621 194 m 15
 Y s 597 202 m20 765 202 m 16 X s 797 202 m 16 X s 765 194 m 15 Y s 813 194 m 15 Y s 789 202 m20 861 202 m 16 X s 892 202 m 17 X s 861 194 m 15 Y s 909 194 m 15 Y s 885 202 m20 909 202 m 16 X s 940 202 m 17 X s 909 194 m 16 Y s 957 194 m 16 Y s 933
 202 m20 957 202 m 16 X s 988 202 m 17 X s 957 195 m 15 Y s 1005 195 m 15 Y s 981 202 m20 1005 204 m 16 X s 1036 204 m 17 X s 1005 196 m 15 Y s 1053 196 m 15 Y s 1029 204 m20 1053 202 m 16 X s 1084 202 m 16 X s 1053 194 m 16 Y s 1100 194 m 16 Y s
 1076 202 m20 1100 202 m 17 X s 1132 202 m 16 X s 1100 194 m 16 Y s 1148 194 m 16 Y s 1124 202 m20 1148 202 m 17 X s 1180 202 m 16 X s 1148 195 m 15 Y s 1196 195 m 15 Y s 1172 202 m20 1196 204 m 17 X s 1228 204 m 16 X s 1196 196 m 15 Y s 1244 196 m
 15 Y s 1220 204 m20 1244 204 m 16 X s 1276 204 m 16 X s 1244 196 m 15 Y s 1292 196 m 15 Y s 1268 204 m20 1292 206 m 16 X s 1324 206 m 16 X s 1292 198 m 15 Y s 1340 198 m 15 Y s 1316 206 m20 1340 208 m 16 X s 1371 208 m 17 X s 1340 201 m 15 Y s 1388
 201 m 15 Y s 1364 208 m20 1412 944 m 10 Y s 1412 969 m 10 Y s 1388 962 m 16 X s 1419 962 m 17 X s 1404 944 m 15 X s 1404 979 m 15 X s 1388 954 m 15 Y s 1436 954 m 15 Y s 1412 962 m20 1460 573 m 5 Y s 1460 593 m 5 Y s 1436 586 m 16 X s 1467 586 m 17
 X s 1452 573 m 15 X s 1452 598 m 15 X s 1436 578 m 15 Y s 1484 578 m 15 Y s 1460 586 m20 1508 365 m 1 Y s 1508 381 m 1 Y s 1484 373 m 16 X s 1515 373 m 17 X s 1500 365 m 15 X s 1500 382 m 15 X s 1484 366 m 15 Y s 1532 366 m 15 Y s 1508 373 m20 1532
 308 m 16 X s 1563 308 m 16 X s 1532 300 m 15 Y s 1579 300 m 15 Y s 1556 308 m20 1579 282 m 17 X s 1611 282 m 16 X s 1579 274 m 15 Y s 1627 274 m 15 Y s 1603 282 m20 1627 260 m 17 X s 1659 260 m 16 X s 1627 253 m 15 Y s 1675 253 m 15 Y s 1651 260 m20
 1675 247 m 17 X s 1707 247 m 16 X s 1675 239 m 16 Y s 1723 239 m 16 Y s 1699 247 m20 1723 246 m 17 X s 1755 246 m 16 X s 1723 238 m 15 Y s 1771 238 m 15 Y s 1747 246 m20 1771 232 m 16 X s 1803 232 m 16 X s 1771 224 m 16 Y s 1819 224 m 16 Y s 1795
 232 m20 1819 230 m 16 X s 1851 230 m 16 X s 1819 222 m 16 Y s 1867 222 m 16 Y s 1843 230 m20 1867 224 m 16 X s 1898 224 m 17 X s 1867 217 m 15 Y s 1915 217 m 15 Y s 1891 224 m20 1915 228 m 16 X s 1946 228 m 17 X s 1915 221 m 15 Y s 1963 221 m 15 Y s
 1939 228 m20 1963 228 m 16 X s 1994 228 m 17 X s 1963 221 m 15 Y s 2011 221 m 15 Y s 1987 228 m20 2011 235 m 16 X s 2042 235 m 17 X s 2011 228 m 15 Y s 2059 228 m 15 Y s 2035 235 m20 2059 235 m 16 X s 2090 235 m 16 X s 2059 228 m 15 Y s 2106 228 m
 15 Y s 2082 235 m20 2106 294 m 17 X s 2138 294 m 16 X s 2106 286 m 15 Y s 2154 286 m 15 Y s 2130 294 m20 1 0 0 c 1 1 1 c 1 0 0 c 262 1183 m 13 Y s 262 1211 m 12 Y s 238 1203 m 16 X s 270 1203 m 16 X s 254 1183 m 16 X s 254 1223 m 16 X s 238 1196 m
 15 Y s 286 1196 m 15 Y s 262 1203 m20 286 204 m 16 X s 318 204 m 16 X s 286 196 m 15 Y s 334 196 m 15 Y s 310 204 m20 334 203 m 16 X s 365 203 m 17 X s 334 195 m 15 Y s 382 195 m 15 Y s 358 203 m20 382 203 m 16 X s 413 203 m 17 X s 382 195 m 15 Y s
 430 195 m 15 Y s 406 203 m20 430 202 m 16 X s 461 202 m 17 X s 430 194 m 15 Y s 478 194 m 15 Y s 454 202 m20 478 202 m 16 X s 509 202 m 17 X s 478 195 m 15 Y s 526 195 m 15 Y s 502 202 m20 526 203 m 16 X s 557 203 m 16 X s 526 196 m 15 Y s 573 196 m
 15 Y s 549 203 m20 573 202 m 17 X s 605 202 m 16 X s 573 194 m 16 Y s 621 194 m 16 Y s 597 202 m20 621 202 m 17 X s 653 202 m 16 X s 621 195 m 15 Y s 669 195 m 15 Y s 645 202 m20 669 202 m 17 X s 701 202 m 16 X s 669 195 m 15 Y s 717 195 m 15 Y s
 693 202 m20 717 203 m 17 X s 749 203 m 16 X s 717 196 m 15 Y s 765 196 m 15 Y s 741 203 m20 765 204 m 16 X s 797 204 m 16 X s 765 196 m 15 Y s 813 196 m 15 Y s 789 204 m20 813 202 m 16 X s 845 202 m 16 X s 813 195 m 15 Y s 861 195 m 15 Y s 837 202
 m20 861 203 m 16 X s 892 203 m 17 X s 861 196 m 15 Y s 909 196 m 15 Y s 885 203 m20 909 203 m 16 X s 940 203 m 17 X s 909 196 m 15 Y s 957 196 m 15 Y s 933 203 m20 957 202 m 16 X s 988 202 m 17 X s 957 194 m 16 Y s 1005 194 m 16 Y s 981 202 m20 1005
 203 m 16 X s 1036 203 m 17 X s 1005 196 m 15 Y s 1053 196 m 15 Y s 1029 203 m20 1053 203 m 16 X s 1084 203 m 16 X s 1053 196 m 15 Y s 1100 196 m 15 Y s 1076 203 m20 1100 202 m 17 X s 1132 202 m 16 X s 1100 195 m 15 Y s 1148 195 m 15 Y s 1124 202 m20
 1148 203 m 17 X s 1180 203 m 16 X s 1148 196 m 15 Y s 1196 196 m 15 Y s 1172 203 m20 1196 202 m 17 X s 1228 202 m 16 X s 1196 194 m 16 Y s 1244 194 m 16 Y s 1220 202 m20 1244 205 m 16 X s 1276 205 m 16 X s 1244 198 m 15 Y s 1292 198 m 15 Y s 1268
 205 m20 1292 204 m 16 X s 1324 204 m 16 X s 1292 196 m 15 Y s 1340 196 m 15 Y s 1316 204 m20 1340 205 m 16 X s 1371 205 m 17 X s 1340 198 m 15 Y s 1388 198 m 15 Y s 1364 205 m20 1412 633 m 5 Y s 1412 653 m 6 Y s 1388 646 m 16 X s 1419 646 m 17 X s
 1404 633 m 15 X s 1404 659 m 15 X s 1388 638 m 15 Y s 1436 638 m 15 Y s 1412 646 m20 1460 420 m 2 Y s 1460 437 m 2 Y s 1436 430 m 16 X s 1467 430 m 17 X s 1452 420 m 15 X s 1452 439 m 15 X s 1436 422 m 15 Y s 1484 422 m 15 Y s 1460 430 m20 1484 304
 m 16 X s 1515 304 m 17 X s 1484 296 m 15 Y s 1532 296 m 15 Y s 1508 304 m20 1532 261 m 16 X s 1563 261 m 16 X s 1532 253 m 16 Y s 1579 253 m 16 Y s 1556 261 m20 1579 232 m 17 X s 1611 232 m 16 X s 1579 224 m 16 Y s 1627 224 m 16 Y s 1603 232 m20
 1627 223 m 17 X s 1659 223 m 16 X s 1627 216 m 15 Y s 1675 216 m 15 Y s 1651 223 m20 1675 220 m 17 X s 1707 220 m 16 X s 1675 212 m 15 Y s 1723 212 m 15 Y s 1699 220 m20 1723 210 m 17 X s 1755 210 m 16 X s 1723 202 m 15 Y s 1771 202 m 15 Y s 1747
 210 m20 1771 207 m 16 X s 1803 207 m 16 X s 1771 199 m 15 Y s 1819 199 m 15 Y s 1795 207 m20 1819 207 m 16 X s 1851 207 m 16 X s 1819 200 m 15 Y s 1867 200 m 15 Y s 1843 207 m20 1867 206 m 16 X s 1898 206 m 17 X s 1867 198 m 15 Y s 1915 198 m 15 Y s
 1891 206 m20 1915 203 m 16 X s 1946 203 m 17 X s 1915 196 m 15 Y s 1963 196 m 15 Y s 1939 203 m20 1963 202 m 16 X s 1994 202 m 17 X s 1963 195 m 15 Y s 2011 195 m 15 Y s 1987 202 m20 2011 202 m 16 X s 2042 202 m 17 X s 2011 194 m 15 Y s 2059 194 m
 15 Y s 2035 202 m20 black
 gsave  2268 1676 0 0 C 272.126 1240.34 t 0 r /Helvetica-Bold findfont 49.2982 sf 0 0 m (Kolmogorov\255Smirnov test: signal \(background\) probability = 0.599 \(0.559\)) show NC gr  238 201 m 1916 X s 238 244 m -43 Y s 334 222 m -21 Y s 430 222 m -21
 Y s 526 222 m -21 Y s 621 244 m -43 Y s 717 222 m -21 Y s 813 222 m -21 Y s 909 222 m -21 Y s 1005 244 m -43 Y s 1100 222 m -21 Y s 1196 222 m -21 Y s 1292 222 m -21 Y s 1388 244 m -43 Y s 1484 222 m -21 Y s 1579 222 m -21 Y s 1675 222 m -21 Y s
 1771 244 m -43 Y s 1867 222 m -21 Y s 1963 222 m -21 Y s 2059 222 m -21 Y s 2154 244 m -43 Y s 238 244 m -43 Y s 2154 244 m -43 Y s 238 1509 m 1916 X s 238 1466 m 43 Y s 334 1487 m 22 Y s 430 1487 m 22 Y s 526 1487 m 22 Y s 621 1466 m 43 Y s 717
 1487 m 22 Y s 813 1487 m 22 Y s 909 1487 m 22 Y s 1005 1466 m 43 Y s 1100 1487 m 22 Y s 1196 1487 m 22 Y s 1292 1487 m 22 Y s 1388 1466 m 43 Y s 1484 1487 m 22 Y s 1579 1487 m 22 Y s 1675 1487 m 22 Y s 1771 1466 m 43 Y s 1867 1487 m 22 Y s 1963 1487
 m 22 Y s 2059 1487 m 22 Y s 2154 1466 m 43 Y s 238 1466 m 43 Y s 2154 1466 m 43 Y s 238 201 m 1308 Y s 291 201 m -53 X s 265 251 m -27 X s 265 300 m -27 X s 265 350 m -27 X s 265 399 m -27 X s 291 449 m -53 X s 265 498 m -27 X s 265 548 m -27 X s
 265 597 m -27 X s 265 647 m -27 X s 291 696 m -53 X s 265 746 m -27 X s 265 795 m -27 X s 265 845 m -27 X s 265 894 m -27 X s 291 944 m -53 X s 265 993 m -27 X s 265 1043 m -27 X s 265 1092 m -27 X s 265 1141 m -27 X s 291 1191 m -53 X s 265 1240 m
 -27 X s 265 1290 m -27 X s 265 1339 m -27 X s 265 1389 m -27 X s 291 1438 m -53 X s 291 1438 m -53 X s 265 1488 m -27 X s 2154 201 m 1308 Y s 2101 201 m 53 X s 2128 251 m 26 X s 2128 300 m 26 X s 2128 350 m 26 X s 2128 399 m 26 X s 2101 449 m 53 X s
 2128 498 m 26 X s 2128 548 m 26 X s 2128 597 m 26 X s 2128 647 m 26 X s 2101 696 m 53 X s 2128 746 m 26 X s 2128 795 m 26 X s 2128 845 m 26 X s 2128 894 m 26 X s 2101 944 m 53 X s 2128 993 m 26 X s 2128 1043 m 26 X s 2128 1092 m 26 X s 2128 1141 m
 26 X s 2101 1191 m 53 X s 2128 1240 m 26 X s 2128 1290 m 26 X s 2128 1339 m 26 X s 2128 1389 m 26 X s 2101 1438 m 53 X s 2101 1438 m 53 X s 2128 1488 m 26 X s
 gsave  2268 1676 0 0 C 2211.02 192.756 t 90 r /Helvetica-Bold findfont 45.506 sf 0 0 m (U/O\255flow \(S,B\): \(0.0, 0.0\)% / \(0.0, 0.0\)%) show NC gr  0.490196 0.545098 0.615686 c 0.364706 0.419608 0.490196 c 1587 96 23 1572 bf 0.490196 0.545098
 0.615686 c 23 1572 m 1587 X s 1610 1572 m 96 Y s 1610 1668 m -1587 X s 23 1668 m -96 Y s 1 1 1 c black 1 1 1 c
 gsave  2268 1676 0 0 C 72.0512 1604.09 t 0 r /Helvetica-Bold findfont 64.4669 sf 0 0 m (TMVA overtraining check for classifier: MLPBNN) show NC gr 
 gr  gr showpage
end
%%EOF
