%!PS-Adobe-2.0 EPSF-2.0
%%BoundingBox:  0 0 567 419
%%Title: dataset/plots/overtrain_MLP.eps: TMVA comparison MLP
%%Creator: ROOT Version 6.12/06
%%CreationDate: Mon May 21 12:06:56 2018
%%DocumentNeededResources: ProcSet (FontSetInit)
%%EndComments
%%BeginProlog
80 dict begin
/s {stroke} def /l {lineto} def /m {moveto} def /t {translate} def
/r {rotate} def /rl {roll}  def /R {repeat} def
/d {rlineto} def /rm {rmoveto} def /gr {grestore} def /f {eofill} def
/c {setrgbcolor} def /black {0 setgray} def /sd {setdash} def
/cl {closepath} def /sf {scalefont setfont} def /lw {setlinewidth} def
/box {m dup 0 exch d exch 0 d 0 exch neg d cl} def
/NC{systemdict begin initclip end}def/C{NC box clip newpath}def
/bl {box s} def /bf {gsave box gsave f grestore 1 lw [] 0 sd s grestore} def /Y { 0 exch d} def /X { 0 d} def 
/K {{pop pop 0 moveto} exch kshow} bind def
/ita {/ang 15 def gsave [1 0 ang dup sin exch cos div 1 0 0] concat} def 
/mp {newpath /y exch def /x exch def} def
/side {[w .77 mul w .23 mul] .385 w mul sd w 0 l currentpoint t -144 r} def
/mr {mp x y w2 0 360 arc} def /m24 {mr s} def /m20 {mr f} def
/mb {mp x y w2 add m w2 neg 0 d 0 w neg d w 0 d 0 w d cl} def
/mt {mp x y w2 add m w2 neg w neg d w 0 d cl} def
/w4 {w 4 div} def
/w6 {w 6 div} def
/w8 {w 8 div} def
/m21 {mb f} def /m25 {mb s} def /m22 {mt f} def /m26{mt s} def
/m23 {mp x y w2 sub m w2 w d w neg 0 d cl f} def
/m27 {mp x y w2 add m w3 neg w2 neg d w3 w2 neg d w3 w2 d cl s} def
/m28 {mp x w2 sub y w2 sub w3 add m w3 0 d  0 w3 neg d w3 0 d 0 w3 d w3 0 d  0 w3 d w3 neg 0 d 0 w3 d w3 neg 0 d 0 w3 neg d w3 neg 0 d cl s } def
/m29 {mp gsave x w2 sub y w2 add w3 sub m currentpoint t 4 {side} repeat cl fill gr} def
/m30 {mp gsave x w2 sub y w2 add w3 sub m currentpoint t 4 {side} repeat cl s gr} def
/m31 {mp x y w2 sub m 0 w d x w2 sub y m w 0 d x w2 sub y w2 add m w w neg d x w2 sub y w2 sub m w w d s} def
/m32 {mp x y w2 sub m w2 w d w neg 0 d cl s} def
/m33 {mp x y w2 add m w3 neg w2 neg d w3 w2 neg d w3 w2 d cl f} def
/m34 {mp x w2 sub y w2 sub w3 add m w3 0 d  0 w3 neg d w3 0 d 0 w3 d w3 0 d  0 w3 d w3 neg 0 d 0 w3 d w3 neg 0 d 0 w3 neg d w3 neg 0 d cl f } def
/m35 {mp x y w2 add m w2 neg w2 neg d w2 w2 neg d w2 w2 d w2 neg w2 d x y w2 sub m 0 w d x w2 sub y m w 0 d s} def
/m36 {mb x w2 sub y w2 add m w w neg d x w2 sub y w2 sub m w w d s} def
/m37 {mp x y m w4 neg w2 d w4 neg w2 neg d w2 0 d  w4 neg w2 neg d w2 0 d w4 neg w2 d w2 0 d w4 neg w2 d w4 neg w2 neg d cl s} def
/m38 {mp x w4 sub y w2 add m w4 neg w4 neg d 0 w2 neg d w4 w4 neg d w2 0 d w4 w4 d 0 w2 d w4 neg w4 d w2 neg 0 d x y w2 sub m 0 w d x w2 sub y m w 0 d cl s} def
/m39 {mp x y m w4 neg w2 d w4 neg w2 neg d w2 0 d  w4 neg w2 neg d w2 0 d w4 neg w2 d w2 0 d w4 neg w2 d w4 neg w2 neg d cl f} def
/m40 {mp x y m w4 w2 d w4 w4 neg d w2 neg w4 neg d w2 w4 neg d w4 neg w4 neg d w4 neg w2 d w4 neg w2 neg d w4 neg w4 d w2 w4 d w2 neg w4 d w4 w4 d w4 w2 neg d cl s} def
/m41 {mp x y m w4 w2 d w4 w4 neg d w2 neg w4 neg d w2 w4 neg d w4 neg w4 neg d w4 neg w2 d w4 neg w2 neg d w4 neg w4 d w2 w4 d w2 neg w4 d w4 w4 d w4 w2 neg d cl f} def
/m42 {mp x y w2 add m w8 neg w2 -3 4 div mul d w2 -3 4 div mul w8 neg d w2 3 4 div mul w8 neg d w8 w2 -3 4 div mul d w8 w2 3 4 div mul d w2 3 4 div mul w8 d w2 -3 4 div mul w8 d w8 neg w2 3 4 div mul d cl s} def
/m43 {mp x y w2 add m w8 neg w2 -3 4 div mul d w2 -3 4 div mul w8 neg d w2 3 4 div mul w8 neg d w8 w2 -3 4 div mul d w8 w2 3 4 div mul d w2 3 4 div mul w8 d w2 -3 4 div mul w8 d w8 neg w2 3 4 div mul d cl f} def
/m44 {mp x y m w6 neg w2 d w2 2 3 div mul 0 d w6 neg w2 neg d w2 w6 d 0 w2 -2 3 div mul d w2 neg w6 d w6 w2 neg d w2 -2 3 div mul 0 d w6 w2 d w2 neg w6 neg d 0 w2 2 3 div mul d w2 w6 neg d cl s} def
/m45 {mp x y m w6 neg w2 d w2 2 3 div mul 0 d w6 neg w2 neg d w2 w6 d 0 w2 -2 3 div mul d w2 neg w6 d w6 w2 neg d w2 -2 3 div mul 0 d w6 w2 d w2 neg w6 neg d 0 w2 2 3 div mul d w2 w6 neg d cl f} def
/m46 {mp x y w4 add m w4 neg w4 d w4 neg w4 neg d  w4 w4 neg d w4 neg w4 neg d w4 w4 neg d w4 w4 d w4 w4 neg d w4 w4 d w4 neg w4 d w4 w4 d w4 neg w4 d w4 neg w4 neg d cl s} def
/m47 {mp x y w4 add m w4 neg w4 d w4 neg w4 neg d w4 w4 neg d w4 neg w4 neg d  w4 w4 neg d w4 w4 d w4 w4 neg d w4 w4 d w4 neg w4 d w4 w4 d w4 neg w4 d w4 neg w4 neg d cl f} def
/m48 {mp x y w4 add m w4 neg w4 d w4 neg w4 neg d w4 w4 neg d  w4 neg w4 neg d w4 w4 neg d w4 w4 d w4 w4 neg d w4 w4 d w4 neg w4 d w4 w4 d w4 neg w4 d w4 neg w4 neg d  w4 w4 neg d w4 neg w4 neg d w4 neg w4 d w4 w4 d cl f} def
/m49 {mp x w2 sub w3 add y w2 sub w3 add m  0 w3 neg d w3 0 d 0 w3 d w3 0 d 0 w3 d w3 neg 0 d 0 w3 d w3 neg 0 d 0 w3 neg d w3 neg 0 d 0 w3 neg d w3 0 d 0 w3 d w3 0 d 0 w3 neg d w3 neg 0 d cl f } def
/m2 {mp x y w2 sub m 0 w d x w2 sub y m w 0 d s} def
/m5 {mp x w2 sub y w2 sub m w w d x w2 sub y w2 add m w w neg d s} def
%%IncludeResource: ProcSet (FontSetInit)
%%IncludeResource: font Times-Roman
%%IncludeResource: font Times-Italic
%%IncludeResource: font Times-Bold
%%IncludeResource: font Times-BoldItalic
%%IncludeResource: font Helvetica
%%IncludeResource: font Helvetica-Oblique
%%IncludeResource: font Helvetica-Bold
%%IncludeResource: font Helvetica-BoldOblique
%%IncludeResource: font Courier
%%IncludeResource: font Courier-Oblique
%%IncludeResource: font Courier-Bold
%%IncludeResource: font Courier-BoldOblique
%%IncludeResource: font Symbol
%%IncludeResource: font ZapfDingbats
/reEncode {exch findfont dup length dict begin {1 index /FID eq  {pop pop} {def} ifelse } forall /Encoding exch def currentdict end dup /FontName get exch definefont pop } def [/Times-Bold /Times-Italic /Times-BoldItalic /Helvetica /Helvetica-Oblique
 /Helvetica-Bold /Helvetica-BoldOblique /Courier /Courier-Oblique /Courier-Bold /Courier-BoldOblique /Times-Roman /AvantGarde-Book /AvantGarde-BookOblique /AvantGarde-Demi /AvantGarde-DemiOblique /Bookman-Demi /Bookman-DemiItalic /Bookman-Light
 /Bookman-LightItalic /Helvetica-Narrow /Helvetica-Narrow-Bold /Helvetica-Narrow-BoldOblique /Helvetica-Narrow-Oblique /NewCenturySchlbk-Roman /NewCenturySchlbk-Bold /NewCenturySchlbk-BoldItalic /NewCenturySchlbk-Italic /Palatino-Bold
 /Palatino-BoldItalic /Palatino-Italic /Palatino-Roman ] {ISOLatin1Encoding reEncode } forall
%%EndProlog
%%BeginSetup
%%EndSetup
newpath  gsave  .25 .25 scale  gsave  0 0 t 0.490196 0.545098 0.615686 c[  ] 0 sd 3 lw 0.941176 0.941176 0.941176 c 2268 1676 0 0 bf black 1 1 0.992157 c 1916 1308 238 201 bf black 1916 1308 238 201 bl 1 1 0.992157 c 1916 1308 238 201 bf black 1916
 1308 238 201 bl 238 201 m 1916 X s 430 244 m -43 Y s 468 222 m -21 Y s 506 222 m -21 Y s 545 222 m -21 Y s 583 222 m -21 Y s 621 244 m -43 Y s 660 222 m -21 Y s 698 222 m -21 Y s 736 222 m -21 Y s 775 222 m -21 Y s 813 244 m -43 Y s 851 222 m -21 Y
 s 890 222 m -21 Y s 928 222 m -21 Y s 967 222 m -21 Y s 1005 244 m -43 Y s 1043 222 m -21 Y s 1082 222 m -21 Y s 1120 222 m -21 Y s 1158 222 m -21 Y s 1197 244 m -43 Y s 1235 222 m -21 Y s 1273 222 m -21 Y s 1312 222 m -21 Y s 1350 222 m -21 Y s
 1388 244 m -43 Y s 1427 222 m -21 Y s 1465 222 m -21 Y s 1503 222 m -21 Y s 1542 222 m -21 Y s 1580 244 m -43 Y s 1618 222 m -21 Y s 1657 222 m -21 Y s 1695 222 m -21 Y s 1733 222 m -21 Y s 1772 244 m -43 Y s 1810 222 m -21 Y s 1848 222 m -21 Y s
 1887 222 m -21 Y s 1925 222 m -21 Y s 1963 244 m -43 Y s 430 244 m -43 Y s 391 222 m -21 Y s 353 222 m -21 Y s 315 222 m -21 Y s 276 222 m -21 Y s 1963 244 m -43 Y s 2002 222 m -21 Y s 2040 222 m -21 Y s 2078 222 m -21 Y s 2117 222 m -21 Y s
 gsave  2268 1676 0 0 C 386.801 128.934 t 0 r /Helvetica-Bold findfont 64.4669 sf 0 0 m (0.1) show NC gr 
 gsave  2268 1676 0 0 C 572.617 128.934 t 0 r /Helvetica-Bold findfont 64.4669 sf 0 0 m (0.2) show NC gr 
 gsave  2268 1676 0 0 C 766.018 128.934 t 0 r /Helvetica-Bold findfont 64.4669 sf 0 0 m (0.3) show NC gr 
 gsave  2268 1676 0 0 C 955.626 128.934 t 0 r /Helvetica-Bold findfont 64.4669 sf 0 0 m (0.4) show NC gr 
 gsave  2268 1676 0 0 C 1149.03 128.934 t 0 r /Helvetica-Bold findfont 64.4669 sf 0 0 m (0.5) show NC gr 
 gsave  2268 1676 0 0 C 1342.43 128.934 t 0 r /Helvetica-Bold findfont 64.4669 sf 0 0 m (0.6) show NC gr 
 gsave  2268 1676 0 0 C 1532.04 128.934 t 0 r /Helvetica-Bold findfont 64.4669 sf 0 0 m (0.7) show NC gr 
 gsave  2268 1676 0 0 C 1725.44 128.934 t 0 r /Helvetica-Bold findfont 64.4669 sf 0 0 m (0.8) show NC gr 
 gsave  2268 1676 0 0 C 1915.04 128.934 t 0 r /Helvetica-Bold findfont 64.4669 sf 0 0 m (0.9) show NC gr 
 gsave  2268 1676 0 0 C 1660.97 34.1295 t 0 r /Helvetica-Bold findfont 72.0512 sf 0 0 m (MLP response) show NC gr  238 1509 m 1916 X s 430 1466 m 43 Y s 468 1487 m 22 Y s 506 1487 m 22 Y s 545 1487 m 22 Y s 583 1487 m 22 Y s 621 1466 m 43 Y s 660
 1487 m 22 Y s 698 1487 m 22 Y s 736 1487 m 22 Y s 775 1487 m 22 Y s 813 1466 m 43 Y s 851 1487 m 22 Y s 890 1487 m 22 Y s 928 1487 m 22 Y s 967 1487 m 22 Y s 1005 1466 m 43 Y s 1043 1487 m 22 Y s 1082 1487 m 22 Y s 1120 1487 m 22 Y s 1158 1487 m 22
 Y s 1197 1466 m 43 Y s 1235 1487 m 22 Y s 1273 1487 m 22 Y s 1312 1487 m 22 Y s 1350 1487 m 22 Y s 1388 1466 m 43 Y s 1427 1487 m 22 Y s 1465 1487 m 22 Y s 1503 1487 m 22 Y s 1542 1487 m 22 Y s 1580 1466 m 43 Y s 1618 1487 m 22 Y s 1657 1487 m 22 Y
 s 1695 1487 m 22 Y s 1733 1487 m 22 Y s 1772 1466 m 43 Y s 1810 1487 m 22 Y s 1848 1487 m 22 Y s 1887 1487 m 22 Y s 1925 1487 m 22 Y s 1963 1466 m 43 Y s 430 1466 m 43 Y s 391 1487 m 22 Y s 353 1487 m 22 Y s 315 1487 m 22 Y s 276 1487 m 22 Y s 1963
 1466 m 43 Y s 2002 1487 m 22 Y s 2040 1487 m 22 Y s 2078 1487 m 22 Y s 2117 1487 m 22 Y s 238 201 m 1308 Y s 291 201 m -53 X s 265 251 m -27 X s 265 302 m -27 X s 265 352 m -27 X s 265 402 m -27 X s 291 453 m -53 X s 265 503 m -27 X s 265 554 m -27
 X s 265 604 m -27 X s 265 654 m -27 X s 291 705 m -53 X s 265 755 m -27 X s 265 805 m -27 X s 265 856 m -27 X s 265 906 m -27 X s 291 956 m -53 X s 265 1007 m -27 X s 265 1057 m -27 X s 265 1107 m -27 X s 265 1158 m -27 X s 291 1208 m -53 X s 265
 1258 m -27 X s 265 1309 m -27 X s 265 1359 m -27 X s 265 1409 m -27 X s 291 1460 m -53 X s 291 1460 m -53 X s
 gsave  2268 1676 0 0 C 174.44 178.232 t 0 r /Helvetica-Bold findfont 64.4669 sf 0 0 m (0) show NC gr 
 gsave  2268 1676 0 0 C 174.44 428.515 t 0 r /Helvetica-Bold findfont 64.4669 sf 0 0 m (5) show NC gr 
 gsave  2268 1676 0 0 C 136.518 678.798 t 0 r /Helvetica-Bold findfont 64.4669 sf 0 0 m (10) show NC gr 
 gsave  2268 1676 0 0 C 136.518 932.873 t 0 r /Helvetica-Bold findfont 64.4669 sf 0 0 m (15) show NC gr 
 gsave  2268 1676 0 0 C 136.518 1183.16 t 0 r /Helvetica-Bold findfont 64.4669 sf 0 0 m (20) show NC gr 
 gsave  2268 1676 0 0 C 136.518 1433.44 t 0 r /Helvetica-Bold findfont 64.4669 sf 0 0 m (25) show NC gr 
 gsave  2268 1676 0 0 C 64.4669 1425.86 t 90 r /Helvetica-Bold findfont 72.0512 sf 0 0 m (dx) show NC gr 
 gsave  2268 1676 0 0 C 30.3373 1406.89 t 90 r /Helvetica-Bold findfont 45.506 sf 0 0 m ( ) show NC gr 
 gsave  2268 1676 0 0 C 64.4669 1384.14 t 90 r /Helvetica-Bold findfont 72.0512 sf 0 0 m (/) show NC gr 
 gsave  2268 1676 0 0 C 30.3373 1365.18 t 90 r /Helvetica-Bold findfont 45.506 sf 0 0 m ( ) show NC gr 
 gsave  2268 1676 0 0 C 60.6747 1092.14 t 90 r /Helvetica-Bold findfont 72.0512 sf 0 0 m (\(1/N\) dN) show NC gr  2154 201 m 1308 Y s 2101 201 m 53 X s 2128 251 m 26 X s 2128 302 m 26 X s 2128 352 m 26 X s 2128 402 m 26 X s 2101 453 m 53 X s 2128 503
 m 26 X s 2128 554 m 26 X s 2128 604 m 26 X s 2128 654 m 26 X s 2101 705 m 53 X s 2128 755 m 26 X s 2128 805 m 26 X s 2128 856 m 26 X s 2128 906 m 26 X s 2101 956 m 53 X s 2128 1007 m 26 X s 2128 1057 m 26 X s 2128 1107 m 26 X s 2128 1158 m 26 X s
 2101 1208 m 53 X s 2128 1258 m 26 X s 2128 1309 m 26 X s 2128 1359 m 26 X s 2128 1409 m 26 X s 2101 1460 m 53 X s 2101 1460 m 53 X s 0.490196 0.545098 0.615686 c 1 1 1 c 0.490196 0.545098 0.615686 c 907 202 238 1307 bl 238 1307 m 907 X s 1145 1307 m
 202 Y s 1145 1509 m -907 X s 238 1509 m -202 Y s black
 gsave  2268 1676 0 0 C 417.138 1437.23 t 0 r /Helvetica-Bold findfont 56.8825 sf 0 0 m (Signal \(test sample\)) show NC gr  0.49 0.6 0.82 c 265 1423 m 127 X 70 Y -127 X f 0 0 0.933333 c 265 1493 m 127 X s 265 1423 m 127 X s 392 1423 m 70 Y s 265
 1423 m 70 Y s black
 gsave  2268 1676 0 0 C 417.138 1338.64 t 0 r /Helvetica-Bold findfont 56.8825 sf 0 0 m (Background \(test sample\)) show NC gr  1 0 0 c 392 1354 m -32 -32 d s 383 1393 m -71 -71 d s 335 1393 m -70 -69 d s 286 1393 m -21 -21 d s 0 0 0.933333 c 1 0 0
 c 265 1393 m 127 X s 265 1322 m 127 X s 392 1322 m 71 Y s 265 1322 m 71 Y s 0 0 0.933333 c 0.49 0.6 0.82 c black 0.49 0.6 0.82 c 238 201 m 144 X 1 Y 48 X -1 Y 143 X 1 Y 48 X -1 Y 96 X 1 Y 48 X -1 Y 48 X 2 Y 48 X -1 Y 192 X 2 Y 191 X 8 Y 48 X 54 Y 48
 X 129 Y 48 X 252 Y 48 X -108 Y 48 X -160 Y 48 X -40 Y 47 X -44 Y 48 X -16 Y 48 X -9 Y 48 X -12 Y 48 X -13 Y 96 X -8 Y 48 X 1 Y 48 X -7 Y 48 X 4 Y 48 X 11 Y 47 X 15 Y 48 X -60 Y f 0 0 0.933333 c 0.49 0.6 0.82 c 0 0 0.933333 c 238 201 m 144 X 1 Y 48 X
 -1 Y 143 X 1 Y 48 X -1 Y 96 X 1 Y 48 X -1 Y 48 X 2 Y 48 X -1 Y 192 X 2 Y 191 X 8 Y 48 X 54 Y 48 X 129 Y 48 X 252 Y 48 X -108 Y 48 X -160 Y 48 X -40 Y 47 X -44 Y 48 X -16 Y 48 X -9 Y 48 X -12 Y 48 X -13 Y 96 X -8 Y 48 X 1 Y 48 X -7 Y 48 X 4 Y 48 X 11
 Y 47 X 15 Y 48 X -60 Y s 1 0 0 c black 1 0 0 c 2126 202 m -1 -1 d s 2077 201 m cl s 2029 201 m s 1983 203 m -2 -2 d s 1935 203 m -2 -2 d s 1889 205 m -4 -4 d s 1844 208 m -7 -7 d s 1799 212 m -10 -11 d s 1757 217 m -16 -16 d s 1719 227 m -27 -26 d s
 1675 232 m -31 -31 d s 1629 234 m -33 -33 d s 1591 244 m -43 -43 d s 1576 277 m -76 -76 d s 1532 281 m -80 -80 d s 1505 302 m -101 -101 d s 1484 329 m -128 -128 d s 1484 377 m -144 -143 d s 1327 221 m -19 -20 d s 1461 402 m -73 -72 d s 1346 288 m -6
 -6 d s 1275 216 m -16 -15 d s 1436 426 m -48 -48 d s 1219 209 m -8 -8 d s 1436 474 m -48 -48 d s 1167 205 m -4 -4 d s 1417 503 m -29 -29 d s 1120 206 m -5 -5 d s 1070 204 m -3 -3 d s 1021 203 m -2 -2 d s 972 202 m -1 -1 d s 926 204 m -3 -3 d s 877
 204 m -2 -3 d s 828 202 m -1 -1 d s 781 204 m -3 -3 d s 732 202 m -2 -1 d s 683 202 m -1 -1 d s 637 204 m -3 -3 d s 588 203 m -2 -2 d s 543 206 m -5 -5 d s 492 203 m -2 -2 d s 444 203 m -2 -2 d s 398 206 m -4 -5 d s 351 207 m -6 -6 d s 303 207 m -6
 -6 d s 286 238 m -37 -37 d s 286 286 m -48 -48 d s 286 334 m -48 -48 d s 286 382 m -48 -48 d s 286 430 m -48 -48 d s 286 478 m -48 -47 d s 286 527 m -48 -48 d s 286 575 m -48 -48 d s 286 623 m -48 -48 d s 286 671 m -48 -48 d s 286 719 m -48 -48 d s
 286 767 m -48 -48 d s 286 815 m -48 -48 d s 286 863 m -48 -48 d s 286 911 m -48 -48 d s 286 959 m -48 -47 d s 286 1008 m -48 -48 d s 286 1056 m -48 -48 d s 286 1104 m -48 -48 d s 286 1152 m -48 -48 d s 286 1200 m -48 -48 d s 245 1207 m -7 -7 d s 238
 1207 m 48 X -1000 Y 96 X -1 Y 48 X -3 Y 96 X 3 Y 47 X -3 Y 48 X 1 Y 48 X -2 Y 96 X 2 Y 48 X -2 Y 48 X 2 Y 96 X -2 Y 48 X 1 Y 48 X 1 Y 47 X 2 Y 48 X -1 Y 48 X 4 Y 48 X 7 Y 48 X 5 Y 48 X 67 Y 48 X 215 Y 48 X -101 Y 48 X -100 Y 48 X -25 Y 47 X -33 Y 48
 X -10 Y 48 X -7 Y 48 X -10 Y 48 X -5 Y 48 X -4 Y 48 X -3 Y 48 X -2 Y 96 X -2 Y 95 X 1 Y 48 X -1 Y s 0.490196 0.545098 0.615686 c 1 1 1 c 0.490196 0.545098 0.615686 c 952 202 1202 1307 bl 1202 1307 m 952 X s 2154 1307 m 202 Y s 2154 1509 m -952 X s
 1202 1509 m -202 Y s black
 gsave  2268 1676 0 0 C 1296.92 1437.23 t 0 r /Helvetica-Bold findfont 56.8825 sf 0 0 m (Signal \(training sample\)) show NC gr  0 0 0.933333 c /w 21 def /w2 {w 2 div} def /w3 {w 3 div} def 1250 1458 m20 black
 gsave  2268 1676 0 0 C 1296.92 1338.64 t 0 r /Helvetica-Bold findfont 56.8825 sf 0 0 m (Background \(training sample\)) show NC gr  1 0 0 c 1250 1358 m20 0 0 0.933333 c 1 1 1 c 0 0 0.933333 c 238 202 m 16 X s 270 202 m 16 X s 238 194 m 16 Y s 286
 194 m 16 Y s 262 202 m20 526 202 m 16 X s 557 202 m 16 X s 526 194 m 15 Y s 573 194 m 15 Y s 549 202 m20 573 202 m 17 X s 605 202 m 16 X s 573 194 m 15 Y s 621 194 m 15 Y s 597 202 m20 669 202 m 17 X s 701 202 m 16 X s 669 194 m 16 Y s 717 194 m 16
 Y s 693 202 m20 813 202 m 16 X s 845 202 m 16 X s 813 194 m 16 Y s 861 194 m 16 Y s 837 202 m20 861 202 m 16 X s 892 202 m 17 X s 861 194 m 15 Y s 909 194 m 15 Y s 885 202 m20 909 203 m 16 X s 940 203 m 17 X s 909 195 m 15 Y s 957 195 m 15 Y s 933
 203 m20 957 202 m 16 X s 988 202 m 17 X s 957 195 m 15 Y s 1005 195 m 15 Y s 981 202 m20 1005 202 m 16 X s 1036 202 m 17 X s 1005 194 m 16 Y s 1053 194 m 16 Y s 1029 202 m20 1053 203 m 16 X s 1084 203 m 16 X s 1053 195 m 15 Y s 1100 195 m 15 Y s
 1076 203 m20 1100 204 m 17 X s 1132 204 m 16 X s 1100 196 m 15 Y s 1148 196 m 15 Y s 1124 204 m20 1148 204 m 17 X s 1180 204 m 16 X s 1148 196 m 15 Y s 1196 196 m 15 Y s 1172 204 m20 1196 205 m 17 X s 1228 205 m 16 X s 1196 197 m 15 Y s 1244 197 m
 15 Y s 1220 205 m20 1244 209 m 16 X s 1276 209 m 16 X s 1244 202 m 15 Y s 1292 202 m 15 Y s 1268 209 m20 1292 259 m 16 X s 1324 259 m 16 X s 1292 252 m 15 Y s 1340 252 m 15 Y s 1316 259 m20 1364 410 m 2 Y s 1364 427 m 1 Y s 1340 419 m 16 X s 1371
 419 m 17 X s 1356 410 m 15 X s 1356 428 m 15 X s 1340 412 m 15 Y s 1388 412 m 15 Y s 1364 419 m20 1412 635 m 5 Y s 1412 656 m 5 Y s 1388 648 m 16 X s 1419 648 m 17 X s 1404 635 m 15 X s 1404 661 m 15 X s 1388 640 m 16 Y s 1436 640 m 16 Y s 1412 648
 m20 1460 528 m 4 Y s 1460 548 m 4 Y s 1436 540 m 16 X s 1467 540 m 17 X s 1452 528 m 15 X s 1452 552 m 15 X s 1436 532 m 16 Y s 1484 532 m 16 Y s 1460 540 m20 1508 381 m 1 Y s 1508 397 m 1 Y s 1484 390 m 16 X s 1515 390 m 17 X s 1500 381 m 15 X s
 1500 398 m 15 X s 1484 382 m 15 Y s 1532 382 m 15 Y s 1508 390 m20 1532 322 m 16 X s 1563 322 m 16 X s 1532 314 m 16 Y s 1579 314 m 16 Y s 1556 322 m20 1579 293 m 17 X s 1611 293 m 16 X s 1579 285 m 16 Y s 1627 285 m 16 Y s 1603 293 m20 1627 277 m
 17 X s 1659 277 m 16 X s 1627 269 m 15 Y s 1675 269 m 15 Y s 1651 277 m20 1675 268 m 17 X s 1707 268 m 16 X s 1675 261 m 15 Y s 1723 261 m 15 Y s 1699 268 m20 1723 254 m 17 X s 1755 254 m 16 X s 1723 246 m 16 Y s 1771 246 m 16 Y s 1747 254 m20 1771
 253 m 16 X s 1803 253 m 16 X s 1771 245 m 15 Y s 1819 245 m 15 Y s 1795 253 m20 1819 237 m 16 X s 1851 237 m 16 X s 1819 229 m 16 Y s 1867 229 m 16 Y s 1843 237 m20 1867 237 m 16 X s 1898 237 m 17 X s 1867 229 m 16 Y s 1915 229 m 16 Y s 1891 237 m20
 1915 232 m 16 X s 1946 232 m 17 X s 1915 225 m 15 Y s 1963 225 m 15 Y s 1939 232 m20 1963 241 m 16 X s 1994 241 m 17 X s 1963 233 m 15 Y s 2011 233 m 15 Y s 1987 241 m20 2011 238 m 16 X s 2042 238 m 17 X s 2011 231 m 15 Y s 2059 231 m 15 Y s 2035
 238 m20 2059 245 m 16 X s 2090 245 m 16 X s 2059 237 m 15 Y s 2106 237 m 15 Y s 2082 245 m20 2106 257 m 17 X s 2138 257 m 16 X s 2106 250 m 15 Y s 2154 250 m 15 Y s 2130 257 m20 1 0 0 c 1 1 1 c 1 0 0 c 262 1184 m 13 Y s 262 1212 m 12 Y s 238 1204 m
 16 X s 270 1204 m 16 X s 254 1184 m 16 X s 254 1224 m 16 X s 238 1197 m 15 Y s 286 1197 m 15 Y s 262 1204 m20 286 208 m 16 X s 318 208 m 16 X s 286 200 m 16 Y s 334 200 m 16 Y s 310 208 m20 334 206 m 16 X s 365 206 m 17 X s 334 199 m 15 Y s 382 199
 m 15 Y s 358 206 m20 382 204 m 16 X s 413 204 m 17 X s 382 196 m 16 Y s 430 196 m 16 Y s 406 204 m20 430 204 m 16 X s 461 204 m 17 X s 430 196 m 15 Y s 478 196 m 15 Y s 454 204 m20 478 203 m 16 X s 509 203 m 17 X s 478 196 m 15 Y s 526 196 m 15 Y s
 502 203 m20 526 203 m 16 X s 557 203 m 16 X s 526 196 m 15 Y s 573 196 m 15 Y s 549 203 m20 573 203 m 17 X s 605 203 m 16 X s 573 196 m 15 Y s 621 196 m 15 Y s 597 203 m20 621 204 m 17 X s 653 204 m 16 X s 621 197 m 15 Y s 669 197 m 15 Y s 645 204
 m20 669 202 m 17 X s 701 202 m 16 X s 669 194 m 16 Y s 717 194 m 16 Y s 693 202 m20 717 204 m 17 X s 749 204 m 16 X s 717 196 m 15 Y s 765 196 m 15 Y s 741 204 m20 765 202 m 16 X s 797 202 m 16 X s 765 194 m 16 Y s 813 194 m 16 Y s 789 202 m20 813
 204 m 16 X s 845 204 m 16 X s 813 197 m 15 Y s 861 197 m 15 Y s 837 204 m20 861 204 m 16 X s 892 204 m 17 X s 861 196 m 15 Y s 909 196 m 15 Y s 885 204 m20 909 203 m 16 X s 940 203 m 17 X s 909 196 m 15 Y s 957 196 m 15 Y s 933 203 m20 957 204 m 16
 X s 988 204 m 17 X s 957 196 m 16 Y s 1005 196 m 16 Y s 981 204 m20 1005 205 m 16 X s 1036 205 m 17 X s 1005 197 m 15 Y s 1053 197 m 15 Y s 1029 205 m20 1053 204 m 16 X s 1084 204 m 16 X s 1053 196 m 16 Y s 1100 196 m 16 Y s 1076 204 m20 1100 203 m
 17 X s 1132 203 m 16 X s 1100 196 m 15 Y s 1148 196 m 15 Y s 1124 203 m20 1148 204 m 17 X s 1180 204 m 16 X s 1148 197 m 15 Y s 1196 197 m 15 Y s 1172 204 m20 1196 206 m 17 X s 1228 206 m 16 X s 1196 198 m 16 Y s 1244 198 m 16 Y s 1220 206 m20 1244
 212 m 16 X s 1276 212 m 16 X s 1244 205 m 15 Y s 1292 205 m 15 Y s 1268 212 m20 1292 225 m 16 X s 1324 225 m 16 X s 1292 217 m 16 Y s 1340 217 m 16 Y s 1316 225 m20 1340 284 m 16 X s 1371 284 m 17 X s 1340 277 m 15 Y s 1388 277 m 15 Y s 1364 284 m20
 1412 496 m 4 Y s 1412 515 m 4 Y s 1388 508 m 16 X s 1419 508 m 17 X s 1404 496 m 15 X s 1404 519 m 15 X s 1388 500 m 15 Y s 1436 500 m 15 Y s 1412 508 m20 1460 393 m 1 Y s 1460 409 m 2 Y s 1436 402 m 16 X s 1467 402 m 17 X s 1452 393 m 15 X s 1452
 411 m 15 X s 1436 394 m 15 Y s 1484 394 m 15 Y s 1460 402 m20 1484 311 m 16 X s 1515 311 m 17 X s 1484 303 m 15 Y s 1532 303 m 15 Y s 1508 311 m20 1532 274 m 16 X s 1563 274 m 16 X s 1532 266 m 15 Y s 1579 266 m 15 Y s 1556 274 m20 1579 254 m 17 X s
 1611 254 m 16 X s 1579 246 m 15 Y s 1627 246 m 15 Y s 1603 254 m20 1627 231 m 17 X s 1659 231 m 16 X s 1627 223 m 15 Y s 1675 223 m 15 Y s 1651 231 m20 1675 225 m 17 X s 1707 225 m 16 X s 1675 217 m 16 Y s 1723 217 m 16 Y s 1699 225 m20 1723 219 m
 17 X s 1755 219 m 16 X s 1723 212 m 15 Y s 1771 212 m 15 Y s 1747 219 m20 1771 210 m 16 X s 1803 210 m 16 X s 1771 202 m 15 Y s 1819 202 m 15 Y s 1795 210 m20 1819 210 m 16 X s 1851 210 m 16 X s 1819 202 m 16 Y s 1867 202 m 16 Y s 1843 210 m20 1867
 205 m 16 X s 1898 205 m 17 X s 1867 197 m 15 Y s 1915 197 m 15 Y s 1891 205 m20 1915 203 m 16 X s 1946 203 m 17 X s 1915 195 m 15 Y s 1963 195 m 15 Y s 1939 203 m20 black
 gsave  2268 1676 0 0 C 272.126 1240.34 t 0 r /Helvetica-Bold findfont 49.2982 sf 0 0 m (Kolmogorov\255Smirnov test: signal \(background\) probability = 0.202 \(0.704\)) show NC gr  238 201 m 1916 X s 430 244 m -43 Y s 468 222 m -21 Y s 506 222 m -21
 Y s 545 222 m -21 Y s 583 222 m -21 Y s 621 244 m -43 Y s 660 222 m -21 Y s 698 222 m -21 Y s 736 222 m -21 Y s 775 222 m -21 Y s 813 244 m -43 Y s 851 222 m -21 Y s 890 222 m -21 Y s 928 222 m -21 Y s 967 222 m -21 Y s 1005 244 m -43 Y s 1043 222 m
 -21 Y s 1082 222 m -21 Y s 1120 222 m -21 Y s 1158 222 m -21 Y s 1197 244 m -43 Y s 1235 222 m -21 Y s 1273 222 m -21 Y s 1312 222 m -21 Y s 1350 222 m -21 Y s 1388 244 m -43 Y s 1427 222 m -21 Y s 1465 222 m -21 Y s 1503 222 m -21 Y s 1542 222 m
 -21 Y s 1580 244 m -43 Y s 1618 222 m -21 Y s 1657 222 m -21 Y s 1695 222 m -21 Y s 1733 222 m -21 Y s 1772 244 m -43 Y s 1810 222 m -21 Y s 1848 222 m -21 Y s 1887 222 m -21 Y s 1925 222 m -21 Y s 1963 244 m -43 Y s 430 244 m -43 Y s 391 222 m -21
 Y s 353 222 m -21 Y s 315 222 m -21 Y s 276 222 m -21 Y s 1963 244 m -43 Y s 2002 222 m -21 Y s 2040 222 m -21 Y s 2078 222 m -21 Y s 2117 222 m -21 Y s 238 1509 m 1916 X s 430 1466 m 43 Y s 468 1487 m 22 Y s 506 1487 m 22 Y s 545 1487 m 22 Y s 583
 1487 m 22 Y s 621 1466 m 43 Y s 660 1487 m 22 Y s 698 1487 m 22 Y s 736 1487 m 22 Y s 775 1487 m 22 Y s 813 1466 m 43 Y s 851 1487 m 22 Y s 890 1487 m 22 Y s 928 1487 m 22 Y s 967 1487 m 22 Y s 1005 1466 m 43 Y s 1043 1487 m 22 Y s 1082 1487 m 22 Y
 s 1120 1487 m 22 Y s 1158 1487 m 22 Y s 1197 1466 m 43 Y s 1235 1487 m 22 Y s 1273 1487 m 22 Y s 1312 1487 m 22 Y s 1350 1487 m 22 Y s 1388 1466 m 43 Y s 1427 1487 m 22 Y s 1465 1487 m 22 Y s 1503 1487 m 22 Y s 1542 1487 m 22 Y s 1580 1466 m 43 Y s
 1618 1487 m 22 Y s 1657 1487 m 22 Y s 1695 1487 m 22 Y s 1733 1487 m 22 Y s 1772 1466 m 43 Y s 1810 1487 m 22 Y s 1848 1487 m 22 Y s 1887 1487 m 22 Y s 1925 1487 m 22 Y s 1963 1466 m 43 Y s 430 1466 m 43 Y s 391 1487 m 22 Y s 353 1487 m 22 Y s 315
 1487 m 22 Y s 276 1487 m 22 Y s 1963 1466 m 43 Y s 2002 1487 m 22 Y s 2040 1487 m 22 Y s 2078 1487 m 22 Y s 2117 1487 m 22 Y s 238 201 m 1308 Y s 291 201 m -53 X s 265 251 m -27 X s 265 302 m -27 X s 265 352 m -27 X s 265 402 m -27 X s 291 453 m -53
 X s 265 503 m -27 X s 265 554 m -27 X s 265 604 m -27 X s 265 654 m -27 X s 291 705 m -53 X s 265 755 m -27 X s 265 805 m -27 X s 265 856 m -27 X s 265 906 m -27 X s 291 956 m -53 X s 265 1007 m -27 X s 265 1057 m -27 X s 265 1107 m -27 X s 265 1158
 m -27 X s 291 1208 m -53 X s 265 1258 m -27 X s 265 1309 m -27 X s 265 1359 m -27 X s 265 1409 m -27 X s 291 1460 m -53 X s 291 1460 m -53 X s 2154 201 m 1308 Y s 2101 201 m 53 X s 2128 251 m 26 X s 2128 302 m 26 X s 2128 352 m 26 X s 2128 402 m 26
 X s 2101 453 m 53 X s 2128 503 m 26 X s 2128 554 m 26 X s 2128 604 m 26 X s 2128 654 m 26 X s 2101 705 m 53 X s 2128 755 m 26 X s 2128 805 m 26 X s 2128 856 m 26 X s 2128 906 m 26 X s 2101 956 m 53 X s 2128 1007 m 26 X s 2128 1057 m 26 X s 2128 1107
 m 26 X s 2128 1158 m 26 X s 2101 1208 m 53 X s 2128 1258 m 26 X s 2128 1309 m 26 X s 2128 1359 m 26 X s 2128 1409 m 26 X s 2101 1460 m 53 X s 2101 1460 m 53 X s
 gsave  2268 1676 0 0 C 2211.02 192.756 t 90 r /Helvetica-Bold findfont 45.506 sf 0 0 m (U/O\255flow \(S,B\): \(0.0, 0.0\)% / \(0.0, 0.0\)%) show NC gr  0.490196 0.545098 0.615686 c 0.364706 0.419608 0.490196 c 1587 96 23 1572 bf 0.490196 0.545098
 0.615686 c 23 1572 m 1587 X s 1610 1572 m 96 Y s 1610 1668 m -1587 X s 23 1668 m -96 Y s 1 1 1 c black 1 1 1 c
 gsave  2268 1676 0 0 C 98.5964 1600.29 t 0 r /Helvetica-Bold findfont 68.259 sf 0 0 m (TMVA overtraining check for classifier: MLP) show NC gr 
 gr  gr showpage
end
%%EOF
