%!PS-Adobe-2.0 EPSF-2.0
%%BoundingBox:  0 0 567 419
%%Title: dataset/plots/overtrain_SVM.eps: TMVA comparison SVM
%%Creator: ROOT Version 6.12/06
%%CreationDate: Mon May 21 12:06:57 2018
%%DocumentNeededResources: ProcSet (FontSetInit)
%%EndComments
%%BeginProlog
80 dict begin
/s {stroke} def /l {lineto} def /m {moveto} def /t {translate} def
/r {rotate} def /rl {roll}  def /R {repeat} def
/d {rlineto} def /rm {rmoveto} def /gr {grestore} def /f {eofill} def
/c {setrgbcolor} def /black {0 setgray} def /sd {setdash} def
/cl {closepath} def /sf {scalefont setfont} def /lw {setlinewidth} def
/box {m dup 0 exch d exch 0 d 0 exch neg d cl} def
/NC{systemdict begin initclip end}def/C{NC box clip newpath}def
/bl {box s} def /bf {gsave box gsave f grestore 1 lw [] 0 sd s grestore} def /Y { 0 exch d} def /X { 0 d} def 
/K {{pop pop 0 moveto} exch kshow} bind def
/ita {/ang 15 def gsave [1 0 ang dup sin exch cos div 1 0 0] concat} def 
/mp {newpath /y exch def /x exch def} def
/side {[w .77 mul w .23 mul] .385 w mul sd w 0 l currentpoint t -144 r} def
/mr {mp x y w2 0 360 arc} def /m24 {mr s} def /m20 {mr f} def
/mb {mp x y w2 add m w2 neg 0 d 0 w neg d w 0 d 0 w d cl} def
/mt {mp x y w2 add m w2 neg w neg d w 0 d cl} def
/w4 {w 4 div} def
/w6 {w 6 div} def
/w8 {w 8 div} def
/m21 {mb f} def /m25 {mb s} def /m22 {mt f} def /m26{mt s} def
/m23 {mp x y w2 sub m w2 w d w neg 0 d cl f} def
/m27 {mp x y w2 add m w3 neg w2 neg d w3 w2 neg d w3 w2 d cl s} def
/m28 {mp x w2 sub y w2 sub w3 add m w3 0 d  0 w3 neg d w3 0 d 0 w3 d w3 0 d  0 w3 d w3 neg 0 d 0 w3 d w3 neg 0 d 0 w3 neg d w3 neg 0 d cl s } def
/m29 {mp gsave x w2 sub y w2 add w3 sub m currentpoint t 4 {side} repeat cl fill gr} def
/m30 {mp gsave x w2 sub y w2 add w3 sub m currentpoint t 4 {side} repeat cl s gr} def
/m31 {mp x y w2 sub m 0 w d x w2 sub y m w 0 d x w2 sub y w2 add m w w neg d x w2 sub y w2 sub m w w d s} def
/m32 {mp x y w2 sub m w2 w d w neg 0 d cl s} def
/m33 {mp x y w2 add m w3 neg w2 neg d w3 w2 neg d w3 w2 d cl f} def
/m34 {mp x w2 sub y w2 sub w3 add m w3 0 d  0 w3 neg d w3 0 d 0 w3 d w3 0 d  0 w3 d w3 neg 0 d 0 w3 d w3 neg 0 d 0 w3 neg d w3 neg 0 d cl f } def
/m35 {mp x y w2 add m w2 neg w2 neg d w2 w2 neg d w2 w2 d w2 neg w2 d x y w2 sub m 0 w d x w2 sub y m w 0 d s} def
/m36 {mb x w2 sub y w2 add m w w neg d x w2 sub y w2 sub m w w d s} def
/m37 {mp x y m w4 neg w2 d w4 neg w2 neg d w2 0 d  w4 neg w2 neg d w2 0 d w4 neg w2 d w2 0 d w4 neg w2 d w4 neg w2 neg d cl s} def
/m38 {mp x w4 sub y w2 add m w4 neg w4 neg d 0 w2 neg d w4 w4 neg d w2 0 d w4 w4 d 0 w2 d w4 neg w4 d w2 neg 0 d x y w2 sub m 0 w d x w2 sub y m w 0 d cl s} def
/m39 {mp x y m w4 neg w2 d w4 neg w2 neg d w2 0 d  w4 neg w2 neg d w2 0 d w4 neg w2 d w2 0 d w4 neg w2 d w4 neg w2 neg d cl f} def
/m40 {mp x y m w4 w2 d w4 w4 neg d w2 neg w4 neg d w2 w4 neg d w4 neg w4 neg d w4 neg w2 d w4 neg w2 neg d w4 neg w4 d w2 w4 d w2 neg w4 d w4 w4 d w4 w2 neg d cl s} def
/m41 {mp x y m w4 w2 d w4 w4 neg d w2 neg w4 neg d w2 w4 neg d w4 neg w4 neg d w4 neg w2 d w4 neg w2 neg d w4 neg w4 d w2 w4 d w2 neg w4 d w4 w4 d w4 w2 neg d cl f} def
/m42 {mp x y w2 add m w8 neg w2 -3 4 div mul d w2 -3 4 div mul w8 neg d w2 3 4 div mul w8 neg d w8 w2 -3 4 div mul d w8 w2 3 4 div mul d w2 3 4 div mul w8 d w2 -3 4 div mul w8 d w8 neg w2 3 4 div mul d cl s} def
/m43 {mp x y w2 add m w8 neg w2 -3 4 div mul d w2 -3 4 div mul w8 neg d w2 3 4 div mul w8 neg d w8 w2 -3 4 div mul d w8 w2 3 4 div mul d w2 3 4 div mul w8 d w2 -3 4 div mul w8 d w8 neg w2 3 4 div mul d cl f} def
/m44 {mp x y m w6 neg w2 d w2 2 3 div mul 0 d w6 neg w2 neg d w2 w6 d 0 w2 -2 3 div mul d w2 neg w6 d w6 w2 neg d w2 -2 3 div mul 0 d w6 w2 d w2 neg w6 neg d 0 w2 2 3 div mul d w2 w6 neg d cl s} def
/m45 {mp x y m w6 neg w2 d w2 2 3 div mul 0 d w6 neg w2 neg d w2 w6 d 0 w2 -2 3 div mul d w2 neg w6 d w6 w2 neg d w2 -2 3 div mul 0 d w6 w2 d w2 neg w6 neg d 0 w2 2 3 div mul d w2 w6 neg d cl f} def
/m46 {mp x y w4 add m w4 neg w4 d w4 neg w4 neg d  w4 w4 neg d w4 neg w4 neg d w4 w4 neg d w4 w4 d w4 w4 neg d w4 w4 d w4 neg w4 d w4 w4 d w4 neg w4 d w4 neg w4 neg d cl s} def
/m47 {mp x y w4 add m w4 neg w4 d w4 neg w4 neg d w4 w4 neg d w4 neg w4 neg d  w4 w4 neg d w4 w4 d w4 w4 neg d w4 w4 d w4 neg w4 d w4 w4 d w4 neg w4 d w4 neg w4 neg d cl f} def
/m48 {mp x y w4 add m w4 neg w4 d w4 neg w4 neg d w4 w4 neg d  w4 neg w4 neg d w4 w4 neg d w4 w4 d w4 w4 neg d w4 w4 d w4 neg w4 d w4 w4 d w4 neg w4 d w4 neg w4 neg d  w4 w4 neg d w4 neg w4 neg d w4 neg w4 d w4 w4 d cl f} def
/m49 {mp x w2 sub w3 add y w2 sub w3 add m  0 w3 neg d w3 0 d 0 w3 d w3 0 d 0 w3 d w3 neg 0 d 0 w3 d w3 neg 0 d 0 w3 neg d w3 neg 0 d 0 w3 neg d w3 0 d 0 w3 d w3 0 d 0 w3 neg d w3 neg 0 d cl f } def
/m2 {mp x y w2 sub m 0 w d x w2 sub y m w 0 d s} def
/m5 {mp x w2 sub y w2 sub m w w d x w2 sub y w2 add m w w neg d s} def
%%IncludeResource: ProcSet (FontSetInit)
%%IncludeResource: font Times-Roman
%%IncludeResource: font Times-Italic
%%IncludeResource: font Times-Bold
%%IncludeResource: font Times-BoldItalic
%%IncludeResource: font Helvetica
%%IncludeResource: font Helvetica-Oblique
%%IncludeResource: font Helvetica-Bold
%%IncludeResource: font Helvetica-BoldOblique
%%IncludeResource: font Courier
%%IncludeResource: font Courier-Oblique
%%IncludeResource: font Courier-Bold
%%IncludeResource: font Courier-BoldOblique
%%IncludeResource: font Symbol
%%IncludeResource: font ZapfDingbats
/reEncode {exch findfont dup length dict begin {1 index /FID eq  {pop pop} {def} ifelse } forall /Encoding exch def currentdict end dup /FontName get exch definefont pop } def [/Times-Bold /Times-Italic /Times-BoldItalic /Helvetica /Helvetica-Oblique
 /Helvetica-Bold /Helvetica-BoldOblique /Courier /Courier-Oblique /Courier-Bold /Courier-BoldOblique /Times-Roman /AvantGarde-Book /AvantGarde-BookOblique /AvantGarde-Demi /AvantGarde-DemiOblique /Bookman-Demi /Bookman-DemiItalic /Bookman-Light
 /Bookman-LightItalic /Helvetica-Narrow /Helvetica-Narrow-Bold /Helvetica-Narrow-BoldOblique /Helvetica-Narrow-Oblique /NewCenturySchlbk-Roman /NewCenturySchlbk-Bold /NewCenturySchlbk-BoldItalic /NewCenturySchlbk-Italic /Palatino-Bold
 /Palatino-BoldItalic /Palatino-Italic /Palatino-Roman ] {ISOLatin1Encoding reEncode } forall
%%EndProlog
%%BeginSetup
%%EndSetup
newpath  gsave  .25 .25 scale  gsave  0 0 t 0.490196 0.545098 0.615686 c[  ] 0 sd 3 lw 0.941176 0.941176 0.941176 c 2268 1676 0 0 bf black 1 1 0.992157 c 1916 1308 238 201 bf black 1916 1308 238 201 bl 1 1 0.992157 c 1916 1308 238 201 bf black 1916
 1308 238 201 bl 238 201 m 1916 X s 238 244 m -43 Y s 287 222 m -21 Y s 337 222 m -21 Y s 386 222 m -21 Y s 435 222 m -21 Y s 485 244 m -43 Y s 534 222 m -21 Y s 583 222 m -21 Y s 632 222 m -21 Y s 682 222 m -21 Y s 731 244 m -43 Y s 780 222 m -21 Y
 s 830 222 m -21 Y s 879 222 m -21 Y s 928 222 m -21 Y s 978 244 m -43 Y s 1027 222 m -21 Y s 1076 222 m -21 Y s 1125 222 m -21 Y s 1175 222 m -21 Y s 1224 244 m -43 Y s 1273 222 m -21 Y s 1323 222 m -21 Y s 1372 222 m -21 Y s 1421 222 m -21 Y s 1471
 244 m -43 Y s 1520 222 m -21 Y s 1569 222 m -21 Y s 1618 222 m -21 Y s 1668 222 m -21 Y s 1717 244 m -43 Y s 1766 222 m -21 Y s 1816 222 m -21 Y s 1865 222 m -21 Y s 1914 222 m -21 Y s 1964 244 m -43 Y s 238 244 m -43 Y s 1964 244 m -43 Y s 2013 222
 m -21 Y s 2062 222 m -21 Y s 2111 222 m -21 Y s
 gsave  2268 1676 0 0 C 216.154 128.934 t 0 r /Helvetica-Bold findfont 64.4669 sf 0 0 m (0) show NC gr 
 gsave  2268 1676 0 0 C 439.892 128.934 t 0 r /Helvetica-Bold findfont 64.4669 sf 0 0 m (0.1) show NC gr 
 gsave  2268 1676 0 0 C 682.59 128.934 t 0 r /Helvetica-Bold findfont 64.4669 sf 0 0 m (0.2) show NC gr 
 gsave  2268 1676 0 0 C 929.081 128.934 t 0 r /Helvetica-Bold findfont 64.4669 sf 0 0 m (0.3) show NC gr 
 gsave  2268 1676 0 0 C 1175.57 128.934 t 0 r /Helvetica-Bold findfont 64.4669 sf 0 0 m (0.4) show NC gr 
 gsave  2268 1676 0 0 C 1422.06 128.934 t 0 r /Helvetica-Bold findfont 64.4669 sf 0 0 m (0.5) show NC gr 
 gsave  2268 1676 0 0 C 1668.55 128.934 t 0 r /Helvetica-Bold findfont 64.4669 sf 0 0 m (0.6) show NC gr 
 gsave  2268 1676 0 0 C 1915.04 128.934 t 0 r /Helvetica-Bold findfont 64.4669 sf 0 0 m (0.7) show NC gr 
 gsave  2268 1676 0 0 C 1657.18 30.3373 t 0 r /Helvetica-Bold findfont 72.0512 sf 0 0 m (SVM response) show NC gr  238 1509 m 1916 X s 238 1466 m 43 Y s 287 1487 m 22 Y s 337 1487 m 22 Y s 386 1487 m 22 Y s 435 1487 m 22 Y s 485 1466 m 43 Y s 534
 1487 m 22 Y s 583 1487 m 22 Y s 632 1487 m 22 Y s 682 1487 m 22 Y s 731 1466 m 43 Y s 780 1487 m 22 Y s 830 1487 m 22 Y s 879 1487 m 22 Y s 928 1487 m 22 Y s 978 1466 m 43 Y s 1027 1487 m 22 Y s 1076 1487 m 22 Y s 1125 1487 m 22 Y s 1175 1487 m 22 Y
 s 1224 1466 m 43 Y s 1273 1487 m 22 Y s 1323 1487 m 22 Y s 1372 1487 m 22 Y s 1421 1487 m 22 Y s 1471 1466 m 43 Y s 1520 1487 m 22 Y s 1569 1487 m 22 Y s 1618 1487 m 22 Y s 1668 1487 m 22 Y s 1717 1466 m 43 Y s 1766 1487 m 22 Y s 1816 1487 m 22 Y s
 1865 1487 m 22 Y s 1914 1487 m 22 Y s 1964 1466 m 43 Y s 238 1466 m 43 Y s 1964 1466 m 43 Y s 2013 1487 m 22 Y s 2062 1487 m 22 Y s 2111 1487 m 22 Y s 238 201 m 1308 Y s 291 201 m -53 X s 265 235 m -27 X s 265 270 m -27 X s 265 304 m -27 X s 265 338
 m -27 X s 291 373 m -53 X s 265 407 m -27 X s 265 441 m -27 X s 265 475 m -27 X s 265 510 m -27 X s 291 544 m -53 X s 265 578 m -27 X s 265 613 m -27 X s 265 647 m -27 X s 265 681 m -27 X s 291 715 m -53 X s 265 750 m -27 X s 265 784 m -27 X s 265
 818 m -27 X s 265 853 m -27 X s 291 887 m -53 X s 265 921 m -27 X s 265 956 m -27 X s 265 990 m -27 X s 265 1024 m -27 X s 291 1058 m -53 X s 265 1093 m -27 X s 265 1127 m -27 X s 265 1161 m -27 X s 265 1196 m -27 X s 291 1230 m -53 X s 265 1264 m
 -27 X s 265 1298 m -27 X s 265 1333 m -27 X s 265 1367 m -27 X s 291 1401 m -53 X s 291 1401 m -53 X s 265 1436 m -27 X s 265 1470 m -27 X s 265 1504 m -27 X s
 gsave  2268 1676 0 0 C 174.44 178.232 t 0 r /Helvetica-Bold findfont 64.4669 sf 0 0 m (0) show NC gr 
 gsave  2268 1676 0 0 C 174.44 348.879 t 0 r /Helvetica-Bold findfont 64.4669 sf 0 0 m (5) show NC gr 
 gsave  2268 1676 0 0 C 136.518 519.527 t 0 r /Helvetica-Bold findfont 64.4669 sf 0 0 m (10) show NC gr 
 gsave  2268 1676 0 0 C 136.518 690.175 t 0 r /Helvetica-Bold findfont 64.4669 sf 0 0 m (15) show NC gr 
 gsave  2268 1676 0 0 C 136.518 860.822 t 0 r /Helvetica-Bold findfont 64.4669 sf 0 0 m (20) show NC gr 
 gsave  2268 1676 0 0 C 136.518 1035.26 t 0 r /Helvetica-Bold findfont 64.4669 sf 0 0 m (25) show NC gr 
 gsave  2268 1676 0 0 C 136.518 1205.91 t 0 r /Helvetica-Bold findfont 64.4669 sf 0 0 m (30) show NC gr 
 gsave  2268 1676 0 0 C 136.518 1376.56 t 0 r /Helvetica-Bold findfont 64.4669 sf 0 0 m (35) show NC gr 
 gsave  2268 1676 0 0 C 64.4669 1425.86 t 90 r /Helvetica-Bold findfont 72.0512 sf 0 0 m (dx) show NC gr 
 gsave  2268 1676 0 0 C 30.3373 1406.89 t 90 r /Helvetica-Bold findfont 45.506 sf 0 0 m ( ) show NC gr 
 gsave  2268 1676 0 0 C 64.4669 1384.14 t 90 r /Helvetica-Bold findfont 72.0512 sf 0 0 m (/) show NC gr 
 gsave  2268 1676 0 0 C 30.3373 1365.18 t 90 r /Helvetica-Bold findfont 45.506 sf 0 0 m ( ) show NC gr 
 gsave  2268 1676 0 0 C 60.6747 1092.14 t 90 r /Helvetica-Bold findfont 72.0512 sf 0 0 m (\(1/N\) dN) show NC gr  2154 201 m 1308 Y s 2101 201 m 53 X s 2128 235 m 26 X s 2128 270 m 26 X s 2128 304 m 26 X s 2128 338 m 26 X s 2101 373 m 53 X s 2128 407
 m 26 X s 2128 441 m 26 X s 2128 475 m 26 X s 2128 510 m 26 X s 2101 544 m 53 X s 2128 578 m 26 X s 2128 613 m 26 X s 2128 647 m 26 X s 2128 681 m 26 X s 2101 715 m 53 X s 2128 750 m 26 X s 2128 784 m 26 X s 2128 818 m 26 X s 2128 853 m 26 X s 2101
 887 m 53 X s 2128 921 m 26 X s 2128 956 m 26 X s 2128 990 m 26 X s 2128 1024 m 26 X s 2101 1058 m 53 X s 2128 1093 m 26 X s 2128 1127 m 26 X s 2128 1161 m 26 X s 2128 1196 m 26 X s 2101 1230 m 53 X s 2128 1264 m 26 X s 2128 1298 m 26 X s 2128 1333 m
 26 X s 2128 1367 m 26 X s 2101 1401 m 53 X s 2101 1401 m 53 X s 2128 1436 m 26 X s 2128 1470 m 26 X s 2128 1504 m 26 X s 0.490196 0.545098 0.615686 c 1 1 1 c 0.490196 0.545098 0.615686 c 907 202 238 1307 bl 238 1307 m 907 X s 1145 1307 m 202 Y s
 1145 1509 m -907 X s 238 1509 m -202 Y s black
 gsave  2268 1676 0 0 C 417.138 1437.23 t 0 r /Helvetica-Bold findfont 56.8825 sf 0 0 m (Signal \(test sample\)) show NC gr  0.49 0.6 0.82 c 265 1423 m 127 X 70 Y -127 X f 0 0 0.933333 c 265 1493 m 127 X s 265 1423 m 127 X s 392 1423 m 70 Y s 265
 1423 m 70 Y s black
 gsave  2268 1676 0 0 C 417.138 1338.64 t 0 r /Helvetica-Bold findfont 56.8825 sf 0 0 m (Background \(test sample\)) show NC gr  1 0 0 c 392 1354 m -32 -32 d s 383 1393 m -71 -71 d s 335 1393 m -70 -69 d s 286 1393 m -21 -21 d s 0 0 0.933333 c 1 0 0
 c 265 1393 m 127 X s 265 1322 m 127 X s 392 1322 m 71 Y s 265 1322 m 71 Y s 0 0 0.933333 c 0.49 0.6 0.82 c black 0.49 0.6 0.82 c 238 201 m 1389 X 3 Y 48 X -1 Y 48 X 4 Y 48 X 7 Y 48 X 11 Y 48 X 28 Y 48 X 67 Y 48 X 162 Y 48 X 725 Y 48 X -765 Y 47 X
 -224 Y 48 X -17 Y f 0 0 0.933333 c 0.49 0.6 0.82 c 0 0 0.933333 c 238 201 m 1389 X 3 Y 48 X -1 Y 48 X 4 Y 48 X 7 Y 48 X 11 Y 48 X 28 Y 48 X 67 Y 48 X 162 Y 48 X 725 Y 48 X -765 Y 47 X -224 Y 48 X -17 Y s 1 0 0 c black 1 0 0 c 2125 201 m s 2106 230 m
 -29 -29 d s 2086 258 m -57 -57 d s 2059 279 m -78 -78 d s 2059 327 m -96 -96 d s 1960 228 m -27 -27 d s 2059 375 m -48 -48 d s 1965 281 m -2 -2 d s 1908 224 m -23 -23 d s 2059 423 m -48 -48 d s 1849 214 m -12 -13 d s 2059 471 m -48 -48 d s 1800 213
 m -11 -12 d s 2059 519 m -48 -48 d s 1751 211 m -10 -10 d s 2059 567 m -48 -48 d s 1698 207 m -6 -6 d s 2059 615 m -48 -48 d s 1655 212 m -11 -11 d s 2059 663 m -48 -47 d s 1605 210 m -9 -9 d s 2059 712 m -48 -48 d s 1555 208 m -7 -7 d s 2059 760 m
 -48 -48 d s 1506 207 m -6 -6 d s 2059 808 m -48 -48 d s 1458 207 m -6 -6 d s 2024 821 m -13 -13 d s 1409 206 m -5 -5 d s 1360 205 m -4 -4 d s 1312 205 m -4 -4 d s 1264 206 m -5 -5 d s 1218 208 m -7 -7 d s 1171 209 m -8 -8 d s 1122 208 m -7 -7 d s
 1076 210 m -9 -9 d s 1029 211 m -10 -10 d s 981 212 m -10 -11 d s 935 213 m -12 -12 d s 891 218 m -16 -17 d s 847 222 m -20 -21 d s 804 227 m -26 -26 d s 765 236 m -35 -35 d s 719 237 m -37 -36 d s 701 268 m -67 -67 d s 669 284 m -83 -83 d s 623 287
 m -85 -86 d s 610 322 m -120 -121 d s 573 333 m -131 -132 d s 557 364 m -31 -31 d s 520 327 m -42 -42 d s 458 266 m -28 -29 d s 422 230 m -28 -29 d s 365 220 m -20 -19 d s 311 215 m -14 -14 d s 258 210 m -9 -9 d s 238 210 m 48 X 5 Y 48 X 5 Y 48 X 10
 Y 48 X 36 Y 48 X 61 Y 48 X 37 Y 47 X -42 Y 48 X -35 Y 48 X -19 Y 48 X -31 Y 48 X -10 Y 48 X -5 Y 48 X -4 Y 48 X -5 Y 48 X -1 Y 48 X -1 Y 48 X -1 Y 47 X -2 Y 48 X 1 Y 48 X -1 Y 48 X -2 Y 48 X -1 Y 96 X 1 Y 48 X 1 Y 96 X 1 Y 47 X 2 Y 48 X 2 Y 48 X -5
 Y 48 X 4 Y 48 X 2 Y 48 X 1 Y 48 X 10 Y 48 X 4 Y 48 X 53 Y 48 X 540 Y 48 X -563 Y 47 X -57 Y 48 X s 0.490196 0.545098 0.615686 c 1 1 1 c 0.490196 0.545098 0.615686 c 952 202 1202 1307 bl 1202 1307 m 952 X s 2154 1307 m 202 Y s 2154 1509 m -952 X s
 1202 1509 m -202 Y s black
 gsave  2268 1676 0 0 C 1296.92 1437.23 t 0 r /Helvetica-Bold findfont 56.8825 sf 0 0 m (Signal \(training sample\)) show NC gr  0 0 0.933333 c /w 21 def /w2 {w 2 div} def /w3 {w 3 div} def 1250 1458 m20 black
 gsave  2268 1676 0 0 C 1296.92 1338.64 t 0 r /Helvetica-Bold findfont 56.8825 sf 0 0 m (Background \(training sample\)) show NC gr  1 0 0 c 1250 1358 m20 0 0 0.933333 c 1 1 1 c 0 0 0.933333 c 1340 201 m 16 X s 1371 201 m 17 X s 1340 194 m 15 Y s
 1388 194 m 15 Y s 1364 201 m20 1436 201 m 16 X s 1467 201 m 17 X s 1436 194 m 15 Y s 1484 194 m 15 Y s 1460 201 m20 1579 202 m 17 X s 1611 202 m 16 X s 1579 194 m 15 Y s 1627 194 m 15 Y s 1603 202 m20 1627 201 m 17 X s 1659 201 m 16 X s 1627 194 m
 15 Y s 1675 194 m 15 Y s 1651 201 m20 1675 204 m 17 X s 1707 204 m 16 X s 1675 196 m 16 Y s 1723 196 m 16 Y s 1699 204 m20 1723 208 m 17 X s 1755 208 m 16 X s 1723 201 m 15 Y s 1771 201 m 15 Y s 1747 208 m20 1771 212 m 16 X s 1803 212 m 16 X s 1771
 204 m 16 Y s 1819 204 m 16 Y s 1795 212 m20 1819 221 m 16 X s 1851 221 m 16 X s 1819 214 m 15 Y s 1867 214 m 15 Y s 1843 221 m20 1867 251 m 16 X s 1898 251 m 17 X s 1867 243 m 15 Y s 1915 243 m 15 Y s 1891 251 m20 1915 322 m 16 X s 1946 322 m 17 X s
 1915 314 m 15 Y s 1963 314 m 15 Y s 1939 322 m20 1987 488 m 3 Y s 1987 506 m 3 Y s 1963 499 m 16 X s 1994 499 m 17 X s 1979 488 m 15 X s 1979 509 m 15 X s 1963 491 m 15 Y s 2011 491 m 15 Y s 1987 499 m20 2035 1185 m 11 Y s 2035 1212 m 11 Y s 2011
 1204 m 16 X s 2042 1204 m 17 X s 2027 1185 m 15 X s 2027 1223 m 15 X s 2011 1196 m 16 Y s 2059 1196 m 16 Y s 2035 1204 m20 2082 426 m 1 Y s 2082 442 m 2 Y s 2059 435 m 16 X s 2090 435 m 16 X s 2075 426 m 15 X s 2075 444 m 15 X s 2059 427 m 15 Y s
 2106 427 m 15 Y s 2082 435 m20 2106 219 m 17 X s 2138 219 m 16 X s 2106 211 m 15 Y s 2154 211 m 15 Y s 2130 219 m20 1 0 0 c 1 1 1 c 1 0 0 c 238 212 m 16 X s 270 212 m 16 X s 238 204 m 15 Y s 286 204 m 15 Y s 262 212 m20 286 209 m 16 X s 318 209 m 16
 X s 286 201 m 15 Y s 334 201 m 15 Y s 310 209 m20 334 219 m 16 X s 365 219 m 17 X s 334 212 m 15 Y s 382 212 m 15 Y s 358 219 m20 382 228 m 16 X s 413 228 m 17 X s 382 220 m 15 Y s 430 220 m 15 Y s 406 228 m20 430 264 m 16 X s 461 264 m 17 X s 430
 256 m 15 Y s 478 256 m 15 Y s 454 264 m20 478 313 m 16 X s 509 313 m 17 X s 478 305 m 16 Y s 526 305 m 16 Y s 502 313 m20 549 359 m s 549 374 m s 526 366 m 16 X s 557 366 m 16 X s 542 359 m 15 X s 542 374 m 15 X s 526 359 m 15 Y s 573 359 m 15 Y s
 549 366 m20 573 335 m 17 X s 605 335 m 16 X s 573 327 m 15 Y s 621 327 m 15 Y s 597 335 m20 621 294 m 17 X s 653 294 m 16 X s 621 287 m 15 Y s 669 287 m 15 Y s 645 294 m20 669 265 m 17 X s 701 265 m 16 X s 669 257 m 15 Y s 717 257 m 15 Y s 693 265
 m20 717 245 m 17 X s 749 245 m 16 X s 717 237 m 15 Y s 765 237 m 15 Y s 741 245 m20 765 224 m 16 X s 797 224 m 16 X s 765 216 m 15 Y s 813 216 m 15 Y s 789 224 m20 813 221 m 16 X s 845 221 m 16 X s 813 213 m 15 Y s 861 213 m 15 Y s 837 221 m20 861
 220 m 16 X s 892 220 m 17 X s 861 213 m 15 Y s 909 213 m 15 Y s 885 220 m20 909 216 m 16 X s 940 216 m 17 X s 909 208 m 15 Y s 957 208 m 15 Y s 933 216 m20 957 210 m 16 X s 988 210 m 17 X s 957 203 m 15 Y s 1005 203 m 15 Y s 981 210 m20 1005 206 m
 16 X s 1036 206 m 17 X s 1005 199 m 15 Y s 1053 199 m 15 Y s 1029 206 m20 1053 210 m 16 X s 1084 210 m 16 X s 1053 203 m 15 Y s 1100 203 m 15 Y s 1076 210 m20 1100 206 m 17 X s 1132 206 m 16 X s 1100 199 m 15 Y s 1148 199 m 15 Y s 1124 206 m20 1148
 208 m 17 X s 1180 208 m 16 X s 1148 201 m 15 Y s 1196 201 m 15 Y s 1172 208 m20 1196 207 m 17 X s 1228 207 m 16 X s 1196 200 m 15 Y s 1244 200 m 15 Y s 1220 207 m20 1244 205 m 16 X s 1276 205 m 16 X s 1244 198 m 15 Y s 1292 198 m 15 Y s 1268 205 m20
 1292 206 m 16 X s 1324 206 m 16 X s 1292 198 m 16 Y s 1340 198 m 16 Y s 1316 206 m20 1340 207 m 16 X s 1371 207 m 17 X s 1340 200 m 15 Y s 1388 200 m 15 Y s 1364 207 m20 1388 206 m 16 X s 1419 206 m 17 X s 1388 198 m 15 Y s 1436 198 m 15 Y s 1412
 206 m20 1436 207 m 16 X s 1467 207 m 17 X s 1436 200 m 15 Y s 1484 200 m 15 Y s 1460 207 m20 1484 207 m 16 X s 1515 207 m 17 X s 1484 199 m 15 Y s 1532 199 m 15 Y s 1508 207 m20 1532 208 m 16 X s 1563 208 m 16 X s 1532 201 m 15 Y s 1579 201 m 15 Y s
 1556 208 m20 1579 208 m 17 X s 1611 208 m 16 X s 1579 201 m 15 Y s 1627 201 m 15 Y s 1603 208 m20 1627 210 m 17 X s 1659 210 m 16 X s 1627 203 m 15 Y s 1675 203 m 15 Y s 1651 210 m20 1675 209 m 17 X s 1707 209 m 16 X s 1675 201 m 15 Y s 1723 201 m
 15 Y s 1699 209 m20 1723 212 m 17 X s 1755 212 m 16 X s 1723 204 m 16 Y s 1771 204 m 16 Y s 1747 212 m20 1771 210 m 16 X s 1803 210 m 16 X s 1771 203 m 15 Y s 1819 203 m 15 Y s 1795 210 m20 1819 211 m 16 X s 1851 211 m 16 X s 1819 203 m 15 Y s 1867
 203 m 15 Y s 1843 211 m20 1867 220 m 16 X s 1898 220 m 17 X s 1867 212 m 15 Y s 1915 212 m 15 Y s 1891 220 m20 1915 239 m 16 X s 1946 239 m 17 X s 1915 231 m 15 Y s 1963 231 m 15 Y s 1939 239 m20 1963 283 m 16 X s 1994 283 m 17 X s 1963 275 m 15 Y s
 2011 275 m 15 Y s 1987 283 m20 2035 811 m 7 Y s 2035 834 m 7 Y s 2011 826 m 16 X s 2042 826 m 17 X s 2027 811 m 15 X s 2027 841 m 15 X s 2011 818 m 16 Y s 2059 818 m 16 Y s 2035 826 m20 2059 256 m 16 X s 2090 256 m 16 X s 2059 248 m 15 Y s 2106 248
 m 15 Y s 2082 256 m20 black
 gsave  2268 1676 0 0 C 272.126 1240.34 t 0 r /Helvetica-Bold findfont 49.2982 sf 0 0 m (Kolmogorov\255Smirnov test: signal \(background\) probability = 0.676 \(0.186\)) show NC gr  238 201 m 1916 X s 238 244 m -43 Y s 287 222 m -21 Y s 337 222 m -21
 Y s 386 222 m -21 Y s 435 222 m -21 Y s 485 244 m -43 Y s 534 222 m -21 Y s 583 222 m -21 Y s 632 222 m -21 Y s 682 222 m -21 Y s 731 244 m -43 Y s 780 222 m -21 Y s 830 222 m -21 Y s 879 222 m -21 Y s 928 222 m -21 Y s 978 244 m -43 Y s 1027 222 m
 -21 Y s 1076 222 m -21 Y s 1125 222 m -21 Y s 1175 222 m -21 Y s 1224 244 m -43 Y s 1273 222 m -21 Y s 1323 222 m -21 Y s 1372 222 m -21 Y s 1421 222 m -21 Y s 1471 244 m -43 Y s 1520 222 m -21 Y s 1569 222 m -21 Y s 1618 222 m -21 Y s 1668 222 m
 -21 Y s 1717 244 m -43 Y s 1766 222 m -21 Y s 1816 222 m -21 Y s 1865 222 m -21 Y s 1914 222 m -21 Y s 1964 244 m -43 Y s 238 244 m -43 Y s 1964 244 m -43 Y s 2013 222 m -21 Y s 2062 222 m -21 Y s 2111 222 m -21 Y s 238 1509 m 1916 X s 238 1466 m 43
 Y s 287 1487 m 22 Y s 337 1487 m 22 Y s 386 1487 m 22 Y s 435 1487 m 22 Y s 485 1466 m 43 Y s 534 1487 m 22 Y s 583 1487 m 22 Y s 632 1487 m 22 Y s 682 1487 m 22 Y s 731 1466 m 43 Y s 780 1487 m 22 Y s 830 1487 m 22 Y s 879 1487 m 22 Y s 928 1487 m
 22 Y s 978 1466 m 43 Y s 1027 1487 m 22 Y s 1076 1487 m 22 Y s 1125 1487 m 22 Y s 1175 1487 m 22 Y s 1224 1466 m 43 Y s 1273 1487 m 22 Y s 1323 1487 m 22 Y s 1372 1487 m 22 Y s 1421 1487 m 22 Y s 1471 1466 m 43 Y s 1520 1487 m 22 Y s 1569 1487 m 22
 Y s 1618 1487 m 22 Y s 1668 1487 m 22 Y s 1717 1466 m 43 Y s 1766 1487 m 22 Y s 1816 1487 m 22 Y s 1865 1487 m 22 Y s 1914 1487 m 22 Y s 1964 1466 m 43 Y s 238 1466 m 43 Y s 1964 1466 m 43 Y s 2013 1487 m 22 Y s 2062 1487 m 22 Y s 2111 1487 m 22 Y s
 238 201 m 1308 Y s 291 201 m -53 X s 265 235 m -27 X s 265 270 m -27 X s 265 304 m -27 X s 265 338 m -27 X s 291 373 m -53 X s 265 407 m -27 X s 265 441 m -27 X s 265 475 m -27 X s 265 510 m -27 X s 291 544 m -53 X s 265 578 m -27 X s 265 613 m -27
 X s 265 647 m -27 X s 265 681 m -27 X s 291 715 m -53 X s 265 750 m -27 X s 265 784 m -27 X s 265 818 m -27 X s 265 853 m -27 X s 291 887 m -53 X s 265 921 m -27 X s 265 956 m -27 X s 265 990 m -27 X s 265 1024 m -27 X s 291 1058 m -53 X s 265 1093
 m -27 X s 265 1127 m -27 X s 265 1161 m -27 X s 265 1196 m -27 X s 291 1230 m -53 X s 265 1264 m -27 X s 265 1298 m -27 X s 265 1333 m -27 X s 265 1367 m -27 X s 291 1401 m -53 X s 291 1401 m -53 X s 265 1436 m -27 X s 265 1470 m -27 X s 265 1504 m
 -27 X s 2154 201 m 1308 Y s 2101 201 m 53 X s 2128 235 m 26 X s 2128 270 m 26 X s 2128 304 m 26 X s 2128 338 m 26 X s 2101 373 m 53 X s 2128 407 m 26 X s 2128 441 m 26 X s 2128 475 m 26 X s 2128 510 m 26 X s 2101 544 m 53 X s 2128 578 m 26 X s 2128
 613 m 26 X s 2128 647 m 26 X s 2128 681 m 26 X s 2101 715 m 53 X s 2128 750 m 26 X s 2128 784 m 26 X s 2128 818 m 26 X s 2128 853 m 26 X s 2101 887 m 53 X s 2128 921 m 26 X s 2128 956 m 26 X s 2128 990 m 26 X s 2128 1024 m 26 X s 2101 1058 m 53 X s
 2128 1093 m 26 X s 2128 1127 m 26 X s 2128 1161 m 26 X s 2128 1196 m 26 X s 2101 1230 m 53 X s 2128 1264 m 26 X s 2128 1298 m 26 X s 2128 1333 m 26 X s 2128 1367 m 26 X s 2101 1401 m 53 X s 2101 1401 m 53 X s 2128 1436 m 26 X s 2128 1470 m 26 X s
 2128 1504 m 26 X s
 gsave  2268 1676 0 0 C 2211.02 192.756 t 90 r /Helvetica-Bold findfont 45.506 sf 0 0 m (U/O\255flow \(S,B\): \(0.0, 0.0\)% / \(0.0, 0.0\)%) show NC gr  0.490196 0.545098 0.615686 c 0.364706 0.419608 0.490196 c 1587 96 23 1572 bf 0.490196 0.545098
 0.615686 c 23 1572 m 1587 X s 1610 1572 m 96 Y s 1610 1668 m -1587 X s 23 1668 m -96 Y s 1 1 1 c black 1 1 1 c
 gsave  2268 1676 0 0 C 98.5964 1600.29 t 0 r /Helvetica-Bold findfont 68.259 sf 0 0 m (TMVA overtraining check for classifier: SVM) show NC gr 
 gr  gr showpage
end
%%EOF
