%!PS-Adobe-2.0 EPSF-2.0
%%BoundingBox:  0 0 567 419
%%Title: dataset/plots/overtrain_Likelihood.eps: TMVA comparison Likelihood
%%Creator: ROOT Version 6.12/06
%%CreationDate: Mon May 21 12:06:56 2018
%%DocumentNeededResources: ProcSet (FontSetInit)
%%EndComments
%%BeginProlog
80 dict begin
/s {stroke} def /l {lineto} def /m {moveto} def /t {translate} def
/r {rotate} def /rl {roll}  def /R {repeat} def
/d {rlineto} def /rm {rmoveto} def /gr {grestore} def /f {eofill} def
/c {setrgbcolor} def /black {0 setgray} def /sd {setdash} def
/cl {closepath} def /sf {scalefont setfont} def /lw {setlinewidth} def
/box {m dup 0 exch d exch 0 d 0 exch neg d cl} def
/NC{systemdict begin initclip end}def/C{NC box clip newpath}def
/bl {box s} def /bf {gsave box gsave f grestore 1 lw [] 0 sd s grestore} def /Y { 0 exch d} def /X { 0 d} def 
/K {{pop pop 0 moveto} exch kshow} bind def
/ita {/ang 15 def gsave [1 0 ang dup sin exch cos div 1 0 0] concat} def 
/mp {newpath /y exch def /x exch def} def
/side {[w .77 mul w .23 mul] .385 w mul sd w 0 l currentpoint t -144 r} def
/mr {mp x y w2 0 360 arc} def /m24 {mr s} def /m20 {mr f} def
/mb {mp x y w2 add m w2 neg 0 d 0 w neg d w 0 d 0 w d cl} def
/mt {mp x y w2 add m w2 neg w neg d w 0 d cl} def
/w4 {w 4 div} def
/w6 {w 6 div} def
/w8 {w 8 div} def
/m21 {mb f} def /m25 {mb s} def /m22 {mt f} def /m26{mt s} def
/m23 {mp x y w2 sub m w2 w d w neg 0 d cl f} def
/m27 {mp x y w2 add m w3 neg w2 neg d w3 w2 neg d w3 w2 d cl s} def
/m28 {mp x w2 sub y w2 sub w3 add m w3 0 d  0 w3 neg d w3 0 d 0 w3 d w3 0 d  0 w3 d w3 neg 0 d 0 w3 d w3 neg 0 d 0 w3 neg d w3 neg 0 d cl s } def
/m29 {mp gsave x w2 sub y w2 add w3 sub m currentpoint t 4 {side} repeat cl fill gr} def
/m30 {mp gsave x w2 sub y w2 add w3 sub m currentpoint t 4 {side} repeat cl s gr} def
/m31 {mp x y w2 sub m 0 w d x w2 sub y m w 0 d x w2 sub y w2 add m w w neg d x w2 sub y w2 sub m w w d s} def
/m32 {mp x y w2 sub m w2 w d w neg 0 d cl s} def
/m33 {mp x y w2 add m w3 neg w2 neg d w3 w2 neg d w3 w2 d cl f} def
/m34 {mp x w2 sub y w2 sub w3 add m w3 0 d  0 w3 neg d w3 0 d 0 w3 d w3 0 d  0 w3 d w3 neg 0 d 0 w3 d w3 neg 0 d 0 w3 neg d w3 neg 0 d cl f } def
/m35 {mp x y w2 add m w2 neg w2 neg d w2 w2 neg d w2 w2 d w2 neg w2 d x y w2 sub m 0 w d x w2 sub y m w 0 d s} def
/m36 {mb x w2 sub y w2 add m w w neg d x w2 sub y w2 sub m w w d s} def
/m37 {mp x y m w4 neg w2 d w4 neg w2 neg d w2 0 d  w4 neg w2 neg d w2 0 d w4 neg w2 d w2 0 d w4 neg w2 d w4 neg w2 neg d cl s} def
/m38 {mp x w4 sub y w2 add m w4 neg w4 neg d 0 w2 neg d w4 w4 neg d w2 0 d w4 w4 d 0 w2 d w4 neg w4 d w2 neg 0 d x y w2 sub m 0 w d x w2 sub y m w 0 d cl s} def
/m39 {mp x y m w4 neg w2 d w4 neg w2 neg d w2 0 d  w4 neg w2 neg d w2 0 d w4 neg w2 d w2 0 d w4 neg w2 d w4 neg w2 neg d cl f} def
/m40 {mp x y m w4 w2 d w4 w4 neg d w2 neg w4 neg d w2 w4 neg d w4 neg w4 neg d w4 neg w2 d w4 neg w2 neg d w4 neg w4 d w2 w4 d w2 neg w4 d w4 w4 d w4 w2 neg d cl s} def
/m41 {mp x y m w4 w2 d w4 w4 neg d w2 neg w4 neg d w2 w4 neg d w4 neg w4 neg d w4 neg w2 d w4 neg w2 neg d w4 neg w4 d w2 w4 d w2 neg w4 d w4 w4 d w4 w2 neg d cl f} def
/m42 {mp x y w2 add m w8 neg w2 -3 4 div mul d w2 -3 4 div mul w8 neg d w2 3 4 div mul w8 neg d w8 w2 -3 4 div mul d w8 w2 3 4 div mul d w2 3 4 div mul w8 d w2 -3 4 div mul w8 d w8 neg w2 3 4 div mul d cl s} def
/m43 {mp x y w2 add m w8 neg w2 -3 4 div mul d w2 -3 4 div mul w8 neg d w2 3 4 div mul w8 neg d w8 w2 -3 4 div mul d w8 w2 3 4 div mul d w2 3 4 div mul w8 d w2 -3 4 div mul w8 d w8 neg w2 3 4 div mul d cl f} def
/m44 {mp x y m w6 neg w2 d w2 2 3 div mul 0 d w6 neg w2 neg d w2 w6 d 0 w2 -2 3 div mul d w2 neg w6 d w6 w2 neg d w2 -2 3 div mul 0 d w6 w2 d w2 neg w6 neg d 0 w2 2 3 div mul d w2 w6 neg d cl s} def
/m45 {mp x y m w6 neg w2 d w2 2 3 div mul 0 d w6 neg w2 neg d w2 w6 d 0 w2 -2 3 div mul d w2 neg w6 d w6 w2 neg d w2 -2 3 div mul 0 d w6 w2 d w2 neg w6 neg d 0 w2 2 3 div mul d w2 w6 neg d cl f} def
/m46 {mp x y w4 add m w4 neg w4 d w4 neg w4 neg d  w4 w4 neg d w4 neg w4 neg d w4 w4 neg d w4 w4 d w4 w4 neg d w4 w4 d w4 neg w4 d w4 w4 d w4 neg w4 d w4 neg w4 neg d cl s} def
/m47 {mp x y w4 add m w4 neg w4 d w4 neg w4 neg d w4 w4 neg d w4 neg w4 neg d  w4 w4 neg d w4 w4 d w4 w4 neg d w4 w4 d w4 neg w4 d w4 w4 d w4 neg w4 d w4 neg w4 neg d cl f} def
/m48 {mp x y w4 add m w4 neg w4 d w4 neg w4 neg d w4 w4 neg d  w4 neg w4 neg d w4 w4 neg d w4 w4 d w4 w4 neg d w4 w4 d w4 neg w4 d w4 w4 d w4 neg w4 d w4 neg w4 neg d  w4 w4 neg d w4 neg w4 neg d w4 neg w4 d w4 w4 d cl f} def
/m49 {mp x w2 sub w3 add y w2 sub w3 add m  0 w3 neg d w3 0 d 0 w3 d w3 0 d 0 w3 d w3 neg 0 d 0 w3 d w3 neg 0 d 0 w3 neg d w3 neg 0 d 0 w3 neg d w3 0 d 0 w3 d w3 0 d 0 w3 neg d w3 neg 0 d cl f } def
/m2 {mp x y w2 sub m 0 w d x w2 sub y m w 0 d s} def
/m5 {mp x w2 sub y w2 sub m w w d x w2 sub y w2 add m w w neg d s} def
%%IncludeResource: ProcSet (FontSetInit)
%%IncludeResource: font Times-Roman
%%IncludeResource: font Times-Italic
%%IncludeResource: font Times-Bold
%%IncludeResource: font Times-BoldItalic
%%IncludeResource: font Helvetica
%%IncludeResource: font Helvetica-Oblique
%%IncludeResource: font Helvetica-Bold
%%IncludeResource: font Helvetica-BoldOblique
%%IncludeResource: font Courier
%%IncludeResource: font Courier-Oblique
%%IncludeResource: font Courier-Bold
%%IncludeResource: font Courier-BoldOblique
%%IncludeResource: font Symbol
%%IncludeResource: font ZapfDingbats
/reEncode {exch findfont dup length dict begin {1 index /FID eq  {pop pop} {def} ifelse } forall /Encoding exch def currentdict end dup /FontName get exch definefont pop } def [/Times-Bold /Times-Italic /Times-BoldItalic /Helvetica /Helvetica-Oblique
 /Helvetica-Bold /Helvetica-BoldOblique /Courier /Courier-Oblique /Courier-Bold /Courier-BoldOblique /Times-Roman /AvantGarde-Book /AvantGarde-BookOblique /AvantGarde-Demi /AvantGarde-DemiOblique /Bookman-Demi /Bookman-DemiItalic /Bookman-Light
 /Bookman-LightItalic /Helvetica-Narrow /Helvetica-Narrow-Bold /Helvetica-Narrow-BoldOblique /Helvetica-Narrow-Oblique /NewCenturySchlbk-Roman /NewCenturySchlbk-Bold /NewCenturySchlbk-BoldItalic /NewCenturySchlbk-Italic /Palatino-Bold
 /Palatino-BoldItalic /Palatino-Italic /Palatino-Roman ] {ISOLatin1Encoding reEncode } forall
%%EndProlog
%%BeginSetup
%%EndSetup
newpath  gsave  .25 .25 scale  gsave  0 0 t 0.490196 0.545098 0.615686 c[  ] 0 sd 3 lw 0.941176 0.941176 0.941176 c 2268 1676 0 0 bf black 1 1 0.992157 c 1916 1308 238 201 bf black 1916 1308 238 201 bl 1 1 0.992157 c 1916 1308 238 201 bf black 1916
 1308 238 201 bl 238 201 m 1916 X s 238 244 m -43 Y s 334 222 m -21 Y s 430 222 m -21 Y s 526 222 m -21 Y s 621 244 m -43 Y s 717 222 m -21 Y s 813 222 m -21 Y s 909 222 m -21 Y s 1005 244 m -43 Y s 1100 222 m -21 Y s 1196 222 m -21 Y s 1292 222 m
 -21 Y s 1388 244 m -43 Y s 1484 222 m -21 Y s 1579 222 m -21 Y s 1675 222 m -21 Y s 1771 244 m -43 Y s 1867 222 m -21 Y s 1963 222 m -21 Y s 2059 222 m -21 Y s 2154 244 m -43 Y s 2154 244 m -43 Y s
 gsave  2268 1676 0 0 C 216.154 128.934 t 0 r /Helvetica-Bold findfont 64.4669 sf 0 0 m (0) show NC gr 
 gsave  2268 1676 0 0 C 572.617 128.934 t 0 r /Helvetica-Bold findfont 64.4669 sf 0 0 m (0.2) show NC gr 
 gsave  2268 1676 0 0 C 955.626 128.934 t 0 r /Helvetica-Bold findfont 64.4669 sf 0 0 m (0.4) show NC gr 
 gsave  2268 1676 0 0 C 1338.64 128.934 t 0 r /Helvetica-Bold findfont 64.4669 sf 0 0 m (0.6) show NC gr 
 gsave  2268 1676 0 0 C 1725.44 128.934 t 0 r /Helvetica-Bold findfont 64.4669 sf 0 0 m (0.8) show NC gr 
 gsave  2268 1676 0 0 C 2138.78 128.934 t 0 r /Helvetica-Bold findfont 64.4669 sf 0 0 m (1) show NC gr 
 gsave  2268 1676 0 0 C 1452.4 34.1295 t 0 r /Helvetica-Bold findfont 72.0512 sf 0 0 m (Likelihood response) show NC gr  238 1509 m 1916 X s 238 1466 m 43 Y s 334 1487 m 22 Y s 430 1487 m 22 Y s 526 1487 m 22 Y s 621 1466 m 43 Y s 717 1487 m 22 Y s
 813 1487 m 22 Y s 909 1487 m 22 Y s 1005 1466 m 43 Y s 1100 1487 m 22 Y s 1196 1487 m 22 Y s 1292 1487 m 22 Y s 1388 1466 m 43 Y s 1484 1487 m 22 Y s 1579 1487 m 22 Y s 1675 1487 m 22 Y s 1771 1466 m 43 Y s 1867 1487 m 22 Y s 1963 1487 m 22 Y s 2059
 1487 m 22 Y s 2154 1466 m 43 Y s 2154 1466 m 43 Y s 238 201 m 1308 Y s 291 201 m -53 X s 265 229 m -27 X s 265 257 m -27 X s 265 285 m -27 X s 291 313 m -53 X s 265 341 m -27 X s 265 369 m -27 X s 265 397 m -27 X s 291 425 m -53 X s 265 453 m -27 X
 s 265 481 m -27 X s 265 509 m -27 X s 291 537 m -53 X s 265 565 m -27 X s 265 593 m -27 X s 265 621 m -27 X s 291 649 m -53 X s 265 677 m -27 X s 265 705 m -27 X s 265 733 m -27 X s 291 761 m -53 X s 265 789 m -27 X s 265 817 m -27 X s 265 845 m -27
 X s 291 873 m -53 X s 265 901 m -27 X s 265 929 m -27 X s 265 957 m -27 X s 291 985 m -53 X s 265 1013 m -27 X s 265 1041 m -27 X s 265 1069 m -27 X s 291 1097 m -53 X s 265 1125 m -27 X s 265 1153 m -27 X s 265 1181 m -27 X s 291 1209 m -53 X s 265
 1237 m -27 X s 265 1265 m -27 X s 265 1293 m -27 X s 291 1321 m -53 X s 265 1349 m -27 X s 265 1377 m -27 X s 265 1405 m -27 X s 291 1433 m -53 X s 291 1433 m -53 X s 265 1461 m -27 X s 265 1489 m -27 X s
 gsave  2268 1676 0 0 C 174.44 178.232 t 0 r /Helvetica-Bold findfont 64.4669 sf 0 0 m (0) show NC gr 
 gsave  2268 1676 0 0 C 174.44 288.205 t 0 r /Helvetica-Bold findfont 64.4669 sf 0 0 m (2) show NC gr 
 gsave  2268 1676 0 0 C 174.44 401.97 t 0 r /Helvetica-Bold findfont 64.4669 sf 0 0 m (4) show NC gr 
 gsave  2268 1676 0 0 C 174.44 511.943 t 0 r /Helvetica-Bold findfont 64.4669 sf 0 0 m (6) show NC gr 
 gsave  2268 1676 0 0 C 174.44 625.708 t 0 r /Helvetica-Bold findfont 64.4669 sf 0 0 m (8) show NC gr 
 gsave  2268 1676 0 0 C 136.518 735.681 t 0 r /Helvetica-Bold findfont 64.4669 sf 0 0 m (10) show NC gr 
 gsave  2268 1676 0 0 C 136.518 849.446 t 0 r /Helvetica-Bold findfont 64.4669 sf 0 0 m (12) show NC gr 
 gsave  2268 1676 0 0 C 136.518 959.419 t 0 r /Helvetica-Bold findfont 64.4669 sf 0 0 m (14) show NC gr 
 gsave  2268 1676 0 0 C 136.518 1073.18 t 0 r /Helvetica-Bold findfont 64.4669 sf 0 0 m (16) show NC gr 
 gsave  2268 1676 0 0 C 136.518 1183.16 t 0 r /Helvetica-Bold findfont 64.4669 sf 0 0 m (18) show NC gr 
 gsave  2268 1676 0 0 C 136.518 1296.92 t 0 r /Helvetica-Bold findfont 64.4669 sf 0 0 m (20) show NC gr 
 gsave  2268 1676 0 0 C 136.518 1406.89 t 0 r /Helvetica-Bold findfont 64.4669 sf 0 0 m (22) show NC gr 
 gsave  2268 1676 0 0 C 64.4669 1425.86 t 90 r /Helvetica-Bold findfont 72.0512 sf 0 0 m (dx) show NC gr 
 gsave  2268 1676 0 0 C 30.3373 1406.89 t 90 r /Helvetica-Bold findfont 45.506 sf 0 0 m ( ) show NC gr 
 gsave  2268 1676 0 0 C 64.4669 1384.14 t 90 r /Helvetica-Bold findfont 72.0512 sf 0 0 m (/) show NC gr 
 gsave  2268 1676 0 0 C 30.3373 1365.18 t 90 r /Helvetica-Bold findfont 45.506 sf 0 0 m ( ) show NC gr 
 gsave  2268 1676 0 0 C 60.6747 1092.14 t 90 r /Helvetica-Bold findfont 72.0512 sf 0 0 m (\(1/N\) dN) show NC gr  2154 201 m 1308 Y s 2101 201 m 53 X s 2128 229 m 26 X s 2128 257 m 26 X s 2128 285 m 26 X s 2101 313 m 53 X s 2128 341 m 26 X s 2128 369
 m 26 X s 2128 397 m 26 X s 2101 425 m 53 X s 2128 453 m 26 X s 2128 481 m 26 X s 2128 509 m 26 X s 2101 537 m 53 X s 2128 565 m 26 X s 2128 593 m 26 X s 2128 621 m 26 X s 2101 649 m 53 X s 2128 677 m 26 X s 2128 705 m 26 X s 2128 733 m 26 X s 2101
 761 m 53 X s 2128 789 m 26 X s 2128 817 m 26 X s 2128 845 m 26 X s 2101 873 m 53 X s 2128 901 m 26 X s 2128 929 m 26 X s 2128 957 m 26 X s 2101 985 m 53 X s 2128 1013 m 26 X s 2128 1041 m 26 X s 2128 1069 m 26 X s 2101 1097 m 53 X s 2128 1125 m 26 X
 s 2128 1153 m 26 X s 2128 1181 m 26 X s 2101 1209 m 53 X s 2128 1237 m 26 X s 2128 1265 m 26 X s 2128 1293 m 26 X s 2101 1321 m 53 X s 2128 1349 m 26 X s 2128 1377 m 26 X s 2128 1405 m 26 X s 2101 1433 m 53 X s 2101 1433 m 53 X s 2128 1461 m 26 X s
 2128 1489 m 26 X s 0.490196 0.545098 0.615686 c 1 1 1 c 0.490196 0.545098 0.615686 c 907 202 238 1307 bl 238 1307 m 907 X s 1145 1307 m 202 Y s 1145 1509 m -907 X s 238 1509 m -202 Y s black
 gsave  2268 1676 0 0 C 417.138 1437.23 t 0 r /Helvetica-Bold findfont 56.8825 sf 0 0 m (Signal \(test sample\)) show NC gr  0.49 0.6 0.82 c 265 1423 m 127 X 70 Y -127 X f 0 0 0.933333 c 265 1493 m 127 X s 265 1423 m 127 X s 392 1423 m 70 Y s 265
 1423 m 70 Y s black
 gsave  2268 1676 0 0 C 417.138 1338.64 t 0 r /Helvetica-Bold findfont 56.8825 sf 0 0 m (Background \(test sample\)) show NC gr  1 0 0 c 392 1354 m -32 -32 d s 383 1393 m -71 -71 d s 335 1393 m -70 -69 d s 286 1393 m -21 -21 d s 0 0 0.933333 c 1 0 0
 c 265 1393 m 127 X s 265 1322 m 127 X s 392 1322 m 71 Y s 265 1322 m 71 Y s 0 0 0.933333 c 0.49 0.6 0.82 c black 0.49 0.6 0.82 c 238 201 m 3 Y 48 X -2 Y 48 X 2 Y 48 X 2 Y 96 X -2 Y 48 X 1 Y 47 X 1 Y 48 X -1 Y 48 X 5 Y 48 X 13 Y 48 X -12 Y 48 X -5 Y
 96 X -2 Y 48 X 4 Y 48 X 11 Y 48 X -1 Y 47 X -2 Y 48 X -4 Y 48 X -3 Y 48 X 11 Y 48 X 16 Y 48 X -9 Y 48 X 17 Y 48 X 10 Y 48 X 74 Y 48 X 7 Y 47 X 7 Y 48 X 164 Y 48 X 89 Y 48 X -94 Y 48 X -188 Y 48 X 19 Y 48 X -72 Y 48 X -16 Y 48 X -13 Y 48 X 22 Y 48 X
 -21 Y 47 X 16 Y 48 X -47 Y f 0 0 0.933333 c 0.49 0.6 0.82 c 0 0 0.933333 c 238 204 m 48 X -2 Y 48 X 2 Y 48 X 2 Y 96 X -2 Y 48 X 1 Y 47 X 1 Y 48 X -1 Y 48 X 5 Y 48 X 13 Y 48 X -12 Y 48 X -5 Y 96 X -2 Y 48 X 4 Y 48 X 11 Y 48 X -1 Y 47 X -2 Y 48 X -4 Y
 48 X -3 Y 48 X 11 Y 48 X 16 Y 48 X -9 Y 48 X 17 Y 48 X 10 Y 48 X 74 Y 48 X 7 Y 47 X 7 Y 48 X 164 Y 48 X 89 Y 48 X -94 Y 48 X -188 Y 48 X 19 Y 48 X -72 Y 48 X -16 Y 48 X -13 Y 48 X 22 Y 48 X -21 Y 47 X 16 Y 48 X -47 Y s 1 0 0 c black 1 0 0 c 2132 207
 m -7 -6 d s 2081 205 m -4 -4 d s 2042 214 m -13 -13 d s 1986 206 m -5 -5 d s 1944 212 m -11 -11 d s 1903 220 m -18 -19 d s 1867 231 m -30 -30 d s 1829 242 m -40 -41 d s 1781 242 m -40 -41 d s 1771 280 m -79 -79 d s 1771 328 m -127 -127 d s 1768 373
 m -172 -172 d s 1723 376 m -175 -175 d s 1718 419 m -43 -43 d s 1661 362 m -34 -33 d s 1581 282 m -81 -81 d s 1541 290 m -89 -89 d s 1509 306 m -25 -25 d s 1445 242 m -9 -9 d s 1433 230 m -29 -29 d s 1374 220 m -18 -19 d s 1321 214 m -13 -13 d s
 1265 207 m -6 -6 d s 1215 205 m -4 -4 d s 1170 207 m -7 -6 d s 1123 209 m -8 -8 d s 1074 208 m -7 -7 d s 1023 205 m -4 -4 d s 973 203 m -2 -2 d s 924 202 m -1 -1 d s 879 206 m -4 -5 d s 831 206 m -4 -5 d s 787 210 m -9 -9 d s 738 209 m -8 -8 d s 686
 205 m -4 -4 d s 639 206 m -5 -5 d s 595 211 m -9 -10 d s 543 207 m -5 -6 d s 493 204 m -3 -3 d s 449 209 m -7 -8 d s 407 214 m -13 -13 d s 368 224 m -23 -23 d s 334 238 m -37 -37 d s 289 241 m -40 -40 d s 286 286 m -48 -48 d s 286 334 m -48 -48 d s
 286 382 m -48 -48 d s 286 430 m -48 -48 d s 286 478 m -48 -47 d s 286 527 m -48 -48 d s 286 575 m -48 -48 d s 286 623 m -48 -48 d s 286 671 m -48 -48 d s 286 719 m -48 -48 d s 286 767 m -48 -48 d s 286 815 m -48 -48 d s 286 863 m -48 -48 d s 286 911
 m -48 -48 d s 286 959 m -48 -47 d s 286 1008 m -48 -48 d s 286 1056 m -48 -48 d s 286 1104 m -48 -48 d s 286 1152 m -48 -48 d s 286 1200 m -48 -48 d s 241 1203 m -3 -3 d s 238 1203 m 48 X -962 Y 48 X -17 Y 48 X -10 Y 48 X -5 Y 48 X -5 Y 48 X 3 Y 47
 X 4 Y 48 X -5 Y 48 X -1 Y 48 X 4 Y 48 X 1 Y 48 X -4 Y 96 X -4 Y 48 X 1 Y 48 X 2 Y 48 X 3 Y 47 X 1 Y 48 X -2 Y 48 X -2 Y 48 X 2 Y 48 X 7 Y 48 X 6 Y 48 X 10 Y 48 X 12 Y 48 X 64 Y 48 X -16 Y 47 X -8 Y 48 X 80 Y 48 X 57 Y 48 X -46 Y 48 X -131 Y 96 X -22
 Y 48 X -8 Y 48 X -6 Y 48 X 8 Y 48 X -9 Y 47 X 2 Y 48 X -6 Y s 0.490196 0.545098 0.615686 c 1 1 1 c 0.490196 0.545098 0.615686 c 952 202 1202 1307 bl 1202 1307 m 952 X s 2154 1307 m 202 Y s 2154 1509 m -952 X s 1202 1509 m -202 Y s black
 gsave  2268 1676 0 0 C 1296.92 1437.23 t 0 r /Helvetica-Bold findfont 56.8825 sf 0 0 m (Signal \(training sample\)) show NC gr  0 0 0.933333 c /w 21 def /w2 {w 2 div} def /w3 {w 3 div} def 1250 1458 m20 black
 gsave  2268 1676 0 0 C 1296.92 1338.64 t 0 r /Helvetica-Bold findfont 56.8825 sf 0 0 m (Background \(training sample\)) show NC gr  1 0 0 c 1250 1358 m20 0 0 0.933333 c 1 1 1 c 0 0 0.933333 c 286 202 m 16 X s 318 202 m 16 X s 286 195 m 15 Y s 334
 195 m 15 Y s 310 202 m20 334 206 m 16 X s 365 206 m 17 X s 334 198 m 15 Y s 382 198 m 15 Y s 358 206 m20 382 205 m 16 X s 413 205 m 17 X s 382 197 m 15 Y s 430 197 m 15 Y s 406 205 m20 430 206 m 16 X s 461 206 m 17 X s 430 198 m 16 Y s 478 198 m 16
 Y s 454 206 m20 478 202 m 16 X s 509 202 m 17 X s 478 195 m 15 Y s 526 195 m 15 Y s 502 202 m20 526 205 m 16 X s 557 205 m 16 X s 526 197 m 15 Y s 573 197 m 15 Y s 549 205 m20 573 205 m 17 X s 605 205 m 16 X s 573 197 m 15 Y s 621 197 m 15 Y s 597
 205 m20 621 206 m 17 X s 653 206 m 16 X s 621 198 m 15 Y s 669 198 m 15 Y s 645 206 m20 669 211 m 17 X s 701 211 m 16 X s 669 204 m 15 Y s 717 204 m 15 Y s 693 211 m20 717 217 m 17 X s 749 217 m 16 X s 717 210 m 15 Y s 765 210 m 15 Y s 741 217 m20
 765 210 m 16 X s 797 210 m 16 X s 765 203 m 15 Y s 813 203 m 15 Y s 789 210 m20 813 207 m 16 X s 845 207 m 16 X s 813 199 m 16 Y s 861 199 m 16 Y s 837 207 m20 861 205 m 16 X s 892 205 m 17 X s 861 198 m 15 Y s 909 198 m 15 Y s 885 205 m20 909 209 m
 16 X s 940 209 m 17 X s 909 201 m 15 Y s 957 201 m 15 Y s 933 209 m20 957 207 m 16 X s 988 207 m 17 X s 957 199 m 15 Y s 1005 199 m 15 Y s 981 207 m20 1005 215 m 16 X s 1036 215 m 17 X s 1005 207 m 16 Y s 1053 207 m 16 Y s 1029 215 m20 1053 223 m 16
 X s 1084 223 m 16 X s 1053 216 m 15 Y s 1100 216 m 15 Y s 1076 223 m20 1100 218 m 17 X s 1132 218 m 16 X s 1100 211 m 15 Y s 1148 211 m 15 Y s 1124 218 m20 1148 209 m 17 X s 1180 209 m 16 X s 1148 202 m 15 Y s 1196 202 m 15 Y s 1172 209 m20 1196 211
 m 17 X s 1228 211 m 16 X s 1196 203 m 16 Y s 1244 203 m 16 Y s 1220 211 m20 1244 219 m 16 X s 1276 219 m 16 X s 1244 211 m 16 Y s 1292 211 m 16 Y s 1268 219 m20 1292 225 m 16 X s 1324 225 m 16 X s 1292 217 m 15 Y s 1340 217 m 15 Y s 1316 225 m20
 1340 237 m 16 X s 1371 237 m 17 X s 1340 230 m 15 Y s 1388 230 m 15 Y s 1364 237 m20 1388 244 m 16 X s 1419 244 m 17 X s 1388 236 m 15 Y s 1436 236 m 15 Y s 1412 244 m20 1436 248 m 16 X s 1467 248 m 17 X s 1436 240 m 15 Y s 1484 240 m 15 Y s 1460
 248 m20 1484 317 m 16 X s 1515 317 m 17 X s 1484 309 m 15 Y s 1532 309 m 15 Y s 1508 317 m20 1556 334 m 1 Y s 1556 350 m s 1532 342 m 16 X s 1563 342 m 16 X s 1548 334 m 15 X s 1548 350 m 15 X s 1532 335 m 15 Y s 1579 335 m 15 Y s 1556 342 m20 1603
 336 m s 1603 352 m s 1579 344 m 17 X s 1611 344 m 16 X s 1596 336 m 15 X s 1596 352 m 15 X s 1579 336 m 16 Y s 1627 336 m 16 Y s 1603 344 m20 1651 505 m 5 Y s 1651 525 m 4 Y s 1627 517 m 17 X s 1659 517 m 16 X s 1644 505 m 15 X s 1644 529 m 15 X s
 1627 510 m 15 Y s 1675 510 m 15 Y s 1651 517 m20 1699 602 m 6 Y s 1699 624 m 6 Y s 1675 616 m 17 X s 1707 616 m 16 X s 1692 602 m 15 X s 1692 630 m 15 X s 1675 608 m 16 Y s 1723 608 m 16 Y s 1699 616 m20 1747 492 m 4 Y s 1747 511 m 4 Y s 1723 504 m
 17 X s 1755 504 m 16 X s 1740 492 m 15 X s 1740 515 m 15 X s 1723 496 m 15 Y s 1771 496 m 15 Y s 1747 504 m20 1771 309 m 16 X s 1803 309 m 16 X s 1771 302 m 15 Y s 1819 302 m 15 Y s 1795 309 m20 1819 311 m 16 X s 1851 311 m 16 X s 1819 304 m 15 Y s
 1867 304 m 15 Y s 1843 311 m20 1867 267 m 16 X s 1898 267 m 17 X s 1867 259 m 15 Y s 1915 259 m 15 Y s 1891 267 m20 1915 237 m 16 X s 1946 237 m 17 X s 1915 230 m 15 Y s 1963 230 m 15 Y s 1939 237 m20 1963 232 m 16 X s 1994 232 m 17 X s 1963 225 m
 15 Y s 2011 225 m 15 Y s 1987 232 m20 2011 257 m 16 X s 2042 257 m 17 X s 2011 249 m 15 Y s 2059 249 m 15 Y s 2035 257 m20 2059 227 m 16 X s 2090 227 m 16 X s 2059 219 m 15 Y s 2106 219 m 15 Y s 2082 227 m20 2106 252 m 17 X s 2138 252 m 16 X s 2106
 245 m 15 Y s 2154 245 m 15 Y s 2130 252 m20 1 0 0 c 1 1 1 c 1 0 0 c 262 1186 m 13 Y s 262 1214 m 14 Y s 238 1207 m 16 X s 270 1207 m 16 X s 254 1186 m 16 X s 254 1228 m 16 X s 238 1199 m 15 Y s 286 1199 m 15 Y s 262 1207 m20 286 241 m 16 X s 318 241
 m 16 X s 286 234 m 15 Y s 334 234 m 15 Y s 310 241 m20 334 221 m 16 X s 365 221 m 17 X s 334 213 m 15 Y s 382 213 m 15 Y s 358 221 m20 382 212 m 16 X s 413 212 m 17 X s 382 204 m 15 Y s 430 204 m 15 Y s 406 212 m20 430 206 m 16 X s 461 206 m 17 X s
 430 198 m 16 Y s 478 198 m 16 Y s 454 206 m20 478 208 m 16 X s 509 208 m 17 X s 478 201 m 15 Y s 526 201 m 15 Y s 502 208 m20 526 204 m 16 X s 557 204 m 16 X s 526 197 m 15 Y s 573 197 m 15 Y s 549 204 m20 573 206 m 17 X s 605 206 m 16 X s 573 198 m
 16 Y s 621 198 m 16 Y s 597 206 m20 621 206 m 17 X s 653 206 m 16 X s 621 198 m 16 Y s 669 198 m 16 Y s 645 206 m20 669 206 m 17 X s 701 206 m 16 X s 669 198 m 16 Y s 717 198 m 16 Y s 693 206 m20 717 211 m 17 X s 749 211 m 16 X s 717 203 m 15 Y s
 765 203 m 15 Y s 741 211 m20 765 210 m 16 X s 797 210 m 16 X s 765 203 m 15 Y s 813 203 m 15 Y s 789 210 m20 813 206 m 16 X s 845 206 m 16 X s 813 198 m 15 Y s 861 198 m 15 Y s 837 206 m20 861 204 m 16 X s 892 204 m 17 X s 861 197 m 15 Y s 909 197 m
 15 Y s 885 204 m20 909 202 m 16 X s 940 202 m 17 X s 909 195 m 15 Y s 957 195 m 15 Y s 933 202 m20 957 202 m 16 X s 988 202 m 17 X s 957 194 m 16 Y s 1005 194 m 16 Y s 981 202 m20 1005 207 m 16 X s 1036 207 m 17 X s 1005 199 m 16 Y s 1053 199 m 16 Y
 s 1029 207 m20 1053 206 m 16 X s 1084 206 m 16 X s 1053 198 m 16 Y s 1100 198 m 16 Y s 1076 206 m20 1100 210 m 17 X s 1132 210 m 16 X s 1100 203 m 15 Y s 1148 203 m 15 Y s 1124 210 m20 1148 210 m 17 X s 1180 210 m 16 X s 1148 202 m 15 Y s 1196 202 m
 15 Y s 1172 210 m20 1196 205 m 17 X s 1228 205 m 16 X s 1196 197 m 15 Y s 1244 197 m 15 Y s 1220 205 m20 1244 213 m 16 X s 1276 213 m 16 X s 1244 205 m 15 Y s 1292 205 m 15 Y s 1268 213 m20 1292 214 m 16 X s 1324 214 m 16 X s 1292 206 m 15 Y s 1340
 206 m 15 Y s 1316 214 m20 1340 218 m 16 X s 1371 218 m 17 X s 1340 210 m 15 Y s 1388 210 m 15 Y s 1364 218 m20 1388 229 m 16 X s 1419 229 m 17 X s 1388 222 m 15 Y s 1436 222 m 15 Y s 1412 229 m20 1436 238 m 16 X s 1467 238 m 17 X s 1436 230 m 15 Y s
 1484 230 m 15 Y s 1460 238 m20 1484 300 m 16 X s 1515 300 m 17 X s 1484 293 m 15 Y s 1532 293 m 15 Y s 1508 300 m20 1532 286 m 16 X s 1563 286 m 16 X s 1532 278 m 15 Y s 1579 278 m 15 Y s 1556 286 m20 1579 289 m 17 X s 1611 289 m 16 X s 1579 281 m
 16 Y s 1627 281 m 16 Y s 1603 289 m20 1651 391 m 2 Y s 1651 408 m 2 Y s 1627 400 m 17 X s 1659 400 m 16 X s 1644 391 m 15 X s 1644 410 m 15 X s 1627 393 m 15 Y s 1675 393 m 15 Y s 1651 400 m20 1699 397 m 2 Y s 1699 414 m 2 Y s 1675 406 m 17 X s 1707
 406 m 16 X s 1692 397 m 15 X s 1692 416 m 15 X s 1675 399 m 15 Y s 1723 399 m 15 Y s 1699 406 m20 1747 353 m 1 Y s 1747 369 m 1 Y s 1723 362 m 17 X s 1755 362 m 16 X s 1740 353 m 15 X s 1740 370 m 15 X s 1723 354 m 15 Y s 1771 354 m 15 Y s 1747 362
 m20 1771 244 m 16 X s 1803 244 m 16 X s 1771 237 m 15 Y s 1819 237 m 15 Y s 1795 244 m20 1819 235 m 16 X s 1851 235 m 16 X s 1819 228 m 15 Y s 1867 228 m 15 Y s 1843 235 m20 1867 224 m 16 X s 1898 224 m 17 X s 1867 216 m 15 Y s 1915 216 m 15 Y s
 1891 224 m20 1915 212 m 16 X s 1946 212 m 17 X s 1915 204 m 15 Y s 1963 204 m 15 Y s 1939 212 m20 1963 207 m 16 X s 1994 207 m 17 X s 1963 199 m 16 Y s 2011 199 m 16 Y s 1987 207 m20 2011 212 m 16 X s 2042 212 m 17 X s 2011 205 m 15 Y s 2059 205 m
 15 Y s 2035 212 m20 2059 203 m 16 X s 2090 203 m 16 X s 2059 196 m 15 Y s 2106 196 m 15 Y s 2082 203 m20 2106 203 m 17 X s 2138 203 m 16 X s 2106 195 m 16 Y s 2154 195 m 16 Y s 2130 203 m20 black
 gsave  2268 1676 0 0 C 272.126 1240.34 t 0 r /Helvetica-Bold findfont 49.2982 sf 0 0 m (Kolmogorov\255Smirnov test: signal \(background\) probability = 0.398 \(0.155\)) show NC gr  238 201 m 1916 X s 238 244 m -43 Y s 334 222 m -21 Y s 430 222 m -21
 Y s 526 222 m -21 Y s 621 244 m -43 Y s 717 222 m -21 Y s 813 222 m -21 Y s 909 222 m -21 Y s 1005 244 m -43 Y s 1100 222 m -21 Y s 1196 222 m -21 Y s 1292 222 m -21 Y s 1388 244 m -43 Y s 1484 222 m -21 Y s 1579 222 m -21 Y s 1675 222 m -21 Y s
 1771 244 m -43 Y s 1867 222 m -21 Y s 1963 222 m -21 Y s 2059 222 m -21 Y s 2154 244 m -43 Y s 2154 244 m -43 Y s 238 1509 m 1916 X s 238 1466 m 43 Y s 334 1487 m 22 Y s 430 1487 m 22 Y s 526 1487 m 22 Y s 621 1466 m 43 Y s 717 1487 m 22 Y s 813
 1487 m 22 Y s 909 1487 m 22 Y s 1005 1466 m 43 Y s 1100 1487 m 22 Y s 1196 1487 m 22 Y s 1292 1487 m 22 Y s 1388 1466 m 43 Y s 1484 1487 m 22 Y s 1579 1487 m 22 Y s 1675 1487 m 22 Y s 1771 1466 m 43 Y s 1867 1487 m 22 Y s 1963 1487 m 22 Y s 2059
 1487 m 22 Y s 2154 1466 m 43 Y s 2154 1466 m 43 Y s 238 201 m 1308 Y s 291 201 m -53 X s 265 229 m -27 X s 265 257 m -27 X s 265 285 m -27 X s 291 313 m -53 X s 265 341 m -27 X s 265 369 m -27 X s 265 397 m -27 X s 291 425 m -53 X s 265 453 m -27 X
 s 265 481 m -27 X s 265 509 m -27 X s 291 537 m -53 X s 265 565 m -27 X s 265 593 m -27 X s 265 621 m -27 X s 291 649 m -53 X s 265 677 m -27 X s 265 705 m -27 X s 265 733 m -27 X s 291 761 m -53 X s 265 789 m -27 X s 265 817 m -27 X s 265 845 m -27
 X s 291 873 m -53 X s 265 901 m -27 X s 265 929 m -27 X s 265 957 m -27 X s 291 985 m -53 X s 265 1013 m -27 X s 265 1041 m -27 X s 265 1069 m -27 X s 291 1097 m -53 X s 265 1125 m -27 X s 265 1153 m -27 X s 265 1181 m -27 X s 291 1209 m -53 X s 265
 1237 m -27 X s 265 1265 m -27 X s 265 1293 m -27 X s 291 1321 m -53 X s 265 1349 m -27 X s 265 1377 m -27 X s 265 1405 m -27 X s 291 1433 m -53 X s 291 1433 m -53 X s 265 1461 m -27 X s 265 1489 m -27 X s 2154 201 m 1308 Y s 2101 201 m 53 X s 2128
 229 m 26 X s 2128 257 m 26 X s 2128 285 m 26 X s 2101 313 m 53 X s 2128 341 m 26 X s 2128 369 m 26 X s 2128 397 m 26 X s 2101 425 m 53 X s 2128 453 m 26 X s 2128 481 m 26 X s 2128 509 m 26 X s 2101 537 m 53 X s 2128 565 m 26 X s 2128 593 m 26 X s
 2128 621 m 26 X s 2101 649 m 53 X s 2128 677 m 26 X s 2128 705 m 26 X s 2128 733 m 26 X s 2101 761 m 53 X s 2128 789 m 26 X s 2128 817 m 26 X s 2128 845 m 26 X s 2101 873 m 53 X s 2128 901 m 26 X s 2128 929 m 26 X s 2128 957 m 26 X s 2101 985 m 53 X
 s 2128 1013 m 26 X s 2128 1041 m 26 X s 2128 1069 m 26 X s 2101 1097 m 53 X s 2128 1125 m 26 X s 2128 1153 m 26 X s 2128 1181 m 26 X s 2101 1209 m 53 X s 2128 1237 m 26 X s 2128 1265 m 26 X s 2128 1293 m 26 X s 2101 1321 m 53 X s 2128 1349 m 26 X s
 2128 1377 m 26 X s 2128 1405 m 26 X s 2101 1433 m 53 X s 2101 1433 m 53 X s 2128 1461 m 26 X s 2128 1489 m 26 X s
 gsave  2268 1676 0 0 C 2211.02 192.756 t 90 r /Helvetica-Bold findfont 45.506 sf 0 0 m (U/O\255flow \(S,B\): \(0.0, 0.0\)% / \(0.0, 0.0\)%) show NC gr  0.490196 0.545098 0.615686 c 0.364706 0.419608 0.490196 c 1587 96 23 1572 bf 0.490196 0.545098
 0.615686 c 23 1572 m 1587 X s 1610 1572 m 96 Y s 1610 1668 m -1587 X s 23 1668 m -96 Y s 1 1 1 c black 1 1 1 c
 gsave  2268 1676 0 0 C 91.012 1604.09 t 0 r /Helvetica-Bold findfont 60.6747 sf 0 0 m (TMVA overtraining check for classifier: Likelihood) show NC gr 
 gr  gr showpage
end
%%EOF
