%!PS-Adobe-2.0 EPSF-2.0
%%BoundingBox:  0 0 567 260
%%Title: dataset/plots/variables_id_c1.eps: Input variables (training sample)
%%Creator: ROOT Version 6.12/06
%%CreationDate: Mon May 21 12:06:42 2018
%%DocumentNeededResources: ProcSet (FontSetInit)
%%EndComments
%%BeginProlog
80 dict begin
/s {stroke} def /l {lineto} def /m {moveto} def /t {translate} def
/r {rotate} def /rl {roll}  def /R {repeat} def
/d {rlineto} def /rm {rmoveto} def /gr {grestore} def /f {eofill} def
/c {setrgbcolor} def /black {0 setgray} def /sd {setdash} def
/cl {closepath} def /sf {scalefont setfont} def /lw {setlinewidth} def
/box {m dup 0 exch d exch 0 d 0 exch neg d cl} def
/NC{systemdict begin initclip end}def/C{NC box clip newpath}def
/bl {box s} def /bf {gsave box gsave f grestore 1 lw [] 0 sd s grestore} def /Y { 0 exch d} def /X { 0 d} def 
/K {{pop pop 0 moveto} exch kshow} bind def
/ita {/ang 15 def gsave [1 0 ang dup sin exch cos div 1 0 0] concat} def 
/mp {newpath /y exch def /x exch def} def
/side {[w .77 mul w .23 mul] .385 w mul sd w 0 l currentpoint t -144 r} def
/mr {mp x y w2 0 360 arc} def /m24 {mr s} def /m20 {mr f} def
/mb {mp x y w2 add m w2 neg 0 d 0 w neg d w 0 d 0 w d cl} def
/mt {mp x y w2 add m w2 neg w neg d w 0 d cl} def
/w4 {w 4 div} def
/w6 {w 6 div} def
/w8 {w 8 div} def
/m21 {mb f} def /m25 {mb s} def /m22 {mt f} def /m26{mt s} def
/m23 {mp x y w2 sub m w2 w d w neg 0 d cl f} def
/m27 {mp x y w2 add m w3 neg w2 neg d w3 w2 neg d w3 w2 d cl s} def
/m28 {mp x w2 sub y w2 sub w3 add m w3 0 d  0 w3 neg d w3 0 d 0 w3 d w3 0 d  0 w3 d w3 neg 0 d 0 w3 d w3 neg 0 d 0 w3 neg d w3 neg 0 d cl s } def
/m29 {mp gsave x w2 sub y w2 add w3 sub m currentpoint t 4 {side} repeat cl fill gr} def
/m30 {mp gsave x w2 sub y w2 add w3 sub m currentpoint t 4 {side} repeat cl s gr} def
/m31 {mp x y w2 sub m 0 w d x w2 sub y m w 0 d x w2 sub y w2 add m w w neg d x w2 sub y w2 sub m w w d s} def
/m32 {mp x y w2 sub m w2 w d w neg 0 d cl s} def
/m33 {mp x y w2 add m w3 neg w2 neg d w3 w2 neg d w3 w2 d cl f} def
/m34 {mp x w2 sub y w2 sub w3 add m w3 0 d  0 w3 neg d w3 0 d 0 w3 d w3 0 d  0 w3 d w3 neg 0 d 0 w3 d w3 neg 0 d 0 w3 neg d w3 neg 0 d cl f } def
/m35 {mp x y w2 add m w2 neg w2 neg d w2 w2 neg d w2 w2 d w2 neg w2 d x y w2 sub m 0 w d x w2 sub y m w 0 d s} def
/m36 {mb x w2 sub y w2 add m w w neg d x w2 sub y w2 sub m w w d s} def
/m37 {mp x y m w4 neg w2 d w4 neg w2 neg d w2 0 d  w4 neg w2 neg d w2 0 d w4 neg w2 d w2 0 d w4 neg w2 d w4 neg w2 neg d cl s} def
/m38 {mp x w4 sub y w2 add m w4 neg w4 neg d 0 w2 neg d w4 w4 neg d w2 0 d w4 w4 d 0 w2 d w4 neg w4 d w2 neg 0 d x y w2 sub m 0 w d x w2 sub y m w 0 d cl s} def
/m39 {mp x y m w4 neg w2 d w4 neg w2 neg d w2 0 d  w4 neg w2 neg d w2 0 d w4 neg w2 d w2 0 d w4 neg w2 d w4 neg w2 neg d cl f} def
/m40 {mp x y m w4 w2 d w4 w4 neg d w2 neg w4 neg d w2 w4 neg d w4 neg w4 neg d w4 neg w2 d w4 neg w2 neg d w4 neg w4 d w2 w4 d w2 neg w4 d w4 w4 d w4 w2 neg d cl s} def
/m41 {mp x y m w4 w2 d w4 w4 neg d w2 neg w4 neg d w2 w4 neg d w4 neg w4 neg d w4 neg w2 d w4 neg w2 neg d w4 neg w4 d w2 w4 d w2 neg w4 d w4 w4 d w4 w2 neg d cl f} def
/m42 {mp x y w2 add m w8 neg w2 -3 4 div mul d w2 -3 4 div mul w8 neg d w2 3 4 div mul w8 neg d w8 w2 -3 4 div mul d w8 w2 3 4 div mul d w2 3 4 div mul w8 d w2 -3 4 div mul w8 d w8 neg w2 3 4 div mul d cl s} def
/m43 {mp x y w2 add m w8 neg w2 -3 4 div mul d w2 -3 4 div mul w8 neg d w2 3 4 div mul w8 neg d w8 w2 -3 4 div mul d w8 w2 3 4 div mul d w2 3 4 div mul w8 d w2 -3 4 div mul w8 d w8 neg w2 3 4 div mul d cl f} def
/m44 {mp x y m w6 neg w2 d w2 2 3 div mul 0 d w6 neg w2 neg d w2 w6 d 0 w2 -2 3 div mul d w2 neg w6 d w6 w2 neg d w2 -2 3 div mul 0 d w6 w2 d w2 neg w6 neg d 0 w2 2 3 div mul d w2 w6 neg d cl s} def
/m45 {mp x y m w6 neg w2 d w2 2 3 div mul 0 d w6 neg w2 neg d w2 w6 d 0 w2 -2 3 div mul d w2 neg w6 d w6 w2 neg d w2 -2 3 div mul 0 d w6 w2 d w2 neg w6 neg d 0 w2 2 3 div mul d w2 w6 neg d cl f} def
/m46 {mp x y w4 add m w4 neg w4 d w4 neg w4 neg d  w4 w4 neg d w4 neg w4 neg d w4 w4 neg d w4 w4 d w4 w4 neg d w4 w4 d w4 neg w4 d w4 w4 d w4 neg w4 d w4 neg w4 neg d cl s} def
/m47 {mp x y w4 add m w4 neg w4 d w4 neg w4 neg d w4 w4 neg d w4 neg w4 neg d  w4 w4 neg d w4 w4 d w4 w4 neg d w4 w4 d w4 neg w4 d w4 w4 d w4 neg w4 d w4 neg w4 neg d cl f} def
/m48 {mp x y w4 add m w4 neg w4 d w4 neg w4 neg d w4 w4 neg d  w4 neg w4 neg d w4 w4 neg d w4 w4 d w4 w4 neg d w4 w4 d w4 neg w4 d w4 w4 d w4 neg w4 d w4 neg w4 neg d  w4 w4 neg d w4 neg w4 neg d w4 neg w4 d w4 w4 d cl f} def
/m49 {mp x w2 sub w3 add y w2 sub w3 add m  0 w3 neg d w3 0 d 0 w3 d w3 0 d 0 w3 d w3 neg 0 d 0 w3 d w3 neg 0 d 0 w3 neg d w3 neg 0 d 0 w3 neg d w3 0 d 0 w3 d w3 0 d 0 w3 neg d w3 neg 0 d cl f } def
/m2 {mp x y w2 sub m 0 w d x w2 sub y m w 0 d s} def
/m5 {mp x w2 sub y w2 sub m w w d x w2 sub y w2 add m w w neg d s} def
%%IncludeResource: ProcSet (FontSetInit)
%%IncludeResource: font Times-Roman
%%IncludeResource: font Times-Italic
%%IncludeResource: font Times-Bold
%%IncludeResource: font Times-BoldItalic
%%IncludeResource: font Helvetica
%%IncludeResource: font Helvetica-Oblique
%%IncludeResource: font Helvetica-Bold
%%IncludeResource: font Helvetica-BoldOblique
%%IncludeResource: font Courier
%%IncludeResource: font Courier-Oblique
%%IncludeResource: font Courier-Bold
%%IncludeResource: font Courier-BoldOblique
%%IncludeResource: font Symbol
%%IncludeResource: font ZapfDingbats
/reEncode {exch findfont dup length dict begin {1 index /FID eq  {pop pop} {def} ifelse } forall /Encoding exch def currentdict end dup /FontName get exch definefont pop } def [/Times-Bold /Times-Italic /Times-BoldItalic /Helvetica /Helvetica-Oblique
 /Helvetica-Bold /Helvetica-BoldOblique /Courier /Courier-Oblique /Courier-Bold /Courier-BoldOblique /Times-Roman /AvantGarde-Book /AvantGarde-BookOblique /AvantGarde-Demi /AvantGarde-DemiOblique /Bookman-Demi /Bookman-DemiItalic /Bookman-Light
 /Bookman-LightItalic /Helvetica-Narrow /Helvetica-Narrow-Bold /Helvetica-Narrow-BoldOblique /Helvetica-Narrow-Oblique /NewCenturySchlbk-Roman /NewCenturySchlbk-Bold /NewCenturySchlbk-BoldItalic /NewCenturySchlbk-Italic /Palatino-Bold
 /Palatino-BoldItalic /Palatino-Italic /Palatino-Roman ] {ISOLatin1Encoding reEncode } forall
%%EndProlog
%%BeginSetup
%%EndSetup
newpath  gsave  .25 .25 scale  gsave  0 0 t 0.490196 0.545098 0.615686 c[  ] 0 sd 3 lw 0.941176 0.941176 0.941176 c 2268 1039 0 0 bf 0.490196 0.545098 0.615686 c 0.941176 0.941176 0.941176 c 1088 1019 23 10 bf black 1 1 0.992157 c 838 770 208 157 bf
 black 838 770 208 157 bl 1 1 0.992157 c 838 770 208 157 bf black 838 770 208 157 bl 0 0 0.933333 c 6 lw 0.49 0.6 0.82 c black 3 lw 0.49 0.6 0.82 c 208 157 m 2 Y 21 X 8 Y 21 X 6 Y 21 X 2 Y 21 X 17 Y 20 X 39 Y 21 X 52 Y 21 X 92 Y 21 X 39 Y 21 X 95 Y
 21 X 112 Y 21 X 88 Y 21 X 40 Y 21 X -5 Y 21 X -16 Y 21 X -78 Y 21 X -108 Y 21 X -95 Y 21 X -85 Y 21 X -54 Y 21 X -66 Y 21 X -20 Y 21 X -34 Y 21 X -19 Y 21 X -3 Y 21 X -7 Y 21 X 3 Y 20 X -5 Y 273 X f 6 lw 0 0 0.933333 c 0.49 0.6 0.82 c 0 0 0.933333 c
 208 159 m 21 X 8 Y 21 X 6 Y 21 X 2 Y 21 X 17 Y 20 X 39 Y 21 X 52 Y 21 X 92 Y 21 X 39 Y 21 X 95 Y 21 X 112 Y 21 X 88 Y 21 X 40 Y 21 X -5 Y 21 X -16 Y 21 X -78 Y 21 X -108 Y 21 X -95 Y 21 X -85 Y 21 X -54 Y 21 X -66 Y 21 X -20 Y 21 X -34 Y 21 X -19 Y
 21 X -3 Y 21 X -7 Y 21 X 3 Y 20 X -5 Y 273 X s black 3 lw 208 157 m 838 X s 284 181 m -24 Y s 304 169 m -12 Y s 324 169 m -12 Y s 344 169 m -12 Y s 364 169 m -12 Y s 384 181 m -24 Y s 404 169 m -12 Y s 425 169 m -12 Y s 445 169 m -12 Y s 465 169 m
 -12 Y s 485 181 m -24 Y s 505 169 m -12 Y s 525 169 m -12 Y s 545 169 m -12 Y s 565 169 m -12 Y s 585 181 m -24 Y s 605 169 m -12 Y s 625 169 m -12 Y s 645 169 m -12 Y s 665 169 m -12 Y s 685 181 m -24 Y s 706 169 m -12 Y s 726 169 m -12 Y s 746 169
 m -12 Y s 766 169 m -12 Y s 786 181 m -24 Y s 806 169 m -12 Y s 826 169 m -12 Y s 846 169 m -12 Y s 866 169 m -12 Y s 886 181 m -24 Y s 906 169 m -12 Y s 926 169 m -12 Y s 946 169 m -12 Y s 967 169 m -12 Y s 987 181 m -24 Y s 284 181 m -24 Y s 264
 169 m -12 Y s 244 169 m -12 Y s 224 169 m -12 Y s 987 181 m -24 Y s 1007 169 m -12 Y s 1027 169 m -12 Y s
 gsave  1088 1019 23 10 C 276.828 106.181 t 0 r /Helvetica findfont 45.5943 sf 0 0 m (3) show NC gr 
 gsave  1088 1019 23 10 C 254.075 106.181 t 0 r /Symbol findfont 45.5943 sf 0 0 m (-) show NC gr 
 gsave  1088 1019 23 10 C 379.217 106.181 t 0 r /Helvetica findfont 45.5943 sf 0 0 m (2) show NC gr 
 gsave  1088 1019 23 10 C 356.464 106.181 t 0 r /Symbol findfont 45.5943 sf 0 0 m (-) show NC gr 
 gsave  1088 1019 23 10 C 481.605 106.181 t 0 r /Helvetica findfont 45.5943 sf 0 0 m (1) show NC gr 
 gsave  1088 1019 23 10 C 458.852 106.181 t 0 r /Symbol findfont 45.5943 sf 0 0 m (-) show NC gr 
 gsave  1088 1019 23 10 C 568.825 106.181 t 0 r /Helvetica findfont 45.5943 sf 0 0 m (0) show NC gr 
 gsave  1088 1019 23 10 C 671.214 106.181 t 0 r /Helvetica findfont 45.5943 sf 0 0 m (1) show NC gr 
 gsave  1088 1019 23 10 C 769.81 106.181 t 0 r /Helvetica findfont 45.5943 sf 0 0 m (2) show NC gr 
 gsave  1088 1019 23 10 C 868.406 106.181 t 0 r /Helvetica findfont 45.5943 sf 0 0 m (3) show NC gr 
 gsave  1088 1019 23 10 C 970.795 106.181 t 0 r /Helvetica findfont 45.5943 sf 0 0 m (4) show NC gr 
 gsave  1088 1019 23 10 C 712.928 30.3373 t 0 r /Helvetica findfont 53.1934 sf 0 0 m (Variable 1  [F]) show NC gr  208 927 m 838 X s 284 903 m 24 Y s 304 915 m 12 Y s 324 915 m 12 Y s 344 915 m 12 Y s 364 915 m 12 Y s 384 903 m 24 Y s 404 915 m 12 Y
 s 425 915 m 12 Y s 445 915 m 12 Y s 465 915 m 12 Y s 485 903 m 24 Y s 505 915 m 12 Y s 525 915 m 12 Y s 545 915 m 12 Y s 565 915 m 12 Y s 585 903 m 24 Y s 605 915 m 12 Y s 625 915 m 12 Y s 645 915 m 12 Y s 665 915 m 12 Y s 685 903 m 24 Y s 706 915 m
 12 Y s 726 915 m 12 Y s 746 915 m 12 Y s 766 915 m 12 Y s 786 903 m 24 Y s 806 915 m 12 Y s 826 915 m 12 Y s 846 915 m 12 Y s 866 915 m 12 Y s 886 903 m 24 Y s 906 915 m 12 Y s 926 915 m 12 Y s 946 915 m 12 Y s 967 915 m 12 Y s 987 903 m 24 Y s 284
 903 m 24 Y s 264 915 m 12 Y s 244 915 m 12 Y s 224 915 m 12 Y s 987 903 m 24 Y s 1007 915 m 12 Y s 1027 915 m 12 Y s 208 157 m 770 Y s 232 157 m -24 X s 220 180 m -12 X s 220 204 m -12 X s 220 227 m -12 X s 220 251 m -12 X s 232 274 m -24 X s 220
 298 m -12 X s 220 321 m -12 X s 220 344 m -12 X s 220 368 m -12 X s 232 391 m -24 X s 220 415 m -12 X s 220 438 m -12 X s 220 461 m -12 X s 220 485 m -12 X s 232 508 m -24 X s 220 532 m -12 X s 220 555 m -12 X s 220 578 m -12 X s 220 602 m -12 X s
 232 625 m -24 X s 220 649 m -12 X s 220 672 m -12 X s 220 696 m -12 X s 220 719 m -12 X s 232 742 m -24 X s 220 766 m -12 X s 220 789 m -12 X s 220 813 m -12 X s 220 836 m -12 X s 232 859 m -24 X s 232 859 m -24 X s 220 883 m -12 X s 220 906 m -12 X
 s
 gsave  1088 1019 23 10 C 166.855 140.31 t 0 r /Helvetica findfont 45.5943 sf 0 0 m (0) show NC gr 
 gsave  1088 1019 23 10 C 136.518 257.867 t 0 r /Helvetica findfont 45.5943 sf 0 0 m (0.1) show NC gr 
 gsave  1088 1019 23 10 C 128.934 375.425 t 0 r /Helvetica findfont 45.5943 sf 0 0 m (0.2) show NC gr 
 gsave  1088 1019 23 10 C 128.934 492.982 t 0 r /Helvetica findfont 45.5943 sf 0 0 m (0.3) show NC gr 
 gsave  1088 1019 23 10 C 128.934 606.747 t 0 r /Helvetica findfont 45.5943 sf 0 0 m (0.4) show NC gr 
 gsave  1088 1019 23 10 C 128.934 724.304 t 0 r /Helvetica findfont 45.5943 sf 0 0 m (0.5) show NC gr 
 gsave  1088 1019 23 10 C 128.934 841.861 t 0 r /Helvetica findfont 45.5943 sf 0 0 m (0.6) show NC gr 
 gsave  1088 1019 23 10 C 60.6747 750.849 t 90 r /Helvetica findfont 53.1934 sf 0 0 m (0.209 F) show NC gr 
 gsave  1088 1019 23 10 C 37.9217 739.473 t 90 r /Helvetica findfont 34.1957 sf 0 0 m ( ) show NC gr 
 gsave  1088 1019 23 10 C 60.6747 720.512 t 90 r /Helvetica findfont 53.1934 sf 0 0 m (/) show NC gr 
 gsave  1088 1019 23 10 C 72.0512 709.135 t 90 r /Helvetica findfont 34.1957 sf 0 0 m ( ) show NC gr 
 gsave  1088 1019 23 10 C 60.6747 511.943 t 90 r /Helvetica findfont 53.1934 sf 0 0 m (\(1/N\) dN) show NC gr  1046 157 m 770 Y s 1021 157 m 25 X s 1034 180 m 12 X s 1034 204 m 12 X s 1034 227 m 12 X s 1034 251 m 12 X s 1021 274 m 25 X s 1034 298 m
 12 X s 1034 321 m 12 X s 1034 344 m 12 X s 1034 368 m 12 X s 1021 391 m 25 X s 1034 415 m 12 X s 1034 438 m 12 X s 1034 461 m 12 X s 1034 485 m 12 X s 1021 508 m 25 X s 1034 532 m 12 X s 1034 555 m 12 X s 1034 578 m 12 X s 1034 602 m 12 X s 1021 625
 m 25 X s 1034 649 m 12 X s 1034 672 m 12 X s 1034 696 m 12 X s 1034 719 m 12 X s 1021 742 m 25 X s 1034 766 m 12 X s 1034 789 m 12 X s 1034 813 m 12 X s 1034 836 m 12 X s 1021 859 m 25 X s 1021 859 m 25 X s 1034 883 m 12 X s 1034 906 m 12 X s 1 0 0
 c 6 lw black 3 lw 1 0 0 c 1023 157 m s 1001 158 m -1 -1 d s 978 158 m -1 -1 d s 954 157 m s 932 158 m -1 -1 d s 909 158 m -1 -1 d s 888 160 m -3 -3 d s 864 159 m -2 -2 d s 841 159 m -2 -2 d s 820 162 m -4 -5 d s 815 180 m -22 -23 d s 805 193 m -36
 -36 d s 794 205 m -48 -48 d s 794 228 m -71 -71 d s 780 237 m -80 -80 d s 773 254 m -96 -97 d s 773 277 m -119 -120 d s 773 300 m -142 -143 d s 763 313 m -155 -156 d s 753 325 m -168 -168 d s 753 348 m -191 -191 d s 753 371 m -214 -214 d s 733 375 m
 -218 -218 d s 732 397 m -240 -240 d s 732 420 m -263 -263 d s 732 443 m -286 -286 d s 713 447 m -290 -290 d s 711 468 m -311 -311 d s 711 491 m -334 -334 d s 711 514 m -357 -357 d s 690 517 m s 670 497 m -295 -295 d s 358 184 m -4 -3 d s 333 160 m
 -2 -3 d s 669 519 m -42 -42 d s 610 460 m -25 -25 d s 583 433 m -187 -187 d s 395 245 m -20 -20 d s 319 168 m -7 -6 d s 311 160 m -3 -3 d s 655 528 m -7 -7 d s 647 520 m -20 -20 d s 589 462 m -4 -4 d s 564 437 m -168 -168 d s 286 158 m -1 -1 d s 564
 460 m -168 -168 d s 263 158 m -2 -1 d s 549 468 m -132 -132 d s 400 319 m -4 -4 d s 238 157 m s 543 485 m -126 -126 d s 215 157 m cl s 526 491 m -25 -25 d s 497 462 m -80 -80 d s 522 511 m -21 -21 d s 480 469 m -42 -42 d s 522 534 m -21 -21 d s 462
 473 m -3 -2 d s 451 462 m -13 -12 d s 501 536 m s 6 lw 208 157 m 42 X 1 Y 42 X 2 Y 20 X 8 Y 21 X -9 Y 21 X 25 Y 21 X 61 Y 21 X 74 Y 21 X 85 Y 21 X 58 Y 21 X 11 Y 21 X -11 Y 21 X 74 Y 21 X -45 Y 21 X -23 Y 21 X -35 Y 21 X 29 Y 21 X -2 Y 21 X 60 Y 21
 X 8 Y 21 X -31 Y 21 X 20 Y 21 X -70 Y 21 X -72 Y 21 X -62 Y 20 X -76 Y 21 X -44 Y 21 X -31 Y 21 X -3 Y 42 X 1 Y 21 X -2 Y 42 X -1 Y 21 X 1 Y 42 X -1 Y 21 X 1 Y 21 X s 0.490196 0.545098 0.615686 c 3 lw 1 1 1 c 0.490196 0.545098 0.615686 c 435 153 208
 774 bl 208 774 m 435 X s 643 774 m 153 Y s 643 927 m -435 X s 208 927 m -153 Y s black
 gsave  1088 1019 23 10 C 337.503 872.199 t 0 r /Helvetica-Bold findfont 49.3938 sf 0 0 m (Signal) show NC gr  0.49 0.6 0.82 c 227 862 m 92 X 53 Y -92 X f 0 0 0.933333 c 6 lw 227 915 m 92 X s 227 862 m 92 X s 319 862 m 53 Y s 227 862 m 53 Y s black
 gsave  1088 1019 23 10 C 337.503 796.355 t 0 r /Helvetica-Bold findfont 49.3938 sf 0 0 m (Background) show NC gr  1 0 0 c 3 lw 319 793 m -7 -7 d s 319 816 m -30 -30 d s 319 839 m -53 -53 d s 296 839 m -54 -53 d s 273 839 m -46 -45 d s 250 839 m -23
 -22 d s 6 lw 0 0 0.933333 c 1 0 0 c 227 839 m 92 X s 227 786 m 92 X s 319 786 m 53 Y s 227 786 m 53 Y s black 3 lw 208 157 m 838 X s 284 181 m -24 Y s 304 169 m -12 Y s 324 169 m -12 Y s 344 169 m -12 Y s 364 169 m -12 Y s 384 181 m -24 Y s 404 169
 m -12 Y s 425 169 m -12 Y s 445 169 m -12 Y s 465 169 m -12 Y s 485 181 m -24 Y s 505 169 m -12 Y s 525 169 m -12 Y s 545 169 m -12 Y s 565 169 m -12 Y s 585 181 m -24 Y s 605 169 m -12 Y s 625 169 m -12 Y s 645 169 m -12 Y s 665 169 m -12 Y s 685
 181 m -24 Y s 706 169 m -12 Y s 726 169 m -12 Y s 746 169 m -12 Y s 766 169 m -12 Y s 786 181 m -24 Y s 806 169 m -12 Y s 826 169 m -12 Y s 846 169 m -12 Y s 866 169 m -12 Y s 886 181 m -24 Y s 906 169 m -12 Y s 926 169 m -12 Y s 946 169 m -12 Y s
 967 169 m -12 Y s 987 181 m -24 Y s 284 181 m -24 Y s 264 169 m -12 Y s 244 169 m -12 Y s 224 169 m -12 Y s 987 181 m -24 Y s 1007 169 m -12 Y s 1027 169 m -12 Y s 208 927 m 838 X s 284 903 m 24 Y s 304 915 m 12 Y s 324 915 m 12 Y s 344 915 m 12 Y s
 364 915 m 12 Y s 384 903 m 24 Y s 404 915 m 12 Y s 425 915 m 12 Y s 445 915 m 12 Y s 465 915 m 12 Y s 485 903 m 24 Y s 505 915 m 12 Y s 525 915 m 12 Y s 545 915 m 12 Y s 565 915 m 12 Y s 585 903 m 24 Y s 605 915 m 12 Y s 625 915 m 12 Y s 645 915 m
 12 Y s 665 915 m 12 Y s 685 903 m 24 Y s 706 915 m 12 Y s 726 915 m 12 Y s 746 915 m 12 Y s 766 915 m 12 Y s 786 903 m 24 Y s 806 915 m 12 Y s 826 915 m 12 Y s 846 915 m 12 Y s 866 915 m 12 Y s 886 903 m 24 Y s 906 915 m 12 Y s 926 915 m 12 Y s 946
 915 m 12 Y s 967 915 m 12 Y s 987 903 m 24 Y s 284 903 m 24 Y s 264 915 m 12 Y s 244 915 m 12 Y s 224 915 m 12 Y s 987 903 m 24 Y s 1007 915 m 12 Y s 1027 915 m 12 Y s 208 157 m 770 Y s 232 157 m -24 X s 220 180 m -12 X s 220 204 m -12 X s 220 227 m
 -12 X s 220 251 m -12 X s 232 274 m -24 X s 220 298 m -12 X s 220 321 m -12 X s 220 344 m -12 X s 220 368 m -12 X s 232 391 m -24 X s 220 415 m -12 X s 220 438 m -12 X s 220 461 m -12 X s 220 485 m -12 X s 232 508 m -24 X s 220 532 m -12 X s 220 555
 m -12 X s 220 578 m -12 X s 220 602 m -12 X s 232 625 m -24 X s 220 649 m -12 X s 220 672 m -12 X s 220 696 m -12 X s 220 719 m -12 X s 232 742 m -24 X s 220 766 m -12 X s 220 789 m -12 X s 220 813 m -12 X s 220 836 m -12 X s 232 859 m -24 X s 232
 859 m -24 X s 220 883 m -12 X s 220 906 m -12 X s 1046 157 m 770 Y s 1021 157 m 25 X s 1034 180 m 12 X s 1034 204 m 12 X s 1034 227 m 12 X s 1034 251 m 12 X s 1021 274 m 25 X s 1034 298 m 12 X s 1034 321 m 12 X s 1034 344 m 12 X s 1034 368 m 12 X s
 1021 391 m 25 X s 1034 415 m 12 X s 1034 438 m 12 X s 1034 461 m 12 X s 1034 485 m 12 X s 1021 508 m 25 X s 1034 532 m 12 X s 1034 555 m 12 X s 1034 578 m 12 X s 1034 602 m 12 X s 1021 625 m 25 X s 1034 649 m 12 X s 1034 672 m 12 X s 1034 696 m 12 X
 s 1034 719 m 12 X s 1021 742 m 25 X s 1034 766 m 12 X s 1034 789 m 12 X s 1034 813 m 12 X s 1034 836 m 12 X s 1021 859 m 25 X s 1021 859 m 25 X s 1034 883 m 12 X s 1034 906 m 12 X s
 gsave  1088 1019 23 10 C 1089.41 152.949 t 90 r /Helvetica-Bold findfont 37.9953 sf 0 0 m (U/O\255flow \(S,B\): \(0.0, 0.0\)% / \(0.0, 0.0\)%) show NC gr  0.490196 0.545098 0.615686 c 0.364706 0.419608 0.490196 c 598 60 34 964 bf 0.490196 0.545098
 0.615686 c 34 964 m 598 X s 632 964 m 60 Y s 632 1024 m -598 X s 34 1024 m -60 Y s 1 1 1 c black 1 1 1 c
 gsave  1088 1019 23 10 C 64.4669 982.172 t 0 r /Helvetica-Bold findfont 45.5943 sf 0 0 m (Input variable: Variable 1) show NC gr  0.490196 0.545098 0.615686 c 0.941176 0.941176 0.941176 c 1088 1019 1157 10 bf black 1 1 0.992157 c 838 770 1342 157 bf
 black 838 770 1342 157 bl 1 1 0.992157 c 838 770 1342 157 bf black 838 770 1342 157 bl 0 0 0.933333 c 6 lw 0.49 0.6 0.82 c black 3 lw 0.49 0.6 0.82 c 1342 157 m 314 X 2 Y 21 X 1 Y 21 X 16 Y 21 X 13 Y 21 X 53 Y 21 X 82 Y 21 X 87 Y 21 X 206 Y 21 X 124
 Y 20 X 93 Y 21 X 23 Y 21 X -112 Y 21 X -135 Y 21 X -195 Y 21 X -117 Y 21 X -57 Y 21 X -57 Y 21 X -19 Y 21 X -1 Y 21 X -5 Y 21 X -2 Y 105 X f 6 lw 0 0 0.933333 c 0.49 0.6 0.82 c 0 0 0.933333 c 1342 157 m 314 X 2 Y 21 X 1 Y 21 X 16 Y 21 X 13 Y 21 X 53
 Y 21 X 82 Y 21 X 87 Y 21 X 206 Y 21 X 124 Y 20 X 93 Y 21 X 23 Y 21 X -112 Y 21 X -135 Y 21 X -195 Y 21 X -117 Y 21 X -57 Y 21 X -57 Y 21 X -19 Y 21 X -1 Y 21 X -5 Y 21 X -2 Y 105 X s black 3 lw 1342 157 m 838 X s 1470 181 m -24 Y s 1510 169 m -12 Y
 s 1549 169 m -12 Y s 1589 169 m -12 Y s 1628 181 m -24 Y s 1668 169 m -12 Y s 1707 169 m -12 Y s 1747 169 m -12 Y s 1786 181 m -24 Y s 1826 169 m -12 Y s 1865 169 m -12 Y s 1905 169 m -12 Y s 1944 181 m -24 Y s 1983 169 m -12 Y s 2023 169 m -12 Y s
 2062 169 m -12 Y s 2102 181 m -24 Y s 1470 181 m -24 Y s 1431 169 m -12 Y s 1391 169 m -12 Y s 1352 169 m -12 Y s 2102 181 m -24 Y s 2141 169 m -12 Y s
 gsave  1088 1019 1157 10 C 1463.78 106.181 t 0 r /Helvetica findfont 45.5943 sf 0 0 m (4) show NC gr 
 gsave  1088 1019 1157 10 C 1441.02 106.181 t 0 r /Symbol findfont 45.5943 sf 0 0 m (-) show NC gr 
 gsave  1088 1019 1157 10 C 1623.05 106.181 t 0 r /Helvetica findfont 45.5943 sf 0 0 m (2) show NC gr 
 gsave  1088 1019 1157 10 C 1600.29 106.181 t 0 r /Symbol findfont 45.5943 sf 0 0 m (-) show NC gr 
 gsave  1088 1019 1157 10 C 1770.94 106.181 t 0 r /Helvetica findfont 45.5943 sf 0 0 m (0) show NC gr 
 gsave  1088 1019 1157 10 C 1926.42 106.181 t 0 r /Helvetica findfont 45.5943 sf 0 0 m (2) show NC gr 
 gsave  1088 1019 1157 10 C 2085.69 106.181 t 0 r /Helvetica findfont 45.5943 sf 0 0 m (4) show NC gr 
 gsave  1088 1019 1157 10 C 1846.79 30.3373 t 0 r /Helvetica findfont 53.1934 sf 0 0 m (Variable 2  [F]) show NC gr  1342 927 m 838 X s 1470 903 m 24 Y s 1510 915 m 12 Y s 1549 915 m 12 Y s 1589 915 m 12 Y s 1628 903 m 24 Y s 1668 915 m 12 Y s 1707
 915 m 12 Y s 1747 915 m 12 Y s 1786 903 m 24 Y s 1826 915 m 12 Y s 1865 915 m 12 Y s 1905 915 m 12 Y s 1944 903 m 24 Y s 1983 915 m 12 Y s 2023 915 m 12 Y s 2062 915 m 12 Y s 2102 903 m 24 Y s 1470 903 m 24 Y s 1431 915 m 12 Y s 1391 915 m 12 Y s
 1352 915 m 12 Y s 2102 903 m 24 Y s 2141 915 m 12 Y s 1342 157 m 770 Y s 1366 157 m -24 X s 1354 181 m -12 X s 1354 205 m -12 X s 1354 229 m -12 X s 1354 254 m -12 X s 1366 278 m -24 X s 1354 302 m -12 X s 1354 326 m -12 X s 1354 350 m -12 X s 1354
 374 m -12 X s 1366 399 m -24 X s 1354 423 m -12 X s 1354 447 m -12 X s 1354 471 m -12 X s 1354 495 m -12 X s 1366 519 m -24 X s 1354 544 m -12 X s 1354 568 m -12 X s 1354 592 m -12 X s 1354 616 m -12 X s 1366 640 m -24 X s 1354 664 m -12 X s 1354
 688 m -12 X s 1354 713 m -12 X s 1354 737 m -12 X s 1366 761 m -24 X s 1354 785 m -12 X s 1354 809 m -12 X s 1354 833 m -12 X s 1354 858 m -12 X s 1366 882 m -24 X s 1366 882 m -24 X s 1354 906 m -12 X s
 gsave  1088 1019 1157 10 C 1300.71 140.31 t 0 r /Helvetica findfont 45.5943 sf 0 0 m (0) show NC gr 
 gsave  1088 1019 1157 10 C 1270.38 261.66 t 0 r /Helvetica findfont 45.5943 sf 0 0 m (0.1) show NC gr 
 gsave  1088 1019 1157 10 C 1262.79 383.009 t 0 r /Helvetica findfont 45.5943 sf 0 0 m (0.2) show NC gr 
 gsave  1088 1019 1157 10 C 1262.79 500.566 t 0 r /Helvetica findfont 45.5943 sf 0 0 m (0.3) show NC gr 
 gsave  1088 1019 1157 10 C 1262.79 621.916 t 0 r /Helvetica findfont 45.5943 sf 0 0 m (0.4) show NC gr 
 gsave  1088 1019 1157 10 C 1262.79 743.265 t 0 r /Helvetica findfont 45.5943 sf 0 0 m (0.5) show NC gr 
 gsave  1088 1019 1157 10 C 1262.79 864.614 t 0 r /Helvetica findfont 45.5943 sf 0 0 m (0.6) show NC gr 
 gsave  1088 1019 1157 10 C 1198.33 750.849 t 90 r /Helvetica findfont 53.1934 sf 0 0 m (0.265 F) show NC gr 
 gsave  1088 1019 1157 10 C 1171.78 739.473 t 90 r /Helvetica findfont 34.1957 sf 0 0 m ( ) show NC gr 
 gsave  1088 1019 1157 10 C 1198.33 720.512 t 90 r /Helvetica findfont 53.1934 sf 0 0 m (/) show NC gr 
 gsave  1088 1019 1157 10 C 1209.7 709.135 t 90 r /Helvetica findfont 34.1957 sf 0 0 m ( ) show NC gr 
 gsave  1088 1019 1157 10 C 1198.33 511.943 t 90 r /Helvetica findfont 53.1934 sf 0 0 m (\(1/N\) dN) show NC gr  2180 157 m 770 Y s 2155 157 m 25 X s 2167 181 m 13 X s 2167 205 m 13 X s 2167 229 m 13 X s 2167 254 m 13 X s 2155 278 m 25 X s 2167 302 m
 13 X s 2167 326 m 13 X s 2167 350 m 13 X s 2167 374 m 13 X s 2155 399 m 25 X s 2167 423 m 13 X s 2167 447 m 13 X s 2167 471 m 13 X s 2167 495 m 13 X s 2155 519 m 25 X s 2167 544 m 13 X s 2167 568 m 13 X s 2167 592 m 13 X s 2167 616 m 13 X s 2155 640
 m 25 X s 2167 664 m 13 X s 2167 688 m 13 X s 2167 713 m 13 X s 2167 737 m 13 X s 2155 761 m 25 X s 2167 785 m 13 X s 2167 809 m 13 X s 2167 833 m 13 X s 2167 858 m 13 X s 2155 882 m 25 X s 2155 882 m 25 X s 2167 906 m 13 X s 1 0 0 c 6 lw black 3 lw
 1 0 0 c 2157 157 m s 2134 157 m s 2111 157 m s 2088 157 m s 2065 157 m cl s 2045 160 m -3 -3 d s 2021 159 m -2 -2 d s 2000 162 m -4 -5 d s 1983 167 m -10 -10 d s 1970 178 m -21 -21 d s 1968 199 m -42 -42 d s 1949 203 m -46 -46 d s 1949 226 m -69 -69
 d s 1949 249 m -92 -92 d s 1949 272 m -115 -115 d s 1949 296 m -138 -139 d s 1936 305 m -148 -148 d s 1928 321 m -163 -164 d s 1928 344 m -186 -187 d s 1928 367 m -209 -210 d s 1928 390 m -233 -233 d s 1928 413 m -125 -126 d s 1793 278 m -121 -121 d
 s 1928 436 m -125 -125 d s 1782 290 m -133 -133 d s 1922 454 m -119 -120 d s 1767 298 m -141 -141 d s 1907 462 m -104 -105 d s 1761 315 m -158 -158 d s 1907 485 m -83 -84 d s 1761 338 m -147 -147 d s 1607 184 m -14 -14 d s 1588 165 m -8 -8 d s 1907
 508 m -83 -84 d s 1761 361 m -147 -147 d s 1562 162 m -5 -5 d s 1894 517 m -70 -70 d s 1761 384 m -126 -126 d s 1630 253 m -16 -16 d s 1538 162 m -4 -5 d s 1886 533 m -42 -42 d s 1837 484 m -13 -14 d s 1761 407 m -126 -126 d s 1513 160 m -2 -3 d s
 1883 553 m -18 -18 d s 1853 523 m -9 -9 d s 1746 415 m -111 -110 d s 1488 158 m -1 Y s 1740 433 m -105 -105 d s 1466 159 m -1 -2 d s 1740 456 m -105 -105 d s 1441 157 m s 1740 479 m -84 -84 d s 1653 392 m -18 -18 d s 1418 157 m s 1720 482 m -64 -64
 d s 1395 157 m s 1719 504 m -63 -63 d s 1372 157 m cl s 1719 527 m -63 -63 d s 1350 158 m -1 -1 d s 1719 550 m -63 -63 d s 1698 553 m -1 Y s 1694 548 m -17 -16 d s 1659 514 m -3 -3 d s 6 lw 1342 158 m 21 X -1 Y 83 X 2 Y 42 X -2 Y 21 X 3 Y 21 X 2 Y
 42 X 3 Y 21 X 19 Y 21 X 69 Y 21 X 139 Y 21 X 122 Y 21 X 34 Y 21 X 5 Y 21 X -71 Y 21 X -67 Y 21 X -117 Y 21 X -20 Y 21 X 100 Y 21 X 106 Y 20 X 39 Y 21 X 30 Y 21 X -36 Y 21 X -63 Y 21 X -149 Y 21 X -106 Y 21 X -32 Y 21 X -5 Y 21 X -3 Y 21 X 1 Y 21 X
 -3 Y 105 X 1 Y 21 X s black 3 lw 1342 157 m 838 X s 1470 181 m -24 Y s 1510 169 m -12 Y s 1549 169 m -12 Y s 1589 169 m -12 Y s 1628 181 m -24 Y s 1668 169 m -12 Y s 1707 169 m -12 Y s 1747 169 m -12 Y s 1786 181 m -24 Y s 1826 169 m -12 Y s 1865
 169 m -12 Y s 1905 169 m -12 Y s 1944 181 m -24 Y s 1983 169 m -12 Y s 2023 169 m -12 Y s 2062 169 m -12 Y s 2102 181 m -24 Y s 1470 181 m -24 Y s 1431 169 m -12 Y s 1391 169 m -12 Y s 1352 169 m -12 Y s 2102 181 m -24 Y s 2141 169 m -12 Y s 1342
 927 m 838 X s 1470 903 m 24 Y s 1510 915 m 12 Y s 1549 915 m 12 Y s 1589 915 m 12 Y s 1628 903 m 24 Y s 1668 915 m 12 Y s 1707 915 m 12 Y s 1747 915 m 12 Y s 1786 903 m 24 Y s 1826 915 m 12 Y s 1865 915 m 12 Y s 1905 915 m 12 Y s 1944 903 m 24 Y s
 1983 915 m 12 Y s 2023 915 m 12 Y s 2062 915 m 12 Y s 2102 903 m 24 Y s 1470 903 m 24 Y s 1431 915 m 12 Y s 1391 915 m 12 Y s 1352 915 m 12 Y s 2102 903 m 24 Y s 2141 915 m 12 Y s 1342 157 m 770 Y s 1366 157 m -24 X s 1354 181 m -12 X s 1354 205 m
 -12 X s 1354 229 m -12 X s 1354 254 m -12 X s 1366 278 m -24 X s 1354 302 m -12 X s 1354 326 m -12 X s 1354 350 m -12 X s 1354 374 m -12 X s 1366 399 m -24 X s 1354 423 m -12 X s 1354 447 m -12 X s 1354 471 m -12 X s 1354 495 m -12 X s 1366 519 m
 -24 X s 1354 544 m -12 X s 1354 568 m -12 X s 1354 592 m -12 X s 1354 616 m -12 X s 1366 640 m -24 X s 1354 664 m -12 X s 1354 688 m -12 X s 1354 713 m -12 X s 1354 737 m -12 X s 1366 761 m -24 X s 1354 785 m -12 X s 1354 809 m -12 X s 1354 833 m
 -12 X s 1354 858 m -12 X s 1366 882 m -24 X s 1366 882 m -24 X s 1354 906 m -12 X s 2180 157 m 770 Y s 2155 157 m 25 X s 2167 181 m 13 X s 2167 205 m 13 X s 2167 229 m 13 X s 2167 254 m 13 X s 2155 278 m 25 X s 2167 302 m 13 X s 2167 326 m 13 X s
 2167 350 m 13 X s 2167 374 m 13 X s 2155 399 m 25 X s 2167 423 m 13 X s 2167 447 m 13 X s 2167 471 m 13 X s 2167 495 m 13 X s 2155 519 m 25 X s 2167 544 m 13 X s 2167 568 m 13 X s 2167 592 m 13 X s 2167 616 m 13 X s 2155 640 m 25 X s 2167 664 m 13 X
 s 2167 688 m 13 X s 2167 713 m 13 X s 2167 737 m 13 X s 2155 761 m 25 X s 2167 785 m 13 X s 2167 809 m 13 X s 2167 833 m 13 X s 2167 858 m 13 X s 2155 882 m 25 X s 2155 882 m 25 X s 2167 906 m 13 X s
 gsave  1088 1019 1157 10 C 2223.27 152.949 t 90 r /Helvetica-Bold findfont 37.9953 sf 0 0 m (U/O\255flow \(S,B\): \(0.0, 0.0\)% / \(0.0, 0.0\)%) show NC gr  0.490196 0.545098 0.615686 c 0.364706 0.419608 0.490196 c 606 60 1167 964 bf 0.490196
 0.545098 0.615686 c 1167 964 m 606 X s 1773 964 m 60 Y s 1773 1024 m -606 X s 1167 1024 m -60 Y s 1 1 1 c black 1 1 1 c
 gsave  1088 1019 1157 10 C 1198.33 982.172 t 0 r /Helvetica-Bold findfont 45.5943 sf 0 0 m (Input variable: Variable 2) show NC gr 
 gr  gr showpage
end
%%EOF
