%!PS-Adobe-2.0 EPSF-2.0
%%BoundingBox:  0 0 567 260
%%Title: dataset/plots/variables_pca_c1.eps: Input variables 'PCA'-transformed (training sample)
%%Creator: ROOT Version 6.12/06
%%CreationDate: Mon May 21 12:06:44 2018
%%DocumentNeededResources: ProcSet (FontSetInit)
%%EndComments
%%BeginProlog
80 dict begin
/s {stroke} def /l {lineto} def /m {moveto} def /t {translate} def
/r {rotate} def /rl {roll}  def /R {repeat} def
/d {rlineto} def /rm {rmoveto} def /gr {grestore} def /f {eofill} def
/c {setrgbcolor} def /black {0 setgray} def /sd {setdash} def
/cl {closepath} def /sf {scalefont setfont} def /lw {setlinewidth} def
/box {m dup 0 exch d exch 0 d 0 exch neg d cl} def
/NC{systemdict begin initclip end}def/C{NC box clip newpath}def
/bl {box s} def /bf {gsave box gsave f grestore 1 lw [] 0 sd s grestore} def /Y { 0 exch d} def /X { 0 d} def 
/K {{pop pop 0 moveto} exch kshow} bind def
/ita {/ang 15 def gsave [1 0 ang dup sin exch cos div 1 0 0] concat} def 
/mp {newpath /y exch def /x exch def} def
/side {[w .77 mul w .23 mul] .385 w mul sd w 0 l currentpoint t -144 r} def
/mr {mp x y w2 0 360 arc} def /m24 {mr s} def /m20 {mr f} def
/mb {mp x y w2 add m w2 neg 0 d 0 w neg d w 0 d 0 w d cl} def
/mt {mp x y w2 add m w2 neg w neg d w 0 d cl} def
/w4 {w 4 div} def
/w6 {w 6 div} def
/w8 {w 8 div} def
/m21 {mb f} def /m25 {mb s} def /m22 {mt f} def /m26{mt s} def
/m23 {mp x y w2 sub m w2 w d w neg 0 d cl f} def
/m27 {mp x y w2 add m w3 neg w2 neg d w3 w2 neg d w3 w2 d cl s} def
/m28 {mp x w2 sub y w2 sub w3 add m w3 0 d  0 w3 neg d w3 0 d 0 w3 d w3 0 d  0 w3 d w3 neg 0 d 0 w3 d w3 neg 0 d 0 w3 neg d w3 neg 0 d cl s } def
/m29 {mp gsave x w2 sub y w2 add w3 sub m currentpoint t 4 {side} repeat cl fill gr} def
/m30 {mp gsave x w2 sub y w2 add w3 sub m currentpoint t 4 {side} repeat cl s gr} def
/m31 {mp x y w2 sub m 0 w d x w2 sub y m w 0 d x w2 sub y w2 add m w w neg d x w2 sub y w2 sub m w w d s} def
/m32 {mp x y w2 sub m w2 w d w neg 0 d cl s} def
/m33 {mp x y w2 add m w3 neg w2 neg d w3 w2 neg d w3 w2 d cl f} def
/m34 {mp x w2 sub y w2 sub w3 add m w3 0 d  0 w3 neg d w3 0 d 0 w3 d w3 0 d  0 w3 d w3 neg 0 d 0 w3 d w3 neg 0 d 0 w3 neg d w3 neg 0 d cl f } def
/m35 {mp x y w2 add m w2 neg w2 neg d w2 w2 neg d w2 w2 d w2 neg w2 d x y w2 sub m 0 w d x w2 sub y m w 0 d s} def
/m36 {mb x w2 sub y w2 add m w w neg d x w2 sub y w2 sub m w w d s} def
/m37 {mp x y m w4 neg w2 d w4 neg w2 neg d w2 0 d  w4 neg w2 neg d w2 0 d w4 neg w2 d w2 0 d w4 neg w2 d w4 neg w2 neg d cl s} def
/m38 {mp x w4 sub y w2 add m w4 neg w4 neg d 0 w2 neg d w4 w4 neg d w2 0 d w4 w4 d 0 w2 d w4 neg w4 d w2 neg 0 d x y w2 sub m 0 w d x w2 sub y m w 0 d cl s} def
/m39 {mp x y m w4 neg w2 d w4 neg w2 neg d w2 0 d  w4 neg w2 neg d w2 0 d w4 neg w2 d w2 0 d w4 neg w2 d w4 neg w2 neg d cl f} def
/m40 {mp x y m w4 w2 d w4 w4 neg d w2 neg w4 neg d w2 w4 neg d w4 neg w4 neg d w4 neg w2 d w4 neg w2 neg d w4 neg w4 d w2 w4 d w2 neg w4 d w4 w4 d w4 w2 neg d cl s} def
/m41 {mp x y m w4 w2 d w4 w4 neg d w2 neg w4 neg d w2 w4 neg d w4 neg w4 neg d w4 neg w2 d w4 neg w2 neg d w4 neg w4 d w2 w4 d w2 neg w4 d w4 w4 d w4 w2 neg d cl f} def
/m42 {mp x y w2 add m w8 neg w2 -3 4 div mul d w2 -3 4 div mul w8 neg d w2 3 4 div mul w8 neg d w8 w2 -3 4 div mul d w8 w2 3 4 div mul d w2 3 4 div mul w8 d w2 -3 4 div mul w8 d w8 neg w2 3 4 div mul d cl s} def
/m43 {mp x y w2 add m w8 neg w2 -3 4 div mul d w2 -3 4 div mul w8 neg d w2 3 4 div mul w8 neg d w8 w2 -3 4 div mul d w8 w2 3 4 div mul d w2 3 4 div mul w8 d w2 -3 4 div mul w8 d w8 neg w2 3 4 div mul d cl f} def
/m44 {mp x y m w6 neg w2 d w2 2 3 div mul 0 d w6 neg w2 neg d w2 w6 d 0 w2 -2 3 div mul d w2 neg w6 d w6 w2 neg d w2 -2 3 div mul 0 d w6 w2 d w2 neg w6 neg d 0 w2 2 3 div mul d w2 w6 neg d cl s} def
/m45 {mp x y m w6 neg w2 d w2 2 3 div mul 0 d w6 neg w2 neg d w2 w6 d 0 w2 -2 3 div mul d w2 neg w6 d w6 w2 neg d w2 -2 3 div mul 0 d w6 w2 d w2 neg w6 neg d 0 w2 2 3 div mul d w2 w6 neg d cl f} def
/m46 {mp x y w4 add m w4 neg w4 d w4 neg w4 neg d  w4 w4 neg d w4 neg w4 neg d w4 w4 neg d w4 w4 d w4 w4 neg d w4 w4 d w4 neg w4 d w4 w4 d w4 neg w4 d w4 neg w4 neg d cl s} def
/m47 {mp x y w4 add m w4 neg w4 d w4 neg w4 neg d w4 w4 neg d w4 neg w4 neg d  w4 w4 neg d w4 w4 d w4 w4 neg d w4 w4 d w4 neg w4 d w4 w4 d w4 neg w4 d w4 neg w4 neg d cl f} def
/m48 {mp x y w4 add m w4 neg w4 d w4 neg w4 neg d w4 w4 neg d  w4 neg w4 neg d w4 w4 neg d w4 w4 d w4 w4 neg d w4 w4 d w4 neg w4 d w4 w4 d w4 neg w4 d w4 neg w4 neg d  w4 w4 neg d w4 neg w4 neg d w4 neg w4 d w4 w4 d cl f} def
/m49 {mp x w2 sub w3 add y w2 sub w3 add m  0 w3 neg d w3 0 d 0 w3 d w3 0 d 0 w3 d w3 neg 0 d 0 w3 d w3 neg 0 d 0 w3 neg d w3 neg 0 d 0 w3 neg d w3 0 d 0 w3 d w3 0 d 0 w3 neg d w3 neg 0 d cl f } def
/m2 {mp x y w2 sub m 0 w d x w2 sub y m w 0 d s} def
/m5 {mp x w2 sub y w2 sub m w w d x w2 sub y w2 add m w w neg d s} def
%%IncludeResource: ProcSet (FontSetInit)
%%IncludeResource: font Times-Roman
%%IncludeResource: font Times-Italic
%%IncludeResource: font Times-Bold
%%IncludeResource: font Times-BoldItalic
%%IncludeResource: font Helvetica
%%IncludeResource: font Helvetica-Oblique
%%IncludeResource: font Helvetica-Bold
%%IncludeResource: font Helvetica-BoldOblique
%%IncludeResource: font Courier
%%IncludeResource: font Courier-Oblique
%%IncludeResource: font Courier-Bold
%%IncludeResource: font Courier-BoldOblique
%%IncludeResource: font Symbol
%%IncludeResource: font ZapfDingbats
/reEncode {exch findfont dup length dict begin {1 index /FID eq  {pop pop} {def} ifelse } forall /Encoding exch def currentdict end dup /FontName get exch definefont pop } def [/Times-Bold /Times-Italic /Times-BoldItalic /Helvetica /Helvetica-Oblique
 /Helvetica-Bold /Helvetica-BoldOblique /Courier /Courier-Oblique /Courier-Bold /Courier-BoldOblique /Times-Roman /AvantGarde-Book /AvantGarde-BookOblique /AvantGarde-Demi /AvantGarde-DemiOblique /Bookman-Demi /Bookman-DemiItalic /Bookman-Light
 /Bookman-LightItalic /Helvetica-Narrow /Helvetica-Narrow-Bold /Helvetica-Narrow-BoldOblique /Helvetica-Narrow-Oblique /NewCenturySchlbk-Roman /NewCenturySchlbk-Bold /NewCenturySchlbk-BoldItalic /NewCenturySchlbk-Italic /Palatino-Bold
 /Palatino-BoldItalic /Palatino-Italic /Palatino-Roman ] {ISOLatin1Encoding reEncode } forall
%%EndProlog
%%BeginSetup
%%EndSetup
newpath  gsave  .25 .25 scale  gsave  0 0 t 0.490196 0.545098 0.615686 c[  ] 0 sd 3 lw 0.941176 0.941176 0.941176 c 2268 1039 0 0 bf 0.490196 0.545098 0.615686 c 0.941176 0.941176 0.941176 c 1088 1019 23 10 bf black 1 1 0.992157 c 838 770 208 157 bf
 black 838 770 208 157 bl 1 1 0.992157 c 838 770 208 157 bf black 838 770 208 157 bl 0 0 0.933333 c 6 lw 0.49 0.6 0.82 c black 3 lw 0.49 0.6 0.82 c 208 157 m 440 X 1 Y 42 X 28 Y 21 X 95 Y 21 X 236 Y 21 X 232 Y 20 X -80 Y 21 X -252 Y 21 X -186 Y 21 X
 -65 Y 21 X -7 Y 21 X -2 Y 168 X f 6 lw 0 0 0.933333 c 0.49 0.6 0.82 c 0 0 0.933333 c 208 157 m 440 X 1 Y 42 X 28 Y 21 X 95 Y 21 X 236 Y 21 X 232 Y 20 X -80 Y 21 X -252 Y 21 X -186 Y 21 X -65 Y 21 X -7 Y 21 X -2 Y 168 X s black 3 lw 208 157 m 838 X s
 328 181 m -24 Y s 360 169 m -12 Y s 393 169 m -12 Y s 426 169 m -12 Y s 459 181 m -24 Y s 492 169 m -12 Y s 525 169 m -12 Y s 558 169 m -12 Y s 591 181 m -24 Y s 624 169 m -12 Y s 657 169 m -12 Y s 690 169 m -12 Y s 722 181 m -24 Y s 755 169 m -12 Y
 s 788 169 m -12 Y s 821 169 m -12 Y s 854 181 m -24 Y s 887 169 m -12 Y s 920 169 m -12 Y s 953 169 m -12 Y s 986 181 m -24 Y s 328 181 m -24 Y s 295 169 m -12 Y s 262 169 m -12 Y s 229 169 m -12 Y s 986 181 m -24 Y s 1019 169 m -12 Y s
 gsave  1088 1019 23 10 C 322.334 106.181 t 0 r /Helvetica findfont 45.5943 sf 0 0 m (6) show NC gr 
 gsave  1088 1019 23 10 C 299.581 106.181 t 0 r /Symbol findfont 45.5943 sf 0 0 m (-) show NC gr 
 gsave  1088 1019 23 10 C 455.06 106.181 t 0 r /Helvetica findfont 45.5943 sf 0 0 m (4) show NC gr 
 gsave  1088 1019 23 10 C 432.307 106.181 t 0 r /Symbol findfont 45.5943 sf 0 0 m (-) show NC gr 
 gsave  1088 1019 23 10 C 583.994 106.181 t 0 r /Helvetica findfont 45.5943 sf 0 0 m (2) show NC gr 
 gsave  1088 1019 23 10 C 561.241 106.181 t 0 r /Symbol findfont 45.5943 sf 0 0 m (-) show NC gr 
 gsave  1088 1019 23 10 C 705.343 106.181 t 0 r /Helvetica findfont 45.5943 sf 0 0 m (0) show NC gr 
 gsave  1088 1019 23 10 C 838.069 106.181 t 0 r /Helvetica findfont 45.5943 sf 0 0 m (2) show NC gr 
 gsave  1088 1019 23 10 C 967.003 106.181 t 0 r /Helvetica findfont 45.5943 sf 0 0 m (4) show NC gr 
 gsave  1088 1019 23 10 C 553.657 30.3373 t 0 r /Helvetica findfont 53.1934 sf 0 0 m (Variable 1 \(PCA\)  [F]) show NC gr  208 927 m 838 X s 328 903 m 24 Y s 360 915 m 12 Y s 393 915 m 12 Y s 426 915 m 12 Y s 459 903 m 24 Y s 492 915 m 12 Y s 525 915
 m 12 Y s 558 915 m 12 Y s 591 903 m 24 Y s 624 915 m 12 Y s 657 915 m 12 Y s 690 915 m 12 Y s 722 903 m 24 Y s 755 915 m 12 Y s 788 915 m 12 Y s 821 915 m 12 Y s 854 903 m 24 Y s 887 915 m 12 Y s 920 915 m 12 Y s 953 915 m 12 Y s 986 903 m 24 Y s
 328 903 m 24 Y s 295 915 m 12 Y s 262 915 m 12 Y s 229 915 m 12 Y s 986 903 m 24 Y s 1019 915 m 12 Y s 208 157 m 770 Y s 232 157 m -24 X s 220 188 m -12 X s 220 220 m -12 X s 220 251 m -12 X s 232 282 m -24 X s 220 313 m -12 X s 220 345 m -12 X s
 220 376 m -12 X s 232 407 m -24 X s 220 439 m -12 X s 220 470 m -12 X s 220 501 m -12 X s 232 532 m -24 X s 220 564 m -12 X s 220 595 m -12 X s 220 626 m -12 X s 232 657 m -24 X s 220 689 m -12 X s 220 720 m -12 X s 220 751 m -12 X s 232 783 m -24 X
 s 220 814 m -12 X s 220 845 m -12 X s 220 876 m -12 X s 232 908 m -24 X s 232 908 m -24 X s
 gsave  1088 1019 23 10 C 166.855 140.31 t 0 r /Helvetica findfont 45.5943 sf 0 0 m (0) show NC gr 
 gsave  1088 1019 23 10 C 128.934 265.452 t 0 r /Helvetica findfont 45.5943 sf 0 0 m (0.2) show NC gr 
 gsave  1088 1019 23 10 C 128.934 390.593 t 0 r /Helvetica findfont 45.5943 sf 0 0 m (0.4) show NC gr 
 gsave  1088 1019 23 10 C 128.934 515.735 t 0 r /Helvetica findfont 45.5943 sf 0 0 m (0.6) show NC gr 
 gsave  1088 1019 23 10 C 128.934 640.876 t 0 r /Helvetica findfont 45.5943 sf 0 0 m (0.8) show NC gr 
 gsave  1088 1019 23 10 C 174.44 766.018 t 0 r /Helvetica findfont 45.5943 sf 0 0 m (1) show NC gr 
 gsave  1088 1019 23 10 C 128.934 891.159 t 0 r /Helvetica findfont 45.5943 sf 0 0 m (1.2) show NC gr 
 gsave  1088 1019 23 10 C 60.6747 750.849 t 90 r /Helvetica findfont 53.1934 sf 0 0 m (0.318 F) show NC gr 
 gsave  1088 1019 23 10 C 37.9217 739.473 t 90 r /Helvetica findfont 34.1957 sf 0 0 m ( ) show NC gr 
 gsave  1088 1019 23 10 C 60.6747 720.512 t 90 r /Helvetica findfont 53.1934 sf 0 0 m (/) show NC gr 
 gsave  1088 1019 23 10 C 72.0512 709.135 t 90 r /Helvetica findfont 34.1957 sf 0 0 m ( ) show NC gr 
 gsave  1088 1019 23 10 C 60.6747 511.943 t 90 r /Helvetica findfont 53.1934 sf 0 0 m (\(1/N\) dN) show NC gr  1046 157 m 770 Y s 1021 157 m 25 X s 1034 188 m 12 X s 1034 220 m 12 X s 1034 251 m 12 X s 1021 282 m 25 X s 1034 313 m 12 X s 1034 345 m
 12 X s 1034 376 m 12 X s 1021 407 m 25 X s 1034 439 m 12 X s 1034 470 m 12 X s 1034 501 m 12 X s 1021 532 m 25 X s 1034 564 m 12 X s 1034 595 m 12 X s 1034 626 m 12 X s 1021 657 m 25 X s 1034 689 m 12 X s 1034 720 m 12 X s 1034 751 m 12 X s 1021 783
 m 25 X s 1034 814 m 12 X s 1034 845 m 12 X s 1034 876 m 12 X s 1021 908 m 25 X s 1021 908 m 25 X s 1 0 0 c 6 lw black 3 lw 1 0 0 c 1023 157 m s 1000 157 m s 978 157 m -1 X s 954 157 m s 932 158 m -1 -1 d s 910 159 m -2 -2 d s 886 158 m -1 -1 d s 863
 159 m -1 -2 d s 849 167 m -10 -10 d s 835 177 m -19 -20 d s 815 180 m -22 -23 d s 815 203 m -46 -46 d s 810 220 m -64 -63 d s 794 228 m -71 -71 d s 794 251 m -94 -94 d s 794 275 m -62 -63 d s 715 195 m -4 -4 d s 709 189 m -32 -32 d s 794 298 m -41
 -42 d s 740 243 m -8 -8 d s 683 186 m -29 -29 d s 794 321 m -41 -42 d s 657 183 m -26 -26 d s 794 344 m -41 -42 d s 641 190 m -33 -33 d s 794 367 m -41 -42 d s 627 199 m -42 -42 d s 794 390 m -41 -42 d s 627 222 m -65 -65 d s 794 413 m -41 -42 d s
 606 225 m -67 -68 d s 794 436 m -41 -42 d s 606 248 m -63 -63 d s 540 181 m -25 -24 d s 794 460 m -41 -42 d s 606 271 m -63 -63 d s 495 159 m -3 -2 d s 794 483 m -41 -42 d s 606 294 m -42 -42 d s 559 247 m -16 -16 d s 471 159 m -2 -2 d s 794 506 m
 -41 -42 d s 606 317 m -42 -42 d s 447 158 m -1 -1 d s 787 521 m -14 -13 d s 761 496 m -8 -9 d s 606 340 m -42 -42 d s 426 160 m -3 -3 d s 606 363 m -42 -42 d s 400 157 m s 606 386 m -42 -42 d s 377 157 m s 585 388 m -21 -21 d s 355 158 m -1 -1 d s
 585 412 m -21 -21 d s 331 157 m s 585 435 m -21 -21 d s 308 157 m s 585 458 m -21 -21 d s 285 157 m cl s 585 481 m -21 -21 d s 261 157 m cl s 585 504 m -21 -21 d s 238 157 m s 585 527 m -21 -21 d s 216 157 m -1 X s 585 550 m -21 -21 d s 585 573 m
 -21 -21 d s 585 597 m -21 -21 d s 585 620 m -21 -21 d s 585 643 m -21 -21 d s 566 647 m -2 -2 d s 6 lw 208 157 m 125 X 1 Y 42 X -1 Y 42 X 3 Y 21 X -2 Y 21 X 1 Y 42 X 5 Y 21 X 17 Y 21 X 66 Y 21 X 400 Y 21 X -261 Y 21 X -161 Y 21 X -35 Y 21 X -7 Y 21
 X 3 Y 21 X 3 Y 21 X 6 Y 21 X 48 Y 21 X 253 Y 20 X 25 Y 21 X -301 Y 21 X -43 Y 21 X -10 Y 21 X -8 Y 21 X -1 Y 21 X 1 Y 21 X -1 Y 21 X -1 Y 105 X s 0.490196 0.545098 0.615686 c 3 lw 1 1 1 c 0.490196 0.545098 0.615686 c 435 153 208 774 bl 208 774 m 435
 X s 643 774 m 153 Y s 643 927 m -435 X s 208 927 m -153 Y s black
 gsave  1088 1019 23 10 C 337.503 872.199 t 0 r /Helvetica-Bold findfont 49.3938 sf 0 0 m (Signal) show NC gr  0.49 0.6 0.82 c 227 862 m 92 X 53 Y -92 X f 0 0 0.933333 c 6 lw 227 915 m 92 X s 227 862 m 92 X s 319 862 m 53 Y s 227 862 m 53 Y s black
 gsave  1088 1019 23 10 C 337.503 796.355 t 0 r /Helvetica-Bold findfont 49.3938 sf 0 0 m (Background) show NC gr  1 0 0 c 3 lw 319 793 m -7 -7 d s 319 816 m -30 -30 d s 319 839 m -53 -53 d s 296 839 m -54 -53 d s 273 839 m -46 -45 d s 250 839 m -23
 -22 d s 6 lw 0 0 0.933333 c 1 0 0 c 227 839 m 92 X s 227 786 m 92 X s 319 786 m 53 Y s 227 786 m 53 Y s black 3 lw 208 157 m 838 X s 328 181 m -24 Y s 360 169 m -12 Y s 393 169 m -12 Y s 426 169 m -12 Y s 459 181 m -24 Y s 492 169 m -12 Y s 525 169
 m -12 Y s 558 169 m -12 Y s 591 181 m -24 Y s 624 169 m -12 Y s 657 169 m -12 Y s 690 169 m -12 Y s 722 181 m -24 Y s 755 169 m -12 Y s 788 169 m -12 Y s 821 169 m -12 Y s 854 181 m -24 Y s 887 169 m -12 Y s 920 169 m -12 Y s 953 169 m -12 Y s 986
 181 m -24 Y s 328 181 m -24 Y s 295 169 m -12 Y s 262 169 m -12 Y s 229 169 m -12 Y s 986 181 m -24 Y s 1019 169 m -12 Y s 208 927 m 838 X s 328 903 m 24 Y s 360 915 m 12 Y s 393 915 m 12 Y s 426 915 m 12 Y s 459 903 m 24 Y s 492 915 m 12 Y s 525
 915 m 12 Y s 558 915 m 12 Y s 591 903 m 24 Y s 624 915 m 12 Y s 657 915 m 12 Y s 690 915 m 12 Y s 722 903 m 24 Y s 755 915 m 12 Y s 788 915 m 12 Y s 821 915 m 12 Y s 854 903 m 24 Y s 887 915 m 12 Y s 920 915 m 12 Y s 953 915 m 12 Y s 986 903 m 24 Y
 s 328 903 m 24 Y s 295 915 m 12 Y s 262 915 m 12 Y s 229 915 m 12 Y s 986 903 m 24 Y s 1019 915 m 12 Y s 208 157 m 770 Y s 232 157 m -24 X s 220 188 m -12 X s 220 220 m -12 X s 220 251 m -12 X s 232 282 m -24 X s 220 313 m -12 X s 220 345 m -12 X s
 220 376 m -12 X s 232 407 m -24 X s 220 439 m -12 X s 220 470 m -12 X s 220 501 m -12 X s 232 532 m -24 X s 220 564 m -12 X s 220 595 m -12 X s 220 626 m -12 X s 232 657 m -24 X s 220 689 m -12 X s 220 720 m -12 X s 220 751 m -12 X s 232 783 m -24 X
 s 220 814 m -12 X s 220 845 m -12 X s 220 876 m -12 X s 232 908 m -24 X s 232 908 m -24 X s 1046 157 m 770 Y s 1021 157 m 25 X s 1034 188 m 12 X s 1034 220 m 12 X s 1034 251 m 12 X s 1021 282 m 25 X s 1034 313 m 12 X s 1034 345 m 12 X s 1034 376 m
 12 X s 1021 407 m 25 X s 1034 439 m 12 X s 1034 470 m 12 X s 1034 501 m 12 X s 1021 532 m 25 X s 1034 564 m 12 X s 1034 595 m 12 X s 1034 626 m 12 X s 1021 657 m 25 X s 1034 689 m 12 X s 1034 720 m 12 X s 1034 751 m 12 X s 1021 783 m 25 X s 1034 814
 m 12 X s 1034 845 m 12 X s 1034 876 m 12 X s 1021 908 m 25 X s 1021 908 m 25 X s
 gsave  1088 1019 23 10 C 1089.41 152.949 t 90 r /Helvetica-Bold findfont 37.9953 sf 0 0 m (U/O\255flow \(S,B\): \(0.0, 0.0\)% / \(0.0, 0.0\)%) show NC gr  0.490196 0.545098 0.615686 c 0.364706 0.419608 0.490196 c 762 60 34 964 bf 0.490196 0.545098
 0.615686 c 34 964 m 762 X s 796 964 m 60 Y s 796 1024 m -762 X s 34 1024 m -60 Y s 1 1 1 c black 1 1 1 c
 gsave  1088 1019 23 10 C 56.8825 985.964 t 0 r /Helvetica-Bold findfont 34.1957 sf 0 0 m (Input variable'PCA'\255transformed : Variable 1) show NC gr  0.490196 0.545098 0.615686 c 0.941176 0.941176 0.941176 c 1088 1019 1157 10 bf black 1 1 0.992157
 c 838 770 1342 157 bf black 838 770 1342 157 bl 1 1 0.992157 c 838 770 1342 157 bf black 838 770 1342 157 bl 0 0 0.933333 c 6 lw 0.49 0.6 0.82 c black 3 lw 0.49 0.6 0.82 c 1342 157 m 5 Y 21 X -5 Y 20 X 5 Y 21 X -2 Y 21 X 6 Y 21 X 8 Y 21 X 7 Y 21 X
 17 Y 21 X 23 Y 21 X -3 Y 21 X 68 Y 21 X 51 Y 21 X 27 Y 21 X 53 Y 21 X 74 Y 21 X 76 Y 21 X 59 Y 21 X 69 Y 21 X 17 Y 21 X 85 Y 21 X -59 Y 21 X 14 Y 21 X -63 Y 21 X -61 Y 20 X -80 Y 21 X -69 Y 21 X -52 Y 21 X -79 Y 21 X -1 Y 21 X -64 Y 21 X -41 Y 21 X
 -43 Y 21 X 2 Y 21 X -20 Y 21 X -8 Y 21 X -10 Y 21 X -1 Y 21 X -3 Y 63 X -2 Y f 6 lw 0 0 0.933333 c 0.49 0.6 0.82 c 0 0 0.933333 c 1342 162 m 21 X -5 Y 20 X 5 Y 21 X -2 Y 21 X 6 Y 21 X 8 Y 21 X 7 Y 21 X 17 Y 21 X 23 Y 21 X -3 Y 21 X 68 Y 21 X 51 Y 21
 X 27 Y 21 X 53 Y 21 X 74 Y 21 X 76 Y 21 X 59 Y 21 X 69 Y 21 X 17 Y 21 X 85 Y 21 X -59 Y 21 X 14 Y 21 X -63 Y 21 X -61 Y 20 X -80 Y 21 X -69 Y 21 X -52 Y 21 X -79 Y 21 X -1 Y 21 X -64 Y 21 X -41 Y 21 X -43 Y 21 X 2 Y 21 X -20 Y 21 X -8 Y 21 X -10 Y
 21 X -1 Y 21 X -3 Y 63 X s black 3 lw 1342 157 m 838 X s 1412 181 m -24 Y s 1435 169 m -12 Y s 1458 169 m -12 Y s 1481 169 m -12 Y s 1504 169 m -12 Y s 1527 181 m -24 Y s 1549 169 m -12 Y s 1572 169 m -12 Y s 1595 169 m -12 Y s 1618 169 m -12 Y s
 1641 181 m -24 Y s 1664 169 m -12 Y s 1687 169 m -12 Y s 1710 169 m -12 Y s 1733 169 m -12 Y s 1755 181 m -24 Y s 1778 169 m -12 Y s 1801 169 m -12 Y s 1824 169 m -12 Y s 1847 169 m -12 Y s 1870 181 m -24 Y s 1893 169 m -12 Y s 1916 169 m -12 Y s
 1939 169 m -12 Y s 1961 169 m -12 Y s 1984 181 m -24 Y s 2007 169 m -12 Y s 2030 169 m -12 Y s 2053 169 m -12 Y s 2076 169 m -12 Y s 2099 181 m -24 Y s 1412 181 m -24 Y s 1389 169 m -12 Y s 1366 169 m -12 Y s 1343 169 m -12 Y s 2099 181 m -24 Y s
 2122 169 m -12 Y s 2144 169 m -12 Y s 2167 169 m -12 Y s
 gsave  1088 1019 1157 10 C 1406.89 106.181 t 0 r /Helvetica findfont 45.5943 sf 0 0 m (3) show NC gr 
 gsave  1088 1019 1157 10 C 1384.14 106.181 t 0 r /Symbol findfont 45.5943 sf 0 0 m (-) show NC gr 
 gsave  1088 1019 1157 10 C 1520.66 106.181 t 0 r /Helvetica findfont 45.5943 sf 0 0 m (2) show NC gr 
 gsave  1088 1019 1157 10 C 1497.91 106.181 t 0 r /Symbol findfont 45.5943 sf 0 0 m (-) show NC gr 
 gsave  1088 1019 1157 10 C 1638.22 106.181 t 0 r /Helvetica findfont 45.5943 sf 0 0 m (1) show NC gr 
 gsave  1088 1019 1157 10 C 1615.46 106.181 t 0 r /Symbol findfont 45.5943 sf 0 0 m (-) show NC gr 
 gsave  1088 1019 1157 10 C 1736.81 106.181 t 0 r /Helvetica findfont 45.5943 sf 0 0 m (0) show NC gr 
 gsave  1088 1019 1157 10 C 1858.16 106.181 t 0 r /Helvetica findfont 45.5943 sf 0 0 m (1) show NC gr 
 gsave  1088 1019 1157 10 C 1968.14 106.181 t 0 r /Helvetica findfont 45.5943 sf 0 0 m (2) show NC gr 
 gsave  1088 1019 1157 10 C 2081.9 106.181 t 0 r /Helvetica findfont 45.5943 sf 0 0 m (3) show NC gr 
 gsave  1088 1019 1157 10 C 1687.51 30.3373 t 0 r /Helvetica findfont 53.1934 sf 0 0 m (Variable 2 \(PCA\)  [F]) show NC gr  1342 927 m 838 X s 1412 903 m 24 Y s 1435 915 m 12 Y s 1458 915 m 12 Y s 1481 915 m 12 Y s 1504 915 m 12 Y s 1527 903 m 24 Y
 s 1549 915 m 12 Y s 1572 915 m 12 Y s 1595 915 m 12 Y s 1618 915 m 12 Y s 1641 903 m 24 Y s 1664 915 m 12 Y s 1687 915 m 12 Y s 1710 915 m 12 Y s 1733 915 m 12 Y s 1755 903 m 24 Y s 1778 915 m 12 Y s 1801 915 m 12 Y s 1824 915 m 12 Y s 1847 915 m 12
 Y s 1870 903 m 24 Y s 1893 915 m 12 Y s 1916 915 m 12 Y s 1939 915 m 12 Y s 1961 915 m 12 Y s 1984 903 m 24 Y s 2007 915 m 12 Y s 2030 915 m 12 Y s 2053 915 m 12 Y s 2076 915 m 12 Y s 2099 903 m 24 Y s 1412 903 m 24 Y s 1389 915 m 12 Y s 1366 915 m
 12 Y s 1343 915 m 12 Y s 2099 903 m 24 Y s 2122 915 m 12 Y s 2144 915 m 12 Y s 2167 915 m 12 Y s 1342 157 m 770 Y s 1366 157 m -24 X s 1354 186 m -12 X s 1354 214 m -12 X s 1354 243 m -12 X s 1354 272 m -12 X s 1366 301 m -24 X s 1354 329 m -12 X s
 1354 358 m -12 X s 1354 387 m -12 X s 1354 416 m -12 X s 1366 444 m -24 X s 1354 473 m -12 X s 1354 502 m -12 X s 1354 531 m -12 X s 1354 559 m -12 X s 1366 588 m -24 X s 1354 617 m -12 X s 1354 645 m -12 X s 1354 674 m -12 X s 1354 703 m -12 X s
 1366 732 m -24 X s 1354 760 m -12 X s 1354 789 m -12 X s 1354 818 m -12 X s 1354 847 m -12 X s 1366 875 m -24 X s 1366 875 m -24 X s 1354 904 m -12 X s
 gsave  1088 1019 1157 10 C 1300.71 140.31 t 0 r /Helvetica findfont 45.5943 sf 0 0 m (0) show NC gr 
 gsave  1088 1019 1157 10 C 1270.38 284.413 t 0 r /Helvetica findfont 45.5943 sf 0 0 m (0.1) show NC gr 
 gsave  1088 1019 1157 10 C 1262.79 428.515 t 0 r /Helvetica findfont 45.5943 sf 0 0 m (0.2) show NC gr 
 gsave  1088 1019 1157 10 C 1262.79 572.617 t 0 r /Helvetica findfont 45.5943 sf 0 0 m (0.3) show NC gr 
 gsave  1088 1019 1157 10 C 1262.79 712.928 t 0 r /Helvetica findfont 45.5943 sf 0 0 m (0.4) show NC gr 
 gsave  1088 1019 1157 10 C 1262.79 857.03 t 0 r /Helvetica findfont 45.5943 sf 0 0 m (0.5) show NC gr 
 gsave  1088 1019 1157 10 C 1198.33 750.849 t 90 r /Helvetica findfont 53.1934 sf 0 0 m (0.183 F) show NC gr 
 gsave  1088 1019 1157 10 C 1171.78 739.473 t 90 r /Helvetica findfont 34.1957 sf 0 0 m ( ) show NC gr 
 gsave  1088 1019 1157 10 C 1198.33 720.512 t 90 r /Helvetica findfont 53.1934 sf 0 0 m (/) show NC gr 
 gsave  1088 1019 1157 10 C 1209.7 709.135 t 90 r /Helvetica findfont 34.1957 sf 0 0 m ( ) show NC gr 
 gsave  1088 1019 1157 10 C 1198.33 511.943 t 90 r /Helvetica findfont 53.1934 sf 0 0 m (\(1/N\) dN) show NC gr  2180 157 m 770 Y s 2155 157 m 25 X s 2167 186 m 13 X s 2167 214 m 13 X s 2167 243 m 13 X s 2167 272 m 13 X s 2155 301 m 25 X s 2167 329 m
 13 X s 2167 358 m 13 X s 2167 387 m 13 X s 2167 416 m 13 X s 2155 444 m 25 X s 2167 473 m 13 X s 2167 502 m 13 X s 2167 531 m 13 X s 2167 559 m 13 X s 2155 588 m 25 X s 2167 617 m 13 X s 2167 645 m 13 X s 2167 674 m 13 X s 2167 703 m 13 X s 2155 732
 m 25 X s 2167 760 m 13 X s 2167 789 m 13 X s 2167 818 m 13 X s 2167 847 m 13 X s 2155 875 m 25 X s 2155 875 m 25 X s 2167 904 m 13 X s 1 0 0 c 6 lw black 3 lw 1 0 0 c 2157 157 m s 2134 157 m s 2111 157 m s 2088 157 m s 2065 157 m s 2042 157 m s 2019
 157 m s 1996 157 m s 1973 157 m s 1951 159 m -2 -2 d s 1937 168 m -11 -11 d s 1928 182 m -25 -25 d s 1928 205 m -48 -48 d s 1926 226 m -69 -69 d s 1907 230 m -73 -73 d s 1907 254 m -96 -97 d s 1907 277 m -119 -120 d s 1907 300 m -142 -143 d s 1907
 323 m -165 -166 d s 1907 346 m -188 -189 d s 1902 364 m -207 -207 d s 1886 371 m -214 -214 d s 1886 394 m -237 -237 d s 1886 418 m -260 -261 d s 1886 441 m -283 -284 d s 1886 464 m -306 -307 d s 1886 487 m -329 -330 d s 1886 510 m -314 -315 d s 1554
 177 m -3 -3 d s 1537 160 m -3 -3 d s 1870 516 m -277 -277 d s 1586 232 m -14 -14 d s 1511 157 m s 1865 535 m -272 -272 d s 1488 157 m s 1865 558 m -272 -272 d s 1465 157 m s 1865 582 m -251 -252 d s 1612 328 m -19 -19 d s 1441 157 m cl s 1859 598 m
 -245 -245 d s 1418 157 m s 1844 607 m -230 -231 d s 1395 157 m cl s 1844 630 m -230 -231 d s 1372 157 m s 1844 653 m -230 -231 d s 1349 157 m s 1844 676 m -230 -231 d s 1844 699 m -230 -230 d s 1844 723 m -230 -231 d s 1844 746 m -209 -210 d s 1623
 524 m -9 -9 d s 1834 758 m -199 -199 d s 1824 771 m -168 -168 d s 1646 593 m -11 -11 d s 1824 794 m -168 -168 d s 1816 810 m -160 -161 d s 1782 799 m -126 -127 d s 1768 808 m -7 -8 d s 1746 786 m -69 -69 d s 1659 698 m -3 -2 d s 1740 803 m -21 -21 d
 s 1717 780 m -40 -40 d s 1740 826 m -21 -21 d s 1698 784 m -21 -21 d s 1740 849 m -21 -21 d s 1691 800 m -14 -14 d s 1725 857 m -6 -6 d s 6 lw 1342 157 m 188 X 3 Y 21 X 17 Y 21 X 55 Y 21 X 96 Y 21 X 196 Y 21 X 69 Y 21 X 105 Y 21 X 102 Y 21 X -20 Y
 21 X 77 Y 21 X -71 Y 21 X 22 Y 21 X -9 Y 21 X 11 Y 21 X -52 Y 20 X -160 Y 21 X -82 Y 21 X -152 Y 21 X -138 Y 21 X -58 Y 21 X -9 Y 21 X -2 Y 210 X s black 3 lw 1342 157 m 838 X s 1412 181 m -24 Y s 1435 169 m -12 Y s 1458 169 m -12 Y s 1481 169 m -12
 Y s 1504 169 m -12 Y s 1527 181 m -24 Y s 1549 169 m -12 Y s 1572 169 m -12 Y s 1595 169 m -12 Y s 1618 169 m -12 Y s 1641 181 m -24 Y s 1664 169 m -12 Y s 1687 169 m -12 Y s 1710 169 m -12 Y s 1733 169 m -12 Y s 1755 181 m -24 Y s 1778 169 m -12 Y
 s 1801 169 m -12 Y s 1824 169 m -12 Y s 1847 169 m -12 Y s 1870 181 m -24 Y s 1893 169 m -12 Y s 1916 169 m -12 Y s 1939 169 m -12 Y s 1961 169 m -12 Y s 1984 181 m -24 Y s 2007 169 m -12 Y s 2030 169 m -12 Y s 2053 169 m -12 Y s 2076 169 m -12 Y s
 2099 181 m -24 Y s 1412 181 m -24 Y s 1389 169 m -12 Y s 1366 169 m -12 Y s 1343 169 m -12 Y s 2099 181 m -24 Y s 2122 169 m -12 Y s 2144 169 m -12 Y s 2167 169 m -12 Y s 1342 927 m 838 X s 1412 903 m 24 Y s 1435 915 m 12 Y s 1458 915 m 12 Y s 1481
 915 m 12 Y s 1504 915 m 12 Y s 1527 903 m 24 Y s 1549 915 m 12 Y s 1572 915 m 12 Y s 1595 915 m 12 Y s 1618 915 m 12 Y s 1641 903 m 24 Y s 1664 915 m 12 Y s 1687 915 m 12 Y s 1710 915 m 12 Y s 1733 915 m 12 Y s 1755 903 m 24 Y s 1778 915 m 12 Y s
 1801 915 m 12 Y s 1824 915 m 12 Y s 1847 915 m 12 Y s 1870 903 m 24 Y s 1893 915 m 12 Y s 1916 915 m 12 Y s 1939 915 m 12 Y s 1961 915 m 12 Y s 1984 903 m 24 Y s 2007 915 m 12 Y s 2030 915 m 12 Y s 2053 915 m 12 Y s 2076 915 m 12 Y s 2099 903 m 24 Y
 s 1412 903 m 24 Y s 1389 915 m 12 Y s 1366 915 m 12 Y s 1343 915 m 12 Y s 2099 903 m 24 Y s 2122 915 m 12 Y s 2144 915 m 12 Y s 2167 915 m 12 Y s 1342 157 m 770 Y s 1366 157 m -24 X s 1354 186 m -12 X s 1354 214 m -12 X s 1354 243 m -12 X s 1354 272
 m -12 X s 1366 301 m -24 X s 1354 329 m -12 X s 1354 358 m -12 X s 1354 387 m -12 X s 1354 416 m -12 X s 1366 444 m -24 X s 1354 473 m -12 X s 1354 502 m -12 X s 1354 531 m -12 X s 1354 559 m -12 X s 1366 588 m -24 X s 1354 617 m -12 X s 1354 645 m
 -12 X s 1354 674 m -12 X s 1354 703 m -12 X s 1366 732 m -24 X s 1354 760 m -12 X s 1354 789 m -12 X s 1354 818 m -12 X s 1354 847 m -12 X s 1366 875 m -24 X s 1366 875 m -24 X s 1354 904 m -12 X s 2180 157 m 770 Y s 2155 157 m 25 X s 2167 186 m 13
 X s 2167 214 m 13 X s 2167 243 m 13 X s 2167 272 m 13 X s 2155 301 m 25 X s 2167 329 m 13 X s 2167 358 m 13 X s 2167 387 m 13 X s 2167 416 m 13 X s 2155 444 m 25 X s 2167 473 m 13 X s 2167 502 m 13 X s 2167 531 m 13 X s 2167 559 m 13 X s 2155 588 m
 25 X s 2167 617 m 13 X s 2167 645 m 13 X s 2167 674 m 13 X s 2167 703 m 13 X s 2155 732 m 25 X s 2167 760 m 13 X s 2167 789 m 13 X s 2167 818 m 13 X s 2167 847 m 13 X s 2155 875 m 25 X s 2155 875 m 25 X s 2167 904 m 13 X s
 gsave  1088 1019 1157 10 C 2223.27 152.949 t 90 r /Helvetica-Bold findfont 37.9953 sf 0 0 m (U/O\255flow \(S,B\): \(0.0, 0.0\)% / \(0.0, 0.0\)%) show NC gr  0.490196 0.545098 0.615686 c 0.364706 0.419608 0.490196 c 762 60 1167 964 bf 0.490196
 0.545098 0.615686 c 1167 964 m 762 X s 1929 964 m 60 Y s 1929 1024 m -762 X s 1167 1024 m -60 Y s 1 1 1 c black 1 1 1 c
 gsave  1088 1019 1157 10 C 1190.74 985.964 t 0 r /Helvetica-Bold findfont 34.1957 sf 0 0 m (Input variable'PCA'\255transformed : Variable 2) show NC gr 
 gr  gr showpage
end
%%EOF
