<?xml version="1.0" encoding="utf-8" standalone="no"?>
<!DOCTYPE svg PUBLIC "-//W3C//DTD SVG 1.1//EN"
  "http://www.w3.org/Graphics/SVG/1.1/DTD/svg11.dtd">
<!-- Created with matplotlib (http://matplotlib.org/) -->
<svg height="277.314375pt" version="1.1" viewBox="0 0 401.278125 277.314375" width="401.278125pt" xmlns="http://www.w3.org/2000/svg" xmlns:xlink="http://www.w3.org/1999/xlink">
 <defs>
  <style type="text/css">
*{stroke-linecap:butt;stroke-linejoin:round;}
  </style>
 </defs>
 <g id="figure_1">
  <g id="patch_1">
   <path d="M 0 277.314375 
L 401.278125 277.314375 
L 401.278125 0 
L 0 0 
z
" style="fill:none;"/>
  </g>
  <g id="axes_1">
   <g id="patch_2">
    <path d="M 55.778125 239.758125 
L 390.578125 239.758125 
L 390.578125 22.318125 
L 55.778125 22.318125 
z
" style="fill:#ffffff;"/>
   </g>
   <g id="matplotlib.axis_1">
    <g id="xtick_1">
     <g id="line2d_1">
      <path clip-path="url(#pf103af42ea)" d="M 70.996307 239.758125 
L 70.996307 22.318125 
" style="fill:none;stroke:#b0b0b0;stroke-dasharray:2.96,1.28;stroke-dashoffset:0;stroke-width:0.8;"/>
     </g>
     <g id="line2d_2">
      <defs>
       <path d="M 0 0 
L 0 3.5 
" id="med56f136b2" style="stroke:#000000;stroke-width:0.8;"/>
      </defs>
      <g>
       <use style="stroke:#000000;stroke-width:0.8;" x="70.996307" xlink:href="#med56f136b2" y="239.758125"/>
      </g>
     </g>
     <g id="text_1">
      <!-- $\mathdefault{10^{6}}$ -->
      <defs>
       <path d="M 12.40625 8.296875 
L 28.515625 8.296875 
L 28.515625 63.921875 
L 10.984375 60.40625 
L 10.984375 69.390625 
L 28.421875 72.90625 
L 38.28125 72.90625 
L 38.28125 8.296875 
L 54.390625 8.296875 
L 54.390625 0 
L 12.40625 0 
z
" id="DejaVuSans-31"/>
       <path d="M 31.78125 66.40625 
Q 24.171875 66.40625 20.328125 58.90625 
Q 16.5 51.421875 16.5 36.375 
Q 16.5 21.390625 20.328125 13.890625 
Q 24.171875 6.390625 31.78125 6.390625 
Q 39.453125 6.390625 43.28125 13.890625 
Q 47.125 21.390625 47.125 36.375 
Q 47.125 51.421875 43.28125 58.90625 
Q 39.453125 66.40625 31.78125 66.40625 
z
M 31.78125 74.21875 
Q 44.046875 74.21875 50.515625 64.515625 
Q 56.984375 54.828125 56.984375 36.375 
Q 56.984375 17.96875 50.515625 8.265625 
Q 44.046875 -1.421875 31.78125 -1.421875 
Q 19.53125 -1.421875 13.0625 8.265625 
Q 6.59375 17.96875 6.59375 36.375 
Q 6.59375 54.828125 13.0625 64.515625 
Q 19.53125 74.21875 31.78125 74.21875 
z
" id="DejaVuSans-30"/>
       <path d="M 33.015625 40.375 
Q 26.375 40.375 22.484375 35.828125 
Q 18.609375 31.296875 18.609375 23.390625 
Q 18.609375 15.53125 22.484375 10.953125 
Q 26.375 6.390625 33.015625 6.390625 
Q 39.65625 6.390625 43.53125 10.953125 
Q 47.40625 15.53125 47.40625 23.390625 
Q 47.40625 31.296875 43.53125 35.828125 
Q 39.65625 40.375 33.015625 40.375 
z
M 52.59375 71.296875 
L 52.59375 62.3125 
Q 48.875 64.0625 45.09375 64.984375 
Q 41.3125 65.921875 37.59375 65.921875 
Q 27.828125 65.921875 22.671875 59.328125 
Q 17.53125 52.734375 16.796875 39.40625 
Q 19.671875 43.65625 24.015625 45.921875 
Q 28.375 48.1875 33.59375 48.1875 
Q 44.578125 48.1875 50.953125 41.515625 
Q 57.328125 34.859375 57.328125 23.390625 
Q 57.328125 12.15625 50.6875 5.359375 
Q 44.046875 -1.421875 33.015625 -1.421875 
Q 20.359375 -1.421875 13.671875 8.265625 
Q 6.984375 17.96875 6.984375 36.375 
Q 6.984375 53.65625 15.1875 63.9375 
Q 23.390625 74.21875 37.203125 74.21875 
Q 40.921875 74.21875 44.703125 73.484375 
Q 48.484375 72.75 52.59375 71.296875 
z
" id="DejaVuSans-36"/>
      </defs>
      <g transform="translate(62.196307 254.356562)scale(0.1 -0.1)">
       <use transform="translate(0 0.765625)" xlink:href="#DejaVuSans-31"/>
       <use transform="translate(63.623047 0.765625)" xlink:href="#DejaVuSans-30"/>
       <use transform="translate(128.203125 39.046875)scale(0.7)" xlink:href="#DejaVuSans-36"/>
      </g>
     </g>
    </g>
    <g id="xtick_2">
     <g id="line2d_3">
      <path clip-path="url(#pf103af42ea)" d="M 122.113411 239.758125 
L 122.113411 22.318125 
" style="fill:none;stroke:#b0b0b0;stroke-dasharray:2.96,1.28;stroke-dashoffset:0;stroke-width:0.8;"/>
     </g>
     <g id="line2d_4">
      <g>
       <use style="stroke:#000000;stroke-width:0.8;" x="122.113411" xlink:href="#med56f136b2" y="239.758125"/>
      </g>
     </g>
     <g id="text_2">
      <!-- $\mathdefault{10^{7}}$ -->
      <defs>
       <path d="M 8.203125 72.90625 
L 55.078125 72.90625 
L 55.078125 68.703125 
L 28.609375 0 
L 18.3125 0 
L 43.21875 64.59375 
L 8.203125 64.59375 
z
" id="DejaVuSans-37"/>
      </defs>
      <g transform="translate(113.313411 254.356562)scale(0.1 -0.1)">
       <use transform="translate(0 0.684375)" xlink:href="#DejaVuSans-31"/>
       <use transform="translate(63.623047 0.684375)" xlink:href="#DejaVuSans-30"/>
       <use transform="translate(128.203125 38.965625)scale(0.7)" xlink:href="#DejaVuSans-37"/>
      </g>
     </g>
    </g>
    <g id="xtick_3">
     <g id="line2d_5">
      <path clip-path="url(#pf103af42ea)" d="M 173.230516 239.758125 
L 173.230516 22.318125 
" style="fill:none;stroke:#b0b0b0;stroke-dasharray:2.96,1.28;stroke-dashoffset:0;stroke-width:0.8;"/>
     </g>
     <g id="line2d_6">
      <g>
       <use style="stroke:#000000;stroke-width:0.8;" x="173.230516" xlink:href="#med56f136b2" y="239.758125"/>
      </g>
     </g>
     <g id="text_3">
      <!-- $\mathdefault{10^{8}}$ -->
      <defs>
       <path d="M 31.78125 34.625 
Q 24.75 34.625 20.71875 30.859375 
Q 16.703125 27.09375 16.703125 20.515625 
Q 16.703125 13.921875 20.71875 10.15625 
Q 24.75 6.390625 31.78125 6.390625 
Q 38.8125 6.390625 42.859375 10.171875 
Q 46.921875 13.96875 46.921875 20.515625 
Q 46.921875 27.09375 42.890625 30.859375 
Q 38.875 34.625 31.78125 34.625 
z
M 21.921875 38.8125 
Q 15.578125 40.375 12.03125 44.71875 
Q 8.5 49.078125 8.5 55.328125 
Q 8.5 64.0625 14.71875 69.140625 
Q 20.953125 74.21875 31.78125 74.21875 
Q 42.671875 74.21875 48.875 69.140625 
Q 55.078125 64.0625 55.078125 55.328125 
Q 55.078125 49.078125 51.53125 44.71875 
Q 48 40.375 41.703125 38.8125 
Q 48.828125 37.15625 52.796875 32.3125 
Q 56.78125 27.484375 56.78125 20.515625 
Q 56.78125 9.90625 50.3125 4.234375 
Q 43.84375 -1.421875 31.78125 -1.421875 
Q 19.734375 -1.421875 13.25 4.234375 
Q 6.78125 9.90625 6.78125 20.515625 
Q 6.78125 27.484375 10.78125 32.3125 
Q 14.796875 37.15625 21.921875 38.8125 
z
M 18.3125 54.390625 
Q 18.3125 48.734375 21.84375 45.5625 
Q 25.390625 42.390625 31.78125 42.390625 
Q 38.140625 42.390625 41.71875 45.5625 
Q 45.3125 48.734375 45.3125 54.390625 
Q 45.3125 60.0625 41.71875 63.234375 
Q 38.140625 66.40625 31.78125 66.40625 
Q 25.390625 66.40625 21.84375 63.234375 
Q 18.3125 60.0625 18.3125 54.390625 
z
" id="DejaVuSans-38"/>
      </defs>
      <g transform="translate(164.430516 254.356562)scale(0.1 -0.1)">
       <use transform="translate(0 0.765625)" xlink:href="#DejaVuSans-31"/>
       <use transform="translate(63.623047 0.765625)" xlink:href="#DejaVuSans-30"/>
       <use transform="translate(128.203125 39.046875)scale(0.7)" xlink:href="#DejaVuSans-38"/>
      </g>
     </g>
    </g>
    <g id="xtick_4">
     <g id="line2d_7">
      <path clip-path="url(#pf103af42ea)" d="M 224.34762 239.758125 
L 224.34762 22.318125 
" style="fill:none;stroke:#b0b0b0;stroke-dasharray:2.96,1.28;stroke-dashoffset:0;stroke-width:0.8;"/>
     </g>
     <g id="line2d_8">
      <g>
       <use style="stroke:#000000;stroke-width:0.8;" x="224.34762" xlink:href="#med56f136b2" y="239.758125"/>
      </g>
     </g>
     <g id="text_4">
      <!-- $\mathdefault{10^{9}}$ -->
      <defs>
       <path d="M 10.984375 1.515625 
L 10.984375 10.5 
Q 14.703125 8.734375 18.5 7.8125 
Q 22.3125 6.890625 25.984375 6.890625 
Q 35.75 6.890625 40.890625 13.453125 
Q 46.046875 20.015625 46.78125 33.40625 
Q 43.953125 29.203125 39.59375 26.953125 
Q 35.25 24.703125 29.984375 24.703125 
Q 19.046875 24.703125 12.671875 31.3125 
Q 6.296875 37.9375 6.296875 49.421875 
Q 6.296875 60.640625 12.9375 67.421875 
Q 19.578125 74.21875 30.609375 74.21875 
Q 43.265625 74.21875 49.921875 64.515625 
Q 56.59375 54.828125 56.59375 36.375 
Q 56.59375 19.140625 48.40625 8.859375 
Q 40.234375 -1.421875 26.421875 -1.421875 
Q 22.703125 -1.421875 18.890625 -0.6875 
Q 15.09375 0.046875 10.984375 1.515625 
z
M 30.609375 32.421875 
Q 37.25 32.421875 41.125 36.953125 
Q 45.015625 41.5 45.015625 49.421875 
Q 45.015625 57.28125 41.125 61.84375 
Q 37.25 66.40625 30.609375 66.40625 
Q 23.96875 66.40625 20.09375 61.84375 
Q 16.21875 57.28125 16.21875 49.421875 
Q 16.21875 41.5 20.09375 36.953125 
Q 23.96875 32.421875 30.609375 32.421875 
z
" id="DejaVuSans-39"/>
      </defs>
      <g transform="translate(215.54762 254.356562)scale(0.1 -0.1)">
       <use transform="translate(0 0.765625)" xlink:href="#DejaVuSans-31"/>
       <use transform="translate(63.623047 0.765625)" xlink:href="#DejaVuSans-30"/>
       <use transform="translate(128.203125 39.046875)scale(0.7)" xlink:href="#DejaVuSans-39"/>
      </g>
     </g>
    </g>
    <g id="xtick_5">
     <g id="line2d_9">
      <path clip-path="url(#pf103af42ea)" d="M 275.464725 239.758125 
L 275.464725 22.318125 
" style="fill:none;stroke:#b0b0b0;stroke-dasharray:2.96,1.28;stroke-dashoffset:0;stroke-width:0.8;"/>
     </g>
     <g id="line2d_10">
      <g>
       <use style="stroke:#000000;stroke-width:0.8;" x="275.464725" xlink:href="#med56f136b2" y="239.758125"/>
      </g>
     </g>
     <g id="text_5">
      <!-- $\mathdefault{10^{10}}$ -->
      <g transform="translate(264.414725 254.356562)scale(0.1 -0.1)">
       <use transform="translate(0 0.765625)" xlink:href="#DejaVuSans-31"/>
       <use transform="translate(63.623047 0.765625)" xlink:href="#DejaVuSans-30"/>
       <use transform="translate(128.203125 39.046875)scale(0.7)" xlink:href="#DejaVuSans-31"/>
       <use transform="translate(172.739258 39.046875)scale(0.7)" xlink:href="#DejaVuSans-30"/>
      </g>
     </g>
    </g>
    <g id="xtick_6">
     <g id="line2d_11">
      <path clip-path="url(#pf103af42ea)" d="M 326.581829 239.758125 
L 326.581829 22.318125 
" style="fill:none;stroke:#b0b0b0;stroke-dasharray:2.96,1.28;stroke-dashoffset:0;stroke-width:0.8;"/>
     </g>
     <g id="line2d_12">
      <g>
       <use style="stroke:#000000;stroke-width:0.8;" x="326.581829" xlink:href="#med56f136b2" y="239.758125"/>
      </g>
     </g>
     <g id="text_6">
      <!-- $\mathdefault{10^{11}}$ -->
      <g transform="translate(315.531829 254.356562)scale(0.1 -0.1)">
       <use transform="translate(0 0.684375)" xlink:href="#DejaVuSans-31"/>
       <use transform="translate(63.623047 0.684375)" xlink:href="#DejaVuSans-30"/>
       <use transform="translate(128.203125 38.965625)scale(0.7)" xlink:href="#DejaVuSans-31"/>
       <use transform="translate(172.739258 38.965625)scale(0.7)" xlink:href="#DejaVuSans-31"/>
      </g>
     </g>
    </g>
    <g id="xtick_7">
     <g id="line2d_13">
      <path clip-path="url(#pf103af42ea)" d="M 377.698934 239.758125 
L 377.698934 22.318125 
" style="fill:none;stroke:#b0b0b0;stroke-dasharray:2.96,1.28;stroke-dashoffset:0;stroke-width:0.8;"/>
     </g>
     <g id="line2d_14">
      <g>
       <use style="stroke:#000000;stroke-width:0.8;" x="377.698934" xlink:href="#med56f136b2" y="239.758125"/>
      </g>
     </g>
     <g id="text_7">
      <!-- $\mathdefault{10^{12}}$ -->
      <defs>
       <path d="M 19.1875 8.296875 
L 53.609375 8.296875 
L 53.609375 0 
L 7.328125 0 
L 7.328125 8.296875 
Q 12.9375 14.109375 22.625 23.890625 
Q 32.328125 33.6875 34.8125 36.53125 
Q 39.546875 41.84375 41.421875 45.53125 
Q 43.3125 49.21875 43.3125 52.78125 
Q 43.3125 58.59375 39.234375 62.25 
Q 35.15625 65.921875 28.609375 65.921875 
Q 23.96875 65.921875 18.8125 64.3125 
Q 13.671875 62.703125 7.8125 59.421875 
L 7.8125 69.390625 
Q 13.765625 71.78125 18.9375 73 
Q 24.125 74.21875 28.421875 74.21875 
Q 39.75 74.21875 46.484375 68.546875 
Q 53.21875 62.890625 53.21875 53.421875 
Q 53.21875 48.921875 51.53125 44.890625 
Q 49.859375 40.875 45.40625 35.40625 
Q 44.1875 33.984375 37.640625 27.21875 
Q 31.109375 20.453125 19.1875 8.296875 
z
" id="DejaVuSans-32"/>
      </defs>
      <g transform="translate(366.648934 254.356562)scale(0.1 -0.1)">
       <use transform="translate(0 0.765625)" xlink:href="#DejaVuSans-31"/>
       <use transform="translate(63.623047 0.765625)" xlink:href="#DejaVuSans-30"/>
       <use transform="translate(128.203125 39.046875)scale(0.7)" xlink:href="#DejaVuSans-31"/>
       <use transform="translate(172.739258 39.046875)scale(0.7)" xlink:href="#DejaVuSans-32"/>
      </g>
     </g>
    </g>
    <g id="xtick_8">
     <g id="line2d_15">
      <defs>
       <path d="M 0 0 
L 0 2 
" id="m0104eb13fc" style="stroke:#000000;stroke-width:0.6;"/>
      </defs>
      <g>
       <use style="stroke:#000000;stroke-width:0.6;" x="55.608525" xlink:href="#m0104eb13fc" y="239.758125"/>
      </g>
     </g>
    </g>
    <g id="xtick_9">
     <g id="line2d_16">
      <g>
       <use style="stroke:#000000;stroke-width:0.6;" x="59.656041" xlink:href="#m0104eb13fc" y="239.758125"/>
      </g>
     </g>
    </g>
    <g id="xtick_10">
     <g id="line2d_17">
      <g>
       <use style="stroke:#000000;stroke-width:0.6;" x="63.078167" xlink:href="#m0104eb13fc" y="239.758125"/>
      </g>
     </g>
    </g>
    <g id="xtick_11">
     <g id="line2d_18">
      <g>
       <use style="stroke:#000000;stroke-width:0.6;" x="66.042548" xlink:href="#m0104eb13fc" y="239.758125"/>
      </g>
     </g>
    </g>
    <g id="xtick_12">
     <g id="line2d_19">
      <g>
       <use style="stroke:#000000;stroke-width:0.6;" x="68.657316" xlink:href="#m0104eb13fc" y="239.758125"/>
      </g>
     </g>
    </g>
    <g id="xtick_13">
     <g id="line2d_20">
      <g>
       <use style="stroke:#000000;stroke-width:0.6;" x="86.384089" xlink:href="#m0104eb13fc" y="239.758125"/>
      </g>
     </g>
    </g>
    <g id="xtick_14">
     <g id="line2d_21">
      <g>
       <use style="stroke:#000000;stroke-width:0.6;" x="95.385364" xlink:href="#m0104eb13fc" y="239.758125"/>
      </g>
     </g>
    </g>
    <g id="xtick_15">
     <g id="line2d_22">
      <g>
       <use style="stroke:#000000;stroke-width:0.6;" x="101.77187" xlink:href="#m0104eb13fc" y="239.758125"/>
      </g>
     </g>
    </g>
    <g id="xtick_16">
     <g id="line2d_23">
      <g>
       <use style="stroke:#000000;stroke-width:0.6;" x="106.72563" xlink:href="#m0104eb13fc" y="239.758125"/>
      </g>
     </g>
    </g>
    <g id="xtick_17">
     <g id="line2d_24">
      <g>
       <use style="stroke:#000000;stroke-width:0.6;" x="110.773146" xlink:href="#m0104eb13fc" y="239.758125"/>
      </g>
     </g>
    </g>
    <g id="xtick_18">
     <g id="line2d_25">
      <g>
       <use style="stroke:#000000;stroke-width:0.6;" x="114.195272" xlink:href="#m0104eb13fc" y="239.758125"/>
      </g>
     </g>
    </g>
    <g id="xtick_19">
     <g id="line2d_26">
      <g>
       <use style="stroke:#000000;stroke-width:0.6;" x="117.159652" xlink:href="#m0104eb13fc" y="239.758125"/>
      </g>
     </g>
    </g>
    <g id="xtick_20">
     <g id="line2d_27">
      <g>
       <use style="stroke:#000000;stroke-width:0.6;" x="119.774421" xlink:href="#m0104eb13fc" y="239.758125"/>
      </g>
     </g>
    </g>
    <g id="xtick_21">
     <g id="line2d_28">
      <g>
       <use style="stroke:#000000;stroke-width:0.6;" x="137.501193" xlink:href="#m0104eb13fc" y="239.758125"/>
      </g>
     </g>
    </g>
    <g id="xtick_22">
     <g id="line2d_29">
      <g>
       <use style="stroke:#000000;stroke-width:0.6;" x="146.502468" xlink:href="#m0104eb13fc" y="239.758125"/>
      </g>
     </g>
    </g>
    <g id="xtick_23">
     <g id="line2d_30">
      <g>
       <use style="stroke:#000000;stroke-width:0.6;" x="152.888975" xlink:href="#m0104eb13fc" y="239.758125"/>
      </g>
     </g>
    </g>
    <g id="xtick_24">
     <g id="line2d_31">
      <g>
       <use style="stroke:#000000;stroke-width:0.6;" x="157.842734" xlink:href="#m0104eb13fc" y="239.758125"/>
      </g>
     </g>
    </g>
    <g id="xtick_25">
     <g id="line2d_32">
      <g>
       <use style="stroke:#000000;stroke-width:0.6;" x="161.89025" xlink:href="#m0104eb13fc" y="239.758125"/>
      </g>
     </g>
    </g>
    <g id="xtick_26">
     <g id="line2d_33">
      <g>
       <use style="stroke:#000000;stroke-width:0.6;" x="165.312376" xlink:href="#m0104eb13fc" y="239.758125"/>
      </g>
     </g>
    </g>
    <g id="xtick_27">
     <g id="line2d_34">
      <g>
       <use style="stroke:#000000;stroke-width:0.6;" x="168.276756" xlink:href="#m0104eb13fc" y="239.758125"/>
      </g>
     </g>
    </g>
    <g id="xtick_28">
     <g id="line2d_35">
      <g>
       <use style="stroke:#000000;stroke-width:0.6;" x="170.891525" xlink:href="#m0104eb13fc" y="239.758125"/>
      </g>
     </g>
    </g>
    <g id="xtick_29">
     <g id="line2d_36">
      <g>
       <use style="stroke:#000000;stroke-width:0.6;" x="188.618297" xlink:href="#m0104eb13fc" y="239.758125"/>
      </g>
     </g>
    </g>
    <g id="xtick_30">
     <g id="line2d_37">
      <g>
       <use style="stroke:#000000;stroke-width:0.6;" x="197.619573" xlink:href="#m0104eb13fc" y="239.758125"/>
      </g>
     </g>
    </g>
    <g id="xtick_31">
     <g id="line2d_38">
      <g>
       <use style="stroke:#000000;stroke-width:0.6;" x="204.006079" xlink:href="#m0104eb13fc" y="239.758125"/>
      </g>
     </g>
    </g>
    <g id="xtick_32">
     <g id="line2d_39">
      <g>
       <use style="stroke:#000000;stroke-width:0.6;" x="208.959838" xlink:href="#m0104eb13fc" y="239.758125"/>
      </g>
     </g>
    </g>
    <g id="xtick_33">
     <g id="line2d_40">
      <g>
       <use style="stroke:#000000;stroke-width:0.6;" x="213.007355" xlink:href="#m0104eb13fc" y="239.758125"/>
      </g>
     </g>
    </g>
    <g id="xtick_34">
     <g id="line2d_41">
      <g>
       <use style="stroke:#000000;stroke-width:0.6;" x="216.429481" xlink:href="#m0104eb13fc" y="239.758125"/>
      </g>
     </g>
    </g>
    <g id="xtick_35">
     <g id="line2d_42">
      <g>
       <use style="stroke:#000000;stroke-width:0.6;" x="219.393861" xlink:href="#m0104eb13fc" y="239.758125"/>
      </g>
     </g>
    </g>
    <g id="xtick_36">
     <g id="line2d_43">
      <g>
       <use style="stroke:#000000;stroke-width:0.6;" x="222.00863" xlink:href="#m0104eb13fc" y="239.758125"/>
      </g>
     </g>
    </g>
    <g id="xtick_37">
     <g id="line2d_44">
      <g>
       <use style="stroke:#000000;stroke-width:0.6;" x="239.735402" xlink:href="#m0104eb13fc" y="239.758125"/>
      </g>
     </g>
    </g>
    <g id="xtick_38">
     <g id="line2d_45">
      <g>
       <use style="stroke:#000000;stroke-width:0.6;" x="248.736677" xlink:href="#m0104eb13fc" y="239.758125"/>
      </g>
     </g>
    </g>
    <g id="xtick_39">
     <g id="line2d_46">
      <g>
       <use style="stroke:#000000;stroke-width:0.6;" x="255.123184" xlink:href="#m0104eb13fc" y="239.758125"/>
      </g>
     </g>
    </g>
    <g id="xtick_40">
     <g id="line2d_47">
      <g>
       <use style="stroke:#000000;stroke-width:0.6;" x="260.076943" xlink:href="#m0104eb13fc" y="239.758125"/>
      </g>
     </g>
    </g>
    <g id="xtick_41">
     <g id="line2d_48">
      <g>
       <use style="stroke:#000000;stroke-width:0.6;" x="264.124459" xlink:href="#m0104eb13fc" y="239.758125"/>
      </g>
     </g>
    </g>
    <g id="xtick_42">
     <g id="line2d_49">
      <g>
       <use style="stroke:#000000;stroke-width:0.6;" x="267.546585" xlink:href="#m0104eb13fc" y="239.758125"/>
      </g>
     </g>
    </g>
    <g id="xtick_43">
     <g id="line2d_50">
      <g>
       <use style="stroke:#000000;stroke-width:0.6;" x="270.510965" xlink:href="#m0104eb13fc" y="239.758125"/>
      </g>
     </g>
    </g>
    <g id="xtick_44">
     <g id="line2d_51">
      <g>
       <use style="stroke:#000000;stroke-width:0.6;" x="273.125734" xlink:href="#m0104eb13fc" y="239.758125"/>
      </g>
     </g>
    </g>
    <g id="xtick_45">
     <g id="line2d_52">
      <g>
       <use style="stroke:#000000;stroke-width:0.6;" x="290.852506" xlink:href="#m0104eb13fc" y="239.758125"/>
      </g>
     </g>
    </g>
    <g id="xtick_46">
     <g id="line2d_53">
      <g>
       <use style="stroke:#000000;stroke-width:0.6;" x="299.853782" xlink:href="#m0104eb13fc" y="239.758125"/>
      </g>
     </g>
    </g>
    <g id="xtick_47">
     <g id="line2d_54">
      <g>
       <use style="stroke:#000000;stroke-width:0.6;" x="306.240288" xlink:href="#m0104eb13fc" y="239.758125"/>
      </g>
     </g>
    </g>
    <g id="xtick_48">
     <g id="line2d_55">
      <g>
       <use style="stroke:#000000;stroke-width:0.6;" x="311.194047" xlink:href="#m0104eb13fc" y="239.758125"/>
      </g>
     </g>
    </g>
    <g id="xtick_49">
     <g id="line2d_56">
      <g>
       <use style="stroke:#000000;stroke-width:0.6;" x="315.241563" xlink:href="#m0104eb13fc" y="239.758125"/>
      </g>
     </g>
    </g>
    <g id="xtick_50">
     <g id="line2d_57">
      <g>
       <use style="stroke:#000000;stroke-width:0.6;" x="318.663689" xlink:href="#m0104eb13fc" y="239.758125"/>
      </g>
     </g>
    </g>
    <g id="xtick_51">
     <g id="line2d_58">
      <g>
       <use style="stroke:#000000;stroke-width:0.6;" x="321.62807" xlink:href="#m0104eb13fc" y="239.758125"/>
      </g>
     </g>
    </g>
    <g id="xtick_52">
     <g id="line2d_59">
      <g>
       <use style="stroke:#000000;stroke-width:0.6;" x="324.242839" xlink:href="#m0104eb13fc" y="239.758125"/>
      </g>
     </g>
    </g>
    <g id="xtick_53">
     <g id="line2d_60">
      <g>
       <use style="stroke:#000000;stroke-width:0.6;" x="341.969611" xlink:href="#m0104eb13fc" y="239.758125"/>
      </g>
     </g>
    </g>
    <g id="xtick_54">
     <g id="line2d_61">
      <g>
       <use style="stroke:#000000;stroke-width:0.6;" x="350.970886" xlink:href="#m0104eb13fc" y="239.758125"/>
      </g>
     </g>
    </g>
    <g id="xtick_55">
     <g id="line2d_62">
      <g>
       <use style="stroke:#000000;stroke-width:0.6;" x="357.357393" xlink:href="#m0104eb13fc" y="239.758125"/>
      </g>
     </g>
    </g>
    <g id="xtick_56">
     <g id="line2d_63">
      <g>
       <use style="stroke:#000000;stroke-width:0.6;" x="362.311152" xlink:href="#m0104eb13fc" y="239.758125"/>
      </g>
     </g>
    </g>
    <g id="xtick_57">
     <g id="line2d_64">
      <g>
       <use style="stroke:#000000;stroke-width:0.6;" x="366.358668" xlink:href="#m0104eb13fc" y="239.758125"/>
      </g>
     </g>
    </g>
    <g id="xtick_58">
     <g id="line2d_65">
      <g>
       <use style="stroke:#000000;stroke-width:0.6;" x="369.780794" xlink:href="#m0104eb13fc" y="239.758125"/>
      </g>
     </g>
    </g>
    <g id="xtick_59">
     <g id="line2d_66">
      <g>
       <use style="stroke:#000000;stroke-width:0.6;" x="372.745174" xlink:href="#m0104eb13fc" y="239.758125"/>
      </g>
     </g>
    </g>
    <g id="xtick_60">
     <g id="line2d_67">
      <g>
       <use style="stroke:#000000;stroke-width:0.6;" x="375.359943" xlink:href="#m0104eb13fc" y="239.758125"/>
      </g>
     </g>
    </g>
    <g id="text_8">
     <!-- n -->
     <defs>
      <path d="M 54.890625 33.015625 
L 54.890625 0 
L 45.90625 0 
L 45.90625 32.71875 
Q 45.90625 40.484375 42.875 44.328125 
Q 39.84375 48.1875 33.796875 48.1875 
Q 26.515625 48.1875 22.3125 43.546875 
Q 18.109375 38.921875 18.109375 30.90625 
L 18.109375 0 
L 9.078125 0 
L 9.078125 54.6875 
L 18.109375 54.6875 
L 18.109375 46.1875 
Q 21.34375 51.125 25.703125 53.5625 
Q 30.078125 56 35.796875 56 
Q 45.21875 56 50.046875 50.171875 
Q 54.890625 44.34375 54.890625 33.015625 
z
" id="DejaVuSans-6e"/>
     </defs>
     <g transform="translate(220.009375 268.034687)scale(0.1 -0.1)">
      <use xlink:href="#DejaVuSans-6e"/>
     </g>
    </g>
   </g>
   <g id="matplotlib.axis_2">
    <g id="ytick_1">
     <g id="line2d_68">
      <path clip-path="url(#pf103af42ea)" d="M 55.778125 227.512945 
L 390.578125 227.512945 
" style="fill:none;stroke:#b0b0b0;stroke-dasharray:2.96,1.28;stroke-dashoffset:0;stroke-width:0.8;"/>
     </g>
     <g id="line2d_69">
      <defs>
       <path d="M 0 0 
L -3.5 0 
" id="m2b98a52269" style="stroke:#000000;stroke-width:0.8;"/>
      </defs>
      <g>
       <use style="stroke:#000000;stroke-width:0.8;" x="55.778125" xlink:href="#m2b98a52269" y="227.512945"/>
      </g>
     </g>
     <g id="text_9">
      <!-- $\mathdefault{10^{-12}}$ -->
      <defs>
       <path d="M 10.59375 35.5 
L 73.1875 35.5 
L 73.1875 27.203125 
L 10.59375 27.203125 
z
" id="DejaVuSans-2212"/>
      </defs>
      <g transform="translate(20.878125 231.312164)scale(0.1 -0.1)">
       <use transform="translate(0 0.765625)" xlink:href="#DejaVuSans-31"/>
       <use transform="translate(63.623047 0.765625)" xlink:href="#DejaVuSans-30"/>
       <use transform="translate(128.203125 39.046875)scale(0.7)" xlink:href="#DejaVuSans-2212"/>
       <use transform="translate(186.855469 39.046875)scale(0.7)" xlink:href="#DejaVuSans-31"/>
       <use transform="translate(231.391602 39.046875)scale(0.7)" xlink:href="#DejaVuSans-32"/>
      </g>
     </g>
    </g>
    <g id="ytick_2">
     <g id="line2d_70">
      <path clip-path="url(#pf103af42ea)" d="M 55.778125 195.479674 
L 390.578125 195.479674 
" style="fill:none;stroke:#b0b0b0;stroke-dasharray:2.96,1.28;stroke-dashoffset:0;stroke-width:0.8;"/>
     </g>
     <g id="line2d_71">
      <g>
       <use style="stroke:#000000;stroke-width:0.8;" x="55.778125" xlink:href="#m2b98a52269" y="195.479674"/>
      </g>
     </g>
     <g id="text_10">
      <!-- $\mathdefault{10^{-11}}$ -->
      <g transform="translate(20.878125 199.278893)scale(0.1 -0.1)">
       <use transform="translate(0 0.684375)" xlink:href="#DejaVuSans-31"/>
       <use transform="translate(63.623047 0.684375)" xlink:href="#DejaVuSans-30"/>
       <use transform="translate(128.203125 38.965625)scale(0.7)" xlink:href="#DejaVuSans-2212"/>
       <use transform="translate(186.855469 38.965625)scale(0.7)" xlink:href="#DejaVuSans-31"/>
       <use transform="translate(231.391602 38.965625)scale(0.7)" xlink:href="#DejaVuSans-31"/>
      </g>
     </g>
    </g>
    <g id="ytick_3">
     <g id="line2d_72">
      <path clip-path="url(#pf103af42ea)" d="M 55.778125 163.446402 
L 390.578125 163.446402 
" style="fill:none;stroke:#b0b0b0;stroke-dasharray:2.96,1.28;stroke-dashoffset:0;stroke-width:0.8;"/>
     </g>
     <g id="line2d_73">
      <g>
       <use style="stroke:#000000;stroke-width:0.8;" x="55.778125" xlink:href="#m2b98a52269" y="163.446402"/>
      </g>
     </g>
     <g id="text_11">
      <!-- $\mathdefault{10^{-10}}$ -->
      <g transform="translate(20.878125 167.245621)scale(0.1 -0.1)">
       <use transform="translate(0 0.765625)" xlink:href="#DejaVuSans-31"/>
       <use transform="translate(63.623047 0.765625)" xlink:href="#DejaVuSans-30"/>
       <use transform="translate(128.203125 39.046875)scale(0.7)" xlink:href="#DejaVuSans-2212"/>
       <use transform="translate(186.855469 39.046875)scale(0.7)" xlink:href="#DejaVuSans-31"/>
       <use transform="translate(231.391602 39.046875)scale(0.7)" xlink:href="#DejaVuSans-30"/>
      </g>
     </g>
    </g>
    <g id="ytick_4">
     <g id="line2d_74">
      <path clip-path="url(#pf103af42ea)" d="M 55.778125 131.413131 
L 390.578125 131.413131 
" style="fill:none;stroke:#b0b0b0;stroke-dasharray:2.96,1.28;stroke-dashoffset:0;stroke-width:0.8;"/>
     </g>
     <g id="line2d_75">
      <g>
       <use style="stroke:#000000;stroke-width:0.8;" x="55.778125" xlink:href="#m2b98a52269" y="131.413131"/>
      </g>
     </g>
     <g id="text_12">
      <!-- $\mathdefault{10^{-9}}$ -->
      <g transform="translate(25.278125 135.21235)scale(0.1 -0.1)">
       <use transform="translate(0 0.765625)" xlink:href="#DejaVuSans-31"/>
       <use transform="translate(63.623047 0.765625)" xlink:href="#DejaVuSans-30"/>
       <use transform="translate(128.203125 39.046875)scale(0.7)" xlink:href="#DejaVuSans-2212"/>
       <use transform="translate(186.855469 39.046875)scale(0.7)" xlink:href="#DejaVuSans-39"/>
      </g>
     </g>
    </g>
    <g id="ytick_5">
     <g id="line2d_76">
      <path clip-path="url(#pf103af42ea)" d="M 55.778125 99.379859 
L 390.578125 99.379859 
" style="fill:none;stroke:#b0b0b0;stroke-dasharray:2.96,1.28;stroke-dashoffset:0;stroke-width:0.8;"/>
     </g>
     <g id="line2d_77">
      <g>
       <use style="stroke:#000000;stroke-width:0.8;" x="55.778125" xlink:href="#m2b98a52269" y="99.379859"/>
      </g>
     </g>
     <g id="text_13">
      <!-- $\mathdefault{10^{-8}}$ -->
      <g transform="translate(25.278125 103.179078)scale(0.1 -0.1)">
       <use transform="translate(0 0.765625)" xlink:href="#DejaVuSans-31"/>
       <use transform="translate(63.623047 0.765625)" xlink:href="#DejaVuSans-30"/>
       <use transform="translate(128.203125 39.046875)scale(0.7)" xlink:href="#DejaVuSans-2212"/>
       <use transform="translate(186.855469 39.046875)scale(0.7)" xlink:href="#DejaVuSans-38"/>
      </g>
     </g>
    </g>
    <g id="ytick_6">
     <g id="line2d_78">
      <path clip-path="url(#pf103af42ea)" d="M 55.778125 67.346588 
L 390.578125 67.346588 
" style="fill:none;stroke:#b0b0b0;stroke-dasharray:2.96,1.28;stroke-dashoffset:0;stroke-width:0.8;"/>
     </g>
     <g id="line2d_79">
      <g>
       <use style="stroke:#000000;stroke-width:0.8;" x="55.778125" xlink:href="#m2b98a52269" y="67.346588"/>
      </g>
     </g>
     <g id="text_14">
      <!-- $\mathdefault{10^{-7}}$ -->
      <g transform="translate(25.278125 71.145806)scale(0.1 -0.1)">
       <use transform="translate(0 0.684375)" xlink:href="#DejaVuSans-31"/>
       <use transform="translate(63.623047 0.684375)" xlink:href="#DejaVuSans-30"/>
       <use transform="translate(128.203125 38.965625)scale(0.7)" xlink:href="#DejaVuSans-2212"/>
       <use transform="translate(186.855469 38.965625)scale(0.7)" xlink:href="#DejaVuSans-37"/>
      </g>
     </g>
    </g>
    <g id="ytick_7">
     <g id="line2d_80">
      <path clip-path="url(#pf103af42ea)" d="M 55.778125 35.313316 
L 390.578125 35.313316 
" style="fill:none;stroke:#b0b0b0;stroke-dasharray:2.96,1.28;stroke-dashoffset:0;stroke-width:0.8;"/>
     </g>
     <g id="line2d_81">
      <g>
       <use style="stroke:#000000;stroke-width:0.8;" x="55.778125" xlink:href="#m2b98a52269" y="35.313316"/>
      </g>
     </g>
     <g id="text_15">
      <!-- $\mathdefault{10^{-6}}$ -->
      <g transform="translate(25.278125 39.112535)scale(0.1 -0.1)">
       <use transform="translate(0 0.765625)" xlink:href="#DejaVuSans-31"/>
       <use transform="translate(63.623047 0.765625)" xlink:href="#DejaVuSans-30"/>
       <use transform="translate(128.203125 39.046875)scale(0.7)" xlink:href="#DejaVuSans-2212"/>
       <use transform="translate(186.855469 39.046875)scale(0.7)" xlink:href="#DejaVuSans-36"/>
      </g>
     </g>
    </g>
    <g id="ytick_8">
     <g id="line2d_82">
      <defs>
       <path d="M 0 0 
L -2 0 
" id="m8a04b06bff" style="stroke:#000000;stroke-width:0.6;"/>
      </defs>
      <g>
       <use style="stroke:#000000;stroke-width:0.6;" x="55.778125" xlink:href="#m8a04b06bff" y="237.155921"/>
      </g>
     </g>
    </g>
    <g id="ytick_9">
     <g id="line2d_83">
      <g>
       <use style="stroke:#000000;stroke-width:0.6;" x="55.778125" xlink:href="#m8a04b06bff" y="234.619487"/>
      </g>
     </g>
    </g>
    <g id="ytick_10">
     <g id="line2d_84">
      <g>
       <use style="stroke:#000000;stroke-width:0.6;" x="55.778125" xlink:href="#m8a04b06bff" y="232.474962"/>
      </g>
     </g>
    </g>
    <g id="ytick_11">
     <g id="line2d_85">
      <g>
       <use style="stroke:#000000;stroke-width:0.6;" x="55.778125" xlink:href="#m8a04b06bff" y="230.61729"/>
      </g>
     </g>
    </g>
    <g id="ytick_12">
     <g id="line2d_86">
      <g>
       <use style="stroke:#000000;stroke-width:0.6;" x="55.778125" xlink:href="#m8a04b06bff" y="228.978707"/>
      </g>
     </g>
    </g>
    <g id="ytick_13">
     <g id="line2d_87">
      <g>
       <use style="stroke:#000000;stroke-width:0.6;" x="55.778125" xlink:href="#m8a04b06bff" y="217.86997"/>
      </g>
     </g>
    </g>
    <g id="ytick_14">
     <g id="line2d_88">
      <g>
       <use style="stroke:#000000;stroke-width:0.6;" x="55.778125" xlink:href="#m8a04b06bff" y="212.229191"/>
      </g>
     </g>
    </g>
    <g id="ytick_15">
     <g id="line2d_89">
      <g>
       <use style="stroke:#000000;stroke-width:0.6;" x="55.778125" xlink:href="#m8a04b06bff" y="208.226994"/>
      </g>
     </g>
    </g>
    <g id="ytick_16">
     <g id="line2d_90">
      <g>
       <use style="stroke:#000000;stroke-width:0.6;" x="55.778125" xlink:href="#m8a04b06bff" y="205.122649"/>
      </g>
     </g>
    </g>
    <g id="ytick_17">
     <g id="line2d_91">
      <g>
       <use style="stroke:#000000;stroke-width:0.6;" x="55.778125" xlink:href="#m8a04b06bff" y="202.586215"/>
      </g>
     </g>
    </g>
    <g id="ytick_18">
     <g id="line2d_92">
      <g>
       <use style="stroke:#000000;stroke-width:0.6;" x="55.778125" xlink:href="#m8a04b06bff" y="200.44169"/>
      </g>
     </g>
    </g>
    <g id="ytick_19">
     <g id="line2d_93">
      <g>
       <use style="stroke:#000000;stroke-width:0.6;" x="55.778125" xlink:href="#m8a04b06bff" y="198.584019"/>
      </g>
     </g>
    </g>
    <g id="ytick_20">
     <g id="line2d_94">
      <g>
       <use style="stroke:#000000;stroke-width:0.6;" x="55.778125" xlink:href="#m8a04b06bff" y="196.945436"/>
      </g>
     </g>
    </g>
    <g id="ytick_21">
     <g id="line2d_95">
      <g>
       <use style="stroke:#000000;stroke-width:0.6;" x="55.778125" xlink:href="#m8a04b06bff" y="185.836698"/>
      </g>
     </g>
    </g>
    <g id="ytick_22">
     <g id="line2d_96">
      <g>
       <use style="stroke:#000000;stroke-width:0.6;" x="55.778125" xlink:href="#m8a04b06bff" y="180.195919"/>
      </g>
     </g>
    </g>
    <g id="ytick_23">
     <g id="line2d_97">
      <g>
       <use style="stroke:#000000;stroke-width:0.6;" x="55.778125" xlink:href="#m8a04b06bff" y="176.193723"/>
      </g>
     </g>
    </g>
    <g id="ytick_24">
     <g id="line2d_98">
      <g>
       <use style="stroke:#000000;stroke-width:0.6;" x="55.778125" xlink:href="#m8a04b06bff" y="173.089378"/>
      </g>
     </g>
    </g>
    <g id="ytick_25">
     <g id="line2d_99">
      <g>
       <use style="stroke:#000000;stroke-width:0.6;" x="55.778125" xlink:href="#m8a04b06bff" y="170.552944"/>
      </g>
     </g>
    </g>
    <g id="ytick_26">
     <g id="line2d_100">
      <g>
       <use style="stroke:#000000;stroke-width:0.6;" x="55.778125" xlink:href="#m8a04b06bff" y="168.408419"/>
      </g>
     </g>
    </g>
    <g id="ytick_27">
     <g id="line2d_101">
      <g>
       <use style="stroke:#000000;stroke-width:0.6;" x="55.778125" xlink:href="#m8a04b06bff" y="166.550747"/>
      </g>
     </g>
    </g>
    <g id="ytick_28">
     <g id="line2d_102">
      <g>
       <use style="stroke:#000000;stroke-width:0.6;" x="55.778125" xlink:href="#m8a04b06bff" y="164.912164"/>
      </g>
     </g>
    </g>
    <g id="ytick_29">
     <g id="line2d_103">
      <g>
       <use style="stroke:#000000;stroke-width:0.6;" x="55.778125" xlink:href="#m8a04b06bff" y="153.803427"/>
      </g>
     </g>
    </g>
    <g id="ytick_30">
     <g id="line2d_104">
      <g>
       <use style="stroke:#000000;stroke-width:0.6;" x="55.778125" xlink:href="#m8a04b06bff" y="148.162648"/>
      </g>
     </g>
    </g>
    <g id="ytick_31">
     <g id="line2d_105">
      <g>
       <use style="stroke:#000000;stroke-width:0.6;" x="55.778125" xlink:href="#m8a04b06bff" y="144.160451"/>
      </g>
     </g>
    </g>
    <g id="ytick_32">
     <g id="line2d_106">
      <g>
       <use style="stroke:#000000;stroke-width:0.6;" x="55.778125" xlink:href="#m8a04b06bff" y="141.056106"/>
      </g>
     </g>
    </g>
    <g id="ytick_33">
     <g id="line2d_107">
      <g>
       <use style="stroke:#000000;stroke-width:0.6;" x="55.778125" xlink:href="#m8a04b06bff" y="138.519672"/>
      </g>
     </g>
    </g>
    <g id="ytick_34">
     <g id="line2d_108">
      <g>
       <use style="stroke:#000000;stroke-width:0.6;" x="55.778125" xlink:href="#m8a04b06bff" y="136.375147"/>
      </g>
     </g>
    </g>
    <g id="ytick_35">
     <g id="line2d_109">
      <g>
       <use style="stroke:#000000;stroke-width:0.6;" x="55.778125" xlink:href="#m8a04b06bff" y="134.517476"/>
      </g>
     </g>
    </g>
    <g id="ytick_36">
     <g id="line2d_110">
      <g>
       <use style="stroke:#000000;stroke-width:0.6;" x="55.778125" xlink:href="#m8a04b06bff" y="132.878893"/>
      </g>
     </g>
    </g>
    <g id="ytick_37">
     <g id="line2d_111">
      <g>
       <use style="stroke:#000000;stroke-width:0.6;" x="55.778125" xlink:href="#m8a04b06bff" y="121.770155"/>
      </g>
     </g>
    </g>
    <g id="ytick_38">
     <g id="line2d_112">
      <g>
       <use style="stroke:#000000;stroke-width:0.6;" x="55.778125" xlink:href="#m8a04b06bff" y="116.129376"/>
      </g>
     </g>
    </g>
    <g id="ytick_39">
     <g id="line2d_113">
      <g>
       <use style="stroke:#000000;stroke-width:0.6;" x="55.778125" xlink:href="#m8a04b06bff" y="112.12718"/>
      </g>
     </g>
    </g>
    <g id="ytick_40">
     <g id="line2d_114">
      <g>
       <use style="stroke:#000000;stroke-width:0.6;" x="55.778125" xlink:href="#m8a04b06bff" y="109.022835"/>
      </g>
     </g>
    </g>
    <g id="ytick_41">
     <g id="line2d_115">
      <g>
       <use style="stroke:#000000;stroke-width:0.6;" x="55.778125" xlink:href="#m8a04b06bff" y="106.4864"/>
      </g>
     </g>
    </g>
    <g id="ytick_42">
     <g id="line2d_116">
      <g>
       <use style="stroke:#000000;stroke-width:0.6;" x="55.778125" xlink:href="#m8a04b06bff" y="104.341876"/>
      </g>
     </g>
    </g>
    <g id="ytick_43">
     <g id="line2d_117">
      <g>
       <use style="stroke:#000000;stroke-width:0.6;" x="55.778125" xlink:href="#m8a04b06bff" y="102.484204"/>
      </g>
     </g>
    </g>
    <g id="ytick_44">
     <g id="line2d_118">
      <g>
       <use style="stroke:#000000;stroke-width:0.6;" x="55.778125" xlink:href="#m8a04b06bff" y="100.845621"/>
      </g>
     </g>
    </g>
    <g id="ytick_45">
     <g id="line2d_119">
      <g>
       <use style="stroke:#000000;stroke-width:0.6;" x="55.778125" xlink:href="#m8a04b06bff" y="89.736884"/>
      </g>
     </g>
    </g>
    <g id="ytick_46">
     <g id="line2d_120">
      <g>
       <use style="stroke:#000000;stroke-width:0.6;" x="55.778125" xlink:href="#m8a04b06bff" y="84.096105"/>
      </g>
     </g>
    </g>
    <g id="ytick_47">
     <g id="line2d_121">
      <g>
       <use style="stroke:#000000;stroke-width:0.6;" x="55.778125" xlink:href="#m8a04b06bff" y="80.093908"/>
      </g>
     </g>
    </g>
    <g id="ytick_48">
     <g id="line2d_122">
      <g>
       <use style="stroke:#000000;stroke-width:0.6;" x="55.778125" xlink:href="#m8a04b06bff" y="76.989563"/>
      </g>
     </g>
    </g>
    <g id="ytick_49">
     <g id="line2d_123">
      <g>
       <use style="stroke:#000000;stroke-width:0.6;" x="55.778125" xlink:href="#m8a04b06bff" y="74.453129"/>
      </g>
     </g>
    </g>
    <g id="ytick_50">
     <g id="line2d_124">
      <g>
       <use style="stroke:#000000;stroke-width:0.6;" x="55.778125" xlink:href="#m8a04b06bff" y="72.308604"/>
      </g>
     </g>
    </g>
    <g id="ytick_51">
     <g id="line2d_125">
      <g>
       <use style="stroke:#000000;stroke-width:0.6;" x="55.778125" xlink:href="#m8a04b06bff" y="70.450932"/>
      </g>
     </g>
    </g>
    <g id="ytick_52">
     <g id="line2d_126">
      <g>
       <use style="stroke:#000000;stroke-width:0.6;" x="55.778125" xlink:href="#m8a04b06bff" y="68.81235"/>
      </g>
     </g>
    </g>
    <g id="ytick_53">
     <g id="line2d_127">
      <g>
       <use style="stroke:#000000;stroke-width:0.6;" x="55.778125" xlink:href="#m8a04b06bff" y="57.703612"/>
      </g>
     </g>
    </g>
    <g id="ytick_54">
     <g id="line2d_128">
      <g>
       <use style="stroke:#000000;stroke-width:0.6;" x="55.778125" xlink:href="#m8a04b06bff" y="52.062833"/>
      </g>
     </g>
    </g>
    <g id="ytick_55">
     <g id="line2d_129">
      <g>
       <use style="stroke:#000000;stroke-width:0.6;" x="55.778125" xlink:href="#m8a04b06bff" y="48.060637"/>
      </g>
     </g>
    </g>
    <g id="ytick_56">
     <g id="line2d_130">
      <g>
       <use style="stroke:#000000;stroke-width:0.6;" x="55.778125" xlink:href="#m8a04b06bff" y="44.956292"/>
      </g>
     </g>
    </g>
    <g id="ytick_57">
     <g id="line2d_131">
      <g>
       <use style="stroke:#000000;stroke-width:0.6;" x="55.778125" xlink:href="#m8a04b06bff" y="42.419857"/>
      </g>
     </g>
    </g>
    <g id="ytick_58">
     <g id="line2d_132">
      <g>
       <use style="stroke:#000000;stroke-width:0.6;" x="55.778125" xlink:href="#m8a04b06bff" y="40.275333"/>
      </g>
     </g>
    </g>
    <g id="ytick_59">
     <g id="line2d_133">
      <g>
       <use style="stroke:#000000;stroke-width:0.6;" x="55.778125" xlink:href="#m8a04b06bff" y="38.417661"/>
      </g>
     </g>
    </g>
    <g id="ytick_60">
     <g id="line2d_134">
      <g>
       <use style="stroke:#000000;stroke-width:0.6;" x="55.778125" xlink:href="#m8a04b06bff" y="36.779078"/>
      </g>
     </g>
    </g>
    <g id="ytick_61">
     <g id="line2d_135">
      <g>
       <use style="stroke:#000000;stroke-width:0.6;" x="55.778125" xlink:href="#m8a04b06bff" y="25.670341"/>
      </g>
     </g>
    </g>
    <g id="text_16">
     <!-- errore relativo -->
     <defs>
      <path d="M 56.203125 29.59375 
L 56.203125 25.203125 
L 14.890625 25.203125 
Q 15.484375 15.921875 20.484375 11.0625 
Q 25.484375 6.203125 34.421875 6.203125 
Q 39.59375 6.203125 44.453125 7.46875 
Q 49.3125 8.734375 54.109375 11.28125 
L 54.109375 2.78125 
Q 49.265625 0.734375 44.1875 -0.34375 
Q 39.109375 -1.421875 33.890625 -1.421875 
Q 20.796875 -1.421875 13.15625 6.1875 
Q 5.515625 13.8125 5.515625 26.8125 
Q 5.515625 40.234375 12.765625 48.109375 
Q 20.015625 56 32.328125 56 
Q 43.359375 56 49.78125 48.890625 
Q 56.203125 41.796875 56.203125 29.59375 
z
M 47.21875 32.234375 
Q 47.125 39.59375 43.09375 43.984375 
Q 39.0625 48.390625 32.421875 48.390625 
Q 24.90625 48.390625 20.390625 44.140625 
Q 15.875 39.890625 15.1875 32.171875 
z
" id="DejaVuSans-65"/>
      <path d="M 41.109375 46.296875 
Q 39.59375 47.171875 37.8125 47.578125 
Q 36.03125 48 33.890625 48 
Q 26.265625 48 22.1875 43.046875 
Q 18.109375 38.09375 18.109375 28.8125 
L 18.109375 0 
L 9.078125 0 
L 9.078125 54.6875 
L 18.109375 54.6875 
L 18.109375 46.1875 
Q 20.953125 51.171875 25.484375 53.578125 
Q 30.03125 56 36.53125 56 
Q 37.453125 56 38.578125 55.875 
Q 39.703125 55.765625 41.0625 55.515625 
z
" id="DejaVuSans-72"/>
      <path d="M 30.609375 48.390625 
Q 23.390625 48.390625 19.1875 42.75 
Q 14.984375 37.109375 14.984375 27.296875 
Q 14.984375 17.484375 19.15625 11.84375 
Q 23.34375 6.203125 30.609375 6.203125 
Q 37.796875 6.203125 41.984375 11.859375 
Q 46.1875 17.53125 46.1875 27.296875 
Q 46.1875 37.015625 41.984375 42.703125 
Q 37.796875 48.390625 30.609375 48.390625 
z
M 30.609375 56 
Q 42.328125 56 49.015625 48.375 
Q 55.71875 40.765625 55.71875 27.296875 
Q 55.71875 13.875 49.015625 6.21875 
Q 42.328125 -1.421875 30.609375 -1.421875 
Q 18.84375 -1.421875 12.171875 6.21875 
Q 5.515625 13.875 5.515625 27.296875 
Q 5.515625 40.765625 12.171875 48.375 
Q 18.84375 56 30.609375 56 
z
" id="DejaVuSans-6f"/>
      <path id="DejaVuSans-20"/>
      <path d="M 9.421875 75.984375 
L 18.40625 75.984375 
L 18.40625 0 
L 9.421875 0 
z
" id="DejaVuSans-6c"/>
      <path d="M 34.28125 27.484375 
Q 23.390625 27.484375 19.1875 25 
Q 14.984375 22.515625 14.984375 16.5 
Q 14.984375 11.71875 18.140625 8.90625 
Q 21.296875 6.109375 26.703125 6.109375 
Q 34.1875 6.109375 38.703125 11.40625 
Q 43.21875 16.703125 43.21875 25.484375 
L 43.21875 27.484375 
z
M 52.203125 31.203125 
L 52.203125 0 
L 43.21875 0 
L 43.21875 8.296875 
Q 40.140625 3.328125 35.546875 0.953125 
Q 30.953125 -1.421875 24.3125 -1.421875 
Q 15.921875 -1.421875 10.953125 3.296875 
Q 6 8.015625 6 15.921875 
Q 6 25.140625 12.171875 29.828125 
Q 18.359375 34.515625 30.609375 34.515625 
L 43.21875 34.515625 
L 43.21875 35.40625 
Q 43.21875 41.609375 39.140625 45 
Q 35.0625 48.390625 27.6875 48.390625 
Q 23 48.390625 18.546875 47.265625 
Q 14.109375 46.140625 10.015625 43.890625 
L 10.015625 52.203125 
Q 14.9375 54.109375 19.578125 55.046875 
Q 24.21875 56 28.609375 56 
Q 40.484375 56 46.34375 49.84375 
Q 52.203125 43.703125 52.203125 31.203125 
z
" id="DejaVuSans-61"/>
      <path d="M 18.3125 70.21875 
L 18.3125 54.6875 
L 36.8125 54.6875 
L 36.8125 47.703125 
L 18.3125 47.703125 
L 18.3125 18.015625 
Q 18.3125 11.328125 20.140625 9.421875 
Q 21.96875 7.515625 27.59375 7.515625 
L 36.8125 7.515625 
L 36.8125 0 
L 27.59375 0 
Q 17.1875 0 13.234375 3.875 
Q 9.28125 7.765625 9.28125 18.015625 
L 9.28125 47.703125 
L 2.6875 47.703125 
L 2.6875 54.6875 
L 9.28125 54.6875 
L 9.28125 70.21875 
z
" id="DejaVuSans-74"/>
      <path d="M 9.421875 54.6875 
L 18.40625 54.6875 
L 18.40625 0 
L 9.421875 0 
z
M 9.421875 75.984375 
L 18.40625 75.984375 
L 18.40625 64.59375 
L 9.421875 64.59375 
z
" id="DejaVuSans-69"/>
      <path d="M 2.984375 54.6875 
L 12.5 54.6875 
L 29.59375 8.796875 
L 46.6875 54.6875 
L 56.203125 54.6875 
L 35.6875 0 
L 23.484375 0 
z
" id="DejaVuSans-76"/>
     </defs>
     <g transform="translate(14.798437 166.95375)rotate(-90)scale(0.1 -0.1)">
      <use xlink:href="#DejaVuSans-65"/>
      <use x="61.523438" xlink:href="#DejaVuSans-72"/>
      <use x="102.621094" xlink:href="#DejaVuSans-72"/>
      <use x="143.703125" xlink:href="#DejaVuSans-6f"/>
      <use x="204.884766" xlink:href="#DejaVuSans-72"/>
      <use x="245.966797" xlink:href="#DejaVuSans-65"/>
      <use x="307.490234" xlink:href="#DejaVuSans-20"/>
      <use x="339.277344" xlink:href="#DejaVuSans-72"/>
      <use x="380.359375" xlink:href="#DejaVuSans-65"/>
      <use x="441.882812" xlink:href="#DejaVuSans-6c"/>
      <use x="469.666016" xlink:href="#DejaVuSans-61"/>
      <use x="530.945312" xlink:href="#DejaVuSans-74"/>
      <use x="570.154297" xlink:href="#DejaVuSans-69"/>
      <use x="597.9375" xlink:href="#DejaVuSans-76"/>
      <use x="657.117188" xlink:href="#DejaVuSans-6f"/>
     </g>
    </g>
   </g>
   <g id="line2d_136">
    <defs>
     <path d="M 0 3 
C 0.795609 3 1.55874 2.683901 2.12132 2.12132 
C 2.683901 1.55874 3 0.795609 3 0 
C 3 -0.795609 2.683901 -1.55874 2.12132 -2.12132 
C 1.55874 -2.683901 0.795609 -3 0 -3 
C -0.795609 -3 -1.55874 -2.683901 -2.12132 -2.12132 
C -2.683901 -1.55874 -3 -0.795609 -3 0 
C -3 0.795609 -2.683901 1.55874 -2.12132 2.12132 
C -1.55874 2.683901 -0.795609 3 0 3 
z
" id="m770c9b62bb" style="stroke:#1f77b4;"/>
    </defs>
    <g clip-path="url(#pf103af42ea)">
     <use style="fill:#1f77b4;stroke:#1f77b4;" x="70.996307" xlink:href="#m770c9b62bb" y="37.311173"/>
     <use style="fill:#1f77b4;stroke:#1f77b4;" x="86.384089" xlink:href="#m770c9b62bb" y="46.954147"/>
     <use style="fill:#1f77b4;stroke:#1f77b4;" x="95.385364" xlink:href="#m770c9b62bb" y="52.594926"/>
     <use style="fill:#1f77b4;stroke:#1f77b4;" x="101.77187" xlink:href="#m770c9b62bb" y="56.597122"/>
     <use style="fill:#1f77b4;stroke:#1f77b4;" x="106.72563" xlink:href="#m770c9b62bb" y="59.701467"/>
     <use style="fill:#1f77b4;stroke:#1f77b4;" x="110.773146" xlink:href="#m770c9b62bb" y="62.237901"/>
     <use style="fill:#1f77b4;stroke:#1f77b4;" x="114.195272" xlink:href="#m770c9b62bb" y="64.382426"/>
     <use style="fill:#1f77b4;stroke:#1f77b4;" x="117.159652" xlink:href="#m770c9b62bb" y="66.240098"/>
     <use style="fill:#1f77b4;stroke:#1f77b4;" x="119.774421" xlink:href="#m770c9b62bb" y="67.87868"/>
     <use style="fill:#1f77b4;stroke:#1f77b4;" x="122.113411" xlink:href="#m770c9b62bb" y="69.344442"/>
     <use style="fill:#1f77b4;stroke:#1f77b4;" x="137.501193" xlink:href="#m770c9b62bb" y="78.987416"/>
     <use style="fill:#1f77b4;stroke:#1f77b4;" x="146.502468" xlink:href="#m770c9b62bb" y="84.628192"/>
     <use style="fill:#1f77b4;stroke:#1f77b4;" x="152.888975" xlink:href="#m770c9b62bb" y="88.630389"/>
     <use style="fill:#1f77b4;stroke:#1f77b4;" x="157.842734" xlink:href="#m770c9b62bb" y="91.73473"/>
     <use style="fill:#1f77b4;stroke:#1f77b4;" x="161.89025" xlink:href="#m770c9b62bb" y="94.271164"/>
     <use style="fill:#1f77b4;stroke:#1f77b4;" x="165.312376" xlink:href="#m770c9b62bb" y="96.415682"/>
     <use style="fill:#1f77b4;stroke:#1f77b4;" x="168.276756" xlink:href="#m770c9b62bb" y="98.27335"/>
     <use style="fill:#1f77b4;stroke:#1f77b4;" x="170.891525" xlink:href="#m770c9b62bb" y="99.911929"/>
     <use style="fill:#1f77b4;stroke:#1f77b4;" x="173.230516" xlink:href="#m770c9b62bb" y="101.377692"/>
     <use style="fill:#1f77b4;stroke:#1f77b4;" x="188.618297" xlink:href="#m770c9b62bb" y="111.020639"/>
     <use style="fill:#1f77b4;stroke:#1f77b4;" x="197.619573" xlink:href="#m770c9b62bb" y="116.661412"/>
     <use style="fill:#1f77b4;stroke:#1f77b4;" x="204.006079" xlink:href="#m770c9b62bb" y="120.663566"/>
     <use style="fill:#1f77b4;stroke:#1f77b4;" x="208.959838" xlink:href="#m770c9b62bb" y="123.767894"/>
     <use style="fill:#1f77b4;stroke:#1f77b4;" x="213.007355" xlink:href="#m770c9b62bb" y="126.304335"/>
     <use style="fill:#1f77b4;stroke:#1f77b4;" x="216.429481" xlink:href="#m770c9b62bb" y="128.448857"/>
     <use style="fill:#1f77b4;stroke:#1f77b4;" x="219.393861" xlink:href="#m770c9b62bb" y="130.306635"/>
     <use style="fill:#1f77b4;stroke:#1f77b4;" x="222.00863" xlink:href="#m770c9b62bb" y="131.945197"/>
     <use style="fill:#1f77b4;stroke:#1f77b4;" x="224.34762" xlink:href="#m770c9b62bb" y="133.410926"/>
     <use style="fill:#1f77b4;stroke:#1f77b4;" x="239.735402" xlink:href="#m770c9b62bb" y="143.053183"/>
     <use style="fill:#1f77b4;stroke:#1f77b4;" x="248.736677" xlink:href="#m770c9b62bb" y="148.693563"/>
     <use style="fill:#1f77b4;stroke:#1f77b4;" x="255.123184" xlink:href="#m770c9b62bb" y="152.695149"/>
     <use style="fill:#1f77b4;stroke:#1f77b4;" x="260.076943" xlink:href="#m770c9b62bb" y="155.798723"/>
     <use style="fill:#1f77b4;stroke:#1f77b4;" x="264.124459" xlink:href="#m770c9b62bb" y="158.334067"/>
     <use style="fill:#1f77b4;stroke:#1f77b4;" x="267.546585" xlink:href="#m770c9b62bb" y="160.478348"/>
     <use style="fill:#1f77b4;stroke:#1f77b4;" x="270.510965" xlink:href="#m770c9b62bb" y="162.335258"/>
     <use style="fill:#1f77b4;stroke:#1f77b4;" x="273.125734" xlink:href="#m770c9b62bb" y="163.973538"/>
     <use style="fill:#1f77b4;stroke:#1f77b4;" x="275.464725" xlink:href="#m770c9b62bb" y="165.438965"/>
     <use style="fill:#1f77b4;stroke:#1f77b4;" x="290.852506" xlink:href="#m770c9b62bb" y="175.075691"/>
     <use style="fill:#1f77b4;stroke:#1f77b4;" x="299.853782" xlink:href="#m770c9b62bb" y="180.709286"/>
     <use style="fill:#1f77b4;stroke:#1f77b4;" x="306.240288" xlink:href="#m770c9b62bb" y="184.704896"/>
     <use style="fill:#1f77b4;stroke:#1f77b4;" x="311.194047" xlink:href="#m770c9b62bb" y="187.800702"/>
     <use style="fill:#1f77b4;stroke:#1f77b4;" x="315.241563" xlink:href="#m770c9b62bb" y="190.329095"/>
     <use style="fill:#1f77b4;stroke:#1f77b4;" x="318.663689" xlink:href="#m770c9b62bb" y="192.463678"/>
     <use style="fill:#1f77b4;stroke:#1f77b4;" x="321.62807" xlink:href="#m770c9b62bb" y="194.311227"/>
     <use style="fill:#1f77b4;stroke:#1f77b4;" x="324.242839" xlink:href="#m770c9b62bb" y="195.939949"/>
     <use style="fill:#1f77b4;stroke:#1f77b4;" x="326.581829" xlink:href="#m770c9b62bb" y="197.395091"/>
     <use style="fill:#1f77b4;stroke:#1f77b4;" x="341.969611" xlink:href="#m770c9b62bb" y="206.970911"/>
     <use style="fill:#1f77b4;stroke:#1f77b4;" x="350.970886" xlink:href="#m770c9b62bb" y="212.589042"/>
     <use style="fill:#1f77b4;stroke:#1f77b4;" x="357.357393" xlink:href="#m770c9b62bb" y="216.630151"/>
     <use style="fill:#1f77b4;stroke:#1f77b4;" x="362.311152" xlink:href="#m770c9b62bb" y="218.66867"/>
     <use style="fill:#1f77b4;stroke:#1f77b4;" x="366.358668" xlink:href="#m770c9b62bb" y="222.606"/>
     <use style="fill:#1f77b4;stroke:#1f77b4;" x="369.780794" xlink:href="#m770c9b62bb" y="223.353451"/>
     <use style="fill:#1f77b4;stroke:#1f77b4;" x="372.745174" xlink:href="#m770c9b62bb" y="227.496197"/>
     <use style="fill:#1f77b4;stroke:#1f77b4;" x="375.359943" xlink:href="#m770c9b62bb" y="229.874489"/>
    </g>
   </g>
   <g id="line2d_137">
    <defs>
     <path d="M 0 3 
C 0.795609 3 1.55874 2.683901 2.12132 2.12132 
C 2.683901 1.55874 3 0.795609 3 0 
C 3 -0.795609 2.683901 -1.55874 2.12132 -2.12132 
C 1.55874 -2.683901 0.795609 -3 0 -3 
C -0.795609 -3 -1.55874 -2.683901 -2.12132 -2.12132 
C -2.683901 -1.55874 -3 -0.795609 -3 0 
C -3 0.795609 -2.683901 1.55874 -2.12132 2.12132 
C -1.55874 2.683901 -0.795609 3 0 3 
z
" id="me5c50811a0" style="stroke:#ff7f0e;"/>
    </defs>
    <g clip-path="url(#pf103af42ea)">
     <use style="fill:#ff7f0e;stroke:#ff7f0e;" x="70.996307" xlink:href="#me5c50811a0" y="37.311173"/>
     <use style="fill:#ff7f0e;stroke:#ff7f0e;" x="86.384089" xlink:href="#me5c50811a0" y="46.954147"/>
     <use style="fill:#ff7f0e;stroke:#ff7f0e;" x="95.385364" xlink:href="#me5c50811a0" y="52.594926"/>
     <use style="fill:#ff7f0e;stroke:#ff7f0e;" x="101.77187" xlink:href="#me5c50811a0" y="56.597122"/>
     <use style="fill:#ff7f0e;stroke:#ff7f0e;" x="106.72563" xlink:href="#me5c50811a0" y="59.701467"/>
     <use style="fill:#ff7f0e;stroke:#ff7f0e;" x="110.773146" xlink:href="#me5c50811a0" y="62.237902"/>
     <use style="fill:#ff7f0e;stroke:#ff7f0e;" x="114.195272" xlink:href="#me5c50811a0" y="64.382426"/>
     <use style="fill:#ff7f0e;stroke:#ff7f0e;" x="117.159652" xlink:href="#me5c50811a0" y="66.240098"/>
     <use style="fill:#ff7f0e;stroke:#ff7f0e;" x="119.774421" xlink:href="#me5c50811a0" y="67.87868"/>
     <use style="fill:#ff7f0e;stroke:#ff7f0e;" x="122.113411" xlink:href="#me5c50811a0" y="69.344443"/>
     <use style="fill:#ff7f0e;stroke:#ff7f0e;" x="137.501193" xlink:href="#me5c50811a0" y="78.987418"/>
     <use style="fill:#ff7f0e;stroke:#ff7f0e;" x="146.502468" xlink:href="#me5c50811a0" y="84.628195"/>
     <use style="fill:#ff7f0e;stroke:#ff7f0e;" x="152.888975" xlink:href="#me5c50811a0" y="88.630393"/>
     <use style="fill:#ff7f0e;stroke:#ff7f0e;" x="157.842734" xlink:href="#me5c50811a0" y="91.734736"/>
     <use style="fill:#ff7f0e;stroke:#ff7f0e;" x="161.89025" xlink:href="#me5c50811a0" y="94.27117"/>
     <use style="fill:#ff7f0e;stroke:#ff7f0e;" x="165.312376" xlink:href="#me5c50811a0" y="96.415692"/>
     <use style="fill:#ff7f0e;stroke:#ff7f0e;" x="168.276756" xlink:href="#me5c50811a0" y="98.273364"/>
     <use style="fill:#ff7f0e;stroke:#ff7f0e;" x="170.891525" xlink:href="#me5c50811a0" y="99.911948"/>
     <use style="fill:#ff7f0e;stroke:#ff7f0e;" x="173.230516" xlink:href="#me5c50811a0" y="101.37772"/>
     <use style="fill:#ff7f0e;stroke:#ff7f0e;" x="188.618297" xlink:href="#me5c50811a0" y="111.020694"/>
     <use style="fill:#ff7f0e;stroke:#ff7f0e;" x="197.619573" xlink:href="#me5c50811a0" y="116.661461"/>
     <use style="fill:#ff7f0e;stroke:#ff7f0e;" x="204.006079" xlink:href="#me5c50811a0" y="120.663645"/>
     <use style="fill:#ff7f0e;stroke:#ff7f0e;" x="208.959838" xlink:href="#me5c50811a0" y="123.768047"/>
     <use style="fill:#ff7f0e;stroke:#ff7f0e;" x="213.007355" xlink:href="#me5c50811a0" y="126.304459"/>
     <use style="fill:#ff7f0e;stroke:#ff7f0e;" x="216.429481" xlink:href="#me5c50811a0" y="128.448992"/>
     <use style="fill:#ff7f0e;stroke:#ff7f0e;" x="219.393861" xlink:href="#me5c50811a0" y="130.306612"/>
     <use style="fill:#ff7f0e;stroke:#ff7f0e;" x="222.00863" xlink:href="#me5c50811a0" y="131.945202"/>
     <use style="fill:#ff7f0e;stroke:#ff7f0e;" x="224.34762" xlink:href="#me5c50811a0" y="133.411012"/>
     <use style="fill:#ff7f0e;stroke:#ff7f0e;" x="239.735402" xlink:href="#me5c50811a0" y="143.054065"/>
     <use style="fill:#ff7f0e;stroke:#ff7f0e;" x="248.736677" xlink:href="#me5c50811a0" y="148.694822"/>
     <use style="fill:#ff7f0e;stroke:#ff7f0e;" x="255.123184" xlink:href="#me5c50811a0" y="152.696997"/>
     <use style="fill:#ff7f0e;stroke:#ff7f0e;" x="260.076943" xlink:href="#me5c50811a0" y="155.800925"/>
     <use style="fill:#ff7f0e;stroke:#ff7f0e;" x="264.124459" xlink:href="#me5c50811a0" y="158.337733"/>
     <use style="fill:#ff7f0e;stroke:#ff7f0e;" x="267.546585" xlink:href="#me5c50811a0" y="160.482335"/>
     <use style="fill:#ff7f0e;stroke:#ff7f0e;" x="270.510965" xlink:href="#me5c50811a0" y="162.339886"/>
     <use style="fill:#ff7f0e;stroke:#ff7f0e;" x="273.125734" xlink:href="#me5c50811a0" y="163.978744"/>
     <use style="fill:#ff7f0e;stroke:#ff7f0e;" x="275.464725" xlink:href="#me5c50811a0" y="165.444781"/>
     <use style="fill:#ff7f0e;stroke:#ff7f0e;" x="290.852506" xlink:href="#me5c50811a0" y="175.086552"/>
     <use style="fill:#ff7f0e;stroke:#ff7f0e;" x="299.853782" xlink:href="#me5c50811a0" y="180.728103"/>
     <use style="fill:#ff7f0e;stroke:#ff7f0e;" x="306.240288" xlink:href="#me5c50811a0" y="184.731072"/>
     <use style="fill:#ff7f0e;stroke:#ff7f0e;" x="311.194047" xlink:href="#me5c50811a0" y="187.832235"/>
     <use style="fill:#ff7f0e;stroke:#ff7f0e;" x="315.241563" xlink:href="#me5c50811a0" y="190.373396"/>
     <use style="fill:#ff7f0e;stroke:#ff7f0e;" x="318.663689" xlink:href="#me5c50811a0" y="192.510785"/>
     <use style="fill:#ff7f0e;stroke:#ff7f0e;" x="321.62807" xlink:href="#me5c50811a0" y="194.373182"/>
     <use style="fill:#ff7f0e;stroke:#ff7f0e;" x="324.242839" xlink:href="#me5c50811a0" y="196.007595"/>
     <use style="fill:#ff7f0e;stroke:#ff7f0e;" x="326.581829" xlink:href="#me5c50811a0" y="197.479072"/>
     <use style="fill:#ff7f0e;stroke:#ff7f0e;" x="341.969611" xlink:href="#me5c50811a0" y="207.110004"/>
     <use style="fill:#ff7f0e;stroke:#ff7f0e;" x="350.970886" xlink:href="#me5c50811a0" y="212.758502"/>
     <use style="fill:#ff7f0e;stroke:#ff7f0e;" x="357.357393" xlink:href="#me5c50811a0" y="216.788213"/>
     <use style="fill:#ff7f0e;stroke:#ff7f0e;" x="362.311152" xlink:href="#me5c50811a0" y="219.880494"/>
     <use style="fill:#ff7f0e;stroke:#ff7f0e;" x="366.358668" xlink:href="#me5c50811a0" y="222.42466"/>
     <use style="fill:#ff7f0e;stroke:#ff7f0e;" x="369.780794" xlink:href="#me5c50811a0" y="224.537357"/>
     <use style="fill:#ff7f0e;stroke:#ff7f0e;" x="372.745174" xlink:href="#me5c50811a0" y="226.382997"/>
     <use style="fill:#ff7f0e;stroke:#ff7f0e;" x="375.359943" xlink:href="#me5c50811a0" y="228.058944"/>
    </g>
   </g>
   <g id="line2d_138">
    <defs>
     <path d="M 0 3 
C 0.795609 3 1.55874 2.683901 2.12132 2.12132 
C 2.683901 1.55874 3 0.795609 3 0 
C 3 -0.795609 2.683901 -1.55874 2.12132 -2.12132 
C 1.55874 -2.683901 0.795609 -3 0 -3 
C -0.795609 -3 -1.55874 -2.683901 -2.12132 -2.12132 
C -2.683901 -1.55874 -3 -0.795609 -3 0 
C -3 0.795609 -2.683901 1.55874 -2.12132 2.12132 
C -1.55874 2.683901 -0.795609 3 0 3 
z
" id="mf8d0b4c8ad" style="stroke:#2ca02c;"/>
    </defs>
    <g clip-path="url(#pf103af42ea)">
     <use style="fill:#2ca02c;stroke:#2ca02c;" x="70.996307" xlink:href="#mf8d0b4c8ad" y="37.311193"/>
     <use style="fill:#2ca02c;stroke:#2ca02c;" x="86.384089" xlink:href="#mf8d0b4c8ad" y="46.954185"/>
     <use style="fill:#2ca02c;stroke:#2ca02c;" x="95.385364" xlink:href="#mf8d0b4c8ad" y="52.59498"/>
     <use style="fill:#2ca02c;stroke:#2ca02c;" x="101.77187" xlink:href="#mf8d0b4c8ad" y="56.597236"/>
     <use style="fill:#2ca02c;stroke:#2ca02c;" x="106.72563" xlink:href="#mf8d0b4c8ad" y="59.701649"/>
     <use style="fill:#2ca02c;stroke:#2ca02c;" x="110.773146" xlink:href="#mf8d0b4c8ad" y="62.238089"/>
     <use style="fill:#2ca02c;stroke:#2ca02c;" x="114.195272" xlink:href="#mf8d0b4c8ad" y="64.382679"/>
     <use style="fill:#2ca02c;stroke:#2ca02c;" x="117.159652" xlink:href="#mf8d0b4c8ad" y="66.240383"/>
     <use style="fill:#2ca02c;stroke:#2ca02c;" x="119.774421" xlink:href="#mf8d0b4c8ad" y="67.879212"/>
     <use style="fill:#2ca02c;stroke:#2ca02c;" x="122.113411" xlink:href="#mf8d0b4c8ad" y="69.34516"/>
     <use style="fill:#2ca02c;stroke:#2ca02c;" x="137.501193" xlink:href="#mf8d0b4c8ad" y="78.988917"/>
     <use style="fill:#2ca02c;stroke:#2ca02c;" x="146.502468" xlink:href="#mf8d0b4c8ad" y="84.632309"/>
     <use style="fill:#2ca02c;stroke:#2ca02c;" x="152.888975" xlink:href="#mf8d0b4c8ad" y="88.632264"/>
     <use style="fill:#2ca02c;stroke:#2ca02c;" x="157.842734" xlink:href="#mf8d0b4c8ad" y="91.73565"/>
     <use style="fill:#2ca02c;stroke:#2ca02c;" x="161.89025" xlink:href="#mf8d0b4c8ad" y="94.273804"/>
     <use style="fill:#2ca02c;stroke:#2ca02c;" x="165.312376" xlink:href="#mf8d0b4c8ad" y="96.41907"/>
     <use style="fill:#2ca02c;stroke:#2ca02c;" x="168.276756" xlink:href="#mf8d0b4c8ad" y="98.277145"/>
     <use style="fill:#2ca02c;stroke:#2ca02c;" x="170.891525" xlink:href="#mf8d0b4c8ad" y="99.916086"/>
     <use style="fill:#2ca02c;stroke:#2ca02c;" x="173.230516" xlink:href="#mf8d0b4c8ad" y="101.381457"/>
     <use style="fill:#2ca02c;stroke:#2ca02c;" x="188.618297" xlink:href="#mf8d0b4c8ad" y="111.017709"/>
     <use style="fill:#2ca02c;stroke:#2ca02c;" x="197.619573" xlink:href="#mf8d0b4c8ad" y="116.653397"/>
     <use style="fill:#2ca02c;stroke:#2ca02c;" x="204.006079" xlink:href="#mf8d0b4c8ad" y="120.654396"/>
     <use style="fill:#2ca02c;stroke:#2ca02c;" x="208.959838" xlink:href="#mf8d0b4c8ad" y="123.756289"/>
     <use style="fill:#2ca02c;stroke:#2ca02c;" x="213.007355" xlink:href="#mf8d0b4c8ad" y="126.292958"/>
     <use style="fill:#2ca02c;stroke:#2ca02c;" x="216.429481" xlink:href="#mf8d0b4c8ad" y="128.442627"/>
     <use style="fill:#2ca02c;stroke:#2ca02c;" x="219.393861" xlink:href="#mf8d0b4c8ad" y="130.288831"/>
     <use style="fill:#2ca02c;stroke:#2ca02c;" x="222.00863" xlink:href="#mf8d0b4c8ad" y="131.93382"/>
     <use style="fill:#2ca02c;stroke:#2ca02c;" x="224.34762" xlink:href="#mf8d0b4c8ad" y="133.394119"/>
     <use style="fill:#2ca02c;stroke:#2ca02c;" x="239.735402" xlink:href="#mf8d0b4c8ad" y="142.78097"/>
     <use style="fill:#2ca02c;stroke:#2ca02c;" x="248.736677" xlink:href="#mf8d0b4c8ad" y="148.968243"/>
     <use style="fill:#2ca02c;stroke:#2ca02c;" x="255.123184" xlink:href="#mf8d0b4c8ad" y="152.725099"/>
     <use style="fill:#2ca02c;stroke:#2ca02c;" x="260.076943" xlink:href="#mf8d0b4c8ad" y="157.48541"/>
     <use style="fill:#2ca02c;stroke:#2ca02c;" x="264.124459" xlink:href="#mf8d0b4c8ad" y="153.027898"/>
     <use style="fill:#2ca02c;stroke:#2ca02c;" x="267.546585" xlink:href="#mf8d0b4c8ad" y="160.133165"/>
     <use style="fill:#2ca02c;stroke:#2ca02c;" x="270.510965" xlink:href="#mf8d0b4c8ad" y="157.806506"/>
     <use style="fill:#2ca02c;stroke:#2ca02c;" x="273.125734" xlink:href="#mf8d0b4c8ad" y="182.402608"/>
     <use style="fill:#2ca02c;stroke:#2ca02c;" x="275.464725" xlink:href="#mf8d0b4c8ad" y="149.65862"/>
     <use style="fill:#2ca02c;stroke:#2ca02c;" x="290.852506" xlink:href="#mf8d0b4c8ad" y="175.535429"/>
     <use style="fill:#2ca02c;stroke:#2ca02c;" x="299.853782" xlink:href="#mf8d0b4c8ad" y="124.32402"/>
     <use style="fill:#2ca02c;stroke:#2ca02c;" x="306.240288" xlink:href="#mf8d0b4c8ad" y="129.387098"/>
     <use style="fill:#2ca02c;stroke:#2ca02c;" x="311.194047" xlink:href="#mf8d0b4c8ad" y="110.293163"/>
     <use style="fill:#2ca02c;stroke:#2ca02c;" x="315.241563" xlink:href="#mf8d0b4c8ad" y="134.346595"/>
     <use style="fill:#2ca02c;stroke:#2ca02c;" x="318.663689" xlink:href="#mf8d0b4c8ad" y="111.522121"/>
     <use style="fill:#2ca02c;stroke:#2ca02c;" x="321.62807" xlink:href="#mf8d0b4c8ad" y="103.273881"/>
     <use style="fill:#2ca02c;stroke:#2ca02c;" x="324.242839" xlink:href="#mf8d0b4c8ad" y="93.972575"/>
     <use style="fill:#2ca02c;stroke:#2ca02c;" x="326.581829" xlink:href="#mf8d0b4c8ad" y="120.12224"/>
     <use style="fill:#2ca02c;stroke:#2ca02c;" x="341.969611" xlink:href="#mf8d0b4c8ad" y="86.623157"/>
     <use style="fill:#2ca02c;stroke:#2ca02c;" x="350.970886" xlink:href="#mf8d0b4c8ad" y="89.349751"/>
     <use style="fill:#2ca02c;stroke:#2ca02c;" x="357.357393" xlink:href="#mf8d0b4c8ad" y="86.519493"/>
     <use style="fill:#2ca02c;stroke:#2ca02c;" x="362.311152" xlink:href="#mf8d0b4c8ad" y="56.321761"/>
     <use style="fill:#2ca02c;stroke:#2ca02c;" x="366.358668" xlink:href="#mf8d0b4c8ad" y="53.699861"/>
     <use style="fill:#2ca02c;stroke:#2ca02c;" x="369.780794" xlink:href="#mf8d0b4c8ad" y="48.584997"/>
     <use style="fill:#2ca02c;stroke:#2ca02c;" x="372.745174" xlink:href="#mf8d0b4c8ad" y="47.658161"/>
     <use style="fill:#2ca02c;stroke:#2ca02c;" x="375.359943" xlink:href="#mf8d0b4c8ad" y="58.901795"/>
    </g>
   </g>
   <g id="line2d_139">
    <defs>
     <path d="M 0 3 
C 0.795609 3 1.55874 2.683901 2.12132 2.12132 
C 2.683901 1.55874 3 0.795609 3 0 
C 3 -0.795609 2.683901 -1.55874 2.12132 -2.12132 
C 1.55874 -2.683901 0.795609 -3 0 -3 
C -0.795609 -3 -1.55874 -2.683901 -2.12132 -2.12132 
C -2.683901 -1.55874 -3 -0.795609 -3 0 
C -3 0.795609 -2.683901 1.55874 -2.12132 2.12132 
C -1.55874 2.683901 -0.795609 3 0 3 
z
" id="m122e1406b1" style="stroke:#d62728;"/>
    </defs>
    <g clip-path="url(#pf103af42ea)">
     <use style="fill:#d62728;stroke:#d62728;" x="70.996307" xlink:href="#m122e1406b1" y="37.311173"/>
     <use style="fill:#d62728;stroke:#d62728;" x="86.384089" xlink:href="#m122e1406b1" y="46.954147"/>
     <use style="fill:#d62728;stroke:#d62728;" x="95.385364" xlink:href="#m122e1406b1" y="52.594926"/>
     <use style="fill:#d62728;stroke:#d62728;" x="101.77187" xlink:href="#m122e1406b1" y="56.597122"/>
     <use style="fill:#d62728;stroke:#d62728;" x="106.72563" xlink:href="#m122e1406b1" y="59.701467"/>
     <use style="fill:#d62728;stroke:#d62728;" x="110.773146" xlink:href="#m122e1406b1" y="62.237902"/>
     <use style="fill:#d62728;stroke:#d62728;" x="114.195272" xlink:href="#m122e1406b1" y="64.382426"/>
     <use style="fill:#d62728;stroke:#d62728;" x="117.159652" xlink:href="#m122e1406b1" y="66.240098"/>
     <use style="fill:#d62728;stroke:#d62728;" x="119.774421" xlink:href="#m122e1406b1" y="67.87868"/>
     <use style="fill:#d62728;stroke:#d62728;" x="122.113411" xlink:href="#m122e1406b1" y="69.344443"/>
     <use style="fill:#d62728;stroke:#d62728;" x="137.501193" xlink:href="#m122e1406b1" y="78.987418"/>
     <use style="fill:#d62728;stroke:#d62728;" x="146.502468" xlink:href="#m122e1406b1" y="84.628195"/>
     <use style="fill:#d62728;stroke:#d62728;" x="152.888975" xlink:href="#m122e1406b1" y="88.630393"/>
     <use style="fill:#d62728;stroke:#d62728;" x="157.842734" xlink:href="#m122e1406b1" y="91.734736"/>
     <use style="fill:#d62728;stroke:#d62728;" x="161.89025" xlink:href="#m122e1406b1" y="94.27117"/>
     <use style="fill:#d62728;stroke:#d62728;" x="165.312376" xlink:href="#m122e1406b1" y="96.415692"/>
     <use style="fill:#d62728;stroke:#d62728;" x="168.276756" xlink:href="#m122e1406b1" y="98.273364"/>
     <use style="fill:#d62728;stroke:#d62728;" x="170.891525" xlink:href="#m122e1406b1" y="99.911948"/>
     <use style="fill:#d62728;stroke:#d62728;" x="173.230516" xlink:href="#m122e1406b1" y="101.37772"/>
     <use style="fill:#d62728;stroke:#d62728;" x="188.618297" xlink:href="#m122e1406b1" y="111.020694"/>
     <use style="fill:#d62728;stroke:#d62728;" x="197.619573" xlink:href="#m122e1406b1" y="116.661461"/>
     <use style="fill:#d62728;stroke:#d62728;" x="204.006079" xlink:href="#m122e1406b1" y="120.663645"/>
     <use style="fill:#d62728;stroke:#d62728;" x="208.959838" xlink:href="#m122e1406b1" y="123.768047"/>
     <use style="fill:#d62728;stroke:#d62728;" x="213.007355" xlink:href="#m122e1406b1" y="126.304459"/>
     <use style="fill:#d62728;stroke:#d62728;" x="216.429481" xlink:href="#m122e1406b1" y="128.448992"/>
     <use style="fill:#d62728;stroke:#d62728;" x="219.393861" xlink:href="#m122e1406b1" y="130.306612"/>
     <use style="fill:#d62728;stroke:#d62728;" x="222.00863" xlink:href="#m122e1406b1" y="131.945202"/>
    </g>
   </g>
   <g id="line2d_140">
    <defs>
     <path d="M 0 3 
C 0.795609 3 1.55874 2.683901 2.12132 2.12132 
C 2.683901 1.55874 3 0.795609 3 0 
C 3 -0.795609 2.683901 -1.55874 2.12132 -2.12132 
C 1.55874 -2.683901 0.795609 -3 0 -3 
C -0.795609 -3 -1.55874 -2.683901 -2.12132 -2.12132 
C -2.683901 -1.55874 -3 -0.795609 -3 0 
C -3 0.795609 -2.683901 1.55874 -2.12132 2.12132 
C -1.55874 2.683901 -0.795609 3 0 3 
z
" id="m5ae908d1b3" style="stroke:#9467bd;"/>
    </defs>
    <g clip-path="url(#pf103af42ea)">
     <use style="fill:#9467bd;stroke:#9467bd;" x="70.996307" xlink:href="#m5ae908d1b3" y="37.311193"/>
     <use style="fill:#9467bd;stroke:#9467bd;" x="86.384089" xlink:href="#m5ae908d1b3" y="46.954185"/>
     <use style="fill:#9467bd;stroke:#9467bd;" x="95.385364" xlink:href="#m5ae908d1b3" y="52.59498"/>
     <use style="fill:#9467bd;stroke:#9467bd;" x="101.77187" xlink:href="#m5ae908d1b3" y="56.597236"/>
     <use style="fill:#9467bd;stroke:#9467bd;" x="106.72563" xlink:href="#m5ae908d1b3" y="59.701649"/>
     <use style="fill:#9467bd;stroke:#9467bd;" x="110.773146" xlink:href="#m5ae908d1b3" y="62.238089"/>
     <use style="fill:#9467bd;stroke:#9467bd;" x="114.195272" xlink:href="#m5ae908d1b3" y="64.382679"/>
     <use style="fill:#9467bd;stroke:#9467bd;" x="117.159652" xlink:href="#m5ae908d1b3" y="66.240383"/>
     <use style="fill:#9467bd;stroke:#9467bd;" x="119.774421" xlink:href="#m5ae908d1b3" y="67.879212"/>
     <use style="fill:#9467bd;stroke:#9467bd;" x="122.113411" xlink:href="#m5ae908d1b3" y="69.34516"/>
     <use style="fill:#9467bd;stroke:#9467bd;" x="137.501193" xlink:href="#m5ae908d1b3" y="78.988917"/>
     <use style="fill:#9467bd;stroke:#9467bd;" x="146.502468" xlink:href="#m5ae908d1b3" y="84.632309"/>
     <use style="fill:#9467bd;stroke:#9467bd;" x="152.888975" xlink:href="#m5ae908d1b3" y="88.632264"/>
     <use style="fill:#9467bd;stroke:#9467bd;" x="157.842734" xlink:href="#m5ae908d1b3" y="91.73565"/>
     <use style="fill:#9467bd;stroke:#9467bd;" x="161.89025" xlink:href="#m5ae908d1b3" y="94.273804"/>
     <use style="fill:#9467bd;stroke:#9467bd;" x="165.312376" xlink:href="#m5ae908d1b3" y="96.41907"/>
     <use style="fill:#9467bd;stroke:#9467bd;" x="168.276756" xlink:href="#m5ae908d1b3" y="98.277145"/>
     <use style="fill:#9467bd;stroke:#9467bd;" x="170.891525" xlink:href="#m5ae908d1b3" y="99.916086"/>
     <use style="fill:#9467bd;stroke:#9467bd;" x="173.230516" xlink:href="#m5ae908d1b3" y="101.381457"/>
     <use style="fill:#9467bd;stroke:#9467bd;" x="188.618297" xlink:href="#m5ae908d1b3" y="111.017709"/>
     <use style="fill:#9467bd;stroke:#9467bd;" x="197.619573" xlink:href="#m5ae908d1b3" y="116.653397"/>
     <use style="fill:#9467bd;stroke:#9467bd;" x="204.006079" xlink:href="#m5ae908d1b3" y="120.654396"/>
     <use style="fill:#9467bd;stroke:#9467bd;" x="208.959838" xlink:href="#m5ae908d1b3" y="123.756289"/>
     <use style="fill:#9467bd;stroke:#9467bd;" x="213.007355" xlink:href="#m5ae908d1b3" y="126.292958"/>
     <use style="fill:#9467bd;stroke:#9467bd;" x="216.429481" xlink:href="#m5ae908d1b3" y="128.442627"/>
     <use style="fill:#9467bd;stroke:#9467bd;" x="219.393861" xlink:href="#m5ae908d1b3" y="130.288831"/>
     <use style="fill:#9467bd;stroke:#9467bd;" x="222.00863" xlink:href="#m5ae908d1b3" y="131.93382"/>
    </g>
   </g>
   <g id="line2d_141">
    <defs>
     <path d="M 0 3 
C 0.795609 3 1.55874 2.683901 2.12132 2.12132 
C 2.683901 1.55874 3 0.795609 3 0 
C 3 -0.795609 2.683901 -1.55874 2.12132 -2.12132 
C 1.55874 -2.683901 0.795609 -3 0 -3 
C -0.795609 -3 -1.55874 -2.683901 -2.12132 -2.12132 
C -2.683901 -1.55874 -3 -0.795609 -3 0 
C -3 0.795609 -2.683901 1.55874 -2.12132 2.12132 
C -1.55874 2.683901 -0.795609 3 0 3 
z
" id="m6cade88e30" style="stroke:#8c564b;"/>
    </defs>
    <g clip-path="url(#pf103af42ea)">
     <use style="fill:#8c564b;stroke:#8c564b;" x="70.996307" xlink:href="#m6cade88e30" y="33.400636"/>
     <use style="fill:#8c564b;stroke:#8c564b;" x="86.384089" xlink:href="#m6cade88e30" y="51.109155"/>
     <use style="fill:#8c564b;stroke:#8c564b;" x="95.385364" xlink:href="#m6cade88e30" y="47.232005"/>
     <use style="fill:#8c564b;stroke:#8c564b;" x="101.77187" xlink:href="#m6cade88e30" y="44.823041"/>
     <use style="fill:#8c564b;stroke:#8c564b;" x="106.72563" xlink:href="#m6cade88e30" y="32.201761"/>
     <use style="fill:#8c564b;stroke:#8c564b;" x="110.773146" xlink:href="#m6cade88e30" y="32.201761"/>
     <use style="fill:#8c564b;stroke:#8c564b;" x="114.195272" xlink:href="#m6cade88e30" y="97.435944"/>
     <use style="fill:#8c564b;stroke:#8c564b;" x="117.159652" xlink:href="#m6cade88e30" y="51.109155"/>
     <use style="fill:#8c564b;stroke:#8c564b;" x="119.774421" xlink:href="#m6cade88e30" y="48.006843"/>
     <use style="fill:#8c564b;stroke:#8c564b;" x="122.113411" xlink:href="#m6cade88e30" y="32.459978"/>
     <use style="fill:#8c564b;stroke:#8c564b;" x="137.501193" xlink:href="#m6cade88e30" y="48.006843"/>
     <use style="fill:#8c564b;stroke:#8c564b;" x="146.502468" xlink:href="#m6cade88e30" y="32.201761"/>
     <use style="fill:#8c564b;stroke:#8c564b;" x="152.888975" xlink:href="#m6cade88e30" y="47.232005"/>
     <use style="fill:#8c564b;stroke:#8c564b;" x="157.842734" xlink:href="#m6cade88e30" y="32.459978"/>
     <use style="fill:#8c564b;stroke:#8c564b;" x="161.89025" xlink:href="#m6cade88e30" y="32.459978"/>
     <use style="fill:#8c564b;stroke:#8c564b;" x="165.312376" xlink:href="#m6cade88e30" y="36.161385"/>
     <use style="fill:#8c564b;stroke:#8c564b;" x="168.276756" xlink:href="#m6cade88e30" y="32.201761"/>
     <use style="fill:#8c564b;stroke:#8c564b;" x="170.891525" xlink:href="#m6cade88e30" y="47.232005"/>
    </g>
   </g>
   <g id="patch_3">
    <path d="M 55.778125 239.758125 
L 55.778125 22.318125 
" style="fill:none;stroke:#000000;stroke-linecap:square;stroke-linejoin:miter;stroke-width:0.8;"/>
   </g>
   <g id="patch_4">
    <path d="M 390.578125 239.758125 
L 390.578125 22.318125 
" style="fill:none;stroke:#000000;stroke-linecap:square;stroke-linejoin:miter;stroke-width:0.8;"/>
   </g>
   <g id="patch_5">
    <path d="M 55.778125 239.758125 
L 390.578125 239.758125 
" style="fill:none;stroke:#000000;stroke-linecap:square;stroke-linejoin:miter;stroke-width:0.8;"/>
   </g>
   <g id="patch_6">
    <path d="M 55.778125 22.318125 
L 390.578125 22.318125 
" style="fill:none;stroke:#000000;stroke-linecap:square;stroke-linejoin:miter;stroke-width:0.8;"/>
   </g>
   <g id="text_17">
    <!-- confronto errore relativo -->
    <defs>
     <path d="M 48.78125 52.59375 
L 48.78125 44.1875 
Q 44.96875 46.296875 41.140625 47.34375 
Q 37.3125 48.390625 33.40625 48.390625 
Q 24.65625 48.390625 19.8125 42.84375 
Q 14.984375 37.3125 14.984375 27.296875 
Q 14.984375 17.28125 19.8125 11.734375 
Q 24.65625 6.203125 33.40625 6.203125 
Q 37.3125 6.203125 41.140625 7.25 
Q 44.96875 8.296875 48.78125 10.40625 
L 48.78125 2.09375 
Q 45.015625 0.34375 40.984375 -0.53125 
Q 36.96875 -1.421875 32.421875 -1.421875 
Q 20.0625 -1.421875 12.78125 6.34375 
Q 5.515625 14.109375 5.515625 27.296875 
Q 5.515625 40.671875 12.859375 48.328125 
Q 20.21875 56 33.015625 56 
Q 37.15625 56 41.109375 55.140625 
Q 45.0625 54.296875 48.78125 52.59375 
z
" id="DejaVuSans-63"/>
     <path d="M 37.109375 75.984375 
L 37.109375 68.5 
L 28.515625 68.5 
Q 23.6875 68.5 21.796875 66.546875 
Q 19.921875 64.59375 19.921875 59.515625 
L 19.921875 54.6875 
L 34.71875 54.6875 
L 34.71875 47.703125 
L 19.921875 47.703125 
L 19.921875 0 
L 10.890625 0 
L 10.890625 47.703125 
L 2.296875 47.703125 
L 2.296875 54.6875 
L 10.890625 54.6875 
L 10.890625 58.5 
Q 10.890625 67.625 15.140625 71.796875 
Q 19.390625 75.984375 28.609375 75.984375 
z
" id="DejaVuSans-66"/>
    </defs>
    <g transform="translate(149.325625 16.318125)scale(0.12 -0.12)">
     <use xlink:href="#DejaVuSans-63"/>
     <use x="54.980469" xlink:href="#DejaVuSans-6f"/>
     <use x="116.162109" xlink:href="#DejaVuSans-6e"/>
     <use x="179.541016" xlink:href="#DejaVuSans-66"/>
     <use x="214.746094" xlink:href="#DejaVuSans-72"/>
     <use x="255.828125" xlink:href="#DejaVuSans-6f"/>
     <use x="317.009766" xlink:href="#DejaVuSans-6e"/>
     <use x="380.388672" xlink:href="#DejaVuSans-74"/>
     <use x="419.597656" xlink:href="#DejaVuSans-6f"/>
     <use x="480.779297" xlink:href="#DejaVuSans-20"/>
     <use x="512.566406" xlink:href="#DejaVuSans-65"/>
     <use x="574.089844" xlink:href="#DejaVuSans-72"/>
     <use x="615.1875" xlink:href="#DejaVuSans-72"/>
     <use x="656.269531" xlink:href="#DejaVuSans-6f"/>
     <use x="717.451172" xlink:href="#DejaVuSans-72"/>
     <use x="758.533203" xlink:href="#DejaVuSans-65"/>
     <use x="820.056641" xlink:href="#DejaVuSans-20"/>
     <use x="851.84375" xlink:href="#DejaVuSans-72"/>
     <use x="892.925781" xlink:href="#DejaVuSans-65"/>
     <use x="954.449219" xlink:href="#DejaVuSans-6c"/>
     <use x="982.232422" xlink:href="#DejaVuSans-61"/>
     <use x="1043.511719" xlink:href="#DejaVuSans-74"/>
     <use x="1082.720703" xlink:href="#DejaVuSans-69"/>
     <use x="1110.503906" xlink:href="#DejaVuSans-76"/>
     <use x="1169.683594" xlink:href="#DejaVuSans-6f"/>
    </g>
   </g>
   <g id="legend_1">
    <g id="patch_7">
     <path d="M 62.778125 234.758125 
L 139.625 234.758125 
Q 141.625 234.758125 141.625 232.758125 
L 141.625 144.855 
Q 141.625 142.855 139.625 142.855 
L 62.778125 142.855 
Q 60.778125 142.855 60.778125 144.855 
L 60.778125 232.758125 
Q 60.778125 234.758125 62.778125 234.758125 
z
" style="fill:#ffffff;opacity:0.8;stroke:#cccccc;stroke-linejoin:miter;"/>
    </g>
    <g id="line2d_142"/>
    <g id="line2d_143">
     <g>
      <use style="fill:#1f77b4;stroke:#1f77b4;" x="74.778125" xlink:href="#m770c9b62bb" y="150.953437"/>
     </g>
    </g>
    <g id="text_18">
     <!-- ldl -->
     <defs>
      <path d="M 45.40625 46.390625 
L 45.40625 75.984375 
L 54.390625 75.984375 
L 54.390625 0 
L 45.40625 0 
L 45.40625 8.203125 
Q 42.578125 3.328125 38.25 0.953125 
Q 33.9375 -1.421875 27.875 -1.421875 
Q 17.96875 -1.421875 11.734375 6.484375 
Q 5.515625 14.40625 5.515625 27.296875 
Q 5.515625 40.1875 11.734375 48.09375 
Q 17.96875 56 27.875 56 
Q 33.9375 56 38.25 53.625 
Q 42.578125 51.265625 45.40625 46.390625 
z
M 14.796875 27.296875 
Q 14.796875 17.390625 18.875 11.75 
Q 22.953125 6.109375 30.078125 6.109375 
Q 37.203125 6.109375 41.296875 11.75 
Q 45.40625 17.390625 45.40625 27.296875 
Q 45.40625 37.203125 41.296875 42.84375 
Q 37.203125 48.484375 30.078125 48.484375 
Q 22.953125 48.484375 18.875 42.84375 
Q 14.796875 37.203125 14.796875 27.296875 
z
" id="DejaVuSans-64"/>
     </defs>
     <g transform="translate(92.778125 154.453437)scale(0.1 -0.1)">
      <use xlink:href="#DejaVuSans-6c"/>
      <use x="27.783203" xlink:href="#DejaVuSans-64"/>
      <use x="91.259766" xlink:href="#DejaVuSans-6c"/>
     </g>
    </g>
    <g id="line2d_144"/>
    <g id="line2d_145">
     <g>
      <use style="fill:#ff7f0e;stroke:#ff7f0e;" x="74.778125" xlink:href="#me5c50811a0" y="165.631562"/>
     </g>
    </g>
    <g id="text_19">
     <!-- dl_kahan -->
     <defs>
      <path d="M 50.984375 -16.609375 
L 50.984375 -23.578125 
L -0.984375 -23.578125 
L -0.984375 -16.609375 
z
" id="DejaVuSans-5f"/>
      <path d="M 9.078125 75.984375 
L 18.109375 75.984375 
L 18.109375 31.109375 
L 44.921875 54.6875 
L 56.390625 54.6875 
L 27.390625 29.109375 
L 57.625 0 
L 45.90625 0 
L 18.109375 26.703125 
L 18.109375 0 
L 9.078125 0 
z
" id="DejaVuSans-6b"/>
      <path d="M 54.890625 33.015625 
L 54.890625 0 
L 45.90625 0 
L 45.90625 32.71875 
Q 45.90625 40.484375 42.875 44.328125 
Q 39.84375 48.1875 33.796875 48.1875 
Q 26.515625 48.1875 22.3125 43.546875 
Q 18.109375 38.921875 18.109375 30.90625 
L 18.109375 0 
L 9.078125 0 
L 9.078125 75.984375 
L 18.109375 75.984375 
L 18.109375 46.1875 
Q 21.34375 51.125 25.703125 53.5625 
Q 30.078125 56 35.796875 56 
Q 45.21875 56 50.046875 50.171875 
Q 54.890625 44.34375 54.890625 33.015625 
z
" id="DejaVuSans-68"/>
     </defs>
     <g transform="translate(92.778125 169.131562)scale(0.1 -0.1)">
      <use xlink:href="#DejaVuSans-64"/>
      <use x="63.476562" xlink:href="#DejaVuSans-6c"/>
      <use x="91.259766" xlink:href="#DejaVuSans-5f"/>
      <use x="141.259766" xlink:href="#DejaVuSans-6b"/>
      <use x="199.154297" xlink:href="#DejaVuSans-61"/>
      <use x="260.433594" xlink:href="#DejaVuSans-68"/>
      <use x="323.8125" xlink:href="#DejaVuSans-61"/>
      <use x="385.091797" xlink:href="#DejaVuSans-6e"/>
     </g>
    </g>
    <g id="line2d_146"/>
    <g id="line2d_147">
     <g>
      <use style="fill:#2ca02c;stroke:#2ca02c;" x="74.778125" xlink:href="#mf8d0b4c8ad" y="180.587812"/>
     </g>
    </g>
    <g id="text_20">
     <!-- dl -->
     <g transform="translate(92.778125 184.087812)scale(0.1 -0.1)">
      <use xlink:href="#DejaVuSans-64"/>
      <use x="63.476562" xlink:href="#DejaVuSans-6c"/>
     </g>
    </g>
    <g id="line2d_148"/>
    <g id="line2d_149">
     <g>
      <use style="fill:#d62728;stroke:#d62728;" x="74.778125" xlink:href="#m122e1406b1" y="195.265937"/>
     </g>
    </g>
    <g id="text_21">
     <!-- di_kahan -->
     <g transform="translate(92.778125 198.765937)scale(0.1 -0.1)">
      <use xlink:href="#DejaVuSans-64"/>
      <use x="63.476562" xlink:href="#DejaVuSans-69"/>
      <use x="91.259766" xlink:href="#DejaVuSans-5f"/>
      <use x="141.259766" xlink:href="#DejaVuSans-6b"/>
      <use x="199.154297" xlink:href="#DejaVuSans-61"/>
      <use x="260.433594" xlink:href="#DejaVuSans-68"/>
      <use x="323.8125" xlink:href="#DejaVuSans-61"/>
      <use x="385.091797" xlink:href="#DejaVuSans-6e"/>
     </g>
    </g>
    <g id="line2d_150"/>
    <g id="line2d_151">
     <g>
      <use style="fill:#9467bd;stroke:#9467bd;" x="74.778125" xlink:href="#m5ae908d1b3" y="210.222187"/>
     </g>
    </g>
    <g id="text_22">
     <!-- di -->
     <g transform="translate(92.778125 213.722187)scale(0.1 -0.1)">
      <use xlink:href="#DejaVuSans-64"/>
      <use x="63.476562" xlink:href="#DejaVuSans-69"/>
     </g>
    </g>
    <g id="line2d_152"/>
    <g id="line2d_153">
     <g>
      <use style="fill:#8c564b;stroke:#8c564b;" x="74.778125" xlink:href="#m6cade88e30" y="224.900312"/>
     </g>
    </g>
    <g id="text_23">
     <!-- fi_kahan -->
     <g transform="translate(92.778125 228.400312)scale(0.1 -0.1)">
      <use xlink:href="#DejaVuSans-66"/>
      <use x="35.205078" xlink:href="#DejaVuSans-69"/>
      <use x="62.988281" xlink:href="#DejaVuSans-5f"/>
      <use x="112.988281" xlink:href="#DejaVuSans-6b"/>
      <use x="170.882812" xlink:href="#DejaVuSans-61"/>
      <use x="232.162109" xlink:href="#DejaVuSans-68"/>
      <use x="295.541016" xlink:href="#DejaVuSans-61"/>
      <use x="356.820312" xlink:href="#DejaVuSans-6e"/>
     </g>
    </g>
   </g>
  </g>
 </g>
 <defs>
  <clipPath id="pf103af42ea">
   <rect height="217.44" width="334.8" x="55.778125" y="22.318125"/>
  </clipPath>
 </defs>
</svg>
